generation,fitness,functionality,active_nodes,longest_path,time,gen_time,nc_gens,fitness_evals,graph_evals,node_evals,genotype
0,160.0,0.453125,11,4,0.0066699981689453125,6.667375564575195,0,0,0,0,"[ 5  1  0  0  2  3  5  3  0  3  2  2  5  3  0  0  0  7  3  8  1  2  1  6
  1  3  5  1  4  2  0  3  2  3 11 10  3  8 12  0  8 10  1  1 13  1 10 13
  4 12 15  1 10  9  1 17 13  5 14 18  5 16  0  0 14 21  5 22 20  4  1  3
  0  1 16  0 19  4 20]"
61,340,1.0,9,3,3.9688024520874023,64.95294805432928,0,3904,45367,271891,"[ 2  0  3  4  3  3  4  1  1  0  2  0  1  1  2  5  1  2  0  1  3  2  1  2
  4  7  5  5  7  3  0  3  0  0  7 10  1  8  3  4  2  5  5  1  2  1 10  2
  5 11 14  2  3 14  2 11 18  4 15 12  5 15 15  0  3  1  0 22 17  2 17 20
  0 23 16 15 23 20 10]"
100,341,1.0,8,3,5.66530704498291,43.50005663358248,0,6400,58557,380914,"[ 3  3  0  0  0  3  5  3  2  0  2  0  2  1  0  4  1  5  0  1  3  2  1  2
  1  7  7  1  3  2  0  3  0  0  7 10  5  1 11  5  2 13  5  5  9  2 16 14
  5 11 14  0  3 10  2 15 15  4 15 12  5 20 15  0  1 17  3  0 19  5 17 15
  5 16 16 15 23 20 10]"
200,342,1.0,7,3,9.61747932434082,39.5216965675354,0,12800,89910,617849,"[ 1  2  3  4  3  3  3  1  1  5  2  0  3  1  3  1  6  2  0  1  3  2  1  2
  0  2  0  1  8  1  0  3  0  0 12 10  2  6  5  1  2  4  0 13  8  3 14  3
  5 11 14  1 17  3  0  9  9  4 15 12  0 18 18  5 21 22  1 23 14  0 23  1
  0  0 21 15 23 20 10]"
300,342,1.0,7,3,13.230889081954956,36.13407611846924,0,19200,117891,814014,"[ 5  3  3  5  3  0  2  1  2  4  0  1  5  1  0  3  7  3  0  1  3  2  1  2
  0  2  0  3  8  2  0  3  0  0 12 10  0  3 12  5 13  7  4 11 13  3 13 10
  5 11 14  3 11 12  5 14  9  4 15 12  2 19 15  1 15 17  0 23  0  3  0 14
  3  0 22 15 23 20 10]"
400,342,1.0,7,3,16.882885694503784,36.51993989944458,0,25600,147356,1020386,"[ 1  2  1  2  0  3  1  1  1  2  0  2  1  1  1  4  6  7  0  1  3  2  1  2
  0  2  0  2  0  4  0  3  0  0 12 10  2 10  7  2 11  4  2  1  2  3 17 13
  5 18 14  1  2 11  1  0 17  4 15 12  3 14 19  0  1 19  3 15 21  1  3  1
  0 14  0 15 23 20 10]"
500,342,1.0,7,3,20.512746572494507,36.298582553863525,0,32000,175748,1218896,"[ 5  1  1  4  3  0  3  3  3  5  3  2  1  3  3  0  3  7  0  1  3  2  1  2
  0  2  0  3  3  7  0  3  0  0 12 10  3  5  5  0 12  9  1  9 12  4 12 15
  5 11 14  4  9 10  5  3 17  3 14 12  0 15 21  0 23 17  1 18 17  1 23  1
  1 14 15 15 19 20 10]"
600,342,1.0,7,3,24.163870573043823,36.51121377944946,0,38400,204545,1420430,"[ 1  3  1  5  3  1  2  1  0  2  0  0  5  0  1  5  6  3  0  1  3  2  1  2
  0  2  0  3  3  1  0  3  0  0 12 10  4  2  3  1 12  4  3  9  7  4 12 15
  5 11 14  1 12 14  5 13 13  5 16  2  0 17 22  0 19 23  2 17 22  2  0 18
  1  3  1 15 19 20 10]"
700,342,1.0,7,3,27.79749083518982,36.33617401123047,0,44800,233933,1625125,"[ 4  3  0  3  2  3  2  3  2  1  1  2  4  1  1  4  1  5  0  1  3  2  1  2
  0  2  0  3  3  4  0  3  0  0 12 10  4  6  8  5 12  8  0  0  8  4 12 15
  5 11 14  5  0 13  1  0 16  0  3 14  5 15 15  2 15  2  4 21 19  1 20 19
  0  1  1 15 19 20 10]"
800,342,1.0,7,3,31.45177173614502,36.54278755187988,0,51200,262657,1826053,"[ 0  3  3  1  2  2  1  2  2  4  2  2  0  1  3  1  5  1  0  1  3  2  1  2
  0  2  0  3  3  0  0  3  0  0 12 10  5 11  3  5  3  5  3  0  2  4 12 15
  5 11 14  4 14 11  0  3 14  1 15 17  1 17 20  3 23 23  1 20 22  1 22  3
  4  1 19 15 19 20 10]"
900,342,1.0,7,3,35.07123804092407,36.194636821746826,1,57600,291943,2030630,"[ 2  0  1  5  1  3  5  3  1  1  0  2  2  2  2  0  2  4  0  1  3  2  1  2
  0  2  0  1  7  2  0  3  0  0 12 10  2 11  4  1  0  0  3  3  6  4 12 15
  5 11 14  5 11  3  2 12 14  4  3 13  0 15 20  4 16 16  4 15 14  2 14  3
  2  0 19 15 19 20 10]"
1000,342,1.0,7,3,38.64230251312256,35.71061849594116,1,64000,320488,2229817,"[ 2  2  2  5  2  2  1  2  0  4  2  0  4  2  3  1  7  3  0  1  3  2  1  2
  0  2  0  1  8  8  0  3  0  0 12 10  3  2  9  0 11 13  1  9 10  4 12 15
  5 11 14  3  0 14  1  9  0  4 11 13  4 19 16  0 16 21  3 15 16  0 21 15
  4 17 17 15 19 20 10]"
1100,342,1.0,7,3,42.21839141845703,35.760862827301025,1,70400,349174,2430428,"[ 2  1  0  1  2  0  1  0  3  2  0  3  2  1  3  0  5  5  0  1  3  2  1  2
  0  2  0  2  2  5  0  3  0  0 12 10  3 10 10  0  0  8  2  3  5  4 12 15
  5 11 14  2 11  2  4 17 15  2 15 13  3  3 15  5  0  3  5 15 18  2 14  0
  4 17 21 15 19 20 10]"
1200,342,1.0,7,3,45.76246738433838,35.440733432769775,1,76800,377384,2627530,"[ 0  1  3  2  3  0  4  3  3  0  2  0  4  3  3  3  3  3  0  1  3  2  1  2
  0  2  0  1  2  6  0  3  0  0 12 10  1  0  4  0  8  6  1  9  4  4 12 15
  5 11 14  3 17  0  4 11 13  0 15 15  5 18 16  0 14 14  4  2  0  4 15 17
  3 17 20 15 19 20 10]"
1300,342,1.0,7,3,49.43804717063904,36.7557692527771,1,83200,406480,2830695,"[ 2  3  1  3  0  3  1  3  1  4  0  1  0  2  1  1  2  3  0  1  3  2  1  2
  0  2  0  3  5  4  0  3  0  0 12 10  2 10  2  2 12  5  5 11  4  4 12 15
  5 11 14  5  3 10  5 12 16  0 16  0  1 23  3  5  0 17  4 16 18  5 23  3
  3 16  0 15 19 20 10]"
1400,342,1.0,7,3,53.02628564834595,35.88236093521118,1,89600,435109,3030986,"[ 1  1  0  3  0  3  5  3  1  3  0  2  5  3  3  0  6  1  0  1  3  2  1  2
  0  2  0  2  2  8  0  3  0  0 12 10  2  7 13  1  6  9  4 12  7  4 12 15
  5 11 14  5 13 10  5 18 16  4 14  0  1  3 16  0 16 20  4 14  2  1 20 16
  5  2  0 15 19 20 10]"
1500,342,1.0,7,3,56.643932819366455,36.176443099975586,3,96000,464150,3234369,"[ 4  2  2  3  3  3  0  2  3  2  3  1  1  0  3  1  8  8  0  1  3  2  1  2
  0  2  0  0  0  3  0  3  0  0 12 10  2  2  7  1  1 13  4  2  6  4 12 15
  5 11 14  5 14  3  0 17  0  2 16 18  2 21 21  2  3  1  4 21  3  0 14 20
  1 21  3 15 19 20 10]"
1600,342,1.0,7,3,60.24754357337952,36.03607892990112,3,102400,493053,3436621,"[ 4  1  0  5  2  3  5  2  3  2  0  0  2  1  0  2  8  2  0  1  3  2  1  2
  0  2  0  0  2  3  0  3  0  0 12 10  0 10  7  4  3  3  1  7 10  4 12 15
  5 11 14  4  9 15  3 12 13  4 14  0  2 20 21  1 19 19  3 17 16  2 17 23
  0 22 18 15 19 20 10]"
1700,342,1.0,7,3,63.797598123550415,35.50051689147949,3,108800,521069,3632686,"[ 4  0  2  1  2  0  0  3  1  2  1  1  3  3  0  5  6  5  0  1  3  2  1  2
  0  2  0  3  3  6  0  3  0  0 12 10  2 13  4  4 13  0  4  1  3  4 12 15
  5 11 14  0  1 13  2  0  9  4 17 16  1 18 16  0  1 17  1  1  2  2 18  2
  1 23  0 15 19 20 10]"
1800,342,1.0,7,3,67.39052271842957,35.929224491119385,3,115200,549873,3834458,"[ 5  0  2  2  1  0  3  1  1  4  0  1  4  0  3  2  8  3  0  1  3  2  1  2
  0  2  0  0  0  4  0  3  0  0 12 10  2  4 11  3  5  0  0 11  3  4 12 15
  5 11 14  2  3 17  0 17 12  5 12 11  1  2 22  5  3  3  5 19 18  2 18 18
  3 15 16 15 19 20 10]"
1900,342,1.0,7,3,71.07340884208679,36.828837394714355,3,121600,578868,4037316,"[ 3  0  2  4  0  3  2  2  2  2  0  3  0  0  2  2  4  1  0  1  3  2  1  2
  0  2  0  3  3  1  0  3  0  0 12 10  5  6  9  3  8 12  5 13  6  4 12 15
  5 11 14  5 17 12  0  9  2  1 16  1  2 14 20  3 23  0  5 17 20  0  0 23
  5 23  1 15 19 20 10]"
2000,342,1.0,7,3,74.66319489479065,35.89783430099487,3,128000,607515,4237828,"[ 4  0  3  3  2  2  3  2  1  5  2  1  0  2  1  2  2  1  0  1  3  2  3  3
  0  2  0  2  8  3  0  3  0  0 12 10  3  1  7  2  9 13  1 10  7  4 12 15
  5  9 14  0 14 16  2 13 13  4 14  9  2 16 22  3 14 17  1 17  0  5 18  2
  0 14  0 15 19 20 10]"
2100,342,1.0,7,3,78.34361505508423,36.80417776107788,3,134400,637230,4446105,"[ 0  1  3  5  1  3  4  3  0  1  2  2  4  1  2  2  2  1  0  1  3  0  3  0
  0  2  0  4  7  2  1  8  7  0 12 10  5  1  9  1  4  4  2  7  8  4 12 15
  5  9 11  1 13 12  2  1 10  0  3 15  3  0 23  0  0 15  4 21 19  1 15 21
  1 19  0 15 19 20 10]"
2200,342,1.0,7,3,81.99435997009277,36.50742292404175,3,140800,666781,4652969,"[ 5  1  3  3  2  3  4  2  3  1  0  1  3  1  1  2  2  1  0  1  3  0  3  0
  0  2  0  0  8  6  0 11  0  0 12 10  4 13  2  2  3 12  2  6  0  4 12 15
  5  9 11  4  3 16  2 11 13  1  1 12  4 21  3  3 20 16  2 22  1  5 15 18
  1 18 19 15 19 20 10]"
2300,342,1.0,7,3,85.61502766609192,36.206650733947754,3,147200,695990,4857158,"[ 5  1  1  5  0  0  5  0  0  4  1  0  1  1  0  2  2  1  0  1  3  0  3  0
  0  2  0  5  2  6  4  6 10  0 12 10  5  8  2  1  3  1  1  7 12  4 12 15
  5  9 11  5 11 11  5  0 14  4 12  2  0  0 23  0  0 22  3 22 16  0 18  1
  2 19 15 15 19 20 10]"
2400,342,1.0,7,3,89.27376174926758,36.58731460571289,4,153600,725608,5064265,"[ 4  0  3  0  1  1  5  0  2  4  1  1  4  2  2  2  2  1  0  1  3  0  3  0
  0  2  0  2  2  8  0 12 13  0 12 10  1  4 13  1  1 12  3  6  4  4 12 15
  5  9 11  2 17 11  0  1 16  5 13 17  2 23 18  4 16 19  4 21  0  1  0  1
  5 23  1 15 19 20 10]"
2500,342,1.0,7,3,92.87858891487122,36.048245429992676,4,160000,754534,5266557,"[ 0  1  1  5  1  0  2  0  3  4  2  1  2  1  3  2  2  1  0  1  3  0  3  0
  0  2  0  3  7  2  4  9  1  0 12 10  4 13  1  2  6  8  5  3  8  4 12 15
  5  9 11  0  0  0  2 12  9  4 13 17  3  2 18  3 19 21  0 19  2  2 21 14
  1 16  1 15 19 20 10]"
2600,342,1.0,7,3,96.4959785938263,36.17387533187866,4,166400,783353,5467876,"[ 4  0  0  2  1  1  0  1  3  2  2  1  5  0  2  2  2  1  0  1  3  0  3  0
  0  2  0  2  6  3  2 11  8  0 12 10  3  0  2  3  5 13  5  8  9  4 12 15
  5  9 11  2  3 18  5 18 16  1 17 10  3 22 18  3 17 15  2 19 19  3 18  0
  3 17 22 15 19 20 10]"
2700,342,1.0,7,3,100.07757830619812,35.81597089767456,4,172800,811961,5667425,"[ 4  1  1  3  1  1  2  2  1  0  0  3  5  0  3  2  2  1  0  1  3  0  3  0
  0  2  0  3  8  8  3 13 12  0 12 10  5  3  1  2 12 11  1  8 10  4 12 15
  5  9 11  0  1 17  2 15  9  3  9 12  4 15 20  3  0  2  1 15 18  3 17 21
  0 15 19 15 19 20 10]"
2800,342,1.0,7,3,103.72799754142761,36.50416851043701,4,179200,841405,5872877,"[ 2  1  0  3  2  3  3  2  2  0  3  2  5  0  1  2  2  1  0  1  3  0  3  0
  0  2  0  3  8  5  2  2 12  0 12 10  2 10 12  3 10 12  5 12  3  4 12 15
  5  9 11  1  3 14  3  2 17  5 10 13  0 21 15  1 14 19  0 19  3  4 18  0
  3  1 17 15 19 20 10]"
2900,342,1.0,7,3,107.38252782821655,36.5452766418457,4,185600,871113,6080024,"[ 3  1  2  0  0  2  3  3  0  0  1  2  0  3  0  2  2  1  0  1  3  0  3  0
  0  2  0  3  5  1  1  4  1  0 12 10  2  8  8  5 11 13  5  5 11  4 12 15
  5  9 11  0  1 12  3 16 14  0  0 15  3 17 18  5  2 15  0 17 19  2  1  2
  0 14 18 15 19 20 10]"
3000,342,1.0,7,3,111.06826901435852,36.85738563537598,4,192000,900185,6283613,"[ 2  3  0  5  3  0  2  3  0  0  2  2  3  2  2  2  2  1  0  1  3  0  3  0
  0  2  0  3  8  4  4  8  4  0 12 10  3  7  1  1 13  6  2  1 12  4 12 15
  5  9 11  0  0  9  1 16 10  3 12 18  5 14 19  1 22 14  5  2 15  3  1  3
  1  1 15 15 19 20 10]"
3100,342,1.0,7,3,114.61818623542786,35.49914598464966,5,198400,928366,6480905,"[ 0  3  0  4  0  0  2  0  0  2  3  3  0  1  0  2  2  1  0  1  3  0  3  0
  0  2  0  2  1  7  4  9  0  0 12 10  1  8  6  2  8  0  0  1  4  4 12 15
  5  9 11  2  0 10  4 16  2  2 10 10  5  2 19  3 14 14  2  2  1  3 21  0
  4 16  2 15 19 20 10]"
3200,342,1.0,7,3,118.30261874198914,36.844303607940674,5,204800,958057,6688178,"[ 4  0  1  3  0  3  4  3  0  0  3  2  5  2  0  2  2  1  0  1  3  0  3  0
  0  2  0  2  2  8  2  9 12  0 12 10  2  7  2  1  2  6  3  7  1  4 12 15
  5  9 11  1 15 10  0 14 12  4 10  3  0 18 17  3  1 23  2 14  1  2 23 14
  2 23  0 15 19 20 10]"
3300,342,1.0,7,3,122.02815532684326,37.25534200668335,5,211200,988058,6897502,"[ 0  1  0  0  1  0  5  2  3  5  3  2  3  0  1  2  2  1  0  1  3  0  3  0
  0  2  0  1  4  5  2 13  7  0 12 10  5 11 12  1 10  7  3  8  1  4 12 15
  5  9 11  0 18  1  4 16 17  0 16 16  1 23 21  4  3 19  5 23 16  0 17 22
  0 19  3 15 19 20 10]"
3400,342,1.0,7,3,125.69907450675964,36.709163188934326,5,217600,1017839,7105759,"[ 2  1  1  1  1  0  1  1  2  0  0  3  1  1  3  2  2  1  0  1  3  0  3  0
  0  2  0  2  1  6  5 11  2  0 12 10  2  2  3  3 13  3  1  8  8  4 12 15
  5  9 11  0 11 17  1 12  0  4  2 10  3 23 18  3 19 23  5  1 22  0 20 16
  5 20 14 15 19 20 10]"
3500,342,1.0,7,3,129.3031826019287,36.04105472564697,5,224000,1046897,7308804,"[ 3  2  0  4  0  2  5  2  0  2  2  1  3  3  1  2  2  1  0  1  3  0  3  0
  0  2  0  4  6  0  0  8  6  0 12 10  1  0 13  1  3  9  1  5  3  4 12 15
  5  9 11  0  9 11  1 12 17  2 11 14  5 18 15  3  1 19  1  2 20  5 21 15
  5  3  0 15 19 20 10]"
3600,342,1.0,7,3,132.93958401679993,36.36398792266846,5,230400,1076261,7513789,"[ 2  1  0  1  2  1  5  2  1  2  0  1  0  3  1  2  2  1  0  1  3  0  3  0
  0  2  0  1  1  6  0  2 12  0 12 10  5  1  5  5  8  1  4 10 10  4 12 15
  5  9 11  2 14 12  3  3  0  3 10 17  0 16 22  0 15 16  1 20 22  1 20 20
  2 22 23 15 19 20 10]"
3700,342,1.0,7,3,136.60332989692688,36.63743734359741,5,236800,1105536,7717516,"[ 0  3  1  5  3  2  4  0  3  5  3  0  5  0  0  2  2  1  0  1  3  0  3  0
  0  2  0  5  1  4  4 13  0  0 12 10  4  1  5  1  7  7  0 10 10  4 12 15
  5  9 11  3 14 10  3 14  3  1 10 14  3  2  2  1 20 17  5 15 21  0  1  1
  5 20  1 15 19 20 10]"
3800,342,1.0,7,3,140.23203682899475,36.28704309463501,5,243200,1134907,7922698,"[ 5  2  3  2  2  1  2  0  2  3  1  3  3  3  1  2  2  1  0  1  3  0  3  0
  0  2  0  5  5  5  0  1  8  0 12 10  2 12 10  5  6  2  1  5  6  4 12 15
  5  9 11  5  2 11  1 16 10  5 10  3  4 16 20  3 16  3  5 14 15  0 19 19
  1 17 18 15 19 20 10]"
3900,342,1.0,7,3,143.8537037372589,36.21664762496948,5,249600,1164046,8126230,"[ 1  3  3  1  3  3  0  1  1  1  3  0  4  1  1  2  2  1  0  1  3  0  3  0
  0  2  0  3  0  5  4 12  3  0 12 10  2  7  0  2  0  5  0  5  9  4 12 15
  5  9 11  4 17 14  1 17  3  1 12 15  5 22 19  3  0 17  0 18  0  3 14  3
  1  0 14 15 19 20 10]"
4000,342,1.0,7,3,147.63398933410645,37.80282974243164,5,256000,1194693,8340116,"[ 2  2  0  1  2  0  4  3  1  5  0  1  3  1  1  2  2  1  0  1  3  0  3  0
  0  2  0  5  1  2  2  1  1  0 12 10  5 13  8  5  1 13  0 10 13  4 12 15
  5  9 11  2 13  3  2  0 10  0 10 14  0 15 19  3 22  1  3 23  1  1 21 22
  2 18 23 15 19 20 10]"
4100,342,1.0,7,3,151.2956531047821,36.616599559783936,5,262400,1223871,8543721,"[ 2  1  3  0  2  3  2  0  1  0  0  3  4  1  0  2  2  1  0  1  3  0  3  0
  0  2  0  2  3  1  0 13  6  0 12 10  3  1  6  5  1 12  4  3  6  4 12 15
  5  9 11  4 12  1  3 18  9  5  1  2  3  1  3  3  3 15  2 18 15  3 18  2
  3 21 21 15 19 20 10]"
4200,342,1.0,7,3,154.94219660758972,36.46540641784668,5,268800,1253253,8748781,"[ 0  0  2  3  2  0  4  3  3  3  3  1  2  1  0  2  2  1  0  1  3  0  3  0
  0  2  0  2  3  5  1 13  4  0 12 10  0  6  9  2  1  6  4  3  3  4 12 15
  5  9 11  4  1 18  1 11 10  4  1  9  5  2 21  0 16  1  2 22 21  4 15 22
  2 15 17 15 19 20 10]"
4300,342,1.0,7,3,158.59375524520874,36.51555776596069,5,275200,1282964,8956677,"[ 1  2  1  2  1  3  2  2  3  0  1  3  4  3  1  2  2  1  0  1  3  0  3  0
  0  2  0  4  5  5  4  9  6  0 12 10  1  4 13  1  8  5  5  4  3  4 12 15
  5  9 11  5 12 13  3 18 14  1 15  9  3 18 22  1 16  0  3 18 16  3 23 14
  2  0 21 15 19 20 10]"
4400,342,1.0,7,3,162.32655787467957,37.32800245285034,5,281600,1311895,9159290,"[ 2  2  3  2  1  3  4  2  0  2  0  2  4  1  3  2  2  1  0  1  3  0  3  0
  0  2  0  0  5  6  1  6  1  0 12 10  1  2 10  1  1  5  2  6  9  4 12 15
  5  9 11  2 11 16  1  1 10  3 10 15  0 18 20  3 23 15  2 17 17  1 17 21
  2 19 21 15 19 20 10]"
4500,342,1.0,7,3,165.9403259754181,36.137659549713135,5,288000,1340990,9362384,"[ 5  1  1  3  3  2  1  0  0  2  1  0  5  3  0  2  2  1  0  1  3  0  3  0
  0  2  0  5  5  8  3  9 13  0 12 10  1  4 11  2  1  1  1  6 12  4 12 15
  5  9 11  5 13 17  0  0 12  3  1 13  3  1  2  3  3 15  5 19 16  1  3 21
  2 21  2 15 19 20 10]"
4600,342,1.0,7,3,169.6480176448822,37.0768928527832,5,294400,1370463,9568863,"[ 3  3  0  5  0  0  1  3  0  5  2  3  5  3  2  2  2  1  0  1  3  0  3  0
  0  2  0  5  5  8  0  0  0  0 12 10  1  6  1  1  6  9  2  8 13  4 12 15
  5  9 11  5 12 13  2 16  9  2  0  1  0  1  3  5 16  3  4  1 15  1 21 23
  5 18 19 15 19 20 10]"
4700,342,1.0,7,3,173.31621885299683,36.68198585510254,5,300800,1399904,9774304,"[ 1  0  2  0  1  1  0  1  1  3  2  2  5  1  0  2  2  1  0  1  3  0  3  0
  0  2  0  3  3  5  2  4  8  0 12 10  3 10  6  0  2  3  4  1  7  4 12 15
  5  9 11  2 11 15  3 18 10  1  2  1  0  2 22  2 14  0  0 20  2  3  3  1
  1 23 15 15 19 20 10]"
4800,342,1.0,7,3,176.98284363746643,36.666221618652344,5,307200,1429546,9980934,"[ 1  1  2  4  1  3  3  1  2  4  3  2  5  2  3  2  2  1  0  1  3  0  3  0
  0  2  0  4  7  1  0  9  2  0 12 10  0  7 11  3  2  4  0  3 11  4 12 15
  5  9 11  5  0 10  5 14  1  4 13 16  0 23 19  3 21 19  2 15 16  4 22  1
  2  1  1 15 19 20 10]"
4900,342,1.0,7,3,180.67030930519104,36.87463045120239,5,313600,1458726,10185042,"[ 3  3  0  4  0  2  1  3  2  1  2  0  5  3  2  2  2  1  0  1  3  0  3  0
  0  2  0  1  7  4  5  5  7  0 12 10  2  9  1  2  0 13  4  5  6  4 12 15
  5  9 11  3 15 13  1 15 13  1 17 12  3 20 23  4  0  3  0 22 18  1 22 19
  2  1 15 15 19 20 10]"
5000,342,1.0,7,3,184.28515195846558,36.14840269088745,5,320000,1487594,10386578,"[ 1  1  2  3  2  1  5  0  2  4  1  3  5  0  1  2  2  1  0  1  3  0  3  0
  0  2  0  0  5  8  0  2  2  0 12 10  1  8  8  2  5  8  1  4 10  4 12 15
  5  9 11  3  2 13  1  3 17  4 15 15  4 22 17  5 22  3  3 14 14  3  1 14
  1 20 16 15 19 20 10]"
5100,342,1.0,7,3,187.90228629112244,36.17131233215332,5,326400,1516669,10589712,"[ 5  1  1  4  0  0  4  0  3  4  2  3  0  2  0  2  2  1  0  1  3  0  3  0
  0  2  0  3  4  1  3  1  7  0 12 10  0  8  3  4 11  3  1  3  0  4 12 15
  5  9 11  3  2 16  5 14 18  1 16 10  0 15 20  5  0 14  5 23  0  0  0 18
  4 16 19 15 19 20 10]"
5200,342,1.0,7,3,191.60247898101807,37.0019006729126,5,332800,1546756,10799410,"[ 4  3  3  3  1  0  5  0  3  3  0  0  0  1  0  2  2  1  0  1  3  0  3  0
  0  2  0  2  7  8  3 11  6  0 12 10  2 12 13  4 10  9  2 10 10  4 12 15
  5  9 11  1  0  0  5 18 13  0  9 15  1 20 16  1 16  0  5 18  1  2 14 21
  5  1 15 15 19 20 10]"
5300,342,1.0,7,3,195.31174278259277,37.09261417388916,5,339200,1576299,11005927,"[ 3  1  2  1  3  1  1  2  0  1  1  2  5  1  0  2  2  1  0  1  3  5  6  7
  0  2  0  0  3  0  4 10  6  0 12 10  4  2  5  1  7  8  0  5  1  4 12 15
  5  9 13  4 17 10  4  9 10  3 12  2  4 14 20  3 18  1  4 14 20  1 16 21
  4 16 21 15 19 20 10]"
5400,342,1.0,7,3,198.97185945510864,36.60114288330078,5,345600,1605798,11212292,"[ 1  2  2  0  0  1  1  0  2  3  3  3  4  0  2  2  2  1  0  1  3  2  8  4
  0  2  0  0  3  0  5 10 13  0 12 10  5 13  6  3  2 11  2  5  3  4 12 15
  5  9 13  4 12 18  1  9 16  3  2 14  4  2 18  5 21 18  5 15 19  5 16  1
  1 21 22 15 19 20 10]"
5500,342,1.0,7,3,202.57545685768127,36.03595018386841,5,352000,1634754,11414847,"[ 4  1  0  2  1  0  5  1  2  1  0  2  0  3  2  2  2  1  0  1  3  1  3  8
  0  2  0  0  3  0  4  7  0  0 12 10  5 11  9  3  9  4  1  6  3  4 12 15
  5  9 13  4 13  1  3  0 16  1  1  2  1 19 20  1 20 21  4 17  1  1 21 16
  3 15 21 15 19 20 10]"
5600,342,1.0,7,3,206.21271467208862,36.372554302215576,5,358400,1664125,11619746,"[ 3  3  3  5  3  0  2  2  0  3  3  1  4  1  2  2  2  1  0  1  3  3  4  3
  0  2  0  0  3  0  1  3  2  0 12 10  4 12 10  5  9  4  0  2  4  4 17 15
  5  9 13  1 17  1  4 11 15  4 15 12  0 17 16  1 18 16  2  3 17  4 22 23
  4 22 23 15 23 20 10]"
5700,342,1.0,7,3,209.93566346168518,37.22946643829346,5,364800,1693978,11828292,"[ 4  3  0  0  1  2  0  0  0  3  1  0  2  3  2  2  2  1  0  1  3  4  1  4
  0  2  0  2  2  7  0  5  9  0 12 10  0  0  3  5  1  2  0  7  8  0 12  9
  5  9 16  5 11 11  3 17  1  4 15 12  5  0  1  1  3 17  5 15 23  1 21 18
  1 18  1 15 23 20 10]"
5800,342,1.0,7,3,213.61380410194397,36.78138256072998,5,371200,1723186,12032420,"[ 0  0  1  5  2  2  2  1  0  3  2  3  1  0  0  2  2  1  0  1  3  4  6  2
  0  2  0  3  0  4  4  6 13  0 12 10  0  0  3  1  7  2  1 13  4  5 11  9
  5  9 16  1  0  2  3  2 12  4 15 12  5 16 22  2  3  1  2 18  0  0 14 19
  4 20 20 15 23 20 10]"
5900,342,1.0,7,3,217.25080013275146,36.36993408203125,5,377600,1751616,12231383,"[ 3  3  3  2  3  3  1  2  0  3  2  3  0  2  0  2  2  1  0  1  3  4  1  3
  0  2  0  5  4  0  4 12  8  0 12 10  0  0  3  3 10 12  2  4  4  5 17 18
  5  9 16  2 11 12  5 18 18  4 15 12  1 21 20  3 20 17  2 14  3  5 16 21
  2 15 14 15 23 20 10]"
6000,342,1.0,7,3,221.0125436782837,37.617409229278564,5,384000,1781465,12439529,"[ 5  1  3  4  0  3  3  1  3  3  1  1  5  3  0  2  2  1  0  1  3  1  1  1
  0  2  0  4  4  3  3  9  4  0 12 10  0  0  3  2  3  1  3  9  8  4 13  3
  5  9 16  5  1  3  1 14 13  4 15 12  4 21 17  0 21 16  3 23 16  3 21 16
  4 15 16 15 23 20 10]"
6100,342,1.0,7,3,224.63510751724243,36.22560501098633,5,390400,1810584,12642589,"[ 1  0  2  0  1  3  2  2  2  0  2  1  0  2  1  2  2  1  0  1  3  1  0  2
  0  2  0  5  4  7  1  0  9  0 12 10  0  0  3  0 11  9  2  9  0  5 18 12
  5  9 16  3 13 17  5 16 14  4 15 12  4 21 19  1 22 19  2 22  3  1 22  1
  0 23 19 15 23 20 10]"
6200,342,1.0,7,3,228.2556483745575,36.205382347106934,5,396800,1839750,12846423,"[ 2  3  0  5  1  1  4  3  2  1  0  1  5  2  0  2  2  1  0  1  3  5  4  2
  0  2  0  1  8  7  0  4  6  0 12 10  0  0  3  4 12  4  3  8  1  1 10  3
  5  9 16  4 12 13  5 16 17  4 15 12  4 14 17  5  1 19  2  3 22  1 17 23
  1 23 15 15 23 20 10]"
6300,342,1.0,7,3,231.9836368560791,37.27985858917236,5,403200,1868741,13048973,"[ 1  1  3  5  0  0  1  0  0  0  2  0  4  2  1  2  2  1  0  1  3  3  1  4
  0  2  0  4  7  6  4  2  7  0 12 10  0  0  3  0  7  3  3  5  7  0 13 15
  5  9 16  1 18 18  4 10  0  4 15 12  5 19  3  0 19  3  1  2 14  2 23  2
  4 22  1 15 23 20 10]"
6400,342,1.0,7,3,235.6586844921112,36.750452518463135,5,409600,1897697,13251697,"[ 2  2  2  4  0  3  1  3  3  5  2  3  3  1  2  2  2  1  0  1  3  2  4  7
  0  2  0  2  8  4  4  5 12  0 12 10  0  0  3  2  8  9  2  6 11  1  9  2
  5  9 16  2 15 17  1 16  2  4 15 12  4 16  2  0  2 14  4  1 20  4  1  2
  2 18 16 15 23 20 10]"
6500,342,1.0,7,3,239.3044309616089,36.457438468933105,5,416000,1925774,13448216,"[ 4  3  2  5  1  1  2  2  0  1  3  2  5  2  1  2  2  1  0  1  3  2  2  3
  0  2  0  3  7  0  2  8  6  0 12 10  0  0  3  3 13  3  0  0  1  2  0 13
  5  9 16  0 13 15  0 11 17  4 15 12  5  1  0  1  2 19  4  2 21  1 14 21
  2 15 17 15 23 20 10]"
6600,342,1.0,7,3,242.98595547676086,36.815218925476074,5,422400,1954403,13648483,"[ 3  0  3  4  1  3  0  3  3  2  2  0  0  3  0  2  2  1  0  1  3  1  7  4
  0  2  0  1  8  4  3  7 12  0 12 10  0  0  3  2 11  2  3  5  7  1 11 13
  5  9 16  3 18 10  5  9  1  4 15 12  4 23  2  4 20 19  5 19 21  2 20  1
  3  3 14 15 23 20 10]"
6700,342,1.0,7,3,246.66845989227295,36.82501792907715,5,428800,1984199,13856998,"[ 1  1  2  0  3  0  1  2  3  0  2  3  5  3  1  2  2  1  0  1  3  3  6  6
  0  2  0  0  0  3  3 10  0  0 12 10  1  4  1  1  2 11  2  7 13  1  3  0
  5  9 13  1 12 18  1  0 18  4 15 12  4 16 19  3 18 17  4 23 19  1 19 16
  4 17 15 15 23 20 10]"
6800,342,1.0,7,3,250.31161785125732,36.43155574798584,5,435200,2013671,14062640,"[ 2  0  3  2  1  1  4  3  2  0  1  3  3  0  1  2  2  1  0  1  3  5  2  8
  0  2  0  0  0  3  1  9 13  0 12 10  1  4  2  0  2 11  4  0  0  4 13  1
  5  9 13  2 16 13  4  3 15  4 15 12  1  2 23  1 14 15  0  0 22  4 21 20
  5 20 14 15 23 20 10]"
6900,342,1.0,7,3,253.98257613182068,36.70955419540405,5,441600,2043569,14271121,"[ 4  0  0  3  3  1  2  2  1  5  2  3  3  0  3  2  2  1  0  1  3  0  6  4
  0  2  0  0  0  3  0  0  7  0 12 10  5 13  0  5  6 11  0  0  0  0  2 13
  5  9 13  1  9  0  3  3 13  4 15 12  4 15  0  4 20 18  5  0 20  4  2 16
  5  2 20 15 23 20 10]"
7000,342,1.0,7,3,257.665807723999,36.832289695739746,5,448000,2073091,14477852,"[ 5  1  1  1  0  3  1  3  2  0  0  0  1  3  3  2  2  1  0  1  3  4  2  2
  0  2  0  0  0  3  0  0  8  0 12 10  2 10  4  3  5  4  3  6  6  3 13 18
  5  9 13  4  1 11  3 13 16  4 15 12  5 17 16  4  0 22  4 17 21  5 16 16
  0 17 15 15 23 20 10]"
7100,342,1.0,7,3,261.33671951293945,36.709091663360596,5,454400,2102236,14681348,"[ 2  2  1  0  0  0  1  1  3  4  1  3  4  3  2  2  2  1  0  1  3  3  0  8
  0  2  0  0  0  3  2  0  8  0 12 10  2  7  4  2  3  1  5 12  6  3  9  1
  5  9 13  2  9 15  0 11  1  4 15 12  0  1 22  3  1 22  5 16 20  3 16 21
  4 22 14 15 23 20 10]"
7200,342,1.0,7,3,265.10176849365234,37.650465965270996,5,460800,2132236,14890288,"[ 5  2  1  3  1  1  4  1  3  1  0  1  5  2  0  2  2  1  0  1  3  0  4  8
  0  2  0  0  0  3  2  4  2  0 12 10  0  1  4  5  9  2  0 12  0  1 12 12
  5  9 13  0  9 13  5 16 14  4 15 12  5  1 18  3  2  0  0 15  1  4 22 17
  4 20 17 15 23 20 10]"
7300,342,1.0,7,3,268.75613141059875,36.54360771179199,5,467200,2161497,15094455,"[ 2  0  3  2  2  2  3  1  2  3  2  2  3  1  2  2  2  1  0  1  3  2  2  7
  0  2  0  0  0  3  2 10  6  0 12 10  4  3  5  0  4  8  3 12 10  4 14 14
  5  9 13  1 17 18  1  3  2  4 15 12  4 20 23  5 21  1  2 18 15  2 21 22
  0 23 14 15 23 20 10]"
7400,342,1.0,7,3,272.36728596687317,36.11151933670044,5,473600,2190558,15298019,"[ 2  1  1  2  1  0  1  1  2  5  3  0  4  3  2  2  2  1  0  1  3  1  7  6
  0  2  0  0  0  3  4 13  0  0 12 10  4 10  4  2  3  8  3 11  0  0 17 13
  5  9 13  4  2 18  2  0 17  4 15 12  1  2 18  4 17 18  5  1 21  3 23 17
  2 18  0 15 23 20 10]"
7500,342,1.0,7,3,276.0011098384857,36.33821725845337,5,480000,2219809,15502930,"[ 4  3  0  2  1  2  2  1  2  2  3  1  5  0  2  2  2  1  0  1  3  1  1  7
  0  2  0  0  0  3  4  6 11  0 12 10  5 11  6  4  4 10  0  0  0  4 10  3
  5  9 13  5  1 14  4 15  1  4 15 12  0  1 23  0  3 17  0 21 23  2 22 23
  4  0 18 15 23 20 10]"
7600,342,1.0,7,3,279.7150275707245,37.139155864715576,6,486400,2249309,15709247,"[ 2  3  0  0  1  2  3  1  1  3  0  1  2  2  3  2  2  1  0  1  3  2  0  5
  0  2  0  0  0  3  4  8  7  0 12 10  3  0  9  4 12  5  0 12  9  4 16 18
  5  9 13  5 14  1  0  2 11  4 15 12  2  3 16  1 23 23  0  1 18  4  1 14
  4 21 20 15 23 20 10]"
7700,342,1.0,7,3,283.35718035697937,36.42150402069092,6,492800,2278066,15910403,"[ 0  2  3  0  3  2  3  2  3  5  3  2  2  1  2  2  2  1  0  1  3  5  6  5
  0  2  0  0  0  3  2 10  5  0 12 10  3  2  0  1 12  9  3  7  4  1 17 15
  5  9 13  2 13 18  1  1  2  4 15 12  3  2  3  1  1 15  3  2 21  2 23 14
  5 20 17 15 23 20 10]"
7800,342,1.0,7,3,286.9784348011017,36.21251821517944,6,499200,2307236,16114268,"[ 5  0  0  5  3  0  4  3  3  0  1  0  1  0  1  2  2  1  0  1  3  0  4  8
  0  2  0  0  0  3  1 11 10  0 12 10  2  4  3  2  6 10  5  3  6  3 18 11
  5  9 13  3 14  3  4  0 10  4 15 12  4  2 16  3  1 18  0 19 14  2 22  2
  5 21  1 15 23 20 10]"
7900,342,1.0,7,3,290.63636302948,36.57925605773926,6,505600,2336899,16321602,"[ 5  3  0  0  3  3  5  2  0  0  0  0  1  1  2  2  2  1  0  1  3  1  4  1
  0  2  0  0  0  3  1  2  0  0 12 10  4 10  0  5  4  6  1  4 12  2 10 12
  5  9 13  1 12 13  4 14  2  4 15 12  5  3 19  5 18 16  2 22 19  3  1 17
  3  0  3 15 23 20 10]"
8000,342,1.0,7,3,294.22974276542664,35.93377113342285,6,512000,2365650,16522528,"[ 4  2  2  4  2  0  2  3  0  1  1  2  3  3  3  2  2  1  0  1  3  2  6  7
  0  2  0  0  0  3  2  4  3  0 12 10  2  5 10  0  3  8  4 12 10  3 10  3
  5  9 13  2 14 16  4 16 11  4 15 12  4  0 16  4 23 20  3 23  3  5 16  3
  3 15  1 15 23 20 10]"
8100,342,1.0,7,3,297.863436460495,36.3369083404541,6,518400,2394949,16727323,"[ 0  1  3  5  2  0  5  3  2  4  3  1  3  2  1  2  2  1  0  1  3  5  5  5
  0  2  0  0  0  3  3  4  0  0 12 10  2 11  8  0  1  5  5  5  8  1 15 12
  5  9 13  0  3 14  0 16  9  4 15 12  0  3 15  1 19 16  1 18  0  0 17 23
  1  3 14 15 23 20 10]"
8200,342,1.0,7,3,301.514785528183,36.51346445083618,6,524800,2424504,16933892,"[ 5  3  1  0  0  3  2  1  1  0  2  2  3  2  0  2  2  1  0  1  3  1  5  7
  0  2  0  0  0  3  2  4  4  0 12 10  2  6 12  1 11  4  3  8  8  4 13  9
  5  9 13  0 10 14  0 17 15  4 15 12  0  0  2  0  0 15  3  3 23  2  3 14
  0  1 20 15 23 20 10]"
8300,342,1.0,7,3,305.1753935813904,36.606056690216064,6,531200,2454109,17140817,"[ 3  2  2  3  1  0  3  0  0  1  2  0  5  0  3  2  2  1  0  1  3  2  4  4
  0  2  0  0  0  3  5 12  4  0 12 10  1 10 13  2  7 11  1  9 11  1 17  2
  5  9 13  4 15 10  5 18  2  4 15 12  4 19 19  0 20 16  2 17  2  0 17 20
  2 22  1 15 23 20 10]"
8400,342,1.0,7,3,308.7751798629761,35.99783658981323,6,537600,2482981,17342491,"[ 3  1  0  0  0  1  0  3  0  3  1  0  5  0  0  2  2  1  0  1  3  1  3  1
  0  2  0  0  0  3  4  9  8  0 12 10  3 13  8  1  3  9  0  1 12  2 10  0
  5  9 13  4  0 12  1 11 13  4 15 12  3 22 18  0 17 22  2  3 23  3 14 23
  5 14  2 15 23 20 10]"
8500,342,1.0,7,3,312.3614037036896,35.86221218109131,6,544000,2511883,17544153,"[ 5  3  0  1  0  2  4  1  0  3  1  0  4  0  3  2  2  1  0  1  3  1  5  7
  0  2  0  0  0  3  2 10  2  0 12 10  4 13  1  5 12  5  1  7  1  2  1  9
  5  9 13  3 15 10  3  9 17  4 15 12  1 17 21  4 19 15  5 23  2  4 14 19
  4 15 15 15 23 20 10]"
8600,342,1.0,7,3,316.03666257858276,36.75256967544556,6,550400,2541800,17753065,"[ 5  0  3  0  0  1  2  1  2  3  0  2  4  3  3  2  2  1  0  1  3  4  4  8
  0  2  0  0  0  3  2  3  3  0 12 10  1 11  6  3  3  5  0 12  8  1  0 16
  5  9 13  3  0 10  0 11  0  4 15 12  2  3 22  5 19 17  3 15  1  0 14 22
  2 14 20 15 23 20 10]"
8700,342,1.0,7,3,319.70136642456055,36.64701223373413,6,556800,2571439,17960420,"[ 0  0  2  2  1  2  4  1  3  4  1  3  5  2  3  2  2  1  0  1  3  0  3  8
  0  2  0  0  0  3  5  0  9  0 12 10  5  5  0  1 10  2  2 13 13  0 10 15
  5  9 13  1  9  0  4  2  9  4 15 12  3 19 21  5 20 17  1  0 15  4 22 18
  4  1 16 15 23 20 10]"
8800,342,1.0,7,3,323.4681763648987,37.668070793151855,6,563200,2600686,18164449,"[ 2  1  2  1  0  0  5  2  0  3  0  2  4  1  3  2  2  1  0  1  3  1  1  7
  0  2  0  0  0  3  2  2  1  0 12 10  5  5  8  5 12  4  0  0  1  4 17 16
  5  9 13  4  0  2  4 12 12  4 15 12  1 19  1  1 20  1  0 14  0  1  3  3
  4  1 17 15 23 20 10]"
8900,342,1.0,7,3,327.14195704460144,36.73778057098389,6,569600,2629867,18367691,"[ 2  3  3  2  1  1  3  1  1  0  0  0  1  3  2  2  2  1  0  1  3  5  8  0
  0  2  0  0  0  3  5  1  5  0 12 10  2  3  9  3  4  7  4 11 11  3 14 13
  5  9 13  1 11 15  5  9  3  4 15 12  5 20 18  1  0 19  2 15 21  1 17 21
  0  0 23 15 23 20 10]"
9000,342,1.0,7,3,330.819616317749,36.77657127380371,6,576000,2659483,18574717,"[ 2  3  3  2  0  0  3  3  2  4  2  0  0  2  3  2  2  1  0  1  3  4  3  5
  0  2  0  0  0  3  1  5  8  0 12 10  5  5  7  3  5  6  0  2  2  3 13 12
  5  9 13  2  9 18  0 18 16  4 15 12  4 23 18  5  3 16  2 23 21  2  1  0
  1  1 20 15 23 20 10]"
9100,342,1.0,7,3,334.4478840827942,36.28265380859375,6,582400,2688126,18774566,"[ 4  0  3  0  1  2  5  3  2  4  2  1  3  0  0  2  2  1  0  1  3  2  1  4
  0  2  0  0  0  3  5  8  3  0 12 10  4  8  8  3  2 13  0  3 13  2  3 13
  5  9 13  4 18  0  2  1 18  4 15 12  2  3  2  4 22 19  5 20 22  5  1 21
  0 18 14 15 23 20 10]"
9200,342,1.0,7,3,338.11003851890564,36.62152051925659,6,588800,2717837,18982140,"[ 0  1  0  5  3  0  5  3  1  0  0  2  1  0  1  2  2  1  0  1  3  0  2  4
  0  2  0  0  0  3  2 11  4  0 12 10  2  0 11  5  9  3  0  7  1  1 17 16
  5  9 13  4 12 10  0  1  1  4 15 12  1  1  1  5 18 19  1 18 15  1 22 21
  4 22 23 15 23 20 10]"
9300,342,1.0,7,3,341.79652166366577,36.86480522155762,6,595200,2747939,19192738,"[ 5  0  3  2  3  1  4  2  1  0  0  2  3  3  2  2  2  1  0  1  3  5  5  1
  0  2  0  0  0  3  2 13  4  0 12 10  4  7  1  4 10  4  1 11  6  1  0 16
  5  9 13  0  9 11  5 16  0  4 15 12  4 16 17  2  2 21  1 17 19  2 22  1
  2 18  1 15 23 20 10]"
9400,342,1.0,7,3,345.43685579299927,36.40331745147705,6,601600,2777178,19397126,"[ 3  1  1  1  1  3  0  1  2  2  3  1  2  0  1  2  2  1  0  1  3  3  2  6
  0  2  0  0  0  3  3  9  9  0 12 10  5  2  1  3  9 11  0  9  1  1 12 17
  5  9 13  5  1 10  5 16  3  4 15 12  3 19 20  0 14 19  5 19 22  2  2  1
  5 20 19 15 23 20 10]"
9500,342,1.0,7,3,349.1241822242737,36.87324047088623,6,608000,2807280,19606954,"[ 0  3  2  2  0  1  3  0  2  5  2  1  5  3  1  2  2  1  0  1  3  3  8  0
  0  2  0  0  0  3  4  5  3  0 12 10  4 10  5  2  3  6  3  1  0  0 18  9
  5  9 13  3 11 16  3  1 12  4 15 12  5  0 22  5 19  2  4 20  3  5 21 16
  2 16 14 15 23 20 10]"
9600,342,1.0,7,3,352.8124496936798,36.88265085220337,6,614400,2836291,19809386,"[ 1  0  3  5  3  3  1  1  0  0  1  0  3  0  1  2  2  1  0  1  3  0  1  0
  0  2  0  0  0  3  2 11 12  0 12 10  5  1  8  3  3  8  1 12  6  5  3  2
  5  9 13  5 17 17  1 10 15  4 15 12  4 16 23  2  2  3  1  3 17  1 20 18
  1  0 16 15 23 20 10]"
9700,342,1.0,7,3,356.42632365226746,36.138713359832764,6,620800,2865475,20013178,"[ 3  3  2  0  0  0  4  3  3  0  0  0  2  2  3  2  2  1  0  1  3  0  3  8
  0  2  0  0  0  3  4 11  5  0 12 10  0  0  3  0  4  7  2  1 12  1 15 12
  5  9 13  2  9 12  1 10 12  4 15 12  1  3  0  0 21  1  2  1  0  0  3 18
  5 21 22 15 23 20 10]"
9800,342,1.0,7,3,360.05562591552734,36.29299879074097,6,627200,2894955,20218910,"[ 5  1  1  5  0  2  1  3  1  5  3  2  3  1  0  2  2  1  0  1  3  1  6  0
  0  2  0  0  0  3  4 12  0  0 12 10  1  7  3  1  7  3  2  4 13  0  2 13
  5  9 13  1  9 13  4  2 14  4 15 12  2 22 16  0 22 19  0 23  3  2  2 23
  4 14  2 15 23 20 10]"
9900,342,1.0,7,3,363.6705927848816,36.14964246749878,6,633600,2924242,20423200,"[ 4  3  2  5  3  1  1  3  2  5  0  0  1  1  3  2  2  1  0  1  3  0  1  7
  0  2  0  0  0  3  5 11 13  0 12 10  4  0  1  1  2  1  1  1  9  4  0 13
  5  9 13  5 16 13  4  2 12  4 15 12  0 18 17  0  0 15  2 18 17  4 16 22
  2  1  2 15 23 20 10]"
10000,342,1.0,7,3,367.28708243370056,36.164870262145996,6,640000,2953507,20627451,"[ 1  1  3  2  1  0  1  1  1  5  2  3  3  1  1  2  2  1  0  1  3  5  2  4
  0  2  0  0  0  3  0  2 11  0 12 10  2 13 10  2  6  4  4 13  1  1  9  3
  5  9 13  5 13 13  0 11 11  4 15 12  0  3 23  0 14  0  0 21 16  4  0 14
  2 15 20 15 23 20 10]"
10100,342,1.0,7,3,370.9887990951538,37.01714038848877,6,646400,2983974,20839483,"[ 2  0  0  5  1  2  1  0  3  3  0  2  1  0  2  2  2  1  0  1  3  0  1  4
  0  2  0  0  0  3  3  7 12  0 12 10  1  9  9  0  7 11  2  1  9  4 13 14
  5  9 13  0  3  1  2 15 10  4 15 12  1  2  1  3 17 23  4 18  1  0  0  1
  5 15 22 15 23 20 10]"
10200,342,1.0,7,3,374.65653347969055,36.67732000350952,6,652800,3013328,21044544,"[ 2  2  3  0  3  0  1  1  1  1  1  1  1  0  3  2  2  1  0  1  3  4  1  8
  0  2  0  0  0  3  1  5  0  0 12 10  5  9  7  2 11  5  5 10  4  3 10 11
  5  9 13  3 12  0  3 14 14  4 15 12  3 20  2  5 18 17  5  3 18  4 19 23
  1 18 21 15 23 20 10]"
10300,342,1.0,7,3,378.2590444087982,36.02508544921875,7,659200,3042414,21247377,"[ 1  0  0  4  2  2  0  3  0  2  1  1  3  2  2  2  2  1  0  1  3  5  0  0
  0  2  0  0  0  3  2 10  0  0 12 10  5 10  1  0  1 13  5  6  9  4  0  1
  5  9 13  0 14 14  1 11 13  4 15 12  4 18  2  5 15  0  3 19  3  1 23 18
  5 16 14 15 23 20 10]"
10400,342,1.0,7,3,382.0642066001892,38.05159568786621,7,665600,3072218,21455697,"[ 3  0  0  4  2  3  1  0  2  1  3  2  1  1  0  2  2  1  0  1  3  1  5  0
  0  2  0  0  0  3  2 11  4  0 12 10  2  1  3  1  9  9  5 11 10  3 16 14
  5  9 13  3 16 17  3 17 16  4 15 12  0 19  0  3 22 15  5 19 16  4 15  2
  4 23 20 15 23 20 10]"
10500,342,1.0,7,3,385.7698109149933,37.05601930618286,7,672000,3102475,21666921,"[ 0  0  2  2  1  0  2  1  0  5  1  0  5  0  0  2  2  1  0  1  3  5  3  0
  0  2  0  0  0  3  3  4 11  0 12 10  5  2 13  3  7  6  0  1  8  5  2  1
  5  9 13  3  1  9  2 17  0  4 15 12  2 20 20  2 22 15  5 21 21  4  0 17
  3 20 17 15 23 20 10]"
10600,342,1.0,7,3,389.4402220249176,36.704087257385254,7,678400,3131520,21870111,"[ 1  2  1  3  1  1  1  2  3  4  1  1  2  1  1  2  2  1  0  1  3  0  6  4
  0  2  0  0  0  3  2 10 11  0 12 10  5 13 11  2  7  4  5 10  1  0 14  2
  5  9 13  3  0  0  2 10 14  4 15 12  1 14 20  4 23 19  0  2 20  0  3 16
  5 21  0 15 23 20 10]"
10700,342,1.0,7,3,393.06509613990784,36.248717308044434,7,684800,3160475,22072876,"[ 4  3  1  0  2  0  2  1  2  3  1  1  5  0  0  2  2  1  0  1  3  0  4  1
  0  2  0  0  0  3  3  3 11  0 12 10  3 11  5  5  9  9  5 11  4  0  3  3
  5  9 13  2 16 11  5  3 16  4 15 12  5 22  3  0 18 14  2 22 21  3 15  2
  4 15 23 15 23 20 10]"
10800,342,1.0,7,3,396.7940773963928,37.28978872299194,8,691200,3190350,22281855,"[ 4  1  2  5  1  0  4  0  3  1  0  1  4  3  2  2  2  1  0  1  3  3  7  5
  0  2  0  0  0  3  5  7  3  0 12 10  0  9  8  3 12 12  0  7  7  2 10 13
  5  9 13  4  3 18  2 12 15  4 15 12  2  2 22  4 17 17  1 14 21  5 15 16
  0  1  3 15 23 20 10]"
10900,342,1.0,7,3,400.4243676662445,36.302878856658936,8,697600,3219576,22486188,"[ 0  1  3  1  0  3  4  1  2  3  3  2  2  0  2  2  2  1  0  1  3  1  6  5
  0  2  0  0  0  3  5 12 10  0 12 10  2  5 11  1 11  9  3  1 13  3 13  2
  5  9 13  3 14 10  2 17 16  4 15 12  0 19 23  5 17 15  0 16 19  2 17  0
  2  1 16 15 23 20 10]"
11000,342,1.0,7,3,404.0846436023712,36.60273313522339,8,704000,3249044,22692439,"[ 0  2  0  1  3  1  5  3  0  5  0  1  4  1  3  2  2  1  0  1  3  3  7  7
  0  2  0  0  0  3  2  7  6  0 12 10  1  9  0  0  0  4  1 12  6  5 17  9
  5  9 13  4  2 12  2 17 15  4 15 12  2 21 22  4  3 15  5 18 18  5 19 22
  4 19 22 15 23 20 10]"
11100,342,1.0,7,3,407.725613117218,36.40967130661011,8,710400,3278439,22897854,"[ 4  2  3  1  0  1  3  0  1  1  0  2  2  0  1  2  2  1  0  1  3  5  0  3
  0  2  0  0  0  3  4 10 10  0 12 10  5  0  3  3  3  4  3 11  3  3 10  9
  5  9 13  3 14 16  2 13  2  4 15 12  5 16 22  2 14 19  1 23  2  5 19  0
  2 22  0 15 23 20 10]"
11200,342,1.0,7,3,411.4589047431946,37.332890033721924,8,716800,3307718,23102341,"[ 2  3  2  1  0  3  3  0  3  2  1  0  2  3  1  2  2  1  0  1  3  1  5  8
  0  2  0  0  0  3  2 11  4  0 12 10  5 10  3  3  3  5  3 10 12  4 12 17
  5  9 13  2 15 11  2 13  9  4 15 12  4 17 19  3  3 22  2  3 21  3 18 16
  2 16 14 15 23 20 10]"
11300,342,1.0,7,3,415.11414432525635,36.55237436294556,8,723200,3336799,23305658,"[ 0  0  3  5  2  3  4  0  2  1  3  0  3  2  3  2  2  1  0  1  3  0  0  7
  0  2  0  0  0  3  4 10  7  0 12 10  5  7 12  0  6  1  0  4  7  0 17 15
  5  9 13  2 16 14  2 16  9  4 15 12  1 21  0  2  2 22  2 18 17  3 18 17
  3 22 16 15 23 20 10]"
11400,342,1.0,7,3,418.75338315963745,36.392362117767334,8,729600,3366120,23510442,"[ 0  1  1  4  2  3  5  0  3  5  1  0  2  3  1  2  2  1  0  1  3  4  1  7
  0  2  0  0  0  3  3  1  0  0 12 10  2  1 12  4 11 11  0  3  4  4 13 13
  5  9 13  3 14 18  5 16 13  4 15 12  1  1 20  1 20 19  4 14 21  4 21 18
  4 14  0 15 23 20 10]"
11500,342,1.0,7,3,422.4124524593353,36.59067153930664,8,736000,3395690,23717118,"[ 5  0  0  4  3  2  2  2  1  0  0  1  1  0  2  2  2  1  0  1  3  4  1  4
  0  2  0  0  0  3  3  3  9  0 12 10  0  0 11  3 13  9  0  5  0  0 11 13
  5  9 13  3 10 15  0 11 14  4 15 12  3 18  1  2 14  3  0 20 21  5 17 17
  1 14 14 15 23 20 10]"
11600,342,1.0,7,3,426.1247992515564,37.1234393119812,8,742400,3425945,23928674,"[ 5  0  0  2  0  1  3  1  0  2  3  2  3  0  2  2  2  1  0  1  3  2  8  5
  0  2  0  0  0  3  2  2  0  0 12 10  4 10 11  3 12 13  0 12  7  3  1 12
  5  9 13  5 17 17  1 10  0  4 15 12  4 19 15  3 21  2  5 17 19  3 20 15
  2 15  2 15 23 20 10]"
11700,342,1.0,7,3,429.785329580307,36.60527944564819,8,748800,3454925,24131375,"[ 0  1  1  3  3  2  0  3  3  1  3  0  0  1  3  2  2  1  0  1  3  0  4  4
  0  2  0  0  0  3  1  3  7  0 12 10  5 10  2  0  2  9  4  1 12  0  0 14
  5  9 13  1 13 17  2 10 18  4 15 12  3  1 23  2 18  2  5 23 22  5 17 18
  0 21  3 15 23 20 10]"
11800,342,1.0,7,3,433.48611068725586,37.007784843444824,8,755200,3484186,24335964,"[ 2  0  0  5  2  2  2  3  1  2  3  1  5  0  0  2  2  1  0  1  3  3  2  7
  0  2  0  0  0  3  5 13  6  0 12 10  5 10  7  1  7  6  1  7  5  4  1 16
  5  9 13  5  0  1  2  0 17  4 15 12  3 23 18  5 16  1  2 19  1  3  1 18
  2 22 16 15 23 20 10]"
11900,342,1.0,7,3,437.091979265213,36.05866193771362,9,761600,3513246,24538874,"[ 1  2  1  5  3  0  4  2  3  2  0  2  0  3  3  2  2  1  0  1  3  3  3  1
  0  2  0  0  0  3  3 13  3  0 12 10  0  9  2  1  3  8  5  8  9  0  9 16
  5  9 13  5 13 15  1 12 11  4 15 12  4 23 19  4 14 16  3 18  3  0  1 20
  1  0  2 15 23 20 10]"
12000,342,1.0,7,3,440.82901406288147,37.37032413482666,9,768000,3543457,24749274,"[ 1  2  3  2  0  3  2  0  1  5  2  2  2  3  2  2  2  1  0  1  3  1  3  6
  0  2  0  0  0  3  4  6  3  0 12 10  0 10  2  3 10  5  0  2  1  0  3 18
  5  9 13  0  0 13  3 13 11  4 15 12  3 20 21  2  2  2  3  1 22  2 16 21
  1 15  0 15 23 20 10]"
12100,342,1.0,7,3,444.58415484428406,37.55138158798218,9,774400,3573448,24958315,"[ 5  0  0  5  0  1  0  0  0  1  1  1  3  1  2  2  2  1  0  1  3  2  4  7
  0  2  0  0  0  3  5  2 10  0 12 10  0 12  2  1  7  9  5  7  6  0 18 14
  5  9 13  0  0  9  2 16 11  4 15 12  2 18  2  1 14  3  2 17 18  1  0 22
  2 21  2 15 23 20 10]"
12200,342,1.0,7,3,448.3477964401245,37.63638973236084,9,780800,3602685,25162979,"[ 1  3  3  2  0  3  1  1  3  4  3  0  3  0  2  2  2  1  0  1  3  2  4  2
  0  2  0  0  0  3  4 12  7  0 12 10  1 13 13  4  1  4  2 11  3  3 15 14
  5  9 13  3  2 11  4  9  2  4 15 12  5 21 23  1  1 20  5  2  2  1 18 20
  0 17 21 15 23 20 10]"
12300,342,1.0,7,3,452.1003963947296,37.525978088378906,9,787200,3631540,25364762,"[ 3  1  0  2  0  0  2  0  0  0  0  3  0  2  1  2  2  1  0  1  3  1  3  0
  0  2  0  0  0  3  0  2 13  0 12 10  5  3  6  4  5  6  0 13  4  0 13 18
  5  9 13  1  1 18  2  9 11  4 15 12  0  2 20  1  1 20  0 17  2  3  3 22
  0 20 23 15 23 20 10]"
12400,342,1.0,7,3,455.79716515541077,36.967666149139404,9,793600,3660478,25567001,"[ 1  3  2  2  3  0  4  2  0  1  2  1  2  2  1  2  2  1  0  1  3  5  4  5
  0  2  0  0  0  3  4  6 12  0 12 10  0 11 11  0  8  5  0  0 12  5 13 10
  5  9 13  2 17  3  5 18 12  4 15 12  4 22 22  3 18 17  2 16 18  2  1 22
  0  2  2 15 23 20 10]"
12500,342,1.0,7,3,459.60529351234436,38.08125972747803,9,800000,3690097,25774198,"[ 5  1  2  5  1  1  1  0  2  5  0  1  2  3  1  2  2  1  0  1  3  5  6  3
  0  2  0  0  0  3  2  3  7  0 12 10  5  8  0  0  3  2  4  5 11  5  1  9
  5  9 13  3 13 18  1 11 10  4 15 12  3  3 18  4  0 17  3 17 17  0 22 20
  2 23 14 15 23 20 10]"
12600,342,1.0,7,3,463.2174713611603,36.12175226211548,9,806400,3719095,25977173,"[ 0  3  0  0  0  2  0  1  1  3  2  3  0  3  0  2  2  1  0  1  3  2  8  2
  0  2  0  0  0  3  4 10  1  0 12 10  2  8  7  1  2  9  3  6  5  5 17 10
  5  9 13  2 13  1  4  3 17  4 15 12  0  0  1  2 20 14  0 16 20  2 18  3
  2 16 17 15 23 20 10]"
12700,342,1.0,7,3,466.9245855808258,37.07111358642578,9,812800,3749287,26188204,"[ 4  1  2  4  3  1  5  0  1  0  1  3  4  1  3  2  2  1  0  1  3  1  1  0
  0  2  0  0  0  3  2  6 12  0 12 10  1 12 12  0  2  1  1  5  9  4 11 13
  5  9 13  4  9  0  5  1 11  4 15 12  1 20  3  2 20  3  1  0  0  3 14  2
  3  2 22 15 23 20 10]"
12800,342,1.0,7,3,470.5474376678467,36.22849702835083,9,819200,3778441,26391536,"[ 2  0  1  5  0  1  0  1  3  5  3  1  4  1  0  1  2  5  0  1  3  0  6  7
  0  2  0  0  0  3  2  9 12  0 12 10  2 12  2  2  2  1  2  2 12  1 16  1
  5 17 13  0  3 15  2 17 10  4 15 12  1 18 23  2 19 20  0 18 17  1 23  1
  4 16 14 15 23 20 10]"
12900,342,1.0,7,3,474.28658294677734,37.39142656326294,9,825600,3808511,26601409,"[ 1  3  2  3  1  3  4  0  1  3  0  3  4  1  1  3  4  6  0  1  3  2  3  1
  0  2  0  0  0  3  1 11  0  0 12 10  2 10 10  2  2  1  2  7  1  5 10 14
  5 17 13  0 11 11  5  3 11  4 15 12  2 23  3  0 15 18  0 23  1  1 23 23
  4  1 21 15 23 20 10]"
13000,342,1.0,7,3,477.8778223991394,35.912368297576904,9,832000,3837278,26802262,"[ 5  3  3  0  1  1  3  0  1  1  2  0  1  1  0  3  0  8  0  1  3  5  6  7
  0  2  0  0  0  3  4 10  6  0 12 10  5  7  2  2  2  1  3  5  2  3 17  0
  5 17 13  0  1  1  4  0 11  4 15 12  2  3 15  0  0 17  3  0  1  2  1 23
  2 22 23 15 23 20 10]"
13100,342,1.0,7,3,481.60236287117004,37.245376110076904,10,838400,3866277,27004359,"[ 4  0  1  0  3  2  2  2  1  5  2  0  3  3  3  4  4  1  0  1  3  5  4  7
  0  2  0  0  0  3  3  4  6  0 12 10  3  7  0  2  2  1  2  7  0  3 16 12
  5 17 13  1 17 12  1 17 10  4 15 12  2  2 18  5 23 19  5 20  1  4 14  2
  4  0 16 15 23 20 10]"
13200,342,1.0,7,3,485.19838428497314,35.960187911987305,11,844800,3895178,27206436,"[ 2  2  0  5  3  3  3  2  0  3  3  2  0  2  1  3  8  3  0  1  3  5  0  0
  0  2  0  0  0  3  3  9  8  0 12 10  1  5  5  2  2  1  1 10 12  3 18 17
  5 17 13  5 16  1  2 17 15  4 15 12  4  2 19  5 18 22  3 16  2  4 18 17
  3 20 23 15 23 20 10]"
13300,342,1.0,7,3,488.7920882701874,35.93701362609863,13,851200,3923906,27407015,"[ 2  0  2  4  1  0  3  0  2  3  1  2  0  2  3  0  6  0  0  1  3  0  3  1
  0  2  0  0  0  3  3 12  8  0 12 10  0  4  1  2  2  1  3  1  9  4 13  9
  5 17 13  4 13 13  2 15 14  4 15 12  2  0  0  5  3 17  0  0 18  0 19  0
  3  3  0 15 23 20 10]"
13400,342,1.0,7,3,492.49350786209106,37.014169692993164,13,857600,3953299,27611894,"[ 5  1  3  3  0  2  0  0  2  0  3  3  3  3  1  4  5  3  0  1  3  2  0  7
  0  2  0  0  0  3  1  9  1  0 12 10  2  5  8  2  2  1  4  1  7  5 17  1
  5 17 13  2  2 11  1  3 12  4 15 12  0 14 19  4 14  2  5 20 17  5  1 22
  1 23 23 15 23 20 10]"
13500,342,1.0,7,3,496.12400674819946,36.304965019226074,13,864000,3982593,27816740,"[ 5  1  2  3  1  3  3  2  2  3  0  3  1  1  2  5  4  6  0  1  3  1  5  0
  0  2  0  0  0  3  1  8 11  0 12 10  0  0  4  2  2  1  1  5  1  4  9 14
  5 17 13  3  2 11  2 14  3  4 15 12  1  3 17  0 19 17  5 17 21  5  3  0
  2  2 18 15 23 20 10]"
13600,342,1.0,7,3,499.72211241722107,35.981032848358154,13,870400,4011453,28018437,"[ 2  2  3  4  1  0  2  3  0  2  2  3  4  3  0  5  5  8  0  1  3  1  4  8
  0  2  0  0  0  3  1  3  8  0 12 10  4  6  6  2  2  1  4  6  0  5  3 12
  5 17 13  3 13 18  2 10  0  4 15 12  0  1 17  0 23  1  2 22 21  3 18 19
  0 22 15 15 23 20 10]"
13700,342,1.0,7,3,503.2831709384918,35.61055898666382,14,876800,4039775,28216584,"[ 2  1  0  3  0  2  2  3  2  4  1  3  5  0  2  0  7  1  0  1  3  0  3  0
  0  2  0  3  0  1  4  3  5  0 12 10  2 10 13  2  2  1  4  2 13  4 15 14
  5 17 11  4 12 18  2 11  1  4 15 12  5  0  3  1 14 22  1 17 23  2 18  1
  0 21  2 15 23 20 10]"
13800,342,1.0,7,3,507.00756645202637,37.24392890930176,14,883200,4069409,28423600,"[ 1  2  3  1  2  2  4  3  2  4  3  0  4  1  2  1  6  6  0  1  3  0  3  0
  0  2  0  1  4  4  5  1 10  0 12 10  5 11 10  2  2  1  0 12  7  2 11 13
  5 17 11  0 10 18  2 12 13  4 15 12  5  2 22  1  2 14  0 23  2  1  0 22
  1 20 21 15 23 20 10]"
13900,342,1.0,7,3,510.6111433506012,36.03574275970459,14,889600,4098511,28626698,"[ 5  0  1  0  0  3  1  1  2  2  3  1  3  0  0  2  0  4  0  1  3  0  3  0
  0  2  0  3  6  1  2  8 11  0 12 10  5 13  8  2  2  1  3  1  8  3 18  9
  5 17 11  3 18  3  5  3 10  4 15 12  2 17 20  4  2  2  0 19 14  5  0 22
  1  0 22 15 23 20 10]"
14000,342,1.0,7,3,514.3109049797058,36.99758768081665,14,896000,4128785,28838141,"[ 1  0  0  0  3  1  1  0  0  0  3  2  4  2  1  5  6  2  0  1  3  0  3  0
  0  2  0  0  8  3  4  6  1  0 12 10  3  9  0  2  2  1  3  8  5  4 10 13
  5 17 11  3 14 10  2 14 10  4 15 12  2  1 16  1 16 21  4  0  1  3 23  3
  5 17  3 15 23 20 10]"
14100,342,1.0,7,3,517.9502325057983,36.39325141906738,14,902400,4157253,29036951,"[ 0  1  3  4  0  3  2  1  2  3  3  2  3  1  3  1  7  3  0  1  3  0  3  0
  0  2  0  4  8  1  0  3 10  0 12 10  0  7  3  2  2  1  0  1 10  4 11 17
  5 17 11  4 11 15  1 14 18  4 15 12  2 20  0  3 21 18  3 22 20  4 19  1
  2 18  0 15 23 20 10]"
14200,342,1.0,7,3,521.5863747596741,36.361398696899414,14,908800,4185621,29235953,"[ 3  3  1  2  0  1  4  3  3  3  2  0  3  0  3  4  8  6  0  1  3  5  1  3
  0  2  0  1  2  5  0  0  3  0 12 10  3  2 13  2  2  1  4  4 11  0  2 13
  5 17 14  2 11 11  4  3 16  4 15 12  5  0  1  5  3  0  3 22 23  5 14 19
  3 17 23 15 23 20 10]"
14300,342,1.0,7,3,525.1924171447754,36.06039762496948,14,915200,4214690,29438954,"[ 4  3  2  4  1  2  2  0  2  2  3  2  1  1  3  3  0  0  0  1  3  0  7  2
  0  2  0  4  7  1  0  0  3  0 12 10  4  3  7  2  2  1  0  5  0  5 16 14
  5 17 14  5 14 17  2  9 15  4 15 12  4 17 15  3 16 15  4 15 20  2 23 17
  3 14 17 15 23 20 10]"
14400,342,1.0,7,3,528.9307932853699,37.383739948272705,14,921600,4243559,29640483,"[ 1  1  2  4  2  0  3  2  3  5  0  1  5  1  1  2  2  6  0  1  3  2  1  6
  0  2  0  5  3  3  0  0  3  0 12 10  5  7  7  2  2  1  0  7  2  5  3 16
  5 17 14  3  0 13  4 16  0  4 15 12  2  1  3  3 20 16  5 22  0  0  0 16
  3 19 23 15 23 20 10]"
14500,342,1.0,7,3,532.6755299568176,37.44734048843384,14,928000,4272109,29840515,"[ 0  3  3  5  1  1  3  3  2  3  0  2  5  1  2  1  2  5  0  1  3  5  5  8
  0  2  0  1  2  4  0  0  3  0 12 10  2  9  7  2  2  1  4  5  8  4  2 14
  5 17 14  4  1 18  3  2 13  4 15 12  0 19 15  0  0 20  3 17 14  2 16 22
  2  1 20 15 23 20 10]"
14600,342,1.0,7,3,536.3758931159973,37.00360298156738,14,934400,4300477,30039132,"[ 0  3  0  0  3  0  4  3  2  0  1  3  4  2  0  2  8  0  0  1  3  4  8  6
  0  2  0  1  3  4  0  0  3  0 12 10  1  1  2  2  2  1  2 10  2  1 15  9
  5 17 14  3  9 15  5 17 12  4 15 12  5 20  3  2 16  1  1  3 19  2 21  2
  4  1 14 15 23 20 10]"
14700,342,1.0,7,3,539.918842792511,35.42947053909302,14,940800,4328651,30236238,"[ 4  3  2  4  2  3  4  1  1  4  1  1  5  1  1  5  8  0  0  1  3  2  7  7
  0  2  0  1  1  5  0  0  3  0 12 10  4  6  8  2  2  1  1  9  0  1  0 11
  5 17 14  4 14 18  5  3 10  4 15 12  4 14  0  5  0 22  5 22 21  2  3  2
  1 20 14 15 23 20 10]"
14800,342,1.0,7,3,543.5086050033569,35.89759826660156,15,947200,4357092,30435315,"[ 5  1  2  3  0  2  1  0  1  0  3  3  2  3  0  4  0  3  0  1  3  4  3  6
  0  2  0  2  7  5  0  0  3  0 12 10  5 11 10  2  2  1  4 11  1  2  0 11
  5 17 14  1 15 11  1 13  9  4 15 12  3 23 16  5 14 21  5 14 21  3 23 14
  3 21 21 15 23 20 10]"
14900,342,1.0,7,3,547.0832421779633,35.74634552001953,15,953600,4385806,30636020,"[ 2  0  0  5  3  0  5  2  3  1  2  3  5  3  3  2  8  3  0  1  3  0  3  1
  0  2  0  2  0  4  0  0  3  0 12 10  2  1  2  2  2  4  0  9  2  2 10 10
  5 16 14  1  0 18  0  3 13  4 15 12  2 18  2  5  1  1  1 21  3  4 22 15
  3 21 21 15 23 20 10]"
15000,342,1.0,7,3,550.7064166069031,36.23171806335449,15,960000,4414860,30839359,"[ 4  3  3  2  3  3  0  3  1  4  2  2  2  1  2  4  6  1  0  1  3  5  0  4
  0  2  0  2  8  7  0  0  3  0 12 10  2  1  2  2  9  2  5 13  6  3  0  9
  5 16 14  1 15 10  2  2 14  4 15 12  2  1 20  0 22 16  5  1 17  1 14  2
  5 22 19 15 23 20 10]"
15100,342,1.0,7,3,554.3671224117279,36.60703182220459,15,966400,4444490,31046429,"[ 4  0  3  5  3  3  2  2  3  5  1  1  3  1  1  2  3  0  0  1  3  1  8  4
  0  2  0  3  2  7  0  0  3  0 12 10  2  1  2  4  2  2  5  0 12  4 11  1
  5 16 14  1  2 10  0  1 17  4 15 12  5  3 20  3 17 23  2 19 21  1 18  2
  5 14  0 15 23 20 10]"
15200,342,1.0,7,3,558.0215401649475,36.544151306152344,16,972800,4473714,31250443,"[ 3  0  1  0  3  3  1  3  1  5  2  3  3  0  2  0  3  7  0  1  3  4  7  3
  0  2  0  5  5  6  0  0  3  0 12 10  2  1  2  0  7  9  3 10  2  5 10  1
  5 16 14  3 10  1  5  1 12  4 15 12  3  0  0  2  0 19  2 21 23  2 19 16
  3 18 17 15 23 20 10]"
15300,342,1.0,7,3,561.5714116096497,35.49868822097778,16,979200,4501902,31447664,"[ 0  3  2  1  0  0  5  1  0  4  3  1  2  1  3  3  6  7  0  1  3  3  3  7
  0  2  0  5  7  8  0  0  3  0 12 10  2  1  2  0  4  6  4 12  5  1 10  9
  5 16 14  0  3 13  0 10  9  4 15 12  5 20 18  0 19 15  0 20 18  2  3  0
  1 20 21 15 23 20 10]"
15400,342,1.0,7,3,565.176837682724,36.0542368888855,16,985600,4530455,31648176,"[ 2  3  2  2  1  3  3  1  2  4  0  3  0  0  3  4  5  7  0  1  3  0  0  4
  0  2  0  0  6  4  0  0  3  0 12 10  2  1  2  4  2  1  2 12  6  0 11 15
  5 16 14  3  2 17  4 10 14  4 15 12  0  2 18  1 16 18  1 23  3  4  2  0
  0 15 16 15 23 20 10]"
15500,342,1.0,7,3,568.8394820690155,36.62642002105713,16,992000,4558227,31842781,"[ 1  1  3  3  0  2  5  3  1  0  0  2  5  1  3  2  4  4  0  1  3  1  1  4
  0  2  0  2  2  8  0  0  3  0 12 10  2  1  2  4 12  4  0 12  8  1 14 15
  5 16 14  2  9 15  4 12  2  4 15 12  2 18 14  3 17 21  3  0 14  4 16 21
  4  0 20 15 23 20 10]"
15600,342,1.0,7,3,572.3966228961945,35.57138442993164,16,998400,4586571,32040946,"[ 2  3  2  0  3  2  5  1  0  3  2  2  5  1  1  0  0  2  0  1  3  0  0  0
  0  2  0  0  3  7  0  0  3  0 12 10  2  1  2  0 13 12  0  7  0  5 14 13
  5 16 14  1  2  0  4 13 13  4 15 12  4  1 19  4 17 23  5 15 23  3 17 18
  2 20 21 15 23 20 10]"
15700,342,1.0,7,3,576.057373046875,36.60747528076172,16,1004800,4615101,32240683,"[ 1  2  0  0  2  1  0  1  2  0  3  1  3  1  0  0  5  2  0  1  3  5  4  4
  0  2  0  0  4  4  0  0  3  0 12 10  2  1  2  4  5 10  5 11  9  5 13  1
  5 16 14  5 13 15  3  3 14  4 15 12  1  0 15  4 14  0  3 17 14  1 21 19
  3  2 15 15 23 20 10]"
15800,342,1.0,7,3,579.6377036571503,35.803282260894775,16,1011200,4643636,32440157,"[ 4  0  2  1  0  2  2  1  1  3  0  2  4  1  1  2  4  0  0  1  3  4  3  2
  0  2  0  4  3  6  0  0  3  0 12 10  2  1  2  4  4 10  3 10 13  1 10  9
  5 16 14  0 14  2  4 16  3  4 15 12  5 15 20  3 17  2  1  0  1  2 18 16
  1 15 18 15 23 20 10]"
15900,342,1.0,7,3,583.2998502254486,36.6214394569397,16,1017600,4672460,32642332,"[ 3  2  1  1  3  2  0  1  2  2  1  0  3  1  0  4  8  6  0  1  3  4  0  0
  0  2  0  2  1  8  0  0  3  0 12 10  2  1  2  2  1  1  0  8  2  5  9  9
  5 16 14  0 13 16  3 17  1  4 15 12  2  1  1  3  3 21  3  0  2  4 16 22
  3  0 19 15 23 20 10]"
16000,342,1.0,7,3,586.9326529502869,36.32800102233887,16,1024000,4700975,32841977,"[ 5  1  3  2  2  2  5  3  2  0  3  0  4  1  1  1  7  3  0  1  3  3  4  5
  0  2  0  2  6  4  0  0  3  0 12 10  2  1  2  3  3  1  4 12 12  2 18  1
  5 16 14  1  0 10  3 16  0  4 15 12  5 17 23  4 16 19  1  2 22  5 15  3
  4 20 20 15 23 20 10]"
16100,342,1.0,7,3,590.5296127796173,35.96957445144653,16,1030400,4729710,33042858,"[ 0  2  0  3  0  1  1  2  0  5  0  1  4  0  2  3  6  5  0  1  3  1  0  1
  0  2  0  0  0  7  0  0  3  0 12 10  2  1  2  2 11  3  1  4  0  3 10 17
  5 16 14  5  2 14  4  3  1  4 15 12  2 19 23  2 18 21  2 23 21  2 21  0
  4  3 21 15 23 20 10]"
16200,342,1.0,7,3,594.0820627212524,35.52447319030762,16,1036800,4757957,33240334,"[ 2  3  0  3  0  3  3  3  3  2  0  2  0  2  3  5  7  0  0  1  3  1  2  4
  0  2  0  3  5  5  0  0  3  0 12 10  2  1  2  5  1  4  1  5  1  1  1 18
  5 16 14  0 13 13  5 14 11  4 15 12  1 18  3  4  2  2  1 20 20  5 15 19
  2 16 16 15 23 20 10]"
16300,342,1.0,7,3,597.644599199295,35.625338554382324,17,1043200,4786401,33439261,"[ 2  0  1  1  1  0  0  0  2  4  3  0  5  2  1  2  8  7  0  1  3  4  1  0
  0  2  0  4  7  0  0  0  3  0 12 10  2  1  2  2  9 13  4  2 12  4  9 10
  5 16 14  0 11  3  2 13  1  4 15 12  4 18  3  2 20 17  1  0 20  5  2  0
  3  3  0 15 23 20 10]"
16400,342,1.0,7,3,601.317405462265,36.728031635284424,17,1049600,4816136,33647457,"[ 2  2  1  0  0  1  4  0  3  3  0  0  0  3  3  2  1  2  0  1  3  4  5  7
  0  2  0  2  2  3  0  0  3  0 12 10  1  1  6  3 10 12  5  8  1  0 14  9
  5  9 14  1 13 16  4  2  1  4 15 12  2 15  2  5 20 21  5 20  3  2  0 15
  0 15 16 15 23 20 10]"
16500,342,1.0,7,3,604.8955764770508,35.78167915344238,17,1056000,4844818,33847775,"[ 3  3  3  0  0  1  5  3  3  2  0  1  3  2  1  2  1  2  0  1  3  1  3  3
  0  2  0  1  8  0  0  0  3  0 12 10  1  4  4  0 11 11  5  1 13  4 15  2
  5  9 14  0  9 14  4  9 16  4 15 12  0 17  3  4 15 15  2 20  2  3  0 20
  2 20 21 15 23 20 10]"
16600,342,1.0,7,3,608.4714822769165,35.759029388427734,17,1062400,4873467,34047825,"[ 3  0  1  2  0  3  2  0  3  5  2  3  2  2  1  2  1  2  0  1  3  3  5  5
  0  2  0  3  0  3  0  0  3  0 12 10  2  8  3  1  5  0  1  0  6  4 12 10
  5  9 14  3 13 12  3 12  3  4 15 12  0 18  3  3 20 19  2  2  3  2 18 15
  5  3 18 15 23 20 10]"
16700,342,1.0,7,3,612.0913777351379,36.198933124542236,17,1068800,4902487,34251570,"[ 2  3  1  2  1  3  1  0  0  1  2  3  2  0  2  3  1  6  0  1  3  3  2  6
  0  2  0  1  5  3  0  0  3  0 12 10  2  2  1  3  0  1  0  4  4  2  0 13
  5 16 14  4 11 17  3 17  0  4 15 12  1 15 22  5  0 18  1 23 20  0  1 21
  1 19  3 15 23 20 10]"
16800,342,1.0,7,3,615.7672598361969,36.75879716873169,17,1075200,4931204,34452426,"[ 5  0  3  1  1  1  0  0  1  3  1  1  3  1  2  1  5  8  0  1  3  1  5  2
  0  2  0  2  7  8  0  0  3  0 12 10  2  2  1  2 12  2  1  0  1  3  2 15
  5 16 14  4  0 16  3 12  2  4 15 12  0  1 19  4  3 22  0  1 14  3 15 23
  3 19 21 15 23 20 10]"
16900,342,1.0,7,3,619.4409289360046,36.73666477203369,17,1081600,4959396,34649335,"[ 1  2  1  4  0  0  0  0  3  1  1  1  4  3  0  2  7  8  0  1  3  2  6  1
  0  2  0  0  0  4  0  0  3  0 12 10  2  2  1  4  1  1  4 13  8  3  9 12
  5 16 14  5  0 11  3 14 17  4 15 12  3 22 23  1 22 22  5  3  1  5 23  3
  1  0  0 15 23 20 10]"
17000,342,1.0,7,3,623.0781447887421,36.372132301330566,17,1088000,4988650,34853987,"[ 1  0  3  1  3  0  0  1  3  2  0  1  4  3  2  3  2  0  0  1  3  1  3  4
  0  2  0  0  6  6  0  0  3  0 12 10  2  2  1  3  3  1  3  9  5  0 17 11
  5 16 14  5 13 15  1  0 17  4 15 12  5 17 21  0 22 22  4 20  1  4  1 15
  3  0 23 15 23 20 10]"
17100,342,1.0,7,3,626.6767737865448,35.98626375198364,19,1094400,5017240,35054268,"[ 0  2  2  4  2  0  0  1  1  3  1  0  3  3  3  2  8  3  0  1  3  5  5  7
  0  2  0  4  5  4  0  0  3  0 12 10  2  2  1  0  1  1  5 12  4  1 17  1
  5 16 14  4  3 18  3  0  0  4 15 12  0 20 16  3 17 16  1 21 19  2 23 20
  3 15 22 15 23 20 10]"
17200,342,1.0,7,3,630.2437961101532,35.67019701004028,19,1100800,5045564,35252978,"[ 3  2  0  1  1  3  2  3  0  3  0  1  0  2  1  1  0  7  0  1  3  5  3  6
  0  2  0  4  5  6  0  0  3  0 12 10  2  2  1  4 10 10  3 10  7  2 17 16
  5 16 14  1 18  3  1 18 18  4 15 12  3  2 19  5 22  2  2 21 14  5 18 21
  0 18  2 15 23 20 10]"
17300,342,1.0,7,3,633.8127481937408,35.689494609832764,19,1107200,5073905,35451348,"[ 3  2  0  3  0  2  1  0  3  1  3  3  2  2  3  1  3  6  0  1  3  2  6  3
  0  2  0  3  1  2  0  0  3  0 12 10  2  2  1  0  5  6  1  3 12  2 12  0
  5 16 14  0 16  0  0 12 12  4 15 12  0  3 18  3  2  1  5 14  0  5 20 16
  3  0 15 15 23 20 10]"
17400,342,1.0,7,3,637.428049325943,36.15298271179199,19,1113600,5102564,35651682,"[ 1  3  2  4  0  1  2  2  1  4  2  3  3  1  2  1  6  7  0  1  3  1  6  1
  0  2  0  3  0  4  0  0  3  0 12 10  2  2  1  0  9  8  4  2  4  1  9 16
  5 16 14  5  3  9  4 10 18  4 15 12  4 19 18  5 20 14  0 22  1  2 14 14
  5  2  1 15 23 20 10]"
17500,342,1.0,7,3,641.1612772941589,37.33225345611572,19,1120000,5131132,35851576,"[ 3  0  1  0  3  1  3  2  0  1  1  2  2  1  3  2  1  2  0  1  3  0  6  3
  0  2  0  1  6  1  0  0  3  0 12 10  2 11 12  2  4  4  4  6  3  0 16 11
  5  9 14  4 12  9  1 14  9  4 15 12  1 14 15  3 22  0  3 21  0  1 20 20
  0 23 14 15 23 20 10]"
17600,342,1.0,8,2,645.0856139659882,39.243340492248535,19,1126400,5162739,36087549,"[ 4  3  1  2  1  3  2  3  1  3  0  3  0  3  0  2  1  2  0  1  3  2  1  3
  0  2  0  5  3  3  0  0  3  0 12 10  0 11 12  3  4  7  1 11  0  1 13  3
  5  9 14  3 12 15  4  9 12  2 18 12  4 21 22  3 21 20  4 14  2  4 20  1
  1  3 17 15 16 20 10]"
17700,342,1.0,8,2,649.2232465744019,41.37629985809326,19,1132800,5195598,36346326,"[ 1  0  3  2  0  2  2  1  3  4  2  0  5  1  2  2  1  2  0  1  3  2  1  3
  0  2  0  5  0  4  0  0  3  0 12 10  0 11 12  5 10  7  4  3  7  3  9 18
  5  9 14  3  1  9  2  2  0  3 16 16  5 17 18  2 18  0  1 23 14  4 14 19
  4  2 17 15 16 20 10]"
17800,342,1.0,8,2,653.312212228775,40.88963270187378,19,1139200,5228166,36603061,"[ 0  3  3  1  0  0  4  3  1  2  2  1  3  3  2  2  1  2  0  1  3  2  1  3
  0  2  0  4  2  1  0  0  3  0 12 10  0 11 12  2 10  5  4  9 11  4 15 13
  5  9 14  5 17 18  3 16 18  4  0 18  0 15 15  2  3 21  0 19  3  2  2 19
  1 21 20 15 16 20 10]"
17900,342,1.0,8,2,657.728898525238,44.166834354400635,19,1145600,5263650,36883061,"[ 3  3  0  3  0  2  0  0  3  2  3  1  0  3  2  2  1  2  0  1  3  2  2  8
  0  2  0  5  2  5  0  0  3  0 12 10  0  7 12  5  6  1  2  3  6  1 15 14
  5  9 14  1 14 14  3  3  9  3  0  1  3  1 16  0 14 19  2 14  1  3 23 17
  2 16 15 15 16 20 10]"
18000,342,1.0,8,2,662.1117367744446,43.82835865020752,19,1152000,5299959,37169412,"[ 0  3  3  1  0  3  5  2  2  2  3  1  3  3  0  2  1  2  0  1  3  5  5  6
  0  2  0  3  8  7  0  0  3  0 12 10  0  7 12  5 12 12  3  7  7  0  2 14
  5  9 14  0  0 14  4 10 14  0 13 12  2 20  3  2 16 22  2 14 22  3 17  1
  5 17 21 15 16 20 10]"
18100,342,1.0,8,2,666.5808873176575,44.691479206085205,19,1158400,5335843,37452453,"[ 5  2  0  3  0  0  3  2  3  2  3  1  5  2  3  2  1  2  0  1  3  5  7  0
  0  2  0  3  0  7  0  0  3  0 12 10  0  7 12  5  4  9  4  5 12  0 18 14
  5  9 14  1 10 12  3 17 14  2 11 13  5 20 17  1 23 22  2  1 23  1 18 23
  2 22  3 15 16 20 10]"
18200,342,1.0,8,2,670.9467389583588,43.65848779678345,19,1164800,5371729,37735665,"[ 5  1  2  5  3  0  4  2  0  2  3  1  5  2  2  2  1  2  0  1  3  1  8  4
  0  2  0  4  4  3  0  0  3  0 12 10  0  7 12  4 13  1  0  5 12  1  1  0
  5  9 14  3 17  9  3 14 13  5 10 17  1  3 22  4 18  3  5 21  1  2 16 18
  4 23 22 15 16 20 10]"
18300,342,1.0,8,2,675.3849503993988,44.3820858001709,19,1171200,5407534,38018799,"[ 0  2  2  0  0  2  3  1  0  0  0  3  2  1  3  2  1  2  0  1  3  5  4  1
  0  2  0  3  8  2  0  0  3  0 12 10  0  8 12  5 11  6  5  0  2  4  2 17
  5  9 14  2 17 18  2 16  2  3  1 18  4 21 22  0 23 22  3 20 17  5 19  2
  2 18  2 15 16 20 10]"
18400,342,1.0,8,2,679.7375388145447,43.52585792541504,19,1177600,5443150,38299645,"[ 5  2  3  5  1  1  5  3  1  2  2  3  2  1  3  2  1  2  0  1  3  0  5  1
  0  2  0  0  4  5  0  0  3  0 12 10  0  8 12  3  6  1  1  4  5  3 16  0
  5  9 14  5 10 16  5 16  0  2  2 13  1  2 22  2  2  3  4 21 17  2 19 16
  1 17  0 15 16 20 10]"
18500,342,1.0,8,2,684.1393535137177,44.018120765686035,20,1184000,5479418,38585840,"[ 2  3  2  4  2  1  2  0  3  4  2  3  2  1  3  2  1  2  0  1  3  5  4  6
  0  2  0  1  0  8  0  0  3  0 12 10  0  8 12  1  6 13  5 12  5  1  3 14
  5  9 14  3 18 11  2  1  1  4 10 10  4 15 17  2 21  0  0 20 20  2  2 15
  1  1 17 15 16 20 10]"
18600,342,1.0,8,2,688.4963431358337,43.56987237930298,20,1190400,5515247,38868389,"[ 1  1  1  1  1  2  2  1  1  2  2  1  2  1  3  2  1  2  0  1  3  4  3  4
  0  2  0  5  6  5  0  0  3  0 12 10  0  8 12  2  5  3  0  4 10  2 12 15
  5  9 14  4 16 11  4 14 13  1 13  0  1 19 18  2 20 16  5  2 20  0 14 23
  0 19 20 15 16 20 10]"
18700,342,1.0,8,2,692.9132766723633,44.16930913925171,20,1196800,5550966,39149703,"[ 5  2  0  3  0  2  4  1  0  3  3  0  2  1  3  2  1  2  0  1  3  0  3  0
  0  2  0  0  6  0  0  0  3  0 12 10  0  8 12  5  4  2  1  5  7  3 12 15
  5  9 11  3  1  1  2  1 18  3 11  0  3 19 15  4 14 19  1 15  2  3 20 17
  0  2 14 15 16 20 10]"
18800,342,1.0,8,2,697.3686544895172,44.553749561309814,20,1203200,5588181,39442707,"[ 0  1  1  1  0  1  4  2  2  0  0  0  2  1  3  2  1  2  0  1  3  0  3  0
  0  2  0  2  4  2  1  8  8  0 12 10  0  8 12  2  1  0  3 13 12  0 12 10
  5  9 11  3 16 15  2  2 17  0 17  9  2 23 18  3 20 20  3  0 18  4 17 23
  2  1 20 15 16 20 10]"
18900,342,1.0,8,2,701.8744447231293,45.057876110076904,20,1209600,5625785,39738871,"[ 1  1  0  0  2  0  2  0  2  3  0  2  2  1  3  2  1  2  0  1  3  0  3  0
  0  2  0  0  8  7  4  7 13  0 12 10  0  8 12  1  8  7  0  3  7  1 10  3
  5  9 11  5 13 16  4 18  0  4 11 13  1 14 15  0  3 16  4  0  3  5 19 14
  2  0 21 15 16 20 10]"
19000,342,1.0,8,2,706.3167207241058,44.422733783721924,20,1216000,5662393,40027099,"[ 4  3  2  4  2  3  5  3  1  4  2  2  2  1  3  2  1  2  0  1  3  0  3  0
  0  2  0  0  0  4  0 11  5  0 12 10  0  8 12  2  6  2  3  6 10  1 17 15
  5  9 11  0  2 10  0  3 11  1 12  3  3 20  2  0 15 14  3 22  0  0 19  3
  2 19 14 15 16 20 10]"
19100,342,1.0,8,2,710.8169372081757,45.00213861465454,20,1222400,5699978,40323071,"[ 4  0  2  4  2  0  3  2  0  4  2  0  2  1  3  3  1  2  0  1  3  0  3  0
  0  2  0  2  0  7  0  1  2  0 12 10  0  8 12  2  0  2  0  1  4  3 11 12
  2 14 17  0  9 16  4 14 11  5 17 16  4 21 20  0 22  0  2 18 16  1  0  0
  0  2 23 15 16 22 10]"
19200,342,1.0,8,2,715.3424983024597,45.255584716796875,20,1228800,5737928,40621994,"[ 2  1  3  5  3  0  5  1  3  4  0  0  2  1  3  3  2  7  0  1  3  0  3  0
  0  2  0  0  8  3  0  1  2  0 12 10  0  4 12  1 11 11  1  3  1  4 17 15
  5  0 17  0  3  0  4 14 11  4  9 16  0  0 19  5 15 19  1 15 21  3 17 20
  2 21 22 15 16 22 10]"
19300,342,1.0,8,2,719.9035015106201,45.61000347137451,20,1235200,5776337,40923770,"[ 2  1  2  4  0  0  2  0  0  3  2  1  2  1  3  4  6  8  0  1  3  5  3  0
  0  2  0  0  3  0  0  1  2  0 12 10  0  8 12  1  7 10  0  8 13  2 15 12
  4 14  1  0 17 18  4 14 13  4  9 18  1  3  2  2 21 20  1 14  3  5  0 21
  3 20 19 15 16 22 10]"
19400,342,1.0,8,2,724.3650424480438,44.61538314819336,20,1241600,5813608,41216875,"[ 1  2  0  1  3  1  4  3  2  5  3  3  2  1  3  4  1  5  0  1  3  4  8  7
  0  2  0  0  3  0  0  1  2  0 12 10  0  8 12  3  1  2  0  5 12  3 15  9
  0  1  3  4  1  9  4 14 13  0  0  2  2 23  2  0 17 16  1 22 14  5 16 21
  3 22 22 15 16 22 10]"
19500,342,1.0,8,2,728.8963658809662,45.313212871551514,21,1248000,5850733,41509669,"[ 4  3  2  2  2  1  5  0  1  2  3  0  2  1  3  3  4  7  0  1  3  3  2  6
  0  2  0  0  3  0  0  1  2  0 12 10  0  8 12  3  8  5  2  7  3  3  2  9
  0 16 16  4  0 13  4 14 13  4  3 18  1  1 18  4 15  3  5 17 20  1 17 17
  4 23 19 15 16 22 10]"
19600,342,1.0,8,2,733.412318944931,45.159504413604736,22,1254400,5888051,41802933,"[ 3  3  0  2  0  3  5  2  0  1  2  0  2  1  3  2  5  0  0  1  3  4  4  0
  0  2  0  0  3  0  0  1  2  0 12 10  0  8 12  0  7  3  2  2  8  5  1 14
  5 16 18  5 11  3  4 14 13  0 13 18  4 16 16  0  1 23  3 14 18  2 17  3
  2 15 14 15 16 22 10]"
19700,342,1.0,8,2,737.9917373657227,45.79415559768677,22,1260800,5925707,42099492,"[ 2  3  1  1  0  2  3  0  1  3  2  3  2  1  3  5  2  0  0  1  3  5  1  6
  0  2  0  0  3  0  0  1  2  0 12 10  0  8 12  5  8  3  1  1  5  2  2  0
  3  9 17  2 11  9  4 14 13  2 10  3  3 16 21  3  0 16  0  3 20  0  0 18
  2 21  2 15 16 22 10]"
19800,342,1.0,8,2,742.4758267402649,44.84086990356445,22,1267200,5962269,42386923,"[ 2  3  1  5  1  3  1  3  2  0  0  3  2  3  3  1  3  0  0  1  3  0  8  8
  0  2  0  0  3  0  0  1  2  0 12 10  0  4 12  5  7  8  3  8 13  2  3  2
  1 14 12  2  1 16  4 14 13  3 17 16  0 21 14  5  1 21  1 14 22  3 22 19
  0 16 14 15 16 22 10]"
19900,342,1.0,8,2,746.9322094917297,44.56380605697632,22,1273600,5999561,42679771,"[ 2  3  1  1  3  3  3  1  2  1  0  3  0  1  0  5  4  3  0  1  3  0  6  4
  0  2  0  0  3  0  0  1  2  0 12 10  0  4 12  4  8  3  1  3  3  2 18 17
  3 14  0  3  3 15  4 14 13  0 10 13  2 21 20  3 20 18  1 20  2  0 21  2
  5  0 18 15 16 22 10]"
20000,342,1.0,8,2,751.4299757480621,44.977638721466064,22,1280000,6037356,42976827,"[ 2  3  1  1  1  0  2  1  0  3  1  3  3  0  1  0  6  0  0  1  3  4  6  7
  0  2  0  0  3  0  0  1  2  0 12 10  0  4 12  1  3 12  5  0  7  0  0  2
  4 17  9  0  3 13  4 14 13  4 14 16  4 15 15  5 22 15  2 17  0  0 23  2
  3  1  0 15 16 22 10]"
