generation,fitness,functionality,active_nodes,longest_path,time,gen_time,nc_gens,fitness_evals,graph_evals,node_evals,genotype
0,226.0,0.625,11,5,0.10471248626708984,104.7055721282959,0,0,0,0,"[ 5  0  3  4  2  2  4  2  2  5  1  0  0  2  3  2  3  1  5  4  7  1  9  8
  3  0  8  3  8  1  4  3  0  5  2  0  1 15 12  4  2 10  4  9  1  3  9  2
  1 11 11  3  4  1  3  3 21  1 19 11  2 11 18  5 12 13  4 11 11  5 17 13
  3 16 19  5  0 23  0  0 16  3 18 20  0 26  1  5  0  3  1  2 33  0 24 30
  4 25 28  0 32  3  5 23 32  0 33 23 15 24 38 38]"
100,309.0,0.875,9,4,1.8441002368927002,17.393803596496582,26,400,5777,60564,"[ 5  3  1  3  1  1  1  3  2  5  2  2  1  0  1  5  0  0  2  1  7  2  9  5
  2  0  2  2  3  1  2  9  0  3  7  0  1 10 12  5  5  4  4  8  4  1 14  2
  3  2 15  3  1 12  3 21 15  1 21 10  0 10 18  0  2 14  1 21 13  0 10 21
  3 21 19  0 26 24  2  2 24  4 20 20  0 16  0  1 20 19  0  0 30  0 31 30
  1 33 24  3 26 28  3 23 26  1  2 31 15 21 38 38]"
200,319.0,0.90625,9,4,3.0669853687286377,12.2287917137146,73,800,11030,107175,"[ 3  3  3  0  2  1  3  0  2  2  2  0  0  0  2  5  0  0  2  1  4  0  3  6
  2  0  2  2  3  1  3  8  8  3  9  9  4 10  7  3 14  4  3  8  9  2  2  8
  0  5  2  3 15 12  3  2  2  0  0 15  3  0 18  0 10 17  1 15 13  3 18 18
  2 21 23  1 18 23  2 19 24  0 17  0  0 18 16  0 16  1  2  1 22  0 33 30
  2 32 24  4 29 22  3 23 26  1 24 26 15 21  5 38]"
300,320.0,0.90625,8,4,4.3561012744903564,12.891120910644531,120,1200,16374,157102,"[ 4  3  3  0  2  1  2  2  0  1  2  2  1  0  1  3  0  0  3  6  7  2  4  7
  2  0  2  2  3  1  3  0  9  3  3  6  0 15 11  2  6  3  0 11  2  1 13 11
  0 14 11  3  5 12  2 21  2  0 13 20  1 14 15  4 21 21  1 21 13  2 18 13
  2 17 25  2 27  0  3 22 23  3  3 17  0 21 19  3  3  0  3  1 27  0 33  0
  4 32  1  1 22 29  3 33 26  1 24  1 25 21  5 38]"
400,321.0,0.90625,7,4,5.629859924316406,12.737529277801514,176,1600,21600,200340,"[ 1  0  3  0  2  1  0  0  2  5  0  1  5  1  3  3  2  3  5  6  9  1  4  0
  2  0  2  5  9  9  0  2  0  1  3  8  3 13  7  4  3  3  3  0  1  5 13 11
  5 12  9  3  5 12  2 18  2  4 19 20  0 14 11  4 21 21  0 21 21  2 20 18
  2 21  1  3 23  0  3 23 17  0 26 27  4 22 19  2  1  3  3  1 27  4 26 28
  1 32  3  1 33 29  3 33 26  1  3 27 25 21  5 38]"
500,322.0,0.90625,6,4,6.626991033554077,9.971253871917725,232,2000,26536,234264,"[ 1  1  0  0  2  1  0  1  2  1  2  2  5  0  1  5  0  0  4  6  0  1  4  9
  2  0  2  4  2  7  2  0  0  4  2  8  3 13  1  5  6  8  3  3  9  2  5 11
  3  7  6  3 12  3  2 20 10  2 20 20  1 14 20  4 21 21  0  1 21  2 11 18
  0  3  1  2 23  2  3 17 21  0 20 25  0 16 26  2  1  3  5  1 27  1 30 30
  5 28  3  3 24 28  5 33 25  0 24 33 25 21  5 38]"
600,323.0,0.90625,6,3,7.544339895248413,9.17344331741333,292,2400,31338,267807,"[ 0  3  0  0  2  1  0  1  2  1  2  2  1  3  0  1  1  2  0  9  0  4  0  3
  2  0  2  4  1  7  5  3  2  1  9  7  3 10  5  4  6  1  3  3 11  1 10 11
  5  7 15  2 12 12  4  1 17  1 20 18  4 14 20  4 21 21  4  1 14  3  1 15
  0  0 16  2 27  1  3  1  1  4 17 19  0 20  0  2  1  3  2 22 32  2 26  1
  1 22 28  5  3 30  2 33 33  0  2 33 25 21  5 38]"
700,327.0,0.921875,7,3,8.639745473861694,10.953991413116455,350,2800,36560,304067,"[ 5  0  0  0  2  1  0  1  3  3  1  3  0  1  3  1  2  0  0  8  6  5  1  8
  2  0  2  0  2  8  1  3  6  0  9  3  4 10  2  0 15 11  3  6 10  3  6 11
  0  4  0  3 12  6  2  1 20  4 20 14  1 14 18  4 21 21  4 21 14  0  1  2
  3 24  0  2 26 17  2 18  1  3 27 27  0 20 21  2  1  3  1 32 29  2 31  3
  0  1 31  2 30 28  4 24 33  1 22 30 25 21  5 10]"
800,327.0,0.921875,7,3,9.631290912628174,9.915390014648438,401,3200,41348,338317,"[ 5  0  0  0  2  1  0  1  3  2  1  0  3  0  0  4  0  3  0  4  6  5  1  8
  2  0  2  0  3  8  4  3  6  4  6  8  1 10  6  0 15 11  2  6  4  4 14 11
  1 13 13  3 12  6  3 12 20  4 21 14  1 14 21  4 21 21  3 21 14  2 20  0
  3 24 17  1 26  2  1 25  1  0 20  0  1  0 25  2 22 25  5  2 24  4  2  3
  5  0 23  5  1 27  2 22 27  5 26  1 25 21  5 10]"
900,329.0,0.921875,6,2,10.77056622505188,11.392688751220703,450,3600,46311,370696,"[ 1  0  3  0  2  1  0  1  3  5  1  3  0  0  0  2  1  2  0  3  1  0  4  8
  2  0  2  0  0  6  4  9  6  0  5  6  1 10  8  5  8 11  1 10 12  3  0 12
  4  8 13  3 12  6  3 16 21  4 16 14  3  0 21  4  0 21  3  2  3  2 11  0
  1 18  1  0 18  2  2 25 20  0 17  3  2  3  2  5 25  3  3  2 32  4 31 24
  4  0 30  5 32 27  5 22 33  5 26 30 19 21  5 10]"
1000,329.0,0.921875,6,2,11.730469465255737,9.598991870880127,503,4000,51216,401621,"[ 0  0  0  0  2  1  0  1  3  5  2  3  1  2  0  2  1  2  0  1  3  5  0  0
  2  0  2  0  0  5  0  6  1  0  5  6  2  2 10  5  8 11  1  3 11  4 14  7
  4 12  9  3 12  6  3 21  2  4 15 20  3 12  2  2 10  1  3 14  0  5 11  2
  0 21 18  2 19  2  5  2  3  0 21 25  2 23  1  5 18 21  2 23 32  0  3 23
  0 27 30  5 33 27  3 22  0  3  2 31 13 21  5 14]"
1100,330.0,0.921875,5,2,12.650238990783691,9.197630882263184,549,4400,56120,428723,"[ 5  3  1  0  2  1  0  1  3  3  3  2  4  1  1  5  3  3  3  1  6  4  3  2
  2  0  2  0  0  6  3  8  2  3  7  0  1 13 15  4  7  7  0 14  0  2 10  3
  1 12  9  3 12  6  5 11 15  5 14 10  5 16 15  1 15 19  3 14 19  3 20 15
  4  2 19  2 25 20  2  1 21  2 26 25  1  1 27  3  3  0  1 31 32  5 26 32
  2 32 22  0 31  2  3 31 25  4 32 31 13 21  5  6]"
1200,330.0,0.921875,5,2,13.591933012008667,9.41690444946289,600,4800,60973,454746,"[ 4  2  1  0  2  1  0  1  3  0  1  3  0  0  3  2  0  0  3  5  8  4  9  3
  2  0  2  0  0  6  0  8  3  3  5  8  0 14  7  2 10  9  1 14  5  3  1  8
  5  1  9  3 12  6  5 20  1  2  2  3  4 19 21  1  0 16  4  2  1  2 14 14
  4 24 20  0 23  1  0  1 19  5 19  3  3  3 16  1 24 22  1 26 30  0 28 31
  4 32 32  1  0  2  4  1 28  2 22 27 13 21  5  6]"
1300,334.0,0.9375,6,2,14.486508846282959,8.945684432983398,657,5200,65799,482075,"[ 5  1  1  0  2  1  0  1  3  0  1  3  0  0  2  0  0  1  0  7  6  2  2  3
  2  0  2  0  8  6  1  0  7  4  7  6  3 13  7  5 13  8  2 13  2  3  5  8
  5  1  2  3 12  6  5 18 14  1 20 14  4 15 21  4  0 11  0 17  2  3 16  0
  4  0  0  4  2  0  0 18 19  5 25 27  4  0 16  1 20 19  3  0  0  2 28 29
  5 32  3  0 22 30  4 28 24  1 28 27 13 21  5  6]"
1400,334.0,0.9375,6,2,15.505204916000366,10.186920166015625,714,5600,70788,512720,"[ 3  3  2  0  2  1  0  1  3  0  0  3  0  0  2  0  0  1  2  7  0  2  7  4
  2  0  2  0  8  6  5  6  0  3  1  6  2  1  7  5 12  3  2 13  8  3  5  6
  5  0  2  3 12  6  3 18 15  4 20 14  3 15 21  2  1 14  1 10  2  0 16  0
  0 26  0  0 23 26  0 18 19  3  0 20  1  0 17  4 23 19  5 30  0  2  0 29
  5 32 27  4 30  2  5 28 24  0 23 31 13 21  5  6]"
1500,334.0,0.9375,6,2,16.45995330810547,9.547450542449951,770,6000,75686,542757,"[ 3  1  2  0  2  1  0  1  3  3  0  3  0  0  2  3  1  1  1  7  7  5  3  9
  2  0  2  0  8  6  1  1  1  4  1  3  3  0  7  1 15 15  3  4  8  0 12  8
  5  7  2  3 12  6  4 12 19  2  2 17  5  2 21  5 18 15  0 10 12  2 19  2
  1  0 17  2 20 16  3 18 19  3  0 17  0  1  0  5 26 22  0  2  0  1 26  3
  5  1 33  4 29 30  5 30 25  2  3 31 13 21  5  6]"
1600,334.0,0.9375,6,2,17.380035877227783,9.200763702392578,826,6400,80604,573175,"[ 3  2  1  0  2  1  0  1  3  1  2  3  0  0  2  1  2  0  3  3  5  3  6  4
  2  0  2  0  8  6  1  0  1  3  0  2  2  2 14  3 12  1  3 11 15  1  4  4
  4 12  5  3 12  6  4  2 21  3 12 20  0 21 19  1 11 15  4 14 17  0 16  3
  0 24 18  2  1 22  1 20 22  5 27 20  0  0  1  3 26 17  4 24 33  1 30 31
  1  2 33  0 28 30  2 32 25  2 30  0 13 21  5  6]"
1700,334.0,0.9375,6,2,18.344069004058838,9.64026927947998,878,6800,85545,603466,"[ 5  0  1  0  2  1  0  1  3  1  0  1  0  0  2  0  1  1  1  2  2  3  3  4
  2  0  2  0  8  6  5  2  4  2  5  9  3  5 12  3  8  7  5  0 12  3 15  4
  3 12 13  3 12  6  4  2 14  0 13 20  5 12 21  4 13 15  0 12 12  5 15  0
  0 17 25  2 19 18  0 20 22  0 18 17  3 16  1  4 17 16  0 24  0  3 29 28
  0  2 28  1 30 23  2  0 28  5  2  1 13 21  5  6]"
1800,334.0,0.9375,6,2,19.25709342956543,9.130184650421143,931,7200,90373,633163,"[ 4  0  0  0  2  1  0  1  3  0  3  1  0  0  2  3  3  2  1  1  2  1  1  9
  2  0  2  0  8  6  1  7  1  2  8  3  4  2  1  1 15 14  2 11  6  1  8  2
  3  8 13  3 12  6  0 12  3  2  2 16  5 18  2  4 13  3  2  1  3  3 20 16
  1 17 21  0 21 16  4 17  1  4 18 24  5  2 27  1 18 23  1 25 33  3 29 27
  1  2 32  0 25 25  0  0 32  5 27 24 13 21  5  6]"
1900,334.0,0.9375,6,2,20.133793354034424,8.766956329345703,989,7600,95026,661645,"[ 4  1  0  0  2  1  0  1  3  5  3  3  0  0  2  4  2  2  1  8  0  1  5  2
  2  0  2  0  8  6  2  7  2  1  7  3  5 11  2  2 14  2  2 13 14  3 13  5
  2 14  0  3 12  6  2 13 10  2  2 19  5 14 11  0 12 11  2 19  3  5 20 16
  4  2 21  0  2 22  3 17 23  1 16 26  1 26 17  1 26 22  0 30 24  1 23 24
  4 33  3  4 23 24  4  3  2  0 31 25 13 21  5  6]"
2000,337.0,0.953125,7,3,21.11089062690735,9.77092981338501,1040,8000,99135,693176,"[ 1  0  2  0  2  1  0  1  3  2  2  0  5  0  3  0  3  2  3  8  7  5  6  2
  2  0  2  0  3  0  5  5  0  4  8  8  5 10  6  2 14 13  0 11 14  5 13  5
  3 14  0  3 12  6  2 15 21  3 19 19  0 17 14  3 21  2  2  2 19  0 21 16
  0 16 24  3 26 22  2 25 23  4 16  1  2  0 21  1  2 19  2 28 27  3 24 24
  4 30  3  0 28 25  4 26  0  0 33 25 13 21 23  6]"
2100,346.0,0.984375,8,3,21.834690809249878,7.237958908081055,1095,8400,102196,720773,"[ 1  1  3  0  2  1  0  1  3  3  2  0  5  1  1  3  3  0  5  8  1  4  0  2
  2  0  2  0  3  0  4  5  5  0  1  2  2 11 13  0 14 15  3  8 14  5 13  5
  2  7  0  3 12  6  3 15 21  2 19 19  2 17 14  1  3  2  2 18  0  1 12 11
  5 17 18  3 23 24  2  1 25  4 24  1  0  0 22  1  2 19  2 32 22  1  1  3
  0 26 26  0 33  0  2  3 24  0  0 33 14 21 23  6]"
2200,346.0,0.984375,8,3,22.521538257598877,6.868302822113037,1153,8800,105086,744452,"[ 0  3  3  0  2  1  0  1  3  3  2  0  5  1  2  3  3  3  0  4  1  4  1  2
  2  0  2  0  3  0  4  5  5  0  3  7  1  5 10  0 14  5  3  0 13  5 13  5
  2  9  0  3 12  6  3 16 13  5 19 14  2 17  2  1  3  2  3 18  0  0 14 13
  5 24 16  5 23 20  2  1 17  4 21 18  4 22 18  3 19 16  0 32 23  1 31  0
  1 28 31  2 25  0  3 32 29  0  0 27 14 21 23  6]"
2300,346.0,0.984375,8,3,23.18733239173889,6.657884120941162,1215,9200,107937,767698,"[ 1  1  3  0  2  1  0  1  3  0  1  0  4  0  0  0  3  3  5  1  1  4  6  4
  2  0  2  0  3  0  4  5  5  0  6  5  4  5  0  0  6 11  4 15 13  5 13  5
  2 13  0  3 12  6  0 18 18  3 19 14  2 17  2  1 10  2  3  1  0  4  3 10
  0 21 16  4 23 17  2 16 21  0 17 23  0 20 21  0 22 17  5 30 29  1 28 33
  1 25  3  2 22  0  3 32 30  5 31 22 14 21 23  6]"
2400,346.0,0.984375,8,3,23.981305599212646,7.939670085906982,1270,9600,110886,791593,"[ 2  0  3  0  2  1  0  1  3  1  1  3  1  3  1  4  2  1  0  6  0  5  9  5
  2  0  2  0  3  0  4  5  5  0  4  5  4  5 15  0  2 10  1 13 11  5 13  5
  4  0 10  3 12  6  4 18 13  3 19 19  1 14 21  5 20 12  1 13 21  4  3 10
  1  2 23  0  1 25  3 24 20  0 17  3  1  1 21  2 25 26  1 30  1  2  1  3
  2 25  0  3 23 28  0 27 26  5 27  0 14 21 23  6]"
2500,346.0,0.984375,8,3,24.66966676712036,6.883547306060791,1322,10000,113693,814647,"[ 2  1  0  0  2  1  0  1  3  2  2  3  4  2  3  3  0  0  4  8  4  2  7  5
  2  0  2  0  3  0  4  5  5  2  8  5  2  8 13  5  4  0  0  0  2  5 13  5
  0 11 14  3 12  6  5 19 15  3 19 14  4 11 19  4 20 12  1 13 18  3 20  3
  0 26 23  2 18 21  4  2 16  4 16  3  1  1 22  1 25 26  3  2 31  5  3  1
  3  2 27  3 32 25  5 32 26  0 27  0 14 21 23  6]"
2600,346.0,0.984375,8,3,25.33934235572815,6.696712970733643,1386,10400,116229,835444,"[ 0  2  0  0  2  1  0  1  3  5  0  2  4  0  3  3  0  0  1  8  2  5  9  5
  2  0  2  0  3  0  4  5  5  2  8  8  4  3  1  1  4  0  0  0  8  5 13  5
  5 11 13  3 12  6  2  2 10  3 19 14  1 14  2  5 12 12  0 13 18  4 14 21
  5  3  0  2 18 21  5  0 22  4 18  1  1  1 22  4 23 26  1  2 22  5 30  1
  3 33 27  3 32  3  3 29 31  0  0 30 14 21 23  6]"
2700,346.0,0.984375,8,3,25.984373807907104,6.450259685516357,1444,10800,118953,857675,"[ 1  3  0  0  2  1  0  1  3  5  2  3  1  3  3  0  2  1  4  8  1  3  9  8
  2  0  2  0  3  0  4  5  5  3  8  3  4  7 15  3  6  0  4  9 10  5 13  5
  0 13 11  3 12  6  0  2 10  3 19 14  5  1  2  2  3 12  2 17 18  4  0  1
  3  1  0  5 22 18  2 19 22  3 26 16  4  0 22  2 25 17  1 33 22  2 26  1
  5  3 27  3 32  0  5 29 31  1 33  2 14 21 23  6]"
2800,346.0,0.984375,8,3,26.65361523628235,6.692376136779785,1501,11200,121644,879706,"[ 1  3  0  0  2  1  0  1  3  1  0  1  1  3  3  4  3  2  3  1  2  3  0  4
  2  0  2  0  3  0  4  5  5  1  1  3  2 10 15  1  6  3  4  9 10  5 13  5
  1  3 15  3 12  6  3 12 19  3 19 14  5 17  2  1 13 17  0 15 15  4  1  2
  3 19 24  0 16 16  5 16 22  5  1  3  4  0 17  5 23  1  0 32 22  5  1 31
  5 23 31  5 32 24  5 27 31  1 32  1 14 21 23  6]"
2900,346.0,0.984375,8,3,27.34924864768982,6.956291198730469,1551,11600,124418,902220,"[ 3  3  2  0  2  1  0  1  3  1  3  0  4  3  1  2  3  0  3  4  6  4  9  7
  2  0  2  0  3  0  4  5  5  0  6  5  1 11  0  1  6 12  3 12 10  5 13  5
  2 13  7  3 12  6  3 12 19  3 19 14  5 18 20  2 13  1  0 21  0  2 11  2
  4  3 19  1 22 23  4 25 24  4 21 21  1 22 23  5 26 16  0 31 29  4  1 23
  5  1  0  3 22 31  1 30 33  1  2 24 14 21 23  6]"
3000,346.0,0.984375,8,3,28.01268482208252,6.634321212768555,1611,12000,127259,925422,"[ 5  1  2  0  2  1  0  1  3  1  3  1  1  3  0  4  3  2  4  4  0  4  3  2
  2  0  2  0  3  0  4  5  5  0  0  4  1 10 13  4 14  5  3  4 11  5 13  5
  1  2 13  3 12  6  1 12 19  2 19 19  2 14 20  4 13 12  4 21 14  0 13  1
  3  1 19  1 21  1  5 18 24  4 24 24  0 20 23  4 26 25  0 31 31  4 22 33
  1 25 23  2 22 23  1 26 27  5  2 24 14 21 23  6]"
3100,346.0,0.984375,8,3,28.68194031715393,6.692488193511963,1668,12400,130152,948942,"[ 4  1  1  0  2  1  0  1  3  0  1  1  2  1  3  0  3  3  0  3  0  2  8  2
  2  0  2  0  3  0  4  5  5  0  9  4  2  4 13  1  9  8  5  4  1  5 13  5
  1 14  2  3 12  6  1 21 19  3 19 14  2  3 13  0 15 16  2 21 17  3 20  1
  3  1 25  1 21  1  4 25 18  1  0 27  0 20 16  2 22  2  0 27  3  4 22  0
  0 25 24  2 22 23  3 26 24  2 29 24 14 21 23  6]"
3200,346.0,0.984375,8,3,29.3132483959198,6.313040256500244,1722,12800,133051,972544,"[ 2  1  1  0  2  1  0  1  3  0  0  1  2  2  2  4  3  3  0  1  7  5  8  9
  2  0  2  0  3  0  4  5  5  0  9  4  5 14  0  2  9  8  4  7  1  5 13  5
  1  8  8  3 12  6  1 16 14  3 19 14  4  3 16  0 14  1  2 12 11  5 16  1
  3 26 27  1 21 20  4  1  0  1  0 27  4  3 16  2 22 17  1 28 27  0 26 33
  0 30 30  2 33 29  5 30 26  1 33 30 14 21 23  6]"
3300,346.0,0.984375,8,3,30.012317657470703,6.990633010864258,1784,13200,135914,996187,"[ 1  0  2  0  2  1  0  1  3  0  3  0  2  2  1  4  0  3  4  4  7  1  0  9
  2  0  2  0  9  0  4  5  5  0  1  7  2  8 15  1  9  8  1  6  1  5  7  5
  1  7  8  3 12  6  4  1  2  2 19 19  4  3  1  1 21 12  2 21 21  1  3  3
  0  2 23  1 20 26  1  1  0  1  2  2  2 25 21  3 22 23  1 27 24  0 25 33
  1 30 30  1 25 29  5 33  0  1  2 26 14 21 23  6]"
3400,348.0,0.984375,7,2,30.82063579559326,8.083136081695557,1822,13600,138988,1020419,"[ 1  2  0  3  2  2  0  1  3  0  3  0  2  2  1  3  0  1  5  8  7  1  0  3
  2  0  2  3  8  1  4  1  5  3  4  7  2 15  8  5 15  0  4  6  7  5  1  5
  5  7 10  3 12  6  5 14 17  0  3 11  3 12 19  4  2 11  2 15 14  2  3  2
  0 20 23  1 23 18  5  1  2  1 24  3  5 16 27  1 18  1  3  1 28  5 28 24
  4 25 33  2 26 27  4  2 25  1 27 30 13 21 10  6]"
3500,348.0,0.984375,7,2,31.456400632858276,6.357607841491699,1872,14000,141917,1041279,"[ 1  3  0  4  0  0  0  1  3  0  3  0  2  2  1  2  1  2  5  8  7  1  8  4
  2  0  2  3  8  1  4  1  9  0  4  5  4 14  8  1 15  0  0  6  7  0 14  0
  5  4 15  3 12  6  3 10 10  1 13 15  0 18 21  0  2 16  2 15 18  2 12 21
  0  3 19  3 26 22  3 18 25  1 25 24  4 21  0  1  1 26  5 28 27  5  1 24
  1 26 32  0 24 27  4 30 25  3 27 32 13 21 10  6]"
3600,348.0,0.984375,7,2,32.11440348625183,6.579992771148682,1918,14400,144827,1062054,"[ 5  3  1  4  3  1  0  1  3  0  3  0  2  2  1  1  2  0  5  8  7  3  1  0
  2  0  2  3  8  1  4  9  7  3  1  5  1  4  0  1 12  7  4 10  7  1  6  4
  5  3 15  3 12  6  2 12 12  1 17 20  4 20 12  1 20 13  0 16 18  0 20 19
  5  1  1  4 21  0  4 17 19  1  1 22  1  1  3  1  3  0  0  2 31  5  1  0
  3 26  0  0 26  3  5  0 30  5 29 32 13 21 10  6]"
3700,348.0,0.984375,7,2,32.834951400756836,7.2054314613342285,1974,14800,147534,1081210,"[ 3  3  1  2  3  2  0  1  3  0  3  0  2  2  1  5  0  1  5  8  7  5  9  7
  2  0  2  3  8  1  0  8  5  4  6  1  1  2  2  1  8 15  3 14  4  4  6  5
  3 11 14  3 12  6  2 16 13  1 13 17  5  1 11  3 16  1  3 20  3  2 20  2
  0  1 16  5 21 27  2 17  3  2 16 17  1 19 18  5 21 27  4  0 31  2 28 32
  0 29 28  5  0  3  2 25 32  0 29 28 13 21 10  6]"
3800,348.0,0.984375,7,2,33.5276825428009,6.927227973937988,2020,15200,150334,1101001,"[ 2  2  0  1  0  1  0  1  3  0  3  0  2  2  1  3  2  0  5  8  7  1  4  7
  2  0  2  5  9  7  0  7  0  0  6  2  2 14  2  5 12  5  4 10  4  3  4  3
  5 11 15  3 12  6  4 16 16  3 16 15  1  1 14  1  1 15  2 14  1  2 21  2
  5 17 22  1 16 16  2 27  3  3 20 24  0 19  1  5 22 19  3 27 31  3  1  2
  1 26 31  5 22 31  4 22 22  4  0 24 15 21 10  6]"
3900,348.0,0.984375,7,2,34.44018888473511,9.124999046325684,2068,15600,153288,1121838,"[ 2  2  1  5  1  3  0  1  3  0  3  0  2  0  1  2  2  3  5  4  7  2  1  8
  2  0  2  2  7  2  0  7  8  0  7  2  4 10 10  0 15 14  4  5  0  3 11  3
  4 12 10  3 12  6  2 10  2  3 11  2  1  3  2  5 20  2  3  2 18  5 16 15
  5 21 23  4 22  3  4 22 27  3  3 18  1 25 25  5 22 22  4 31 27  0 31  0
  2  3 28  5 33  3  0 30 29  1  0 24 15 21 10  6]"
4000,348.0,0.984375,7,2,35.21171855926514,7.715237140655518,2127,16000,156084,1141936,"[ 2  2  1  3  1  1  0  1  3  0  3  0  5  3  2  5  2  1  5  4  7  5  0  5
  2  0  2  2  5  5  0  9  8  0  7  1  1  0  7  1  6 15  3  1  9  0 11  4
  1 13  9  3 12  6  3  2 12  3 11  0  1 10 20  5 20  2  4 15 18  5 14  1
  5  2 23  4  0 19  3 22 27  2  1 21  3 20 25  3 22 19  3  3 24  2 27 23
  3 26 28  0 29 22  0 30  1  5  0 30 15 21 10  6]"
4100,348.0,0.984375,7,2,36.09630799293518,8.845820426940918,2172,16400,159019,1163034,"[ 2  2  1  4  3  1  0  1  3  0  3  0  1  2  0  0  3  0  5  4  7  4  8  7
  2  0  2  4  1  1  2  9  4  0  7  2  2 10  0  5  3 12  3 13 10  3 11 12
  4 10 12  3 12  6  4 14  0  2 16 15  5 14 10  5 20 10  2 17 14  3 11 20
  4 24 16  0 25 18  3 21 26  5 17 19  1 18  1  0 19 19  4 28 24  1 26 28
  0 22  0  3  3 22  3 30 28  1  0 33 15 21 10  6]"
4200,348.0,0.984375,7,2,36.94865798950195,8.52344036102295,2225,16800,162016,1184391,"[ 2  2  1  4  2  0  0  1  3  0  3  0  5  0  1  2  3  0  5  4  7  4  9  3
  2  0  2  1  3  2  0  0  4  0  0  6  5 10 15  3 14  6  5 13  8  0  9  1
  4 14 14  3 12  6  3 21 11  2 15 16  2  2 12  4  1  3  5 17 14  2 18 18
  5 20 22  2 19 26  5 24 26  1 17 25  1 25  2  1 16 26  0 28 31  1 33 29
  0 25  3  0  2 29  0 23 28  3  2 22 15 21 10  6]"
4300,348.0,0.984375,7,2,37.805583000183105,8.569183349609375,2275,17200,164968,1205044,"[ 2  2  1  1  1  0  0  1  3  0  3  0  5  1  1  4  0  1  5  4  7  3  5  1
  2  0  2  2  0  1  4  5  4  0  0  6  5 13 15  5 12 15  4  8  7  3 13 11
  3  9  7  3 12  6  3 19 19  4 11  1  2  2 12  4 13  1  5  2 14  5 15 13
  5 20 18  4 16 22  1 22 18  3  1 25  1 25  2  5 24 16  3 28 29  2 31 33
  0 30  3  0  3 29  0 32 22  2 26  2 15 21 10  6]"
4400,348.0,0.984375,7,2,38.57631707191467,7.7072858810424805,2325,17600,167962,1226403,"[ 2  2  1  4  2  3  0  1  3  0  3  0  3  3  0  1  0  1  5  4  7  0  6  1
  2  0  2  2  4  9  3  2  6  0  0  6  0  3 11  1 12  6  1 11  4  0  3 14
  3 12 11  3 12  6  5 19 17  0 21  0  0  3  0  4 17  3  0 10 11  0 11 13
  0 16 23  1 24  1  1  2 27  1 27 26  0  2 25  4 25 16  1 32 31  3  3  3
  1 24  1  4 30 30  4 30 33  2 32 26 15 21 10  6]"
4500,348.0,0.984375,7,2,39.3227961063385,7.464733123779297,2378,18000,170865,1247018,"[ 2  2  1  2  2  2  0  1  3  0  0  3  0  3  0  0  3  2  5  4  7  4  6  0
  2  0  2  1  2  3  5  2  1  2  4  1  0 14 12  1  9 13  5 14  4  3 13 15
  3 12  1  3 12  6  4 16  2  3 12  2  0 16 15  4  1  3  2 15 16  2 11 10
  4 21 18  5 24 18  1 19 17  1 27 26  5 18 21  4  3 21  2  2  1  1  0 31
  1 31  2  4 24  3  0 32 33  5 31 22 23 21 10  6]"
4572,354,1.0,7,3,39.898375034332275,7.994078927569919,2411,18288,172991,1262153,"[ 2  2  1  5  3  1  0  1  3  5  0  3  0  3  0  3  3  1  5  4  8  4  8  9
  2  0  2  0  2  7  3  4  1  2  3  8  2  0 10  4  9 14  5 14  4  4  1  6
  3  5  1  3 12  6  4 16 14  3 12 21  1 16 14  0  1  3  2 16 15  5 11  0
  3 21 18  3 20 27  0 27 25  1  2  2  5  1 18  2  3 24  5  2  1  1 27 29
  5 31 33  4 31  3  0 32 29  4 31 22 23 21 10  6]"
4600,354,1.0,7,3,40.041361570358276,5.106466157095773,2432,18400,173488,1265621,"[ 2  2  1  5  3  1  0  1  3  5  0  3  0  3  0  3  3  1  5  4  8  4  8  9
  2  0  2  0  2  7  3  4  1  2  3  8  2  0 10  4  9 14  2 14  4  5  1  6
  3  1  1  3 12  6  4 10 14  3 12 21  1 16 11  0 15  3  2 16 15  5 11  0
  3 21 18  3 20 27  0 17 25  1  2  2  5  1 18  2  3 24  5  2  1  1 27 29
  5 31 33  4 31  3  0 32 29  4 27 22 23 21 10  6]"
4700,354,1.0,7,3,40.61194682121277,5.705809593200684,2486,18800,175451,1279421,"[ 2  2  1  2  1  1  0  1  3  0  0  3  0  0  0  2  1  1  5  4  7  1  8  3
  2  0  2  3  9  1  0  6  6  2  3  3  3  0  0  1 15 15  0 10  7  3  4  7
  3 11  2  3 12  6  0 17 20  3 12 21  0 11 13  1 14 11  1 18 11  4 10 21
  1 23 26  3 25 27  3 17 25  0  0  1  3  1  2  1 22 23  5 29 29  5 27 32
  1  0 33  3  3  3  2  2 29  5 31 22 23 21 10  6]"
4800,354,1.0,7,3,41.26070261001587,6.4875054359436035,2526,19200,177815,1295919,"[ 2  2  1  0  1  0  0  1  3  0  0  3  5  0  3  5  1  0  5  4  7  2  8  3
  2  0  2  2  9  8  2  8  3  1  4  4  3  2  0  5  0 12  2 15  8  0  1  7
  3  4 15  3 12  6  1  0 12  5 12 21  2 14 16  2  3 20  0 20 11  0 17 15
  3  2 16  2 20  2  5 17 24  3 26 21  1 26  2  5  3  3  0  3 26  4  1 33
  1  0 29  1 28 27  1 28  1  1 32  1 23 21 10  6]"
4900,354,1.0,7,3,41.78941774368286,5.287108421325684,2579,19600,179941,1310721,"[ 2  2  1  2  2  2  0  1  3  0  0  3  5  0  2  1  3  2  5  4  7  5  8  4
  2  0  2  2  6  8  4  0  3  3  7  0  0  3  6  0  3  9  1  5  1  5  8  2
  3 15  9  3 12  6  1  0  1  5 12 21  5 15 18  2 15 20  1 20 14  5 17 12
  1 18 27  3 24  2  5 17 23  4  3 23  2 26 19  2  0  3  4 27 31  1 24 33
  3 26 27  4 31  1  0  2 30  3 32 27 23 21 10  6]"
5000,354,1.0,7,3,42.34225869178772,5.528354644775391,2627,20000,182093,1325853,"[ 2  2  1  4  1  1  0  1  3  0  0  3  3  0  3  0  2  2  5  4  7  3  8  1
  2  0  2  4  9  8  4  8  5  5  7  7  5 11 12  0  1  0  0  5 13  4  1  2
  4 14  7  3 12  6  0 18 15  5 12 21  2 19 16  4  1 15  1  0 11  1 18 12
  1 24 20  3  2  2  1 21 22  4 17 22  5 24 26  2 25  0  5 25 22  1 26  2
  2 30  1  4  0 22  0  3 30  4 29 22 23 21 10  6]"
5100,354,1.0,7,3,42.91798996925354,5.757277011871338,2677,20400,184169,1340363,"[ 2  2  1  4  0  0  0  1  3  0  0  3  3  2  1  2  2  1  5  9  7  4  3  3
  2  0  2  4  5  8  0  8  7  1  4  2  0 15  2  5  0  5  3  2 13  0  4  2
  1 14 15  3 12  6  3 10 19  5 12 21  5 19 13  3  2 15  2  0 11  3 13 12
  4 22  3  2 16  2  2 21 24  2 17 19  4  1 21  2  2 20  0  1 22  2 24 23
  4  3 23  4  0 27  2  3  3  3 28  2 23 21 10  6]"
5200,354,1.0,7,3,43.525113582611084,6.071174144744873,2726,20800,186312,1355409,"[ 3  2  1  1  0  2  0  1  3  0  0  3  2  1  2  3  1  0  5  8  7  0  7  1
  2  0  2  4  5  0  3  6  9  1  2  9  3  7  3  2 13  7  5  3  3  3  2  3
  3 11  6  3 12  6  3  3  1  5 12 21  5 14  2  3  2  3  3  0  2  4 21 12
  2 20 23  0 18 17  2 25  2  1 25 16  4 27 21  1 24  3  0 27 33  4 28 23
  1 30 31  1 30 22  4  3 22  4 29 22 23 21 10  6]"
5300,354,1.0,7,3,44.14759397506714,6.224691867828369,2778,21200,188457,1370393,"[ 5  0  2  0  1  1  0  1  3  0  0  3  2  1  2  3  1  2  5  8  7  1  4  1
  2  0  2  4  1  6  4  9  6  5  9  5  3 12  8  4  3 11  1  3 14  4  3 11
  4 13  8  3 12  6  1 13  2  5 12 21  3 18 12  3 10 16  4  0  2  4 13 17
  2 26 25  4  2 22  5 16 18  1 27 23  1 20 22  4 19  3  2 27 32  5 29 33
  1 30  1  1 23  1  4  1 30  5 29 28 23 21 10  6]"
5400,354,1.0,7,3,44.75051021575928,6.029102802276611,2832,21600,190553,1385145,"[ 5  3  3  1  3  3  0  1  3  0  0  3  2  1  2  1  1  1  5  8  7  4  0  0
  2  0  2  4  7  9  5  0  6  5  8  6  5  6  4  2  3 10  0  3 14  2  9 14
  2  8  8  3 12  6  1 12  2  5 12 21  4 14 20  3 18 15  5 12 15  3 16 17
  5  0 18  0 22 25  5 27 16  1 19 17  5 22 18  4 27 23  5  1 27  4 31  2
  1 26 31  0  0 33  3  3  3  4 33 30 23 21 10  6]"
5500,354,1.0,7,3,45.307472467422485,5.569586753845215,2892,22000,192526,1398876,"[ 5  1  3  3  3  1  0  1  3  0  0  3  2  1  2  4  2  0  5  8  7  4  0  6
  2  0  2  4  6  9  5  0  2  5  2  2  1  6  7  5 12 12  0 11 14  4 12 14
  3  8  5  3 12  6  1 19  3  5 12 21  3 14 12  3 18 14  5 16 21  4  2 18
  0  0  3  2 19  2  4 19 16  1 19 17  1 27  3  5  0  2  5  3 27  4  3  2
  5 26  0  4  0 33  3 22  3  4 27  0 23 21 10  6]"
5600,354,1.0,7,3,45.8812038898468,5.737252235412598,2946,22400,194439,1412259,"[ 5  3  1  0  0  0  0  1  3  0  0  3  2  1  2  3  0  1  5  8  7  3  0  7
  2  0  2  4  6  9  4  4  3  5  7  2  5  0  8  3 12 11  3 15  5  5  4 15
  4 11  4  3 12  6  0 12 16  3 12 21  4 19 12  0 20 15  5 19  2  0  3 21
  2  2 24  2 27 16  0 23 24  2  1 20  4 20 24  4 16  2  0 32 25  3 25  1
  1 22 26  2  0 31  4 22 31  5 25 31 23 21 10  6]"
5700,354,1.0,7,3,46.56434226036072,6.831331253051758,2999,22800,196517,1426838,"[ 4  2  2  5  1  1  0  1  3  0  0  3  2  1  2  3  0  2  5  8  7  4  1  3
  2  0  2  0  9  2  3  2  3  1  2  9  0 12  9  4  6 11  5  9  9  0  4  0
  1 13  3  3 12  6  1  3  1  3 12 21  3  0 18  4 10  1  1 19 21  1  2 15
  0 23 20  5  2  2  3 23 24  3  1 21  0 26 24  4 16  0  2 28  1  4  3 23
  4 31 23  5 25 27  3 26 31  4  1  3 23 21 10  6]"
5800,354,1.0,7,3,47.35015845298767,7.858102321624755,3053,23200,198722,1442179,"[ 2  2  2  3  1  0  0  1  3  0  0  3  2  1  2  2  1  1  5  8  7  0  1  3
  2  0  2  3  8  6  1  1  7  2  2  5  0  5  7  1  1  1  1  3 10  0 12  0
  2  1 10  3 12  6  2 17 14  3 12 21  3 11 21  2 16 20  1 19 21  4  2 13
  3  1 23  5 24  2  3 18 20  3 17  0  0 21 24  2 20 20  5 24 24  1  3 33
  0 33  0  5 22  0  5 25 26  4 32  2 23 21 10  6]"
5900,354,1.0,7,3,47.99819827079773,6.480350494384766,3094,23600,201008,1458291,"[ 2  3  0  2  0  0  0  1  3  0  0  3  2  1  2  4  3  1  5  8  7  5  3  2
  2  0  2  1  2  2  3  6  6  3  5  8  1 12 11  3  6  0  4  1 10  4 15  6
  4  5  3  3 12  6  2 11 10  3 12 21  5  3 11  1  2  1  5 17 17  5  2 13
  2 25 19  4 27 16  1 26 21  4 16 16  0 21 22  3 17 26  1 31  3  1 25  1
  0 26 28  5 32 22  4  3 26  5 22 28 23 21 10  6]"
6000,354,1.0,7,3,48.96355128288269,9.653480052947998,3158,24000,203053,1472591,"[ 2  1  2  3  0  0  0  1  3  0  0  3  2  0  2  1  1  2  5  4  7  3  6  2
  2  0  2  3  8  9  5  6  3  2  4  0  4  1 14  0  6  0  4  2 10  2 15  9
  4  7  5  3 12  6  0 11 13  3 12 21  4  1 11  0 14 21  2 20 11  5  2 18
  5 21 21  0 20  1  2 25  1  4  2 26  5  3 24  3 25 26  1  2 23  2 23  1
  0 26 26  2 26 22  2 24 29  5 32 25 23 21 10  6]"
6100,354,1.0,7,3,49.59892272949219,6.353659629821777,3209,24400,205290,1488206,"[ 2  1  2  1  1  2  0  1  3  0  0  3  0  3  1  1  0  1  5  4  7  2  6  2
  2  0  2  3  5  9  3  0  1  2  3  5  1  6  0  5  8  3  2  7 13  0  6  3
  2  7  4  3 12  6  4 11  2  5 12 21  0  1 17  1 15 12  2  2 11  1  2  0
  3  3 19  4 16 18  1 27 27  3  2 16  5 17 24  5 25 20  3  2 28  4  0 30
  5 29 26  5 26 26  2 24 33  1  2  1 23 21 10  6]"
6200,354,1.0,7,3,50.1575927734375,5.585930347442627,3263,24800,207220,1501627,"[ 2  1  2  3  3  0  0  1  3  0  0  3  2  0  1  4  3  1  5  4  7  3  5  2
  2  0  2  3  8  5  5  4  9  0  4  0  4  3 10  1  9  5  0 10  7  0  4  0
  2  1  4  3 12  6  0 13  2  3 12 21  2 18  2  2 15 11  5 20  2  1 18 20
  3 21  1  5 18 21  5  0 23  2 22  0  0 24 27  3 25 25  1 25 23  1 24 22
  3 28 23  3 32 26  2 22 31  0 22 26 23 21 10  6]"
6300,354,1.0,7,3,50.784566164016724,6.269676685333252,3314,25200,209344,1516539,"[ 2  1  2  5  2  0  0  1  3  0  0  3  2  1  1  4  1  1  5  4  7  4  3  6
  2  0  2  3  1  4  0  6  9  4  4  5  5  9  2  2  9  8  5  1  7  4 11 10
  2 12  6  3 12  6  1 21  0  3 12 21  3  2  1  2  3 18  1  3 15  1 14 11
  1 21 19  5  1  0  4  2 22  3  0  0  1 22 26  5 26 24  2 30 28  1  2  3
  0  2 29  2 22 26  0 27 29  0 31 26 23 21 10  6]"
6400,354,1.0,7,3,51.377378702163696,5.928065776824951,3363,25600,211496,1531565,"[ 2  1  2  0  3  3  0  1  3  0  0  3  2  2  2  5  1  3  5  4  7  1  2  3
  2  0  2  5  1  7  4  4  6  3  4  6  2  9  7  3  8  5  3  8 11  3 10  0
  0 13  2  3 12  6  1 10  1  5 12 21  0 15 12  2 10 18  1 10 15  0 12 18
  0  3 21  4  2 18  4  2 19  5  1 25  1 19 16  2  3 17  4  3 25  4 25  1
  0  2 23  0 25 32  3 23 22  2  0 23 23 21 10  6]"
6500,354,1.0,7,3,52.0445556640625,6.671721935272217,3409,26000,213838,1547993,"[ 4  1  0  5  0  3  0  1  3  0  0  3  2  2  1  3  0  3  3  3  7  0  5  4
  2  0  2  5  8  7  2  4  6  3  1  0  1  1  4  5  3  2  2  1  9  1  2  4
  3  2 14  3 12  6  5 10 18  3 12 21  1 15 10  2 19  3  4 18  1  1 10  0
  1  0 25  5 18  2  1 16 17  5 21 25  4 19 16  3 18  2  2 24 30  4 28 26
  1  0 33  5 25 28  3 25  2  4  3 33 23 21 13  6]"
6600,354,1.0,7,3,52.62972569465637,5.851643085479736,3465,26400,215796,1561701,"[ 3  1  2  3  0  1  0  1  3  0  0  3  2  2  1  3  1  0  3  2  7  1  1  6
  2  0  2  5  8  7  0  4  8  3  8  7  1  2  9  4  2  1  2  1 12  1  3 15
  4  2 13  3 12  6  0  3 13  3 12 21  0 15 20  5  3 10  4  1 11  1 13 19
  1 26 25  5  3  0  2 17 20  2 20 22  4 24  0  0 21 23  2  1 33  1 28 24
  5 28 33  5 27 22  4 32  2  4 33 26 23 21 13  6]"
6700,354,1.0,7,3,53.218772888183594,5.890402793884277,3519,26800,217904,1576552,"[ 3  1  1  3  2  0  0  1  3  0  0  3  2  2  1  2  2  0  4  5  7  3  8  0
  2  0  2  5  8  7  5  1  5  3  5  1  0  2  0  4  3 10  1  6  9  1 11 15
  4 15  0  3 12  6  4  2 13  5 12 21  0 15 20  3 17 10  1  0 21  5 14 21
  4  2 27  5  3  3  2 17  2  1 19 22  5 17  0  4  2  1  5 22 33  3  0 25
  2 32 29  5 23  2  4 32 32  3 30  3 23 21 13  6]"
6800,354,1.0,7,3,53.8303599357605,6.115810871124268,3567,27200,219998,1591342,"[ 3  0  1  5  3  3  0  1  3  0  0  3  2  2  1  5  3  0  5  1  6  3  9  6
  2  0  2  5  8  7  2  6  5  3  5  8  0  2 14  3  3 15  3  1  4  3  1  9
  2  5  2  3 12  6  2 19 11  5 12 21  0  2 15  1 17 17  2 18 20  3 16 21
  1 25 18  4 19 19  1 26  1  0 24 17  1  1 18  5 25 27  0  3 22  2  0 25
  3 32 32  3 23 31  4 23 32  3  1 25 23 21 13  6]"
6900,354,1.0,7,3,54.445295572280884,6.149299144744873,3629,27600,221987,1605299,"[ 0  2  0  3  0  3  0  1  3  0  0  3  2  2  1  3  3  0  3  1  2  2  9  6
  2  0  2  5  8  7  4  7  5  3  6  4  4  2 13  0 12  9  4  5  6  3  2  4
  3 12  2  3 12  6  2 19  3  3 12 21  3  2  2  1 17  2  2  3 18  5 12 21
  1 26 18  4 19  2  1 18  0  3  3 25  1  1 18  4 25 23  3 29 32  4  0 31
  3 32 28  0 23 33  2 27 32  1 26 30 23 21 13  6]"
7000,354,1.0,7,3,55.02980852127075,5.845091342926025,3684,28000,224055,1619811,"[ 0  1  0  3  3  3  0  1  3  0  0  3  2  2  1  1  3  1  1  3  0  0  8  9
  2  0  2  5  8  7  1  4  5  0  6  6  4  2 11  5  8  9  0  5  5  3  0 10
  3  6  2  3 12  6  2 16  3  5 12 21  5 11  0  1 20 16  3 11 10  1 17  3
  1 26 27  4 23  2  1 24 27  1  3 24  4 21 17  2 27 26  2 32 27  4 29  2
  4  0 28  1 26 33  2 27  2  5 28 30 23 21 13  6]"
7100,354,1.0,7,3,55.56037425994873,5.305614471435547,3728,28400,226143,1634414,"[ 3  2  3  1  3  0  0  1  3  0  0  3  2  2  1  4  0  1  2  2  5  4  8  0
  2  0  2  5  8  7  1  8  3  5  6  7  0  2  2  1 14  6  4  3 15  3  8  1
  3  5  2  3 12  6  2 14 14  3 12 21  4 11  0  3 20 14  2 15 10  1 17  1
  0 21 16  5 23  3  0 23 27  3 16 16  4 18  1  5  2 27  2 32 23  0 25  2
  5  2 29  4 23 29  3  3  0  4  2 30 23 21 13  6]"
7200,354,1.0,7,3,56.19760489463806,6.372256278991699,3783,28800,228283,1649393,"[ 5  0  0  2  3  2  0  1  3  0  0  3  2  2  1  3  2  3  3  6  5  4  9  0
  2  0  2  5  8  7  1  4  7  0  6  0  3 10 11  1  8 11  4  8  6  1  4 10
  3 15  4  3 12  6  2 10 13  3 12 21  4  3 15  3 20 16  2 13 17  1  0  2
  0  2 21  5 27  3  2 23 20  0  1 16  3 17 19  4 26 20  2  1 32  0  3 28
  1 32 23  0 27  1  4  1 33  5  2 30 23 21 13  6]"
7300,354,1.0,7,3,56.76996612548828,5.723576545715332,3835,29200,230224,1663013,"[ 4  0  0  3  2  3  0  1  3  0  0  3  2  2  1  3  1  1  4  6  7  5  3  1
  2  0  2  5  8  7  4  4  7  5  1  2  2 10 11  1  6 10  4 10 10  2 12 10
  4  8  3  3 12  6  5 10 17  3 12 21  4  3 14  4 20 12  1 13 21  5  0 12
  0  0 21  5 19 16  2 21 20  3  3 16  4  3 19  4 26  0  3 32 32  0 33  2
  1 22 22  0 22 26  1  1 22  1 31 29 23 21 13  6]"
7400,354,1.0,7,3,57.42467188835144,6.5470051765441895,3885,29600,232336,1677888,"[ 0  3  2  0  3  1  0  1  3  0  0  3  2  2  1  1  2  0  0  6  7  1  5  1
  2  0  2  5  8  7  4  3  3  3  0  1  4 11  3  1 11 14  4 12  1  1  2  2
  0 13 14  3 12  6  4  2 11  5 12 21  4 13 14  4 17 12  1 17 21  0 17 16
  1 23 22  2  3 25  2  1 16  0  3 16  3  3  2  1 21  0  3 32 23  0 25 28
  4 24  2  4 26 28  1 28  2  0 33 29 23 21 13  6]"
7500,354,1.0,7,3,57.90588569641113,4.8120927810668945,3942,30000,234328,1691917,"[ 0  0  0  0  1  0  0  1  3  0  0  3  2  2  1  5  2  1  5  0  6  5  5  2
  2  0  2  5  8  7  4  3  3  0  9  6  4  7  3  1  1 15  0 12  1  3  9 13
  5 12 11  3 12  6  4  1 19  5 12 21  4  3 12  4  3 19  1 19 21  0 14 15
  1 25  0  2  3 27  2 19 16  0 22 19  0  3 26  1 26  3  4 23  0  0  3  2
  0 28 23  1 26 30  5 32  2  3 31 24 23 21 13  6]"
7600,354,1.0,7,3,58.431633710861206,5.257439613342285,3993,30400,236472,1706918,"[ 3  0  0  5  2  1  0  1  3  0  0  3  2  2  1  1  0  1  0  9  9  2  7  6
  2  0  2  5  8  7  3  7  0  0  4  6  2  8  3  0  3  3  0  0  0  3  0  5
  1 15 12  3 12  6  4 20 11  3 12 21  4  0  2  4 11 19  1 10 19  0 14 13
  2  0  1  4 16 20  2 25 21  5  2 19  2 18  3  1  3  3  5 32 33  0 31  1
  0 32 30  4  2 31  1  0  0  0 22 26 23 21 13  6]"
7700,354,1.0,7,3,58.948649168014526,5.170114040374756,4051,30800,238497,1721179,"[ 3  0  3  2  2  1  0  1  3  0  0  3  2  2  1  1  2  1  3  9  9  3  6  2
  2  0  2  5  8  7  5  7  9  1  4  9  2  3  3  1  5  3  4  0  6  3  0  4
  4  2  8  3 12  6  0 20 11  3 12 21  3 16 15  4 11 14  1 10 19  0 15  3
  2  0 19  1 24 27  2 17  3  3  2 21  4 25 21  2 25 22  1 24 33  0 24 25
  0 23 30  0  2 32  1 26 23  0  0 24 23 21 13  6]"
7800,354,1.0,7,3,59.464295625686646,5.156416893005371,4102,31200,240575,1735699,"[ 2  2  3  4  0  3  0  1  3  0  0  3  2  2  1  2  0  0  5  6  7  3  0  0
  2  0  2  5  8  7  5  6  9  1  3  9  4  3 10  1  4  0  5  4 15  3 15  9
  4  2  8  3 12  6  1  0  1  3 12 21  1 17  0  2  3 17  5 10 14  1 13 15
  4  1 19  2 25 25  0 22  3  4 26  3  1 23 21  3  1 17  1  0  0  3 29 22
  0 33 31  5 32  0  1 26 26  1 28 29 23 21 13  6]"
7900,354,1.0,7,3,60.11660313606262,6.523001194000244,4150,31600,242888,1751819,"[ 2  3  2  4  0  2  0  1  3  0  0  3  2  2  1  4  0  0  2  8  6  5  3  4
  2  0  2  5  8  7  5  3  1  1  3  1  4  1  1  2 14  8  5  4 10  4 13  9
  2 12  4  3 12  6  4 20  3  3 12 21  2 12 14  4 15 17  2 17 14  2 19 10
  0  2 24  5 25 17  1 23 25  1  2 27  4 17 19  0  0 19  1 24 23  4 30  1
  0 32 31  5  3  0  3  3 26  4 24 22 23 21 13  6]"
8000,354,1.0,7,3,60.68473219871521,5.681252479553223,4205,32000,245166,1767774,"[ 0  2  2  4  0  2  0  1  3  0  0  3  2  2  1  4  0  2  5  1  5  1  2  3
  2  0  2  5  8  7  0  3  7  0  1  1  0 10  8  5  1  6  3  8  3  2  4  9
  1  5  2  3 12  6  4 16 17  3 12 21  0  0 15  1  0 17  4 19 14  2  1 10
  1  2 24  2 16 17  0 23 24  1 16  1  0 20 16  4  0 22  2 24 31  1 23 33
  0 32 31  4  0  0  3 26 33  4  0 25 23 21 13  6]"
8100,354,1.0,7,3,61.20626735687256,5.215294361114502,4264,32400,247060,1781153,"[ 2  2  2  4  1  0  0  1  3  0  0  3  2  2  1  4  0  0  0  1  5  0  6  9
  2  0  2  5  8  7  0  3  7  1  9  7  0 14  8  0  7  1  1  8 13  3 11 14
  0  5  9  3 12  6  3 16 17  5 12 21  1  2 20  2 21 15  1 12 14  2  1  2
  5 22 26  0 16  2  5 22 26  1 26  1  4 20  3  3  1 22  1 32 31  1 22  0
  1  0 31  4 28 25  2  1 33  3  0  0 23 21 13  6]"
8200,354,1.0,7,3,61.71816349029541,5.118899345397949,4313,32800,249180,1796059,"[ 2  2  1  5  1  3  0  1  3  0  0  3  2  2  1  5  3  3  0  9  9  0  9  2
  2  0  2  5  8  7  5  1  2  5  9  2  0  0  3  4  7  0  5 10  6  3 15  1
  3  8 11  3 12  6  2  0 15  3 12 21  2  2  1  5 18 17  3 13 14  2  0 14
  5 24 26  2 27  2  5 21 16  3 27 18  0 19 26  0 23 24  2 32 29  0 30 27
  4 25 24  2  3 33  0 28 23  3 33  2 23 21 13  6]"
8300,354,1.0,7,3,62.27457785606384,5.564107894897461,4374,33200,251111,1809617,"[ 2  2  1  5  1  2  0  1  3  0  0  3  2  2  1  0  3  3  4  8  6  1  9  2
  2  0  2  5  8  7  3  1  2  5  9  6  4  7  3  4  7  4  3 10  6  2  2  1
  4  8  4  3 12  6  3 21 13  3 12 21  2  2 16  5 18 20  2 13 11  3  0 19
  3 27 26  5 17 19  0 21 22  0 27 25  1 26  3  5 23 20  0 32  2  2 24 30
  1 28  2  4  1 31  4 28  0  0 33  2 23 21 13  6]"
8400,354,1.0,7,3,62.81191277503967,5.3733015060424805,4428,33600,253062,1823326,"[ 1  2  1  1  0  2  0  1  3  0  0  3  2  2  1  3  1  2  5  8  7  1  3  5
  2  0  2  5  8  7  3  4  3  4  6  6  4 10  8  0  4  4  5 14 15  2  2  2
  5  4  4  3 12  6  2 20 15  5 12 21  3 13  2  3 17 20  1 17 11  1 15 19
  3 27 26  1 22 21  0  1 21  0  0 25  4 19 19  5  1  1  2 26 29  2 22 32
  4 26 24  2 33  1  4 26 26  5 22 31 23 21 13  6]"
8500,354,1.0,7,3,63.3696072101593,5.576884746551514,4486,34000,255093,1837580,"[ 1  2  0  3  3  3  0  1  3  0  0  3  2  2  1  3  1  2  3  7  1  1  3  5
  2  0  2  5  8  7  2  4  6  5  8  2  4  8  8  5  4  4  0 14 15  2 14  3
  5  8  4  3 12  6  3 21 15  5 12 21  1 18 12  3 20 21  1 19 20  1 15  2
  5 17 19  1 22 21  5  2 16  4  0 16  1 19  0  3 16 27  4  1 29  2 25  3
  5  3 24  0 32  1  1 31 26  0 31 22 23 21 13  6]"
8600,354,1.0,7,3,63.866971015930176,4.97359037399292,4532,34400,257065,1851437,"[ 1  0  2  0  3  1  0  1  3  0  0  3  2  2  1  2  1  1  1  9  1  1  7  5
  2  0  2  5  8  7  0  1  2  5  8  3  4  9  0  1 11  9  5 12  8  3  3 15
  3  3 11  3 12  6  5  3  0  3 12 21  4 17 12  5  3 16  5  1  2  0 12 20
  5  1 19  0 23  0  4 23 18  4  1 22  5  0 22  4 22 26  2 23  1  3 33  1
  1 22  3  5 25 28  4 25 26  5 31  2 23 21 13  6]"
8700,354,1.0,7,3,64.39489388465881,5.279190540313721,4583,34800,259207,1866441,"[ 5  0  2  2  3  1  0  1  3  0  0  3  2  2  1  5  1  1  1  8  1  1  7  5
  2  0  2  5  8  7  4  3  8  1  1  0  4 11  5  3 11  9  2  4  8  4  3  1
  4  9  3  3 12  6  0  3 21  3 12 21  0  2 14  5 14 18  3 21 20  1 12 14
  1 17 23  0 25 18  1 26 18  2 19 21  0  0 22  1 22 26  2 23 27  2 23 30
  4 29  3  5 25  0  2 25 24  1 31 31 23 21 13  6]"
8800,354,1.0,7,3,64.93248438835144,5.375843048095703,4636,35200,261304,1881168,"[ 2  2  0  5  1  1  0  1  3  0  0  3  2  2  1  5  0  0  1  3  4  2  6  5
  2  0  2  5  8  7  5  3  9  4  1  2  3 15  6  3 11  9  2  2  2  1 11  1
  1  9  3  3 12  6  2 10  0  3 12 21  2  2 14  5 12 16  2 20  2  1  3 15
  1 25  3  0 20 17  0 26 18  3  3 24  0 27 22  3  2  3  5 30 27  3 31 30
  1 28 32  5  0  0  2 32 25  5 23 27 23 21 13  6]"
8900,354,1.0,7,3,65.51388382911682,5.813956260681152,4695,35600,263367,1895689,"[ 1  1  2  2  3  3  0  1  3  0  0  3  2  2  1  5  0  1  3  3  8  2  9  8
  2  0  2  5  8  7  5  3  9  4  7  2  5 15  4  3  3 13  5 14  4  2  7 13
  3 15  4  3 12  6  0 17 15  5 12 21  2 18 14  1 21 14  5 14 20  5 11 15
  4 24  3  4  3 27  0  1 21  4 27 20  4 27 18  3  2  3  5 22 24  3 31 30
  1 29 25  1  0 33  2 32 25  5 23 27 23 21 13  6]"
9000,354,1.0,7,3,66.13647866249084,6.225912570953369,4754,36000,265392,1909954,"[ 5  0  1  4  3  1  0  1  3  0  0  3  2  2  1  5  0  0  2  0  8  5  1  6
  2  0  2  5  8  7  2  4  8  1  7  8  3 15 10  0  6  8  1 11  4  5 15 15
  3  8  3  3 12  6  2 16 15  5 12 21  2  3  1  3  1 17  5 13 20  1 19 12
  4 22  3  4 16  1  0 26 27  3 19 23  4 19 26  4  2  1  0 29 28  5 30 30
  4 22  3  0 24 24  5 24 25  0 23 32 23 21 13  6]"
9100,354,1.0,7,3,66.71126770973206,5.747847557067871,4814,36400,267220,1922788,"[ 1  2  3  5  2  0  0  1  3  0  0  3  2  2  1  0  2  2  5  7  8  5  6  0
  2  0  2  5  8  7  3  5  3  1  7  9  0  4 10  3  0 13  5  2  4  5 15  7
  3  5  3  3 12  6  0 12 14  5 12 21  2  2  1  2 14 19  2 20  3  5 18 12
  4 16  1  4 23  1  0 26 27  5 26 22  5 17 26  4 24 25  0 29  3  3  3 32
  4  0 25  0 24 26  0 24 31  3 23 32 23 21 13  6]"
9200,354,1.0,7,3,67.28856444358826,5.772924423217773,4869,36800,269351,1937772,"[ 1  2  2  2  3  0  0  1  3  0  0  3  2  2  1  1  0  2  5  6  2  5  7  6
  2  0  2  5  8  7  0  5  0  0  6  2  4  4 10  3 13  0  5  8  8  5  4  7
  2  5  3  3 12  6  4 18 14  3 12 21  2 11 14  4 12 19  3 20  3  0  1 12
  4 22  1  4 18 18  1 24 27  4 26 23  3 16 21  4 26 23  5 29  3  1  2 24
  3 23 25  3 30 27  4  0 23  0 28 32 23 21 13  6]"
9300,354,1.0,7,3,67.7860996723175,4.975309371948242,4925,37200,271424,1952299,"[ 1  0  3  2  0  0  0  1  3  0  0  3  2  2  1  5  3  3  4  2  6  4  0  0
  2  0  2  5  8  7  0  3  0  3  6  9  4 12 10  4 15  5  4 11  9  5 14 12
  2 14 12  3 12  6  2 20 13  5 12 21  2 15  2  4 14 14  3 10 13  4 20 12
  0 22  1  2 20 23  2 22  3  4 16 23  2 21 23  5 17 27  1 31 29  1 25 24
  3 22 22  2 32 27  1  0  2  3 28  2 23 21 13  6]"
9400,354,1.0,7,3,68.31333494186401,5.2722954750061035,4976,37600,273417,1966274,"[ 4  2  1  2  3  3  0  1  3  0  0  3  2  2  1  5  2  3  4  4  6  4  2  6
  2  0  2  5  8  7  0  6  9  0  0  9  4 14 10  2 10 14  3  0  7  3 14 15
  4  1  2  3 12  6  2 12  3  5 12 21  1  0  2  0 14  3  5 21 17  5  1 11
  5  2 19  2 20  3  0 24  3  3 25  2  2  0 22  4 24 20  1 25 30  1 30 27
  1 26 32  0  0 30  1 30  1  3 28  3 23 21 13  6]"
9500,354,1.0,7,3,68.81959128379822,5.06251335144043,5034,38000,275469,1980680,"[ 4  2  2  5  1  0  0  1  3  0  0  3  2  2  1  5  3  3  4  5  0  0  5  1
  2  0  2  5  8  7  4  6  7  1  8  9  2 12  3  4  7 15  5 14  9  3  3 15
  4 11  0  3 12  6  2 11 11  3 12 21  1 12 10  2 14  3  5 21  3  3  0  1
  5  2 26  3 27  3  2 24 17  5 22  2  2  2  0  3 16 20  0 27 26  5 24 32
  4  2 30  2 27 32  0  3 26  4 28  3 23 21 13  6]"
9600,354,1.0,7,3,69.33390426635742,5.143063068389893,5091,38400,277584,1995474,"[ 3  1  0  0  3  2  0  1  3  0  0  3  2  2  1  1  1  1  1  4  0  3  0  7
  2  0  2  5  8  7  2  2  7  4  1  9  1  0  2  4  1  1  1 13  2  3  2 14
  4  2  0  3 12  6  2 18 20  3 12 21  5 10 19  2 13 13  0 13  1  0 10 19
  5  2  0  4  3 25  2 25 19  3  1 26  2 16  0  3 16 27  2 22 25  5  3 33
  0  2 31  3 24 26  0 31 24  4 23 33 23 21 13  6]"
9700,354,1.0,7,3,69.97037124633789,6.364622116088867,5141,38800,279604,2009674,"[ 5  1  0  3  3  0  0  1  3  0  0  3  1  2  1  2  1  2  4  5  3  5  9  7
  2  0  2  4  6  2  1  2  2  0  4  8  5  5  2  2  1 13  0 12 10  3  2  3
  3 13 12  3 12  6  2 13  0  3 12 21  5 14 16  3 13 16  0 14 12  1 16 19
  4 24  0  4 20 21  3 27 26  5 18 16  2 16 22  0 23 27  0 28 31  5  0 33
  5 31  0  5 24 29  0 26 32  1 25 33 23 21 11  6]"
9800,354,1.0,7,3,70.49725389480591,5.268769264221191,5194,39200,281680,2024235,"[ 2  2  3  3  1  3  0  1  3  0  0  3  2  1  0  2  1  2  2  8  3  5  9  7
  2  0  2  5  6  8  1  3  2  0  4  5  4  4  2  2 11 14  1  2  0  5  7 12
  0  6  7  3 12  6  0 13  2  5 12 21  5 21 18  3  0 12  2  2  2  1 19 19
  2 21  0  2 20  1  3 17 26  0 24 19  1 24 25  0 19 22  1 31 23  5  3 29
  5 25  0  3 23 27  4 23  1  2 25 26 23 21 11  6]"
9900,354,1.0,7,3,71.08888936042786,5.916299819946289,5251,39600,283735,2038608,"[ 0  3  3  3  2  1  0  1  3  0  0  3  0  0  1  2  1  2  3  8  8  5  9  7
  2  0  2  1  3  8  3  3  6  0  4  0  1  7  2  1 11  4  1  8 15  5 14 14
  0  4 14  3 12  6  5  2 21  5 12 21  1 12 12  3  0 10  3 19 19  1 16  2
  1 23 17  4  3  1  4 24 26  2 22  3  1 20  3  1 19  0  0 31 32  5 25 29
  5 33  0  3 23  0  2 23  1  2 25 23 23 21 11  6]"
10000,354,1.0,7,3,71.55515432357788,4.662590026855469,5309,40000,285609,2051742,"[ 0  3  0  3  1  1  0  1  3  1  0  3  5  0  2  2  1  2  5  9  5  5  9  4
  2  0  2  3  5  7  3  3  9  0  4  2  3  9  6  1  9  4  5  9  9  4 14  0
  0 11  2  3 12  6  0 10 21  5 12 21  1 12 15  4  3 10  2 13 13  4 12 16
  1 20  3  2 27  1  3 24 27  2 21 19  3 20  3  2 19 20  3 23  0  0 25  2
  5  3 32  3  2 27  2 24  1  2 25  0 23 21 11  6]"
10100,354,1.0,7,3,72.08148074150085,5.263218879699707,5367,40400,287756,2066792,"[ 0  3  0  0  1  2  0  1  3  5  2  2  1  2  0  2  1  2  1  9  7  5  9  4
  2  0  2  0  9  6  3  7  0  5  4  6  3  3  6  0  3  4  2  9 15  5 12  9
  2  8  3  3 12  6  1 10  0  3 12 21  3  0  0  3  1 17  4 16 10  0 19  0
  1 20 23  5 25  1  4 17 17  4 18 19  5  2 22  2 19 24  4 24 30  5 25  1
  4 30 23  3 25 27  5  2 30  0 32 28 23 21 11  6]"
10200,354,1.0,7,3,72.57447004318237,4.929859638214111,5426,40800,289706,2080459,"[ 0  3  0  0  3  2  0  1  3  0  3  3  4  2  0  2  1  2  5  9  2  5  9  4
  2  0  2  4  9  4  5  2  7  5  3  2  3  8  0  2  3 14  2 15  2  0  5 13
  4  8  3  3 12  6  1 14 19  5 12 21  3 20 21  2  0 15  0 15 18  0 16 15
  0 27 24  5  0  1  4 19 27  5 23 26  1  2 17  0 19  1  3 29 25  0 29  3
  4 31 25  1 26 31  3 33 27  1 29 29 23 21 11  6]"
10300,354,1.0,7,3,73.06917834281921,4.947023391723633,5479,41200,291721,2094634,"[ 2  1  2  0  3  0  0  1  3  4  2  2  0  2  1  2  1  2  4  5  9  5  9  5
  2  0  2  4  3  0  2  7  0  3  8  1  3  8  8  2  2  6  4 13  2  0  6  1
  0  6  1  3 12  6  5 14 20  3 12 21  0  1  1  5 11  3  4 13 13  0  2 15
  1 16  0  2 22 24  3  1 20  3  2 22  1 17 25  0 22 19  2 24 22  4 29 32
  3  2 31  4 26  1  4 23 26  3 29 29 23 21 11  6]"
10400,354,1.0,7,3,73.54317593574524,4.739935398101807,5532,41600,293782,2109125,"[ 4  1  0  0  3  0  0  1  3  0  0  0  0  3  1  2  1  2  4  5  3  5  9  5
  2  0  2  3  7  0  1  1  3  0  0  8  3  8  9  4  2 12  3 13 15  0  2 14
  4 12  8  3 12  6  1 14 10  3 12 21  5 10  1  1 11  0  1 18 11  1 21 12
  1 18  2  3 18 24  3 24 17  0 18 17  5 25 21  4 18  3  2  0  0  0  2  2
  5 31 32  3  3  2  0 29  0  4 29 29 23 21 11  6]"
10500,354,1.0,7,3,74.01666331291199,4.734807014465332,5596,42000,295690,2122516,"[ 4  2  1  0  3  0  0  1  3  0  1  0  4  3  1  2  1  2  1  4  3  5  9  5
  2  0  2  1  1  7  5  1  0  2  5  0  4  3 13  4 13 14  0 14  6  3  2  1
  4 14  5  3 12  6  5 17 18  5 12 21  3 11  1  5 11 11  3 10 13  1 21 11
  0  2 23  4 22 24  5 16 25  5 22 17  0 23 18  4 18  3  2  2 28  5  2 28
  4 25 32  2  3  0  1 24 28  4 26 29 23 21 11  6]"
10600,354,1.0,7,3,74.5671033859253,5.504357814788818,5649,42400,297840,2137515,"[ 4  1  1  0  3  0  0  1  3  0  1  1  5  1  3  2  1  2  1  4  2  5  9  5
  2  0  2  3  4  0  4  5  0  4  1  9  3  7  9  0 13  9  4  2  6  2  0  1
  1 14 10  3 12  6  5 14 18  5 12 21  1 17  2  5 17  0  2 17 10  2 21 11
  3 18  3  4 18 24  4 16 27  0 17 17  1 16 17  3 22  3  2  2  0  2 28 23
  0 25 26  5 29 29  2  1 28  5 26 29 23 21 11  6]"
10700,354,1.0,7,3,75.139981508255,5.728740692138672,5697,42800,300019,2152826,"[ 4  1  0  0  3  0  0  1  3  0  2  1  2  3  1  2  1  2  5  9  2  5  9  5
  2  0  2  0  4  0  2  5  3  2  1  4  3  3 11  0  4  2  1  2  4  0  1  8
  1  7  3  3 12  6  2 14 18  3 12 21  2 19  2  4 16 20  2 20 15  3 15 11
  3  3  1  0  2  3  2 25 20  4 26  2  4  2 22  3 16 23  2  2  0  1 23 32
  4 25  3  0 33 29  4 27 28  5 31  1 23 21 11  6]"
10800,354,1.0,7,3,75.6241979598999,4.842114448547363,5747,43200,301971,2166503,"[ 4  0  2  0  3  0  0  1  3  1  1  3  3  3  0  2  1  2  3  1  9  5  9  5
  2  0  2  2  8  0  4  1  0  2  2  3  5  3  7  1  7  2  3 11  9  3  6  4
  1 11  3  3 12  6  1 18 18  5 12 21  5 19 17  0 16  1  4 20 13  3 17 12
  3  3 25  0 25 22  2  2 20  1 26 21  3 22 25  4 16  3  2  3 27  5 23 32
  4 25  2  5  0 23  4 31 26  4 31 32 23 21 11  6]"
10900,354,1.0,7,3,76.20909214019775,5.848753452301025,5799,43600,303881,2179987,"[ 3  2  0  0  3  0  0  1  3  4  1  2  1  3  1  2  1  2  4  0  7  5  9  5
  2  0  2  4  9  6  3  0  2  1  6  2  3  7  7  0  7  4  4 13  7  0 15  3
  5 11  5  3 12  6  1 18 15  3 12 21  4 18  1  5 17 15  5 12 18  3  2 17
  4 25 16  3 26 16  5  0  1  4 23 25  3 17 19  0 22 26  4 26  1  1 23 32
  3 30 27  2 32 29  4 30  1  5 33 30 23 21 11  6]"
11000,354,1.0,7,3,76.95541739463806,7.46319055557251,5844,44000,306128,2195784,"[ 0  3  0  0  3  0  0  1  3  4  0  3  2  3  1  2  1  2  3  3  4  5  9  5
  2  0  2  2  0  8  3  3  2  5  2  4  3  6  0  0 15  4  3  3  8  5 12  3
  3 11 10  3 12  6  1 18  1  5 12 21  2 20 18  5  3 21  5 14 21  3 21  1
  2 26 16  4 27 20  5  0  1  0 25 26  0 17 27  0 27 26  4 26 29  0 24 32
  5 28 27  2 30 31  4 29  3  5  3 33 23 21 11  6]"
11100,354,1.0,7,3,77.55544424057007,6.000204086303711,5900,44400,308051,2209377,"[ 0  3  0  2  0  3  0  1  3  4  1  3  4  1  0  2  1  2  3  3  4  5  9  4
  2  0  2  5  2  4  5  4  4  0  2  7  3  0  0  1  3 14  3  3  8  5  0  5
  0  1  1  3 12  6  4 13  1  3 12 21  2 20 16  5  1 21  4 14 10  3  2  1
  4 26 16  3 20 17  1  0 20  1 24 27  0 17 23  2 27 18  0 26  3  0 24 29
  2  0 30  0 33 31  4 29 33  5 28 24 23 21 11  6]"
11200,354,1.0,7,3,78.12640380859375,5.709559917449951,5958,44800,310170,2224264,"[ 0  3  0  0  1  0  0  1  3  2  1  3  5  1  0  2  1  2  2  4  4  5  9  4
  2  0  2  5  2  0  1  1  1  0  3  6  4 11  0  1 13 14  3  6  9  5  2  2
  0 12 11  3 12  6  5 20  3  3 12 21  2 20 16  4 13 19  1 21  1  5 21  1
  0 23 25  0  0 21  4  0 20  1 24 27  3  3  3  4 25 18  3 22  3  0 27 31
  2  1 24  1 33 29  1 23 24  4 28 30 23 21 11  6]"
11300,354,1.0,7,3,78.67518138885498,5.487716197967529,6017,45200,312247,2238793,"[ 0  3  0  0  1  0  0  1  3  2  1  1  2  1  3  2  1  2  0  6  6  5  9  4
  2  0  2  5  3  6  2  1  7  0  9  1  3 11 10  1  1 15  5  6  7  0 12 14
  2  1  0  3 12  6  0 16 20  5 12 21  5 16 16  4 13 20  3  3 10  2  1  1
  3 19 21  5  0 27  5 22 20  2  3 27  0  3 23  0  3 27  5 22 23  3 27 31
  0 25 30  1 30 29  1 31 22  4 28 30 23 21 11  6]"
11400,354,1.0,7,3,79.27435946464539,5.991725921630859,6071,45600,314343,2253453,"[ 0  3  0  3  0  2  0  1  3  2  2  2  0  3  3  2  1  2  4  6  9  5  9  4
  2  0  2  5  1  6  0  6  7  4  9  7  0 11  1  0  1 15  0  4  8  4 14 10
  0  1  2  3 12  6  3 11  3  5 12 21  5 13 15  4 15 10  3 18  0  0 17  0
  3  0 16  0  0 27  4 25 20  3  3 23  0 23 20  3 18 21  5 30 33  5  3 30
  1 25 30  4 33 29  1 27 27  4  0 22 23 21 11  6]"
11500,354,1.0,7,3,79.71248054504395,4.3811750411987305,6131,46000,316239,2266800,"[ 0  3  0  2  2  2  0  1  3  2  3  2  0  3  2  2  1  2  3  5  6  5  9  4
  2  0  2  0  1  9  1  6  5  4  9  8  1  5  0  0 11 11  2  6  3  1 14  9
  0 10  2  3 12  6  3 11  3  5 12 21  1 13 15  4 21  2  5 11  0  3 17  2
  3 24 26  1  0 27  4 17  3  4  0 23  0  3  3  4 27 18  0  2  1  0 22 30
  5 29  0  4 29 26  1  0 24  4 23 22 23 21 11  6]"
11600,354,1.0,7,3,80.19202327728271,4.795205593109131,6175,46400,318472,2282500,"[ 0  3  0  5  1  3  0  1  3  3  3  0  5  2  2  2  1  2  2  8  6  5  9  4
  2  0  2  1  7  1  4  2  5  3  7  8  2 15 13  0 15 14  4  6 10  0  0  6
  1 13  2  3 12  6  5 11 21  5 12 21  4 21 15  1  0  2  4 16 15  1 13  2
  0 16 22  0  0  1  0 17 23  4 18 19  3 24 27  2 18 20  0 29  1  4 25 31
  5 30 30  4 23  0  3 29 24  4 28 24 23 21 11  6]"
11700,354,1.0,7,3,80.7529354095459,5.609080791473389,6229,46800,320504,2296791,"[ 0  3  0  1  3  2  0  1  3  3  1  0  1  2  2  2  1  2  5  2  3  5  9  4
  2  0  2  4  1  3  5  4  5  0  7  5  2  9  4  3 12 13  4  5 14  5  0  9
  1  6 14  3 12  6  3 21 12  5 12 21  4 21  0  1 10  2  0  1 20  1 14 21
  0 20 22  1 26  0  5 21 22  5  0 21  2 24  3  0  1 20  0 22 27  4  3 30
  2 31 33  4 31 26  0  3 32  2 26  1 23 21 11  6]"
11800,354,1.0,7,3,81.33612704277039,5.831866264343262,6277,47200,322748,2312482,"[ 0  3  0  2  2  3  0  1  3  0  0  1  1  2  0  2  1  2  4  3  1  5  9  4
  2  0  2  1  8  7  3  1  0  4  6  4  5 14  3  4 12  5  0  9 13  5  8  9
  3  1 14  3 12  6  3 15  2  5 12 21  2 17 10  1 10 19  0 11  2  2 20 13
  3 23 20  0 16 23  5 20 18  3 17 27  2 23 19  4  0  2  4 26 27  4  2  2
  4 22 26  4 30 26  1 33 29  0 28 28 23 21 11  6]"
11900,354,1.0,7,3,81.93783378601074,6.017012596130371,6332,47600,324943,2327845,"[ 0  3  0  2  1  2  0  1  3  0  1  1  1  1  0  0  0  2  3  1  8  5  5  4
  2  0  2  1  0  7  3  0  5  4  7  4  0  0  9  5  4  2  5  0 13  5  9  9
  2 13  9  3 12  6  3  3  2  3 12 21  5 18 15  4 10 16  0 17  2  4 20 10
  3 18 27  5 16 22  5 26 26  3 17 18  5 18  3  5 16 16  5 24  2  4  3 22
  3 22 33  1 31 26  4 25 29  0 28 23 23 21 11  6]"
12000,354,1.0,7,3,82.50540280342102,5.675637722015381,6383,48000,326840,2341227,"[ 0  3  0  2  1  2  0  1  3  2  3  2  2  1  2  2  3  1  2  4  8  5  5  4
  2  0  2  5  9  9  1  8  5  4  7  4  5 10  9  5  4  1  1  0 13  5  9  9
  1  4  9  3 12  6  2 13 18  3 12 21  4 21 11  2 11 15  0  2 20  0 18 21
  2 18 27  5 23 19  5 26  0  3 23 20  1  3 18  5 20 16  2 27 23  5 23 30
  3 25  3  3 25 33  4 24 29  4 28 31 23 21 11  6]"
12100,354,1.0,7,3,83.0582218170166,5.528130531311035,6429,48400,328990,2356274,"[ 0  3  0  2  1  2  0  1  3  4  3  2  1  3  2  2  2  3  2  4  3  5  5  4
  2  0  2  0  5  7  1  6  1  4  2  7  3 14  2  0  1  3  4  6  2  1  8  9
  5 14 14  3 12  6  0 18  3  3 12 21  1 21 12  2 12 20  1  3 16  0 18 17
  3  0 27  2  0  1  0 22  0  1 23 21  5  3 19  1  1 22  0  2  1  2  1 25
  0 29  1  3 24 23  0 23 32  4 32 32 23 21 11  6]"
12200,354,1.0,7,3,83.49499654769897,4.367709159851074,6495,48800,330895,2369571,"[ 0  3  0  2  1  2  0  1  3  4  3  2  1  3  2  3  0  2  5  8  8  5  5  4
  2  0  2  0  3  5  5  5  1  4  6  6  4 14 12  3  1 11  4  0 14  2  3  1
  4  7  8  3 12  6  1 18 11  5 12 21  3 18  1  2 12 11  5 19 16  5 16 18
  5 24 19  5 19 23  3 22 20  2 26 22  2 25 23  5 16 24  5 24 28  2 23 29
  0 28 30  4 32  2  2 23 32  2 31 24 23 21 11  6]"
12300,354,1.0,7,3,83.89085698127747,3.9585447311401367,6555,49200,332811,2382963,"[ 0  3  0  2  1  2  0  1  3  0  3  0  1  0  1  3  0  0  2  3  0  5  5  4
  2  0  2  5  6  5  3  7  7  1  5  0  1  4  1  4 14  9  4  0 14  0  5 13
  3  3  3  3 12  6  1 19  2  5 12 21  1 18 18  4  2  1  3  3  2  5 11 14
  1  3 25  4 19 17  3 25 16  0 26 18  4  3 21  5  2 24  5 29 25  1  3 29
  4 28  1  4  2  2  2 24 22  4 29 26 23 21 11  6]"
12400,354,1.0,7,3,84.35025525093079,4.593937397003174,6611,49600,334802,2396934,"[ 0  3  0  2  1  2  0  1  3  0  3  0  1  0  3  3  0  0  1  3  7  5  5  4
  2  0  2  3  5  3  3  3  9  1  5  2  3  1  1  2  4  9  4  0  1  2 11 15
  3 12 10  3 12  6  2  0  3  3 12 21  2 17 18  3 12 17  5 11  1  1 20  0
  3 27 17  1 18 26  3  3 16  1 24 18  3 19 21  4 24  0  3 29 25  3 31 32
  4 28 23  0 31 31  5 33 23  4 25 25 23 21 11  6]"
12500,354,1.0,7,3,84.99268794059753,6.424269676208496,6671,50000,336762,2410784,"[ 0  3  0  2  1  2  0  1  3  1  1  3  0  3  3  2  3  0  4  5  2  5  5  4
  2  0  2  3  5  6  4  7  9  1  7  1  3  2  5  2  3  6  2  2  7  2  3 15
  1  2  5  3 12  6  2  0 16  3 12 21  5 20 13  3 12 11  1 14 16  1 16 17
  5 27 17  5 26 26  2 17 27  0  0 18  2 18 21  4 21  0  4 27 30  4 24 32
  5 28 31  0 31 26  3 33 23  0 29  2 23 21 11  6]"
12600,354,1.0,7,3,85.56173491477966,5.690431594848633,6735,50400,338752,2424746,"[ 0  3  0  2  1  2  0  1  3  5  3  3  0  2  2  0  0  0  4  2  6  5  5  4
  2  0  2  5  4  4  4  7  0  5  8  7  2 10  5  0  2 10  4  5 10  2  3 15
  1  9 15  3 12  6  4 15 10  3 12 21  2 19  0  0 10  3  4 20 20  2 11 11
  5 26 21  5 18 25  1 27  0  5 24 23  2 26  2  4  1  0  0 27 23  5 32 26
  5 32 22  5  0 24  3 24  1  3 29 29 23 21 11  6]"
12700,354,1.0,7,3,86.14852094650269,5.867800712585449,6790,50800,340886,2439729,"[ 0  3  0  2  1  2  0  1  3  0  3  1  0  1  1  0  2  0  0  2  6  5  5  4
  2  0  2  4  5  2  4  4  7  3  6  7  3 10  7  5 13 11  5  5 12  1  3  7
  1  4 13  3 12  6  4 17  2  3 12 21  1 16 10  1 10 10  1 16  3  2  1  3
  5  1  0  5 26 26  0  3 20  0 17  2  1 21 22  4 23  1  4 23 27  3 25 29
  4 30 28  3  0  1  3  3  1  3 28  2 23 21 11  6]"
12800,354,1.0,7,3,86.65402221679688,5.054976940155029,6854,51200,342800,2453090,"[ 0  3  0  2  1  2  0  1  3  5  3  1  5  2  1  0  1  0  0  9  0  5  5  4
  2  0  2  4  5  6  4  3  3  1  1  5  1  5  7  5 15  1  4  4  8  1  5  7
  1 12  2  3 12  6  4 12 16  5 12 21  4 16 10  2  1 14  1  3  3  2 17 15
  2 25 17  2 25 27  5  3 26  4  0  0  4 18 23  0  3  1  4 23 22  3 26  2
  0  2  3  1  1  1  3  1  0  5 23 27 23 21 11  6]"
12900,354,1.0,7,3,87.14426851272583,4.9024176597595215,6914,51600,344731,2466636,"[ 0  3  0  2  1  2  0  1  3  0  3  1  1  2  1  0  1  0  4  5  7  5  5  4
  2  0  2  3  8  6  1  9  3  1  5  8  1  5  7  5 15  0  1  4  6  1  2 12
  4  0 14  3 12  6  0 18  0  3 12 21  3 20 14  1 19 19  4  3  3  1  3 21
  3 23 23  2 23 21  1 17 20  5  3 22  4 19 25  0 27 23  3 28 28  3 31 32
  3 28  2  0  0  1  0  0 24  2 23  2 23 21 11  6]"
13000,354,1.0,7,3,87.60643029212952,4.621562957763672,6968,52000,346765,2480853,"[ 0  3  0  2  1  2  0  1  3  0  2  1  2  1  2  4  3  0  4  0  6  5  5  4
  2  0  2  3  8  4  3  0  3  1  0  7  0  7  1  0 15  6  0 11  7  5  2 13
  3  8  2  3 12  6  2 15  0  3 12 21  0 20 17  2 14  3  2 16 16  1 19  0
  5 23 20  0 25 17  4 18 20  3 24  3  4 19 16  1  2 18  3 28 22  1 32 29
  3 28 28  0 33 29  0  1 25  5 24 28 23 21 11  6]"
13100,354,1.0,7,3,88.14707779884338,5.406436920166016,7015,52400,348966,2496246,"[ 3  1  2  2  1  2  0  1  3  0  3  2  2  3  1  0  3  0  4  7  5  5  5  9
  2  0  2  0  5  5  3  2  5  3  0  8  0  7  2  4  9  8  0  2  1  0 13 13
  0 12 15  3 12  6  1 20 17  5 12 21  4 12 10  1 21 19  2 18 20  0 19 16
  1 17 16  1  0 23  1  1 17  5 27  1  4  0 21  4  2  1  1  1 22  5 30 28
  1 28 23  4  3  3  2 23 26  5 31 30 23 21 11  6]"
13200,354,1.0,7,3,88.64753746986389,5.004541873931885,7064,52800,351099,2511247,"[ 1  0  1  2  1  2  0  1  3  5  2  0  2  3  0  0  3  0  0  8  3  5  5  9
  2  0  2  5  5  5  3  5  4  1  4  9  2  0  5  1  0  0  1  7  3  4  6  4
  3  3 13  3 12  6  0 12 14  3 12 21  4 13 10  0 18 21  2 14 20  0 17 15
  3 26 16  1 21 21  4 22  1  4 24  2  2 21 19  4  3 19  1 28 30  4 27  3
  2 30 32  3 30 22  4 27 31  4 28  0 23 21 11  6]"
13300,354,1.0,7,3,89.13989567756653,4.923527240753174,7122,53200,353106,2525266,"[ 3  0  2  2  1  2  0  1  3  5  3  1  3  2  2  0  3  0  0  8  3  5  5  9
  2  0  2  5  7  5  0  9  5  4  7  9  4 11 11  0 10  0  1  2  3  2  1  9
  3 12 10  3 12  6  4  3  2  3 12 21  5 11 15  2 21 13  3 12 19  0 17  3
  0 22 16  3 23 22  4 27  1  1 22  1  3 21 20  5  2 19  3  2  1  0  1 23
  2 22 23  3 30 25  0 25  3  4 28 22 23 21 11  6]"
13400,354,1.0,7,3,89.6254563331604,4.855532646179199,7180,53600,355249,2540251,"[ 1  1  3  2  1  2  0  1  3  5  3  3  1  0  3  0  3  0  1  1  3  5  5  9
  2  0  2  1  7  5  0  9  0  4  4  8  3  9 11  0 14 10  0  6  3  3  0  9
  2  3 10  3 12  6  2  2 16  3 12 21  0 21 20  5  2 18  0 12 12  0 13 14
  0  1 17  1 23 27  0 20  2  0 17  2  0  0  1  5 21 23  0  2  1  0 26  2
  0 22 23  3 30 25  0 24 31  1 28 22 23 21 11  6]"
13500,354,1.0,7,3,90.04634928703308,4.208889007568359,7238,54000,357123,2553456,"[ 0  1  3  2  1  2  0  1  3  3  3  3  4  0  0  0  3  0  0  1  8  5  5  9
  2  0  2  0  1  8  5  9  3  4  9  2  5  4 14  0 11  1  5 13  3  3  0  1
  2  6  6  3 12  6  4 13 10  3 12 21  5 16 17  3  2  0  0 12 11  0 13 21
  1 26 26  0 23  0  4 21  3  1 17 27  0 21 26  3 18 23  0 23 32  2 32 26
  4 24 23  3 29 26  3 26 23  4 28  0 23 21 11  6]"
13600,354,1.0,7,3,90.60543870925903,5.590856075286865,7288,54400,359211,2568095,"[ 0  1  1  2  1  2  0  1  3  1  3  1  5  3  1  0  3  0  0  8  7  5  5  9
  2  0  2  1  0  7  5  9  6  5  8  4  1  4 14  2 14  9  0  3  5  1  0  1
  2  8  5  3 12  6  2 11 10  5 12 21  5  1 12  1 17 12  1 14 16  4 16 15
  3 20  3  5 24 21  4 19 24  1 18  1  1 25 22  2 18 23  2 26  0  4  1  2
  5  1 23  5  1 26  5 32 29  4 30 31 23 21 11  6]"
13700,354,1.0,7,3,91.0848023891449,4.793601036071777,7340,54800,361267,2582538,"[ 0  3  0  2  1  2  0  1  3  4  3  1  1  0  0  0  3  0  0  3  7  5  5  9
  2  0  2  2  0  4  5  6  4  0  9  4  1  6 14  4 14 10  5  3 13  1  3  5
  4 11  0  3 12  6  2 11 16  3 12 21  5  2 11  2 19  3  3 12  1  2 16 12
  5  3 23  1 25 26  1  3  1  4 21 20  2 23 27  3 26 27  5 24  0  3 26 27
  1 23 27  1  1 27  2  1 25  1 30  2 23 21 11  6]"
13800,354,1.0,7,3,91.57746601104736,4.926602840423584,7400,55200,363277,2596657,"[ 0  3  0  2  1  2  0  1  3  2  1  2  2  2  1  0  3  2  0  3  2  5  5  4
  2  0  2  3  7  5  5  9  0  4  7  9  2  3 13  4 14 10  1  1  7  1 10  9
  4 14  4  3 12  6  2 12 11  3 12 21  5  0  2  0 10  1  3 19  1  0  2 16
  3 18 23  0 16  0  1 17 17  1 21 20  4 20 27  3 16 22  5 27 27  3 31 25
  1  0 32  2 24 23  2 23 25  1 27  1 23 21 11  6]"
13900,354,1.0,7,3,92.05797171592712,4.805006980895996,7462,55600,365181,2610068,"[ 0  3  0  2  1  2  0  1  3  5  3  2  4  2  1  1  0  1  5  3  8  5  5  4
  2  0  2  3  3  9  2  9  7  4  3  8  2  2 11  1  1  4  1  1 14  1  3  6
  4  9  5  3 12  6  3 14 19  5 12 21  3 15 17  1 20 18  3 14 16  5 20 11
  3 18 23  1 16  0  1  0 20  1 17 20  3 17 21  3 25 22  5 26 32  4 27 26
  2 28 32  3 26 23  5 24 25  1 24  1 23 21 11  6]"
14000,354,1.0,7,3,92.6025128364563,5.445375442504883,7519,56000,367151,2623995,"[ 0  3  0  2  1  2  0  1  3  5  3  2  4  2  1  2  1  3  5  9  8  5  5  4
  2  0  2  2  5  7  2  9  9  0  8  0  2 14 12  3  1  4  1  6 11  4  3 13
  4  8  1  3 12  6  0  2 15  3 12 21  3 16 18  1 12 21  4 14 21  0  2 17
  3 24 23  5 24 25  5 21 20  1 23 20  1 17 16  2 25 22  5 24  2  4 25 28
  2 24  1  4 23 23  3  1 26  3  1 33 23 21 11  6]"
14100,354,1.0,7,3,93.16129612922668,5.587778091430664,7579,56400,369128,2637830,"[ 0  3  0  2  1  2  0  1  3  4  1  2  4  1  3  4  1  3  0  4  5  5  5  4
  2  0  2  1  7  8  2  6  0  0  0  5  2 15  4  3  9 15  4  9 11  5  0 13
  4  8 14  3 12  6  1  2 15  5 12 21  0  3 18  1 19 19  5 14  1  5 13 20
  0  0 27  5 25 19  0 18  1  4 16 20  3 16  1  3  3 20  5 25 30  1 25 33
  0 23  1  1  3 31  0 31 32  2 26 27 23 21 11  6]"
14200,354,1.0,7,3,93.67076063156128,5.0946044921875,7628,56800,371398,2653722,"[ 0  3  0  2  1  2  0  1  3  3  3  2  3  3  3  3  1  1  3  5  2  5  5  4
  2  0  2  1  4  1  0  2  5  0  5  7  3 15 15  0  0 13  4 13 10  2 15  8
  1 14  5  3 12  6  1 11 15  3 12 21  4  3 19  3 18 21  2 10 20  5 20 21
  5 22 26  1  0 21  5 19  1  1 16 20  4 16  3  3 25 19  0 23 30  0 25 33
  0 22  3  3  2 27  2 26 30  5  1 31 23 21 11  6]"
14300,354,1.0,7,3,94.17161011695862,5.00845193862915,7680,57200,373438,2668089,"[ 0  3  0  2  1  2  0  1  3  2  3  2  0  1  1  5  2  0  3  8  6  5  5  4
  2  0  2  3  9  2  2  1  5  2  0  8  4  2 15  3  6 13  1 14  7  2  3  8
  1  7  2  3 12  6  1 20 20  5 12 21  4 17 16  4 18 21  0 14 20  0  3  2
  0 23 22  1 25 23  4 19  3  1 17 18  3 18  3  2 25  2  0  2 30  1 32 22
  2 22  1  1  2 30  2 26 30  4 32 31 23 21 11  6]"
14400,354,1.0,7,3,94.77328515052795,6.016690731048584,7732,57600,375425,2682075,"[ 0  3  0  2  1  2  0  1  3  2  3  0  0  1  3  5  2  1  2  5  5  5  5  4
  2  0  2  0  4  3  2  8  9  4  2  3  4 14  6  5  1 13  3 11 15  3  3  4
  1  7 15  3 12  6  1  0 12  5 12 21  5 11  0  4 17 21  0  1 11  5  2 19
  5 23 26  1 27 23  0 25 18  3 20 17  2  3 21  2 25 22  4 33 26  1 31 30
  2  0  2  2  2 24  2  3 28  4 32 29 23 21 11  6]"
14500,354,1.0,7,3,95.65262198448181,8.793320655822754,7789,58000,377438,2696264,"[ 0  3  0  2  1  2  0  1  3  0  3  2  4  1  2  1  2  1  2  0  5  5  5  4
  2  0  2  0  4  7  2  5  1  1  2  3  1 10  0  4  4 14  4 10 15  2  3  6
  5  7  8  3 12  6  2 10 15  3 12 21  4 11  0  1  2 21  0  3 11  3  2 11
  2 16 27  2 27 23  0 22 20  2 24 16  4  3 27  2  3 22  3  3 28  4 31  0
  2  1 26  0 25 25  0 32 33  4 32  3 23 21 11  6]"
14600,354,1.0,7,3,96.65624284744263,10.036149024963379,7841,58400,379492,2710696,"[ 0  3  0  2  1  2  0  1  3  1  1  2  4  0  1  5  2  1  3  9  9  5  5  4
  2  0  2  5  9  5  1  7  6  2  7  3  2 10  6  0  7  5  4  6  9  2 10  8
  1  0  6  3 12  6  2 16 16  5 12 21  3 11 19  2 14 15  0 13 19  3 21 20
  1 22 16  1  0  1  2 22 20  0 24 21  3  3 19  3 22 22  5 26 28  2 29 31
  2  2 29  4 25 26  4 30  3  1 30  3 23 21 11  6]"
14700,354,1.0,7,3,97.5051338672638,8.488848209381104,7893,58800,381653,2725914,"[ 0  3  0  2  1  2  0  1  3  1  1  2  2  2  1  5  2  1  5  2  4  5  5  4
  2  0  2  4  6  9  2  6  1  4  6  2  0 11  7  3  9  0  5 10  5  1  4  9
  1  2  6  3 12  6  0 14 19  3 12 21  4 10  1  2 11 15  0 21 18  1 15  2
  0 22  0  5 21 26  0 22 26  1  3 25  2 27 26  3 18  3  5 25  2  4 22  0
  2  1  3  0  3 25  3  1  3  1 28  2 23 21 11  6]"
14800,354,1.0,7,3,98.15943551063538,6.542971134185791,7947,59200,383681,2740142,"[ 0  3  0  2  1  2  0  1  3  5  2  1  1  0  1  1  2  1  0  0  4  5  5  4
  2  0  2  1  1  0  2  3  7  5  6  0  0  7 10  1  0  3  5  8  2  5  1  9
  2 13 13  3 12  6  1 14 13  5 12 21  2  3  1  5 11 11  5 10 13  5 12 14
  1 26 26  1  3 21  4 21 25  5 22 18  2 27 19  1 24 18  0 25  2  0 28 33
  1 22  2  3  3 25  2  1 25  2 27 22 23 21 11  6]"
14900,354,1.0,7,3,98.86812686920166,7.086856365203857,7998,59600,385877,2755518,"[ 0  3  0  2  1  2  0  1  3  3  2  0  3  3  1  4  1  1  1  5  9  5  5  4
  2  0  2  1  2  8  5  1  6  1  6  9  0  7 15  1  6 15  5 10  7  5  1 10
  5 14  4  3 12  6  5 14  3  3 12 21  5 18 20  5 14 16  5 13 21  4 12 14
  3 19  3  5 20 17  5 19 22  2  0  3  1  3 21  0 25 21  0 25  2  5 31 23
  1 22  2  4 26 22  2 31 32  0 30 24 23 21 11  6]"
15000,354,1.0,7,3,99.4720938205719,6.039609909057617,8053,60000,387916,2769809,"[ 0  3  0  2  1  2  0  1  3  1  1  0  3  1  2  0  1  3  4  5  8  5  5  4
  2  0  2  2  8  8  0  8  6  1  8  8  5 11 10  4  6 14  3  6  5  5 13 15
  0 14  4  3 12  6  4 11 16  3 12 21  2 18 11  5 21 19  5 13  2  3 12 21
  3 19 22  2 20 27  5 24  0  3 21 20  2 25 21  3 25 23  0 32 29  3 30 32
  2 30  0  1 23 22  2 22  2  0 25 24 23 21 11  6]"
15100,354,1.0,7,3,100.0674786567688,5.953793525695801,8108,60400,389916,2783844,"[ 0  3  0  2  1  2  0  1  3  1  2  0  2  3  0  0  3  0  1  3  4  5  5  4
  2  0  2  5  4  9  0  0  9  1  5  4  5 12  7  4  7  0  3  3  5  1 13 15
  1  3 14  3 12  6  4 13  1  5 12 21  2 15 14  4 17 19  5 16  1  2  1 16
  4 22  1  5  0 18  5 27 21  3 25 20  2  1  2  3  3  0  2 29  2  3 30 32
  3 30 28  2 26 22  2 31  2  1 25 24 23 21 11  6]"
15200,354,1.0,7,3,100.59340524673462,5.259227752685547,8160,60800,392064,2798980,"[ 3  3  0  2  1  2  0  1  3  1  2  3  3  2  0  0  3  0  0  6  7  5  5  9
  2  0  2  4  5  3  0  6  7  3  5  2  5 12 15  5 13  0  0  3  9  4  9  1
  2  3  9  3 12  6  1  3  1  3 12 21  2  1 14  3 17 10  0 12  1  1 17 16
  2 25  1  4 27 18  1 27  2  4 24 25  2  0 24  5 25 16  3 29  2  2 22  1
  3 32  1  2  1 22  5 31 25  1 32 24 23 21 11  6]"
15300,354,1.0,7,3,101.07484245300293,4.814319610595703,8220,61200,394070,2813091,"[ 1  3  0  2  1  2  0  1  3  0  1  1  3  2  0  0  3  0  1  1  2  5  5  9
  2  0  2  4  5  4  3  8  4  3  5  1  3  9  4  1  1  2  0  5  8  2 12  1
  3 12 14  3 12  6  1 18  3  3 12 21  4  0 11  4  1 18  2 15 12  1 17 15
  3 19 24  5 25 27  3  2 22  2 24 25  4  0 21  2 25 25  2 24 22  2 25 32
  1 29  1  5 24 26  5 28 28  4 24 22 23 21 11  6]"
15400,354,1.0,7,3,101.60528111457825,5.3043413162231445,8275,61600,396074,2827171,"[ 5  0  0  2  1  2  0  1  3  1  1  2  3  3  2  0  3  0  5  1  9  5  5  9
  2  0  2  4  5  4  1  0  4  4  8  0  2  5  1  3  8 10  5  9  2  1  9  8
  1 10  8  3 12  6  0 18 13  3 12 21  1  2 16  5 18  3  2 16 19  1 15 15
  3 19 26  3 26 23  4 24  0  2  2 23  4 26 21  5 21 22  2 30  2  3 33 32
  1  3 26  5 27 28  3 32 28  4 25 27 23 21 11  6]"
15500,354,1.0,7,3,102.2317636013031,6.264774799346924,8326,62000,398163,2841891,"[ 3  0  2  2  1  2  0  1  3  1  0  3  5  3  0  0  3  0  3  1  2  5  5  9
  2  0  2  0  3  2  1  4  6  5  1  4  3  2  0  5 10  1  5  7  9  2  0  4
  1 10  9  3 12  6  2 18  1  3 12 21  3  0 16  5 17  1  2 21 14  4 20 15
  1 16  2  0 22 18  5  0 26  2  1 21  5 24 21  4 22 27  2 30  0  5 33 28
  5 22  0  4  2 25  1 32 22  1 30 22 23 21 11  6]"
15600,354,1.0,7,3,102.79713869094849,5.65371036529541,8372,62400,400262,2856693,"[ 3  2  2  2  1  2  0  1  3  5  3  2  4  2  1  0  3  0  0  6  8  5  5  9
  2  0  2  0  8  2  0  4  6  2  1  9  0  2  3  2 10 12  1  9  5  5  0 15
  4 10  9  3 12  6  2 18 13  5 12 21  5 11 16  0 18  1  0 19 16  4 14 15
  1  3 22  2 26  3  5 22  1  2 20  2  3 24 26  0 20 27  2  3 27  2 31 33
  5 22  3  4 32 33  2  0 22  3 30 25 23 21 11  6]"
15700,354,1.0,7,3,103.3294026851654,5.322585105895996,8427,62800,402453,2872089,"[ 1  0  1  2  1  2  0  1  3  5  3  3  4  2  1  0  3  0  3  4  0  5  5  9
  2  0  2  1  8  9  3  2  2  2  1  9  3  2  2  2  1 14  4  0 14  5  0  8
  4  0 14  3 12  6  2 19 13  3 12 21  4 20 14  2 18 12  5 19  0  3 17 11
  1  3 22  3 24 27  3 21  0  5  0  3  4 26 25  5 22 19  1 25  2  4 30  2
  4 28 26  5  1  2  3  1 32  0 25 22 23 21 11  6]"
15800,354,1.0,7,3,103.89345192909241,5.640459060668945,8475,63200,404645,2887431,"[ 0  1  3  2  1  2  0  1  3  2  2  2  2  2  0  0  3  0  0  0  5  5  5  9
  2  0  2  2  1  9  3  2  7  2  1  9  4  1  9  2  8  9  5 13 12  4  2  6
  4  0 13  3 12  6  3 19  3  3 12 21  2 21 20  3  2 11  3 13  0  3 10 11
  1  3 16  3 27 24  0 24 24  3 19 17  3 25 20  1 16 26  1 31 26  1 23  2
  0 24 29  4 33 22  0  0 33  5  3 28 23 21 11  6]"
15900,354,1.0,7,3,104.50297975540161,6.095225811004639,8531,63600,406661,2901597,"[ 0  3  3  2  1  2  0  1  3  2  1  0  0  2  0  0  3  0  3  9  1  5  5  9
  2  0  2  3  2  5  0  0  9  3  7  9  1 15  9  2  1  7  5  7  2  2  2 15
  2  2  1  3 12  6  5  0 18  5 12 21  5 10 17  4  0 19  3 13  3  2 10 11
  5  2 16  2 20  3  2 20 17  3 19 27  2 17 16  3 17 26  1 26  3  1 29  2
  4 25 29  2 33 32  1 25  0  0 22 31 23 21 11  6]"
16000,354,1.0,7,3,105.0132007598877,5.1021599769592285,8591,64000,408547,2914898,"[ 5  1  1  2  1  2  0  1  3  4  3  1  0  3  3  0  3  0  3  6  5  5  5  9
  2  0  2  3  7  7  4  4  9  3  7  0  4  3  8  0 14  2  5 12 15  1  0 13
  2 14  1  3 12  6  3 19 17  5 12 21  5  0 13  5 11  2  4 11  3  4 14 12
  4  2 16  1 16  3  3  2 21  3  2 21  1 20 24  1 19 25  3 32  3  0 24 28
  2  1 29  3 25 24  1 27  1  0  1 30 23 21 11  6]"
16100,354,1.0,7,3,105.5673725605011,5.541682243347168,8646,64400,410558,2929112,"[ 5  3  3  2  1  2  0  1  3  5  1  1  2  2  1  0  3  0  2  6  2  5  5  9
  2  0  2  3  1  7  0  2  2  3  4  5  4 12  6  2 14  2  4  7  1  2  1 13
  2  5 12  3 12  6  5  1 15  3 12 21  5  2  1  2 14 13  5 16 10  4  2 12
  0 26 22  2 20  2  0 19 21  3 24 19  0 27 20  0 19 21  2 32  1  0  2 33
  4 29  3  1  2 29  0 29 26  3 32  1 23 21 11  6]"
16200,354,1.0,7,3,106.30750489234924,7.401268482208252,8703,64800,412569,2943208,"[ 5  0  3  2  1  2  0  1  3  4  1  3  0  2  0  0  3  0  3  1  7  5  5  9
  2  0  2  0  1  3  4  2  7  2  9  5  4  9  4  2 14  5  1  9  3  2  8 13
  2 12  0  3 12  6  5  1  1  3 12 21  3  1  1  1  2 19  2 16  1  3  3  1
  4 20 17  2 20 17  2 17  2  1  3  1  5 22 22  4  1 24  1 29 26  0 27  1
  1  3  3  3 28  2  2  3 26  0 32  1 23 21 11  6]"
16300,354,1.0,7,3,106.85653138160706,5.490214824676514,8752,65200,414753,2958475,"[ 5  3  0  2  1  2  0  1  3  4  1  2  4  3  0  0  3  0  0  4  2  5  5  9
  2  0  2  2  7  3  4  9  6  1  4  5  4  6 14  4 13  0  0 15  3  1  2  5
  0  7  9  3 12  6  1 16 11  5 12 21  1  1  0  4 18 11  3  0 14  3 10 18
  1 18 17  4  3  1  2  2 22  1  3 16  5 19 21  4 16 17  3 26 26  4 27 30
  4  3 33  0 23 27  5 26 26  5 32  1 23 21 11  6]"
16400,354,1.0,7,3,107.39700436592102,5.404672622680664,8805,65600,416820,2973028,"[ 5  3  2  2  1  2  0  1  3  3  3  2  4  3  3  0  3  0  0  9  6  5  5  9
  2  0  2  1  6  5  2  2  4  1  2  2  5  6  1  4  7 10  4  5  4  2 14  2
  2 15  8  3 12  6  1  3 17  3 12 21  1 17 18  3  1 18  1 18 21  1 11 10
  5 18 26  3 22 18  5  0 20  4  0  0  2 22 19  3  1 17  2 32 32  0 24 28
  2  3  3  2  2 28  4 23 30  1 32 33 23 21 11  6]"
16500,354,1.0,7,3,107.92818474769592,5.311765670776367,8864,66000,418750,2986644,"[ 1  0  1  2  1  2  0  1  3  3  0  2  0  2  0  0  3  0  2  0  2  5  5  9
  2  0  2  1  4  5  5  2  7  1  9  9  3  2  9  4 15 14  4  9  6  1 14  8
  2  0  8  3 12  6  3  1 16  5 12 21  1 19 21  5 11 18  3 12 12  1 11 10
  5  2 23  5 16  0  5  0 24  0 25 17  0 22 16  1 19  3  2 32 27  1 29 28
  4 28 32  2  2 28  1 32 30  3 32 33 23 21 11  6]"
16600,354,1.0,7,3,108.51465463638306,5.8646464347839355,8918,66400,420907,3001794,"[ 5  1  3  2  1  2  0  1  3  1  3  2  0  3  0  0  3  0  3  0  6  5  5  8
  2  0  2  1  4  4  4  9  9  1  0  3  3  1 10  4 15  5  0  8  6  0  1  2
  3  3  6  3 12  6  0 13 11  3 12 21  2 15 21  5 21 20  2 17 21  2 19  2
  3 22  2  4  2  2  5 24 27  3 17 25  0 27 16  2 23  3  3 29 27  1 28 28
  3 31 26  2  2 33  4 32 27  4 29 28 23 21 11  6]"
16700,354,1.0,7,3,109.1511561870575,6.364963054656982,8974,66800,422942,3016136,"[ 1  2  3  2  1  2  0  1  3  3  1  3  0  3  0  1  1  3  3  3  3  5  5  8
  2  0  2  4  4  4  0  9  9  1  9  4  4  2 10  0  0 10  3 15  9  2 14  5
  3  3 11  3 12  6  0 18  2  3 12 21  4 13 16  5  0 13  3 17 17  2 11 20
  5 24 19  4 27  2  1 23  3  5 25 25  4 22  1  0 19 20  4 32  1  4 31 22
  1  3 26  5 25 33  4 27 27  2 29 32 23 21 11  6]"
16800,354,1.0,7,3,109.66153836250305,5.103764533996582,9029,67200,424971,3030499,"[ 2  2  2  2  1  2  0  1  3  3  1  3  0  3  0  3  3  0  0  5  4  5  5  8
  2  0  2  4  4  4  2  8  6  2  9  8  1 12  7  5  7  2  4  6  8  1  9  5
  2  3 11  3 12  6  5 20 16  3 12 21  3  2  0  4 16 10  5  3 17  5 16 13
  3 25 24  1 27  2  0 23 27  5 22 23  1  3 20  2 19 24  4 29 33  4 28 22
  0 32  3  1 24 25  4 31  2  2 32 32 23 21 11  6]"
16900,354,1.0,7,3,110.22154140472412,5.599970817565918,9080,67600,427052,3045142,"[ 1  1  1  2  1  2  0  1  3  1  0  0  0  3  0  0  3  0  0  6  4  5  5  8
  2  0  2  5  5  0  1  6  6  5  7  8  0 11 10  5  4  1  4  4  8  2 13  7
  3 11 13  3 12  6  0 12 19  5 12 21  4 19 17  3 18 16  2 15 17  0 15  3
  3  1 19  3 24 26  5 23 27  4  0 17  3 27  1  4 18 18  4  3 23  3 27 22
  0 32  3  5 24 29  2 24 23  5 32 25 23 21 11  6]"
17000,354,1.0,7,3,110.8934953212738,6.719481945037842,9136,68000,429232,3060435,"[ 3  1  2  2  1  2  0  1  3  3  0  1  0  3  0  5  0  1  4  0  6  5  5  8
  2  0  2  5  0  7  1  4  6  4  7  4  4  3  1  0  5  9  5  5  8  1 13  7
  2  4 10  3 12  6  4 12 19  5 12 21  3 19 17  4 13 12  2 21 17  3 15 20
  5 27  0  2 27 26  2 19 18  5 17  2  5 22 27  5 26 18  1 30 24  3 25  0
  0 31  1  5 23  3  2 27  1  5 26  0 23 21 11  6]"
17100,354,1.0,7,3,111.4001190662384,5.066182613372803,9195,68400,431211,3074331,"[ 5  1  3  2  1  2  0  1  3  1  1  1  0  3  0  2  1  3  1  6  7  5  5  8
  2  0  2  4  0  7  2  4  0  0  4  7  1 12 12  5 15  8  4  8  4  0  9 12
  2 14  7  3 12  6  3 15 10  3 12 21  2 19 20  4 17  1  3 16  0  3  0 12
  4  2  1  4 18 26  2 26 27  5 17  2  0  1 23  4 17 21  4 30 26  4 22 26
  0 31 25  4 23 22  5 33 24  3 25 32 23 21 11  6]"
17200,354,1.0,7,3,112.07497787475586,6.748523712158203,9243,68800,433523,3090595,"[ 0  1  3  2  1  2  0  1  3  2  0  3  0  3  0  1  3  3  2  3  3  5  5  8
  2  0  2  5  3  0  0  4  0  0  2  7  0  8  3  5  4  8  1  0  4  5  0 15
  5 15  7  3 12  6  5 19 15  3 12 21  2 14 21  2  3  1  3 16  0  4 16 17
  2  1 17  3 17  0  1 20 23  1 24 23  2 21 17  3 23 27  4 25 23  2 30 26
  4 32  1  3 25 32  3 28 24  0 26 28 23 21 11  6]"
17300,354,1.0,7,3,112.65901160240173,5.840287208557129,9294,69200,435600,3105098,"[ 3  1  0  2  1  2  0  1  3  5  1  1  0  3  0  1  0  3  5  1  9  5  5  8
  2  0  2  4  3  0  2  8  5  2  8  3  2 12  5  0 13  6  2 15 13  1  5  3
  0 14  5  3 12  6  5  1 12  5 12 21  2 10 10  2 11 19  1 16 16  0 10 17
  2 18 25  0  1 19  3 26 25  0 16  1  1 16 17  4 23 25  4 25 23  5 22 29
  2 26 25  0  0  2  5 29 24  3  3 30 23 21 11  6]"
17400,354,1.0,7,3,113.22731041908264,5.682926177978516,9343,69600,437765,3120297,"[ 4  1  1  2  1  2  0  1  3  1  2  3  0  3  0  1  2  0  4  1  4  5  5  8
  2  0  2  3  0  4  4  8  5  0  0  3  5 14  0  2  6  2  2 15  8  1  5 14
  5  4  7  3 12  6  0  1  0  5 12 21  1 18 10  5 19 18  1  0 19  5 13 17
  4 19  3  2  1 19  2 22 17  0 24 23  4 19 19  3  0 21  4 26 24  5 27  0
  2 26 22  5 26 28  4 24 31  3 25 29 23 21 11  6]"
17500,354,1.0,7,3,113.82319068908691,5.958733558654785,9389,70000,440106,3136711,"[ 4  0  2  2  1  2  0  1  3  3  2  1  0  3  0  2  2  0  4  9  7  5  5  8
  2  0  2  5  7  3  4  8  2  3  1  5  5  6  5  2 10 13  0 13  8  1  8  0
  5  1  5  3 12  6  5 15  3  5 12 21  4 20 17  3 19 11  1 21  0  0 15 15
  4 19 19  1  1 19  5  2 25  2 24 16  0  1 16  3  2 21  2 26 31  2  0 28
  5 32 32  5 29 32  0  2 31  5  3  1 23 21 11  6]"
17600,354,1.0,7,3,114.37815952301025,5.549631118774414,9446,70400,442074,3150554,"[ 4  1  2  2  1  2  0  1  3  5  3  2  0  3  0  0  0  0  5  3  2  5  5  8
  2  0  2  5  2  5  4  2  9  3  1  6  5  6  8  2 13 13  4  3  9  1  6  8
  2 11 13  3 12  6  1  2  3  3 12 21  4 20 20  2  0 15  1 14 10  3 20 13
  1 27 19  5 25 18  0 20 17  5 19 22  0 22 16  2  2  0  1 26 31  0  3 31
  2 28 27  3  1 32  0  2 28  5  2 29 23 21 11  6]"
17700,354,1.0,7,3,114.9364242553711,5.58258056640625,9502,70800,444120,3164951,"[ 1  3  3  2  1  2  0  1  3  4  3  1  0  3  2  0  3  0  5  8  3  5  5  9
  2  0  2  4  1  7  1  2  4  1  1  4  5 10 12  0  1  2  1  3 13  0  4  9
  1 14 11  3 12  6  0  2  2  5 12 21  4 21 17  0  3 13  4  3 12  5 11  1
  0 27  3  4  1 26  1 22 17  2 20 20  0 22 16  2 25  0  1 24 31  4 27 26
  5 26 27  5  2 30  0 30 32  5 33 24 23 21 11  6]"
17800,354,1.0,7,3,115.57108736038208,6.34657621383667,9553,71200,446275,3180028,"[ 1  2  0  1  1  3  0  1  3  3  3  0  0  1  2  0  3  0  5  8  2  5  5  9
  2  0  2  1  9  7  4  9  8  1  9  5  5 10  4  5  6 14  1  6  1  2 10 15
  3  6  8  3 12  6  1  1  3  5 12 21  4 11 16  2 14 12  3 15 12  0 11 20
  0 25  3  0 27 18  3  0 17  5  0 18  3  2 26  2 25 19  2 26 33  3 30 30
  5 25 28  5  2  1  3  3 25  5 29 28 23 21 14  6]"
17900,354,1.0,7,3,116.16762113571167,5.965278148651123,9602,71600,448504,3195653,"[ 2  2  2  4  3  3  0  1  3  1  2  3  0  1  2  0  3  0  5  8  2  4  4  2
  2  0  2  1  3  0  4  9  8  4  0  5  0 13  3  0  6 14  3  5  3  1  4  9
  3  5 13  3 12  6  2 20 15  3 12 21  0  1 20  5 20 18  0 15  2  0 17 14
  2  1 17  0 20  3  0 17 25  5 19 16  2 22 26  3 23 19  2  0  0  0 22  1
  3  1 27  5  1 26  0 29  1  4 26  0 23 21 14  6]"
18000,354,1.0,7,3,116.74205374717712,5.744290351867676,9653,72000,450698,3211003,"[ 5  2  1  3  1  1  0  1  3  0  1  3  0  1  2  0  3  0  5  8  3  3  5  9
  2  0  2  1  9  4  4  9  8  1  6  5  3  2  0  5  1 14  3  2  2  3  4  7
  5  5  4  3 12  6  2 11 10  3 12 21  5  1 17  4 17  1  4  2 12  3  2 11
  2  2  3  4  3 18  1 16  1  4 21  2  4 23 25  4 23 24  5 31  1  5  1  1
  4  1 32  5  1 30  3  0  0  2 26 33 23 21 14  6]"
18100,354,1.0,7,3,117.23017644882202,4.881186485290527,9708,72400,452709,3225075,"[ 2  1  1  2  1  2  0  1  3  2  2  3  0  1  2  0  3  0  2  8  7  2  2  1
  2  0  2  0  0  2  4  9  8  2  2  9  0  2  5  0  1  6  5 14  2  0 10  8
  5 10  4  3 12  6  4 16 18  3 12 21  5 16 10  5 17 19  4 17 16  2 21 20
  3 18 23  2 27  1  0  1 23  1 21 20  0 21  0  0 18 20  5 24  2  0 27 30
  4 27  1  5 23  3  1  1 29  4 23 31 23 21 14  6]"
18200,354,1.0,7,3,117.81766557693481,5.874831676483154,9758,72800,454800,3239711,"[ 5  3  3  3  0  0  0  1  3  2  2  2  0  1  2  0  3  0  5  4  6  4  7  0
  2  0  2  0  0  7  4  9  8  4  2  3  0  4 15  3  8  1  5  0  2  0 15 12
  0  5 15  3 12  6  0  0 10  3 12 21  1 16 10  2 18 10  0 17  0  0 19 15
  3 24 20  2 26 24  5  1 25  3 17 25  3 21  1  5  0 23  5 33 30  4 32 30
  1 27  1  3  0 29  1  0  3  1 23 26 23 21 14  6]"
18300,354,1.0,7,3,118.43965768814087,6.219885349273682,9811,73200,456963,3254919,"[ 0  3  2  0  2  3  0  1  3  2  2  0  0  1  2  0  3  0  5  0  6  5  7  0
  2  0  2  3  2  5  4  9  8  3  2  8  2  0  4  5  8  1  0 11  5  4  6  7
  3  9  8  3 12  6  2 15 13  3 12 21  1  2  2  2 18 12  1 17 11  5  3  2
  3 20 19  0 26 24  3 23 25  1 18 19  0 25  2  1 24 17  2 23  2  3 22  3
  0 23 33  5  2 29  0  0 25  1 24 29 23 21 14  6]"
18400,354,1.0,7,3,119.02792167663574,5.882601737976074,9867,73600,459137,3270133,"[ 0  0  2  1  0  0  0  1  3  0  1  0  0  1  2  0  3  0  5  0  1  3  0  4
  2  0  2  1  2  6  4  9  8  1  6  2  2 11 10  2  7  3  0 11  9  2  6  7
  2  1  6  3 12  6  3  2 13  3 12 21  4 18  2  2 15 12  4 20 11  5  3 21
  2 20 16  1 19 25  2 26 22  1 24 16  0 21 18  1 24 26  3 24 24  4 31 30
  0  0 33  3  2  1  0  0 25  4 30 23 23 21 14  6]"
18500,354,1.0,7,3,119.66665387153625,6.387264728546143,9918,74000,461440,3286206,"[ 0  2  3  0  0  0  0  1  3  3  2  3  0  1  2  0  3  0  2  6  1  1  0  3
  2  0  2  0  6  6  4  9  8  0  2  1  5 11 15  1  7  1  0  1  0  5  3 13
  2  1 15  3 12  6  4 14 14  5 12 21  2  0  0  5  1 12  1  0 11  2 12 15
  1 26 18  0 19 25  4 23 20  1 25 24  3  0 18  3 19 27  2 24  2  4  1 28
  0  0 27  4 33  1  1 22 25  3 30 23 23 21 14  6]"
18600,354,1.0,8,2,120.29882621765137,6.321659088134766,9980,74400,463533,3301221,"[ 4  2  1  2  2  1  0  1  3  2  0  2  0  1  2  0  3  0  2  3  1  0  2  6
  2  0  2  5  4  2  4  9  8  3  7  0  0  2  0  1  1  8  3  1  2  4 14 11
  2  8 11  3 12  6  3  0  1  3 12 10  2 18 18  1 17 19  3 13  1  2 17 16
  2 18  1  0 20 27  4 23 16  1 26 18  4  0  1  4 19 19  4 29  1  1  0 33
  0 33  1  3 28 22  3 25 28  4 32 23 23 21 14  6]"
18700,354,1.0,7,3,121.02717566490173,7.283434867858887,10026,74800,466048,3320550,"[ 2  2  2  2  1  0  0  1  3  4  3  2  0  1  2  0  3  0  2  9  1  0  5  7
  2  0  2  0  9  4  4  9  8  3  3  3  0  7 10  3  5  8  5 11 10  5  6  7
  4  1 11  3 12  6  1 19  2  3 12 21  2  3 15  4  2 20  4  1 19  4  1 16
  3 25 18  0 16  3  0 27 16  0 21 26  5  1  1  1 23 17  2 33 29  2 27 28
  4 27 27  4  2  1  1 31 23  0 32 23 23 21 14  6]"
18800,354,1.0,7,3,121.58007669448853,5.528969764709473,10080,75200,467995,3334139,"[ 2  1  1  3  3  0  0  1  3  4  3  1  0  1  2  0  3  0  0  9  1  5  5  9
  2  0  2  0  9  4  4  9  8  2  3  3  1  7 14  1  9 13  0 12  0  3  7  7
  2  1 12  3 12  6  4 18  2  3 12 21  5 19 14  4  0 19  4  3 11  4  3 15
  0 25 21  0 20  3  4  2  0  1  2 26  0  1 16  3 19  3  2 33 28  3 27 28
  3 29 25  4 29 22  1 32 23  4  3  0 23 21 14  6]"
18900,354,1.0,7,3,122.19464945793152,6.145675182342529,10135,75600,470127,3349041,"[ 2  2  3  5  3  3  0  1  3  0  3  0  0  1  2  0  3  0  5  6  3  3  0  2
  2  0  2  2  6  4  4  9  8  3  4  9  2  9  4  1  9  3  3  2 10  1 15  5
  3  6 12  3 12  6  3 17 18  3 12 21  3 19 11  3 13 20  5 17  2  5 11 14
  1  3 23  3 26 18  4 17 21  3 27 18  0  1 26  2 19  3  0 25  3  3 31 31
  1  3 32  4  0 31  3 32 23  5 25 32 23 21 14  6]"
19000,354,1.0,7,3,122.73208260536194,5.374293327331543,10190,76000,472345,3364536,"[ 1  0  2  5  3  3  0  1  3  1  3  0  0  1  2  0  3  0  1  4  3  4  0  5
  2  0  2  1  3  1  4  9  8  1  6  1  2  9  5  1  1  5  1 13 10  1  1 11
  3  6 12  3 12  6  5 17 18  3 12 21  3 15 13  3  0 11  5 13 11  1 19 10
  1 21  1  4  2 27  0 17 22  0 21  2  0 20 25  1 19 21  2 26 29  3 23 24
  3 32 33  4 26 25  3 25 22  0 22 25 23 21 14  6]"
19100,354,1.0,7,3,123.25051951408386,5.184288024902344,10239,76400,474558,3380062,"[ 1  0  3  5  0  3  0  1  3  0  2  3  0  1  2  0  3  0  1  4  6  1  7  3
  2  0  2  3  3  4  4  9  8  1  4  4  3  4 15  3  6  9  1 10 11  1 11  3
  3  6  9  3 12  6  2 12 16  5 12 21  3 18 19  3  0 17  2 15  0  2 18  1
  4 16 20  4  2  3  3 17 25  5 27 25  4 26 25  1  2 16  2 31 25  1 26 32
  3  3 32  0 22 26  3 29  1  0 23  0 23 21 14  6]"
19200,354,1.0,7,3,123.75331282615662,5.027875900268555,10288,76800,476635,3394602,"[ 1  2  1  0  3  0  0  1  3  5  3  0  0  1  2  0  3  0  3  8  5  2  8  8
  2  0  2  5  5  6  4  9  8  1  7  1  4 14  8  4 11  7  0  6 11  2  9  8
  5  4 14  3 12  6  4  2 20  3 12 21  2 20 18  5  1 21  0 18 18  0  3 18
  1 26 16  2  2  3  3 23 25  5 16  0  2 19 27  2 25  0  2 26 25  3 24 33
  5 23 22  2 32 26  0 30  0  2 30 29 23 21 14  6]"
19300,354,1.0,7,3,124.35978722572327,6.064708232879639,10340,77200,478904,3410531,"[ 5  1  2  5  1  3  0  1  3  1  0  3  0  1  2  0  3  0  3  5  8  4  7  0
  2  0  2  4  6  2  4  9  8  0  3  1  5  1 13  4 11  2  1  6 11  3  9  5
  3 11  4  3 12  6  1  2  3  5 12 21  4  0 11  1 18  1  0  1  3  2  3 14
  1  0 21  2 26 18  3  0 18  2 21 24  5 27 19  2 26 19  2  0 22  0  1  1
  2 32 32  0 32 32  1 30 33  2 26  0 23 21 14  6]"
19400,354,1.0,7,3,124.98956370353699,6.29770040512085,10392,77600,481101,3425836,"[ 5  1  3  2  2  0  0  1  3  5  2  2  0  1  2  0  3  0  0  6  9  0  1  5
  2  0  2  3  6  7  4  9  8  2  2  7  5  1  6  4 11  3  0  6  1  3  4 13
  5 13  6  3 12  6  1  2 14  5 12 21  4  2  0  0 10 20  0  2 17  5 20  2
  5 26  1  3 18 18  5  0 23  4 22 17  0  3 19  1 17  1  3  0 29  1 33 26
  2 22 32  4 27 22  1 26 24  3 26 32 23 21 14  6]"
19500,354,1.0,7,3,125.58644604682922,5.96876859664917,10440,78000,483435,3442188,"[ 2  0  0  2  3  3  0  1  3  2  2  1  0  1  2  0  3  0  4  6  5  5  9  6
  2  0  2  3  9  3  4  9  8  1  1  3  4 11  6  0 15 14  1 10  9  1 15  9
  1  9 14  3 12  6  1 15  2  5 12 21  4 17  1  5 16 20  3  2 20  0 10 17
  4 23 18  3  3 18  5 17 17  0  2  3  0 27 16  3 17 26  0 24 28  5  0  0
  0 31  3  4 27  1  5  0 22  1  3 27 23 21 14  6]"
19600,354,1.0,7,3,126.1491813659668,5.627310276031494,10495,78400,485385,3455841,"[ 2  0  0  3  3  2  0  1  3  5  2  1  0  1  2  0  3  0  5  6  2  1  9  7
  2  0  2  3  9  2  4  9  8  1  8  7  4  2  6  2 15 13  5 10  5  5  1  9
  0  8  5  3 12  6  2 12  2  5 12 21  2 11  3  5 16 17  3  2 11  0 10  1
  1 23 24  3 27 25  5  2 22  5 26  3  1 25 17  2  3 22  0 30 31  2  0  3
  5 28  3  5 22 26  4 33 30  5 32 27 23 21 14  6]"
19700,354,1.0,7,3,126.76136374473572,6.121773719787598,10550,78800,487576,3471143,"[ 3  3  1  3  1  0  0  1  3  2  2  1  0  1  2  0  3  0  1  7  1  1  0  6
  2  0  2  2  9  2  4  9  8  3  7  1  0 10 13  4 15  7  3 10 15  5  1  9
  0  8  7  3 12  6  1 17 12  3 12 21  3 11 14  2 12 17  2 11 19  5 11  0
  5 24 19  0 23  0  2 21  0  5  2  1  1 26 17  3  2  1  5 22 23  5 31  3
  5  1  0  3 29 29  3 25 23  2  1 27 23 21 14  6]"
19800,354,1.0,7,3,127.34639930725098,5.850269794464111,10600,79200,489718,3486131,"[ 3  1  2  3  2  3  0  1  3  1  1  0  0  1  2  0  3  0  5  9  4  5  1  8
  2  0  2  0  1  9  4  9  8  3  7  1  5 11 10  0  3  0  5  6 10  5  3  9
  0  8  7  3 12  6  5 14 12  5 12 21  5 10 14  1  1 21  0 18 17  1 11 21
  5  3 21  3  0  0  2 20 17  5  2 26  2 17  0  3 22 16  4 22 31  3 27  1
  3 28 30  3 31 24  1 25 25  1 26  2 23 21 14  6]"
19900,354,1.0,7,3,128.0821704864502,7.357654571533203,10660,79600,491785,3500562,"[ 4  0  2  1  0  1  0  1  3  1  2  0  0  1  2  0  3  0  2  8  6  0  7  8
  2  0  2  0  7  7  4  9  8  3  2  1  4 14  4  3  1 14  3  8 10  2 15  9
  1 14  3  3 12  6  3 16 13  3 12 21  5 14 11  1 19 21  1 11 18  1 19  2
  5  0 24  3  3  0  1 20 21  3  0 26  1 18 19  1 18 26  4 25 26  1 26  1
  2 25 30  0 25 25  0 27 29  1 31 31 23 21 14  6]"
20000,354,1.0,7,3,128.6575779914856,5.7540154457092285,10720,80000,493820,3514743,"[ 5  0  3  0  0  1  0  1  3  1  2  3  0  1  2  0  3  0  2  1  6  0  5  9
  2  0  2  0  7  7  4  9  8  4  2  1  1 14 15  2  6 14  3  1  3  0  2 14
  1 15  0  3 12  6  3 11 14  3 12 21  0 11  3  4 11  1  1 11 20  4 11 20
  5 26 24  1 16  1  4 22 16  4 24 26  3 18 16  1 17 26  4 25 26  1 31  0
  2 25  3  0 25 30  0  3 27  1 33 32 23 21 14  6]"
20100,354,1.0,7,3,129.27135109901428,6.137669086456299,10777,80400,496067,3530439,"[ 2  0  3  5  1  3  0  1  3  2  3  2  0  1  2  0  3  0  2  7  1  0  6  0
  2  0  2  2  8  4  4  9  8  2  8  1  3  0  6  5  3  2  1  0 14  0 11  0
  4  8  5  3 12  6  3 10 19  3 12 21  0  1  1  4 20 21  4 19 14  4  3 20
  1 16 23  1  0 19  4 22 16  0 24  2  0 24 23  5 17 21  3  2 25  5 31  3
  5 25 28  3 31  0  0  1  1  0 27  3 23 21 14  6]"
20200,354,1.0,7,3,129.8434443473816,5.72087287902832,10828,80800,498200,3545365,"[ 2  3  3  3  2  0  0  1  3  2  3  2  0  1  2  0  3  0  4  0  1  4  6  2
  2  0  2  3  3  0  4  9  8  2  6  6  5  1  2  4  3 13  0  0  0  0 14  0
  2 10  4  3 12  6  2  1 16  3 12 21  2  3 12  4 20 21  4 21 18  2 18 21
  0 16 16  2 16 24  1 21 26  5 18 24  1 21  0  3 17 21  3  0 25  0 27 26
  5 25 24  3 25 26  0 22 29  5  2 30 23 21 14  6]"
20300,354,1.0,7,3,130.51602625846863,6.72576904296875,10878,81200,500507,3561447,"[ 2  0  1  0  2  0  0  1  3  0  3  2  0  1  2  0  3  0  0  2  2  1  0  4
  2  0  2  3  4  8  4  9  8  3  1  6  2  2 15  1 14 13  0  2  0  4 15 12
  2 12  3  3 12  6  5  2 17  5 12 21  3 12 12  4 15 11  3  2 10  2 18  1
  4  1  1  3  2  3  0 17 26  0 27 16  1 21  1  4 24 21  4  3 25  0 24 28
  1  2 25  4 28 22  4 22 29  4  2 24 23 21 14  6]"
20400,354,1.0,7,3,131.40155410766602,8.85521411895752,10934,81600,502669,3576553,"[ 5  2  3  1  1  3  0  1  3  5  3  2  0  1  2  0  3  0  0  2  4  1  5  2
  2  0  2  0  6  0  4  9  8  2  6  9  1  2  3  3 12  6  0  9  6  4  6 12
  4  7  3  3 12  6  5 16 14  5 12 21  3  2 17  0 12  0  3  2  3  5 13 10
  1 23 20  3  2  3  3 23 27  2 16 17  1 26 23  0 16 17  1 23 29  2  0 23
  0 28 27  0  1  0  4 27 29  4 31 22 23 21 14  6]"
20500,354,1.0,7,3,131.93111324310303,5.295553207397461,10992,82000,504714,3590790,"[ 2  0  0  2  0  3  0  1  3  5  3  2  0  1  2  0  3  0  1  6  4  1  7  1
  2  0  2  1  6  1  4  9  8  0  1  0  0  1  0  3  2  6  4  0 14  4  4 11
  4  1  5  3 12  6  4  2 14  3 12 21  4 18 17  0  0  3  4 17 14  3  0 12
  0 27 27  5  2 22  3 20  2  2 27 17  4 16 16  3 25 21  0 23 22  2 28 23
  5  3 31  0 23 29  1 29 26  1 31 30 23 21 14  6]"
20600,354,1.0,7,3,132.5516653060913,6.205480098724365,11041,82400,506975,3606512,"[ 4  1  3  2  0  2  0  1  3  5  3  1  0  1  2  0  3  0  3  2  4  5  8  1
  2  0  2  4  3  9  4  9  8  1  6  9  3 10  7  0  3 12  4  0  0  3  1  7
  4  1  3  3 12  6  1 15 16  5 12 21  5 14 12  2  2 16  0  3 17  0  0 12
  3 21 20  4 21 22  5 19 25  2 17  1  4 24 18  3 27 22  1 25 31  1  3 22
  0  3  2  4  0 24  5 31  2  5 31 30 23 21 14  6]"
20700,354,1.0,7,3,133.12497091293335,5.733017921447754,11101,82800,509161,3621861,"[ 1  1  3  2  3  2  0  1  3  2  1  0  0  1  2  0  3  0  3  9  5  2  6  0
  2  0  2  4  5  9  4  9  8  0  7  4  4  3 13  4  3 11  3 10  0  1 15  3
  1  1  0  3 12  6  3  1 16  5 12 21  5  3 12  2  1  1  5 10 11  5 19 16
  2 17 20  4 26  0  3 24 25  4 24  1  5 18 18  3 25  3  5  3 31  3 29  3
  4  0  1  4 23 28  1  0  3  0 22 28 23 21 14  6]"
20800,354,1.0,7,3,133.68538165092468,5.604064464569092,11154,83200,511163,3635910,"[ 3  1  3  0  3  2  0  1  3  4  2  0  0  1  2  0  3  0  3  9  9  4  6  7
  2  0  2  5  0  2  4  9  8  5  9  7  0  6 10  1  7  4  3 10 12  0  7 13
  1 13  0  3 12  6  5  3 12  3 12 21  5  0 12  2 18  1  0 13 11  4  0 19
  3 24 26  2  0 26  3 16 25  3 19  1  3 24 22  4 25 19  5  3 27  3 29 23
  5 25  1  2 22 33  1 33 31  5 28 28 23 21 14  6]"
20900,354,1.0,7,3,134.25821375846863,5.728261470794678,11211,83600,513313,3650910,"[ 0  2  2  0  3  2  0  1  3  2  0  3  0  1  2  0  3  0  5  9  9  4  1  5
  2  0  2  4  6  2  4  9  8  3  1  3  2  6  9  3  4  4  0  8  6  0 11 11
  5 14  2  3 12  6  0  2 13  3 12 21  2  2 17  5 20 15  5 19 12  2 11 21
  4 20  1  0 19 16  3 18 23  0 26 19  3 27 17  5 18 19  1 33  1  5 24 23
  1 25 27  4 27 24  3  2 31  5 32 28 23 21 14  6]"
21000,354,1.0,7,3,134.80078887939453,5.425708293914795,11264,84000,515535,3666426,"[ 4  2  0  3  3  3  0  1  3  2  2  0  0  1  2  0  3  0  1  9  9  4  9  6
  2  0  2  4  8  0  4  9  8  3  3  3  2 10  9  2  6 11  5  8  6  4  3 11
  5  4 13  3 12  6  5 14 13  3 12 21  4  3 11  0 12 18  5 21 18  1 21 21
  4 21 25  1 24 17  4 17 24  0 27 19  3 27  3  3 18 21  3 28 24  0  0 23
  1 31 27  4 26 25  2 33 23  2 30 30 23 21 14  6]"
21100,354,1.0,7,3,135.3175117969513,5.167064666748047,11321,84400,517518,3680269,"[ 1  1  2  2  1  3  0  1  3  3  0  3  0  1  2  0  3  0  3  5  8  1  4  8
  2  0  2  1  9  1  4  9  8  3  0  9  3 11  7  4  6 11  1  8  6  4  3 13
  5 14 14  3 12  6  3  0 12  5 12 21  1  3 13  0 19 15  0 21 18  1  0 11
  0 23  3  1 21 20  1 17 18  0 24 19  1  1  2  3 23  1  3 26 29  3 33 23
  4  2 27  4 31 25  0 32 32  2 26 24 23 21 14  6]"
21200,354,1.0,7,3,135.81462121009827,4.971044063568115,11372,84800,519541,3694430,"[ 2  3  1  4  0  3  0  1  3  3  1  1  0  1  2  0  3  0  0  5  3  5  9  9
  2  0  2  5  2  1  4  9  8  3  2  7  1  3  7  4  3  5  4  6  1  5  3 13
  3  6 14  3 12  6  1 10 12  5 12 21  1  1 21  2 19 10  0 17 17  5 11 11
  0 25 23  4 23  0  3 17 25  0  3 19  3 23 18  5 19 20  2 23 28  1  1  1
  4 23 22  1 24 27  4 32 33  2 26 24 23 21 14  6]"
21300,354,1.0,7,3,136.3651909828186,5.505659580230713,11418,85200,521757,3709959,"[ 3  0  1  0  0  2  0  1  3  5  0  3  0  1  2  0  3  0  5  5  3  5  1  9
  2  0  2  5  6  3  4  9  8  3  1  4  4 13  7  0  7  8  1  2  2  4  1  0
  3  8 14  3 12  6  5 13 18  3 12 21  1 15 21  1 21 13  0 18 10  3 21  0
  5 19 16  3 24  1  2  0 22  4  3 16  5  3 18  1 21  3  3 33  3  0 32 31
  4 28  0  4 29 22  1 32 23  1 30 27 23 21 14  6]"
21400,354,1.0,7,3,136.8655605316162,5.003652572631836,11477,85600,523869,3724773,"[ 0  2  1  0  1  0  0  1  3  4  0  2  0  1  2  0  3  0  4  2  8  5  1  9
  2  0  2  3  4  6  4  9  8  5  1  9  4 13 11  5  7  2  4 14  9  3  1 10
  3 12 10  3 12  6  0 15 19  3 12 21  2 13 13  2 21  0  5 13 15  3  2 18
  5 19  3  2 19  2  0 24  2  2 17  2  4 17 26  4 17 20  3 32  0  5 28  3
  1 29 33  4 33 22  3 32 23  0 26 22 23 21 14  6]"
21500,354,1.0,7,3,137.41587948799133,5.503129959106445,11526,86000,526117,3740467,"[ 3  1  1  5  2  1  0  1  3  1  0  2  0  1  2  0  3  0  4  7  6  0  1  8
  2  0  2  1  1  3  4  9  8  1  0  9  5  3  5  1  4  5  4  5  2  2 14 12
  2 12 13  3 12  6  3 15 19  5 12 21  3  1  0  2 11 15  3 11 12  4  1  1
  5  3  2  3  3 20  0 24 22  2 16  2  0 16 24  4 25 24  4 32 24  5 32  3
  4 31  2  1 28 22  5 26 31  0 26 22 23 21 14  6]"
21585,355,1.0,7,2,137.94480276107788,6.22256783878102,11570,86340,528006,3753693,"[ 5  0  1  1  3  3  0  1  3  1  0  2  0  1  2  0  3  0  0  9  8  0  1  8
  2  0  2  4  1  3  4  9  8  1  7  3  1  8  6  3  9  0  3 11  8  4 14 11
  2  0  3  3 12  6  3 10  2  3 12 21  4 14 12  0  0 20  1  2 12  3  2  3
  0 27 18  5  2 23  4 17 19  5 16  0  0  3 24  0 25 27  0 31 26  0 29 24
  4 31  3  1  2 27  5 26 28  0  1 31 10 21 14  6]"
