generation,fitness,functionality,active_nodes,longest_path,time,gen_time,nc_gens,fitness_evals,graph_evals,node_evals,genotype
0,151.0,0.40625,6,3,0.006476640701293945,6.4716339111328125,0,0,0,0,"[ 1  3  1  3  2  1  2  0  0  3  2  3  3  3  0  1  8  8  2  2  5  4  2  2
  1  0  2  0  7  0  2  1 12  0  1  6  0  7  7  4  7  9  0  5  6  0  0 13
  4 17  9  5  2  0  2  3  1  5 15  0  3  0 22  3 16  3  2  2  0  5 22  1
  5  2 19  2 23  9 22]"
100,337.0,0.984375,6,2,18.882718801498413,188.76238584518433,0,25600,228324,1417595,"[ 0  1  1  1  2  3  3  3  2  4  2  0  3  2  3  4  4  8  1  1  3  0  1  2
  2  3  5  0  3  0  0 13  0  3  5  4  0 13 11  5  7  9  5  7  6  4 11 13
  1  3 15  2 15 13  0  3  1  0  2  0  5  2 18  2 15 18  4  0 19  3 17 19
  5 20  3 16 23 19 22]"
193,342,1.0,7,3,34.07668089866638,163.37590063771896,0,49408,397522,2515491,"[ 5  3  3  2  3  0  3  2  0  3  2  1  1  1  3  4  5  8  3  5  0  0  1  2
  1  3  8  0  3  0  2  3  2  4  8  8  0 13 11  1 10  2  3 12  4  4 11 13
  0 18 15  0  3  3  0  3  1  0  2  0  3 14 17  4 23 16  5  2 21  1 20  3
  2  2 19 16 25 19 22]"
200,342,1.0,7,3,34.980199575424194,129.07351766313826,0,51200,405689,2573115,"[ 5  1  3  2  3  0  3  2  1  3  2  1  1  1  3  4  5  4  1  5  0  0  1  2
  1  3  8  0  3  0  2  3  2  0  8  8  0 13 11  1 10  2  3 12  4  4 11 13
  0 18 15  0  3  3  0  3  1  0  2  0  3 14  3  4 23 16  5  2 21  1 20  3
  2  2 19 16 25 19 22]"
300,342,1.0,7,3,47.72883415222168,127.48631238937378,0,76800,520469,3378199,"[ 4  0  3  3  1  3  5  0  3  2  0  0  3  1  3  2  2  5  1  6  5  0  1  2
  0  0  4  0  3  0  3 11 13  4  8  8  0 13 11  0 11 12  0  3 10  4 11 13
  1 15  2  0  9 16  0  3  1  0  2  0  3 19  3  4 23 16  5 21 14  0 23 21
  5  3 16 16 25 19 22]"
400,342,1.0,7,3,60.80636429786682,130.77526569366455,0,102400,638396,4209805,"[ 4  2  0  5  0  3  5  3  1  5  0  0  3  0  2  5  2  5  2  2  5  0  1  2
  5  0  6  0  3  0  3 11  9  5  5  4  0 13 11  3  5  5  0  2 13  4 11 13
  0 11 13  4  3 13  0  3  1  0  2  0  0 16 17  4 23 16  3 22 18  4  3  2
  3  1 20 16 25 19 22]"
500,342,1.0,7,3,73.90372729301453,130.97360134124756,0,128000,758233,5049667,"[ 2  2  1  0  3  0  3  2  0  2  0  3  5  1  3  5  0  6  0  3  5  0  1  2
  4  5  3  0  3  0  1  1  1  3 10  6  0 13 11  2  9  0  4 13  1  4 11 13
  1 16 14  3 17  0  0  3  1  0  2  0  5 21 23  4 23 16  4 19  2  1  2  0
  4 14 23 16 25 19 22]"
600,342,1.0,7,3,86.99209403991699,130.8836269378662,0,153600,877925,5889345,"[ 4  1  3  2  0  3  4  1  3  4  0  3  2  3  3  3  2  7  0  1  8  0  1  2
  0  1  8  0  3  0  4  8  6  3  7 12  0 13 11  2 10  7  3  4  4  4 11 13
  4 14  0  1  3  0  0  3  1  0  2  0  1  3 23  4 23 16  5 16 18  4 15  1
  1 20 21 16 25 19 22]"
700,342,1.0,7,3,100.03207564353943,130.3997802734375,0,179200,995780,6720770,"[ 3  2  1  0  0  2  0  2  2  4  2  3  2  3  1  3  2  4  1  7  6  0  1  2
  5  2  5  0  3  0  5 11  6  4  4  5  0 13 11  5  2  6  4 12  5  4 11 13
  5 18 10  2 18  3  0  3  1  0  2  0  1 15 22  4 23 16  1  0 22  4 20 16
  0 22 23 16 25 19 22]"
800,342,1.0,7,3,113.09375166893005,130.61672687530518,0,204800,1114424,7556325,"[ 2  0  0  2  0  2  0  0  2  1  0  1  2  0  1  4  4  0  3  7  5  0  1  2
  1  3  4  0  3  0  1  5 11  3  6  6  0 13 11  4  4  4  2 11  3  4 11 13
  4 15 13  2 16 12  0  3  1  0  2  0  1 18 14  4 23 16  3  1 22  2 14 21
  3 22 15 16 25 19 22]"
900,342,1.0,7,3,126.07209515571594,129.78339910507202,0,230400,1231837,8380519,"[ 4  1  3  0  0  0  3  0  1  4  0  3  3  0  1  2  7  2  0  2  2  0  1  2
  5  1  3  0  3  0  4  6  9  1  2  7  0 13 11  3 10 13  5  0  0  4 11 13
  2  9 16  1 12 15  2 17 11  0  2  0  3 16 19  4 23 16  0  3  2  0  1  3
  3 14  0 16 25 19 27]"
1000,342,1.0,7,3,139.07437419891357,130.02275466918945,0,256000,1349532,9208575,"[ 4  0  2  4  2  1  3  1  3  3  1  1  5  0  0  0  8  6  2  6  3  0  1  2
  3  8  3  0  3  0  3 10  2  0  6  2  0 13 11  0 11  4  0  9  6  4 11 13
  2  1  9  4  3  0  2 15  3  0  2  0  1  2 22  4 23 16  0  3 18  0  1  3
  3 17  3 16 25 19 27]"
1100,342,1.0,7,3,152.08329510688782,130.08917570114136,0,281600,1465912,10032327,"[ 2  1  3  4  1  2  0  3  2  3  1  2  0  2  2  3  0  8  0  8  7  0  1  2
  0  6  1  0  3  0  2 10  7  2  5  2  0 13 11  0  9  5  1  0  7  4 11 13
  5  3 14  5 16 18  3 11  3  0  2  0  4  0 22  4 23 16  0 22 22  0  1  3
  2  3  0 16 25 19 27]"
1200,342,1.0,7,3,165.39832544326782,133.15026998519897,0,307200,1588093,10892413,"[ 2  1  2  0  1  3  3  3  0  3  3  1  2  0  2  4  7  2  0  2  8  0  1  2
  0  0  6  0  3  0  1  9  2  2  9  4  0 13 11  2  5  0  2  1  1  4 11 13
  3  9  2  5  3 11  4 18 11  0  2  0  2 18  3  4 23 16  2 23 22  1 18 21
  0  3 15 16 25 19  5]"
1300,342,1.0,7,3,178.89285612106323,134.94527578353882,0,332800,1713635,11773749,"[ 2  3  1  0  1  3  0  0  1  5  3  2  0  3  2  4  1  0  4  6  2  0  1  2
  4  7  4  0  3  0  5 12  7  1  2  6  0 13 11  1  6 13  5  2 11  4 11 13
  5 16  1  0 18  9  0 10 13  0  2  0  4 21 23  4 23 16  1 21 23  5  2  3
  1 21 20 16 25 19  5]"
1400,342,1.0,7,3,192.33069038391113,134.37830686569214,0,358400,1838229,12648127,"[ 0  3  1  1  2  1  3  1  3  2  0  0  5  1  3  3  1  3  3  2  6  0  1  2
  4  2  7  0  3  0  2  2  5  0  4 11  0 13 11  1  1 12  1  2 12  4 11 13
  2  1 12  0 10 12  1 13 14  0  2  0  4  2 17  4 23 16  3 17 23  2 23 14
  5  2  1 16 25 19  4]"
1500,342,1.0,7,3,205.89029240608215,135.59598684310913,0,384000,1965497,13539420,"[ 5  3  2  3  2  1  1  3  1  0  3  1  1  2  2  1  3  6  4  1  5  0  1  2
  0  8  2  0  3  0  1  7  8  4  5 13  0 13 11  5  2  4  3 13  8  4 11 13
  4 12 18  1 16 16  0  2  0  0  2  0  0 15  1  4 23 16  3 17 19  0 15  1
  2 15 15 16 25 19  7]"
1600,342,1.0,7,3,219.33638048171997,134.46084260940552,0,409600,2091512,14421529,"[ 2  0  2  3  3  3  1  1  0  0  3  1  0  1  3  4  4  7  1  4  2  0  1  2
  0  2  5  0  3  0  4  5  1  1 13  3  0 13 11  1  2  3  2  2 10  4 11 13
  0 10  1  2  9 10  0  2  0  0  1  1  4 23 17  4 22 16  5 22 14  4 17  0
  2  0  2 16 25 19  7]"
1700,342,1.0,7,3,232.79295110702515,134.5656681060791,0,435200,2216527,15300503,"[ 0  2  1  4  0  1  4  2  0  0  3  1  4  3  2  4  2  0  0  3  6  0  1  2
  0  7  5  0  3  0  2  4  5  3  9  1  0 13 11  2  1  8  0 10  9  4 11 13
  4 11 10  2  0  2  0  2  0  0  9 15  3  0  1  4 22 16  4 16 16  0 23 16
  4 23 17 16 25 19  7]"
1800,342,1.0,7,3,246.20601153373718,134.1304349899292,0,460800,2340726,16172893,"[ 2  2  0  5  2  3  4  3  3  0  3  0  0  2  0  1  8  4  5  5  3  0  1  2
  4  0  3  0  3  0  0  1  3  3 10  2  0 13 11  4  8  6  0  9  5  4 11 13
  3 10 11  3 17 11  0  2  0  5  3 15  3  0 18  4 22 16  0 20 18  1 14 20
  1 16 19 16 25 19 14]"
1900,342,1.0,7,3,259.2751679420471,130.69153308868408,0,486400,2459652,17008394,"[ 5  0  2  0  2  0  4  3  0  5  3  3  1  3  2  4  0  6  0  1  6  0  1  2
  4  7  2  0  3  0  0  1  3  5  1 10  0 13 11  0  7  7  3  9  1  4 11 13
  5  3 15  2 12  0  0  2  0  1 16  2  4  0 23  4 22 16  5 16 15  4 21 23
  0  2  3 16 25 19 14]"
2000,342,1.0,7,3,272.28162574768066,130.06454467773438,0,512000,2577974,17839286,"[ 1  0  0  1  2  0  5  0  0  4  1  0  1  0  0  2  7  0  0  3  4  0  1  2
  2  4  0  0  3  0  0  1  3  5  9  4  0 13 11  2  4 13  3 13  5  4 11 13
  3 18 17  1  9  3  0  2  0  3  0  2  0 16 22  4 22 16  1 17  3  0  0 20
  3 14 17 16 25 19 14]"
2100,342,1.0,7,3,285.40883779525757,131.27208948135376,0,537600,2698028,18681556,"[ 3  0  3  3  0  0  5  3  3  0  1  1  1  0  2  2  1  6  4  8  8  0  1  2
  4  4  5  0  3  0  0  1  3  4  4  4  0 13 11  0  5 13  1 10  2  4 11 13
  1 18 11  5 15  9  0  2  0  3  0 18  1 20  2  4 22 16  0 19 15  4  1 17
  1 20 15 16 25 19 14]"
2200,342,1.0,7,3,298.5757186412811,131.6687774658203,0,563200,2818226,19526554,"[ 0  1  3  4  3  0  3  0  3  5  3  2  3  1  3  4  6  7  1  7  8  0  1  2
  0  7  0  0  3  0  0  1  3  4  4  8  0 13 11  4  8  4  2  4  5  4 11 13
  5  9 13  1 12  9  0  2  0  2 13 11  4 20  3  4 22 16  4 19 19  2 14 14
  1  0 14 16 25 19 14]"
2300,342,1.0,7,3,311.5606806278229,129.84958410263062,0,588800,2936606,20355726,"[ 4  2  0  0  1  0  3  3  0  5  1  0  4  2  0  2  1  1  0  8  5  0  1  2
  5  7  0  0  3  0  0  1  3  4  0  3  0 13 11  0  7  4  0  0  6  4 11 13
  0 12  9  3  3  0  0  2  0  5  3  1  2 20 16  4 22 16  4 23 14  4 17 17
  0 20 20 16 25 19 14]"
2400,342,1.0,7,3,324.5995440483093,130.38860321044922,0,614400,3055814,21190914,"[ 2  0  0  5  0  0  4  3  2  4  0  2  3  1  1  4  0  1  4  5  0  0  1  2
  4  5  1  0  3  0  0  1  3  2 12  8  0 13 11  0  2 13  3 13  0  4 11 13
  0  9 16  4 13 17  0  2  0  2 12 13  0 21 20  4 22 16  4 14 23  3  1 20
  3  3 14 16 25 19 14]"
2500,342,1.0,7,3,337.5965373516083,129.96989965438843,0,640000,3174020,22020077,"[ 1  0  3  0  2  2  5  0  3  3  2  2  5  1  3  4  5  8  1  8  4  0  1  2
  3  4  8  0  3  0  0  1  3  0 13 13  0 13 11  1  8  3  2 12  2  4 11 13
  1 17  0  2  0  1  0  2  0  1 10  0  1 21  3  4 22 16  0 19 17  4 14  0
  0 22 14 16 25 19 14]"
2600,342,1.0,7,3,350.70645570755005,131.09915018081665,0,665600,3293629,22859913,"[ 1  0  2  0  1  3  0  0  1  0  0  0  5  0  3  4  4  5  3  0  1  0  1  2
  3  5  1  0  3  0  0  1  3  4  6  2  0 13 11  0 12 11  2  0  0  4 11 13
  3 13 16  5 12 13  0  2  0  4 18 16  3 18 17  4 22 16  1  2 22  3 21 19
  5 17 20 16 25 19 14]"
2700,342,1.0,7,3,363.8498876094818,131.43428564071655,0,691200,3414582,23706105,"[ 2  0  1  5  0  0  4  3  3  3  0  1  0  0  0  4  3  4  4  5  2  0  1  2
  3  0  5  0  3  0  0  1  3  2  0  0  0 13 11  5  1  8  1 11  9  4 11 13
  2 10 14  1  3 13  0  2  0  0 17 14  3 14  0  4 22 16  1 23  1  0 18  3
  4 19  1 16 25 19 14]"
2800,342,1.0,7,3,376.97784209251404,131.2795090675354,0,716800,3535206,24551442,"[ 2  0  1  5  1  3  3  1  2  3  1  2  2  2  1  1  0  0  1  3  3  0  1  2
  2  0  8  0  3  0  0  1  3  3  6  7  0 13 11  0  7  0  1 13  7  4 11 13
  4 10  0  2  0 16  2 15  1  0  2  0  0  0  1  4 23 16  1  0 23  3 18 19
  2 17  1 16 25 19 14]"
2900,342,1.0,7,3,389.9967496395111,130.18904209136963,0,742400,3654350,25385794,"[ 5  3  0  1  1  0  3  3  2  3  2  3  0  0  1  2  2  7  3  0  0  0  1  2
  5  0  7  0  3  0  0  1  3  2  5 12  0 13 11  3  1  7  3  1  2  4 11 13
  2 12  0  3 18 18  2 12 17  0  2  0  1 20 21  4 23 16  3 14 15  3 20 17
  0 19  1 16 25 19 14]"
3000,342,1.0,7,3,402.94123005867004,129.4447660446167,0,768000,3772062,26210580,"[ 4  0  0  1  2  0  5  2  2  2  2  2  5  1  3  4  8  7  4  2  5  0  1  2
  0  0  0  0  3  0  0  1  3  2  4 10  0 13 11  1 13  5  2 13  9  4 11 13
  3 16 10  4 16 14  1  2 16  0  2  0  1 17  3  4 23 16  0 22  2  3 15 15
  1  0  1 16 25 19 14]"
3100,342,1.0,7,3,415.9923961162567,130.51162719726562,0,793600,3891275,27046336,"[ 3  0  1  5  0  2  5  0  0  1  2  3  3  2  1  1  2  2  4  3  6  0  1  2
  0  3  0  0  3  0  0  1  3  0  7  2  0 13 11  2 12 12  4  8  0  4 11 13
  4  9  0  0  0 10  5 10 18  0  2  0  1 19  3  4 23 16  0 23 15  3 22 21
  3  1  0 16 25 19 14]"
3200,342,1.0,7,3,429.0505425930023,130.5814266204834,0,819200,4011068,27885329,"[ 1  3  1  0  2  0  4  1  0  1  0  1  4  0  1  0  0  1  3  1  7  0  1  2
  1  1  2  0  3  0  0  1  3  0  5 12  0 13 11  2  8  7  2  8  9  4 11 13
  3 16 11  1 13 14  4 18 16  0  2  0  5 19  3  4 23 16  1 23 23  0  2  2
  4 21  2 16 25 19 14]"
3300,342,1.0,7,3,442.23717522621155,131.8662977218628,0,844800,4132820,28736609,"[ 3  3  1  4  0  0  0  3  3  5  0  1  5  2  1  4  2  4  1  8  8  0  1  2
  0  1  3  0  3  0  0 11  2  4  6  8  0 13 11  2  8 11  5  4 12  4 11 13
  0 16  0  0  1 15  4 18 11  0  2  0  1 16 17  4 23 16  1 17 18  1 17 17
  5  0 19 16 25 19 12]"
3305,343,1.0,7,2,442.8892569541931,130.41563034057617,0,846080,4138809,28778482,"[ 3  3  1  4  0  0  0  1  2  2  0  1  5  2  1  2  2  0  1  8  5  0  1  2
  0  1  3  0  3  0  0 11  2  4  6  8  0 13 11  2  8 11  3  9 12  4 11 13
  0 16 13  0  1 15  0 18 11  0  2  0  1 16 17  4 23 16  1 17 18  1 23 17
  5  0 19 16 18 19 12]"
