generation,fitness,functionality,active_nodes,longest_path,time,gen_time,nc_gens,fitness_evals,graph_evals,node_evals,genotype
0,179.0,0.5,8,3,0.020984649658203125,20.9805965423584,0,0,0,0,"[ 2  0  3  4  3  0  4  3  2  0  2  3  5  1  1  4  1  6  2  0  6  2  6  0
  1  3  8  5  5  2  2  5  7  0 10 11  2  6  1  1  8  9  4  0  1  3 18  2
  0 11 10  3 11  0  2 17  9  4  2 13  4  2 19  0 22 16  3 16 16  5  3 20
  0 18  0 26 15  7 18]"
100,328.0,0.96875,9,3,6.312725067138672,62.917377948760986,0,6400,67345,515430,"[ 0  2  1  2  1  0  1  3  2  0  1  3  3  2  0  3  6  4  5  6  6  2  2  0
  1  8  8  3  3  4  3 11  7  1  9 11  3  1  2  4  9  9  2  4  8  3 12 13
  3 11 13  3 11 14  0 10 17  4  2 11  0  3 14  0 22 23  5 14  1  3 15 23
  2  2 22 21 14 19  7]"
137,339,1.0,10,3,8.600763082504272,61.83878151146141,0,8768,88649,705905,"[ 0  2  1  0  3  0  0  2  2  0  1  3  3  0  2  5  8  4  3  6  1  2  2  0
  1  8  8  5  5  4  3 11  7  3  2  7  3  4  2  4  9  0  0 11  5  3 12 13
  3 10  2  3 11 14  5  2  2  5 12 11  4 16  2  2 22 23  5 20  2  0 21 21
  2  2 22 21 14 19  7]"
200,341,1.0,8,3,11.108298063278198,39.80208957006061,0,12800,110326,883511,"[ 0  2  1  0  3  0  5  2  3  0  1  3  0  1  0  5  8  4  2  4  5  2  2  0
  0  1  5  5  5  4  3 11  7  3  2 10  2  1  0  5  3 13  4  4  2  2 13 13
  5 16  3  5 11 14  5 15 16  5 12 10  2 23 14  2  3 19  5 20  2  5  1 21
  2 22 23 21 14 19  7]"
300,341,1.0,8,3,15.02839469909668,39.20092821121216,0,19200,144984,1158351,"[ 0  2  1  0  3  0  2  0  3  0  1  3  1  2  2  3  7  5  1  4  7  2  2  0
  5  4  4  5  5  4  3 11  7  5 13  9  2  9 12  3  6  0  0  9  2  3 13 13
  4  1 18  5 11 14  4 12  0  2  2  1  3 21 14  2 22 16  4  3 14  3 23 22
  5 22 16 21 14 19  7]"
400,341,1.0,8,3,19.01712727546692,39.88729000091553,0,25600,180585,1440864,"[ 0  2  1  0  3  0  3  3  0  0  1  3  3  3  0  2  8  5  1  5  6  2  2  0
  4  0  4  5  5  4  3 11  7  3  7  8  4  1  5  3  9  2  1  2  7  3 13 13
  3 18  1  5 11 14  1 12  2  3 17 10  1 16  0  2 22 22  0 22 18  5 15 17
  2  0 18 21 14 19  7]"
500,341,1.0,8,3,22.968736171722412,39.51606273651123,0,32000,215765,1720075,"[ 0  2  1  0  3  0  1  0  2  0  1  3  4  0  0  0  7  8  1  4  1  2  2  0
  1  4  6  5  5  4  3 11  7  3  2  2  5  1 13  3  9 13  1 10  1  2 13 13
  4 15  2  5 11 14  1 10  2  2 18 16  0 17  0  1 19  1  4 21 21  4 22 15
  1 23 19 21 14 19  7]"
600,341,1.0,8,3,27.003923892974854,40.35184621810913,0,38400,251583,2004019,"[ 0  2  1  0  3  0  5  1  1  0  1  3  5  0  0  2  5  8  4  7  8  2  2  0
  0  0  4  5  5  4  3 11  7  3 10  7  3  2  2  5 12  8  4  2  7  3 13 13
  5  3  3  3 11 14  5  0 10  2 16 16  0 20 14  0 18 17  1 21 17  5 23 20
  4 15  2 21 14 19  7]"
700,342,1.0,7,3,30.834675550460815,38.307483196258545,0,44800,287133,2268260,"[ 0  2  1  0  3  0  2  1  0  0  1  3  4  2  0  3  5  7  4  4  5  2  2  0
  1  6  1  0  7  8  3 11  7  4  2  5  1  0 12  3  9  9  3  1 12  0  9 14
  5  0 15  5 11 14  5  3 13  3 16 14  0 21 19  5 16 21  1 22  1  5 17 16
  3  2 17 21 14 10  7]"
800,342,1.0,7,3,34.487548828125,36.52870178222656,0,51200,322451,2513077,"[ 0  2  1  0  3  0  3  1  3  0  1  3  3  3  0  4  0  6  4  4  5  2  2  0
  1  1  1  1  3  5  3 11  7  1  1  9  5  2  6  5  4 12  3 10  8  5 16 18
  0  2  1  5 11 14  5  9 15  4 16 16  4 16 18  4 16  1  3 19 20  3 16 16
  1 18 23 21 14 10  7]"
833,343,1.0,7,2,35.66946482658386,35.81553516965924,0,53312,333509,2589941,"[ 0  2  1  4  3  0  1  1  0  0  1  3  0  3  0  1  8  5  4  4  8  2  2  0
  1  1  5  1  0  2  3 11  7  1 12  4  1 10  6  4  2  8  0  8  4  5 16 10
  0 16 14  5 11 14  1 12 17  4  1  2  2 21 18  2  1  1  2 18  3  2  2 16
  2 18 23 18 14 10  7]"
