generation,fitness,functionality,active_nodes,longest_path,time,gen_time,nc_gens,fitness_evals,graph_evals,node_evals,genotype
0,32,0.5,7,3,0.012619733810424805,12.613773345947266,0,0,0,0,"[ 1  3  2  2  2  3  5  2  1  0  0  1  4  3  0  1  8  0  1  2  8  2  6  7
  1  7  6  0  2  7  3  2  3  0  7  1  3  7  4  3  6  5  2  8  6  5  1 10
  3  9  1  4  0  0  5  2 12  5  9 10  1  0 21  5 16 17  5 19  3  2  2 17
  1 23 23  4 19  7 20]"
100,56,0.875,10,4,1.0770692825317383,10.644426345825195,4,400,5949,42928,"[ 3  2  2  0  2  1  4  3  2  0  3  1  3  0  1  5  2  8  2  3  5  4  6  6
  1  0  4  3  5  4  3 12  8  2  1  8  4  9  9  0 13  8  0  7  1  1 17 11
  0  1 12  4 17 17  1  2  0  5  0 15  0 20 15  2  0 16  3  3 15  5  0  1
  0  3  1 21 26  5 18]"
200,62,0.96875,14,4,2.5504891872406006,14.734160900115967,20,800,11661,108522,"[ 0  0  3  0  2  1  4  2  2  0  1  3  0  0  2  0  8  8  0  6  7  4  6  3
  0  7  6  3  5  4  3 10  8  5  6 13  2  6  8  0 12  1  0  1 11  3  9 13
  5 13 12  2 10  2  1 12 11  5  0  9  3 19 14  2 18 17  3 14 18  0  0 19
  0  3 14 17 26 20 18]"
276,67.0,1.0,11,4,3.5424726009368896,13.052341185118022,41,1104,14651,146889,"[ 0  0  3  0  2  1  4  2  2  5  1  3  0  0  2  5  3  8  1  8  4  4  6  3
  0  6  3  3  5  4  3  6  8  5  0  6  4  9  2  0  5  4  0  1 11  3  9 17
  3 13 17  5 10  2  1 14 11  4 18  0  3  3 14  5 18 17  3 14 18  0 17 20
  2  0 18 17 26 20 18]"
300,67.0,1.0,11,4,3.718999147415161,7.35512375831604,54,1200,15220,153074,"[ 0  0  3  0  2  1  4  2  2  5  1  3  0  0  2  5  3  4  1  8  2  4  6  3
  0  6  2  3  5  4  3  6  8  2  0  6  4  9  2  0  5  4  0  1 11  3  9 17
  3 13 17  5 10 12  1 14 11  4 18  2  3  3  0  5 18 17  3 14 18  0  2 17
  1  0 18 17 26 20 18]"
400,67.4,1.0,10,3,4.389212131500244,6.702091693878174,107,1600,17561,176600,"[ 0  0  3  0  2  1  4  2  2  4  2  2  0  0  2  0  5  8  3  8  0  4  3  1
  0  3  2  3  5  4  3  6  8  5  0  1  4  2  5  0  5  4  0  1  3  2 14 17
  5 13 17  2 12 14  1  0 18  5 12  9  3 14  2  3 23  0  5 14 17  2  2 17
  5 20 21 17 26 20 18]"
500,67.4,1.0,10,3,5.099825620651245,7.1060919761657715,168,2000,19757,198252,"[ 0  0  3  0  2  1  4  2  2  4  0  2  0  0  2  4  4  6  3  8  6  1  4  1
  0  8  2  5  5  2  5  6  8  4  4  7  4  9  5  0  5  4  0  1  3  1  3 15
  3 13 17  0 14 12  5 17 18  5 12 11  3 22 19  3  3  1  3 14 17  2 18 17
  4  0 21 17 26 16 18]"
600,67.60000000000001,1.0,9,3,5.812112092971802,7.122812271118164,215,2400,22236,221243,"[ 0  0  3  0  2  1  4  2  2  1  3  3  0  0  2  2  5  2  4  0  2  1  2  3
  0  6  0  1  5  0  3  6  8  5  4  1  4  4  5  0  5  4  0  1  3  1  3 15
  3 13  3  5 14 12  2 14 15  0 16 11  3  1 19  0  0 22  3 14 17  4 15 19
  3  3 16 17 26 16 18]"
700,67.80000000000001,1.0,8,3,6.411037445068359,5.989220142364502,255,2800,24695,241306,"[ 0  0  3  0  2  1  1  3  2  4  1  3  0  0  2  0  1  4  1  6  3  4  1  3
  0  6  2  3  5  7  2  2  8  4 13  3  4  4  5  0  5  4  0  1  3  5 15 15
  3  2  3  0 14  3  0 17 16  0 18 18  1  0 22  5  3 22  3 14 18  0 23  2
  2  0 21 17 26 16 18]"
701,68.19999999999999,1.0,7,2,6.4152867794036865,4.246234893798828,255,2804,24714,241441,"[ 0  0  3  0  2  1  1  3  2  4  1  3  0  0  2  0  1  4  1  6  3  4  1  3
  0  6  2  3  5  7  2  2  0  4 13  3  4  4  5  0  5  4  0  1  3  5 15 15
  3  2  3  0 14  3  0 17 16  0  2 18  1  0 22  5  3 22  3 14 18  0 23  2
  2  0 21 17 26 16 18]"
