generation,fitness,functionality,active_nodes,longest_path,time,gen_time,nc_gens,fitness_evals,graph_evals,node_evals,genotype
0,237.0,0.53125,17,6,0.009699344635009766,9.695053100585938,0,0,0,0,"[ 4  1  0  1  0  1  4  0  0  4  3  1  0  2  0  5  2  0  0  0  2  5  1  3
  1  2  2  4  4  0  5 10  6  0  0  7  4  2  0  5 12  6  3 11  7  0 12  6
  5  2  8  5  5  7  5  2 15  2 14  6  0 13 14  1 18  0  5  1 11  4  2 10
  3 11  5  4  0 21  3 19 12  0 17  2  4 25 20  2 10 23  3  2 25  5  2  0
  2  5 17  0  5 25  5  2 22  1 29 19  4  6  1  4 24 38  1  5  7  3 29 25
  1 31  2  3  1 10  2 15 30  3 11 34  0  6 14  5 30  4  1 45 21  3 39  8
  2 10 30  0 47 12  3 44 12  5 39  8  4 48 44  3  2 46  3 47 12  0 16 36
  1 38 54  2 25 22  0  1 39  5 21 44  4 37 31  4 39 45  3 35 20  4 65 55
  3 11 50  2 62 55  1 65  2  1 37 17  3 65 64  1 41 57  3  8 59  5 12 32
  2 57 37  3 11 16  1 68 26  3 46 66  4 29 32  5 28 21  3 26 56  4 63 46
  0 68  2 26 67  8 30]"
100,364.0,0.875,4,2,0.9961643218994141,9.864614009857178,33,400,5595,84398,"[ 4  2  2  0  0  2  4  0  0  3  1  2  0  3  0  0  2  1  1  1  0  5  1  1
  2  0  3  3  2  0  5 10  8  5  7  5  4 10 12  2  6  9  0  2 11  0  3  1
  5 10  9  5  9  9  5 20 15  4 14  9  1 13  9  5 18  1  3  1 11  0  2  5
  3 18  7  5 19 21  5 14 12  1 10 29  2 22 25  5 13 14  3  0 15  4 27 21
  0 15 18  1 22 25  5 24 24  4 29 29  1 27  1  3  9  5  1 12 29  3 12 35
  2 31 28  3 22 10  1 39 30  0 14  4  3 17 28  3 45 21  3 44  6  3 18  8
  3 14 30  0 47 22  4  0  8  5 35 43  2 48  5  5 43 33  1 53 13  1 16 39
  1 38 49  3 29 57  5 34 41  2 48 17  4 13 20  5 47 41  5 28 23  4  2 42
  2 16 34  3 40 34  1 32  2  0 53  4  2 65 26  1 16 49  1  8 59  3 50  1
  5  7 60  3 53 56  0 26 54  5 18 39  2 75 32  1 20 21  3 67 43  0 40 73
  0 21  5 26 26  8 19]"
200,364.0,0.875,4,2,1.505791425704956,5.096237659454346,79,800,10683,110844,"[ 4  1  2  3  0  3  2  1  3  2  1  3  0  3  0  4  0  0  4  1  0  5  2  2
  0  3  3  3  7 11  0  6  0  5  0  4  5  1  2  0  5 12  0 10  6  0  3  1
  5 10  9  4 10  7  0  0  1  2 17 11  4  3  2  2 15  3  3  1  7  0 12  5
  0 21 19  4  1  4  4 20  9  5  0  9  5 10  3  0  0 27  2  7  1  5 30 30
  0  0  7  5 22 17  3  1 15  1 29 15  5 26 34  0 14 28  0 26 19  2 21 15
  0  6 27  0 18  4  5 30 39  0 11 22  3  3 18  4 41 14  4 15 14  4  0 42
  2 41  4  4 23 10  2 29 10  2  8 20  3 23 39  4 34 23  1 29 15  0 16 12
  2 52  2  5 31 45  2 56 48  3 54 54  4 26 28  0 47 36  2  5  7  5 63 66
  3 29 51  3 56 49  4 52 52  1 16 21  0 61  6  4 33 10  0 37  7  5 44 37
  2 23 73  0 56 51  0  4 43  5 18 18  3 70 64  1 69 32  5 37 13  1 31 46
  1 46 55 26 26  8 19]"
300,382.0,0.9375,6,2,2.0198111534118652,5.140166282653809,122,1200,15801,139677,"[ 4  2  0  5  1  0  4  3  3  2  2  0  0  3  0  5  0  0  2  0  1  3  3  1
  0  2  1  3  4 11  0  8 12  5  7  6  5  0  2  3 12  9  0  6  6  0  3  1
  1  3  0  1  9 11  4  7 11  0  0 20  0  3  4  5  2  3  3 19  7  0 16  5
  5  9  5  1  1 20  1 18  9  4  0 16  0 17  4  4 29  8  0  7 12  2  2 24
  4  8  8  0 18  0  3  4  8  4  8  2  5 14 22  2 32 35  4 26 20  2 39  3
  1  8 33  3 18 23  3 35  4  5 30 13  3 17 31  5 48  1  4 37 14  3  9 38
  1 43 19  4 43 42  2 45 19  4  8 11  3 42  9  3 41 41  4 38 53  0 42 26
  4 35 20  5 26  6  4 39 48  4  4 23  5 37  4  3 56 36  2 47 27  3 13 25
  4 53 41  4 56 49  3 46 46  5 43 33  2 18 51  4 39 10  2 66  3  4  3 46
  1 72 39  0 68  2  0 61 29  0 70 47  1 45 25  1 29 44  0 65 69  1 70 30
  5 49 66 14 26  8 19]"
400,382.0,0.9375,6,2,2.513563871383667,4.937493801116943,172,1600,20298,168204,"[ 0  2  0  1  1  1  3  3  2  2  2  0  0  3  0  3  3  3  2  3  3  1  3  1
  0  2  1  4  2  7  0  8 12  5 10  5  5 12  8  1  2  9  4  3  8  0  3  1
  4  0  0  4  4  1  1  2 15  0  1 20  3 19  1  2 14 12  3 19  7  5  3 16
  4  9 14  0 14 15  2 21 15  4 19  0  0 17  6  1 18 22  0  2 25  2 10 19
  4 16  0  0 20  5  3  3 17  1 15  2  4 14 22  5 32 33  4 10  0  2  5  4
  5 39  4  1 22 23  1 35  8  3  1 36  3 17  1  4  2 42  3 33 16  4 21 29
  0 17 48  2 43 46  3 16 18  4 36 44  3 41 34  4 38 26  4 36 21  3 16 26
  3 35 20  5 26 16  2 56 32  0 18 27  5 32  3  3 31 36  2 31  3  3 52 20
  0 61 56  0 56 18  3 22 21  1 21 43  2 18 47  5 13 19  5 58  3  0 37 42
  2 72 44  3 59  2  1  0 53  0 66 19  5 74 28  1 48  1  2  5 71  4 75 57
  3 54 58 14 26  8 19]"
484,397,1.0,11,4,2.9363558292388916,5.0331950187683105,213,1936,23534,195285,"[ 0  2  2  5  2  3  2  1  2  2  2  0  0  3  0  0  2  1  3  3  2  2  0  0
  0  2  1  0 11  7  0  8 12  0 10  5  3 12  2  2  5  1  4  9  8  0  3  1
  5  1  9  4  6  1  0  3 10  5  8 20  3 11  1  2  4 16  3 19  7  3  0 21
  0 13 15  3  7 20  2  5 17  4 21  0  1  2  1  1 18 29  3 29 25  2  6 29
  0 27 18  0  7 22  3 21  0  2 12 20  4  3 30  0 27  7  3 27 36  2  5  4
  4 26  4  1 32 23  1 17 37  2 21  5  3 19 36  5 48 42  3 45 44  4 17 27
  5 18 30  1 35 39  1 14 21  4 20 44  3  1 36  3 29 37  4 24 26  3 48 26
  3 21 51  5 36 24  0 13  9  5 24 27  0  7 54  2 15  8  4 11  3  1 52 20
  5 61 66  2 12 56  3 19 22  1 33 15  2 19 47  5 13 66  5 47  3  1 38 58
  0 61 47  0 59  2  3 16 13  0 66 19  5 74 40  5 48  5  2 12 71  2 75 30
  0 54 58 14 26 33 19]"
500,398,1.0,11,3,3.0190811157226562,5.170121788978577,219,2000,24028,200723,"[ 0  2  2  1  3  1  2  1  2  2  2  0  0  3  0  0  2  1  3  3  2  0  0  0
  0  2  1  3 12  6  0  8 12  0 12  5  3 12  9  3  5  1  4  9  8  0  3  1
  5  1  1  4  6  1  2  3  1  2  5 20  3 11  1  2  4  5  3 19  7  3  7 21
  0 13 15  3  7 20  5 12 17  4 29  0  1  2  1  4 18 29  3 29 25  3  6 29
  0  5 18  0 14 22  3 21  0  2 12 20  4  3 30  0 27  7  3  4 20  5  5  4
  3 26  4  1 32 23  1 17 37  2 24  5  5 19 36  5 48 42  5 45 44  4 17 27
  5 32 30  2 35 39  1 14 29  4 20 44  3 14 34  3 29 43  4 24 26  3 48 26
  3 21 51  5  8 40  0 13  9  5 24 27  0 35 54  2 15  8  4 11  3  1 52 38
  3 32 22  2 12 56  3 19  7  1 33 15  2 19 47  4 13 59  5 47  3  1 38 58
  0 61 22  0 59  2  3 16 13  0 66 41  5 74 40  5 48  5  1 12 71  2 13 33
  0 54 58 14 26 33 19]"
600,399,1.0,10,3,3.4621288776397705,4.430439472198486,270,2400,26591,228463,"[ 0  0  2  1  3  1  4  1  1  2  2  0  0  3  0  0  2  1  5  3  1  0  0  0
  5  1  3  0  0  6  0  8  9  0  6  4  4  3  2  4 10  8  4  9  8  0  3  1
  2  2  1  0  8  9  2  8  1  3 14 20  3 11  8  0  4 15  3 19  7  2  7 12
  0 18  7  2  0  5  1  9 14  0 27  8  3  8 22  1 18 13  1 29 20  3  6 23
  0  5 13  5  9 14  3 28 24  3 10  7  4 34 35  0 27 29  5 33 20  2  5  4
  1 37 28  1 38 28  5 35 12  3 24 36  1  7 36  5 44 42  5  1 43  4 26 22
  4 32 44  1 35 39  3 23  6  5 20  8  3 40 38  3 47 34  3 21 26  0 48 51
  3 36 51  5 49 40  0 13 39  5 10 27  0 40 46  0 15 45  4 57  4  1 52 33
  1 52 12  2 33 58  2 32 35  0 24  8  1 19 26  2 13 24  5 63 50  1 42 29
  3 63 22  0 17 64  3 53  0  0 66 64  5 33 19  4 48 59  3  5 71  1 32 33
  0 54 27 14 26 33 19]"
642,403,1.0,7,2,3.6317203044891357,4.037817319234212,292,2568,27585,238187,"[ 2  0  2  1  3  1  4  1  1  2  2  0  0  3  0  0  2  1  3  3  1  5  0  0
  1  3  3  0  1  6  0  8  9  0  3  7  4  3  2  4  9  8  4  9  8  0  3  1
  1  2  1  0 12  9  4  2  1  3 14  6  3 11 11  0  6 15  3 19  7  2  7 12
  3 18 19  2  0  5  1 19 14  0 24 18  5 12 22  1 18 13  1 10 22  2 26 23
  0  5 29  5  9 14  3  1 11  3  5  6  3 34  4  5 27 21  5 21 20  2  5 20
  1 37 28  0 38 28  5  5 12  5  7 36  1  7 36  5 11 42  1 30 43  4 12 22
  5 43 44  1 35 39  3 23  6  5 23  8  5 40 45  3 41 43  3 21 35  3 48 35
  3 15 51  5  4 39  2 13 39  3 10 27  5 40 46  1 15 44  4  3  4  1  8 33
  1 58 53  2 38 54  4 66 35  0 24 66  1 15 26  5 66 24  5 63 50  5 24 29
  3  8 28  0 17 48  3 15  0  2 66 44  5 21 19  1 48 59  3  5 29  1 36 33
  0 66 27 14 26 18 19]"
