generation,fitness,functionality,active_nodes,longest_path,time,gen_time,nc_gens,fitness_evals,graph_evals,node_evals,genotype
0,96.0,0.25,10,4,0.006509542465209961,6.507158279418945,0,0,0,0,"[ 3  3  2  0  2  3  5  1  1  4  1  3  3  3  2  5  4  4  3  4  8  4  2  0
  4  5  8  3  3  6  4 10  5  0  8  5  3  5 10  5  9  9  3  3 11  4 14  0
  3  2 17  0  9 18  4  2 15  2 15  0  1 14 18  1 20 21  3  2 20  4 17 15
  5 18  3 23 11 27  7]"
100,319.0,0.921875,4,2,6.0982747077941895,60.917627811431885,0,6400,80895,377707,"[ 3  3  2  5  0  2  5  1  1  0  1  3  0  3  0  1  2  6  1  1  8  0  2  0
  5  3  1  5  1  2  4 12  3  0 11  7  2 11  5  2  7 12  2 12  2  4  1 18
  0  1 17  3  9 18  2 15 16  4  3 18  4  1  3  4  1  0  1 15  2  2 19 17
  5  3 23 15 11  8  7]"
200,322.0,0.9375,6,2,12.091025590896606,59.92748022079468,0,12800,159465,751076,"[ 4  2  1  3  2  1  1  2  3  0  1  3  0  3  0  3  2  3  0  7  6  0  2  0
  2  1  3  1  8  0  0 12 11  0 11  7  4  2  6  5 13 11  4  6 10  1  3 18
  0 14  0  0 12 11  2 12 12  3 13 10  0  3 20  5 15 21  4 19  2  4  1 15
  3 14 21 15 14  8  7]"
300,333.0,0.984375,9,3,18.824331760406494,67.33303785324097,0,19200,233778,1221529,"[ 3  2  1  5  0  1  3  2  0  0  1  3  0  3  0  2  1  3  0  1  2  0  2  0
  2  7  8  0  3  3  0  9 11  0 11  7  4 13  3  2 10  8  4 10  8  4 12 11
  5 10  2  1 14 18  4 12 18  3 10  2  3 23 16  5 17 23  4 20 14  2  1 22
  1 23 17 15 14 21  7]"
302,338,1.0,11,3,18.949434518814087,62.55042552947998,0,19328,234831,1230872,"[ 3  2  1  5  0  1  3  2  0  0  1  3  0  3  0  2  1  3  0  1  2  0  2  0
  2  7  7  0  3  3  0  9 11  0 11  7  4 13  3  2 10  8  4 10  8  4 12 11
  5 10  2  1 16 18  4 12 18  3 10  2  3 23 16  5 17 23  4 20 14  2  1 20
  1 23 17 15 14 21  7]"
400,342,1.0,8,2,23.63570213317871,47.819032961008496,0,25600,273665,1544854,"[ 0  2  0  3  0  2  2  1  3  0  1  3  0  3  0  2  1  3  0  1  2  0  2  0
  5  3  0  3  1  1  0  9 11  0 11  7  4 11  4  4  0  0  4 10  8  1 17 17
  4 10  1  3 14  0  0  9  2  4 12  9  0  0 22  4  1 21  5 19 16  5 23  1
  5 23 21 15 14 18  7]"
500,342,1.0,8,2,28.236778020858765,46.010730266571045,0,32000,312357,1849626,"[ 4  2  3  3  2  2  0  1  3  0  1  3  0  3  0  2  1  3  0  1  2  0  2  0
  2  4  1  3  5  8  0  9 11  0 11  7  1  9 13  3  8  7  4 10  8  2 13 13
  1  9  2  2 14 15  4 12 12  5 12 11  4 22 20  1  1 22  3  2 17  2  3  0
  3 15  0 15 14 18  7]"
600,342,1.0,8,2,33.036038875579834,47.99258232116699,0,38400,351948,2160948,"[ 0  1  2  5  0  0  5  0  2  0  1  3  0  3  0  2  1  3  1  3  4  0  2  0
  5  2  6  0  5  2  0  9 11  0 11  7  4 13  8  3 12 12  4  4  8  1 14  2
  3  1 10  1 17  0  1  1 10  1 13  3  3  0 19  0 19  1  1 17 21  4 14 20
  3 20 23 15 14 18  7]"
700,342,1.0,8,2,37.60814142227173,45.721004009246826,0,44800,390645,2465035,"[ 3  3  0  5  0  2  5  3  0  0  1  3  0  3  0  2  1  3  1  1  7  0  2  0
  0  8  0  0  1  2  0  9 11  0 11  7  3  3 12  2 12  2  4 13  8  0  2  3
  2  1 14  4  1  9  4  2 14  4  0 16  4 21 14  4 22  0  5 19 21  1 19 20
  1 17 15 15 14 18  7]"
800,342,1.0,8,2,42.216866970062256,46.08722686767578,0,51200,429773,2772480,"[ 4  1  1  0  0  2  2  3  0  0  1  3  0  3  0  2  1  3  3  5  3  0  2  0
  0  7  0  0  1  2  0  9 11  0 11  7  0  1 12  3  5  7  4 13  8  5  3 14
  4  1  2  5  0 17  4 15 12  0 13  0  3 22  1  0  3  0  4  2  3  2 18  3
  0 18  1 15 14 18  7]"
900,342,1.0,8,2,46.92957329750061,47.12703466415405,0,57600,468779,3079023,"[ 3  1  0  4  1  1  1  3  3  0  1  3  0  3  0  2  1  3  1  2  8  0  2  0
  5  4  5  0  1  2  0  9 11  0 11  7  0  3 10  0  7  4  4 13  8  5  2 13
  0  1 15  1 16 14  0  2 18  2  0 10  2 18 22  3 16  3  0 22 15  0 19 17
  1 16 19 15 14 18  7]"
1000,342,1.0,8,2,51.493985414505005,45.644097328186035,0,64000,507042,3380326,"[ 3  0  1  1  0  3  5  0  0  0  1  3  0  3  0  2  1  3  4  3  4  0  2  0
  2  5  6  0  1  2  0  9 11  0 11  7  0  0  6  2  0  1  4 13  8  3 10 10
  2  0 16  0 15  9  4 17 13  3 14 16  5 19 16  1 16  0  2 21 21  1 21 14
  3  0 23 15 14 18  7]"
1100,342,1.0,8,2,56.04907941818237,45.55091619491577,0,70400,545291,3680974,"[ 5  1  1  0  3  3  3  1  1  0  1  3  0  3  0  2  1  3  0  5  5  0  2  0
  5  2  7  0  1  2  0  9 11  0 11  7  2 12  2  5  8  1  4 13  8  4 16  1
  4 18  1  1 11 11  5 16 14  4 13  3  5 17  1  3  1 16  1 19  2  1  3 19
  3  3 20 15 14 18  7]"
1200,342,1.0,8,2,60.566927909851074,45.1784610748291,0,76800,583252,3979235,"[ 3  2  3  1  3  3  1  0  1  0  1  3  0  3  0  2  1  3  5  5  7  0  2  0
  5  7  1  0  1  2  0  9 11  0 11  7  5  3  7  0  7  1  4 13  8  3 16 18
  2 10 10  2  2 15  1 18 13  4 18 12  0  3 16  4 15  1  2  1  1  5 21 19
  5 21  1 15 14 18  7]"
1300,342,1.0,8,2,65.12972211837769,45.62791109085083,0,83200,621615,4281131,"[ 4  3  0  2  3  2  0  0  0  0  1  3  0  3  0  2  1  3  1  2  5  0  2  0
  0  4  6  0  1  2  0  9 11  0 11  7  2  0  4  1  8 13  4 13  8  4 13 11
  2 14 14  2 17  0  3  2  9  2 10  9  2 16  2  4 22 23  2 20 21  0 15 21
  4 14  2 15 14 18  7]"
1400,342,1.0,8,2,69.67489814758301,45.45173406600952,0,89600,659682,4581115,"[ 1  0  3  3  0  3  2  2  0  0  1  3  0  3  0  2  1  3  2  1  6  0  2  0
  3  0  5  0  1  2  0  9 11  0 11  7  3  3  1  4  4 11  4 13  8  3  1 17
  3 10 15  5 10 14  2 18 17  0  1 12  1 15 15  2 23 23  2  3 16  3  0 14
  4 22 22 15 14 18  7]"
1500,342,1.0,8,2,74.33644437789917,46.61543607711792,0,96000,698638,4887550,"[ 5  1  1  0  0  0  2  2  3  0  1  3  0  3  0  2  1  3  2  2  1  0  2  0
  3  1  3  0  1  2  0  9 11  0 11  7  0  6  5  5  5  7  4 13  8  3 17 16
  4 15  0  4 17 13  4 12  9  2  0 10  2 17  2  2  1 21  5  2 21  2  0 16
  1 15  2 15 14 18  7]"
1600,342,1.0,8,2,78.86866736412048,45.32219886779785,0,102400,736664,5186750,"[ 3  3  2  0  0  3  4  3  0  0  1  3  2  1  2  2  1  3  5  3  5  0  2  0
  2  4  2  0  1  2  0  9 11  0 11  7  1  3  8  1  7  2  4 13  5  3 11 12
  2  2  0  3  3 10  3 14  9  4 14 11  1 18 20  5 23 14  2 16 23  3 21 19
  3  2  2 15 14 18  7]"
1700,342,1.0,8,2,83.38059949874878,45.11929512023926,0,108800,774055,5480903,"[ 1  1  3  0  0  3  1  2  0  0  1  3  2  2  2  2  1  3  5  7  3  0  2  0
  2  4  0  0  1  2  0  9 11  0 11  7  5 11  6  1  7  0  4 13  5  5  2  9
  4  1  3  0 11 17  2 17 14  5 10 13  4 22  1  3 18 15  4 20 19  0 18  0
  2 17 17 15 14 18  7]"
1800,342,1.0,8,2,88.10444378852844,47.23841667175293,0,115200,812850,5785532,"[ 3  0  3  0  0  3  5  1  3  0  1  3  4  2  0  2  1  3  0  8  1  0  2  0
  1  7  7  0  1  2  0  9 11  0 11  7  1 10 11  5  2  5  4 13  5  2 11 12
  3 15  0  2  2  3  2 13 13  4  0 10  5  1 22  5 22 16  5 17 17  4 18  2
  1  1  3 15 14 18  7]"
1900,342,1.0,8,2,92.62222337722778,45.177764892578125,0,121600,850650,6082181,"[ 0  3  0  0  0  3  2  1  2  0  1  3  5  1  2  2  1  3  5  8  6  0  2  0
  3  0  2  0  1  2  0  9 11  0 11  7  1  8 13  2 13  1  4 13  5  0  3  3
  5 14  3  1 12 11  4 18 16  1  0 17  0 21 21  4 23 15  1 14 20  3  1  2
  1  3 18 15 14 18  7]"
2000,342,1.0,8,2,97.1633186340332,45.41093111038208,0,128000,888891,6382664,"[ 2  2  3  0  0  3  2  2  0  0  1  3  5  2  2  2  1  3  5  0  8  0  2  0
  0  7  1  0  1  2  0  9 11  0 11  7  5  8  6  3  3  0  4 13  5  4  1 11
  0 12  3  5 18 12  3 12 16  2  1 11  0  2 16  0  3  3  4 19 20  0  1 17
  0 18 20 15 14 18  7]"
2100,342,1.0,8,2,101.74634289741516,45.83021640777588,0,134400,926895,6681908,"[ 0  0  3  0  0  3  3  2  2  0  1  3  3  1  3  2  1  3  3  2  2  0  2  0
  2  8  5  0  1  2  0  9 11  0 11  7  1  9  8  4  0  7  4 13  5  5 11 17
  0 17  3  1 10  1  2 15 18  3  2  0  1 18  1  3 16  2  5 22 18  4 22 19
  5 22 16 15 14 18  7]"
2200,342,1.0,8,2,106.38351607322693,46.371705532073975,0,140800,966157,6990599,"[ 3  3  3  0  0  3  0  1  2  0  1  3  0  3  1  2  1  3  0  4  1  0  2  0
  0  0  6  4  5  2  0  9 11  0 11  7  3  4  8  1  0 10  4  6  5  5  9 10
  0 15 14  5 15  3  4 12  9  0 11  0  2 21 21  5 19 18  3 18  2  2  3 19
  5 17  0 15 14 18  7]"
2300,342,1.0,8,2,111.0936164855957,47.10096836090088,0,147200,1006209,7305650,"[ 3  0  3  0  0  3  0  1  2  0  1  3  1  1  2  2  1  3  2  3  2  0  2  0
  0  3  2  5  0  2  0  9 11  0 11  7  4  2  8  2 11  6  4  6  5  0 18 14
  3 16  1  0 16  1  5  0 18  3 13  3  0 20  2  2 19  2  4 18  3  3 18 18
  4  1 16 15 14 18  7]"
2400,342,1.0,8,2,115.83163261413574,47.38013505935669,0,153600,1045960,7617806,"[ 5  1  3  0  0  3  0  1  2  0  1  3  4  1  3  2  1  3  2  5  8  0  2  0
  4  5  7  0  5  5  0  9 11  0 11  7  4  0  1  3  1  7  4  6  5  4 17 13
  0  3 13  4 14  0  0 14  0  4 13 11  5  3 16  5  3  3  3 20 21  5 18 23
  4 19  1 15 14 18  7]"
2500,342,1.0,8,2,120.63263273239136,48.00997734069824,0,160000,1086931,7939344,"[ 3  2  0  0  0  3  0  1  2  0  1  3  2  3  3  2  1  3  0  5  0  0  2  0
  1  6  2  3  3  7  0  9 11  0 11  7  2 13  9  4 11  2  4  6  5  3  9 15
  4 13 16  0 16  0  0  9  9  1 15  9  4 21  3  5  1 21  3 21 21  4  2 15
  0 21  3 15 14 18  7]"
2600,342,1.0,8,2,125.28572797775269,46.53092384338379,0,166400,1125865,8245571,"[ 3  1  0  0  0  3  0  1  2  0  1  3  0  0  3  2  1  3  4  0  3  0  2  0
  4  3  2  3  1  5  0  9 11  0 11  7  2 13  6  2  4 10  4  6  5  2 14 17
  3  1  0  0 14 12  1  3 13  1 16 17  4 19 20  3 21 23  3 21 17  2  3 15
  0 20 14 15 14 18  7]"
2700,342,1.0,8,2,130.06025409698486,47.74523735046387,0,172800,1165413,8556302,"[ 5  0  2  0  0  3  0  1  2  0  1  3  2  0  1  2  1  3  3  4  0  0  2  0
  0  6  0  5  5  2  0  9 11  0 11  7  1  4  9  2  5  9  4  6  5  3  0  3
  4  1 14  5  9 16  1 18  2  0 10  1  5  0  1  2 22 19  3 19 19  4  3 20
  0 15 19 15 14 18  7]"
2800,342,1.0,8,2,134.83105540275574,47.70798444747925,0,179200,1205185,8868850,"[ 5  1  0  0  0  3  0  1  2  0  1  3  1  1  0  2  1  3  3  6  2  0  2  0
  4  8  0  1  5  4  0  9 11  0 11  7  5  5  7  5  9  7  4  6  5  1 11 10
  1 11 15  0 18 18  4  0 13  1  2  3  5 14 15  5 20 19  0 15  0  4  1  1
  0 23 19 15 14 18  7]"
2900,342,1.0,8,2,139.47799706459045,46.46939277648926,0,185600,1244684,9179308,"[ 5  0  2  0  0  3  0  1  2  0  1  3  4  0  0  2  1  3  1  2  8  0  2  0
  4  6  3  2  0  5  0  9 11  0 11  7  0  2  1  1  4  6  4  6  5  2 17  2
  1 12 10  1  9 12  5  9  0  3 14 17  2  1  1  0  1 22  2 22  1  5 20 14
  5 15 16 15 14 18  7]"
3000,342,1.0,8,2,144.17993640899658,47.01936960220337,0,192000,1284961,9496039,"[ 2  3  2  0  0  3  0  1  2  0  1  3  3  1  1  1  0  7  5  0  6  0  2  0
  3  7  0  2  3  1  0 13 11  0 11  7  0  7  6  4  6  4  4  6  5  2 10  1
  3 12 18  3 14  9  4 18  0  2  2 12  4 22 19  0 16 21  3 21 21  4  3 23
  3  1  2 15 14 18  7]"
3100,342,1.0,8,2,148.8610875606537,46.81148052215576,0,198400,1325005,9810290,"[ 2  3  2  0  0  3  0  1  2  0  1  3  3  0  0  3  3  6  5  0  7  0  2  0
  5  1  8  2  3  1  0 13 11  0 11  7  5  1  5  2 13  6  4  6  5  0 12 18
  5  2 15  2 14  2  1 13  3  1  2 14  2 14 17  3 18  3  4 23  3  4  1 19
  0 23 14 15 14 18  7]"
3200,342,1.0,8,2,153.5789532661438,47.17863082885742,0,204800,1364451,10119905,"[ 3  3  1  0  0  3  0  1  2  0  1  3  1  1  2  3  7  5  0  1  2  0  2  0
  3  5  5  2  3  1  0 13 11  0 11  7  4  2  6  3  5  4  4  6  5  5  0 13
  3  2 12  0 12  1  1 15  3  2 10 14  2 14  2  0 16 15  1 19 14  5 15  0
  1  0 15 15 14 18  7]"
3300,342,1.0,8,2,158.228670835495,46.49714946746826,0,211200,1403740,10428972,"[ 3  0  0  0  0  3  0  1  2  0  1  3  1  3  3  1  8  7  2  4  1  0  2  0
  2  4  4  2  3  1  0 13 11  0 11  7  2  5  6  2  8  0  4  6  5  5 11  0
  0  2 14  1  2 10  3 12  3  5 13 15  3 20  1  0  3 14  4 18 18  0 18 22
  5 22 17 15 14 18  7]"
3400,342,1.0,8,2,162.94745922088623,47.18785285949707,0,217600,1444155,10747958,"[ 3  2  1  0  0  3  0  1  2  0  1  3  1  2  2  3  1  5  5  0  3  0  2  0
  5  8  2  2  3  1  0 13 11  0 11  7  4 12 11  5  5 12  4  6  5  2  9 13
  4 17 16  2  9 13  0  2 18  1 15 12  2  1  1  1 22 19  5  2 22  2 18 16
  3  3 14 15 14 18  7]"
3500,342,1.0,8,2,167.56662154197693,46.19159936904907,0,224000,1483185,11054980,"[ 3  2  1  0  0  3  0  1  2  0  1  3  1  3  1  2  3  4  3  3  8  0  2  0
  2  6  4  2  3  1  0 13 11  0 11  7  4  6  1  2  9  4  4  6  5  0 15 17
  4 17  1  5 17 12  4 11  1  4  3 17  1 19  3  0  1  2  1 15 15  2 14  3
  0  1  2 15 14 18  7]"
3600,342,1.0,8,2,172.2437822818756,46.771583557128906,0,230400,1523046,11368367,"[ 4  2  0  0  0  3  0  1  2  0  1  3  3  3  0  3  0  0  3  2  3  0  2  0
  3  6  6  2  3  1  0 13 11  0 11  7  3 11 13  3  8  0  4  6  5  4 13 17
  1  3 11  5 11  0  2  3 16  5 14 16  5  1 14  4 23 18  1  1 15  4  1 19
  1 21  1 15 14 18  7]"
3700,342,1.0,8,2,176.948823928833,47.050392627716064,0,236800,1562440,11678435,"[ 3  2  3  0  0  3  0  1  2  0  1  3  5  1  0  2  2  5  4  8  7  0  2  0
  5  6  1  2  3  1  0 13 11  0 11  7  3 10  1  4  2  2  4  6  5  1 12  1
  0  3  1  3  3 10  4  3 18  3 11 16  2  0 23  3 20 22  1 21 18  1 19  1
  2 23 14 15 14 18  7]"
3800,342,1.0,8,2,181.61821484565735,46.6938853263855,0,243200,1602383,11992164,"[ 1  1  2  0  0  3  2  2  2  0  1  3  0  2  1  3  1  8  2  4  1  0  2  0
  1  3  4  2  3  1  0 13 11  0 11  7  1  3  1  4  1  2  4  8  5  1 18 16
  5 18 12  0 18 14  1  2 14  1 11  3  3 20 22  1 22  0  1 15  1  1  2  2
  3 22 17 15 14 18  7]"
3900,342,1.0,8,2,186.35981345176697,47.41595983505249,0,249600,1642302,12306445,"[ 0  0  0  0  0  3  1  1  3  0  1  3  0  2  1  2  4  1  3  4  6  0  2  0
  2  4  5  2  3  1  0 13 11  0 11  7  4 10 13  3  7  2  4  8  5  0 14  0
  4 18 12  1  3 18  0  2 10  5 10 11  3 22  2  0 23 21  2 23  0  2 17 23
  3  3 17 15 14 18  7]"
4000,342,1.0,8,2,191.06906509399414,47.09249019622803,0,256000,1681937,12618060,"[ 5  0  3  0  0  3  4  0  1  0  1  3  0  2  1  3  0  1  1  1  6  0  2  0
  0  1  2  2  3  1  0 13 11  0 11  7  4  5  7  1  7 12  4  8  5  3  1  9
  5 11  0  1  9 14  1  2 12  2 10 15  2 14 20  3 20 21  0  2 18  3 17 19
  3 22  0 15 14 18  7]"
4100,342,1.0,8,2,195.83620834350586,47.67140865325928,0,262400,1722842,12939733,"[ 1  1  3  0  0  3  4  0  0  0  1  3  0  2  1  2  2  6  5  5  4  0  2  0
  1  7  7  2  3  1  0 13 11  0 11  7  0 10  2  2 12  1  4  8  5  2  2 14
  5  3  2  3 17 11  4 16  0  5 12 11  2 15 20  4 20 22  4 16 23  1 22 21
  3 21  0 15 14 18  7]"
4200,342,1.0,8,2,200.67358016967773,48.37369203567505,0,268800,1762567,13252156,"[ 4  2  0  0  0  3  4  2  1  0  1  3  0  2  1  3  8  5  4  6  3  0  2  0
  2  6  6  2  3  1  0 13 11  0 11  7  2 10  3  5  5  7  4  8  5  0  3 10
  0 18 14  3 12  1  2 18 12  5  2  2  3 14 21  4  3  1  0 16  1  3 22 18
  4 22  3 15 14 18  7]"
4300,342,1.0,8,2,205.5085687637329,48.349857330322266,0,275200,1803660,13574789,"[ 4  2  0  0  0  3  5  1  3  0  1  3  0  2  1  5  5  3  1  5  2  0  2  0
  4  5  8  2  3  1  0 13 11  0 11  7  3 11  2  2  6  4  0  7 12  1  3 11
  0 12 13  1 12 17  4 14 15  4  9 11  4  0 18  3 16 22  0  2 15  5 19 21
  1  3 20 15 14 12  7]"
4400,342,1.0,8,2,210.19741940498352,46.88848257064819,0,281600,1843852,13890132,"[ 5  2  1  0  0  3  0  2  3  0  1  3  0  2  1  2  7  0  1  6  8  0  2  0
  4  5  8  2  3  1  0 13 11  0 11  7  2  9  1  3 10  1  1  7  4  0  1 18
  1  2  9  3 10  3  4 13  0  0 16 15  1 22  3  1 17  0  3 20  0  3 15 16
  5 23 15 15 14 12  7]"
4500,342,1.0,8,2,215.04756474494934,48.50142240524292,0,288000,1883938,14205532,"[ 3  1  0  0  0  3  0  1  1  0  1  3  0  2  1  0  0  2  4  4  6  0  2  0
  4  5  8  2  3  1  4  2  7  0 11  7  2  4  1  0 13 11  2  6 13  4 14 13
  0 11  2  1  1 11  1 13 14  2  2 18  0  0 16  1 16  0  0  0 20  4  3 18
  2 23  3 15 17 12  7]"
4600,342,1.0,8,2,219.77787399291992,47.30306386947632,0,294400,1924457,14523940,"[ 5  0  1  0  0  3  4  2  1  0  1  3  0  2  1  5  2  5  3  2  3  0  2  0
  4  5  8  2  3  1  2  0  9  0 11  7  5  0  9  0 13 11  1  0  9  5  9  9
  2 17 12  4 10 10  1 13 12  0 13 17  5 19 17  3  3  0  1  0 22  0 20 22
  3 22  2 15 17 12  7]"
4700,342,1.0,8,2,224.5765073299408,47.98630475997925,0,300800,1965848,14849320,"[ 2  1  3  0  0  3  4  1  0  0  1  3  0  2  1  0  7  4  5  8  2  0  2  0
  4  5  8  2  3  1  4  9  1  0 11  7  5 12 12  0 13 11  0  8  6  0 11 14
  3  2  2  4  0 10  4  3  3  5 14 17  3  3  1  3 19  2  2  3 20  5 19 20
  2  3 17 15 17 12  7]"
4800,342,1.0,8,2,229.3247492313385,47.48239278793335,0,307200,2006617,15169058,"[ 1  1  3  0  0  3  5  3  1  0  1  3  0  2  1  3  5  0  2  2  2  0  2  0
  4  5  8  2  3  1  0  1  2  0 11  7  5 13 12  0 13 11  0  0 10  2 14  2
  2 18  0  1  9 15  4 12  0  2 14 16  3 21 15  2 15 15  2 15  3  4 23 23
  5  1 14 15 17 12  7]"
4900,342,1.0,8,2,234.21509289741516,48.90340566635132,0,313600,2046654,15483313,"[ 0  2  1  0  0  3  1  0  1  0  1  3  3  2  3  0  2  4  4  8  7  0  2  0
  4  5  4  2  3  1  4  0  2  0 11  7  5 11  2  0 13 11  2  4 12  4 10 17
  2 14 10  3 13  0  3 17 13  5 12  3  0 18 20  4 16 18  3 15 21  2 20 21
  0 15 20 15 17 12  7]"
5000,342,1.0,8,2,239.03032684326172,48.152310848236084,0,320000,2086876,15798823,"[ 0  2  1  0  0  3  3  3  3  0  1  3  0  1  3  4  5  2  3  0  4  0  2  0
  4  5  4  2  3  1  3 13 13  0 11  7  3 11 12  0 13 11  5 10  2  0  3 18
  2  1 17  1  0  2  4 13  0  2 16  0  4  3 17  1  0 18  4 17 18  2 15 17
  3  3 20 15 17 12  7]"
5100,342,1.0,8,2,243.80149364471436,47.71164417266846,0,326400,2127187,16115157,"[ 0  2  1  0  0  3  5  0  1  0  1  3  2  3  2  4  1  3  2  8  4  0  2  0
  4  5  4  2  3  1  5  3  7  0 11  7  2  4  1  0 13 11  1  1  4  0 17  3
  1 10  3  1  2  1  2 12  2  2  2 13  1 22  3  0 22 18  4 21  0  1  1 16
  2 14 23 15 17 12  7]"
5200,342,1.0,8,2,248.49768447875977,46.9618821144104,0,332800,2167522,16431895,"[ 0  2  1  0  0  3  5  3  3  0  1  3  5  3  0  1  3  7  5  4  6  0  2  0
  4  5  4  2  3  1  3 12 10  0 11  7  4  5  7  0 13 11  2  1 12  0 13 11
  5 15  3  5  0  9  2 16  0  4 12  3  4 15 17  2 18 21  2 15  2  3  1 23
  0  0  2 15 17 12  7]"
5300,342,1.0,8,2,253.2826442718506,47.84957408905029,0,339200,2208686,16754891,"[ 0  2  1  0  0  3  0  2  2  0  1  3  0  2  0  3  6  3  2  4  0  0  2  0
  4  5  4  2  3  1  4  1  7  0 11  7  1  2  8  0 13 11  1  2  8  1 14  2
  3  9 12  5 12 14  4 12 17  0  2 18  2  3 21  3 18 22  3  0 16  0 17  0
  1 21 17 15 17 12  7]"
5400,342,1.0,8,2,258.1159408092499,48.33293914794922,0,345600,2249596,17076384,"[ 0  2  1  0  0  3  1  2  1  0  1  3  2  2  3  2  5  1  1  0  3  0  2  0
  4  5  4  2  3  1  2  1  6  0 11  7  5  5  0  0 13 11  2  3 13  0  9 14
  1 17  9  4 10 17  5  1  2  4 10  9  5 22 22  0 23 21  3 20 23  1 14  0
  4 20 19 15 17 12  7]"
5500,342,1.0,8,2,262.87910890579224,47.63165235519409,0,352000,2289879,17392761,"[ 0  2  1  0  0  3  2  2  2  0  1  3  4  3  2  0  1  4  5  8  1  0  2  0
  4  5  4  2  3  1  2  9  6  0 11  7  3  3  4  0 13 11  3 11  7  4  3  0
  4  1 10  3  3 12  3 10 18  0 10 10  3 23 14  4 14 15  2  3 20  5  1 20
  4  2 19 15 17 12  7]"
5600,342,1.0,8,2,267.6756749153137,47.96563148498535,0,358400,2330228,17709926,"[ 0  2  1  0  0  3  0  1  2  0  1  3  1  1  3  3  7  1  2  1  5  0  2  0
  4  5  6  2  3  1  5  4  5  0 11  7  2  2 10  0 13 11  3  7  7  2 13  0
  0 11 16  3 11  0  2 13 11  1  0 10  4 15 16  0 21 22  5  1  3  0 15 14
  1 18 18 15 17 12  7]"
5700,342,1.0,8,2,272.49227237701416,48.16594839096069,0,364800,2371085,18030727,"[ 0  1  0  0  0  3  0  1  2  0  1  3  5  1  2  4  3  7  4  3  8  0  2  0
  4  5  6  2  3  1  5  2  3  0 11  7  2  0  0  0 13 11  5  5  2  2 10  9
  0 15  2  2  1 17  2 18 17  5  2 11  5 18 23  3 21  0  2 21 18  4 23  1
  1 23 23 15 17 12  7]"
5800,342,1.0,8,2,277.1223392486572,46.300647258758545,0,371200,2410523,18340844,"[ 5  3  2  0  0  3  0  1  2  0  1  3  4  3  0  3  6  4  1  4  4  0  2  0
  4  5  6  2  3  1  3 12  5  0 11  7  1 12  1  0 13 11  1  3  3  3  9 10
  5  0  9  5 11  1  5  9  1  2 18  9  5 18 16  1  2 17  3  2  1  2 18 19
  3 14 17 15 17 12  7]"
5900,342,1.0,8,2,281.8488130569458,47.26471185684204,0,377600,2451037,18658878,"[ 0  3  0  1  0  3  0  1  2  0  1  3  3  2  3  5  1  2  0  4  5  0  2  0
  4  4  6  2  3  1  1  0  4  0 11  7  4  4  9  0 13 11  5 13  3  5  2 11
  3  0 15  4  3 10  4 15  0  5  2  9  1 18  0  5 16 14  3 16  0  1 18 17
  2 18 16 15 17 12  7]"
6000,342,1.0,8,2,286.5671169757843,47.18301296234131,0,384000,2491485,18976540,"[ 0  3  0  2  2  0  0  1  2  0  1  3  0  2  0  1  8  1  3  1  4  0  2  0
  4  4  6  2  3  1  2  6  7  0 11  7  5 10  7  0 13 11  2  4 13  2 12 18
  0 13 16  1 12 12  2 18 12  1 14 13  2 16 16  2 20  3  4  3  1  3 22 14
  3  3 19 15 17 12  7]"
6100,342,1.0,8,2,291.3144545555115,47.47334957122803,0,390400,2532367,19298100,"[ 0  3  0  5  0  3  0  1  2  0  1  3  0  2  0  5  8  0  3  8  0  0  2  0
  4  4  6  2  3  1  0  9  6  0 11  7  0  7 10  0 13 11  1  5 12  0  0  2
  0  9 14  4 11  9  1 14 16  1  9  9  4  0 18  5 19  3  0 14  1  4  1 14
  1  0 23 15 17 12  7]"
6200,342,1.0,8,2,296.1255052089691,48.110480308532715,0,396800,2573161,19618744,"[ 0  3  0  0  3  3  0  1  2  0  1  3  5  0  0  3  6  7  2  5  5  0  2  0
  4  4  6  2  3  1  1  4 10  0 11  7  4 11  9  0 13 11  1  8 10  2 15 13
  5 15 14  4 18  2  3 18 12  2 18 17  1  0  0  3 18 21  3  1 17  4 17 21
  0 20  1 15 17 12  7]"
6300,342,1.0,8,2,300.8877031803131,47.62195587158203,0,403200,2614074,19940728,"[ 0  3  0  0  1  3  0  1  2  0  1  3  1  2  0  3  0  8  0  8  8  0  2  0
  4  4  6  2  3  1  3 10  5  0 11  7  0 12 13  0 13 11  1 13 11  2 15  0
  3 14  0  1 12 18  5  2  3  3  9 16  1 18  1  0 16 20  3 14  2  3 18 22
  1 14 17 15 17 12  7]"
6400,342,1.0,8,2,305.63738679885864,47.49681234359741,0,409600,2655050,20262212,"[ 0  3  0  4  1  2  0  1  2  0  1  3  0  1  1  0  6  4  0  6  2  0  2  0
  4  4  6  2  3  1  4  4 11  0 11  7  5  9 12  0 13 11  1  6 12  1 18 15
  3  0 11  4 13 15  2 16 17  1 16 16  4 15  2  2 17 18  3  3 15  0 17 14
  2 14  0 15 17 12  7]"
6500,342,1.0,8,2,310.42274355888367,47.853543758392334,0,416000,2696542,20587883,"[ 0  3  0  1  3  2  0  1  2  0  1  3  4  1  0  5  6  5  3  4  4  0  2  0
  4  4  6  2  3  1  5 12  5  0 11  7  3  4  4  0 13 11  3  7  9  5 17 11
  4 11 10  4 10 15  4 18 14  0 12 13  0 20  2  1  0 22  5 20 17  5 16 17
  1 19 19 15 17 12  7]"
6600,342,1.0,8,2,315.3001163005829,48.77370357513428,0,422400,2737641,20911047,"[ 0  3  0  2  0  3  0  1  2  0  1  3  2  0  2  4  6  2  0  8  0  0  2  0
  4  4  6  2  3  1  0  5  3  0 11  7  4  2 11  0 13 11  1 11 11  4 10 10
  2 11 17  5 11  3  1  9  3  0 18 15  3 19  0  4 18 22  5 20 15  5 20 22
  4 15 21 15 17 12  7]"
6700,342,1.0,8,2,320.1648042201996,48.64685297012329,0,428800,2778498,21231850,"[ 0  3  0  4  0  2  0  1  2  0  1  3  5  3  1  5  6  5  0  4  5  0  2  0
  4  4  6  2  3  1  4  3 12  0 11  7  4  1  4  0 13 11  0  4  7  0 18  9
  4 14 17  0  9 17  5  0 14  2 16 12  5 15  2  2 22 14  3 17 21  1 23  2
  3 16 16 15 17 12  7]"
6800,342,1.0,8,2,324.90531301498413,47.40506172180176,0,435200,2818821,21548547,"[ 0  3  0  5  0  2  0  1  2  0  1  3  3  2  0  4  1  6  3  2  7  0  2  0
  4  4  6  2  3  1  0  1  0  0 11  7  1  6  7  0 13 11  1  1 12  1 18 16
  0 13 12  4 15 16  2  9 11  1 11 17  4 19 15  5 16 17  5  2 23  1 21  0
  0 19  3 15 17 12  7]"
6900,342,1.0,8,2,329.6589217185974,47.53605842590332,0,441600,2859177,21865822,"[ 0  3  0  0  3  1  0  1  2  0  1  3  5  0  0  3  2  7  2  5  2  0  2  0
  4  4  6  2  3  1  4 13  0  0 11  7  3  6  1  0 13 11  2  5  8  4 11 11
  0 13  9  4  9  3  2 15  2  4 16 17  0 14 21  2 22 15  4 22  1  2 14 22
  1  2 17 15 17 12  7]"
7000,342,1.0,8,2,334.4300582408905,47.71133899688721,0,448000,2900460,22189742,"[ 0  3  0  2  1  2  0  1  2  0  1  3  1  0  3  2  3  1  5  1  1  0  2  0
  4  4  6  3  6  5  5  2 11  0 11  7  1  1 10  0  9 11  2  6  9  4  2 13
  5 12 13  0 18 14  2 16  2  3  2 11  3  0  2  1 20 17  0 19 18  3 18 22
  5 18 16 15 17 12  7]"
7100,342,1.0,8,2,339.0691509246826,46.39090061187744,0,454400,2940079,22501040,"[ 4  3  2  1  1  1  0  1  2  0  1  3  0  3  0  2  3  1  4  4  2  0  2  0
  4  8  6  3  6  1  1 13 11  0 11  7  3  4  4  0  9 11  2  0 13  0  3 14
  4  0 13  5  0 15  3 14  2  5 17 18  0 22 21  5 21 16  2 17 15  1  3 16
  3 20 20 15 17 12  7]"
7200,342,1.0,8,2,343.872576713562,48.034231662750244,0,460800,2980440,22817949,"[ 4  0  2  4  0  3  0  1  2  0  1  3  0  3  0  2  3  1  4  8  2  0  2  0
  4  8  6  4  1  5  5  5  6  0 11  7  5  8 13  0  9 11  0 13  5  3  9  9
  1 18 18  3 11 15  3 18 16  5  3  0  5 21 20  4  1 21  0 15  0  2  2 16
  2 17  2 15 17 12  7]"
7300,342,1.0,8,2,348.6712369918823,47.986581325531006,0,467200,3021131,23138117,"[ 2  1  1  0  3  0  0  1  2  0  1  3  1  3  0  2  3  1  3  2  0  0  2  0
  4  5  6  1  3  5  3 13 11  0 11  7  1  1  9  0  9 11  0 11  3  2 18 17
  5 18 17  2 14 16  1 13 18  5 10 18  0 15 14  2 20 21  1 18 21  5  1  0
  3 16 23 15 17 12  7]"
7400,342,1.0,8,2,353.5129418373108,48.41702222824097,0,473600,3062131,23459535,"[ 2  1  0  0  3  0  0  1  2  0  1  3  5  1  0  2  3  1  3  4  2  0  2  0
  4  5  6  5  7  3  4 12  8  0 11  7  5  3  1  0  9 11  1 12  0  0 18 17
  2  9  1  4 14  3  2  9  3  4 17  1  0 15 14  1  3 22  0 17 17  4 22 19
  3 23  2 15 17 12  7]"
7500,342,1.0,8,2,358.2549102306366,47.419655323028564,0,480000,3102360,23775081,"[ 3  0  3  0  3  0  0  1  2  0  1  3  4  3  0  2  3  1  3  1  1  0  2  0
  4  5  6  4  8  8  1  8 10  0 11  7  2 12 10  0  9 11  0  2  2  5 11 11
  5  9 17  0 13  9  3  9 17  4 10  9  0 15 14  4  1 14  3 21 17  0 19 18
  0 16 17 15 17 12  7]"
7600,342,1.0,8,2,362.95404529571533,46.99132680892944,0,486400,3142647,24091465,"[ 2  0  3  0  3  0  4  1  3  0  1  3  0  2  1  2  3  1  5  0  8  0  2  0
  4  5  8  5  6  3  1 11  1  0 11  7  0  4  7  0  9 11  3  5 12  1  2 10
  5 11  3  5 16 11  4 13 17  4 13  3  5  1 23  2 22 14  0  2 16  4 22 17
  4 19  0 15 17 12  7]"
7700,342,1.0,8,2,367.742591381073,47.88542985916138,0,492800,3182705,24406161,"[ 2  1  1  0  0  0  0  0  3  0  1  3  0  2  1  2  3  1  2  3  8  0  2  0
  4  6  8  5  6  3  5  7  1  0 11  7  0  4  0  0  9 11  1 11  3  1  3  3
  1 14  3  1 10  0  4 12 13  1  3  9  5 18 17  0  2 16  1 16 21  3  1 14
  1 17  3 15 17 12  7]"
7800,342,1.0,8,2,372.605406999588,48.628129959106445,1,499200,3223044,24722798,"[ 5  0  0  4  2  0  0  0  3  0  1  3  0  2  1  2  3  1  0  3  3  0  2  0
  4  6  8  2  7  3  0  9 11  0 11  7  4 10  1  0  9 11  0  0 13  5 11 11
  0  2 13  1 11  0  5 16 11  1 11 16  1 14 20  1  3  0  1  2 22  3 18  2
  4 15  3 15 17 12  7]"
7900,342,1.0,8,2,377.41107296943665,48.05663585662842,1,505600,3264197,25045560,"[ 1  1  2  3  3  0  0  0  3  0  1  3  0  2  1  2  3  1  2  2  6  0  2  0
  4  6  8  5  2  5  1  5 11  0 11  7  0  3  2  0  9 11  1  0  4  3 17 10
  4 14 11  5 13  1  1 17 16  3 17 16  5 14  3  0 19  2  0 16 20  1  0  3
  5 15  1 15 17 12  7]"
8000,342,1.0,8,2,382.08786702156067,46.767916679382324,1,512000,3304349,25361233,"[ 3  0  1  5  1  2  0  0  3  0  1  3  0  2  1  2  3  1  5  5  2  0  2  0
  4  6  8  2  6  8  3  5  8  0 11  7  0  5  4  0  9 11  4  5  7  2  1  2
  5  2  3  2 16 12  4 14 10  1  1 10  2 21  0  0 20  2  1  0 17  2 14 17
  4  3 21 15 17 12  7]"
8100,342,1.0,8,2,386.7695052623749,46.81635618209839,1,518400,3343659,25670399,"[ 2  3  2  5  0  2  0  0  0  0  1  3  0  1  1  2  3  1  0  7  2  0  2  0
  4  2  3  5  2  0  0  1  2  0 11  7  2  6  2  0  9 11  5  9 10  1 13 10
  3  0 10  2  0  3  5  0 15  1 14  9  1  3 20  5  1 21  5 14 21  2 20  3
  3 22 17 15 17 26  7]"
8200,342,1.0,8,2,390.98718309402466,42.1767520904541,1,524800,3375645,25923719,"[ 1  1  3  1  3  0  1  0  3  0  1  3  1  2  0  2  3  1  0  8  2  0  2  0
  3  7  8  3  5  0  0  1  2  0 11  7  3  8  6  0  9 11  2 13 11  4 15 10
  3  1  2  2  0  3  5  3  0  1 13  2  2  3 21  0  2  0  5 14 21  2 19 19
  4 22 21 15 17 26  7]"
8300,342,1.0,8,2,395.22996044158936,42.42774486541748,1,531200,3409129,26189096,"[ 3  0  0  4  3  1  3  3  1  0  1  3  0  3  1  2  3  1  4  0  5  0  2  0
  3  0  4  2  5  6  0  1  2  0 11  7  3  2  8  0  9 11  0  8  2  4  3  9
  3 13 11  2  0  3  2 16 18  1 12 15  2 18 20  4 14 17  5 14 21  3 14 21
  2 16 21 15 17 26  7]"
8400,342,1.0,8,2,399.33749079704285,41.07527732849121,1,537600,3441597,26446144,"[ 3  3  1  4  1  2  2  3  0  0  1  3  0  2  2  2  3  1  5  4  6  0  2  0
  4  1  2  4  6  5  0  1  2  0 11  7  2  8 10  0  9 11  5 12 13  4 17 10
  3  1 17  2  0  3  3 11 17  1  9 10  5 19  2  4 21 16  5 14 21  5 22  0
  5 14 20 15 17 26  7]"
8500,342,1.0,8,2,403.50134658813477,41.63853168487549,1,544000,3474674,26707807,"[ 3  0  1  4  0  2  2  3  3  0  1  3  1  0  0  2  3  1  0  4  0  0  2  0
  4  6  4  1  7  4  0  1  2  0 11  7  3 10  5  0  9 11  1  4  5  0  1 14
  5 14  2  2  0  3  4 10 18  0  3 14  0 21 14  1 15  2  5 14 21  1 23 15
  2 17  3 15 17 26  7]"
8600,342,1.0,8,2,407.63070130348206,41.29351854324341,2,550400,3507518,26967772,"[ 3  1  1  3  3  3  0  3  3  0  1  3  2  1  0  2  3  1  5  8  8  0  2  0
  3  6  8  3  3  2  0  1  2  0 11  7  2  6  4  0  9 11  5 13  8  5 15 14
  0  1 14  2  0  3  0 16 11  2  3 17  2  3 18  2 21 22  5 14 21  0 20 18
  0  1  2 15 17 26  7]"
8700,342,1.0,8,2,412.00307154655457,43.7236762046814,2,556800,3541456,27235912,"[ 2  2  1  4  1  0  2  1  3  0  1  3  1  0  0  2  3  1  4  7  5  0  2  0
  0  1  8  0  2  2  0  1  2  0 11  7  5  6  5  0  6 11  4  5  0  5 12 15
  4  1 11  2  0  3  1  0 10  0 16 17  5 18  3  1  1 20  5 14 21  1  0 15
  1 21 22 15 17 26  7]"
8800,342,1.0,8,2,416.21895480155945,42.15880870819092,2,563200,3575270,27503797,"[ 2  1  0  4  1  0  3  0  3  0  1  3  0  1  0  2  3  1  1  3  4  0  2  0
  0  7  2  4  6  6  0  1  2  0 11  7  1  9  4  0  9 11  1  6  2  4  1  9
  0 18  1  2  0  3  4 15 15  0 12 15  3 21 16  5  3 16  5 14 21  5 23 18
  0 19 16 15 17 26  7]"
8900,342,1.0,8,2,420.4147958755493,41.95838928222656,2,569600,3608743,27768209,"[ 2  0  3  1  3  3  3  1  2  0  1  3  3  2  0  2  3  1  2  6  7  0  2  0
  4  7  0  5  0  7  0  1  2  0 11  7  1  9  1  0  9 11  5  0  7  2  9 13
  2 14 11  2  0  3  4 14 14  4 11 10  1 20 23  2 19 17  5 14 21  0 22 14
  3 16 21 15 17 26  7]"
9000,342,1.0,8,2,424.5027401447296,40.87941646575928,2,576000,3641221,28024362,"[ 4  2  2  5  0  1  4  3  0  0  1  3  5  0  2  2  3  1  0  3  7  0  2  0
  1  3  3  2  0  7  0  1  2  0 11  7  1 11  0  0  9 11  4  8  2  1 18 16
  2  2 13  2  0  3  2 15  9  1 13  0  2 15 19  5 19 19  5 14 21  4 19 17
  4 19  0 15 17 26  7]"
9100,342,1.0,8,2,428.6452193260193,41.424763202667236,2,582400,3674265,28284710,"[ 3  0  0  1  3  0  5  1  0  0  1  3  1  3  0  2  3  1  4  3  5  0  2  0
  2  4  8  1  0  5  0  1  2  0 11  7  5 13  2  0  9 11  2 12  5  5 15 17
  0 11 12  2  0  3  1  3 17  5 11 18  0  0 17  3 19 14  5 14 21  1 15  3
  0  3 20 15 17 26  7]"
9200,342,1.0,8,2,432.85087037086487,42.0564866065979,2,588800,3707005,28543249,"[ 2  1  2  5  1  0  3  1  1  0  1  3  5  0  2  2  3  1  5  6  0  0  2  0
  0  8  1  4  1  6  0  1  2  0 11  7  1  1  4  0  9 11  3 10  3  4 14  2
  0  2  3  2  0  3  0 11  3  5 10 11  2 21 16  5  1 17  5 14 21  2 18  1
  2 17  0 15 17 26  7]"
9300,342,1.0,8,2,437.12888526916504,42.7801251411438,2,595200,3739813,28802944,"[ 1  3  0  2  2  1  2  1  0  0  1  3  4  1  2  2  3  1  3  2  5  0  2  0
  2  2  1  0  8  0  0  1  2  0 11  7  4  8  2  0  9 11  3  6 10  3  1  0
  2 17 17  2  0  3  5  1  1  5  3 18  2 15 14  5 16 19  5 14 21  4 22 18
  4  1 17 15 17 26  7]"
9400,342,1.0,8,2,441.45666575431824,43.27778100967407,2,601600,3773301,29067717,"[ 2  2  0  3  3  1  5  1  3  0  1  3  2  3  3  2  3  1  5  1  3  0  2  0
  5  5  3  0  2  7  0  1  2  0 11  7  4 12  1  0  9 11  3  6  2  1  3 18
  4 17  9  2  0  3  0  1 13  5 16 18  3 20 15  2  1 18  5 14 21  4 23  3
  1 15  0 15 17 26  7]"
9500,342,1.0,8,2,445.60599994659424,41.4933180809021,2,608000,3805655,29323907,"[ 1  3  3  5  1  3  5  2  1  0  1  3  0  2  2  2  3  1  3  4  5  0  2  0
  3  1  0  2  2  3  0  1  2  0 11  7  3  8  1  0  9 11  4 10  5  4 16  3
  0 10 12  2  0  3  4  3  0  1  0 18  5  2 22  5 21  0  5 14 21  1 16 21
  4 21 16 15 17 26  7]"
9600,342,1.0,8,2,449.7874958515167,41.81493282318115,2,614400,3838318,29582716,"[ 3  3  1  5  1  2  5  2  0  0  1  3  0  0  1  2  3  1  3  5  6  0  2  0
  5  6  8  5  1  2  0  1  2  0 11  7  3  5  4  0  9 11  3 10  8  2 15 11
  0  1 10  2  0  3  0 11  9  1 16  9  5  0 22  4  3 14  5 14 21  3 17 16
  5  0 15 15 17 26  7]"
9700,342,1.0,8,2,453.9335849285126,41.460862159729004,2,620800,3871400,29844172,"[ 3  0  0  3  0  2  2  1  3  0  1  3  2  0  3  2  3  1  0  2  3  0  2  0
  0  2  8  3  1  1  0  1  2  0 11  7  4  7  4  0  9 11  1  9  5  4 15  2
  0 18 10  2  0  3  2  9 13  2  3  1  1  1  0  5 22 17  5 14 21  1 22  3
  2 16 20 15 17 26  7]"
9800,342,1.0,8,2,458.11315178871155,41.795639991760254,2,627200,3904244,30103908,"[ 3  1  2  2  0  1  0  0  1  0  1  3  2  2  0  2  3  1  5  3  4  0  2  0
  4  3  8  2  7  1  0  1  2  0 11  7  3  1  0  0  9 11  0 12  7  5  0 10
  0 12 17  2  0  3  1 17 18  1 11 17  2  0  0  0 22 19  5 14 21  5 16  2
  2  3 19 15 17 26  7]"
9900,342,1.0,8,2,462.2688503265381,41.55696153640747,2,633600,3936921,30362362,"[ 3  2  1  2  1  3  2  1  3  0  1  3  0  2  2  2  3  1  0  4  7  0  2  0
  3  5  5  3  5  1  0  1  2  0 11  7  1 12  9  0  9 11  5  7  0  0  0  0
  3 17 10  2  0  3  4  2  1  4 14  9  1 14  2  4 16  1  5 14 21  0 18 20
  0 21  2 15 17 26  7]"
10000,342,1.0,8,2,466.54709243774414,42.782394886016846,2,640000,3970535,30627752,"[ 1  0  2  0  2  2  1  1  3  0  1  3  1  0  1  2  3  1  0  6  6  0  2  0
  5  4  1  0  2  6  0  1  2  0 11  7  4 10 11  0  9 11  5  7  4  4  0 11
  1 17 17  2  0  3  1 13  0  4  3 17  3 18 17  2 22  1  5 14 21  4  3 18
  5 14 18 15 17 26  7]"
10100,342,1.0,8,2,470.80434560775757,42.57250785827637,2,646400,4003743,30890209,"[ 3  3  2  5  0  1  5  1  2  0  1  3  0  0  2  2  3  1  4  0  2  0  2  0
  0  6  1  3  0  5  0  1  2  0 11  7  2  8  2  0  9 11  2  8  4  4 14 17
  4 12 10  2  0  3  3  1  2  3 15 13  1 15  1  4  2 17  5 14 21  2  3 22
  0 21  1 15 17 26  7]"
10200,342,1.0,8,2,474.9749927520752,41.70644998550415,2,652800,4036929,31153131,"[ 4  1  0  1  3  2  0  1  0  0  1  3  3  0  3  2  3  1  4  3  5  0  2  0
  2  3  0  1  3  0  0  1  2  0 11  7  4  8  6  0  9 11  2 11  5  2  1 18
  3 18 16  2  0  3  2 14  9  5 14 13  1  1 23  0  1  0  5 14 21  4  2 18
  5  1 17 15 17 26  7]"
10300,342,1.0,8,2,479.19948506355286,42.2448992729187,2,659200,4069812,31413695,"[ 0  3  0  0  2  0  0  1  0  0  1  3  3  0  1  2  3  1  5  3  8  0  2  0
  4  1  3  3  4  1  0  1  2  0 11  7  2 12  6  0  9 11  2  6  5  5 12 15
  0 13 10  2  0  3  2 11 17  0 10  3  1  1 21  5  3 20  5 14 21  3  0 19
  2  3 20 15 17 26  7]"
10400,342,1.0,8,2,483.44800782203674,42.48520612716675,2,665600,4102585,31672523,"[ 0  0  0  1  3  2  2  1  0  0  1  3  2  3  1  2  3  1  1  8  1  0  2  0
  5  2  2  0  2  3  0  1  2  0 11  7  0  5  2  0  9 11  3  4 12  0  1  9
  0  0  3  2  0  3  5 10 17  2 12  3  2 19  1  1  1  1  5 14 21  5  1  1
  5  2  3 15 17 26  7]"
10500,342,1.0,8,2,487.78965187072754,43.41641664505005,2,672000,4138175,31953897,"[ 3  3  1  3  1  2  4  2  1  0  1  3  2  3  1  1  4  4  4  0  4  0  2  0
  5  3  7  0  7  7  0  1  2  0 11  7  1  7  0  0  8 11  0  2  3  3 10 15
  5 15 16  2  0  3  3 13 17  2 13 17  0 19 16  3  3 23  5 14 21  5  0 21
  4 21 15 15 17 26  7]"
10600,342,1.0,8,2,492.19129848480225,44.01643991470337,2,678400,4174328,32239926,"[ 2  3  0  2  3  1  5  0  2  0  1  3  2  1  1  5  4  8  4  4  6  0  2  0
  2  1  0  1  8  1  0  1  2  0 11  7  4  7  1  0  5 11  2 10  4  5  2 11
  1 12 14  2  0  3  5 16 11  3  9 11  0 19 18  5  3 23  5 14 21  5 18 21
  0  2 23 15 17 26  7]"
10700,342,1.0,8,2,496.5974793434143,44.061782360076904,2,684800,4210277,32523950,"[ 3  0  1  2  3  1  4  3  2  0  1  3  4  2  1  1  4  4  0  6  7  0  2  0
  4  1  5  1  3  7  0  1  2  0 11  7  0 10  5  0  5 11  3  9 13  0  0  9
  5 11  3  2  0  3  5 15  3  1  1 17  3 21  3  5 16 20  5 14 21  2  2 19
  3 21 14 15 17 26  7]"
10800,342,1.0,8,2,501.110431432724,45.12949466705322,2,691200,4246737,32812356,"[ 0  2  1  2  3  1  5  3  1  0  1  3  4  0  0  3  8  7  1  2  3  0  2  0
  2  8  7  4  0  5  0  1  2  0 11  7  1  6  8  0  5 11  3 11  9  4 10 11
  5  2 14  2  0  3  5  9 11  2  3 18  3 18 22  0 23 18  5 14 21  2  2 17
  3  1 16 15 17 26  7]"
10900,342,1.0,8,2,505.5437798500061,44.333457946777344,2,697600,4283394,33101851,"[ 0  2  2  2  3  1  1  0  1  0  1  3  0  3  1  1  0  3  3  6  1  0  2  0
  1  5  5  5  3  4  0  1  2  0 11  7  4  2  7  0  5 11  3 12  3  4  1 17
  3  3  3  2  0  3  3 12 16  0 18  3  0  1  0  1 15 18  5 14 21  0 20 20
  1  3 15 15 17 26  7]"
11000,342,1.0,8,2,510.02185440063477,44.78071928024292,2,704000,4320615,33395587,"[ 5  1  3  2  3  1  4  0  2  0  1  3  2  2  0  1  0  4  4  1  7  0  2  0
  4  5  4  0  2  3  0  1  2  0 11  7  2  7 10  0  5 11  3 11  6  3 12  0
  2  9 12  2  0  3  3 16 13  2 15 11  1 15 15  3  0 16  5 14 21  0  0 23
  0 19 15 15 17 26  7]"
11100,342,1.0,8,2,514.415281534195,43.934245109558105,2,710400,4356572,33680123,"[ 5  3  3  2  3  1  4  2  2  0  1  3  4  1  1  0  2  2  4  7  0  0  2  0
  3  7  3  3  2  2  0  1  2  0 11  7  1  4  6  0  5 11  0  8 13  1  9 13
  5 12 17  2  0  3  0 18  9  4 14 16  0  0 23  0 16  0  5 14 21  1 20 23
  1  0  3 15 17 26  7]"
11200,342,1.0,8,2,518.9648399353027,45.49555540084839,2,716800,4393589,33973332,"[ 4  3  3  2  3  1  2  3  3  0  1  3  3  0  0  0  0  5  4  6  6  0  2  0
  0  0  2  0  2  4  0  1  2  0 11  7  0  0  9  0  5 11  2  2 12  5  9 16
  2  3  0  5 15  1  0  3 14  5 10  3  0 19  3  4 22 20  5 14 20  0 21 19
  4 20  2 15 17 26  7]"
11300,342,1.0,8,2,523.3128981590271,43.48055839538574,2,723200,4429096,34254142,"[ 0  2  2  2  3  1  0  3  0  0  1  3  2  1  2  0  3  8  5  3  2  0  2  0
  2  1  1  0  2  3  0  1  2  0 11  7  1 10  8  0  5 11  2 10  2  2  9  0
  2  3  0  3  3 18  5  0  1  3  3  3  5  3 21  5 18 15  5 14 20  5 21 15
  2  3  2 15 17 26  7]"
11400,342,1.0,8,2,527.7581362724304,44.45235729217529,2,729600,4465180,34539865,"[ 2  1  2  2  3  1  2  1  0  0  1  3  5  2  3  4  7  0  4  4  2  0  2  0
  0  6  8  5  1  3  0  1  2  0 11  7  1  2 13  0  5 11  2  8  1  5 16 18
  2  3  0  3 13 18  1 15 16  3 12 16  1 22 18  3 19 15  5 14 20  0  2 16
  5 16 20 15 17 26  7]"
11500,342,1.0,8,2,532.2031645774841,44.45026159286499,2,736000,4501307,34825684,"[ 5  3  1  2  3  1  5  1  1  0  1  3  3  3  1  4  8  7  5  6  2  0  2  0
  5  6  8  1  8  1  0  1  2  0 11  7  2  5 10  0  5 11  0 11  2  1 16  9
  2  3  0  4  3 10  5 15 16  4 13 15  4  3 14  4 23 16  5 14 20  2 18  0
  4  2  0 15 17 26  7]"
11600,342,1.0,8,2,536.6701490879059,44.66981649398804,2,742400,4537519,35112738,"[ 2  3  1  4  2  2  4  2  2  0  1  3  2  0  1  5  6  7  5  2  8  0  2  0
  1  4  4  3  3  1  0  1  2  0 11  7  3  0  8  0  4 11  4 10  0  4 12  9
  2  3  0  2 12  3  5  1  1  5 10 17  0  2  2  1 22 16  5 14 20  5 17 18
  3  2 15 15 17 26  7]"
11700,342,1.0,8,2,541.1241064071655,44.539546966552734,2,748800,4573814,35399849,"[ 2  3  1  2  1  0  3  0  1  0  1  3  3  3  2  5  7  0  3  6  6  0  2  0
  5  6  6  1  8  8  0  1  2  0 11  7  1  0  3  0  4 11  1 13  2  2 18 13
  2  3  0  3 13 13  0  3 10  4 13  2  1 18 14  0  1 16  5 14 20  3 17 19
  0 16  2 15 17 26  7]"
11800,342,1.0,8,2,545.5111691951752,43.870601654052734,2,755200,4609751,35684550,"[ 2  3  1  2  2  1  5  2  1  0  1  3  2  0  3  3  4  1  4  7  6  0  2  0
  4  0  7  0  4  4  0  1  2  0 11  7  5  0  2  0  4 11  2  7 12  3  1  0
  2  3  0  0 11  9  2 12  3  2 11  0  2  2 15  1 18 20  5 14 20  4  0 14
  1  2  1 15 17 26  7]"
11900,342,1.0,8,2,549.9433536529541,44.321815967559814,2,761600,4646326,35974272,"[ 2  3  1  1  2  1  1  1  1  0  1  3  3  0  3  3  1  1  5  1  5  0  2  0
  1  6  5  2  3  5  0  1  2  0 11  7  5  4 11  0  4 11  3  6  2  1 12 15
  2  3  0  3 16 15  5 14  9  0 10 11  5 20 23  1 16  1  5 14 20  4 18 22
  5  0 22 15 17 26  7]"
12000,342,1.0,8,2,554.3666260242462,44.23269748687744,2,768000,4682957,36264065,"[ 2  3  1  1  2  0  1  3  1  0  1  3  3  2  2  2  7  6  3  1  6  0  2  0
  1  8  5  1  2  4  0  1  2  0 11  7  2  4 12  0  4 11  3  6 13  5  2 11
  2  3  0  3 15 14  5  0  0  2  2 15  4 23 20  4  1  3  5 14 20  2  3 14
  5  1  0 15 17 26  7]"
12100,342,1.0,8,2,558.7239921092987,43.5736346244812,2,774400,4718798,36547245,"[ 2  3  1  5  1  3  2  1  0  0  1  3  4  1  3  3  5  6  5  7  7  0  2  0
  2  2  2  1  2  6  0  1  2  0 11  7  3  7  8  0  4 11  5  5  9  3 16  9
  2  3  0  4 12 14  1  2 12  2 14 12  3 16 20  2 17  3  5 14 20  2 22 18
  2 14 14 15 17 26  7]"
12200,342,1.0,8,2,563.128570318222,44.045753479003906,2,780800,4755046,36834094,"[ 2  3  1  0  2  3  3  1  2  0  1  3  3  0  0  1  1  0  5  3  8  0  2  0
  1  3  1  2  2  4  0  1  2  0 11  7  3  9  3  0  4 11  0  2  3  0 15 10
  2  3  0  5 10 15  2 15  1  0  1  2  5 14  1  4 21 19  5 14 20  3 21 16
  1 23 22 15 17 26  7]"
12300,342,1.0,8,2,567.6099145412445,44.81341600418091,2,787200,4791229,37120786,"[ 2  3  1  5  1  1  0  3  0  0  1  3  0  2  3  1  0  1  2  8  3  0  2  0
  5  3  7  5  1  4  0  1  2  0 11  7  5  7  5  0  4 11  1 12  3  5 12 11
  2  3  0  5 12  0  3 13  2  2 13  1  4 15  1  5 22 18  5 14 20  4 22  1
  0 19  1 15 17 26  7]"
12400,342,1.0,8,2,572.0301961898804,44.20279026031494,2,793600,4827077,37404252,"[ 2  3  1  1  0  0  1  2  1  0  1  3  0  0  1  2  5  3  4  3  0  0  2  0
  2  3  8  2  5  1  0  1  2  0 11  7  1  2  3  0  4 11  1  6  6  4 17  1
  2  3  0  0 12  1  3  3 10  1  9 17  1 15 20  0  0  2  5 14 20  5 15 23
  5 23 14 15 17 26  7]"
12500,342,1.0,8,2,576.5557823181152,45.25583505630493,2,800000,4863781,37693852,"[ 2  3  1  5  1  1  3  1  1  0  1  3  4  0  2  1  6  8  5  0  0  0  2  0
  0  3  1  5  4  8  0  1  2  0 11  7  4  7 13  0  4 11  5  4  4  0 11 16
  2  3  0  0 13 10  1  0 11  3 16 12  4 19  0  0  3  3  5 14 20  0 22  1
  4 19 23 15 17 26  7]"
12600,342,1.0,8,2,581.1601331233978,46.04348421096802,2,806400,4900926,37987420,"[ 2  3  1  2  0  1  2  0  1  0  1  3  2  2  2  1  8  5  4  8  6  0  2  0
  2  3  2  3  1  8  0  1  2  0 11  7  1 12  7  0  4 11  5  4  4  4 14 16
  2  3  0  2 13  0  4 13 16  0 17 16  0  3  2  3  3 16  5 14 20  3 23 19
  0  1  1 15 17 26  7]"
12700,342,1.0,8,2,585.6766238212585,45.16488075256348,2,812800,4937217,38275012,"[ 2  3  1  4  2  1  0  3  0  0  1  3  5  0  2  5  4  3  5  8  2  0  2  0
  2  3  5  1  0  3  0  1  2  0 11  7  2  9  6  0  4 11  1  9  7  1  3  3
  2  3  0  0 16 13  0 13 13  0  3 17  2 23  2  0 21  0  5 14 20  3  1  3
  1 19  1 15 17 26  7]"
12800,342,1.0,8,2,590.1580481529236,44.8142147064209,2,819200,4973721,38564108,"[ 2  3  1  3  0  1  3  3  0  0  1  3  5  2  3  3  7  6  4  8  8  0  2  0
  1  0  0  2  0  6  0  1  2  0 11  7  2 11 11  0  4 11  2  8  4  4 18 12
  2  3  0  5 16 11  4 17 18  5 14 15  3  2 17  3 17 21  5 14 20  3 14 20
  4  0 18 15 17 26  7]"
12900,342,1.0,8,2,594.6545035839081,44.964518547058105,2,825600,5010150,38851751,"[ 2  3  1  3  1  3  1  3  2  0  1  3  2  3  2  1  3  5  5  4  2  0  2  0
  4  7  4  5  5  7  0  1  2  0 11  7  3  1 12  0  4 11  3  7  4  2 11 11
  2  3  0  1 11 17  4 14  0  5 11 11  4 19 16  5  1  2  5 14 20  4 14  0
  0  0 17 15 17 26  7]"
13000,342,1.0,8,2,599.0912132263184,44.3670654296875,2,832000,5045673,39131965,"[ 2  3  1  5  3  3  5  1  1  0  1  3  4  2  2  5  7  5  0  6  4  0  2  0
  3  0  0  0  7  8  0  1  2  0 11  7  5  1 11  0  4 11  4  0  9  5 15 15
  2  3  0  0  1  2  1 12  3  1  1 17  5 21 23  0 20 20  5 14 20  4 22 20
  0  2 22 15 17 26  7]"
13100,342,1.0,8,2,603.4716436862946,43.80427837371826,2,838400,5081752,39416687,"[ 2  3  1  1  0  3  2  2  3  0  1  3  2  0  1  2  6  8  1  7  8  0  2  0
  3  0  6  0  4  0  0  1  2  0 11  7  0  1  2  0  4 11  3 11 10  3 16 13
  2  3  0  4 13 17  1 10  9  4 11 16  2 17 14  4 20 23  5 14 20  0 20 20
  0  2 17 15 17 26  7]"
13200,342,1.0,8,2,607.9135885238647,44.419424533843994,2,844800,5118462,39706433,"[ 2  3  1  4  0  2  5  0  3  0  1  3  0  0  1  1  2  6  2  1  3  0  2  0
  0  0  4  3  6  0  0  1  2  0 11  7  3 11  2  0 10 11  4  8  4  1 18 10
  2  3  0  0  0 10  3 16 13  3 18 12  1 17 22  1 21 14  5 14 20  5  3  1
  0  2 15 15 17 26  7]"
13300,342,1.0,8,2,612.1878130435944,42.74222135543823,2,851200,5153162,39981314,"[ 2  3  1  4  3  2  5  0  3  0  1  3  3  1  1  4  4  8  2  2  3  0  2  0
  1  0  3  5  1  5  0  1  2  0 11  7  5 12 13  0  4 11  1  1  2  2 18  1
  2  3  0  1  1  3  5 16  9  5  1 18  0  3  0  0 22 16  5 14 20  4  0 16
  1 17 23 15 17 26  7]"
13400,342,1.0,8,2,616.615302324295,44.27486181259155,2,857600,5189859,40271376,"[ 2  3  1  2  2  0  0  3  1  0  1  3  5  1  3  5  8  8  4  4  7  0  2  0
  0  0  3  2  3  6  0  1  2  0 11  7  3  5  6  0  4 11  0 12  7  4 10 10
  2  3  0  4 16 14  0  9 10  1  9 11  4 19 23  3  2 22  5 14 20  2 19 18
  4 23  0 15 17 26  7]"
13500,342,1.0,8,2,621.0673596858978,44.52054738998413,2,864000,5225771,40556006,"[ 2  3  1  3  3  1  1  2  3  0  1  3  5  0  0  5  4  4  4  5  4  0  2  0
  1  3  4  0  8  3  0  1  2  0 11  7  2 10  0  0  4 11  3  0  5  3 13 14
  2  3  0  1 16 18  3 12  1  5 13  2  3  2 15  1 22 16  5 14 20  4 19  1
  1 14 15 15 17 26  7]"
13600,342,1.0,8,2,625.3847332000732,43.17370891571045,2,870400,5260895,40834305,"[ 2  3  1  4  3  1  3  3  0  0  1  3  4  0  0  1  7  5  5  2  1  0  2  0
  1  7  7  2  7  4  0  1  2  0 11  7  3  9  3  0  4 11  1  5 12  0  2 16
  2  3  0  3 16 18  5  1 18  2 13 17  0  0 15  2 18 19  5 14 20  0  0 15
  4 21  3 15 17 26  7]"
13700,342,1.0,8,2,629.8952913284302,45.10554313659668,2,876800,5297594,41124555,"[ 3  3  1  2  3  1  0  1  2  0  1  3  3  2  2  0  1  5  1  2  5  0  2  0
  5  8  8  1  5  2  0  1  2  0 11  7  2 12  7  0  5 11  4  5  4  5 18  3
  2  3  0  5  0  1  4 13 17  5 11 15  2 22 17  3 20 19  5 14 20  1  2  2
  4  1  3 15 17 26  7]"
13800,342,1.0,8,2,634.3040611743927,44.08767223358154,2,883200,5333886,41411719,"[ 2  0  3  2  3  1  5  1  0  0  1  3  2  0  0  3  7  2  1  3  1  0  2  0
  5  4  1  3  6  8  0  1  2  0 11  7  1  8  7  0  5 11  3  8  2  2 10 15
  2  3  0  4 16 15  2  1  1  2  2  0  5 14 14  2 17 15  5 14 20  1 18 20
  1 14 22 15 17 26  7]"
13900,342,1.0,8,2,638.81343126297,45.093674659729004,2,889600,5370977,41705581,"[ 0  0  1  2  3  1  5  2  1  0  1  3  2  2  1  2  5  4  0  7  8  0  2  0
  4  1  4  4  8  4  0  1  2  0 11  7  3  4 10  0  5 11  1 11  8  2 18  0
  2  3  0  4  2 13  2 14 11  1  2  9  4  0  3  5 16 21  5 14 20  3 17 16
  0 19 16 15 17 26  7]"
14000,342,1.0,8,2,643.3747189044952,45.612850189208984,2,896000,5407152,41992369,"[ 4  3  0  2  3  1  5  3  0  0  1  3  0  2  0  5  8  6  0  2  2  0  2  0
  1  6  3  5  6  5  0  1  2  0 11  7  5  5  8  0  5 11  5 13 11  1 15 14
  2  3  0  1  2  1  5 16 11  5 12 18  5 14 18  2 20  0  5 14 20  1 16 18
  3  3  3 15 17 26  7]"
14100,342,1.0,8,2,647.7471072673798,43.723859786987305,2,902400,5442997,42276185,"[ 4  3  2  2  3  1  1  2  0  0  1  3  5  0  0  1  1  8  0  6  5  0  2  0
  2  7  0  5  1  2  0  1  2  0 11  7  3 11  3  0  5 11  3 10  2  2  0  2
  2  3  0  4  2  1  2 16 18  5 13 13  0 16  1  3  1  1  5 14 20  4  0 17
  2 22 22 15 17 26  7]"
14200,342,1.0,8,2,652.2321286201477,44.85018730163574,2,908800,5479301,42563353,"[ 4  3  2  2  3  1  1  0  1  0  1  3  1  2  2  4  1  5  5  3  2  0  2  0
  3  6  7  4  1  5  0  1  2  0 11  7  5  1  0  0  5 11  1  3 13  2 14 18
  2  3  0  4 13  0  5 16  2  2  3 15  5 16 20  3 15 19  5 14 20  0  1 16
  1 15 17 15 17 26  7]"
14300,342,1.0,8,2,656.7137181758881,44.81586933135986,2,915200,5515643,42851143,"[ 2  2  1  2  3  1  1  2  1  0  1  3  3  2  1  3  3  2  2  3  3  0  2  0
  1  2  6  1  1  3  0  1  2  0 11  7  5 11  8  0  5 11  1  4  8  3  0  3
  2  3  0  3 10 18  5 10 14  5 18  0  4  0 21  1 19 17  5 14 20  5 18 15
  5  0 21 15 17 26  7]"
14400,342,1.0,8,2,661.1314737796783,44.17753219604492,2,921600,5551568,43134998,"[ 1  1  2  2  3  1  4  2  0  0  1  3  0  0  3  0  5  0  2  1  5  0  2  0
  4  3  4  1  1  8  0  1  2  0 11  7  5  1  0  0  5 11  1  5  2  1 14 10
  2  3  0  2 15 11  4 17 16  2 18 11  1 17 22  2 15  0  5 14 20  5 18  2
  5 22 14 15 17 26  7]"
14500,342,1.0,8,2,665.5316996574402,44.00223255157471,2,928000,5587760,43420490,"[ 2  2  2  2  3  1  3  3  3  0  1  3  5  2  0  4  3  5  3  1  0  0  2  0
  0  7  3  4  5  8  0  1  2  0 11  7  4 11  0  0  5 11  1  1  4  3  1 15
  2  3  0  4 17  0  4  0  2  0 13  3  2 16 23  1  1 17  5 14 20  4  1 23
  2 20 18 15 17 26  7]"
14600,342,1.0,8,2,669.9355683326721,44.038660526275635,2,934400,5624078,43707861,"[ 2  1  1  2  3  1  2  3  2  0  1  3  2  3  1  2  2  5  1  8  2  0  2  0
  0  2  6  2  5  5  0  1  2  0 11  7  5  6 11  0  5 11  2 12  1  1 18 10
  2  3  0  3  1 15  3 16 14  4 12 17  0  3 21  2  2 17  5 14 20  0 15  1
  5 23  1 15 17 26  7]"
14700,342,1.0,8,2,674.4279406070709,44.92369890213013,2,940800,5660655,43996678,"[ 4  2  1  3  1  2  0  1  0  0  1  3  2  3  1  5  5  2  5  1  2  0  2  0
  2  8  4  2  4  2  0  1  2  0 11  7  2  1  6  0  8 11  3 10  8  2 14 13
  2  3  0  5  1  1  4  9  0  2 17  2  4 21 14  0  0  1  5 14 20  0 21  1
  3 14 23 15 17 26  7]"
14800,342,1.0,8,2,678.8611626625061,44.332194328308105,2,947200,5697238,44286058,"[ 0  3  1  5  2  1  5  2  2  0  1  3  2  3  1  2  1  4  3  8  3  0  2  0
  1  1  5  1  6  4  0  1  2  0 11  7  2  7  4  0  8 11  2 10  3  5 18 10
  2  3  0  2 10 14  2  2 16  2 11 16  3 16 15  4 15 20  5 14 20  2 20 16
  3  2  2 15 17 26  7]"
14900,342,1.0,8,2,683.2273044586182,43.661394119262695,2,953600,5733036,44569587,"[ 2  2  1  4  0  1  0  0  1  0  1  3  2  3  1  2  1  7  5  2  4  0  2  0
  3  8  2  1  0  6  0  1  2  0 11  7  5  7  5  0  8 11  2 11  5  4 12  1
  2  3  0  5  9  1  5  1 12  0 14 11  2 16  0  5 14 21  5 14 20  0 17 22
  4 21 22 15 17 26  7]"
15000,342,1.0,8,2,687.608029127121,43.807218074798584,2,960000,5769007,44854234,"[ 5  2  2  0  0  3  1  1  0  0  1  3  2  3  1  0  7  6  1  2  2  0  2  0
  3  8  1  5  1  0  0  1  2  0 11  7  1  5 13  0  8 11  0  9  4  2  0 11
  2  3  0  5  9 15  0 11 17  3  9  0  4  3 21  3  1  3  5 14 20  0 20 21
  1 20  3 15 17 26  7]"
15100,342,1.0,8,2,691.9715068340302,43.63475322723389,2,966400,5803953,45130835,"[ 2  3  1  0  1  0  5  1  2  0  1  3  2  2  1  2  0  3  1  1  3  0  2  0
  5  3  5  2  3  1  0  1  2  0 11  7  3 12 10  0  4 11  5  5  1  0  3 11
  2  3  0  5  0 13  1 10 15  1  9  3  0 21 21  1 20  2  5 14 20  1  2 16
  4 22 20 15 17 26  7]"
15200,342,1.0,8,2,696.3993937969208,44.278831481933594,2,972800,5840201,45417469,"[ 2  3  1  5  1  2  5  1  3  0  1  3  1  2  0  3  8  4  5  1  8  0  2  0
  5  7  6  5  0  0  0  1  2  0 11  7  1  0  4  0  4 11  2  4 10  1  3 17
  2  3  0  4 16 12  1 13  9  2 10  9  3 15 22  2 20  2  5 14 20  2 20  1
  0 16 20 15 17 26  7]"
15300,342,1.0,8,2,700.7855935096741,43.861963748931885,2,979200,5876040,45701391,"[ 2  3  1  0  2  0  4  3  0  0  1  3  5  2  0  4  7  7  3  3  8  0  2  0
  2  4  4  1  2  4  0  1  2  0 11  7  5  5  1  0  4 11  1 13 13  0  1 18
  2  3  0  2 11  0  3 14 11  3 18 13  4  0 15  4 20 17  5 14 20  1 21 18
  1 16  0 15 17 26  7]"
15400,342,1.0,8,2,705.2607941627502,44.75198030471802,2,985600,5912523,45989179,"[ 2  3  1  1  0  3  4  2  1  0  1  3  0  1  1  3  7  2  5  6  8  0  2  0
  1  7  0  0  0  1  0  1  2  0 11  7  5  0  6  0  4 11  4  4  6  3  1 17
  2  3  0  1 16 16  3  2  1  0 16  2  0  0 16  0  2 15  5 14 20  4 17 15
  4  1 22 15 17 26  7]"
15500,342,1.0,8,2,709.7626020908356,45.01805543899536,2,992000,5949354,46279961,"[ 2  3  1  2  0  1  2  0  3  0  1  3  2  1  0  4  0  6  2  4  3  0  2  0
  3  1  2  3  2  0  0  1  2  0 11  7  1 11  4  0  4 11  0  0 13  5  2  9
  2  3  0  5 15 10  3  3  9  5 18  2  0 18  2  0 19 14  5 14 20  0 19 15
  5 16 16 15 17 26  7]"
15600,342,1.0,8,2,714.1815531253815,44.18948173522949,2,998400,5985070,46563187,"[ 2  3  1  3  1  2  2  2  3  0  1  3  4  1  1  3  5  4  0  3  5  0  2  0
  3  5  1  0  2  1  0  1  2  0 11  7  3  6 12  0  4 11  2 10 10  3  1  9
  2  3  0  3 10 10  4 15 12  5 16 10  5  0 22  0 20 22  5 14 20  4 15  3
  1  0  2 15 17 26  7]"
15700,342,1.0,8,2,718.5725197792053,43.909642696380615,2,1004800,6020532,46844482,"[ 2  3  1  3  3  3  3  3  0  0  1  3  1  3  3  4  0  6  1  6  7  0  2  0
  3  8  3  5  1  8  0  1  2  0 11  7  4  9  3  0  4 11  2  6 11  3 13 17
  2  3  0  5 16  2  5  3 12  3 11  0  5 19 23  5  0 19  5 14 20  2 18 18
  3 19  2 15 17 26  7]"
15800,342,1.0,8,2,722.9777715206146,44.052491188049316,2,1011200,6056850,47132140,"[ 2  3  1  3  0  1  5  0  3  0  1  3  5  2  2  3  2  3  1  5  0  0  2  0
  0  0  2  2  3  6  0  1  2  0 11  7  5 12  4  0  4 11  2  4  2  2 16  0
  2  3  0  1 13 16  5  3 13  1 18 18  0 14 22  5  0 15  5 14 20  2 19 21
  4  3 23 15 17 26  7]"
15900,342,1.0,8,2,727.4380946159363,44.60320711135864,2,1017600,6093524,47421664,"[ 2  3  1  4  1  2  3  2  0  0  1  3  3  1  0  3  1  6  1  1  1  0  2  0
  3  4  4  1  1  3  0  1  2  0 11  7  1  0  4  0  4 11  1  5 11  2 12  9
  2  3  0  4  0 17  1  0  9  1  0 12  2 22  0  4 20 17  5 14 20  5  0  1
  3  3  1 15 17 26  7]"
16000,342,1.0,8,2,731.8988482952118,44.607510566711426,2,1024000,6129958,47709784,"[ 2  3  1  3  3  1  0  1  0  0  1  3  5  1  0  4  7  8  5  3  0  0  2  0
  0  2  6  0  5  1  0  1  2  0 11  7  1  3  7  0  4 11  3  6 11  0 10 10
  2  3  0  2 12 10  0 14 17  0 17  3  4 18  3  0 14  0  5 14 20  5 15 17
  4  0 15 15 17 26  7]"
16100,342,1.0,8,2,736.295120716095,43.962697982788086,2,1030400,6165988,47994671,"[ 2  3  1  2  3  2  4  0  3  0  1  3  2  3  1  2  0  7  5  1  0  0  2  0
  2  3  4  0  0  7  0  1  2  0 11  7  3 13 11  0  4 11  3 13  2  4  9 16
  2  3  0  2  3 12  0  0 13  3 14  3  4 23 21  3  2  1  5 14 20  3 23 16
  2 22 17 15 17 26  7]"
16200,342,1.0,8,2,740.7756500244141,44.80526685714722,2,1036800,6202220,48281244,"[ 2  3  1  5  1  3  1  3  3  0  1  3  5  3  1  2  5  2  2  5  8  0  2  0
  5  5  5  3  8  0  0  1  2  0 11  7  1  2 13  0  4 11  0  6  7  0 13  0
  2  3  0  5 10 14  2 12 18  2 14  9  4 18  1  5 21 21  5 14 20  0  1 19
  0 18  1 15 17 26  7]"
16300,342,1.0,8,2,745.3210196495056,45.453667640686035,2,1043200,6238871,48571294,"[ 2  3  1  4  2  3  4  2  1  0  1  3  3  0  0  0  1  0  0  8  8  0  2  0
  4  6  1  0  2  0  0  1  2  0 11  7  4 10  3  0  4 11  4  3 13  3 12  0
  2  3  0  2  3  2  3  0  0  4 12  9  2  1 20  1  3 16  5 14 20  0  0  0
  2 18  3 15 17 26  7]"
16400,342,1.0,8,2,749.8487601280212,45.27738094329834,3,1049600,6275435,48860353,"[ 2  3  1  0  1  3  4  3  3  0  1  3  0  1  2  1  6  4  0  0  5  0  2  0
  4  5  3  3  6  6  0  1  2  0 11  7  0 12  5  0  4 11  3  0  1  4  0 10
  2  3  0  4 15 10  3 17 17  3 15 17  0  2 17  4 23 23  5 14 20  4  3 22
  5  0 15 15 17 26  7]"
16500,342,1.0,8,2,754.3165104389191,44.67747688293457,3,1056000,6312722,49154643,"[ 2  3  1  2  3  3  5  1  0  0  1  3  0  2  0  0  8  4  1  0  0  0  2  0
  0  7  2  2  4  0  0  1  2  0 11  7  2  2 11  0  4 11  4  8 13  0 17 16
  2  3  0  0 16  2  4 12 17  4 17 15  0 15 15  4 15 15  5 14 20  3  3  1
  3  2 15 15 17 26  7]"
16600,342,1.0,8,2,758.7251362800598,44.08622980117798,3,1062400,6349116,49442310,"[ 2  3  1  2  1  3  2  0  0  0  1  3  2  0  2  2  8  6  1  8  3  0  2  0
  1  4  1  3  0  2  0  1  2  0 11  7  4 13  7  0  4 11  4  9  1  0 14  3
  2  3  0  5 16 18  0 11 13  4 11 11  3 15  2  0 21 20  5 14 20  3  1 18
  4 18  2 15 17 26  7]"
16700,342,1.0,8,2,763.2736191749573,45.48480033874512,3,1068800,6385572,49730548,"[ 2  3  1  4  3  1  2  0  1  0  1  3  3  1  0  0  7  0  1  5  4  0  2  0
  4  7  5  3  5  4  0  1  2  0 11  7  1  5 11  0  4 11  4 11  1  0  9 12
  2  3  0  1  3 12  3 15 14  2  0  9  1  1 18  5 17  3  5 14 20  1  3 22
  3 19 23 15 17 26  7]"
16800,342,1.0,8,2,767.6358668804169,43.62245321273804,3,1075200,6421172,50012565,"[ 2  3  1  2  0  1  4  2  1  0  1  3  5  0  0  5  5  5  3  7  8  0  2  0
  5  5  3  0  4  8  0  1  2  0 11  7  0 10  9  0  4 11  4  9 11  4 17 10
  2  3  0  3 18 14  2  1  0  5 13 11  3 18 20  3 14 23  5 14 20  3 21 15
  1  0  1 15 17 26  7]"
16900,342,1.0,8,2,772.1405017375946,45.046324729919434,3,1081600,6457744,50301886,"[ 2  3  1  3  0  1  1  3  1  0  1  3  4  2  3  0  3  7  1  2  0  0  2  0
  0  4  8  4  0  7  0  1  2  0 11  7  3  0  8  0  4 11  5  6 13  3 16  3
  2  3  0  3 16  3  4 11  0  5  3  1  3 16  1  0 22 20  5 14 20  1 15  0
  3 19  1 15 17 26  7]"
17000,342,1.0,8,2,776.6015558242798,44.610514640808105,3,1088000,6494725,50594488,"[ 2  1  3  3  1  0  1  0  2  0  1  3  1  3  2  4  7  7  5  8  3  0  2  0
  0  6  2  5  3  6  0  1  2  0 11  7  3  8  0  0  4 11  1 13  6  5  9 12
  2  3  0  5  9 11  1 13 11  2  9 15  2 16 14  0 19 14  5 14 20  2 17 20
  3 18  0 15 17 26  7]"
17100,342,1.0,8,2,780.9771685600281,43.75610589981079,3,1094400,6530686,50878868,"[ 2  1  3  5  1  2  0  2  2  0  1  3  3  3  2  3  3  0  0  3  1  0  2  0
  1  4  7  2  2  0  0  1  2  0 11  7  1 10  8  0  4 11  1 10  6  4  3 16
  2  3  0  2  0 14  2 14 11  2 18 15  1  1 23  2 17  1  5 14 20  1 16  2
  1 21 18 15 17 26  7]"
17200,342,1.0,8,2,785.3098788261414,43.3270788192749,3,1100800,6566018,51158411,"[ 2  1  3  2  2  2  3  2  0  0  1  3  4  2  0  0  0  1  4  3  0  0  2  0
  1  5  7  5  8  0  0  1  2  0 11  7  5  3 12  0  4 11  5  8  4  2 17 12
  2  3  0  0 17 14  5 11 12  0 13 10  2 23 14  1 18 18  5 14 20  3 23 23
  3 14  3 15 17 26  7]"
17300,342,1.0,8,2,789.612960100174,43.03078651428223,3,1107200,6601013,51435421,"[ 2  1  3  4  3  3  2  3  2  0  1  3  3  3  3  0  1  0  1  7  1  0  2  0
  0  2  0  3  0  5  0  1  2  0 11  7  4  9  4  0  4 11  1  0  2  4 12 15
  2  3  0  2 13 10  3  1  3  3 11 14  5 15 23  0 14 21  5 14 20  1  0  3
  1  2 21 15 17 26  7]"
17400,342,1.0,8,2,794.0323143005371,44.19351100921631,3,1113600,6636596,51717124,"[ 2  1  3  3  1  0  2  1  0  0  1  3  1  1  0  4  1  6  1  3  8  0  2  0
  4  5  4  3  3  0  0  1  2  0 11  7  4  4  0  0  4 11  4 13  3  0 13 16
  2  3  0  5 12 11  3 11 15  1  9 15  4 17  1  5 15 23  5 14 20  0  0 21
  2 17 16 15 17 26  7]"
17500,342,1.0,8,2,798.4016513824463,43.693344593048096,3,1120000,6671711,51995414,"[ 2  1  3  4  2  1  5  1  1  0  1  3  0  1  1  0  0  2  0  3  1  0  2  0
  1  5  6  5  3  1  0  1  2  0 11  7  2 10  1  0  4 11  1  0  5  4  1 17
  2  3  0  0 12  9  2 13 13  0 13 16  5 15 19  3  1 19  5 14 20  5 20 20
  2 22 16 15 17 26  7]"
17600,342,1.0,8,2,802.5178165435791,41.161625385284424,3,1126400,6704439,52254101,"[ 4  2  1  1  0  3  4  2  0  0  1  3  1  3  1  0  3  0  2  3  1  0  2  0
  0  5  8  3  0  5  0  1  2  0 11  7  2  1  7  0 10 11  5  5  5  0  0  1
  2  3  0  2 14  9  2 13  0  4 10  0  1 17 20  4  0  2  5 14 20  3 23 18
  1  2 14 15 17 26  7]"
17700,342,1.0,8,2,806.6857221126556,41.67903184890747,3,1132800,6737727,52517186,"[ 1  3  3  0  0  3  4  1  0  0  1  3  0  2  1  4  2  1  2  3  1  0  2  0
  4  6  8  1  5  3  0  1  2  0 11  7  2  1 13  0 10 11  3  0 13  3 11 14
  2  3  0  1  9  2  5  2 11  3 12  2  1 21 20  0 23 18  5 14 20  2 15 22
  3  0 16 15 17 26  7]"
17800,342,1.0,8,2,810.8657414913177,41.800169944763184,3,1139200,6771055,52781023,"[ 5  1  0  5  3  0  1  0  0  0  1  3  4  0  1  1  1  2  2  3  1  0  2  0
  5  8  4  3  3  6  0  1  2  0 11  7  4  9  7  0 10 11  3 13  8  3 10  2
  2  3  0  0  1  2  0 12  0  3 16 17  1 17 23  0 20 18  5 14 20  4 15 15
  3 22 19 15 17 26  7]"
17900,342,1.0,8,2,815.1313633918762,42.656192779541016,3,1145600,6804168,53042998,"[ 3  1  2  0  2  1  1  0  3  0  1  3  1  0  0  3  2  2  2  3  1  0  2  0
  3  0  0  4  0  3  3 10 11  0 11  7  3  1  0  0 10 11  5 13 11  4  0 17
  2  3  0  0  1  2  1 12  2  3 14 11  5 14 17  0 14 16  5 21 20  0 20  0
  0  0 14 15 17 26  7]"
18000,342,1.0,8,2,819.2898190021515,41.584532260894775,3,1152000,6837353,53304165,"[ 4  0  1  4  2  0  3  2  0  0  1  3  1  3  0  5  1  4  2  3  1  0  2  0
  4  2  3  1  4  5  0  0  7  0 11  7  4 12 10  0 10 11  2 11  4  2 15 13
  2  3  0  0  1  2  4 18 11  3 18  1  5  0 18  0 14 18  5 21 20  0  1 21
  0 19  0 15 17 26  7]"
18100,342,1.0,8,2,823.4819328784943,41.921114921569824,3,1158400,6870143,53563297,"[ 1  0  1  1  2  2  5  2  0  0  1  3  3  2  0  0  1  5  2  3  1  0  2  0
  0  2  6  2  7  0  3  9  7  0 11  7  5 13 11  0 10 11  4  8 12  0 17 10
  2  3  0  0  1  2  5 13 15  1  1 12  0  1  3  0 17 15  5 21 20  4 20 19
  0 19  0 15 17 26  7]"
18200,342,1.0,8,2,827.6257674694061,41.43832206726074,3,1164800,6902520,53819591,"[ 4  3  2  5  2  1  3  3  2  0  1  3  2  0  0  5  7  2  2  3  1  0  2  0
  0  1  5  3  6  1  1  8  7  0 11  7  5 10 11  0 10 11  5  4  6  0  1 14
  2  3  0  0  1  2  1  3 14  2 12 13  0 19 17  4 19 14  5 21 20  4 18 14
  4 20 15 15 17 26  7]"
18300,342,1.0,8,2,831.815390586853,41.896207332611084,3,1171200,6934855,54075732,"[ 0  0  1  3  2  1  3  3  1  0  1  3  3  3  2  0  5  5  2  3  1  0  2  0
  2  7  4  3  7  7  3 13  6  0 11  7  2  9  9  0 10 11  2 13  2  3 17 11
  2  3  0  0  1  2  5 12 13  4 11  2  3 16 16  0 15 23  5 21 20  4  1 18
  1 20  1 15 17 26  7]"
18400,342,1.0,8,2,836.0210218429565,42.056283950805664,3,1177600,6968434,54341549,"[ 5  1  1  2  3  1  2  1  1  0  1  3  5  3  2  2  6  3  2  3  1  0  2  0
  5  6  3  0  0  1  1  1  1  0 11  7  0  1  7  0 10 11  4  7  8  1 17 18
  2  3  0  0  1  2  0  9 14  1  9  2  2 14 21  5 17  2  5 21 20  0 21 20
  0 19 20 15 17 26  7]"
18500,342,1.0,8,2,840.2415096759796,42.20485210418701,3,1184000,7002379,54610036,"[ 1  3  0  4  0  0  2  3  1  0  1  3  3  3  1  4  6  5  1  3  1  0  2  0
  5  6  7  3  8  1  2  8  3  0 11  7  0 11  2  0  6 11  0 12  3  4 15 11
  2  3  0  0  1  2  2  3 14  0  9  3  3  3 17  0 23  2  5 21 20  2  1 20
  0 21 16 15 17 26  7]"
18600,342,1.0,8,2,844.6740243434906,44.32512283325195,3,1190400,7038772,54898875,"[ 3  2  1  2  0  2  2  3  1  0  1  3  1  2  3  4  0  8  3  4  7  0  2  0
  1  5  7  5  7  2  2  3 13  0 11  7  4  1  6  0  6 11  4  1  4  4  1 17
  2  3  0  0  1  2  3  1  1  3 17  0  4 19  2  1 14 14  5 21 20  5 16 22
  3 23  1 15 17 26  7]"
18700,342,1.0,8,2,849.1474740505219,44.73447561264038,3,1196800,7074912,55184965,"[ 1  2  0  4  0  1  2  3  1  0  1  3  2  0  0  4  4  1  3  4  5  0  2  0
  4  1  7  1  3  0  4  1  0  0 11  7  0  2 10  0  6 11  4  1 13  5 15 15
  2  3  0  0  1  2  4 16 10  4  0 12  4 23 19  3 19 18  5 21 20  4 19 18
  0 23 23 15 17 26  7]"
18800,342,1.0,8,2,853.5247752666473,43.77298593521118,3,1203200,7110749,55469218,"[ 0  1  0  2  1  0  2  3  1  0  1  3  2  1  3  2  6  4  3  3  3  0  2  0
  0  6  8  1  4  7  5  7  6  0 11  7  0 11  7  0  8 11  4 12  4  2 18 12
  2  3  0  0  1  2  4  1 13  1 14 15  3 14  0  3 14 19  5 21 20  2  1 23
  4  1 19 16 17 26  7]"
18900,342,1.0,8,2,857.95685505867,44.32077169418335,3,1209600,7146801,55754988,"[ 2  2  3  4  0  0  2  3  1  0  1  3  1  1  2  0  0  3  1  0  8  0  2  0
  4  3  5  3  3  8  3  0 10  1  9  1  0 11  7  0  6 11  2  7  1  1  1 11
  2  3  0  0  1  2  5 16 10  2 12 11  4  1 19  2  1  1  5 21 20  3  2 17
  2 17 21 16 17 26  7]"
19000,342,1.0,8,2,862.3032834529877,43.46425771713257,3,1216000,7182134,56035190,"[ 5  0  1  2  2  1  2  3  1  0  1  3  0  3  0  1  4  0  4  8  5  0  2  0
  5  3  8  0  6  6  4  2  6  0  5  4  0 11  7  0  6 11  2  6  8  0 17  1
  2  3  0  0  1  2  0  9 16  4 10 11  0  2 20  2 15  1  5 21 20  2  0 20
  2  0 21 16 17 26  7]"
19100,342,1.0,8,2,866.803876876831,45.00590801239014,3,1222400,7218568,56323795,"[ 5  1  3  1  1  0  2  3  1  0  1  3  1  3  0  2  6  6  3  3  6  0  2  0
  0  8  1  5  1  4  3 13  7  3  4  7  0 11  7  0  6 11  4  5  1  1 15 12
  2  3  0  0  1  2  2 10  1  3 10  3  4 14 16  2 14 21  5 21 20  0 15 16
  5 14 19 16 17 26  7]"
19200,342,1.0,8,2,871.2085309028625,44.04651403427124,3,1228800,7253769,56602977,"[ 3  1  0  0  3  1  2  3  1  0  1  3  2  0  1  0  1  7  0  1  2  0  2  0
  2  1  7  1  2  6  0  6  9  1  6  6  0 11  7  0  6 11  3  7 11  2 13 15
  2  3  0  0  1  2  2  3  2  0 13 16  3 18 14  2 22 21  5 21 20  4  0  3
  5 18 23 16 17 26  7]"
19300,342,1.0,8,2,875.5902338027954,43.8170051574707,3,1235200,7289555,56886842,"[ 3  0  1  1  3  3  2  3  1  0  1  3  3  1  0  3  5  5  3  5  4  0  2  0
  4  8  6  3  0  7  3 10  4  1  5 12  0 11  7  0  6 11  0  1 11  2 13 12
  2  3  0  0  1  2  0 16  2  3 16 14  5 21 14  3 18 22  5 21 20  5 22 23
  1  1 20 16 17 26  7]"
19400,342,1.0,8,2,880.090539932251,45.003037452697754,3,1241600,7325855,57174387,"[ 0  1  0  3  1  2  2  3  1  0  1  3  3  1  2  3  8  8  1  7  6  0  2  0
  0  1  7  1  0  7  0 13  2  4 12  0  0 11  7  0  6 11  3  1  0  3 16 12
  2  3  0  0  1  2  5  0 16  2 15 12  5  2 23  3 15 22  5 21 20  1  3  2
  1  1 17 16 17 26  7]"
19500,342,1.0,8,2,884.4672737121582,43.767311573028564,3,1248000,7361625,57458083,"[ 0  1  0  1  2  2  2  3  1  0  1  3  0  1  2  3  1  3  5  6  4  0  2  0
  2  8  2  2  5  7  3  3  3  2 13  1  0 11  7  0  6 11  2  6  7  1 15 11
  2  3  0  0  1  2  4 18 17  4 17 10  0 15 16  5 17 14  5 21 20  3 21  2
  5 14  2 16 17 26  7]"
19600,342,1.0,8,2,888.823370218277,43.56093406677246,3,1254400,7397145,57739872,"[ 0  0  2  4  2  3  2  3  1  0  1  3  0  0  1  2  3  1  5  7  1  0  2  0
  2  2  6  0  6  8  0  7  9  3  2 11  0 11  7  0  6 11  5  6  2  2 15 14
  2  3  0  0  1  2  3 17  0  4 14 10  4 23 20  4 15 21  5 21 20  1 21 15
  4 17 18 16 17 26  7]"
19700,342,1.0,8,2,893.277975320816,44.546024799346924,3,1260800,7433416,58026441,"[ 1  0  3  0  0  0  2  3  1  0  1  3  0  3  0  2  4  7  4  0  2  0  2  0
  3  6  4  0  1  7  4  6 13  2  4  4  0 11  7  0  6 11  2  2  1  2  2 18
  2  3  0  0  1  2  1 17 14  2 11 18  5 22 20  2 23 18  5 21 20  5  0 16
  4 14 15 16 17 26  7]"
19800,342,1.0,8,2,897.7771005630493,44.99122619628906,3,1267200,7469963,58315831,"[ 1  2  0  1  3  0  2  3  1  0  1  3  0  1  0  1  7  7  5  1  4  0  2  0
  3  4  7  1  7  8  0  4 12  1  1 13  0 11  7  0  6 11  4  9  6  3 13  2
  2  3  0  0  1  2  2 10 14  5 17 12  3 21  1  3  2  1  5 21 20  4 14 17
  1 22 15 16 17 26  7]"
19900,342,1.0,8,2,902.267231464386,44.90128517150879,3,1273600,7506651,58606188,"[ 5  2  3  5  2  3  2  3  1  0  1  3  4  2  2  3  4  6  3  8  3  0  2  0
  4  4  6  3  2  6  0  6  2  0  6  8  0 11  7  0  6 11  3  2  5  2 11  9
  2  3  0  0  1  2  1 16 18  3  0 18  1 20 17  3 17 17  5 21 20  5 14  1
  3  1 14 16 17 26  7]"
20000,342,1.0,8,2,906.7209103107452,44.53675985336304,3,1280000,7542580,58890914,"[ 2  1  2  3  0  0  2  3  1  0  1  3  2  3  0  2  4  5  2  5  8  0  2  0
  2  4  5  3  5  4  5  0 13  2 10  5  0 11  7  0  6 11  5  6  9  3  0 12
  2  3  0  0  1  2  3  3 14  2 10  1  3 14 18  2 15  3  5 21 20  0  1  2
  2 22 21 16 17 26  7]"
