generation,fitness,functionality,active_nodes,longest_path,time,gen_time,nc_gens,fitness_evals,graph_evals,node_evals,genotype
0,167.0,0.46875,9,4,0.006348371505737305,6.346225738525391,0,0,0,0,"[ 3  2  0  3  2  0  0  1  2  2  1  3  0  0  0  0  4  2  1  0  0  4  2  6
  4  4  8  1  0  3  0  4  6  4 12  0  3 13  6  0  9  2  5  5 12  3  2 12
  3  2 14  2  0 10  2  3  2  3 10 15  4 20 19  4  1 23  5 23 21  2 20 19
  0 23 22 24  4  4 13]"
100,316.0,0.921875,6,3,6.329392194747925,63.230412006378174,0,6400,81630,406868,"[ 0  2  0  0  2  1  0  1  3  4  2  2  5  2  1  3  4  0  1  1  0  1  7  8
  1  7  5  1  6  4  0  0  3  4  7 10  4 13  6  5  7  9  3  9  3  0 12 18
  3 16  1  1 11 10  3  0 18  2  1  9  5 20 15  2 19 15  0 16 14  3 23  1
  1 19 20  7 16 14  6]"
200,321.0,0.9375,6,3,12.92440152168274,65.95007181167603,0,12800,153904,850454,"[ 0  2  0  4  1  2  0  1  3  5  2  1  3  0  3  2  5  2  2  3  5  2  2  1
  5  0  4  1  6  4  0  0  3  2  8  1  4 13  6  1 12 13  0  6  4  5 10 16
  0  9  1  3 14 12  2  1  3  0 18  9  5 17 20  0 21 18  0 18  0  2  2 18
  5 23 22 18 16 14  6]"
288,340,1.0,9,3,18.558727025985718,64.0264018015428,0,18432,215043,1231287,"[ 0  2  0  3  2  0  0  1  3  0  2  1  0  1  0  4  8  8  0  2  1  4  1  7
  5  3  1  1  6  4  0  0  3  0 10  1  4 13  6  5  6  5  0  6  4  5  3 13
  2  3 13  5 13 13  1  0  3  0  1  0  4 15 14  5  0 18  1 21 20  3 15 18
  5 22 17 18 16 24  6]"
300,341,1.0,8,3,19.09527087211609,44.71176862716675,0,19200,219269,1266297,"[ 0  2  0  3  2  0  0  1  3  5  2  1  0  1  1  4  8  8  0  2  1  4  1  7
  5  3  7  1  6  4  0  0  3  0  2  1  4 13  6  5  4  5  0  6  4  5  3 13
  2  3 13  5 16 13  1 18  3  0 16  0  4 15 14  5  0 18  4  1 20  3 15 20
  5 22 17 18 16 24  6]"
400,341,1.0,8,3,23.3350248336792,42.3975133895874,0,25600,252797,1530991,"[ 0  2  0  0  0  1  0  1  3  4  1  1  5  2  2  1  0  4  2  4  8  3  5  7
  2  0  6  1  6  4  0  0  3  0  2  1  4 13  6  5  5  5  0  6  4  5  0 12
  2 13 13  4 14 12  0 11 15  3 16 16  4 15 14  4  1  3  3 22  2  5 20 22
  1 22  1 18 16 24  6]"
500,341,1.0,8,3,27.611486673355103,42.76459455490112,0,32000,286819,1799941,"[ 0  2  0  5  3  3  0  1  3  3  0  3  5  0  0  5  8  5  0  8  5  4  5  1
  2  5  7  1  6  4  0  0  3  0  2  1  4 13  6  2  9 10  0  6  4  0  3 11
  0  0  3  3 16 10  4  9 14  4  2 12  4 15 14  4 19 18  4 19 19  2 22  3
  3 22  1 18 16 24  6]"
600,341,1.0,8,3,31.856036901474,42.445476055145264,0,38400,320492,2065562,"[ 0  2  0  1  0  2  0  1  3  0  1  2  2  2  0  5  1  6  5  0  5  4  2  3
  4  6  7  1  6  4  0  0  3  0  2  1  4 13  6  0 12  3  0  6  4  1  3 15
  4  9  9  4  9 13  0 18 14  0 10  0  4 15 14  4 17  0  1 20 20  3 15 21
  0  1 20 18 16 24  6]"
700,341,1.0,8,3,36.03767418861389,41.816344261169434,0,44800,353500,2326316,"[ 0  2  0  5  0  1  0  1  3  1  1  0  2  3  2  4  5  7  5  3  6  4  8  0
  4  6  7  1  6  4  0  0  3  0  2  1  4 13  6  5  5 13  0  6  4  4  3 15
  4  1 13  3 17 18  2  9 10  5 10  3  4 15 14  2 17  2  3 18  2  3 14  3
  4  2 21 18 16 24  6]"
800,341,1.0,8,3,40.28824162483215,42.505648136138916,0,51200,387297,2592604,"[ 0  2  0  5  0  2  0  1  3  4  0  2  4  3  2  2  1  8  1  8  7  5  2  0
  4  4  8  1  6  4  0  0  3  0  2  1  4 13  6  4  3  0  0  6  4  1 12 11
  4 13 10  3 17 18  2  9 16  0  9 12  4 15 14  2 17 21  0 16 23  0 15  2
  1 16 17 18 16 24  6]"
900,341,1.0,8,3,44.65252161026001,43.642776012420654,0,57600,421492,2861997,"[ 0  2  0  5  3  2  0  1  3  0  3  0  0  1  2  3  8  8  1  3  6  0  1  5
  5  8  5  1  6  4  0  0  3  0  2  1  4 13  6  4 13  2  0  6  4  1  3  3
  2 10  9  3  0  0  1 16 13  2 11 17  4 15 14  1 22 14  0 15  0  3  2 21
  2  3 19 18 16 24  6]"
1000,341,1.0,8,3,49.078158378601074,44.25634145736694,0,64000,455477,3130041,"[ 0  2  0  3  1  2  0  1  3  2  0  1  1  3  3  0  5  0  1  6  3  0  6  5
  2  4  3  1  6  4  0  0  3  0  2  1  4 13  6  3  1  2  0  6  4  0 11 10
  2  0  2  5 13 15  2 10  3  5 11 16  4 15 14  3 16 18  4  2 14  0 15 15
  5 21 15 18 16 24  6]"
1100,341,1.0,8,3,53.31299090385437,42.34829902648926,0,70400,489090,3395308,"[ 0  2  0  2  1  3  0  1  3  2  1  1  5  2  0  2  1  8  1  5  3  0  0  1
  1  1  6  1  6  4  0  0  3  0  2  1  4 13  6  3  8  8  0  6  4  0  9 13
  3  3 11  1 17  9  1  3 14  4 11 11  4 15 14  5 16 15  3 15 23  0 14 15
  0 21 20 18 16 24  6]"
1200,341,1.0,8,3,57.64486336708069,43.31870079040527,0,76800,524124,3671539,"[ 0  2  0  5  3  3  0  1  3  1  2  3  0  2  1  1  2  6  1  5  2  1  2  0
  1  0  1  1  6  4  0  0  3  0  2  1  4 13  6  3 11 11  0  6  4  0 18 13
  2  9 17  1  1  9  3 16 13  5  1 17  4 15 14  4  3 20  2 20 23  4 16 14
  2  1  1 18 16 24  6]"
1300,341,1.0,8,3,61.90639042854309,42.61524677276611,0,83200,558214,3940362,"[ 0  2  0  0  2  3  0  1  3  2  2  2  5  1  1  2  1  6  2  6  6  5  0  6
  0  7  4  1  6  4  0  0  3  0  2  1  4 13  6  5 12 12  0  6  4  5  9 17
  1  1  1  4  1 17  4 16 18  3  1 13  4 15 14  4 17 22  0 23 14  1 22 21
  2 16 15 18 16 24  6]"
1400,341,1.0,8,3,66.14936923980713,42.42976665496826,0,89600,591834,4205630,"[ 0  2  0  3  3  3  0  1  3  0  3  0  1  2  1  1  1  2  4  0  1  0  5  6
  4  4  4  1  6  4  0  0  3  0  2  1  4 13  6  5  6  8  0  6  4  4  2  9
  0 14  2  2 12 15  4 16 18  1 11 16  4 15 14  5 14  3  0 18 16  5 17 14
  5 21 20 18 16 24  6]"
1500,341,1.0,8,3,70.38004040718079,42.30668544769287,0,96000,625529,4471105,"[ 0  2  0  1  2  1  0  1  3  1  3  2  5  3  0  5  7  8  2  8  3  2  4  6
  1  3  3  1  6  4  0  0  3  0  2  1  4 13  6  4  0 11  0  6  4  1 13  3
  2 11 18  1 14 13  3  3 16  3 18 16  4 15 14  4 15 23  0 18 14  1  0 19
  0 23 20 18 16 24  6]"
1600,341,1.0,8,3,74.64540076255798,42.65358209609985,0,102400,659697,4739873,"[ 0  2  0  1  3  2  0  1  3  4  3  1  4  0  0  1  1  8  1  0  3  1  4  1
  4  1  1  1  6  4  0  0  3  0  2  1  4 13  6  4  1  8  0  6  4  1 15 15
  2 11  2  4 12 14  5  2  0  0 17 16  4 15 14  0 16 22  5 22  0  5 20  3
  1 20 21 18 16 24  6]"
1700,341,1.0,8,3,78.93842315673828,42.93019771575928,0,108800,693467,5005874,"[ 0  2  0  4  2  2  0  1  3  3  1  1  1  0  3  1  1  6  1  2  3  4  1  2
  5  6  2  1  6  4  0  0  3  0  2  1  4 13  6  0  3  5  0  6  4  5  3 16
  2 10 11  2 13 17  4 12 13  1 18 11  4 15 14  2 15 21  1 19 21  0 18 22
  1 15 22 18 16 24  6]"
1800,341,1.0,8,3,83.1849434375763,42.465174198150635,0,115200,727248,5272153,"[ 0  2  0  4  2  2  0  1  3  5  3  2  2  0  1  0  4  7  3  1  3  2  1  4
  5  3  5  1  6  4  0  0  3  0  2  1  4 13  6  0  3 10  0  6  4  4  3  2
  5 10  3  1  9 11  1  1  9  5 13 17  4 15 14  2 14  0  0  3  2  3 16 22
  2 22 16 18 16 24  6]"
1900,341,1.0,8,3,87.52110719680786,43.36161136627197,0,121600,761330,5540517,"[ 0  2  0  1  1  3  0  1  3  3  2  0  4  1  2  2  7  2  5  0  4  4  4  0
  4  6  2  1  6  4  0  0  3  0  2  1  4 13  6  0  2  5  0  6  4  3 17  2
  0 16 13  2  0  3  4 11 12  4  3 11  4 15 14  5 18 19  4  0  0  2 22 18
  0 14 19 18 16 24  6]"
2000,341,1.0,8,3,91.86745119094849,43.46341371536255,0,128000,795566,5810607,"[ 0  2  0  1  3  2  0  1  3  4  3  1  1  0  2  1  8  5  3  5  3  5  7  4
  2  6  4  1  6  4  0  0  3  0  2  1  4 13  6  4  2 11  0  6  4  1 11 18
  0 10 13  0  1 12  5  0 13  5 14  3  4 15 14  3  2  0  1 21  1  2 21 21
  3  3 21 18 16 24  6]"
2100,341,1.0,8,3,96.19082832336426,43.233747482299805,0,134400,829597,6078719,"[ 0  2  0  0  0  3  0  1  3  4  3  1  5  3  0  1  1  7  5  6  1  0  8  3
  2  2  4  1  6  4  0  0  3  0  2  1  4 13  6  0  2  1  0  6  4  0 13 14
  0 14 16  5 14 11  0 13  3  0 18 15  4 17 14  2 16 17  2 18 23  1 21 21
  2 17 14 18 16 24  6]"
2200,342,1.0,8,2,100.69179892539978,45.009682178497314,0,140800,866922,6372781,"[ 0  2  0  2  0  2  0  1  3  2  1  1  5  3  1  3  6  5  2  3  5  3  7  8
  4  1  4  1  0  3  0  0  3  0  2  1  4  9 11  4  5  4  0  6  4  3 16 18
  3  1 18  2 16 17  4 13  1  2 18 12  4 15 14  2  0 23  2 18 14  4 20 22
  1 18  0 18  9 24  6]"
2300,342,1.0,8,2,105.19030809402466,44.98506546020508,0,147200,904595,6669046,"[ 0  2  0  2  0  2  0  1  3  4  0  1  3  1  0  3  6  5  0  0  3  5  6  2
  0  6  1  1  4  1  0  0  3  0  2  1  0 13  5  4  8  3  0  6  4  4 18 15
  0 16 15  3  3  2  1 15 15  1  9 12  4 15 14  3 15 21  3 18 19  2 17  2
  1 15 19 18  9 24  6]"
2400,342,1.0,8,2,109.67256188392639,44.82251167297363,0,153600,941797,6961597,"[ 0  2  0  2  0  2  0  1  3  0  0  2  5  1  2  3  6  5  0  6  7  3  3  5
  4  6  8  0  8  2  0  0  3  0  2  1  1  8  5  3  6  5  0  6  4  3 15 17
  2  0 14  2 11 10  4  1 15  0 12 12  4 15 14  2 14 15  3 15 16  2 18 21
  3 15 17 18 17 24  6]"
2500,342,1.0,8,2,114.12833642959595,44.55772161483765,0,160000,978648,7251995,"[ 0  2  0  2  0  2  0  1  3  1  0  3  4  2  3  5  4  1  5  6  3  2  4  7
  1  4  2  0  8  5  0  0  3  0  2  1  2  0  6  3  6  5  0  6  4  3  2  1
  5 16 10  5  9 16  2 15  9  0 11  3  4 15 14  5 23 19  1 23  2  2  1  3
  3 22  3 18 17 24  6]"
2600,342,1.0,8,2,118.59512209892273,44.66782569885254,0,166400,1015599,7543640,"[ 0  2  0  2  0  2  0  1  3  1  0  3  5  2  2  4  2  0  5  5  7  3  8  6
  1  3  4  5  6  7  0  0  3  0  2  1  5 12  3  3  6  5  0  6  4  5 12 16
  0 16 11  5 11 16  4 13 13  5  9 11  4 15 14  4 16 21  5  1 14  2  1 16
  5 21 14 18 17 24  6]"
2700,342,1.0,8,2,123.12157106399536,45.264461040496826,0,172800,1052590,7834220,"[ 0  2  0  2  0  2  0  1  3  3  1  3  2  2  3  2  3  8  1  4  1  4  8  4
  1  5  3  2  4  6  0  0  3  0  2  1  0  0  5  3  6  5  0  6  4  4  0  9
  4  1  9  3 12  2  2  2  9  1 11 11  4 15 14  2  0  1  1 14 18  1  1 22
  3 17 14 18 17 24  6]"
2800,342,1.0,8,2,127.6061680316925,44.845943450927734,0,179200,1089028,8121078,"[ 0  2  0  2  0  2  0  1  3  1  3  1  5  3  0  3  6  0  1  4  1  5  6  8
  3  2  3  4  7  5  0  0  3  0  2  1  2  8  9  3  6  5  0  6  4  3 18  2
  1  0 18  0  9 17  4  2 16  2 18 15  4 15 14  1 14 14  2 14 16  4 19 22
  4 14 17 18 17 24  6]"
2900,342,1.0,8,2,132.22557950019836,46.19408845901489,0,185600,1126494,8415535,"[ 0  2  0  2  0  2  0  1  3  1  2  3  4  3  3  3  3  2  1  5  4  2  0  7
  3  1  6  2  6  8  0  0  3  0  2  1  3  4 12  3  6  5  0  6  4  2 16 14
  2 15  3  2  3  2  4  0  0  0 13 13  4 15 14  1 15 17  2 22 14  1 15 21
  4 16 18 18 17 24  6]"
3000,342,1.0,8,2,136.83566164970398,46.10079526901245,0,192000,1164771,8715962,"[ 0  2  0  4  3  1  0  1  3  2  2  0  3  0  2  5  4  8  1  4  2  0  2  5
  4  3  3  2  1  7  0  0  3  0  2  1  5  4 11  3  6  7  0  6  4  1 11 11
  3 17  1  1 12 11  5 14 15  4 17  9  4 15 14  3 21 21  5 21 21  0 20  0
  3  2 22 18 17 24  6]"
3100,342,1.0,8,2,141.22784852981567,43.92184257507324,0,198400,1201072,9001582,"[ 0  2  0  1  3  0  0  1  3  2  2  0  0  2  0  1  7  4  3  3  8  5  5  6
  0  7  3  5  2  7  0  0  3  0  2  1  3  3  9  3  6  7  0  6  4  0  0  2
  0 16 12  1 13  3  1 16 10  1 11  1  4 15 14  5  0 14  4 14  3  0 17 14
  2 14 15 18 17 24  6]"
3200,342,1.0,8,2,145.65747237205505,44.29621458053589,0,204800,1237765,9290220,"[ 0  2  0  4  2  2  0  1  3  2  2  0  5  2  0  5  3  2  2  7  1  2  4  3
  2  2  3  1  1  4  0  0  3  0  2  1  4  1  6  3  6  7  0  6  4  3 18 10
  1 11 16  0 15 13  1  2  0  1 15 12  4 15 14  3  3  2  0 14 14  5 21  0
  2  0 18 18 17 24  6]"
3300,342,1.0,8,2,150.1248939037323,44.67418909072876,0,211200,1274961,9581937,"[ 0  2  0  1  1  1  0  1  3  2  2  0  0  2  0  4  3  7  4  7  8  1  2  1
  3  5  0  5  1  2  0  0  3  0  2  1  3  2  6  3  6  7  0  6  4  2  1 15
  3 11 14  3 18 17  4 11 18  2  1 14  4 15 14  3 23  3  5 19  0  5 17  1
  5  2  3 18 17 24  6]"
3400,342,1.0,8,2,154.72119069099426,45.96293926239014,0,217600,1312005,9873089,"[ 0  2  0  5  0  2  0  1  3  2  2  0  1  3  2  5  2  4  5  4  1  4  0  7
  3  4  3  1  2  0  0  0  3  0  2  1  5  0  4  3  6  7  0  6  4  2 11 13
  3 10 15  3  3  9  3 11 16  1  0  3  4 15 14  2 16  1  3 19 18  0  1 16
  3 15  1 18 17 24  6]"
3500,342,1.0,8,2,159.27143335342407,45.502400398254395,0,224000,1349209,10166258,"[ 0  2  0  2  0  1  0  1  3  2  2  0  4  3  0  3  8  8  0  6  7  0  0  6
  5  0  6  0  7  5  0  0  3  0  2  1  4 12 10  3  6  7  0  6  4  0 14 14
  5 10 15  3  3 11  4 12  1  2  0  2  4 15 14  3 16  3  1 23  0  2 21 15
  5 18  1 18 17 24  6]"
3600,342,1.0,8,2,163.88499402999878,46.13558053970337,0,230400,1386623,10459984,"[ 0  2  0  5  1  0  0  1  3  2  2  0  2  3  2  5  0  4  0  6  4  4  3  6
  4  8  5  0  6  0  0  0  3  0  2  1  5  0  1  3  6  7  3  6 11  2  9 13
  0  0 16  3  3  9  5 14  0  4 18 17  4 15 14  2 19  2  4  0  1  5 14  1
  4  3 21 10 17 24  6]"
3700,342,1.0,8,2,168.48994302749634,46.049463748931885,0,236800,1424598,10758979,"[ 0  2  0  3  0  1  0  1  3  2  2  0  5  2  1  5  6  8  0  6  4  5  3  2
  5  3  5  3  2  4  0  0  3  0  2  1  5 11  6  3  6  7  1  4  2  4  9 17
  0  0  9  3 13 14  4 11  3  1  1  3  4 15 14  1 19 18  1  2 19  3 20  1
  1  2 18 10 17 24  6]"
3800,342,1.0,8,2,173.0897183418274,45.99772930145264,0,243200,1463148,11062428,"[ 0  2  0  0  1  3  0  1  3  2  2  0  1  1  0  3  7  5  0  6  4  2  4  0
  5  7  2  5  2  3  0  0  3  2  7  2  2  1 10  3  6  7  0 13  3  3 18 16
  5  0 12  2 12  3  1  3 17  0  1  2  4 23 14  0 17  3  2 17  3  2 21  0
  3 18 14 10 17 24  6]"
3900,342,1.0,8,2,177.6211175918579,45.313968658447266,0,249600,1500545,11356668,"[ 5  2  3  0  3  2  0  1  3  2  2  0  0  0  2  4  7  3  0  6  8  3  1  5
  3  1  5  3  3  7  0  0  3  4  0  5  5 12 12  3  6  7  2  1  6  3 14  2
  0 16  3  4  1  3  5  9 15  0  1  2  4 23 14  1 14 20  3 18 15  5  3 21
  3  3 16 10 17 24  6]"
4000,342,1.0,8,2,182.24566292762756,46.24542474746704,0,256000,1538463,11654980,"[ 4  1  3  1  1  0  0  1  3  2  2  0  0  0  2  0  2  4  0  6  8  0  1  5
  1  0  1  5  3  5  0  0  3  3 12 11  3 10 12  3  6  7  0 12 13  1  9  0
  3 18 14  3  2  0  3  3 17  0  1  2  4 23 14  1  1 17  5 15 20  3  3 23
  2  1 23 10 17 24  6]"
4100,342,1.0,8,2,186.76782846450806,45.22163152694702,0,262400,1576338,11952760,"[ 2  0  1  5  2  1  0  1  3  2  2  0  0  0  2  2  8  3  0  6  8  3  2  4
  4  7  3  4  8  0  0  0  3  3 10  5  1  1  6  3  6  7  5 10  3  1  9 12
  3 17 14  3  9  2  3  2 10  0  1  2  4 23 14  4 23 19  1 15 16  3 23 20
  2  1 19 10 17 24  6]"
4200,342,1.0,8,2,191.39905428886414,46.31223201751709,0,268800,1614406,12252682,"[ 4  2  3  0  2  0  0  1  3  2  2  0  0  0  2  0  6  7  0  6  5  4  7  4
  4  0  8  0  6  4  0  0  3  5  4  4  5  8  4  3  6  7  3  6  6  1  3  1
  3 15 14  1 10  2  4 18  1  0  1  2  4 23 14  4 19  0  1 18 17  0 18  3
  4 14 21 10 17 24  6]"
4300,342,1.0,8,2,195.90319776535034,45.04140853881836,0,275200,1651896,12548202,"[ 5  1  0  0  2  0  0  1  3  2  2  0  1  2  3  0  6  5  0  8  2  0  2  2
  5  8  2  4  8  6  0  0  3  5  0  4  0  2 11  3  6  7  0  6  4  1  9 13
  5  0 13  1  3 10  2 13  3  0  1  2  4 23 14  5 21 15  1  2 17  0 18 21
  4  1 22  9 17 24  6]"
4400,342,1.0,8,2,200.55906224250793,46.55862092971802,0,281600,1690461,12852250,"[ 2  3  1  0  2  0  0  1  3  2  2  0  4  0  2  0  6  5  4  5  8  0  1  4
  2  2  0  1  8  6  0  0  3  5  9  2  5 12  2  3  6  7  3  4  5  0 16 16
  0 15  3  1 17  1  1  1 16  0  1  2  4 23 14  3  0  2  0 21  1  4 23 17
  3 20 18  9 17 24  6]"
4500,342,1.0,8,2,205.14489006996155,45.85825204849243,0,288000,1728356,13151093,"[ 2  2  1  0  2  0  0  1  3  2  2  0  2  2  3  0  6  5  2  6  8  3  8  1
  1  2  3  4  3  5  0  0  3  5  7  6  4 13 11  3  6  7  3  1 11  0  2 12
  4 16 12  3 17 15  0 18 13  0  1  2  4 23 14  1  0 16  2 21 15  5 18 18
  4  1 15  9 17 24  6]"
4600,342,1.0,8,2,209.69137859344482,45.46485662460327,0,294400,1765279,13441645,"[ 1  0  3  0  2  0  0  1  3  2  2  0  0  1  0  0  6  5  2  4  1  1  2  3
  3  5  1  3  1  2  0  0  3  3  5 12  4  6  4  3  6  7  3 13  5  1 16 17
  1  0 14  2 12  3  1 18  1  0  1  2  4 23 14  1  3 18  1 19  3  3 19 22
  4 16 20  9 17 24  6]"
4700,342,1.0,8,2,214.28591680526733,45.94536066055298,0,300800,1803316,13740269,"[ 2  2  3  0  2  0  0  1  3  2  2  0  4  0  1  0  6  5  5  2  3  4  7  8
  5  3  6  5  4  8  0  0  3  0  2 11  4  6  7  3  6  7  1  7  7  2  2 15
  2 18 14  3 11  3  1 10  3  0  1  2  4 23 14  2 14 17  0 14  2  1 18  0
  4 23  3  9 17 24  6]"
4800,342,1.0,8,2,218.84943270683289,45.63513517379761,0,307200,1841686,14041636,"[ 0  1  0  0  2  0  0  1  3  2  2  0  1  2  1  0  6  5  5  2  6  1  1  3
  4  5  3  3  8  4  0  0  3  3  6 12  0  6 10  3  6  7  2  4 13  1 18 18
  4 10 10  5 16 18  1  1  3  0  1  2  4 23 14  2 18  3  1 18  2  2 15 16
  2  3 14  9 17 24  6]"
4900,342,1.0,8,2,223.40970706939697,45.60271978378296,0,313600,1879462,14339390,"[ 0  2  2  0  2  0  0  1  3  2  2  0  3  1  2  0  6  5  4  4  1  0  2  2
  1  0  4  0  3  6  0  0  3  5  6  8  0  0  1  3  6  7  0  0  1  1 14 11
  3 13  1  5 16 15  1  1 10  0  1  2  4 23 14  1 16 15  0 18 17  3 15 17
  4  1 22  9 17 24  6]"
5000,342,1.0,8,2,228.01558876037598,46.05879545211792,0,320000,1918159,14643971,"[ 3  3  0  0  2  0  0  1  3  2  2  0  2  3  2  0  6  5  2  1  0  2  6  3
  1  4  5  1  5  0  0  0  3  5  5  0  1  5  6  3  6  7  2  9  6  2 10 13
  0  1  2  3 14 13  0  3 10  0  1  2  4 23 14  0  2 21  1 22 17  2 17 17
  2 18 23  9 17 24  6]"
5100,342,1.0,8,2,232.56407141685486,45.48480272293091,0,326400,1955722,14939289,"[ 0  1  3  0  2  0  0  1  3  2  2  0  0  2  0  0  6  8  4  5  0  0  4  2
  1  8  4  0  1  7  0  0  3  5  5  8  1  7 11  3  6  7  4 10  5  3 13 18
  0 18 18  4 16 12  2 12 15  0  1  2  4 23 14  2 20  2  4 21  1  3 16  3
  4  1  1  9 17 24  6]"
5200,342,1.0,8,2,237.16416764259338,46.00093364715576,0,332800,1994290,15243277,"[ 3  2  1  4  1  1  0  1  3  2  2  0  0  2  0  0  6  8  5  4  1  4  7  8
  2  3  7  0  7  1  0  0  3  3 11  1  4  4  2  3  6  7  2  8  5  5 16  3
  0  2 13  4  1 13  1 13  1  0  1  2  4 23 14  2 22  1  0 15 23  2  0  0
  1  1 14  9 17 24  6]"
5300,342,1.0,8,2,241.73159289360046,45.6742262840271,0,339200,2032449,15542811,"[ 5  2  1  0  1  0  0  1  3  2  2  0  0  2  0  0  6  8  2  2  7  3  8  8
  5  7  7  1  5  1  0  0  3  3  3  0  3  1  4  3  6  7  2  9 11  5 15 11
  2 16  1  0 17 12  1  2 14  0  1  2  4 23 14  2 17  3  4  1  0  4 19 21
  3 17 19  9 17 24  6]"
5400,342,1.0,8,2,246.36870431900024,46.3710880279541,0,345600,2070582,15843168,"[ 2  2  1  3  3  3  0  1  3  2  2  0  0  2  0  0  6  8  2  6  7  1  6  8
  4  4  8  3  7  1  0  0  3  5  1  5  0  4  0  3  6  7  0 12 10  0 13 16
  2  0 15  2  2 17  1 10 15  0  1  2  4 23 14  1 17 20  1 20 21  5 20 14
  2  1 20  9 17 24  6]"
5500,342,1.0,8,2,251.0652928352356,46.965858936309814,0,352000,2108992,16145140,"[ 5  0  1  4  0  2  0  1  3  2  2  0  0  2  0  0  6  8  2  0  0  5  3  2
  5  8  0  2  7  2  0  0  3  2  6  8  5  8  5  3  6  7  0  2  6  2 15 11
  1 11 18  5 13  9  5 15 18  0  1  2  4 23 14  1  3  0  2 19 14  1 17 19
  3  3 23  9 17 24  6]"
5600,342,1.0,8,2,255.71612215042114,46.50826692581177,0,358400,2147282,16446548,"[ 3  0  2  0  1  1  0  1  3  2  2  0  0  2  0  0  6  8  2  5  4  1  4  8
  5  2  1  0  7  4  0  0  3  0  6  8  1  1  5  3  6  7  1  3  4  3 16 11
  5 15 15  3  0  0  1  2 11  0  1  2  4 23 14  2  3  3  1 18  3  4 17 16
  0  2 18  9 17 24  6]"
5700,342,1.0,8,2,260.2886002063751,45.724754333496094,0,364800,2185546,16747892,"[ 3  3  3  5  0  0  0  1  3  2  2  0  0  2  0  0  6  8  0  6  1  1  6  3
  5  3  1  4  7  3  0  0  3  0 11 12  3  6  7  3  6  7  2  6  5  4 16 15
  3 11 15  0 10  2  1 18  3  0  1  2  4 23 14  3 14  2  2 22  3  5  1 15
  0 19 14  9 17 24  6]"
5800,342,1.0,8,2,265.0351119041443,47.46509075164795,0,371200,2225127,17059079,"[ 0  2  0  3  0  3  0  1  3  2  2  0  0  2  0  0  6  8  1  1  4  4  7  1
  0  3  0  3  7  7  0  0  3  3 13  4  1  2 11  3  6  7  1  6  0  4 16 17
  4 11  1  2 14 16  1 12 12  0  1  2  4 23 14  4  3 18  4 23 18  2  0 18
  2 19 21  9 17 24  6]"
5900,342,1.0,8,2,269.65031242370605,46.151981353759766,0,377600,2263160,17358916,"[ 2  2  0  1  1  2  0  1  3  5  0  1  0  2  0  0  6  8  3  6  1  2  0  6
  0  7  3  5  6  1  0  0  3  2  1  5  2 11 11  3  6  4  5 13 11  3  9 18
  5 11 11  1 11 12  5 10 14  0  1  2  4 23 14  0 21 15  0 22  3  4 15 18
  3  0  3  9 17 24  6]"
6000,342,1.0,8,2,274.1845531463623,45.34237861633301,0,384000,2301030,17657082,"[ 2  2  0  2  1  1  0  1  3  1  3  0  0  2  0  0  6  8  1  1  2  4  6  0
  1  3  2  0  5  7  0  0  3  4  0  2  0  9 13  3  6  4  1 13  1  2  9 16
  5  0 10  1 16  3  0 10 11  0  1  2  4 23 14  4  1 19  1 16 23  4 21 14
  5 16 23  9 17 24  6]"
6100,342,1.0,8,2,278.80484795570374,46.202921867370605,0,390400,2340112,17964154,"[ 2  2  0  2  2  1  0  1  3  0  1  0  0  2  0  0  6  8  5  8  5  5  8  8
  5  6  5  4  8  3  0  0  3  4  5  2  5  3  2  3  6  4  4  5  0  3 14  1
  1  0  0  1 16  2  5 11 10  0  1  2  4 23 14  5 15 14  5 19 17  3 23 22
  5  2  1  9 17 24  6]"
6200,342,1.0,8,2,283.419597864151,46.147472858428955,0,396800,2378137,18262879,"[ 2  2  0  5  1  0  0  1  3  5  2  0  0  2  0  0  6  8  5  7  2  3  2  3
  3  2  8  1  1  6  0  0  3  4  0  4  4 10  7  3  6  4  5 13  9  1  0  1
  4  3 15  0  3 16  0 16 17  0  1  2  4 23 14  0 18 19  0 16  2  2  3 20
  4 17 22  9 17 24  6]"
6300,342,1.0,8,2,288.06303000450134,46.43429517745972,0,403200,2415930,18560330,"[ 2  2  0  2  2  2  0  1  3  3  3  0  0  2  0  0  6  8  3  7  5  4  2  3
  3  2  6  4  5  7  0  0  3  5 12 12  5  3  9  3  6  4  2 10  1  2 17 17
  5 14 12  5 17  9  2  9 15  0  1  2  4 23 14  5  2 21  4 14 15  3  0 15
  0 17  0  9 17 24  6]"
6400,342,1.0,8,2,292.75860023498535,46.95567607879639,0,409600,2453662,18857175,"[ 2  2  0  2  0  1  0  1  3  2  2  1  0  2  0  0  6  8  0  0  8  2  4  3
  5  1  6  5  3  6  0  0  3  4  0  5  4  3 12  3  6  4  2  9 11  0  3 10
  5 18 18  4 18  1  1 17 16  0  1  2  4 23 14  5  2  3  3 22 16  2  0  1
  3 15 22  9 17 24  6]"
6500,342,1.0,8,2,297.29954266548157,45.40940046310425,0,416000,2491056,19151096,"[ 2  2  0  2  0  2  0  1  3  4  0  0  0  2  0  0  6  8  1  3  2  2  7  0
  1  2  3  5  4  0  0  0  3  4  7 13  2  6 13  3  6  4  1  0  0  5  1  1
  1 12 18  5 18 16  2  0 13  0  1  2  4 23 14  5 16 16  5 17 22  3 23  2
  3 14 19  9 17 24  6]"
6600,342,1.0,8,2,301.78626132011414,44.86715793609619,0,422400,2528319,19444827,"[ 2  2  0  3  1  2  0  1  3  4  2  1  0  2  0  0  6  8  2  2  2  3  0  5
  5  7  5  1  6  7  0  0  3  4  7  9  0  1 10  3  6  4  1  7 13  5 14 11
  5 17 18  5 13 18  1  0  1  0  1  2  4 23 14  5 19  1  1  0 22  2  3  0
  4 21 19  9 17 24  6]"
6700,342,1.0,8,2,306.3684380054474,45.82174062728882,0,428800,2566700,19747349,"[ 2  2  0  3  3  1  0  1  3  0  1  1  0  2  0  0  6  8  4  2  5  5  5  6
  0  5  5  1  5  8  0  0  3  3  8  4  1 11  5  3  6  4  3  8  6  1 11 10
  0 13  3  1  2 16  3  9 18  0  1  2  4 23 14  0  0  0  4 15  3  5  0 15
  2 14  3  9 17 24  6]"
6800,342,1.0,8,2,310.8659327030182,44.9749231338501,0,435200,2604069,20041681,"[ 2  2  0  3  0  2  0  1  3  0  2  3  0  2  0  0  6  8  0  6  0  5  1  6
  1  2  5  3  1  0  0  0  3  3 12  6  3  8  4  3  6  4  3  6  8  1 14 14
  4  0 15  4 13 10  3 10 12  0  1  2  4 23 14  2 15 14  3 22  1  0 22 18
  1 23 18  9 17 24  6]"
6900,342,1.0,8,2,315.38371658325195,45.17780780792236,0,441600,2641695,20337673,"[ 4  2  0  2  0  2  0  1  3  5  3  2  0  2  0  0  6  8  2  8  0  0  7  8
  1  5  8  0  7  2  0  0  3  4  3  8  2  7  7  3  6  5  3  0  2  1 16 18
  5 15 11  3 16 11  0 10  0  0  1  2  4 23 14  3 20 19  1 23  3  2 20 21
  1  3 20  9 17 24  6]"
7000,342,1.0,8,2,320.0353021621704,46.51582717895508,0,448000,2679918,20637701,"[ 2  0  2  0  0  2  0  1  3  0  1  3  1  3  2  0  6  5  1  1  3  3  4  6
  5  0  2  4  7  6  0  0  3  5  0  8  4  0  2  3 10 13  2 12  6  0 10 15
  5  1  0  2 18 18  1 14  2  0  1  2  4 23 14  2 22 22  5 23  3  2 17  0
  0  2 18  9 11 24  6]"
7100,342,1.0,8,2,324.7602710723877,47.24966287612915,0,454400,2718496,20941974,"[ 2  0  2  0  0  2  0  1  3  3  0  2  4  2  2  0  6  5  2  0  8  3  4  6
  5  1  2  0  7  6  0  0  3  1  4 13  1  7 10  0  0  5  2  7  1  3  9 15
  3 14 11  5 12 17  1  9  3  0  1  2  4 23 14  5 23 15  3 14 18  3 19 16
  4  0 20  9 11 24  6]"
7200,342,1.0,8,2,329.4638135433197,47.03540086746216,0,460800,2757070,21245478,"[ 2  0  2  0  0  2  0  1  3  1  3  2  3  1  3  0  6  5  4  4  2  3  4  6
  3  1  6  4  1  1  0  0  3  2  0  8  4 10  7  0  7  3  2  8 11  5 15  1
  5 18 17  2 14 17  4  3  3  0  1  2  4 23 14  1 22 20  5 15 23  3  1 16
  4 19 15  9 11 24  6]"
7300,342,1.0,8,2,334.1404404640198,46.76624536514282,0,467200,2796970,21559482,"[ 2  0  2  0  0  2  0  1  3  1  2  0  1  2  0  0  6  5  5  2  3  3  3  6
  4  1  3  3  6  4  0  0  3  5 10  6  4  2  6  0  0  3  3  7  4  3 11 18
  1 15 10  1 16  9  0  0  0  0  1  2  4 23 14  3 16 21  3  3  2  4 22  0
  0 23  0  9 13 24  6]"
7400,342,1.0,8,2,338.6792371273041,45.387940406799316,0,473600,2834826,21858100,"[ 2  0  2  0  0  2  0  1  3  1  1  3  2  0  0  0  6  5  2  4  7  1  6  7
  0  7  0  3  6  4  0  0  3  4  6 12  3 10 10  5  6 12  3  8  0  0 17  0
  0  3 12  1  9  0  4 11  1  0  1  2  4 23 14  1  1 15  0 15 17  1 22 15
  5 23  3  9 13 24  6]"
7500,342,1.0,8,2,343.2673456668854,45.88105916976929,0,480000,2873477,22162051,"[ 2  0  2  0  0  2  0  1  3  3  0  2  3  1  1  0  6  5  2  8  4  4  5  1
  2  6  5  3  6  4  0  0  3  1  2  5  5 10  7  2  4 12  0  4  0  0 13  3
  0 16 12  2  2 17  1 11  9  0  1  2  4 23 14  2  1  2  0 20 17  2 15  3
  3  1 17  9 13 24  6]"
7600,342,1.0,8,2,347.86129689216614,45.939486026763916,0,486400,2912029,22465876,"[ 2  0  2  0  0  2  0  1  3  5  1  1  2  1  3  0  6  5  5  5  6  0  6  3
  1  5  7  3  6  4  0  0  3  2 10  0  1  2  2  0  2  7  3 10  0  0  2 13
  3 14 11  5  9 12  1 12 18  0  1  2  4 23 14  5  0 20  4 19  0  4  0 20
  2  2 19  9 13 24  6]"
7700,342,1.0,8,2,352.47744512557983,46.16144895553589,0,492800,2951157,22773423,"[ 2  0  2  0  0  2  0  1  3  3  3  3  1  2  3  0  6  5  5  6  3  1  2  3
  1  0  8  3  6  4  0  0  3  1  6  9  3  5 10  3  5 10  2 10  1  4 16 10
  3 11 12  5 12  3  5 11  0  0  1  2  4 23 14  0  2 17  0 14 16  1  1  1
  2 15  0  9 13 24  6]"
7800,342,1.0,8,2,357.0199339389801,45.42485952377319,0,499200,2989249,23072692,"[ 2  0  2  0  0  2  0  1  3  2  0  1  2  3  3  0  6  5  1  5  3  3  3  0
  0  2  8  3  2  0  0  0  3  2  5  7  2 10 12  0  5 11  3  6  4  0 11 12
  3  1 14  1  9 17  3 18 16  0  1  2  4 23 14  2 19  2  2  3 22  2 19  1
  5 22 20  9 18 24  6]"
7900,342,1.0,8,2,361.7634844779968,47.435479164123535,0,505600,3027790,23375733,"[ 2  0  2  0  0  2  0  1  3  3  1  2  1  1  0  0  6  5  1  5  4  1  5  2
  1  2  5  2  4  1  0  0  3  1  3  4  0  3 12  2  7  1  3  6  4  1  9  9
  2 17  3  2  2  3  5 17 12  0  1  2  4 23 14  1 18 20  3  1 19  2 16 20
  0 19 16  9 18 24  6]"
8000,342,1.0,8,2,366.3444929122925,45.81006050109863,0,512000,3066414,23679550,"[ 2  0  2  0  0  2  0  1  3  3  3  3  4  2  2  0  6  5  5  1  0  2  5  5
  3  3  2  0  5  0  0  0  3  2  9 12  2  5 13  5  8 12  3  6  4  4 15 14
  5 11  2  5 15  3  2 18 10  0  1  2  4 23 14  1 14  1  3 20  3  1  3 16
  3 21 18  9 18 24  6]"
8100,342,1.0,8,2,370.70605063438416,43.61555099487305,0,518400,3102078,23960262,"[ 4  0  3  0  0  2  0  1  3  0  0  3  2  0  0  0  6  5  2  6  1  2  0  2
  1  3  6  2  0  0  0  0  3  2 12  7  3  0 11  5  4  6  3  6 11  5  9 14
  2 12 18  4 11 16  0 17 13  0  1  2  4 23 14  4 16 16  4 21 17  0 22  1
  4  1 21  9 18 24  6]"
8200,342,1.0,8,2,375.0419285297394,43.358755111694336,0,524800,3137439,24237921,"[ 2  1  2  2  0  2  0  1  3  0  0  2  5  2  1  0  6  7  5  2  8  2  0  2
  1  1  1  0  3  7  0  0  3  4  6 12  5 10  5  1  7  3  3  6 11  1  2 11
  1 10  9  0 16  9  2  2 12  0  1  2  4 23 14  1 18 17  5  1  1  1 22 22
  2 18 22  9 18 24  6]"
8300,342,1.0,8,2,379.3766391277313,43.347084522247314,0,531200,3172879,24516941,"[ 0  3  2  5  3  2  0  1  3  0  0  2  2  0  1  0  6  7  5  2  5  2  0  2
  2  0  8  2  6  0  0  0  3  5  6  2  1  0 13  5 10  5  3  6 11  5 13 11
  2 10  0  0 12 10  1 17  2  0  1  2  4 23 14  5 22 22  0  0  1  5 15 23
  2 19 23  9 18 24  6]"
8400,342,1.0,8,2,383.6875538825989,43.109118938446045,0,537600,3207856,24792536,"[ 3  1  1  3  2  1  0  1  3  0  0  2  2  2  1  0  6  7  4  6  8  2  0  2
  3  0  7  0  6  2  0  0  3  3  2  0  3  8  4  3  9 12  3  6 11  2  3 17
  4 17 13  2 13 11  3 15 17  0  1  2  4 23 14  1 17  0  4  3 17  5  2 18
  3 17 20  9 18 24  6]"
8500,342,1.0,8,2,388.0676255226135,43.80069017410278,0,544000,3243490,25073045,"[ 4  3  0  2  3  1  0  1  3  0  0  2  1  1  1  0  6  7  5  1  0  2  0  2
  5  6  1  2  8  8  0  0  3  5 13  7  5  0  7  4  9  8  3  6 11  5 17  2
  3 14 17  1 10 14  2 15  0  0  1  2  4 23 14  0  3 23  1 16 17  5 20 23
  1 21 21  9 18 24  6]"
8600,342,1.0,8,2,392.420371055603,43.52742910385132,0,550400,3279180,25353239,"[ 4  3  3  1  0  1  0  1  3  0  0  2  1  1  0  0  6  7  4  1  8  2  0  2
  3  6  0  0  5  0  0  0  3  0  1  7  3  2 13  0  1  7  3  6 11  1 18 17
  2 15 14  5 13  3  1 15 16  0  1  2  4 23 14  0  0 23  4 16 15  4 22 21
  0  3  2  9 18 24  6]"
8700,342,1.0,8,2,396.81660985946655,43.96236181259155,0,556800,3315295,25637270,"[ 0  0  2  5  2  3  0  1  3  0  0  2  2  0  2  0  6  7  1  0  3  2  0  2
  2  7  4  4  3  8  0  0  3  0  1 10  1 13  5  0 12  4  3  6 11  4 16  3
  4  0 18  5  2 18  3 15 18  0  1  2  4 23 14  2  2 19  4  2 14  1 16 17
  1 16 19  9 18 24  6]"
8800,342,1.0,8,2,401.15745759010315,43.40845584869385,0,563200,3350811,25916716,"[ 0  0  2  3  1  0  0  1  3  3  0  2  1  0  3  0  6  4  2  6  2  2  0  2
  5  0  2  4  8  2  0  0  3  4  6  1  2 13  7  2  4 11  3  6 11  5  0 13
  3  2 16  2 12 18  3 13 12  0  1  2  4 23 14  5 17  1  0 17 22  2 17 18
  3  2 15  9 18 24  6]"
8900,342,1.0,8,2,405.54516077041626,43.8770055770874,0,569600,3386599,26198289,"[ 0  0  2  2  3  1  0  1  3  2  0  1  1  0  3  0  6  4  3  0  0  2  0  2
  2  5  7  5  1  5  0  0  3  1 12 12  5 13  1  4  4  6  3  6 11  1 13  0
  4 17  3  1 16 12  5  3 15  0  1  2  4 23 14  1 21 14  0 20 21  0 17 23
  0 23 15  9 18 24  6]"
9000,342,1.0,8,2,409.9201545715332,43.74991416931152,0,576000,3422514,26480681,"[ 0  0  2  0  1  3  0  1  3  4  2  1  1  1  3  0  6  4  3  5  1  2  0  2
  5  2  7  4  3  8  0  0  3  1  8  7  0  8  1  2  4  4  3  6 11  0  1 16
  1  1 18  0  2  3  4  3 18  0  1  2  4 23 14  3  2 21  2 14 19  0  3 18
  4 21 21  9 18 24  6]"
9100,342,1.0,8,2,414.2636282444,43.43471050262451,0,582400,3458095,26760044,"[ 0  0  2  0  1  2  0  1  3  1  3  1  4  1  1  0  6  4  3  5  1  2  0  2
  0  1  4  3  7  3  0  0  3  3  4  8  0  6  2  3  2 10  3  6 11  0 11 10
  5 14 11  3 18  0  3  1  3  0  1  2  4 23 14  4  0 22  0 23 19  2 22  0
  0 22  3  9 18 24  6]"
9200,342,1.0,8,2,418.58092069625854,43.172900676727295,0,588800,3493457,27037350,"[ 0  0  2  2  2  1  0  1  3  4  0  1  0  1  3  0  6  4  4  4  3  2  0  2
  5  4  4  3  6  0  0  0  3  4  7  0  2  8  5  0  0  0  3  6 11  1 12 12
  1 14  3  0  1  3  2 10  3  0  1  2  4 23 14  0 18 14  4 14  1  4  2 16
  3 21 19  9 18 24  6]"
9300,342,1.0,8,2,423.06259870529175,44.81675148010254,0,595200,3529553,27321314,"[ 0  0  2  5  2  1  0  1  3  2  2  1  5  3  3  0  6  4  3  0  4  2  0  2
  3  8  3  1  3  2  0  0  3  5 13  2  4  9 11  4  9  6  3  6 11  3 14 10
  4 15  1  2 10 11  3 10 10  0  1  2  4 23 14  3  2 21  4 21 15  1 21 17
  1 19 16  9 18 24  6]"
9400,342,1.0,8,2,427.49241852760315,44.29817199707031,0,601600,3564469,27596434,"[ 0  0  2  1  1  3  0  1  3  2  2  2  2  2  1  0  6  4  5  1  4  2  0  2
  5  7  0  4  5  2  0  0  3  2  7  5  4  0  4  4  1 13  3  6 11  5  9 10
  0 12 13  5  2 12  3 14 18  0  1  2  4 23 14  4 20 19  4  1 19  2  0 17
  3 15 21  9 18 24  6]"
9500,342,1.0,8,2,431.8251197338104,43.32698583602905,0,608000,3599898,27875487,"[ 0  0  2  1  2  3  0  1  3  5  1  1  3  0  3  0  6  4  5  1  4  2  0  2
  1  1  3  3  7  0  0  0  3  3 12 10  0 10  0  2  7 13  3  6 11  1 14 11
  0 18 15  0 16 13  2 14  9  0  1  2  4 23 14  3 14 16  2 17 14  4 17  2
  4 18 14  9 18 24  6]"
9600,342,1.0,8,2,436.2485842704773,44.23462152481079,0,614400,3636048,28160483,"[ 0  0  2  2  2  3  0  1  3  2  1  1  5  0  3  0  6  4  5  5  0  2  0  2
  3  2  3  4  7  8  0  0  3  3  2 13  4 13  8  5 13  4  3  6 11  1 10 13
  1  9 15  4 14 12  4  9  9  0  1  2  4 23 14  5  2 16  2 19 19  3 22  2
  4  3 18  9 18 24  6]"
9700,342,1.0,8,2,440.5857970714569,43.37210178375244,0,620800,3671450,28439956,"[ 0  0  2  4  2  3  0  1  3  3  0  0  0  0  3  0  6  4  4  5  7  2  0  2
  2  8  6  0  0  1  0  0  3  0  6 13  2  3 11  5  6  4  3  6 11  0 14 12
  4 17 12  5  0  1  3  1 13  0  1  2  4 23 14  2 19 15  5 15  2  0 21 20
  3 21 14  9 18 24  6]"
9800,342,1.0,8,2,444.93917894363403,43.53379249572754,0,627200,3707081,28720655,"[ 0  0  2  3  2  2  0  1  3  1  2  0  5  3  3  0  6  4  5  5  6  2  0  2
  2  5  3  3  5  2  0  0  3  2 10 10  1  2  6  0  1  9  3  6 11  2 17  0
  5 11 10  5  3 15  4  9  2  0  1  2  4 23 14  5 18 15  3 20 22  3 16 23
  1 19 16  9 18 24  6]"
9900,342,1.0,8,2,449.3386242389679,43.99442672729492,0,633600,3743329,29005587,"[ 0  0  2  0  1  2  0  1  3  1  2  3  2  3  3  0  6  4  3  5  8  2  0  2
  1  1  6  4  6  6  0  0  3  0 10  5  1  0 12  5 11  9  3  6 11  2 13 12
  5 16  0  5 14 13  0 15  2  0  1  2  4 23 14  2 18  2  2 21 18  4 23 21
  4 14  2  9 18 24  6]"
10000,342,1.0,8,2,453.778888463974,44.40258026123047,0,640000,3779349,29289732,"[ 0  0  2  5  1  3  0  1  3  2  0  1  2  3  3  0  6  4  4  2  8  2  0  2
  5  6  6  4  2  3  0  0  3  5 13  5  1 13  5  5 12 13  3  6 11  4  3 13
  1 12 13  1 14 15  2  0  1  0  1  2  4 23 14  1 15 19  1 22 14  3 15 19
  0 19  1  9 18 24  6]"
10100,342,1.0,8,2,458.25070095062256,44.718101024627686,0,646400,3815676,29576110,"[ 0  0  2  4  1  0  0  1  3  5  0  2  1  0  3  0  6  4  5  4  4  2  0  2
  1  1  1  0  1  3  0  0  3  0 12  0  1  1  2  5  7 12  3  6 11  4 10 15
  0 16 16  0  0 18  5 10 17  0  1  2  4 23 14  0  3 20  3 21 20  1 19  0
  2 16 14  9 18 24  6]"
10200,342,1.0,8,2,462.603120803833,43.52417469024658,0,652800,3850632,29851466,"[ 0  0  2  2  3  3  0  1  3  3  2  0  4  2  0  0  6  4  0  5  7  2  0  2
  5  5  2  2  5  2  0  0  3  1 13 10  5  6  2  1  3  4  3  6 11  4 11 13
  2 14 12  3 15 14  1  1  3  0  1  2  4 23 14  5 14 21  2 16  2  1  2  1
  4 20 15  9 18 24  6]"
10300,342,1.0,8,2,466.99364948272705,43.90526294708252,0,659200,3885845,30129076,"[ 0  0  2  2  0  2  0  1  3  0  2  3  4  0  2  0  6  4  2  4  2  2  0  2
  5  0  2  4  2  2  0  0  3  3 13  5  0  5 12  1  2  1  3  6 11  4 14 15
  2 18 14  3 13  3  2  0 13  0  1  2  4 23 14  2 19 23  4 22 14  5 19 20
  3 21 19  9 18 24  6]"
10400,342,1.0,8,2,471.4580502510071,44.64398145675659,0,665600,3922682,30419365,"[ 5  0  2  2  3  3  0  1  3  4  2  3  0  0  2  0  6  8  5  3  6  2  0  2
  5  5  8  0  5  6  0  0  3  3  9  7  4  5 11  2  8 12  3  6 11  4 15 10
  2 17 16  3 16 16  2 17 14  0  1  2  4 23 14  1 16 14  3 21 14  1  3  3
  2 17 19  9 18 24  6]"
10500,342,1.0,8,2,475.87525391578674,44.17201519012451,0,672000,3959164,30706359,"[ 1  0  0  2  2  0  0  1  3  2  3  3  0  0  2  0  6  8  3  5  6  2  5  1
  1  7  7  4  0  7  0  0  3  4  1  7  1 13  6  1  9  8  3  1  8  2 13 16
  4 16 17  2  2 10  0 17 15  0  1  2  4 23 14  4  1 23  5 19 15  4  3  1
  5 20 16  9 10 24  6]"
10600,342,1.0,8,2,480.42730236053467,45.52046060562134,0,678400,3997217,31006677,"[ 0  1  0  2  2  0  0  1  3  4  1  1  0  0  2  0  6  8  3  5  6  2  8  8
  0  7  0  4  7  8  0  0  3  2 12  7  4  7  4  4 12  4  0 12  8  0  0 16
  3  3  0  2 18  9  4  1 10  0  1  2  4 23 14  1 18  2  3 17 18  1  0 17
  2  0 22  9 10 24  6]"
10700,342,1.0,8,2,485.1543860435486,47.27081060409546,0,684800,4035912,31311779,"[ 2  2  3  2  2  0  0  1  3  3  0  1  0  0  2  0  6  8  3  5  6  1  8  8
  5  2  5  5  5  7  0  0  3  1 13 10  3  4  4  4  0 10  1  9  3  4  9 15
  5 10 18  3  3 10  0 11  2  0  1  2  4 23 14  3 15 22  0  2 20  5 21 16
  3 14 16  9 10 24  6]"
10800,342,1.0,8,2,489.89084792137146,47.36459732055664,0,691200,4075441,31623330,"[ 3  2  0  2  2  0  0  1  3  2  0  2  0  0  2  0  6  8  3  5  6  3  4  1
  2  2  0  5  8  7  0  0  3  3  8  2  5  5  7  4  3  4  3  3  7  2  2 13
  5 13 15  2 12 11  0 16 14  0  1  2  4 23 14  2 15  3  1 15  0  1 20 16
  1 19  2  9 10 24  6]"
10900,342,1.0,8,2,494.4603946208954,45.69544315338135,0,697600,4113754,31925411,"[ 5  2  1  1  0  3  0  1  3  2  0  2  0  0  2  0  6  8  3  7  6  3  7  6
  4  6  4  2  2  7  0  0  3  4  0 11  3 12 13  0 12  0  2 12  9  3 14 12
  4 12 13  1  3 17  1 16 14  0  1  2  4 23 14  1 19  0  5 22 14  3  2  3
  2 15  0  9 10 24  6]"
11000,342,1.0,8,2,499.17090678215027,47.10509777069092,0,704000,4153566,32239691,"[ 3  1  1  1  0  3  0  1  3  2  0  2  0  0  2  0  6  8  3  7  6  1  0  8
  4  8  4  2  7  8  0  0  3  4  5  0  3 10  2  3  4  7  1 12  3  5 15 15
  2 17  2  3 15 17  2  1 18  0  1  2  4 23 14  5 21  0  2 16 20  4 21 16
  3  0 16  9 10 24  6]"
11100,342,1.0,8,2,503.75370955467224,45.828001499176025,0,710400,4191332,32537090,"[ 0  3  3  2  3  3  0  1  3  2  0  2  0  0  2  0  6  8  3  7  6  4  1  7
  3  3  7  1  2  2  0  0  3  1  5 11  0  7  9  4  7  0  1 11  7  5 12 15
  4  0  3  2 15  3  5 16 17  0  1  2  4 23 14  3  0 16  2 18  0  3 16 23
  0 20 17  9 10 24  6]"
11200,342,1.0,8,2,508.41091871261597,46.572065353393555,0,716800,4229847,32841501,"[ 4  1  1  2  0  1  0  1  3  2  0  2  0  0  2  0  6  8  3  7  6  3  5  8
  5  5  3  0  6  0  0  0  3  0  9 11  3  2  2  2  7  7  3 11  8  5 15 15
  5 15 10  0 18 15  0 15  1  0  1  2  4 23 14  5 21 16  5 15  2  3  3 18
  1 19 19  9 10 24  6]"
11300,342,1.0,8,2,513.177473783493,47.66552209854126,0,723200,4268884,33148567,"[ 5  2  3  0  2  1  0  1  3  2  0  2  0  0  2  0  6  8  3  7  6  2  0  8
  3  4  5  3  2  4  0  0  3  0  7  7  0 10  0  3  9  6  5  3  5  5 18 18
  5  9 13  0  9 12  5  0  0  0  1  2  4 23 14  2 20 22  0  3  3  5 17 23
  5  3 16  9 10 24  6]"
11400,342,1.0,8,2,517.8271763324738,46.49700164794922,0,729600,4307633,33453672,"[ 1  0  3  2  1  1  0  1  3  2  0  2  0  0  2  0  6  8  3  7  6  4  1  2
  1  6  2  1  6  8  0  0  3  1 10  0  4 13  4  5  9  6  1  7  4  1 17 17
  4  3 18  4 12 10  2 16 12  0  1  2  4 23 14  0 21 20  0 23 17  3 14 23
  1 15 21  9 10 24  6]"
11500,342,1.0,8,2,522.4793217182159,46.521430015563965,0,736000,4347096,33764853,"[ 4  0  0  2  1  3  0  1  3  2  0  2  0  0  2  0  6  8  3  7  6  3  4  7
  1  5  0  1  5  0  0  0  3  5  8  0  1 13 13  4  9 13  5  0  3  1  1 18
  4 15 10  1 15 10  2 15  3  0  1  2  4 23 14  1  1 20  3 21  3  2 19 15
  1  1 14  9 10 24  6]"
11600,342,1.0,8,2,527.0449955463409,45.6567120552063,0,742400,4385362,34066927,"[ 3  3  1  4  0  0  0  1  3  2  0  2  0  0  2  0  6  8  3  7  6  2  4  3
  5  3  1  2  6  3  0  0  3  4 11  3  3  6 13  5 10  6  4  2  3  3 10 15
  3 15  2  2  2 14  5  1  3  0  1  2  4 23 14  3 16 17  3 16 20  1 14 22
  2 19 23  9 10 24  6]"
11700,342,1.0,8,2,531.7990770339966,47.54077672958374,0,748800,4423995,34371555,"[ 0  3  0  1  2  2  0  1  3  2  0  2  0  0  2  0  6  8  3  7  6  4  8  3
  0  6  1  1  0  3  0  0  3  0  9  0  2  5 13  2  8  2  5  2  4  5 14 18
  1 18 13  4 10 15  5 14 14  0  1  2  4 23 14  5  3  1  5 15 16  0  3 16
  4 17  1  9 10 24  6]"
11800,342,1.0,8,2,536.5825130939484,47.83433437347412,0,755200,4462625,34674829,"[ 0  2  0  3  2  0  0  1  3  2  0  2  0  0  2  0  6  8  3  7  6  1  0  6
  5  1  6  5  3  1  0  0  3  2  7  0  2  3  9  4  8  2  0  8 10  2 15 11
  4  1  0  4  0 13  2 16 15  0  1  2  4 23 14  1 16  2  2 15 16  0  3 23
  2 23  2  9 10 24  6]"
11900,342,1.0,8,2,541.3083925247192,47.25876808166504,0,761600,4502313,34986737,"[ 0  2  0  2  1  2  0  1  3  2  0  2  0  0  3  0  6  4  3  7  6  3  4  6
  5  7  4  0  3  4  0  0  3  2  4 12  0  5 13  1 13 13  0 13  6  2 10 17
  2 18  2  4  1 18  1 16 16  0  1  2  4 23 14  1  0 16  0  0  1  1 19  2
  0 18  2  9 10 24  6]"
12000,342,1.0,8,2,545.9610002040863,46.526052951812744,0,768000,4541054,35292085,"[ 0  2  0  4  0  3  0  1  3  2  0  2  5  0  0  0  6  4  3  7  6  0  4  8
  1  2  3  1  4  6  0  0  3  2  4  4  5  6  8  0  3  7  5  0 12  4 16 16
  4 11  3  1  9 14  5 16 18  0  1  2  4 23 14  4 18 19  3 17  2  3 22 23
  2 21  3  9 10 24  6]"
12100,342,1.0,8,2,550.5988471508026,46.37844800949097,0,774400,4580401,35602124,"[ 0  2  0  3  3  3  0  1  3  2  0  2  3  0  1  0  6  4  3  7  6  4  8  3
  4  2  2  0  3  1  0  0  3  0  8 10  1  2  3  5 12  8  1  9  9  4 15 10
  0 12  0  4 11  9  3  0 10  0  1  2  4 23 14  5  0 15  1 23  0  3 23 18
  3  3  3  9 10 24  6]"
12200,342,1.0,8,2,555.4200613498688,48.21211814880371,0,780800,4620236,35914947,"[ 0  2  0  5  0  0  0  1  3  2  0  2  2  1  1  0  6  4  3  7  6  5  8  4
  1  6  7  5  6  5  0  0  3  3  9  7  5  9 12  1  5 11  2  6  6  2 15 13
  5 18  3  3 11  9  4 12  9  0  1  2  4 23 14  1 15 14  1 16 22  4 18 15
  1  0 20  9 10 24  6]"
12300,342,1.0,8,2,560.1267330646515,47.06669092178345,0,787200,4658896,36219621,"[ 0  2  0  1  0  2  0  1  3  2  0  2  3  1  0  0  6  4  3  7  6  1  2  0
  1  6  5  1  7  1  0  0  3  3  0  7  5 11  7  5  7  8  4  9  8  3 15  2
  1  9  2  3 12 13  4 15 17  0  1  2  4 23 14  2 21 14  3  2 17  0  0 17
  1 18 23  9 10 24  6]"
12400,342,1.0,8,2,564.7425758838654,46.15840196609497,0,793600,4697707,36525670,"[ 4  1  3  3  2  2  0  1  3  2  0  2  0  2  0  0  6  8  3  7  6  5  8  7
  4  4  8  2  0  3  0  0  3  4  2  9  3  4 13  5  2  4  4  7 12  5 11  0
  0 10 16  0 12  0  4  0 17  0  1  2  4 23 14  1 22  3  2 15 18  5 20  3
  2  2 19  9 10 24  6]"
12500,342,1.0,8,2,569.3557193279266,46.13141059875488,0,800000,4736792,36832983,"[ 3  2  2  2  0  2  0  1  3  4  0  1  0  2  0  0  6  8  3  5  6  4  3  1
  3  2  2  3  6  3  0  0  3  4  8  8  5 12  1  4  9  3  4  9  0  3  9 17
  5 13 13  4 16 12  4 10 10  0  1  2  4 23 14  4 14 22  4 19 18  3  3 14
  2 18 14  9 10 24  6]"
12600,342,1.0,8,2,573.9603888988495,46.046669483184814,0,806400,4775516,37137742,"[ 5  2  2  2  0  2  0  1  3  4  1  2  0  2  0  0  6  8  3  5  6  4  2  8
  2  0  4  1  6  5  0  0  3  2 12  2  2  0  4  4 10 11  3  2 11  5 18  9
  3 12  3  3  3 12  4  9  1  0  1  2  4 23 14  4 14 16  0 18 18  1  3 21
  5 23 14  9 10 24  6]"
12700,342,1.0,8,2,578.5563056468964,45.9591269493103,0,812800,4814050,37441040,"[ 5  3  0  2  0  2  0  1  3  3  2  1  0  2  0  0  6  8  3  5  6  1  2  4
  3  5  6  1  0  7  0  0  3  4 13  3  1  1  8  5 10  8  2  9 12  3  0  0
  4 13 17  5 15 10  3  0 16  0  1  2  4 23 14  2 15  1  3  2 19  1  2  1
  4 22 15  9 12 24  6]"
12800,342,1.0,8,2,583.2256336212158,46.69325113296509,0,819200,4852455,37743329,"[ 5  1  2  2  0  2  0  1  3  0  1  3  0  2  0  0  6  8  3  6  8  4  6  7
  3  5  6  2  0  2  0  0  3  0 13 13  2  7  8  4  4  8  2  0  5  5 13  0
  1 15 10  1 12  3  4  0  1  0  1  2  4 23 14  4 15 17  3 17 17  3  0 19
  3  2  0  9 12 24  6]"
12900,342,1.0,8,2,587.8038001060486,45.78164100646973,0,825600,4890944,38046011,"[ 5  3  1  2  0  2  0  1  3  2  2  0  0  2  0  0  6  8  1  3  3  1  3  0
  3  5  6  4  8  5  0  0  3  4  4  2  0 12  2  0  7  5  5 10  0  0  1 12
  3  9 14  5 18 10  4  0 11  0  1  2  4 23 14  0 23 16  0 15  3  4 23 21
  1  3  0  9 12 24  6]"
13000,342,1.0,8,2,592.4542989730835,46.50496244430542,0,832000,4929635,38350504,"[ 1  1  3  2  0  2  0  1  3  3  2  3  0  2  0  0  6  8  3  1  6  5  7  4
  3  5  6  0  4  7  0  0  3  4  4  5  4  9  4  2  0  0  4 11  4  4 13 15
  4 16 13  2  3 11  4  1  1  0  1  2  4 23 14  2  3 16  0 18 16  4  3 23
  1 22 19  9 12 24  6]"
13100,342,1.0,8,2,597.1369111537933,46.82609796524048,0,838400,4968529,38657296,"[ 5  0  1  2  0  2  0  1  3  0  3  0  0  2  0  0  6  8  3  5  5  2  3  2
  3  5  6  4  4  2  0  0  3  0  1  1  5  7  5  4  6  8  0  4 13  5 18 11
  0  9 10  4  3 16  1  1 18  0  1  2  4 23 14  5 21 16  4 22 20  3 19 17
  0  1 18  9 12 24  6]"
13200,342,1.0,8,2,601.739785194397,46.028714179992676,0,844800,5007346,38962768,"[ 2  1  0  0  0  2  0  1  3  2  2  0  5  3  0  0  6  5  0  0  6  3  5  1
  3  7  6  0  6  5  0  0  3  5  2  5  4  2  7  2  5  0  5  6  9  1  2 17
  0 14  9  0 12  3  2 13 15  0  1  2  4 23 14  0 21 21  1  1 23  3 16 21
  4 22 18  9 12 24  6]"
13300,342,1.0,8,2,606.4339830875397,46.9419527053833,0,851200,5046800,39272527,"[ 1  3  2  0  0  2  0  1  3  2  2  0  5  1  0  1  1  0  0  1  0  0  8  6
  3  7  6  0  6  5  0  0  3  5  0  6  3  4  0  2 13 11  4 10  0  2 10 15
  0 18 14  1  9 17  0 13  3  0  1  2  4 23 14  2 15  2  0 19 20  4 22  3
  0  3 18 13 12 24  6]"
13400,342,1.0,8,2,611.1888437271118,47.548580169677734,0,857600,5085687,39578890,"[ 2  0  0  0  0  2  0  1  3  2  2  0  4  2  0  5  8  6  4  1  2  0  3  5
  3  7  6  0  6  5  0  0  3  2  5  4  3 10  5  4 13 12  5  9  0  3 15  1
  5  3 15  2 11  1  5 13  0  0  1  2  4 23 14  2 16 19  3 20 18  5 19 18
  1 20 23 13 12 24  6]"
13500,342,1.0,8,2,615.7176246643066,45.28778314590454,0,864000,5123445,39876295,"[ 4  3  0  0  0  2  0  1  3  2  2  0  1  1  0  5  1  2  3  7  2  3  3  4
  3  7  6  0  6  5  0  0  3  1 12  3  2 10  6  3  1 13  3  8 10  5 14  9
  3  9  9  1  1 10  3  0 13  0  1  2  4 23 14  4 19  3  2 21 19  2 19 22
  4 20 14 13 12 24  6]"
13600,342,1.0,8,2,620.3087170124054,45.91089963912964,0,870400,5162009,40180071,"[ 4  2  1  0  0  2  0  1  3  2  2  0  1  3  2  5  2  2  3  4  2  0  6  3
  3  7  6  0  6  5  0  0  3  2 10 10  5  4  6  3  4 13  1  3  5  4 12  0
  5 15 12  3 15 12  4  3 18  0  1  2  4 23 14  1  0 15  2 18 18  2  3 20
  0  3 22 13 12 24  6]"
13700,342,1.0,8,2,624.9546415805817,46.459221839904785,0,876800,5201310,40489426,"[ 4  0  3  0  0  2  0  1  3  2  2  0  3  2  0  4  8  4  0  4  0  4  3  7
  3  7  6  0  6  5  0  0  3  5  1  0  1 10  2  3  0 10  1  9  0  5 10 15
  5 10 12  1 15  2  4 10 10  0  1  2  4 23 14  5 23 22  0 23 20  1  2 16
  5 23 23 13 12 24  6]"
13800,342,1.0,8,2,629.7026674747467,47.48023509979248,0,883200,5240244,40795956,"[ 1  1  1  0  0  2  0  1  3  2  2  0  3  2  2  3  6  1  5  4  2  5  1  0
  3  7  6  0  6  5  0  0  3  2  4 13  1  7  5  3 11  4  4  9  1  4  2 17
  1 17 13  4 10 18  2 16 10  0  1  2  4 23 14  0 23 18  0 16 20  2 20  0
  3 21 16 13 12 24  6]"
13900,342,1.0,8,2,634.2645299434662,45.61859846115112,0,889600,5278569,41098049,"[ 3  0  0  0  0  2  0  1  3  2  2  0  5  0  1  2  0  1  5  7  2  4  0  6
  3  7  6  0  6  5  0  0  3  3 10  8  4 10  1  3  5  9  4  8  2  3 11 14
  1  9 14  3 14  1  3  3 11  0  1  2  4 23 14  3 18  3  1 16  1  0 18  0
  2 21 18 13 12 24  6]"
14000,342,1.0,8,2,638.8001642227173,45.35632133483887,0,896000,5316457,41396350,"[ 3  0  3  0  0  2  0  1  3  2  2  0  5  0  0  2  1  1  5  1  1  2  0  2
  3  7  6  0  6  5  0  0  3  2  6  1  5  6  5  3  8  5  2  6  6  0 11 10
  0  9 16  1  1 18  1  9 11  0  1  2  4 23 14  1 23 14  4 23 22  5  2 15
  2  2 19 13 12 24  6]"
14100,342,1.0,8,2,643.4061567783356,46.05989694595337,0,902400,5355297,41702081,"[ 5  2  0  0  0  2  0  1  3  2  2  0  1  2  3  3  3  8  2  0  2  3  7  7
  3  7  6  0  6  5  0  0  3  2  6 11  5  5  7  5 13  9  5  9 11  4 15 10
  5  2 16  2 10  9  4  1 10  0  1  2  4 23 14  1 18 23  1  0  0  2 19 17
  0 20 16 13 12 24  6]"
14200,342,1.0,8,2,648.0983648300171,46.922056674957275,0,908800,5394160,42008423,"[ 4  1  2  0  0  2  0  1  3  2  2  0  3  2  1  1  1  7  1  5  7  3  0  0
  3  7  6  0  6  5  0  0  3  4 11  2  5 10  3  2 13  5  0  3  0  1 14 10
  4 13 12  0 11 13  4 18  3  0  1  2  4 23 14  2 16  2  2  0 18  3  1 15
  4  1 20 13 12 24  6]"
14300,342,1.0,8,2,652.7616112232208,46.63243770599365,0,915200,5432998,42314419,"[ 5  2  0  0  0  2  0  1  3  2  2  0  1  0  3  5  0  3  3  7  4  1  5  4
  3  7  6  0  6  5  0  0  3  1  0 12  4  2  3  0  6 10  0  0  5  0  2 17
  3  3 16  3 13 14  3  1  3  0  1  2  4 23 14  5 22 16  5 20 18  5  3  3
  5 14  3 13 12 24  6]"
14400,342,1.0,8,2,657.365993976593,46.04380130767822,0,921600,5471706,42618863,"[ 4  0  1  0  0  2  0  1  3  2  2  0  4  1  3  5  3  1  0  3  0  4  6  8
  3  7  6  0  6  5  0  0  3  1  7  6  4  1  1  3 11  0  3  5  6  4 13 10
  3 13 10  3 14  9  2  1  1  0  1  2  4 23 14  4 17 22  5 18 19  4 20  0
  3  0  1 13 12 24  6]"
14500,342,1.0,8,2,661.964950799942,45.98954200744629,0,928000,5510172,42922388,"[ 3  1  1  0  0  2  0  1  3  2  2  0  0  2  1  3  3  0  3  5  5  3  1  0
  3  7  6  0  6  5  0  0  3  5  9  7  0  2  2  2  1  5  2 10  1  3  1 14
  5 14 17  3 17 16  5 10 14  0  1  2  4 23 14  4 14 16  1 15 15  0 19 22
  2 15 18 13 12 24  6]"
14600,342,1.0,8,2,666.6609766483307,46.96023464202881,0,934400,5549821,43234398,"[ 3  2  0  0  0  2  0  1  3  2  2  0  0  0  3  0  6  4  1  3  0  0  4  8
  3  7  6  0  6  5  0  0  3  0 13  7  1  3  9  4  6  7  2  3 12  0 14  1
  3  0 16  2  9 11  3 10 13  0  1  2  4 23 14  2 21  0  1 19 22  5  0 16
  4  2 14 13 12 24  6]"
14700,342,1.0,8,2,671.3424034118652,46.81424379348755,0,940800,5589137,43543666,"[ 0  1  1  0  0  2  0  1  3  2  2  0  2  3  0  4  1  0  4  5  3  2  5  7
  3  7  6  0  6  5  0  0  3  5  4  5  0  3  6  4 13  8  0  9  9  0 11 12
  1 12  3  5  3  9  5 13 12  0  1  2  4 23 14  2 22 17  2  1  2  4 14 22
  5  3 23 13 12 24  6]"
14800,342,1.0,8,2,675.969645023346,46.27238988876343,0,947200,5628212,43851325,"[ 0  0  2  5  3  1  0  1  3  2  2  0  1  0  2  0  6  4  1  8  7  4  3  2
  3  7  6  2  8  8  0  0  3  0  8 13  2  5  4  0  2  0  1  4  3  3 14 15
  0 14 12  1 14 15  3 12  3  0  1  2  4 23 14  4  2  3  5 15  2  5  1 14
  1  0 23  9 12 24  6]"
14900,342,1.0,8,2,680.5046453475952,45.349977016448975,0,953600,5666163,44150586,"[ 0  0  2  4  2  0  0  1  3  2  2  0  3  2  2  0  6  4  0  7  4  1  4  2
  3  7  6  1  3  5  0  0  3  4 13  6  3  5 12  3 12 13  5  1  6  3 16 15
  0 12  2  4  9 18  4  0 10  0  1  2  4 23 14  1 20 19  1 22 19  1 20 15
  2 23  2  9 12 24  6]"
15000,342,1.0,8,2,685.185777425766,46.81129455566406,0,960000,5704931,44456009,"[ 0  0  2  3  3  1  0  1  3  2  2  0  5  2  2  0  6  4  0  0  0  2  0  8
  3  7  6  1  6  4  0  0  3  5 10  0  3  7  7  2  5  9  3 12  8  1 16  1
  3 16  3  1  3 17  3  3 10  0  1  2  4 23 14  0 14 22  1 20 17  5 19 16
  4 23 17  9 12 24  6]"
15100,342,1.0,8,2,689.8169050216675,46.31124973297119,0,966400,5744246,44765559,"[ 0  0  2  2  3  1  0  1  3  2  2  0  2  0  2  0  6  4  4  5  3  4  3  5
  3  7  6  0  2  1  0  0  3  1 11 11  4  3  3  2  5 13  5 11  7  0 15  9
  5 12 11  5 13  1  3  3 10  0  1  2  4 23 14  0  3 20  4 16 22  5 19 21
  3 20 16  9 12 24  6]"
15200,342,1.0,8,2,694.3692927360535,45.52385330200195,0,972800,5782375,45066778,"[ 0  0  2  0  0  1  0  1  3  2  2  0  2  0  3  0  6  4  4  7  2  1  5  4
  3  7  6  2  6  1  0  0  3  1  7 13  4  6  6  0 12  7  0 11  0  0 11 18
  0  9 16  3 11  1  3  3 11  0  1  2  4 23 14  0 19 20  1 20 22  5  2 19
  1 19 18  9 12 24  6]"
15300,342,1.0,8,2,699.0285425186157,46.59247159957886,0,979200,5821594,45375573,"[ 0  0  2  2  0  0  0  1  3  2  2  0  4  2  0  0  6  4  4  3  6  2  8  4
  3  7  6  2  2  8  0  0  3  3 11  0  1  7  1  0  4  1  3  1  7  5 14  3
  0 17  1  0  2  1  2  0 14  5 13 10  4 21 14  1 17 19  4 22  0  2  2  0
  1 15 19  9 12 24  6]"
15400,342,1.0,8,2,703.6186945438385,45.90149641036987,0,985600,5860220,45679743,"[ 0  0  2  5  0  1  0  1  3  2  2  0  5  3  2  0  6  4  4  7  5  5  7  6
  3  7  6  4  7  7  0  0  3  0 12 12  0  7  6  2  6 13  1  8 12  5 11  0
  2 17 13  0  2  1  4  1 14  5 10 10  4 21 14  1  0  2  3 14 17  3 16 22
  4  0 23  9 12 24  6]"
15500,342,1.0,8,2,708.167736530304,45.49039363861084,0,992000,5898301,45979650,"[ 0  0  2  0  0  3  0  1  3  2  2  0  0  1  2  0  6  4  5  0  0  0  8  4
  3  7  6  5  4  7  0  0  3  1 13  6  5  1  1  2  8  8  5 11  3  5 12  0
  0  1  9  0  2  1  5 16  0  5 16  2  4 21 14  1  0  2  2 22 22  5  1  0
  1 22 20  9 12 24  6]"
15600,342,1.0,8,2,712.7552263736725,45.87487459182739,0,998400,5936597,46281235,"[ 0  0  2  4  1  0  0  1  3  2  2  0  5  3  3  0  6  4  0  2  0  0  2  7
  3  7  6  2  4  5  0  0  3  4  0  6  2 11  3  5 13 11  5  7 13  0 17 15
  0  1 10  0  2  1  5  0 15  1  9 11  4 21 14  2 15 14  1  2 16  2 18 18
  3  0  3  9 12 24  6]"
15700,342,1.0,8,2,717.3911693096161,46.359403133392334,0,1004800,5975666,46588231,"[ 0  0  2  5  2  2  0  1  3  2  2  0  5  1  2  0  6  4  4  2  3  1  3  0
  3  7  6  2  1  4  0  0  3  5 10 10  3  5  0  5 12  4  5 10  2  5  1  2
  0  0 17  0  2  1  0  1  9  0  1  2  4 23 14  0 20 17  4 19 17  4 16 15
  3  1  3  9 12 24  6]"
15800,342,1.0,8,2,721.9602003097534,45.69028377532959,0,1011200,6013961,46889993,"[ 0  0  2  4  2  0  0  1  3  2  2  0  4  0  3  0  6  4  3  7  6  1  8  1
  3  7  6  1  7  1  0  0  3  2 13  0  3  8  1  5  4  5  4  4  7  4 15 14
  4 12 16  0 15  9  2  0 14  0  1  2  4 23 14  1  0 21  5 19  2  0  3 18
  4  1 23  9 12 24  6]"
15900,342,1.0,8,2,726.5765833854675,46.16380453109741,0,1017600,6052557,47194626,"[ 0  0  2  2  1  1  0  1  3  2  2  0  3  2  1  0  6  4  5  3  0  2  5  1
  3  7  6  3  5  5  0  0  3  5 12  3  3  5  1  4  0 11  3  1 13  2  3 10
  0  1  0  4 12  9  1 13 11  0  1  2  4 23 14  0 23 15  5  3  0  3 18 22
  2 18 22  9 12 24  6]"
16000,342,1.0,8,2,731.184602022171,46.080162525177,0,1024000,6091289,47500095,"[ 0  0  2  2  1  1  0  1  3  2  2  0  4  3  2  0  6  4  4  0  2  2  0  5
  3  7  6  1  6  7  0  0  3  1 12 10  4 12  2  0  3  4  3 10  1  5  0 18
  5  9 14  4 14  0  3 11 17  0  1  2  4 23 14  4  2 17  0 18  2  0  0 16
  5 20  2  9 12 24  6]"
16100,342,1.0,8,2,735.7146327495575,45.300283432006836,0,1030400,6129239,47798790,"[ 0  0  2  2  1  2  0  1  3  2  2  0  5  2  0  0  6  4  0  6  2  0  7  1
  1  6  8  3  6  7  0  0  3  5 13 10  0  5  2  4  8  3  4  8  8  1  2 10
  5 18 11  5 17 17  1 16 18  0  1  2  4 23 14  5 20 15  4  1 17  2  1  2
  1  0 17  9 13 24  6]"
16200,342,1.0,8,2,740.3428483009338,46.28213167190552,0,1036800,6168140,48105152,"[ 0  0  2  4  0  1  0  1  3  2  2  0  3  2  1  0  6  4  4  6  8  2  6  1
  4  6  3  3  6  7  0  0  3  1  9  7  4  3  6  4 13  6  1  0 10  1 11 10
  5 11 11  1 17 13  2  0  1  0  1  2  4 23 14  5 22 20  1 15 14  2 22 18
  2 19 22  9 13 24  6]"
16300,342,1.0,8,2,744.9913282394409,46.4847731590271,0,1043200,6206232,48405086,"[ 0  0  2  2  3  0  0  1  3  2  2  0  0  2  2  0  6  4  2  1  2  0  5  3
  2  3  1  3  6  7  0  0  3  1  9 12  2 13  6  0  8  7  1 13 12  5  3  3
  0 16  0  0 16 17  0 18  1  0  1  2  4 23 14  3 19 20  4  2  2  1 16 18
  4 15 19  9 13 24  6]"
16400,342,1.0,8,2,749.6655433177948,46.7421293258667,0,1049600,6245243,48712567,"[ 0  0  2  5  0  1  0  1  3  2  2  0  2  0  0  0  6  4  2  4  3  2  1  5
  3  8  5  3  6  7  0  0  3  3  1 13  0 10  6  5 12  4  3  7  9  3 11 17
  0 16 16  3 17 12  0  2  1  2  2  9  4 22 14  5 21 17  4  1 22  3 17 15
  3 14  1  9 13 24  6]"
16500,342,1.0,8,2,754.2867033481598,46.21157169342041,0,1056000,6283477,49013664,"[ 0  0  2  4  1  0  0  1  3  0  1  0  2  2  0  0  6  4  5  0  5  2  7  5
  4  3  2  3  6  8  0  0  3  3 12  4  2 10 12  1  3  9  3 12  8  0 11 15
  2  9 16  5 18 17  0  2  1  1 10 15  4 22 14  3 15  0  5  0 23  4  2 19
  1 16 19  9 13 24  6]"
16600,342,1.0,8,2,758.9706711769104,46.8396520614624,0,1062400,6321638,49314110,"[ 0  0  2  4  3  1  0  1  3  4  0  1  2  2  0  0  6  4  2  2  2  4  8  2
  0  8  0  3  6  8  0  0  3  3  2  1  3  4  2  0 12  2  3  0 13  5 11 11
  4 16  2  0 16 16  0  2  1  5 16 13  4 22 14  3 15 16  1 15  2  3  3  2
  4 17  1  9 13 24  6]"
16700,342,1.0,8,2,763.6493518352509,46.78678035736084,0,1068800,6359745,49613844,"[ 0  0  2  2  3  1  0  1  3  3  3  1  2  2  0  0  6  4  2  8  4  3  6  6
  0  1  0  3  6  8  0  0  3  1  8  4  2  1 12  1 12  1  0  2  4  4  0 16
  1 17 13  0 16 18  0  2  1  3 17  3  4 22 14  2  2 20  5 16 15  0  0 19
  3 23 14  9 13 24  6]"
16800,342,1.0,8,2,768.2818295955658,46.32475137710571,0,1075200,6399017,49923066,"[ 0  0  2  3  0  3  0  1  3  0  0  1  2  2  0  4  4  1  0  6  4  1  1  4
  0  2  8  3  6  8  0  0  3  4  8  6  0  9  0  1 11 13  1  5  3  2 12 12
  4 10 17  1  2  2  0  2  1  0 10 18  4 22 14  0 23 18  5 16  0  0 18  0
  3 18 18 10 13 24  6]"
16900,342,1.0,8,2,772.9021847248077,46.20352268218994,0,1081600,6437953,50229649,"[ 0  0  2  4  0  2  0  1  3  4  3  0  2  2  0  0  5  3  0  6  4  4  1  5
  0  7  7  3  6  8  0  0  3  0 12  9  2  2  2  3  7 10  3  8  3  0 17 15
  4  3 13  0 11  3  0  2  1  0 11  0  4 22 14  1  0 15  1 19 21  3 23  2
  0 20  0 10 13 24  6]"
17000,342,1.0,8,2,777.5299696922302,46.27781867980957,0,1088000,6476923,50536517,"[ 0  0  2  0  2  3  0  1  3  4  0  1  2  2  0  3  5  4  0  6  4  4  7  6
  0  3  4  3  6  8  0  0  3  0 11  2  2  4  5  4  4  2  4  0  3  4 16  2
  1 12 18  1  9  2  0  2  1  4 16 16  4 22 14  3  3  2  4 15 22  2  3 15
  3 14 20 10 13 24  6]"
17100,342,1.0,8,2,782.166229724884,46.362574100494385,0,1094400,6516020,50843954,"[ 0  0  2  0  3  3  0  1  3  5  0  1  2  2  0  4  5  6  0  6  4  4  1  6
  3  1  6  3  6  8  0  0  3  0  7  2  5  1  5  0 11  5  0  7  7  3 10 10
  2  0  2  4 12  2  0  2  1  5  9 16  4 22 14  4  0 16  0 22 22  1 21 15
  1 17  2 10 13 24  6]"
17200,342,1.0,8,2,786.8027827739716,46.36550426483154,0,1100800,6554594,51147647,"[ 0  0  2  1  3  1  0  1  3  1  2  0  2  2  0  5  5  6  0  6  4  4  3  2
  0  2  5  3  6  8  0  0  3  4  5 12  1  7  8  3  7  3  1  3  3  2  9  9
  2  3 15  0  1  2  0  2 11  3  9 14  4 21 14  0 16 17  3 20 17  1 21  2
  2 22 20 10 13 24  6]"
17300,342,1.0,8,2,791.3043785095215,45.01593589782715,0,1107200,6592100,51443246,"[ 0  0  2  1  1  2  0  1  3  1  0  0  2  2  0  2  5  8  0  6  4  0  3  5
  4  8  5  3  6  8  0  0  3  3  5 10  2  8  0  3  7 13  1 13  3  2 11 10
  3 18  0  0  1  2  2  9 16  2 17 12  4 21 14  3  2 20  4  3 15  5 16  1
  5  1 18 10 13 24  6]"
17400,342,1.0,8,2,795.8957669734955,45.91386318206787,0,1113600,6630638,51746831,"[ 0  0  2  5  3  1  0  1  3  0  1  0  2  2  0  2  5  5  0  6  4  2  2  8
  2  0  4  3  6  8  0  0  3  3  2 10  4  4  0  2  5 13  0  7  8  4 14 12
  2 15 16  0  1  2  5  2 10  2 15  1  4 21 14  5 22 16  1 23 17  3  2  3
  3  2 18 10 13 24  6]"
17500,342,1.0,8,2,800.6321458816528,47.363762855529785,0,1120000,6669571,52053879,"[ 0  0  2  2  1  2  0  1  3  4  2  1  2  2  0  2  5  6  0  6  4  0  0  1
  3  0  3  3  6  8  0  0  3  5  2  3  3  6  2  5  5  1  1 10  9  3 10 13
  4 12 14  0  1  2  2 16  3  1 11 18  4 21 14  0 20 23  5 15  2  3 23 17
  5  0  1 10 13 24  6]"
17600,342,1.0,8,2,805.3578367233276,47.256879806518555,0,1126400,6708665,52362345,"[ 0  0  2  0  1  2  0  1  3  0  3  1  2  2  0  2  2  5  0  6  4  5  4  7
  3  2  6  3  6  8  0  0  3  3 11  1  4  1 13  4  4  6  2  3  8  4 14 17
  3 17 13  0  1  2  2 12 11  4 16  2  4 21 14  0  0 23  5 21 22  3  2 22
  0  2 21 10 13 24  6]"
17700,342,1.0,8,2,809.993182182312,46.35342836380005,0,1132800,6747563,52668778,"[ 0  0  2  2  1  1  0  1  3  0  3  2  2  2  0  3  2  5  0  6  4  1  6  1
  1  4  6  3  6  8  0  0  3  3 11  5  5  8  5  4  7  3  2  7  0  2  9 14
  3 12 14  0  1  2  1 16  0  2 13 11  4 21 14  3 18 19  5  0 21  2 19 19
  4 14 14 10 13 24  6]"
17800,342,1.0,8,2,814.6003777980804,46.071929931640625,0,1139200,6786440,52974465,"[ 0  0  2  1  0  3  0  1  3  3  0  0  2  2  0  3  0  1  0  6  4  1  8  7
  2  3  3  3  6  8  0  0  3  2  1  6  4  2  1  0  1  7  2 11 13  2  0  3
  3 15  9  0  1  2  0 14  2  5 11  0  4 21 14  0 16  0  1 21 17  2 17 20
  2  2 21 10 13 24  6]"
17900,342,1.0,8,2,819.196019411087,45.956387519836426,0,1145600,6825254,53279926,"[ 0  0  2  0  0  0  0  1  3  4  0  1  2  2  0  4  2  3  0  6  4  5  0  0
  5  4  5  3  6  8  0  0  3  2  1  7  5  8 12  5 13  1  1  1 10  1  2  9
  4  9 18  0  1  2  0  0  9  0 11 10  4 21 14  0  2 14  1  3  1  3 22  2
  1 14 21 10 13 24  6]"
18000,342,1.0,8,2,823.8537230491638,46.57700777053833,0,1152000,6864469,53589319,"[ 0  0  2  3  2  0  0  1  3  1  3  3  2  2  0  0  4  6  0  6  4  0  4  7
  4  2  3  3  6  8  0  0  3  0  4 10  1 10 12  0  6  5  2  5 13  0 10 18
  4 14  0  0  1  2  4 15 18  4  1 17  4 21 14  1 22  2  4  1 18  5 18 16
  1  1 21 10 13 24  6]"
18100,342,1.0,8,2,828.5872719287872,47.33546257019043,0,1158400,6903035,53892662,"[ 0  0  2  5  3  1  0  1  3  0  1  2  2  2  0  5  6  7  0  6  4  5  0  6
  2  1  6  3  6  8  0  0  3  1  6 13  3  1  5  5 11 10  2  1 10  4 11 14
  2 14 17  0  1  2  0 11 14  2  2  9  4 21 14  5  1 21  3 19  1  1 18 15
  4 22 16 10 13 24  6]"
18200,342,1.0,8,2,833.2115652561188,46.24290704727173,0,1164800,6941336,54193971,"[ 0  0  2  4  3  1  0  1  3  5  1  0  2  2  0  2  3  7  0  6  4  4  0  5
  0  5  8  3  6  8  0  0  3  0 11 11  0  9  4  2  7 12  4 12  6  5 18  3
  0  9 12  0  1  2  2 13  2  5 12  2  4 21 14  1 14 21  1 14 20  5 23 15
  4  2  0 10 13 24  6]"
18300,342,1.0,8,2,837.807918548584,45.9635066986084,0,1171200,6979853,54497852,"[ 0  0  2  2  1  1  0  1  3  5  0  2  2  2  0  4  1  7  0  6  4  3  4  7
  1  1  0  3  6  8  0  0  3  5 12 11  1  5 10  0 13  5  1  4 13  1 14  3
  0 15  1  0  1  2  3  3 14  3  9  2  4 21 14  2 20 16  3 22 15  0  3 20
  3  0  1 10 13 24  6]"
18400,342,1.0,8,2,842.4764375686646,46.68516397476196,0,1177600,7018988,54805700,"[ 0  0  2  4  2  3  0  1  3  5  1  1  2  2  0  3  0  6  0  6  4  4  3  8
  3  6  8  3  6  8  0  0  3  3  1  1  5 13  9  3  3 13  0  2 12  0  2 14
  3 13 10  0  1  2  3 15 17  4  0 17  4 21 14  5 19 16  5 17  3  2 19 21
  3 22 19 10 13 24  6]"
18500,342,1.0,8,2,847.0771803855896,46.007397174835205,0,1184000,7057000,55105895,"[ 0  0  2  3  2  3  0  1  3  2  0  3  2  2  0  5  8  3  0  6  4  3  7  6
  3  6  8  4  6  6  0  0  3  4  8  1  5  4  7  4  6  0  1  6  5  5 18 11
  3  3 13  0  1  2  1  3 18  1 18 11  4 21 14  2  3 23  5 19 15  0 16 21
  3 17 23 10 12 24  6]"
18600,342,1.0,8,2,851.7849369049072,47.07753658294678,0,1190400,7095985,55412619,"[ 0  0  2  2  2  3  0  1  3  0  2  2  2  2  0  4  8  0  0  6  4  4  8  4
  3  6  8  0  0  0  0  0  3  0  2  8  4 13 10  2  7 11  2 11  3  3  3  2
  5 17  9  0  1  2  3 13 13  5  0 13  4 21 14  1  0 19  1 23 17  3 22 22
  5 23  1 10 12 24  6]"
18700,342,1.0,8,2,856.2707540988922,44.85814571380615,0,1196800,7133258,55706361,"[ 0  0  2  1  3  3  0  1  3  3  3  0  2  2  0  3  2  4  5  6  7  3  8  8
  3  6  8  0  4  6  0  0  3  1  3 13  2 10 10  2 12  8  5  7  3  3 16  2
  3 15  9  0  1  2  0 15 16  5 15  2  4 21 14  2 14 22  0 18 17  5 22 22
  0 23 18 13 12 24  6]"
18800,342,1.0,8,2,860.9301521778107,46.59395217895508,0,1203200,7171767,56009618,"[ 0  0  2  3  0  2  0  1  3  0  2  3  2  2  0  1  3  2  3  8  6  0  6  7
  3  6  8  0  4  6  0  0  3  3  1  9  1  7  2  4  1  2  3  9  8  4  1  1
  5  9  1  0  1  2  0 16 15  2  3 16  4 21 14  5 20  3  0 17 17  4 23 17
  5 23  0 13 12 24  6]"
18900,342,1.0,8,2,865.58882188797,46.586670875549316,0,1209600,7211449,56321620,"[ 0  0  2  5  3  2  0  1  3  5  2  2  2  2  0  1  6  3  4  4  8  5  6  2
  3  6  8  0  4  6  0  0  3  4 12 10  0  8 11  2  9  6  2  0  0  4 11 12
  3 17 15  0  1  2  3 16  9  2  3  2  4 21 14  2 20  1  3  0  3  3 23 23
  2 22 18 13 12 24  6]"
18998,343,1.0,7,2,870.1271636486053,46.30958060829007,0,1215872,7248597,56614335,"[ 0  0  2  5  0  2  0  1  3  0  2  1  2  2  0  2  4  6  4  8  6  1  8  6
  3  6  8  0  4  6  0  0  3  2 13 11  5  8 10  2  1 13  2 13  7  2 16  2
  4 16  3  0  1  2  1  0  9  4 12 11  4 21 14  0 20  3  1 22  3  0 14 21
  5  0 20 27 12 24  6]"
