generation,fitness,functionality,active_nodes,longest_path,time,gen_time,nc_gens,fitness_evals,graph_evals,node_evals,genotype
0,167.0,0.4375,2,1,0.01604008674621582,16.04008674621582,0,0,0,0,"[ 2  0  1  2  3  3  2  1  3  1  0  0  1  3  1  1  3  8  5  1  2  0  4  6
  5  2  3  1  7  0  3  6  5  0  9  1  3  5  7  4  1  1  0  4  4  3 18 15
  0 13  0  5 13  2  5 16 11  3  2  1  4  3 15  1 18  0  3  2 20  3  2  3
  5 20 14  6  6  7  0]"
100,315.0,0.90625,4,1,21.050342321395874,210.34302234649658,0,12800,161689,703794,"[ 0  3  1  2  1  0  3  2  3  2  1  0  3  2  0  0  5  3  1  8  2  2  0  2
  1  4  6  5  1  0  4  8  6  1  1 10  5  6  6  4  1  1  2 13 12  5  1  1
  0  3  0  0  2  2  2  0 15  5 17  0  3 17 14  5  0 23  1 18 16  3 18 17
  0  2  0 17 28 20  4]"
200,315.0,0.90625,4,1,42.263017416000366,212.12675094604492,0,25600,322375,1441866,"[ 0  3  1  3  3  3  0  0  2  4  0  0  2  0  1  4  6  5  4  1  3  4  1  2
  2  4  0  0  4  4  1  0  4  1  2 12  4  4  2  1  9 11  0 12  5  3 11 18
  0  3  0  2 12 11  1  0 11  5  3 16  0 19 22  0  3 20  1 14  3  2 16 15
  2 20 20  7  6 20  4]"
300,321.0,0.9375,6,3,65.91806983947754,236.55052423477173,0,38400,472477,2323549,"[ 0  3  1  0  0  2  4  3  2  1  0  3  0  0  1  5  3  1  0  6  7  1  0  1
  2  1  2  3  3  2  1  3 12  0  5  5  2  2  2  5  3 12  4 12 12  4 10 16
  0 17  0  3 17 15  3  0  1  3  1 17  5 22 21  3  3 23  1 15  1  1 14 19
  4 22  1 18  5 20  4]"
400,326.0,0.953125,6,3,88.4291615486145,225.11091709136963,0,51200,612160,3188698,"[ 0  3  1  0  0  2  0  1  2  1  1  0  2  0  2  0  5  4  3  0  2  4  8  1
  2  1  2  5  2  4  0  8  1  3 13  1  0 10 10  5  3 12  4 10  6  5 13 16
  0 17  0  1  1 15  1  9  9  4 16  0  3 17  0  5 18 21  3  1 19  4  1 19
  4 19 18  9  5 20  4]"
500,326.0,0.953125,6,3,109.65417861938477,212.25017070770264,0,64000,742314,3982240,"[ 0  3  1  0  0  2  3  0  3  4  2  1  2  1  1  0  5  4  3  2  7  5  2  0
  2  1  2  0  1  6  2  1  6  5 11 12  5  6 13  5  3 12  5  1 10  1 17 18
  0 17  0  4  3 11  1 18  9  1  9  3  2 16 19  3 22 16  3  1 18  1 21  0
  5  2  3  9  5 20  4]"
600,326.0,0.953125,6,3,130.8694224357605,212.15243816375732,0,76800,871562,4778344,"[ 0  3  1  0  0  2  1  0  0  4  0  0  5  2  1  0  5  4  4  8  0  0  8  0
  2  1  2  1  1  8  5 13  5  0 11 11  5  7 10  5  3 12  2  7  7  1  3 16
  0 17  0  5 18 12  2  2  2  3  9 10  4  0 15  5 15 20  2 23  3  4  1 23
  4 21 22  9  5 20  4]"
700,334.0,0.984375,8,3,150.05457067489624,191.85148239135742,0,89600,963677,5512319,"[ 0  3  1  0  0  2  3  3  2  0  3  0  0  1  2  0  5  4  0  8  0  5  0  3
  2  1  2  1  0  3  5 13  0  3  5  8  5  3  9  5  3 12  5  4  8  1 10 10
  5 17 14  1  1 18  5 12 13  0 12 14  0 14 20  4  0 14  1 19 18  0 22  0
  0 19 22  9  5 20  4]"
800,334.0,0.984375,8,3,168.4580855369568,184.03514862060547,0,102400,1050628,6205448,"[ 0  3  1  0  0  2  3  3  0  3  0  0  1  2  2  0  5  4  0  6  6  4  6  0
  2  1  2  1  3  3  5 13  0  0 12 12  2  6  2  5  3 12  0  5 13  1 14 15
  5 17 11  0  1  9  0 10 15  1 14 18  5 20 17  4 16  1  1  1 18  1  0 20
  3 23 18  9  5 20  4]"
900,334.0,0.984375,8,3,187.39359736442566,189.35511827468872,0,115200,1140929,6923844,"[ 0  3  1  0  0  2  2  3  3  3  0  0  0  2  1  0  5  4  0  4  7  1  6  0
  2  1  2  4  4  0  3 10  7  0 10  4  4  5  2  5  3 12  2  8  5  1 12 12
  5 17 11  0 17 11  2 15 10  2 15 17  2 15 22  3  2  3  0 18 14  2 15 18
  3 23  1  9  5 20  4]"
1000,334.0,0.984375,8,3,206.3687722682953,189.7517490386963,0,128000,1232110,7646729,"[ 0  3  1  0  0  2  3  0  3  4  1  0  5  2  0  0  5  4  0  5  5  4  6  0
  2  1  2  4  7  6  4  7 11  2  2 13  4  7  2  5  3 12  5  8  4  1  0 18
  5 17 11  4 13 13  5 15  9  4 18 17  5 17 21  3 23 22  5 17 22  3 21 14
  3 19  2  9  5 20  4]"
1100,334.0,0.984375,8,3,225.15990829467773,187.91136026382446,0,140800,1321355,8357925,"[ 0  3  1  0  0  2  5  0  3  1  2  1  4  0  1  0  5  4  1  1  4  1  6  0
  2  1  2  5  1  5  0 12  8  0  4  8  5 11  3  5  3 12  0 13  9  5 17 17
  5 17 11  0 18 16  4 12  3  1 16 14  1 17 19  4 22  2  1 16 21  4  2 21
  4 14 16  9  5 20  4]"
1200,334.0,0.984375,8,3,243.81134915351868,186.51440858840942,0,153600,1411251,9070035,"[ 0  3  1  0  0  2  5  3  0  2  1  0  5  1  1  0  5  4  4  1  5  1  6  0
  2  1  2  5  1  5  4  6  8  2  1 11  5 12  9  5  3 12  0  3  5  4  1  9
  5 17 11  3  3 13  4 12  9  0  0 11  1 17 20  1 19 20  2  2  3  3 15  0
  3 17 17  9  5 20  4]"
1300,334.0,0.984375,8,3,262.3420617580414,185.30712604522705,0,166400,1500323,9773625,"[ 0  3  1  0  0  2  3  3  3  5  0  3  4  0  0  0  5  4  3  1  4  1  7  0
  2  1  2  0  5  1  0  3  8  4 11 13  1 13  5  5  3 12  1  0  4  5  2  2
  5 17 11  1  1 15  4 11 15  5 17 12  4 22 15  0 20 21  1 23 23  1  2  2
  3  3 17  9  5 20  4]"
1400,334.0,0.984375,8,3,281.2670111656189,189.24949407577515,0,179200,1591192,10493696,"[ 0  3  1  0  0  2  1  0  1  3  3  0  3  0  2  0  5  4  5  2  3  1  7  0
  2  1  2  0  1  1  2  3 12  4 11  4  0  2  4  5  3 12  5  9  2  4 12  2
  5 17 11  4 10 10  1  2 16  3 13 12  5 21 16  1 19 15  3 15  0  1  3 14
  1 23  3  9  5 20  4]"
1500,334.0,0.984375,8,3,299.61063981056213,183.43628644943237,0,192000,1679883,11194780,"[ 0  3  1  0  0  2  3  2  2  3  3  0  5  3  3  0  5  4  0  4  0  4  7  0
  2  1  2  0  3  1  3 11 12  4  2  4  1  8  7  5  3 12  0  6  8  3  1 12
  5 17 11  1  1 14  5  9 14  3 11 10  4 18 16  2 17 15  5 19 19  2 16 14
  0  1 17  9  5 20  4]"
1600,334.0,0.984375,8,3,317.9488878250122,183.38248014450073,0,204800,1768360,11896331,"[ 0  3  1  0  0  2  5  0  0  3  3  3  3  2  2  0  5  4  3  6  1  1  7  0
  2  1  2  1  5  1  4  4 10  1  2  9  0 10  5  5  3 12  3  6  4  2 12 15
  5 17 11  5 15 15  4  9 14  1  2  9  2 23 16  0 20  1  3 17 16  4 23 15
  4 16 17  9  5 20  4]"
1636,339,1.0,10,3,324.92621421813965,193.81462203131784,0,209408,1801133,12158147,"[ 0  3  1  0  0  2  4  2  0  3  0  3  2  2  0  0  5  4  2  7  6  1  7  0
  2  1  2  4  5  0  1  4 10  1  2  9  0 10 13  5  3 12  5  8  9  4  3 15
  5 17 11  5 15  2  4 15 14  1 16  2  4 23 22  4 19  1  1 23  2  4 15 18
  5 16  2  9 18 20  4]"
1700,339,1.0,10,3,337.5212924480438,196.79809734225273,0,217600,1850403,12644172,"[ 0  3  1  0  0  2  4  1  1  3  0  3  2  2  0  0  5  4  2  4  3  1  7  0
  2  1  2  1  8  7  4  3  4  2  0 13  3  5  4  5  3 12  3  8  9  0 16  9
  5 17 11  5 12  3  1 13 14  5 16  2  5 14  1  4 23  2  5 22 22  4 21 14
  2 18 16  9 18 20  4]"
1800,339,1.0,10,3,356.72561836242676,192.04325914382935,0,230400,1926816,13398996,"[ 0  3  1  0  0  2  2  0  1  3  0  3  2  2  0  0  5  4  2  0  8  4  7  0
  2  1  2  5  7  5  4 11  5  2  3 11  5  5 13  5  3 12  5  8  9  3 16 11
  5 17 11  3  0  3  1  9 14  5 10 18  2 20 20  2 18 23  0  0 16  1 20  1
  1  2 14  9 18 20  4]"
1900,339,1.0,10,3,375.5975420475006,188.71923685073853,0,243200,2001940,14137997,"[ 0  3  1  0  0  2  4  1  1  3  0  3  2  2  0  0  5  4  4  2  4  4  7  0
  2  1  2  5  1  7  0 12 13  5  3  0  0  2  6  5  3 12  3  8  9  1 15 14
  5 17 11  0 11 11  0 16 14  3  2 16  2  3  2  4 23 17  4  0 21  1 20 23
  1 15 14  9 18 20  4]"
2000,339,1.0,10,3,394.7563784122467,191.58836364746094,0,256000,2077514,14883234,"[ 0  3  1  0  0  2  5  3  3  3  0  3  2  2  0  0  5  4  0  3  8  4  7  0
  2  1  2  0  7  7  2  6 10  4  3 13  5  2 11  5  3 12  5  8  9  4  9 14
  5 17 11  5 14 13  1 14 10  4  9  2  4 19 15  5 23 21  1  3 15  3 15 23
  1  0 17  9 18 20  4]"
2100,339,1.0,10,3,413.14939737319946,183.9301896095276,0,268800,2152918,15626613,"[ 0  3  1  0  0  2  5  2  2  2  3  3  2  2  0  0  5  4  0  8  0  1  7  0
  2  1  2  4  6  5  4  5 10  3  1 10  5  7  5  5  3 12  3  8  9  2 14 11
  5 17 11  0  2  2  4 16 13  3 11 14  4 16  2  1 22  2  2 14 19  0 19 21
  5 20 23  9 18 20  4]"
2200,339,1.0,10,3,432.2046682834625,190.55270910263062,0,281600,2229316,16379996,"[ 0  3  1  0  0  2  5  2  3  3  0  3  2  2  0  0  5  4  0  3  2  4  7  0
  2  1  2  2  4  5  1  9  7  0  5  4  5  2  9  5  3 12  3  8  9  3 14  0
  5 17 11  0 12 13  2  1  0  2 11 14  1 15 21  4 22  1  5 17 20  4 23 18
  4 22  2  9 18 20  4]"
2300,339,1.0,10,3,451.2769675254822,190.72299242019653,0,294400,2304649,17121456,"[ 0  3  1  0  0  2  0  1  2  5  3  0  2  2  0  0  5  4  0  3  5  1  7  0
  2  1  2  2  7  0  2  3  7  2  0 13  1 13 13  5  3 12  5  8  9  0 10 12
  5 17 11  0  1  9  5 18 10  2 10 15  2 17 15  1 16  2  4  1  3  5 17  2
  1 14  0  9 18 20  4]"
2400,339,1.0,10,3,469.89288902282715,186.1592149734497,0,307200,2379900,17862767,"[ 0  3  1  0  0  2  5  0  1  3  0  3  2  2  0  0  5  4  2  0  5  4  7  0
  2  1  2  5  3  0  3  4  6  0  3 11  1  0  5  5  3 12  3 10  4  4 10 12
  5 17 11  1  0 14  1  0  3  1 12 17  3 17  2  0 14  3  3  0 15  1  1  1
  2 18  0  9 18 20  4]"
2500,339,1.0,10,3,488.39139103889465,184.98502016067505,0,320000,2453714,18591963,"[ 0  3  1  0  0  2  3  2  3  3  0  3  1  0  1  0  5  4  2  5  2  1  7  0
  2  1  2  2  3  7  5  3  5  0  3 12  2  8  6  5  3 12  3 10  4  1 13  1
  5 17 11  3 18  9  2 12 17  2 11 12  1 16  1  1 16  1  3 22 21  3  1  1
  0 22 20  9 18 20  4]"
2600,339,1.0,10,3,506.61940026283264,182.28009223937988,0,332800,2526807,19312467,"[ 0  3  1  0  0  2  5  0  0  5  0  3  1  2  0  0  5  4  2  0  2  1  7  0
  2  1  2  2  3  5  4  2  6  3  9 12  0  8 12  5  3 12  3 10  4  3  9 11
  5 17 11  2  2 11  1 14 18  5 15 11  1 18 18  3 17  3  1 22 17  0  1 21
  4 23 17  9 18 20  4]"
2700,339,1.0,10,3,525.1022758483887,184.8287558555603,0,345600,2600388,20039740,"[ 0  3  1  0  0  2  4  3  0  2  3  3  1  0  0  0  5  4  2  8  2  1  7  0
  2  1  2  3  5  4  2 12 12  0  1  7  4  7  8  5  3 12  3 13  4  4 13 15
  5 17 11  4  2 14  5 13 15  0  9 11  0 21 20  4 17 16  5 22 17  3  2  2
  3 16 19  9 18 20  4]"
2800,339,1.0,10,3,543.5169579982758,184.14682149887085,0,358400,2672191,20749532,"[ 0  3  1  0  0  2  5  3  3  5  3  0  0  1  0  0  5  4  4  8  6  1  7  0
  2  1  2  2  0  5  3 10 12  3  1  9  3  0  2  5  3 12  5 13  9  3 16 12
  5 17 11  0  2 13  1  1 12  2 10 14  2 14 20  2 15 16  0 16 16  3 15  1
  3 16 15  9 18 20  4]"
2900,342,1.0,8,2,560.1218168735504,166.04858875274658,0,371200,2750477,21386134,"[ 0  3  1  0  0  2  2  2  2  3  0  0  0  3  0  0  5  4  3  3  6  3  7  8
  2  1  2  2  0  2  5  8 12  2  4  2  2 13  6  2  3 13  3 13  4  4  1 16
  1 17 14  2 10 18  4 18  0  2 16 12  0 14 21  3 20 19  0 23  2  3 16 17
  1 22  1  9 18 14  4]"
3000,342,1.0,8,2,576.7347271442413,166.12910270690918,0,384000,2828612,22000968,"[ 0  3  1  0  0  2  3  0  1  2  1  1  0  3  0  0  5  4  1  6  8  3  4  5
  2  1  2  2  0  2  5  8 12  4 13  9  4  1  0  4 13  9  3 13  4  5 14  0
  3  2  1  2 13 18  1 10 17  4 17 15  4 22 14  3 19 17  5 18 23  0 17 19
  4 15  3  9 18 14  4]"
3100,342,1.0,8,2,593.4301745891571,166.95447444915771,0,396800,2907345,22619783,"[ 0  3  1  0  0  2  2  1  3  1  0  1  0  3  0  0  5  4  2  7  3  0  0  1
  2  1  2  2  0  2  5  8 12  2  4  5  2  8  5  0 12  3  3 13  4  3  2 12
  0 11  2  2  0 10  3 15 17  0 17 11  2 19  0  3 22 15  0 21 21  5 15 23
  4 21 17  9 18 14  4]"
3200,342,1.0,8,2,609.9966378211975,165.66463232040405,0,409600,2986755,23244096,"[ 0  3  1  0  0  2  5  3  0  0  0  2  0  3  0  0  5  4  4  5  3  4  1  2
  2  1  2  2  0  2  5  8 12  0  9  7  2 11  3  0  3 11  3 13  4  5 18 11
  4  9  0  4 15 12  0 10 13  3 13  0  3  2  0  3  2 17  4  2  1  1 14 15
  1  3 20  9 18 14  4]"
3300,342,1.0,7,3,624.9639573097229,149.6731948852539,0,422400,3058307,23774162,"[ 0  3  1  2  1  2  0  3  1  2  3  0  0  3  0  0  3  6  3  3  5  5  2  7
  2  1  2  2  0  2  5  8 12  5  1 12  4  6 11  5 13 12  3 13  4  5 18 13
  3 11  2  2 15 17  4 15 13  4  0 10  0  3  0  5  2 22  0 19 21  1 21 20
  4 18 17 19 18 14  4]"
3400,342,1.0,7,3,639.0309238433838,140.6696653366089,0,435200,3123938,24231973,"[ 0  3  1  3  0  2  2  3  1  3  3  2  0  3  0  1  6  5  4  7  6  5  2  3
  2  1  2  2  0  2  5  8 12  1  2 11  5 10  0  2  5  5  3 13  4  5 18 13
  2  2 13  3  0 18  2 13 11  2 13 12  2  3 14  1  3 20  2 19  2  3 21 14
  2  1 14 19 18 14  4]"
3500,342,1.0,7,3,653.1096391677856,140.78715324401855,0,448000,3191825,24706859,"[ 0  3  1  1  2  1  0  2  0  1  3  3  0  3  0  2  6  1  4  3  7  1  2  6
  2  1  2  2  0  2  5  8 12  5  0  9  1  7  1  5 11 12  3 13  4  3 18 13
  4 15 14  3 12 17  0 12 11  4 13 11  0 20  1  4 18 21  3 18 14  1  2 21
  0 14 17 19 18 14  4]"
3600,342,1.0,7,3,666.8898115158081,137.8017234802246,0,460800,3257185,25163671,"[ 0  3  1  2  0  3  0  3  0  3  0  1  1  3  1  5  2  6  5  2  3  0  7  8
  2  1  2  2  0  2  5  6 12  1  4  2  4  4  3  3 10 12  3 13  4  5 18 13
  3 10 13  3  9 17  5 11  0  1 12 14  3 14 15  4 20 22  5 17 17  5 19 18
  2 22 17 19 18 14  4]"
3700,342,1.0,7,3,680.8959310054779,140.061194896698,0,473600,3323707,25628089,"[ 0  3  1  2  3  0  0  3  0  0  1  3  1  0  3  1  8  6  0  1  3  0  5  1
  2  1  2  2  0  2  5  6 12  0  0 12  5  1  9  1 10 11  3 13  4  3 18 13
  4  9 16  0 14 18  5 14  1  0 14  0  1  3 23  2  3  2  5 19 19  2 22 14
  3 15  3 19 18 14  4]"
3800,342,1.0,7,3,694.8075091838837,139.11578178405762,0,486400,3390216,26093053,"[ 0  3  1  2  2  1  0  3  0  1  1  1  2  1  0  0  8  1  4  8  0  1  8  5
  2  1  2  2  0  2  5  6 12  1 12  2  5 11 13  5 13  0  3 13  4  5 18 13
  5 18  1  3 13  9  1  9 16  1 17 12  4  3 21  3 21  2  5 16  3  1 20  2
  3  3 23 19 18 14  4]"
3900,342,1.0,7,3,708.7148759365082,139.07366752624512,0,499200,3456618,26556445,"[ 0  3  1  5  3  3  0  3  0  2  3  3  4  2  3  5  2  7  5  4  1  2  3  0
  2  1  2  2  0  2  5  6 12  5  1 10  0  5 13  5 12 11  3 13  4  3 18 13
  5  1  1  4  2 16  5 16 18  5 12 11  1 21 21  2 15 21  5  1 20  1 16  3
  1 22 16 19 18 14  4]"
4000,342,1.0,7,3,723.0148003101349,142.9992437362671,0,512000,3524569,27031387,"[ 0  3  1  3  2  0  0  3  0  5  3  1  3  3  1  4  7  4  1  1  7  4  1  8
  2  1  2  2  0  2  5  6 12  1  5  4  5  0 10  0  1 12  3 13  4  3 18 13
  2 13 18  5 14 16  4 14 15  3 15  3  2  3  1  2 16 15  4  2 14  2  3 18
  1  3 20 19 18 14  4]"
4100,342,1.0,7,3,736.7282800674438,137.1347975730896,0,524800,3589228,27484459,"[ 0  3  1  5  2  2  0  3  0  4  2  2  5  3  2  3  5  3  0  1  1  1  8  6
  2  1  2  2  0  2  5  6 12  3 12  3  1  0  5  1  9  2  3 13  4  5 18 13
  5  9 13  3 11 12  0  3 12  2  0  1  2 22 17  4 16  1  3 19 17  3 18 23
  3 21 15 19 18 14  4]"
4200,342,1.0,7,3,751.0492870807648,143.21007013320923,0,537600,3655309,27946348,"[ 0  3  1  0  1  2  0  3  0  0  2  0  3  1  1  0  0  2  4  4  0  4  3  4
  2  1  2  2  0  2  5  6 12  0  5  7  2  0 12  1  8  5  3 13  4  5 18 13
  4  3 13  3  0  1  1  0  0  4 12  0  1  3  3  3 20 21  2 15 16  5  1  3
  1  2 17 19 18 14  4]"
4300,342,1.0,7,3,764.9220452308655,138.72758150100708,0,550400,3720844,28403376,"[ 0  3  1  3  2  0  0  3  0  5  0  2  0  0  0  3  3  1  1  1  0  3  5  6
  2  1  2  2  0  2  5  6 12  1  5  3  0 10  2  3  9 10  3 13  4  5 18 13
  5  0 15  0 11  1  5 14  2  2  2  3  3 18 17  4 17 22  3 23 14  1 14 17
  4 22 17 19 18 14  4]"
4400,342,1.0,7,3,778.7872743606567,138.6522912979126,0,563200,3786313,28860291,"[ 0  3  1  2  2  1  0  3  0  0  0  2  1  2  0  0  3  8  5  0  0  3  1  6
  2  0  8  2  0  2  5  6  5  2  0  2  3  9  0  4 11  5  3 13  4  5 18 13
  5  0 14  2 18  3  1  2 16  5  9 13  1 17 18  1 14  2  0  1  0  5  2 16
  3 17  3 19 18 14  4]"
4500,342,1.0,7,3,793.2701823711395,144.82908010482788,0,576000,3855535,29343697,"[ 0  3  1  2  2  1  0  3  0  1  0  2  2  1  0  4  3  0  1  0  3  4  0  6
  5  7  8  2  0  2  5  6  5  3 11 11  3  9  6  2 12  8  3 13  4  3 18 13
  2 14 12  1 12  0  3 11  3  1 14 16  3  3 14  1  2 17  0  2  1  2 15 21
  5 17  1 19 18 14  4]"
4600,342,1.0,7,3,807.5993776321411,143.29195261001587,0,588800,3923087,29816047,"[ 0  3  1  2  2  1  0  3  0  0  3  0  5  1  0  4  7  1  4  6  7  1  2  6
  3  7  7  2  0  2  5  6  5  2  7  4  0  9  2  2 12  7  3 13  4  3 18 13
  5 11  9  3  9  3  5 17 11  5 13  9  5 21 16  5  0  0  1 21  3  2  0  2
  3  0  1 19 18 14  4]"
4700,342,1.0,7,3,822.2359111309052,146.36533498764038,0,601600,3992129,30298952,"[ 0  3  1  2  2  1  0  3  0  0  3  0  0  1  2  4  4  6  3  0  3  4  1  7
  3  1  7  2  0  2  5  6  5  1 11  5  5  7  6  5 13 13  3 13  4  5 18 13
  5 15 14  0 10 10  0 13 10  0  3  9  0  1 16  3  3 17  3 19  1  4 23 21
  1 22 18 19 18 14  4]"
4800,342,1.0,7,3,836.2637114524841,140.2780032157898,0,614400,4059560,30769724,"[ 0  3  1  2  2  1  0  3  0  4  2  1  5  3  3  1  6  7  5  1  7  2  3  3
  4  5  5  2  0  2  5  6  5  2  1 11  5 10  2  3  6  6  3 13  4  3 18 13
  1 14  1  5  3 10  0 12  9  3 16 10  4  1  0  0  1 21  3  0 14  0 20 16
  1 22 14 19 18 14  4]"
4900,342,1.0,7,3,850.5760469436646,143.1233549118042,0,627200,4127701,31245396,"[ 0  3  1  2  2  1  0  3  0  0  2  0  2  1  2  0  0  0  2  3  6  2  5  5
  3  4  5  2  0  2  5  6  5  5  8 11  3 13  6  3 13  3  3 13  4  3 18 13
  1 10 17  5  3  0  2 14  3  0 17 18  4  1  3  2 19 14  2  3 21  2  3  0
  1 20  0 19 18 14  4]"
5000,342,1.0,7,3,864.9537942409515,143.77747297286987,0,640000,4196250,31722956,"[ 0  3  1  2  2  1  0  3  0  4  3  3  5  0  0  1  6  1  5  6  3  3  0  8
  3  3  6  2  0  2  5  6  5  0  8 12  3  6  4  5 10  4  3 13  4  5 18 13
  0  3  1  0 10  0  4  0  1  0 14 16  5  1  2  2  0 23  4 18 22  0 14 18
  1  0 14 19 18 14  4]"
5100,342,1.0,7,3,879.0086796283722,140.54885387420654,0,652800,4265404,32204432,"[ 0  3  1  2  2  1  0  3  0  3  3  0  3  0  1  4  1  6  3  4  3  0  1  4
  0  7  4  2  0  2  5  6  5  4 12  7  1  7  4  5  4 12  3 13  4  3 18 13
  4 14 18  4 14  1  1 18 11  4  0  0  3 17  1  4 18 21  4 14 18  5 15 18
  2 14 22 19 18 14  4]"
5200,342,1.0,7,3,893.2212252616882,142.1254563331604,0,665600,4333446,32678976,"[ 0  3  1  2  2  1  0  3  0  5  1  3  0  2  1  5  1  3  4  6  4  1  8  3
  5  2  1  2  0  2  5  6  5  1  2 10  5  8  6  3  3  5  3 13  4  5 18 13
  4 11 11  5 18 16  1  3 10  0 10 14  3 14 15  1 23 20  5 15 16  1 19 16
  3  2 23 19 18 14  4]"
5300,342,1.0,7,3,907.3493728637695,141.281476020813,0,678400,4403508,33167405,"[ 0  3  1  2  2  1  0  3  0  3  2  1  0  0  2  4  8  2  5  7  4  5  1  8
  5  3  3  2  0  2  5  6  5  3  2  3  5 12  0  4  8  0  3 13  4  5 18 13
  1  3 16  0  2 15  3 17  1  5  9 13  1 17 20  2 17 18  3 23 21  1 21 19
  2  1  3 19 18 14  4]"
5400,342,1.0,7,3,921.4369187355042,140.8754587173462,0,691200,4470256,33633930,"[ 0  3  1  2  2  1  0  3  0  5  2  0  3  1  3  0  1  0  4  1  4  4  0  8
  3  2  6  2  0  2  5  6  5  0  2  9  5  7  8  2  7  0  3 13  4  5 18 13
  2  2 11  0 11 18  4 17  3  0 12 10  1 19 23  5 17 23  0 20 23  0 16 22
  4 14 20 19 18 14  4]"
5500,342,1.0,7,3,935.6702690124512,142.33350276947021,0,704000,4537607,34106029,"[ 0  3  1  2  2  1  0  3  0  0  3  0  4  2  2  1  2  3  1  7  4  4  7  8
  1  5  1  2  0  2  5  6  5  3  3 12  2  9  4  1  2 13  3 13  4  5 18 13
  5  3  3  4 11  2  1 12  0  4 12  1  2 18 15  0 23 23  4  2 17  5 22 16
  4 23 20 19 18 14  4]"
5600,342,1.0,7,3,949.6786653995514,140.0839638710022,0,716800,4604859,34575377,"[ 0  3  1  2  2  1  0  3  0  1  2  2  1  2  2  3  5  4  1  8  0  4  0  6
  2  7  5  2  0  2  5  6  5  4 11 11  5 13  7  0  1 13  3 13  4  3 18 13
  4  3 13  2 16  9  1 15 14  3 15  9  1  0 21  5  2  2  3  2  1  3 23 15
  0 21 16 19 18 14  4]"
5700,342,1.0,7,3,964.2950551509857,146.16389751434326,0,729600,4673541,35054128,"[ 0  3  1  2  2  1  0  3  0  2  2  3  4  1  2  1  3  5  2  8  4  3  8  4
  1  6  3  2  0  2  5  6  5  0  7  4  3  0  4  0  7  0  3 13  4  5 18 13
  5  2  0  2 17 13  1  1  2  1  1 11  3  2  2  4 18  0  2 18 19  3  3 19
  0 19 14 19 18 14  4]"
5800,342,1.0,7,3,978.6725497245789,143.7749457359314,0,742400,4742155,35532894,"[ 0  3  1  2  2  1  0  3  0  3  3  3  3  2  0  2  4  1  3  8  4  4  5  6
  0  2  3  2  0  2  5  6  5  4  2 10  3  1  7  5 10  5  3 13  4  3 18 13
  1  2 14  2  3  2  4 10 14  3 13  9  2 17 18  5 22 18  5 20 20  4  0 21
  2 14  2 19 18 14  4]"
5900,342,1.0,7,3,992.8148326873779,141.42282962799072,0,755200,4809835,36006494,"[ 0  3  1  4  2  3  0  3  0  4  1  1  2  2  1  1  1  8  3  6  7  5  2  1
  3  5  8  2  0  2  5  6  8  2 13  1  3  8  9  3  1  2  3 13  4  3 18 13
  0  9 18  2 15 15  0 11 10  0  0  9  1 18 22  5  3 18  1 20 15  5 22 19
  5 17 19 19 18 14  4]"
6000,342,1.0,7,3,1007.2284173965454,144.1358470916748,0,768000,4878100,36483351,"[ 0  3  1  2  3  3  0  3  0  5  1  2  2  2  1  1  4  1  5  7  4  3  5  3
  3  4  7  2  0  2  5  6  8  0 13  1  0  1  9  2  6 13  3 13  4  3 18 13
  4  2 13  1 16  9  0 11  2  1  3 16  5 21 18  4  2 14  5 14  0  0 19  0
  4 23 15 19 18 14  4]"
6100,342,1.0,7,3,1021.6622965335846,144.33879137039185,0,780800,4946961,36963651,"[ 0  3  1  5  0  0  0  3  0  4  1  2  2  2  1  1  8  2  5  7  7  5  1  2
  5  1  6  2  0  2  5  6  8  0  6  1  5 12  4  3  1 11  3 13  4  3 18 13
  3 16 13  3 14 14  5 14  2  3 13 11  2 15  2  4 19  2  2 17 21  5 17 21
  1  2 20 19 18 14  4]"
6200,342,1.0,7,3,1035.994883775711,143.32587242126465,0,793600,5016320,37448003,"[ 0  3  1  1  0  3  0  3  0  1  2  0  2  2  1  5  1  7  4  1  4  4  2  6
  4  6  7  2  0  2  5  6  8  0 13 12  1 11 10  3  7 10  3 13  4  3 18 13
  3 10 12  3 16 14  1  2 16  2  1  1  2 22 23  1  3 14  5 19 15  5 19 20
  0 21 21 19 18 14  4]"
6300,342,1.0,7,3,1050.5108728408813,145.15989065170288,0,806400,5085707,37932764,"[ 0  3  1  3  2  0  0  3  0  2  0  1  2  2  1  0  8  2  4  7  5  4  3  4
  0  8  2  2  0  2  5  6  8  2  7 11  4  9  1  2  2 10  3 13  4  3 18 13
  4 16 17  4 15  0  0 10 16  2 17 16  3  2 23  5  0  0  1  3 18  0 19 14
  4  1 17 19 18 14  4]"
6400,342,1.0,7,3,1064.6639246940613,141.53051853179932,0,819200,5153815,38408561,"[ 0  3  1  4  0  3  0  3  0  3  3  0  2  2  1  4  3  6  0  8  1  1  2  3
  2  6  1  2  0  2  5  6  8  3  7  0  1 12  0  5 13 10  3 13  4  5 18 13
  5 10 10  3  0 12  1  0  9  4 17 16  1 18 19  1 22 17  2  1 23  1 16 17
  3 19 16 19 18 14  4]"
6500,342,1.0,7,3,1078.7556455135345,140.91720819473267,0,832000,5221477,38881398,"[ 0  3  1  0  3  3  0  3  0  5  3  3  2  2  1  3  3  0  3  7  3  5  0  4
  0  2  7  2  0  2  5  6  8  0 13  6  2  1 10  0  9  6  3 13  4  5 18 13
  5  2  0  2  2 10  0  1  3  5 18 14  5  0  0  2 15  1  3  2 14  2 20 23
  5 22  3 19 18 14  4]"
6600,342,1.0,7,3,1092.7141814231873,139.5853590965271,0,844800,5289034,39352703,"[ 0  3  1  4  0  2  0  3  0  4  0  0  2  2  1  4  7  8  3  2  2  2  8  8
  1  2  3  2  0  2  5  6  8  4  8 11  0  9  2  0  9  0  3 13  4  5 18 13
  1 15  1  3 12 16  1 14 18  1 14  3  4  0 20  2 21  1  3  3 19  0 16 14
  4 14 20 19 18 14  4]"
6700,342,1.0,7,3,1106.8522050380707,141.38023614883423,0,857600,5357947,39833417,"[ 0  3  1  2  3  2  0  3  0  0  0  3  2  2  1  2  8  2  5  0  2  0  0  0
  1  5  2  2  0  2  5  6  8  4 10  6  5  7  2  5  5 10  3 13  4  5 18 13
  2 11 17  0 15 13  1 18  0  3 14 16  4  0 19  4  0  3  0 21 17  4 15 15
  1 17 20 19 18 14  4]"
6800,342,1.0,7,3,1121.1769032478333,143.24698209762573,0,870400,5426570,40312351,"[ 0  3  1  3  0  0  0  3  0  0  2  2  2  2  1  4  4  4  1  4  5  0  4  1
  3  3  6  2  0  2  5  6  8  5 10  9  1  4 13  3  5  9  3 13  4  5 18 13
  3  9 10  5 10 14  3 17 14  0 15 11  5  3  3  5 14 17  0  1  1  2 16  3
  3  2 16 19 18 14  4]"
6900,342,1.0,7,3,1135.2618312835693,140.84928035736084,0,883200,5494268,40785015,"[ 0  3  1  0  3  0  1  1  0  0  1  1  2  2  1  1  6  8  1  5  0  5  4  0
  5  2  8  2  0  2  5  5  8  4  1  1  1 12  5  5  3  0  3 13  4  5 18 13
  2 14  0  1  3  2  2  9 10  1 17 16  0  1 16  2 21 20  3  1 21  2 16 22
  4  2 21 19 18 14  4]"
7000,342,1.0,7,3,1149.3537418842316,140.91910600662231,0,896000,5562376,41259739,"[ 0  3  1  0  3  0  5  2  3  2  1  2  2  0  2  1  6  8  2  6  7  1  5  7
  5  5  1  2  0  2  5  5  7  3 13  4  2  3  2  4  6  6  3 13  4  5 18 13
  4  2 15  5  3 17  1 14 10  0  0  2  0 20 15  4 19 15  5  0 20  3 18  2
  3  2 18 19 18 14  4]"
7100,342,1.0,7,3,1163.2627594470978,139.0901756286621,0,908800,5629601,41728257,"[ 0  3  1  0  3  0  1  3  1  1  1  2  2  2  1  1  2  8  1  1  2  1  6  5
  1  0  1  2  0  2  5  5  8  2  7  4  0  8 12  3 13 11  3 13  4  5 18 13
  3 14  3  5  1 13  4 10 11  0  1  3  1 22 22  3 22  2  4 18 17  0  3 20
  0 16  2 19 18 14  4]"
7200,342,1.0,7,3,1177.178232908249,139.15473461151123,0,921600,5696833,42198218,"[ 0  3  1  0  3  0  2  3  2  2  0  0  2  2  1  4  6  3  3  5  3  1  7  8
  3  8  0  2  0  2  5  5  8  4  1  2  4  8  3  1  7 12  3 13  4  3 18 13
  5 16  3  2 12  2  1  0 17  2 16  9  5 19 20  1 16 16  1 15 16  2 22 20
  2  2 21 19 18 14  4]"
7300,342,1.0,7,3,1191.240534543991,140.62301635742188,0,934400,5764849,42673323,"[ 0  3  1  0  3  0  5  3  1  2  0  3  2  2  1  4  2  4  1  3  3  1  8  1
  4  0  5  2  0  2  5  5  8  2  0  0  2 11  8  4  9 11  3 13  4  5 18 13
  1 16 15  1  2 10  5  0 17  4 18 12  5  2 21  3 19  2  0 20 17  2 20 17
  0 19 18 19 18 14  4]"
7400,342,1.0,7,3,1205.5675983428955,143.2706379890442,0,947200,5832514,43145797,"[ 0  3  1  0  3  0  4  0  3  0  1  0  2  2  1  0  7  0  1  6  6  4  5  4
  5  8  5  2  0  2  5  5  8  1  6  2  4  7 13  4  9  4  3 13  4  5 18 13
  2 10  0  4 12  3  2 17 15  2  9  2  3 23 20  2  0 18  2 20  0  3 16  3
  0 16 18 19 18 14  4]"
7500,342,1.0,7,3,1219.6228656768799,140.55267333984375,0,960000,5900120,43617257,"[ 0  3  1  0  3  0  4  0  1  2  1  3  2  2  1  2  5  7  1  3  7  2  6  1
  1  1  5  2  0  2  5  5  8  2 13  2  5 13  1  5  1 11  3 13  4  3 18 13
  4 17 17  5 10  1  2 10 14  5 12  2  3 17 19  2 17  1  2 16 22  5  2  2
  2  3  1 19 18 14  4]"
7600,342,1.0,7,3,1234.0329864025116,144.10120725631714,0,972800,5968919,44099178,"[ 0  3  1  0  3  0  3  2  1  0  2  3  2  2  1  2  8  6  1  5  6  3  2  2
  3  8  5  2  0  2  5  5  8  1  2  9  4 12  5  1 12  2  3 13  4  3 18 13
  2 17 18  5 15  0  2 11 13  1 18 12  3 17 16  1 14  3  1 16  0  0  1 21
  2  3 16 19 18 14  4]"
7700,342,1.0,7,3,1248.2875127792358,142.54526376724243,0,985600,6037089,44575160,"[ 0  3  1  0  3  0  2  1  3  3  2  1  2  2  1  4  1  8  0  1  5  5  0  5
  3  3  2  2  0  2  5  5  8  5  8  8  2  1  7  0  7  5  3 13  4  3 18 13
  2 12  2  3 17 17  4 10  1  1  3  9  0  3  2  5 17 17  1 19 23  2 18 18
  2 17  2 19 18 14  4]"
7800,342,1.0,7,3,1262.4986670017242,142.11154222488403,0,998400,6105801,45054803,"[ 0  3  1  0  3  0  1  2  3  1  0  0  2  2  1  1  8  5  0  7  5  0  0  8
  0  8  7  2  0  2  5  5  8  5 13  9  1  6  3  4 11  3  3 13  4  5 18 13
  0 16 15  5 16  0  2 18 14  0  1 13  1 17 23  1 15 16  4 20  2  3 18 19
  4  3  0 19 18 14  4]"
7900,342,1.0,7,3,1276.5301222801208,140.31455278396606,0,1011200,6173548,45527241,"[ 0  3  1  0  3  0  1  0  3  1  2  0  2  2  1  1  2  3  0  8  6  3  1  0
  3  3  4  2  0  2  5  5  8  5  9  3  3 11  9  3  1  4  3 13  4  3 18 13
  5 14 14  5  0 13  5 17 16  0 10 13  1 23 19  2 16 19  4 21  3  5 22 19
  4 19  2 19 18 14  4]"
8000,342,1.0,7,3,1290.755000591278,142.24878311157227,0,1024000,6241473,46001845,"[ 0  3  1  0  2  0  0  0  3  4  0  3  2  2  1  2  3  7  5  2  7  0  6  6
  2  0  1  2  0  2  5  6  8  0  0 11  1 13  2  2  3  1  3 13  4  5 18 13
  0 13 16  4 15 11  1 14  9  1  2 12  5 23 23  2 19 23  2 19  1  5 15 14
  3 23 17 19 18 14  4]"
8100,342,1.0,7,3,1305.3417809009552,145.86780309677124,0,1036800,6310707,46484281,"[ 0  3  1  5  0  1  0  0  3  5  3  2  2  2  1  2  3  4  1  5  5  5  8  0
  1  4  1  2  0  2  5  6  8  0  4  0  5  9 11  2 12  8  3 13  4  5 18 13
  1 15  0  2 12 18  1 11 14  0  0  0  4 14 19  0  1 21  5  0 20  0 19 15
  2 19 16 19 18 14  4]"
8200,342,1.0,7,3,1319.3133997917175,139.7161889076233,0,1049600,6377142,46947476,"[ 0  3  1  5  1  2  0  0  3  2  3  2  2  2  1  5  6  3  2  6  4  4  0  6
  4  8  3  2  0  2  5  6  8  5  0  4  5 10  2  4  4 12  3 13  4  3 18 13
  1  3  3  1  3 13  2 11  2  0 18 12  4 14 23  0  2 23  4 20  1  1  2 17
  5  2  0 19 18 14  4]"
8300,342,1.0,7,3,1333.5568854808807,142.43485689163208,0,1062400,6444830,47419915,"[ 0  3  1  0  0  1  0  0  3  2  3  2  2  2  1  2  8  3  2  0  2  2  6  4
  5  5  5  2  0  2  5  6  8  5  6 12  0  9  4  4  7  5  3 13  4  5 18 13
  3  0  9  3 13 18  5 14 10  1 11 18  0 22  1  5  2 14  1 17 14  3 17 17
  0 15 20 19 18 14  4]"
8400,342,1.0,7,3,1347.8968002796173,143.39914798736572,0,1075200,6515100,47911340,"[ 0  3  1  0  0  1  0  0  3  4  0  1  2  2  1  2  3  5  0  4  1  1  7  2
  0  8  8  2  0  2  5  6  8  4  5 12  5  9 12  1  8 12  3 13  4  3 18 13
  0 10  2  1  3 16  3 17 15  1 12 18  2 17 22  5 18  3  0  0 14  2 17 20
  4  0 20 19 18 14  4]"
8500,342,1.0,7,3,1362.1770689487457,142.80268669128418,0,1088000,6584065,48392350,"[ 0  3  1  5  1  1  0  0  3  4  1  1  2  2  1  0  7  8  3  5  7  3  8  1
  4  0  8  2  0  2  5  6  8  2  8  1  4  9  1  4  8  0  3 13  4  3 18 13
  1  9 15  5 12  9  1 14 14  4  9 16  0 15 19  4 14 17  4  0 15  2 20 16
  1 20 19 19 18 14  4]"
8600,342,1.0,7,3,1376.2145755290985,140.37506580352783,0,1100800,6652265,48869055,"[ 0  3  1  1  3  3  0  0  3  3  1  2  2  2  1  3  2  8  2  5  3  2  6  5
  4  2  7  2  0  2  5  6  8  4  3  6  4  7 11  0  9  9  3 13  4  5 18 13
  2 18 10  5 13 11  3 14 14  3 16 16  0 20  3  5 15 20  2 17 15  3 16 19
  0 19 23 19 18 14  4]"
8700,342,1.0,7,3,1390.0739212036133,138.5934567451477,0,1113600,6718380,49330889,"[ 0  3  1  5  0  1  0  0  3  1  1  0  2  2  1  4  2  4  1  1  6  2  4  2
  1  2  3  2  0  2  5  6  8  1  9  2  2 10 11  3  0  6  3 13  4  3 18 13
  1 16  3  1 18 11  2 11  0  2  1  2  5 21 16  2 23 18  2 17  0  2 21 20
  3 22  3 19 18 14  4]"
8800,342,1.0,7,3,1404.4605600833893,143.86638879776,0,1126400,6787873,49815985,"[ 0  3  1  2  1  1  0  0  3  1  0  3  2  2  1  1  1  5  1  7  4  3  4  2
  4  6  8  2  0  2  5  6  8  0 10  8  0  5 11  0 12  0  3 13  4  3 18 13
  3 14 18  5 15  1  2 10 11  5 12 14  3 16 16  4 22  0  0 19 16  2 14 19
  5  0 17 19 18 14  4]"
8900,342,1.0,7,3,1418.4454460144043,139.84885931015015,0,1139200,6855493,50288044,"[ 0  3  1  5  2  2  0  0  3  0  2  0  2  2  1  5  7  4  0  3  6  2  8  8
  5  6  8  2  0  2  5  6  8  4 12 13  0  9  4  0 11 12  3 13  4  3 18 13
  5 16  0  1  0 17  0  2 11  3  1 16  5  3 18  3  3 19  4 21  2  5 22 15
  0  0 14 19 18 14  4]"
9000,342,1.0,7,3,1432.576021194458,141.3057518005371,0,1152000,6925734,50777659,"[ 0  3  1  5  0  2  0  0  3  3  0  3  2  2  1  1  0  6  0  6  8  3  0  2
  4  1  2  2  0  2  5  6  8  1 10  0  1  7  2  2  0  9  3 13  4  5 18 13
  2 15 18  1 18  3  4 12  0  3 18 12  2 15 17  5  2 14  3 18 14  5 16  1
  3 21  0 19 18 14  4]"
9100,342,1.0,7,3,1446.7423911094666,141.66369915008545,0,1164800,6994794,51259709,"[ 0  3  1  0  0  3  0  0  3  4  0  3  2  2  1  0  4  3  3  0  3  2  0  3
  4  8  3  2  0  2  5  6  8  3  0 10  4 10  8  4  0  3  3 13  4  3 18 13
  2 11 15  2 11 10  0 18 14  3  0 14  4  1 16  5  3 15  1 20 14  3 21 14
  3 21 15 19 18 14  4]"
9200,342,1.0,7,3,1460.744844198227,140.02453088760376,0,1177600,7063054,51735839,"[ 0  3  1  1  3  3  0  0  3  2  1  2  2  2  1  5  0  3  4  1  1  5  5  4
  2  0  4  2  0  2  5  6  8  5  0  0  4  8  6  1  4  8  3 13  4  5 18 13
  5 13 18  3 18 10  1  3 13  1  2 10  0 14  0  0 20 23  0  2 15  5 16 19
  4 21 21 19 18 14  4]"
9300,342,1.0,7,3,1475.173947095871,144.29102897644043,0,1190400,7132499,52220566,"[ 0  3  1  3  0  1  0  0  3  3  2  3  2  2  1  0  6  7  5  5  4  3  0  6
  0  6  3  2  0  2  5  6  8  5  3  5  4  5  6  3  6  0  3 13  4  5 18 13
  5 16 14  0 16  3  0 11 10  2 17  2  0 20 14  5 22  2  5 18  2  3 15  1
  5 17  1 19 18 14  4]"
9400,342,1.0,7,3,1489.4760682582855,143.0212116241455,0,1203200,7199775,52690222,"[ 0  3  1  3  2  3  3  3  3  3  2  0  2  2  1  1  0  4  0  0  3  1  4  5
  3  8  2  2  0  2  5 10  8  2  4  3  5 11  1  0  0  9  3 13  4  5 18 13
  5  9  2  1 15  1  4  2 10  4 17 14  1 23 19  2 17 20  2 16 18  5 17 22
  2 16 19 19 18 14  4]"
9500,342,1.0,7,3,1503.4912285804749,140.1516032218933,0,1216000,7265048,53146071,"[ 0  3  1  0  2  3  4  1  2  4  2  3  2  2  1  2  7  3  0  0  3  5  5  0
  4  1  2  2  0  2  5 10  8  0 13  1  2  3 11  5  1 11  3 13  4  3 18 13
  2 14 10  3 16 17  4 17 16  4 15 13  1 16  0  1 15  3  1  2 15  4 19 16
  4 21 21 19 18 14  4]"
9600,342,1.0,7,3,1517.3018207550049,138.1059217453003,0,1228800,7330624,53604235,"[ 0  3  1  3  2  2  2  1  2  0  0  3  4  3  1  3  4  6  0  2  1  3  3  0
  3  0  3  2  0  2  5  7  6  0  8  6  1  1  6  0 10  8  3 13  4  5 18 13
  2 15  1  2 10 10  5  3 16  5  1 18  5 23  0  1 22  1  4 23 20  1 19  3
  1  2 15 19 18 14  4]"
9700,342,1.0,7,3,1531.6048748493195,143.03054094314575,0,1241600,7399045,54082412,"[ 0  3  1  3  3  3  2  1  2  0  0  3  3  3  1  0  6  1  4  2  0  5  5  5
  1  3  4  2  0  2  5  7  6  1  8  6  1 11  4  4  7  0  3 13  4  5 18 13
  2  9  3  5  0  1  0  0  2  1 16 16  4 14 17  0 20  1  4 23 14  0 21 14
  3 14 21 19 18 14  4]"
9800,342,1.0,7,3,1545.6749050617218,140.70030212402344,0,1254400,7465931,54549549,"[ 0  3  1  3  0  3  2  1  2  0  0  3  5  3  2  5  4  2  2  6  6  5  5  4
  5  3  7  2  0  2  5  7  6  0  6  9  5 12  0  0 13  4  3 13  4  3 18 13
  4 11  3  4  0 16  3  3 11  3 17 17  4  1 17  0 21 15  2  2  0  1 19 18
  3 18 16 19 18 14  4]"
9900,342,1.0,7,3,1559.7999761104584,141.25071048736572,0,1267200,7533303,55019146,"[ 0  3  1  3  2  3  2  1  2  0  0  3  0  1  2  1  7  4  5  2  8  3  5  7
  3  1  8  2  0  2  5  7  6  0  9  1  2  5  2  2  2 13  3 13  4  3 18 13
  5 14 14  1 13 15  5  3 12  5  2  9  1  3 15  3 15 17  0 18 22  3 17 17
  3  2 20 19 18 14  4]"
10000,342,1.0,7,3,1574.4357542991638,146.35778188705444,0,1280000,7603760,55510345,"[ 0  3  1  4  0  1  2  1  2  0  0  3  0  2  0  5  2  4  0  6  0  3  1  1
  4  8  1  2  0  2  5  7  6  5  6 11  4  8 11  4  7  0  3 13  4  5 18 13
  1  1  9  3 12 16  4  9 15  3 18 15  2 21 15  0 16 20  3  0  1  1  2 22
  5 14 15 19 18 14  4]"
10100,342,1.0,7,3,1589.067325592041,146.31571292877197,0,1292800,7672016,55987056,"[ 0  3  1  3  2  1  2  1  2  0  0  3  0  1  2  5  0  3  0  6  1  0  3  0
  5  7  8  2  0  2  5  7  6  5  7  4  4  5  7  3  0 13  3 13  4  3 18 13
  5 17  9  4 11 11  1  3 13  1 12  0  0 20  2  1  3 16  2  3  3  1 19 22
  3 17 18 19 18 14  4]"
10200,342,1.0,7,3,1603.3352282047272,142.67902612686157,0,1305600,7740236,56463377,"[ 0  3  1  2  0  2  2  1  2  0  0  3  2  1  0  2  7  8  4  1  8  1  7  2
  3  2  3  2  0  2  5  7  6  0  9  9  3 10  9  4  3  7  3 13  4  5 18 13
  5  9  9  3 16  0  0 11 12  2 14 18  4 23 20  4 22 20  2 14  0  5 17  3
  3 17 21 19 18 14  4]"
10300,342,1.0,7,3,1617.3386535644531,140.03425359725952,0,1318400,7806642,56927024,"[ 0  3  1  3  2  2  2  1  2  0  0  3  5  3  3  5  2  8  2  5  6  5  0  4
  5  4  6  2  0  2  5  7  6  4 13  3  0  9  9  5  1  9  3 13  4  3 18 13
  3 17  1  1 13 17  3 13  0  2 15 18  1 23 20  4 21 16  2 23 18  4  1  0
  4 17 16 19 18 14  4]"
10400,342,1.0,7,3,1631.8181450366974,144.79491472244263,0,1331200,7875427,57407268,"[ 0  3  1  5  1  3  2  1  2  0  0  3  3  1  2  5  3  0  5  8  2  4  4  2
  5  2  0  2  0  2  5  7  6  1 13  7  5 12  0  4  5  6  3 13  4  5 18 13
  3 16 10  1 12 13  3 17 12  5 12 14  0 22 17  1 17 19  5 14 23  3 16 18
  0 22 16 19 18 14  4]"
10500,342,1.0,7,3,1646.337167263031,145.19022226333618,0,1344000,7944856,57892750,"[ 0  3  1  4  1  0  2  1  2  0  0  3  0  0  1  2  7  8  1  6  1  2  6  2
  2  3  2  2  0  2  5  7  6  5  8 12  5  8 11  4  5 11  3 13  4  5 18 13
  3 16 16  2  2 12  0 13 10  4 12 17  2 20 21  5  0 18  2 21 20  2  3 23
  0  2 16 19 18 14  4]"
10600,342,1.0,7,3,1661.1746547222137,148.3748745918274,0,1356800,8013266,58371043,"[ 0  3  1  5  2  1  2  1  2  0  0  3  5  1  0  1  4  8  3  4  3  5  5  7
  5  8  1  2  0  2  5  7  6  3  3  9  3  6  7  3  5  3  3 13  4  3 18 13
  4  3 13  4 14  2  0 12 15  4 14 13  4 23  2  5 16  3  0 21  0  0 21 22
  5 23 18 19 18 14  4]"
10700,342,1.0,7,3,1675.5591101646423,143.8445544242859,0,1369600,8082121,58852156,"[ 0  3  1  4  0  0  2  1  2  0  0  3  5  3  2  0  7  6  4  2  4  4  5  6
  3  6  7  2  0  2  5  7  6  5  3  7  2  1 11  0  3 11  3 13  4  3 18 13
  4 17 12  2  9 13  5  9 10  0  0 16  5 23 23  1 21 14  5 22 22  3 22 22
  4 14 15 19 18 14  4]"
10800,342,1.0,7,3,1689.8327882289886,142.73678064346313,0,1382400,8150796,59332161,"[ 0  3  1  0  1  1  2  1  2  0  0  3  5  1  0  5  1  6  3  8  6  4  8  7
  1  1  7  2  0  2  5  7  6  2  0 13  5  8 11  3 12  4  3 13  4  3 18 13
  0 11  3  1 13 16  4 17  3  3  9  2  1 22 14  2 14 20  4 15  2  5 19  3
  4  0 20 19 18 14  4]"
10900,342,1.0,7,3,1704.1925704479218,143.59782218933105,0,1395200,8218540,59804169,"[ 0  3  1  5  0  2  2  1  2  0  0  3  0  0  0  1  3  0  2  4  4  1  0  2
  3  0  4  2  0  2  5  7  6  3  7  0  1  5 13  2  0  6  3 13  4  5 18 13
  1 16  2  4  2  2  5 11  0  3  1  1  5 19 21  2 14 18  1  3  2  4 20  0
  5 14 21 19 18 14  4]"
11000,342,1.0,7,3,1718.3769154548645,141.8434500694275,0,1408000,8287177,60282913,"[ 0  3  1  3  3  1  2  1  2  0  0  3  0  3  2  1  2  6  1  1  1  5  2  1
  3  6  0  2  0  2  5  7  6  3  1 10  3  0  5  0  2 10  3 13  4  3 18 13
  0 17 14  3  0  0  5 12  2  0 15  9  3 16 19  4  0 20  4  0 20  1 17 16
  1  0 21 19 18 14  4]"
11100,342,1.0,7,3,1732.6455912590027,142.68675804138184,0,1420800,8355906,60763244,"[ 0  3  1  4  2  1  2  1  2  0  0  3  4  1  2  4  7  5  1  8  2  2  4  6
  3  7  5  2  0  2  5  7  6  3  0  2  0  2  9  1  5  2  3 13  4  3 18 13
  3  0 18  0  3 17  5  1  1  2 14 13  2 19 19  2 19 18  5  1 22  0 20 16
  4  0  2 19 18 14  4]"
11200,342,1.0,7,3,1747.0672516822815,144.2166042327881,0,1433600,8423526,61235710,"[ 0  3  1  2  0  0  2  1  2  0  0  3  4  2  2  5  0  1  2  1  1  5  8  6
  4  7  8  2  0  2  5  7  6  0 10  7  2  8  9  5  8  8  3 13  4  3 18 13
  5 11  1  4 13 12  4 10  1  2  1 18  5  2 14  1 22 15  2 23 20  5  2 16
  3  2 18 19 18 14  4]"
11300,342,1.0,7,3,1761.3203983306885,142.53146648406982,0,1446400,8492743,61718515,"[ 0  3  1  2  1  0  2  1  2  0  0  3  2  1  2  4  3  0  4  1  1  4  1  6
  4  4  5  2  0  2  5  7  6  0 13 12  0  6 12  5  5 10  3 13  4  5 18 13
  0  2 17  3 10  1  2  3  1  0  0 14  0 20 18  2 19 18  1 17  0  5  3 21
  1  1 23 19 18 14  4]"
11400,342,1.0,7,3,1775.4448137283325,141.24415397644043,0,1459200,8560553,62192057,"[ 0  3  1  2  1  3  2  1  2  0  0  3  0  2  1  4  7  2  3  1  4  2  6  2
  4  5  6  2  0  2  5  7  6  5  2  1  0 11  7  0  8  5  3 13  4  3 18 13
  2  3 10  4 17 17  1  1  1  1 16 10  5 17 21  4 23 23  5 14  0  4 20 18
  0 16  3 19 18 14  4]"
11500,342,1.0,7,3,1789.682376384735,142.37562656402588,0,1472000,8628365,62665386,"[ 0  3  1  5  0  2  2  1  2  0  0  3  3  2  3  0  2  1  0  8  7  1  6  0
  2  5  3  2  0  2  5  7  6  2  7  9  0 12 13  4  3  5  3 13  4  3 18 13
  3 12 16  0  9 10  2  2  1  1 11 13  5 20 16  1 18 19  2  2 14  5  1 22
  3 16 23 19 18 14  4]"
11600,342,1.0,7,3,1804.0356669425964,143.53290557861328,0,1484800,8696720,63142820,"[ 0  3  1  4  3  2  2  2  3  0  0  3  2  2  3  5  4  0  5  4  3  2  2  1
  2  1  1  2  0  2  5  7 11  2  3 12  4  2  8  5 13  6  3 13  4  3 18 13
  5  0 10  2 16 12  1  1 16  3 11 13  1  3 15  2 21 22  3 19 23  2 21  2
  0  0  3 19 18 14  4]"
11700,342,1.0,7,3,1817.6934282779694,136.57761335372925,0,1497600,8761244,63593741,"[ 0  3  1  2  0  2  2  3  1  0  0  3  2  3  1  1  8  5  1  7  2  2  2  1
  3  8  3  2  0  2  5  7 11  2  8  1  1 12 13  4 13  0  3 13  4  5 18 13
  0 12 18  4  9 12  0  0 12  3  2 11  1 18 17  2 21 22  4 23 17  0 21 14
  3 16 15 19 18 14  4]"
11800,342,1.0,7,3,1831.8776276111603,141.84199333190918,0,1510400,8827626,64058111,"[ 0  3  1  0  3  0  5  0  3  0  0  0  1  1  0  2  6  2  0  6  8  2  2  1
  0  6  1  2  0  2  5  5 11  5  0  5  0  0  6  1  8 10  3 13  4  5 18 13
  1 13  2  1 16  1  0 17  1  0 13  3  1 23  3  1 22 20  1 21  2  2  1 20
  0 17  0 19 18 14  4]"
11900,342,1.0,7,3,1846.3005170822144,144.22889471054077,0,1523200,8895281,64530961,"[ 0  3  1  0  3  0  5  0  2  1  2  3  5  3  3  4  8  3  1  7  6  2  2  1
  4  1  1  2  0  2  5  5 11  4 12  4  4  3  8  2  1  9  3 13  4  3 18 13
  3 15 13  5 13 13  3  9  9  0  3 18  2  2 20  3 22 19  2 20 20  4 23 14
  3 20 19 19 18 14  4]"
12000,342,1.0,7,3,1859.861824274063,135.61307191848755,0,1536000,8960079,64983635,"[ 0  3  1  0  3  0  3  3  2  4  0  1  0  1  0  5  8  0  4  2  6  2  2  1
  3  4  1  2  0  2  5  5 11  2  2  7  3  4 12  4  0 10  3 13  4  5 18 13
  3 15 16  3 14  1  0  9  0  3 13  3  4 17 21  2 20  1  0  0 15  4 20 16
  4  2 21 19 18 14  4]"
12100,342,1.0,7,3,1874.0429589748383,141.81134700775146,0,1548800,9026961,65450856,"[ 0  3  1  0  3  0  0  0  2  3  2  1  4  0  2  2  2  0  5  0  1  2  2  1
  4  3  5  2  0  2  5  5 11  1  5  4  5  2  5  3 12  7  3 13  4  3 18 13
  3 12 12  5 12 16  2  3 14  0 14  0  5 18 21  2 22 20  2  2 14  3  2 15
  1  0 21 19 18 14  4]"
12200,342,1.0,7,3,1888.0917463302612,140.48787355422974,0,1561600,9093855,65917238,"[ 0  3  1  0  3  0  5  3  0  3  3  3  2  2  0  5  8  3  3  6  2  2  2  1
  4  0  5  2  0  2  5  5 11  4  1  8  5  9  1  5  0  3  3 13  4  3 18 13
  4  3  1  5 10 16  3  2 11  2 12 14  0 14 17  5  0 14  2 18 22  1  1  2
  1 17 14 19 18 14  4]"
12300,342,1.0,7,3,1901.7884633541107,136.96717023849487,0,1574400,9157978,66364940,"[ 0  3  1  0  3  0  0  1  2  5  3  3  5  3  0  4  4  4  3  4  3  2  2  1
  4  4  1  2  0  2  5  5 11  0  1 10  2  3  6  4  5  7  3 13  4  5 18 13
  0 17 13  5  0  3  0 18  2  3 10 16  3 17  3  3 14 18  0 21  2  5 17 17
  1 18 14 19 18 14  4]"
12400,342,1.0,7,3,1915.8338928222656,140.45429468154907,0,1587200,9224381,66828068,"[ 0  3  1  0  3  0  0  3  1  0  1  0  2  3  0  2  1  5  2  5  6  2  2  1
  0  6  6  2  0  2  5  5 11  3 11  0  1  2  1  2  2  0  3 13  4  5 18 13
  5 11  1  3  9 14  1 16  0  3 12  2  2 16 18  2 21 22  2 14  3  5  2 22
  2 18  2 19 18 14  4]"
12500,342,1.0,7,3,1929.7384042739868,139.0451145172119,0,1600000,9291380,67295972,"[ 0  3  1  0  3  0  0  2  2  2  3  1  2  2  1  2  5  4  3  4  2  5  4  1
  4  4  4  2  0  2  5  5  8  3  0 12  3  4  1  0  2  3  3 13  4  3 18 13
  2  3 17  2 15 12  0 16 12  4 12  1  3  3  1  5 20 22  0 23 15  4 21 18
  2 21 18 19 18 14  4]"
12600,342,1.0,7,3,1943.709273815155,139.70869541168213,0,1612800,9359905,67774177,"[ 0  3  1  0  3  0  0  3  1  2  1  2  5  3  2  4  2  2  0  5  4  2  3  0
  4  4  8  2  0  2  5  5  7  2 12 13  2  4 10  1  2  4  3 13  4  5 18 13
  2 13 16  2  1 18  2  1 13  5 16 17  5  2 16  1 17 22  3 16  0  5 20 22
  4 15 22 19 18 14  4]"
12700,342,1.0,7,3,1958.1474418640137,144.38168048858643,0,1625600,9427506,68245434,"[ 0  3  1  0  3  0  5  2  3  2  1  2  3  1  3  1  5  2  0  7  8  0  3  3
  1  7  7  2  0  2  5  5  7  0  0  4  1 12  6  5  0  3  3 13  4  5 18 13
  4 17 12  1 16  2  2  2  9  4  0 14  5  2 23  2  2 22  5 15  0  2 17 23
  3 15 22 19 18 14  4]"
12800,342,1.0,7,3,1972.2175526618958,140.7011079788208,0,1638400,9495001,68716932,"[ 0  3  1  0  3  0  3  3  1  2  1  2  0  3  0  5  7  3  3  1  4  2  0  1
  2  0  5  2  0  2  5  5  7  0  5  8  4  4 11  2  5 10  3 13  4  5 18 13
  2 10  3  5 17  9  4 13  2  2  3 12  4  1 15  4  1 23  0 19  2  1 19 19
  2 14 14 19 18 14  4]"
12900,342,1.0,7,3,1986.209350347519,139.9179768562317,0,1651200,9562610,69188887,"[ 0  3  1  0  3  0  1  3  1  2  1  2  1  3  1  5  6  8  0  8  2  3  4  4
  2  7  5  2  0  2  5  5  7  0  0 13  5  1  8  2 13  9  3 13  4  3 18 13
  2 10 10  3 10  3  2  3 13  5 15  2  2 17 23  1 22  2  2 17 15  4 19 19
  1  2 23 19 18 14  4]"
13000,342,1.0,7,3,2000.5541310310364,143.44780683517456,0,1664000,9630752,69664961,"[ 0  3  1  0  3  0  5  3  0  2  1  2  0  2  3  2  1  8  2  1  5  3  1  0
  5  6  2  2  0  2  5  5  7  3  6  2  2 11  6  4  3  1  3 13  4  3 18 13
  2 15 12  4  0  1  0 13 12  0  9 15  2 23 21  3 14 20  3 19  3  3  0  2
  3 15 23 19 18 14  4]"
13100,342,1.0,7,3,2014.8042032718658,142.50072240829468,0,1676800,9699240,70142700,"[ 0  3  1  0  3  0  5  0  0  2  1  2  3  0  3  0  6  4  1  8  7  3  7  5
  0  4  8  2  0  2  5  5  7  1  5  1  1  0  7  0  5  0  3 13  4  3 18 13
  1 13 14  4  3  3  2 12 12  3  3 18  1  1 21  3 16 16  0 19  2  1 19  3
  3 18 15 19 18 14  4]"
13200,342,1.0,7,3,2028.9620013237,141.57798051834106,0,1689600,9767739,70620695,"[ 0  3  1  0  3  0  2  3  2  2  1  2  4  2  3  1  6  5  2  0  0  3  1  1
  5  2  6  2  0  2  5  5  7  0  4  5  5 12  9  2  2  7  3 13  4  3 18 13
  2 13 16  2  0 11  3 12 10  1 16 13  3 21  0  0 23 18  4 21 18  5 22 14
  3  0  3 19 18 14  4]"
13300,342,1.0,7,3,2043.438438653946,144.76437330245972,0,1702400,9837299,71106973,"[ 0  3  1  0  3  0  5  1  1  2  1  2  4  3  1  2  6  2  5  2  5  2  3  3
  5  6  6  2  0  2  5  5  7  2 10  9  0  4  1  0 13 12  3 13  4  3 18 13
  5  3 10  5 13  1  1 16  9  3 10 11  2 16 18  4 18 16  4  0 14  5 20 23
  1 20  2 19 18 14  4]"
13400,342,1.0,7,3,2057.4205067157745,139.82068061828613,0,1715200,9904898,71579926,"[ 0  3  1  0  3  0  2  3  0  2  1  2  0  3  2  4  3  6  0  7  2  5  1  0
  5  2  6  2  0  2  5  5  7  0 10 12  0  3  0  3 13  9  3 13  4  5 18 13
  5 13  0  1 10 15  0 11  3  3  2 18  3 22  3  1  3 15  0 20 19  5 17 16
  5 18 18 19 18 14  4]"
13500,342,1.0,7,3,2071.316205263138,138.9569854736328,0,1728000,9971441,72044835,"[ 0  3  1  0  3  0  1  0  2  2  1  2  0  3  0  0  2  8  3  6  2  3  5  8
  2  2  1  2  0  2  5  8 12  0  2  4  3  6  4  2 12  9  3 13  4  3 18 13
  2  1 12  2 17  0  1  3  0  1  1 17  4 16  0  1 23 23  2 18 18  0 22 15
  4 21 14 19 18 14  4]"
13600,342,1.0,7,3,2085.656231880188,143.4002661705017,0,1740800,10039320,72518401,"[ 0  3  1  2  1  2  2  0  0  1  2  2  0  3  0  1  2  7  0  6  4  0  2  2
  1  5  1  2  0  2  5  8  5  3  5  7  4  8 10  5  2 12  3 13  4  5 18 13
  5 11 16  0 10 12  5  2  0  1 18  3  5 16 18  1 21  2  4 17 17  4 21 15
  2 21  2 19 18 14  4]"
13700,342,1.0,7,3,2100.0507016181946,143.94469738006592,0,1753600,10108132,72998661,"[ 0  3  1  2  1  2  3  0  1  3  3  1  0  3  0  1  0  6  2  1  7  0  3  3
  3  6  4  2  0  2  5  8  5  0  4 10  0  8  6  1 10 12  3 13  4  3 18 13
  5  3 10  4 14 11  4 11 11  3 15 15  2 17 17  4 15 19  3  3 20  1 19 21
  4 20  3 19 18 14  4]"
13800,342,1.0,7,3,2114.3008267879486,142.50125169754028,0,1766400,10177394,73482529,"[ 0  3  1  2  1  2  0  0  1  3  1  1  0  3  0  2  5  4  2  3  2  0  2  7
  0  7  3  2  0  2  5  8  5  2  0  3  0  0  1  4  0  1  3 13  4  3 18 13
  1 13  1  4 18  9  3 13 18  2 18  9  3 17 17  3 14 21  1 22 19  2 17 17
  2  1 23 19 18 14  4]"
13900,342,1.0,7,3,2128.905497074127,146.0467028617859,0,1779200,10246118,73962155,"[ 0  3  1  2  1  2  3  0  1  3  3  0  0  3  0  5  2  6  1  0  5  4  3  3
  3  2  7  2  0  2  5  8  5  5 13 12  0  1  2  0  6  9  3 13  4  5 18 13
  3 12  9  1  0  9  5  9 16  3  1 13  4 14 15  3 20  3  0  0  2  4 17 14
  3 22 17 19 18 14  4]"
14000,342,1.0,7,3,2143.065608024597,141.6011095046997,0,1792000,10313004,74428426,"[ 0  3  1  2  1  2  3  1  0  1  1  1  0  3  0  2  0  0  0  6  3  1  0  2
  0  1  5  2  0  2  5  8  5  5  5  6  2  8  8  3  0  4  3 13  4  5 18 13
  3  3 10  1 13  3  4  1 18  0 18 13  3 16  1  2 15 17  0  3  3  2 18 16
  0 21 20 19 18 14  4]"
14100,342,1.0,7,3,2157.2231760025024,141.57567977905273,0,1804800,10380354,74898256,"[ 0  3  1  2  1  2  5  0  3  5  1  2  0  3  0  2  6  2  2  7  7  2  6  6
  4  3  1  2  0  2  5  8  5  5  9  4  2  9  7  4  6  3  3 13  4  5 18 13
  3  2 13  2 15  3  4 10 17  3 11 11  5 19 23  1 16  1  1 18 15  5 14 20
  0  2 17 19 18 14  4]"
14200,342,1.0,7,3,2171.432763338089,142.09587335586548,0,1817600,10448488,75374782,"[ 0  3  1  2  1  2  0  0  3  5  0  0  2  0  2  1  5  5  5  4  1  0  7  2
  0  3  2  2  0  2  5  6  5  5  0  1  2  9  2  2 12  8  3 13  4  3 18 13
  1 11  2  5 17 15  5 15 15  2 12 11  4 15 23  4 17 15  4 23 15  3 14 22
  3 22 19 19 18 14  4]"
14300,342,1.0,7,3,2186.1120376586914,146.79274320602417,0,1830400,10517860,75859402,"[ 0  3  1  2  1  2  0  0  3  4  3  2  3  2  1  0  5  1  2  4  4  4  6  7
  5  7  4  2  0  2  5  6  5  1  9  9  0  1  4  5  6  9  3 13  4  5 18 13
  0 16 12  3 11 12  2  0  3  0 17 13  1 14 21  5  0  0  2 22 22  4 20  0
  3 14  0 19 18 14  4]"
14400,342,1.0,7,3,2200.2339165210724,141.21878862380981,0,1843200,10586181,76336892,"[ 0  3  1  2  1  2  0  0  3  0  0  3  4  0  0  0  4  7  0  2  1  5  1  0
  2  8  3  2  0  2  5  6  5  2 11  1  5 12  5  1  8 11  3 13  4  3 18 13
  4  3 16  2  3 11  1  2 10  4 13 12  0 23 20  0  1 16  4 19 14  1 19 16
  4 22  0 19 18 14  4]"
14500,342,1.0,7,3,2214.397053718567,141.63137197494507,0,1856000,10654651,76815281,"[ 0  3  1  2  1  2  0  0  3  1  0  0  4  3  2  1  1  0  0  6  0  5  1  7
  1  0  4  2  0  2  5  6  5  0  0 13  1 11  8  1  1 13  3 13  4  5 18 13
  1 15  0  4 17  0  1  2 15  4 13 11  3 21 20  1  1  0  1 17 17  4 22 23
  4 22 16 19 18 14  4]"
14600,342,1.0,7,3,2228.4418988227844,140.4484510421753,0,1868800,10721312,77281288,"[ 0  3  1  2  1  2  1  0  2  0  3  0  5  1  3  2  6  1  4  1  7  3  7  2
  1  6  0  2  0  2  5  7  5  2  0  4  2 11  3  2  0 11  3 13  4  5 18 13
  3 14 17  1 14 13  2 10 15  1 13 14  3 18 18  1  2 22  3  2  3  2 23 18
  2 19 18 19 18 14  4]"
14700,342,1.0,7,3,2242.526999473572,140.85100650787354,0,1881600,10789901,77760000,"[ 0  3  1  2  1  2  3  1  2  0  3  0  5  1  3  3  6  8  1  4  6  5  7  8
  5  5  0  2  0  2  5  7  5  0 13  1  4 12  7  0  3  5  3 13  4  5 18 13
  2  9  2  4  0 12  2  9 10  1 12  0  1 21  2  4 21  2  2  1 20  4 22 16
  3 17 16 19 18 14  4]"
14800,342,1.0,7,3,2256.7913653850555,142.64365911483765,0,1894400,10857149,78229391,"[ 0  3  1  2  1  2  0  2  2  0  3  0  2  3  1  2  0  7  3  4  0  1  8  7
  1  6  0  2  0  2  5  7  5  2  6  8  1  5  9  3  8  2  3 13  4  5 18 13
  5 18  2  5  3 11  4 12 14  1 17 18  1 20 16  4 15 23  5 22 14  3  3  2
  2 16  0 19 18 14  4]"
14900,342,1.0,7,3,2271.188473701477,143.9710831642151,0,1907200,10925628,78708172,"[ 0  3  1  2  1  2  0  1  3  0  3  0  0  0  0  2  3  6  4  7  0  5  7  8
  0  0  4  2  0  2  5  7  5  4  7  7  4  9  5  4  0 12  3 13  4  5 18 13
  2 10 12  2 12 14  4 18 16  3 14 10  3 18  3  1 18  0  3 18 20  4 21 16
  2 22 14 19 18 14  4]"
15000,342,1.0,7,3,2285.3793189525604,141.90845251083374,0,1920000,10993826,79183864,"[ 0  3  1  2  1  2  4  0  1  0  3  0  4  0  1  5  4  7  2  5  1  0  7  6
  3  5  0  2  0  2  5  7  5  1  8  0  5 13  7  1  8  1  3 13  4  5 18 13
  4 13 15  0 17  0  3  2 11  0  9  2  2 18 21  5  1  0  2 15 14  0 14 21
  5 20 19 19 18 14  4]"
15100,342,1.0,7,3,2299.8413717746735,144.62052822113037,0,1932800,11062431,79662568,"[ 0  3  1  2  1  2  2  1  3  0  3  0  3  1  3  2  2  8  1  6  2  0  7  1
  4  1  2  2  0  2  5  7  5  3  1  8  2  7  1  0 12  9  3 13  4  5 18 13
  3 14 13  0 14 17  1 11  1  4  0 18  1 17  1  5 18 14  3 17 18  1 15 23
  0 21 16 19 18 14  4]"
15200,342,1.0,7,3,2313.912075996399,140.70704221725464,0,1945600,11130772,80139783,"[ 0  3  1  2  1  2  3  3  1  0  3  0  5  3  1  3  6  8  0  2  2  5  0  8
  2  3  0  2  0  2  5  7  5  0 10  5  1 13  6  5  5  5  3 13  4  5 18 13
  5 14 17  5 14  0  1  9  9  3 18 18  1 18 17  4 17 17  5  2 18  5 23  1
  5  3  1 19 18 14  4]"
15300,342,1.0,7,3,2327.9221708774567,140.1009488105774,0,1958400,11198592,80612867,"[ 0  3  1  1  3  0  2  1  2  0  3  0  4  1  1  1  0  4  5  1  2  1  5  3
  4  0  7  2  0  2  5  7  6  1  2  9  3  8 11  3  5  7  3 13  4  5 18 13
  0  0  2  2  3 13  1 10 18  3 15 10  0 20 16  2  1 18  4  3 17  0 21 16
  0 15 20 19 18 14  4]"
15400,342,1.0,7,3,2342.295622110367,143.73451232910156,0,1971200,11267418,81092687,"[ 0  3  1  3  2  1  2  1  2  0  3  0  0  2  2  3  6  8  5  6  7  4  1  8
  0  8  5  2  0  2  5  7  6  3  1  5  2  1 13  4  1  8  3 13  4  3 18 13
  4  9 13  1  3 12  2 10 18  2 14 16  3 18 17  1 20  0  1 17  2  3 23 21
  0  0 16 19 18 14  4]"
15500,342,1.0,7,3,2356.355097770691,140.59475660324097,0,1984000,11333993,81557543,"[ 0  3  1  2  1  3  2  1  2  0  3  0  3  2  0  3  0  5  1  4  7  0  3  3
  2  4  3  2  0  2  5  7  6  0  7  8  4 12  5  3  1 13  3 13  4  5 18 13
  4 17 16  5 12 14  0  2 16  0 16 16  4  1 16  5  2 18  2  2 21  4  3  1
  1 18 15 19 18 14  4]"
15600,342,1.0,7,3,2370.9685876369476,146.13489866256714,0,1996800,11403632,82043423,"[ 0  3  1  2  2  1  2  1  2  0  3  0  3  0  0  1  4  0  2  6  5  1  1  2
  3  4  0  2  0  2  5  7  6  4  3  1  0  9  9  4  2  4  3 13  4  3 18 13
  1  2 14  4  2 17  1 10 18  3 16 15  4 23 23  1 18 18  2 19 17  0 22 19
  2 14  3 19 18 14  4]"
15700,342,1.0,7,3,2385.231280565262,142.6269292831421,0,2009600,11472334,82522448,"[ 0  3  1  2  2  1  2  2  2  0  3  0  0  2  3  1  0  7  3  1  7  0  2  8
  2  4  0  2  0  2  5  7  5  1 12 13  3  8  4  0  7  4  3 13  4  3 18 13
  3 14 15  5 17  9  0 14 13  0 14 18  5  1 20  3 14 18  4 21  2  4 22 21
  5 17  1 19 18 14  4]"
15800,342,1.0,7,3,2399.932594537735,147.01313972473145,0,2022400,11542122,83009325,"[ 0  3  1  4  3  1  2  2  1  0  3  0  2  3  0  5  4  7  3  1  2  0  7  7
  3  4  8  2  0  2  5  7  6  3  9 13  2  3  0  3  7  5  3 13  4  5 18 13
  2  3  2  5 12 17  0 18 11  2  0 15  2 21  2  5 15 20  4 19 18  1 22 19
  3 23 20 19 18 14  4]"
15900,342,1.0,7,3,2414.1360483169556,142.0345377922058,0,2035200,11610369,83485398,"[ 0  3  1  4  3  3  2  2  1  0  3  0  1  0  0  0  5  0  0  3  5  3  3  8
  2  7  6  2  0  2  5  7  6  2  1  7  0 12  4  5  2  2  3 13  4  3 18 13
  4 13 13  0 11 14  5 16 15  0 17 13  1 23  1  4 22  2  0 17 21  3  1  3
  2 15 21 19 18 14  4]"
16000,342,1.0,7,3,2428.1236395835876,139.8759126663208,0,2048000,11677926,83956789,"[ 0  3  1  2  2  3  2  2  1  0  3  0  3  2  3  0  5  2  2  0  1  5  4  7
  2  7  5  2  0  2  5  7  6  3  6  2  2  4  3  5 11 13  3 13  4  5 18 13
  3 12 12  4 15  3  5 12  2  5  1 11  0 14  2  0 20 20  4 22  2  1 17  3
  3 23 21 19 18 14  4]"
16100,342,1.0,7,3,2441.948831796646,138.25192213058472,0,2060800,11745353,84427312,"[ 0  3  1  1  0  0  2  2  1  0  3  0  1  0  0  1  1  3  0  3  4  1  2  6
  4  6  7  2  0  2  5  7  6  5  6  6  3  5  1  3  6 10  3 13  4  5 18 13
  4 11 18  1  3 18  2 18 11  5 14  1  4 23  2  0 18 23  3 18  3  1 14 22
  1  3 18 19 18 14  4]"
16200,342,1.0,7,3,2456.085270166397,141.36438369750977,0,2073600,11812165,84893009,"[ 0  3  1  4  2  1  2  2  1  0  3  0  0  1  1  2  3  0  4  1  5  3  3  3
  2  3  0  2  0  2  5  7  6  3  6  3  0 10  1  0 10 11  3 13  4  5 18 13
  5 11  0  0  3 13  1 13  2  1 12 16  5  3 15  0 18 23  4  2  3  5 23  0
  2 20 15 19 18 14  4]"
16300,342,1.0,7,3,2470.6768050193787,145.91534852981567,0,2086400,11880902,85372756,"[ 0  3  1  4  2  2  2  2  1  0  3  0  3  0  3  2  6  6  5  3  5  4  7  1
  1  3  7  2  0  2  5  7  6  3  6  4  2 10  8  3 10  6  3 13  4  3 18 13
  4 16 10  1  3  1  3 16  9  4 15  9  2 23 16  3 16 16  1 21 17  0 23 17
  5  2 16 19 18 14  4]"
16400,342,1.0,7,3,2485.137157678604,144.60352659225464,0,2099200,11950090,85855975,"[ 0  3  1  2  3  0  2  2  1  0  3  0  3  0  3  2  1  7  0  7  5  0  8  2
  5  7  6  2  0  2  0  8 10  2  0  9  3  9 10  4 13  9  3 13  4  5 18 13
  1 18  9  2  3  2  1  1 17  5  2 12  1 15 17  3 15 17  3 16 20  1  1  1
  3 15 16 19 18 12  4]"
16500,342,1.0,7,3,2499.673002243042,145.35844564437866,0,2112000,12018886,86336006,"[ 0  3  1  0  0  2  2  2  1  0  3  0  4  3  1  1  8  3  1  4  0  1  8  7
  5  7  6  2  0  2  2  1 12  4  3  9  1 12  9  0  3  2  3 13  4  5 18 13
  2  9  2  0 13  1  3  9  0  3 14 17  3 18 18  4 22 15  4 22 14  4 23 14
  4  0  1 19 18 12  4]"
16600,342,1.0,7,3,2513.8026371002197,141.29634857177734,0,2124800,12088508,86820526,"[ 0  3  1  2  3  3  2  2  1  0  3  0  1  1  1  1  6  0  0  0  0  3  3  3
  5  7  6  2  0  2  4  4 11  0  8 13  0 11 12  5  2  5  3 13  4  5 18 13
  2  9 11  4  3  1  2  2 13  1 18  2  0 19 21  1 17 20  4 16 14  2 14 22
  5 14 22 19 18 12  4]"
16700,342,1.0,7,3,2528.0091564655304,142.0651936531067,0,2137600,12156237,87293074,"[ 0  3  1  1  0  0  2  2  1  0  3  0  2  3  2  0  4  2  5  1  5  2  5  2
  5  7  6  2  0  2  1 11 10  3  8 13  4  5  3  4  9 12  3 13  4  5 18 13
  2 17 12  2 18  0  2 16  9  0 10 16  5  1  2  0 18 16  5 23  0  1 20 14
  1 20 16 19 18 12  4]"
16800,342,1.0,7,3,2542.78013920784,147.7098274230957,0,2150400,12225768,87777927,"[ 0  3  1  5  0  3  2  2  1  0  3  0  2  1  0  1  4  0  3  5  0  3  5  0
  5  7  6  2  0  2  1  5  3  1  4 11  2 11  5  2  9 13  3 13  4  3 18 13
  2  2  1  2 18 13  2 14 18  0 14  0  2  1 17  2 17 19  2 19 20  1  2  0
  2 22  3 19 18 12  4]"
16900,342,1.0,7,3,2557.0748958587646,142.94756650924683,0,2163200,12294389,88256663,"[ 0  3  1  0  0  0  2  2  1  0  3  0  2  3  0  3  6  8  4  2  6  2  8  1
  5  7  6  2  0  2  1  1  1  3 10  0  3 11  2  3 13  9  3 13  4  3 18 13
  3 18 10  5 11 15  4 10  3  3 18  3  3  1  0  0 15  3  5 19 16  1 15 22
  0  3 23 19 18 12  4]"
17000,342,1.0,7,3,2571.2732121944427,141.983163356781,0,2176000,12362342,88729842,"[ 0  3  1  0  3  0  2  2  1  2  0  3  2  2  0  0  3  4  4  0  5  3  2  4
  5  5  6  2  0  2  3  5 11  5  7  7  3  2  7  5 11 12  3 13  4  5 18 13
  2 11 16  3 11  0  4  9 17  5  9  3  4 15 15  2 14 19  5 19 22  5 15  0
  4 16 20 19 18 12  4]"
17100,342,1.0,7,3,2585.633109807968,143.5989761352539,0,2188800,12431792,89213856,"[ 0  3  1  0  3  0  2  2  1  4  1  1  4  0  2  4  1  2  2  6  8  5  4  8
  5  5  6  2  0  2  3 10  2  0 11  4  1  6  7  3  7 13  3 13  4  5 18 13
  4 10 13  0  9  0  4 16 18  1 18 16  1 21 21  0 15  1  4  2 15  4 14 21
  3  0 14 19 18 12  4]"
17200,342,1.0,7,3,2600.3298184871674,146.9670867919922,0,2201600,12501558,89700880,"[ 0  3  1  0  3  0  2  2  1  3  3  3  5  3  0  4  1  1  4  6  0  5  7  0
  5  5  6  2  0  2  4  2  4  4  3  7  2  8 13  2 10  7  3 13  4  3 18 13
  1  0 18  0 17 10  3 18 13  2  1 18  1 14 17  5 16 17  2 17 17  1 22 17
  0 17  3 19 18 12  4]"
17300,342,1.0,7,3,2614.347772836685,140.17954349517822,0,2214400,12568487,90167613,"[ 0  3  1  0  3  0  2  2  1  4  3  2  5  3  0  0  8  1  0  4  1  0  1  8
  5  5  6  2  0  2  3  4  1  5  2  4  2  6  1  4 12  3  3 13  4  5 18 13
  0  3  9  3 11  3  2  1 18  0  3 17  4 16 20  5 16  0  5 23 17  0 14  2
  0  2 19 19 18 12  4]"
17400,342,1.0,7,3,2628.7741944789886,144.26421642303467,0,2227200,12637343,90646613,"[ 0  3  1  0  3  0  2  2  1  5  1  2  5  2  0  4  2  0  0  5  5  3  2  8
  5  5  6  2  0  2  1  9  4  5 12  1  4  6  0  5  7  7  3 13  4  5 18 13
  4  3  0  5  2 15  2 15 17  3 17 10  1 18 16  4 17 23  2 21 17  4  3 23
  3 18 19 19 18 12  4]"
17500,342,1.0,7,3,2642.9664511680603,141.92256689071655,0,2240000,12706869,91131527,"[ 0  3  1  0  3  0  2  2  1  1  0  0  4  2  0  4  6  8  2  1  7  5  5  0
  5  5  6  2  0  2  3  1  2  0  1  4  2  1  6  2 10 10  3 13  4  5 18 13
  3 10 15  1  0  0  2 11 17  2  3  2  1  1 16  2 21 23  5 18 19  1 20  3
  5 20  3 19 18 12  4]"
17600,342,1.0,7,3,2657.070719242096,141.04268074035645,0,2252800,12776288,91615573,"[ 0  3  1  0  3  0  2  2  1  3  2  3  0  2  2  1  0  1  4  2  2  5  5  8
  5  5  6  2  0  2  2  3 11  1 13  0  3 13  3  3  9  5  3 13  4  5 18 13
  0 16 10  2  9 17  4  0 14  5 17 12  4  0  3  2  1 15  0  2  1  3 23 19
  1 18 16 19 18 12  4]"
17700,342,1.0,7,3,2671.208480834961,141.3776159286499,0,2265600,12844837,92094463,"[ 0  3  1  0  3  0  2  2  1  3  1  2  1  3  1  3  6  8  4  1  7  4  7  0
  5  5  6  2  0  2  1  3  2  1  2 13  3 12  4  5 13 11  3 13  4  3 18 13
  3  3 10  0  1 17  5  9  0  0 17 10  2 16 16  3  3 21  3 23 19  3 18 19
  5 23 20 19 18 12  4]"
17800,342,1.0,7,3,2685.2652866840363,140.56805849075317,0,2278400,12912958,92569998,"[ 0  3  1  0  3  0  0  2  1  0  0  3  2  2  1  4  8  4  3  3  4  5  7  6
  5  7  8  2  0  2  5  7  1  0  4  4  5  8 12  1 13  2  3 13  4  5 18 13
  0  2 11  2 14 18  4  2  9  4 17 16  0 23 19  4  1 14  0  1 20  5 15 15
  2 22 20 19 18 12  4]"
17900,342,1.0,7,3,2699.768087387085,145.02800703048706,0,2291200,12983182,93059368,"[ 0  3  1  0  3  0  5  3  2  2  2  2  2  2  1  4  2  3  2  4  2  0  1  0
  5  5  8  2  0  2  4  1 13  1  8  4  1  7  3  4  6  9  3 13  4  5 18 13
  3 16 18  0 18 18  2 10 15  0 10 13  0 19 17  1  0  2  0 19 19  5  0 14
  4 16  2 19 18 12  4]"
18000,342,1.0,7,3,2713.8304612636566,140.62373876571655,0,2304000,13052278,93540967,"[ 0  3  1  0  3  0  1  0  0  1  1  0  2  2  1  2  7  0  3  6  7  1  1  5
  5  5  8  2  0  2  2 10  3  3  5 10  1  2  5  0 12  0  3 13  4  5 18 13
  4 15 18  3 13 16  4  2  9  2  1 17  5 18 16  5 16 15  5 16 15  1 14  1
  5  0 15 19 18 12  4]"
18100,342,1.0,7,3,2728.5897846221924,147.59323358535767,0,2316800,13121410,94022857,"[ 0  3  1  0  3  0  5  0  2  0  0  2  2  2  1  1  7  6  0  1  7  3  3  7
  5  5  8  2  0  2  0 10  4  4  5  5  5  0  8  1 11  9  3 13  4  5 18 13
  3 16 17  5 17 11  2  3 17  4  1 11  5 19 21  2 21 23  0  1  0  0 18 19
  1 14 20 19 18 12  4]"
18200,342,1.0,7,3,2742.7436089515686,141.5382432937622,0,2329600,13188980,94494604,"[ 0  3  1  0  3  0  1  2  1  0  1  3  2  2  1  0  4  5  4  4  5  2  2  7
  5  5  8  2  0  2  3  9  4  3  4  0  3 11  9  3 11  1  3 13  4  5 18 13
  3  2 10  2  0 11  2 18 13  5  9  1  0  2 20  4  1 14  1 18 19  1 16 23
  2 20 19 19 18 12  4]"
18300,342,1.0,7,3,2757.045121192932,143.01512241363525,0,2342400,13258038,94976078,"[ 0  3  1  0  3  0  3  0  2  5  3  3  2  2  1  3  2  8  3  0  3  3  8  0
  5  5  8  2  0  2  5 11  8  2  2  6  0  5 13  1  9  5  3 13  4  5 18 13
  3 16 10  0 17 18  0 18  9  0 17 11  1  1 20  4  2 19  1 15 21  3 15 23
  2  0 19 19 18 12  4]"
18400,342,1.0,7,3,2771.0162608623505,139.71139669418335,0,2355200,13325557,95447095,"[ 0  3  1  0  3  0  3  2  2  5  0  2  2  2  1  5  7  7  5  6  7  5  2  5
  5  5  8  2  0  2  0  1 13  3  1  5  3 10  8  0  3  3  3 13  4  3 18 13
  2  0 16  0 13 18  1  1 14  5  1  0  5  1 15  1 21  0  3 23 17  3 17  3
  0 18 20 19 18 12  4]"
18500,342,1.0,7,3,2785.2659459114075,142.49685049057007,0,2368000,13393516,95920764,"[ 0  3  1  0  3  0  3  2  0  1  2  0  2  2  1  3  0  5  5  1  4  0  8  3
  5  5  8  2  0  2  2  7 12  3 11  7  2 12  9  3  6  7  3 13  4  3 18 13
  2  1 15  1  3  0  5  0  1  4 16  9  4 15 15  3 19 15  2 18 17  2 20 18
  0  2 21 19 18 12  4]"
18600,342,1.0,7,3,2799.796988248825,145.31042337417603,0,2380800,13462301,96400018,"[ 0  3  1  0  3  0  4  3  3  1  2  3  2  2  1  3  7  8  2  3  3  5  1  0
  5  5  8  2  0  2  0  3  5  4  6  3  2  3  0  5  1  4  3 13  4  3 18 13
  4  2  1  5 15  0  3 15  2  4  1 18  4 21  0  3 15 22  4 19  1  5 17  2
  2  2 14 19 18 12  4]"
18700,342,1.0,7,3,2814.1368017196655,143.39813470840454,0,2393600,13531505,96883084,"[ 0  3  1  0  3  0  2  1  1  1  2  3  2  2  1  4  5  0  1  2  8  2  1  6
  5  5  8  2  0  2  3  1  3  5  6  0  4 12  7  4 11  2  3 13  4  5 18 13
  2 13 14  5  3  1  5 14  0  1 17 17  5  3 14  1 18  1  1 18 21  0  3 19
  0 15 22 19 18 12  4]"
18800,342,1.0,7,3,2828.5263900756836,143.89588356018066,0,2406400,13601123,97368024,"[ 0  3  1  0  3  0  2  2  0  0  3  3  2  2  1  2  6  4  5  8  8  3  2  1
  5  5  8  2  0  2  0 12  1  3 11  9  1  8  6  1  1  0  3 13  4  3 18 13
  1 10  3  0 10 12  4  0  1  2  1 17  1 19 14  4 22 17  1 19 19  0  2 18
  0 14 20 19 18 12  4]"
18900,342,1.0,7,3,2843.0636010169983,145.37210941314697,0,2419200,13669977,97847966,"[ 0  3  1  0  3  0  3  1  3  4  3  2  2  2  1  1  4  2  3  7  1  4  8  3
  5  5  8  2  0  2  5  8 12  3  1  2  1  7 13  2  7  7  3 13  4  3 18 13
  1 13 15  5 14 11  0 14 12  1 12  3  1 15 22  5 20 22  4  1 20  3  2 22
  4 15 16 19 18 12  4]"
19000,342,1.0,7,3,2857.318430185318,142.54829168319702,0,2432000,13738158,98323613,"[ 0  3  1  0  3  0  3  1  0  2  1  0  2  2  1  2  7  3  4  4  8  2  1  2
  5  5  8  2  0  2  1  6  5  0  6  6  0  8 12  3  6  7  3 13  4  5 18 13
  2  2 12  2 15 18  4 17  3  1 12  0  1 21 14  2 17 14  2  1  3  3 21 16
  1 20 22 19 18 12  4]"
19100,342,1.0,7,3,2871.540989637375,142.22559452056885,0,2444800,13806949,98803456,"[ 0  3  1  0  3  0  4  0  1  0  2  3  2  2  1  3  2  1  4  8  6  2  8  2
  5  5  8  2  0  2  2  5  5  2 12  4  3 12 12  2 11  0  3 13  4  5 18 13
  4 14  9  5 14 18  4  0  3  0  3  2  3 19 16  3 22 14  2 16 16  0  0 17
  4 14  2 19 18 12  4]"
19200,342,1.0,7,3,2885.91059923172,143.69609594345093,0,2457600,13876014,99284379,"[ 0  3  1  0  3  0  3  2  2  1  2  0  2  2  1  3  4  8  4  5  5  2  2  2
  5  5  8  2  0  2  0  3  6  2  9 10  0  5  1  2  1 12  3 13  4  3 18 13
  0 17 15  4  0 14  1 10 18  3 17  1  4 21 20  3 18  0  3 20  2  5 14 20
  0  1 18 19 18 12  4]"
19300,342,1.0,7,3,2900.2075860500336,142.969868183136,0,2470400,13944964,99766504,"[ 0  3  1  0  3  0  4  0  0  2  2  1  5  2  3  4  1  8  4  3  3  5  7  2
  5  5  7  2  0  2  4  0 11  5 11  2  5  4  0  3 12  4  3 13  4  3 18 13
  1 15 14  4 15  2  1  3 17  5 12 15  1 17  2  1 20 14  1 18 23  3 14  3
  1 16 23 19 18 12  4]"
19400,342,1.0,7,3,2914.6587455272675,144.51159477233887,0,2483200,14012415,100237438,"[ 0  3  1  0  3  0  3  2  1  2  2  1  0  1  1  0  0  8  1  5  8  2  7  3
  5  5  7  2  0  2  3 13  1  2  6  0  4  0  6  5  2 12  3 13  4  5 18 13
  1 16  3  3 17  1  4  0  0  2 17 18  0  0 16  1 20 15  1 16  0  2 20  3
  5  2  3 19 18 12  4]"
19500,342,1.0,7,3,2928.853455543518,141.9471001625061,0,2496000,14081168,100716857,"[ 0  3  1  0  3  0  5  2  3  2  2  1  2  1  2  5  0  3  1  3  2  0  1  8
  5  5  7  2  0  2  0  3  1  1 11  6  3 12  0  2  4  8  3 13  4  5 18 13
  2 13 14  5  0 11  3 18 15  5 17 14  0 17  3  2 20  2  2 21 14  2 19 17
  2  1 22 19 18 12  4]"
19600,342,1.0,7,3,2943.143760919571,142.90305376052856,0,2508800,14150975,101203623,"[ 0  3  1  0  3  0  0  1  2  2  2  1  4  2  1  5  3  2  1  0  2  3  4  5
  5  5  7  2  0  2  4 12 10  1 12  4  2  1  1  0 10  5  3 13  4  5 18 13
  4 13 11  2  2 12  0  9 17  0  3  2  0 14  3  0 15 17  0 15 16  2 19 16
  4 15 19 19 18 12  4]"
19700,342,1.0,7,3,2957.218248605728,140.74487686157227,0,2521600,14220464,101688655,"[ 0  3  1  0  3  0  3  0  0  2  2  1  2  3  0  3  6  1  0  0  4  5  6  5
  5  5  7  2  0  2  0  4 10  0  7 13  0  1  7  5  8  7  3 13  4  3 18 13
  0  1 12  1 10 18  1 10  1  4 14  2  3 19 23  4 15 17  4 21  3  0 14  2
  4 18 17 19 18 12  4]"
19800,342,1.0,7,3,2971.725579023361,145.07330417633057,0,2534400,14289810,102171777,"[ 0  3  1  3  2  1  0  3  0  2  2  1  0  0  3  1  2  7  2  2  8  3  0  1
  5  8  7  2  0  2  4  6 12  1  3 10  0  9  2  4  9  1  3 13  4  3 18 13
  5 17 12  0  0  9  5 12  9  4  3  2  2 19 21  0 18 21  3 19 15  5  3 18
  1  2  0 19 18 12  4]"
19900,342,1.0,7,3,2986.121940135956,143.96361112594604,0,2547200,14358927,102653327,"[ 0  3  1  0  2  1  1  3  3  2  2  1  0  0  3  5  6  5  5  7  6  0  8  0
  5  8  7  2  0  2  2  9  5  1 13  1  2 12 12  1  3  3  3 13  4  5 18 13
  5  0  1  5 15 10  1  0 15  1 12  3  2 18 14  4  1 19  3 21  1  3  3 15
  3 23 20 19 18 12  4]"
20000,342,1.0,7,3,3000.7142617702484,145.92321634292603,0,2560000,14427887,103134004,"[ 0  3  1  4  1  0  1  0  1  2  2  1  0  0  3  2  7  5  2  3  5  0  5  4
  5  8  7  2  0  2  2  2  0  1  4  6  1  4  5  3  4  9  3 13  4  5 18 13
  2 16  1  5 15  3  3 16  2  5 18  1  4 21 19  4 22 21  1  2 16  1  1 16
  3  0  2 19 18 12  4]"
20100,342,1.0,7,3,3015.206835269928,144.92573499679565,0,2572800,14495706,103606446,"[ 0  3  1  5  3  0  5  3  1  2  2  1  0  0  3  2  1  4  0  8  4  3  7  2
  5  8  7  2  0  2  4  1  7  5  0  7  1  6  7  1  7  1  3 13  4  3 18 13
  2 12 16  5 18 11  0 11 16  4 18 13  2  3  1  0  1  3  3  3 14  4 18 23
  5  1  1 19 18 12  4]"
20200,342,1.0,7,3,3029.57173538208,143.649001121521,0,2585600,14564027,104082434,"[ 0  3  1  0  1  0  5  0  1  2  2  1  0  0  3  5  6  6  1  4  2  0  3  5
  5  8  7  2  0  2  4 11  0  2  1  9  1  5  5  0  2 11  3 13  4  3 18 13
  2 16 16  2 12  3  0 13  2  5  9 10  2 21 23  0 20  3  0  1 14  2 16 14
  1 19 17 19 18 12  4]"
20300,342,1.0,7,3,3044.444846391678,148.73111009597778,0,2598400,14635181,104579030,"[ 0  3  1  1  0  2  4  1  1  2  2  1  0  0  3  2  1  7  4  8  4  3  4  2
  5  8  7  2  0  2  2  0  3  1  3 13  1  1  8  3  5  9  3 13  4  3 18 13
  3 16 16  1 16 16  2 18 11  4  9 12  3  1 17  3 15 21  2 21 22  3  1 19
  0  0  0 19 18 12  4]"
20400,342,1.0,8,2,3058.6814942359924,142.36647844314575,0,2611200,14704113,105059645,"[ 0  3  1  3  1  2  1  0  0  2  2  1  0  0  3  2  3  1  2  7  4  4  2  5
  5  8  7  2  0  2  1  2 12  4 13  9  3 10  7  4  6  9  3 13  4  3  9 13
  0 13 13  1 12  2  3 10  2  5  1 16  2 23 19  5  2  1  1 19 18  2  0 16
  1 15 14 19 18 12  4]"
20500,342,1.0,8,2,3074.7987010478973,161.17206811904907,0,2624000,14778752,105648952,"[ 0  3  1  5  0  1  4  3  3  2  2  1  0  0  3  2  3  1  1  4  7  0  0  2
  5  8  7  2  0  2  5  1  4  4 10  9  4  1  6  1  6  0  3 13  4  3  9 13
  0 14 11  2  2 15  3 15  0  2 10 13  1 18  1  2 19 20  0  0 15  0 14 14
  2  2 17 19 18 12  4]"
20600,342,1.0,8,2,3091.3114726543427,165.12771606445312,0,2636800,14850931,106201018,"[ 0  3  1  3  2  3  3  1  3  2  2  1  0  0  3  2  3  1  1  4  7  3  4  5
  5  8  7  2  0  2  2  1 13  0  2  6  5  8  8  4 13 13  3 13  4  3  9 13
  2 14 11  4  1 18  0  2  0  2 10  2  1 20 16  1 17 23  1 16 19  4 21 17
  2 22 17 19 18 12  4]"
20700,342,1.0,7,3,3106.112324953079,148.00852298736572,0,2649600,14920575,106687843,"[ 0  3  1  3  1  1  3  1  2  2  2  1  0  0  3  0  2  2  2  5  6  4  4  1
  5  8  7  2  0  2  1  3 11  5  4  6  1 10  4  2 10  8  3 13  4  5 18 13
  1  0  9  0  2 18  1 17 18  1 10 12  2  0 16  2 16 20  3 18 18  3 23  1
  5 14 14 19 18 12  4]"
20800,342,1.0,7,3,3120.7259509563446,146.1362600326538,0,2662400,14989978,107171916,"[ 0  3  1  3  1  3  0  2  0  2  2  1  0  0  3  3  4  5  3  2  0  1  2  7
  5  8  7  2  0  2  1  6 10  5 11  4  0  6 11  2  5  5  3 13  4  3 18 13
  1 17 18  3  2 13  4 14 13  3 18 18  5 18  3  2 18 16  3 20 16  5  2 22
  0 14 18 19 18 12  4]"
20900,342,1.0,7,3,3134.8748331069946,141.48882150650024,0,2675200,15058081,107647932,"[ 0  3  1  5  1  3  3  2  1  2  2  1  0  0  3  0  3  8  2  5  0  0  1  5
  5  8  7  2  0  2  0  5  8  2  3 11  3  1  8  0  7  9  3 13  4  5 18 13
  0  1 17  2 12 15  1 15  9  5  1  9  0 18 14  0 20 18  0  0 16  3 19  1
  5 16 16 19 18 12  4]"
21000,342,1.0,7,3,3149.5771338939667,147.02300786972046,0,2688000,15128457,108139003,"[ 0  3  1  2  3  0  4  3  3  2  2  1  0  0  3  5  8  7  1  1  7  0  3  3
  5  8  7  2  0  2  5 12 12  1  0  0  3  5  8  2  1  0  3 13  4  5 18 13
  2 15  9  5 10 17  5 10 18  1 12 12  4 17 17  0  3 23  1 21 17  4  0 19
  5 22 15 19 18 12  4]"
21100,342,1.0,7,3,3164.3353464603424,147.58212566375732,0,2700800,15198504,108627317,"[ 0  3  1  4  3  0  2  0  0  2  2  1  0  0  3  4  5  4  2  5  8  0  8  3
  5  8  7  2  0  2  0  9  1  4  6 11  2  5 12  4  2 11  3 13  4  3 18 13
  2  2  9  3 11  3  2 10  0  4 10 18  1  3 19  5  3 21  3 21  2  0 21  3
  3 23 18 19 18 12  4]"
21200,342,1.0,7,3,3178.8112456798553,144.7589921951294,0,2713600,15267048,109105737,"[ 0  3  1  2  0  2  5  3  2  2  2  1  0  0  3  5  6  6  2  4  5  3  3  2
  5  8  7  2  0  2  2  6  4  4  2  4  5  6  1  2  2  1  3 13  4  3 18 13
  2 15 15  5 11 13  0  0  3  4  3 11  3 16 15  3 19 22  0 20 22  1 20 19
  2 20  0 19 18 12  4]"
21300,342,1.0,7,3,3193.019312143326,142.0806646347046,0,2726400,15335562,109583911,"[ 0  3  1  2  3  3  1  1  3  2  2  1  0  0  3  3  2  1  1  4  1  2  3  6
  5  8  7  2  0  2  1  4  0  2  6  1  3  6  9  5 12  7  3 13  4  3 18 13
  2  2  3  0 15 14  1  0  9  3 18 17  4  2 15  5 14  0  5 16 18  2 16 19
  3 23  0 19 18 12  4]"
21400,342,1.0,7,3,3207.837643623352,148.18331480026245,0,2739200,15407068,110083266,"[ 0  3  1  5  0  0  4  0  2  2  2  1  0  0  3  5  1  0  2  5  3  0  6  7
  5  8  7  2  0  2  0  2  3  3  2 10  5  0  5  3 12  7  3 13  4  0 14  0
  5  1 18  5 17 18  5  9  0  0 13 17  0 16 15  5 22  0  0 17  0  0 23 21
  3 19 16 17 18 12  4]"
21500,342,1.0,7,3,3222.9058730602264,150.6822943687439,0,2752000,15481087,110599790,"[ 0  3  1  4  2  3  0  2  2  2  2  1  0  0  3  1  5  6  2  7  6  5  3  1
  5  8  7  2  0  2  3  2  2  5  3  0  2  6  1  3 12  7  3 13  4  1 18  3
  0 16 13  3  0  0  2 13 11  3  0 13  2 15 16  2  2  0  2 23  0  3 14 19
  5 19 15 17 18 12  4]"
21600,342,1.0,7,3,3237.6363627910614,147.3048973083496,0,2764800,15554880,111115193,"[ 0  3  1  4  2  2  1  3  1  2  2  1  0  0  3  5  4  1  2  3  6  4  0  1
  5  8  7  2  0  2  3  3  8  1  7  2  3 11  2  3 12  7  3 13  4  3 12  9
  3  1 15  0 16 15  0 13 14  0 15 15  2  0 16  0 17 16  3 18 14  2 21 19
  5 21 20 17 18 12  4]"
21700,342,1.0,7,3,3252.3527085781097,147.1634578704834,0,2777600,15627894,111625315,"[ 0  3  1  3  1  2  2  2  0  2  2  1  0  0  3  1  0  0  0  1  5  2  4  0
  5  8  7  2  0  2  3  3  1  2 13 11  4 11  8  3 12  7  3 13  4  3  9 12
  4 16 13  2 13 13  0 16 15  1 10 13  1 22 22  5 21 22  2 21  2  4  0 18
  5  2 19 17 18 12  4]"
21800,342,1.0,7,3,3267.408455848694,150.55747270584106,0,2790400,15701374,112138692,"[ 0  3  1  3  1  3  3  3  0  2  2  1  0  0  3  3  8  5  0  7  5  2  8  6
  5  8  7  2  0  2  2  3  5  4  4  5  4 11  5  3 12  7  3 13  4  5  1  3
  4  9 13  1 13  1  5 16 10  4  9 16  1 14  2  3 21 23  1  2 20  2 15 16
  3 15 19 17 18 12  4]"
21900,342,1.0,8,2,3283.349581003189,159.4112515449524,0,2803200,15777368,112705887,"[ 0  3  1  2  3  0  1  1  2  2  2  1  0  0  3  1  4  8  2  7  5  4  2  1
  5  8  7  2  0  2  0  5  4  4  5  5  2  9 11  3  5  7  3 13  4  5 15 14
  4  3  3  2 17  3  3 12  0  3 13  1  1 23  1  0 14  2  3  3  3  5  2  3
  3 14  0 17 18 12  4]"
21902,343,1.0,7,2,3283.696711540222,173.56526851654053,0,2803456,15778960,112718359,"[ 0  3  1  2  3  0  1  1  2  2  2  1  0  0  3  1  4  8  2  3  5  4  2  1
  5  8  7  2  0  2  0  8  4  4  5  7  2  9 11  3  5  7  3 13  4  0 15 14
  4  3  3  2 17  3  3 15  0  3 13  1  1 23 14  0 14  2  3  3  3  5  2  3
  3 14  0 17 18 15  4]"
