generation,fitness,functionality,active_nodes,longest_path,time,gen_time,nc_gens,fitness_evals,graph_evals,node_evals,genotype
0,184.0,0.5,4,2,0.005735635757446289,5.733013153076172,0,0,0,0,"[ 4  0  3  0  3  2  3  3  2  3  2  0  1  2  1  1  0  7  3  5  2  1  7  1
  5  6  6  3  0  3  4  6 10  2  7  8  5 10  2  3 12  8  3 13  2  2  9 13
  4 11 18  4  0 16  1 17 12  1 18 13  4 23  3  5 16 16  3 16 22  1 18 23
  2 17 16  4 13 18  8]"
100,326.0,0.96875,10,4,31.717693328857422,317.11955547332764,0,25600,304376,2447960,"[ 4  3  3  3  0  0  4  2  0  3  2  1  2  2  0  0  6  3  2  6  4  5  7  1
  5  0  2  3  5  3  3  2  3  5  6 12  2  2  2  5 11 10  5 13 11  1 16  0
  4 12 18  0  3  1  4 18 15  4  0 10  1 18 16  1  1  2  0 23 18  2  1  1
  0  0  2  4 28 20 21]"
200,326.0,0.96875,10,4,60.94699192047119,292.2929573059082,0,51200,540398,4752708,"[ 4  3  3  5  1  3  3  3  0  3  2  1  3  1  3  0  8  6  0  7  0  3  7  1
  5  0  2  3  6  3  3  0 11  1 11  1  0  8 11  0  3 12  5 13 11  2 17 12
  4 12 18  0  3  1  0 18 14  3 12  2  4 18 21  3  0 16  3 23  0  0 22  3
  0  0  2  4 28 20 21]"
300,326.0,0.96875,10,4,89.55456209182739,286.0756754875183,0,76800,769408,6986645,"[ 4  3  3  2  2  2  3  0  3  4  3  0  4  0  3  2  8  4  1  4  7  3  5  1
  5  0  2  5  6  3  1  4  5  3  7 11  3  1  8  4  8 13  5 13 11  5 18 18
  4 12 18  0  3  1  5  1  1  1  2  9  5 16  1  0  3 21  0  3  2  4  1 16
  0  0  2  4 28 20 21]"
400,326.0,0.96875,10,4,117.44143867492676,278.86874198913574,0,102400,994195,9175824,"[ 4  3  0  5  1  2  3  0  3  1  3  2  4  2  2  5  5  2  5  4  1  3  5  1
  5  0  2  5  6  3  4  1  5  0  0  9  0  7  1  5 10  1  5 13 11  1 13 14
  4 12 18  0  3  1  3  1  0  3 12 17  4 17 18  1 15 21  3  1  0  0  0 14
  0  0  2  8 28 20 21]"
500,328.0,0.984375,13,4,146.5680706501007,291.2662935256958,0,128000,1223105,11474801,"[ 1  2  1  3  2  2  3  0  3  2  2  1  4  2  2  3  6  3  5  4  5  3  5  1
  5  0  2  3  7  7  1  3  7  5  2  9  4 10  6  3  5 13  5  9 11  1 16 12
  4 12 18  0  3  1  3 18 10  5 14 11  1 22  0  5  0 21  2  3 21  5  1  0
  0  0 23  8 28 20 21]"
600,328.0,0.984375,13,4,178.26389741897583,316.9582414627075,0,153600,1428715,14103876,"[ 2  3  0  3  1  2  5  3  0  2  2  1  4  2  2  3  6  3  0  7  5  3  5  1
  5  0  2  3  4  5  1  3  7  2  2  0  4  2  5  2  6 12  5  9 11  3 10 18
  4 12 18  0  3  1  5  3 18  5 14 11  4 20  3  2 23 14  3 19 18  3 16 14
  0  0 23  8 28 20 21]"
700,328.0,0.984375,13,4,209.94768714904785,316.8378710746765,0,179200,1631816,16700918,"[ 3  2  1  3  2  1  5  3  0  2  2  1  4  2  2  3  6  3  4  7  5  3  5  1
  5  0  2  2  0  1  1  3  7  2  4  6  0 13  2  2 13 13  5  9 11  1 17  9
  4 12 18  0  3  1  5 18  0  5 14 11  0  1 16  4 19  3  2 22 16  2 14 21
  0  0 23  8 28 20 21]"
800,328.0,0.984375,13,4,241.12718439102173,311.7949438095093,0,204800,1834291,19282683,"[ 0  1  2  5  2  1  5  3  0  2  2  1  4  2  2  3  6  3  3  7  5  3  5  1
  5  0  2  0  6  0  1  6  7  1 11 13  4  6  5  2 12 10  5  9 11  0 11  9
  4 12 18  0  3  1  4  1 14  5 14 11  3  0 15  0 22 18  1 20  2  0  0 14
  0  0 23  8 28 20 21]"
900,328.0,0.984375,13,4,272.2018554210663,310.74668169021606,0,230400,2035739,21859150,"[ 0  0  2  5  2  1  5  3  0  2  2  1  4  2  2  3  6  3  2  4  8  3  5  1
  5  0  2  5  5  6  1  6  7  2 11  0  3  4  4  3  8  8  5  9 11  5  2 18
  4 12 18  0  3  1  2  2  1  5 14 11  3 21 14  3 22 15  1 19  2  4 17 14
  0  0 23  8 28 20 21]"
953,333,1.0,15,4,288.6466760635376,310.27958977897214,0,243968,2142609,23226473,"[ 5  2  3  5  2  1  5  3  0  2  2  1  4  2  2  3  6  3  2  4  6  3  5  1
  5  0  2  3  0  6  1  6  7  0 11  7  3 10  7  3  8  9  5  9 11  0  3 16
  4 12 18  0  3  1  2  2 14  5 14 11  0 22 21  2 17  0  5 23 23  2 16 14
  0  0 23 16 28 20 21]"
1000,334,1.0,14,4,302.26077914237976,289.66170676211095,0,256000,2222687,24334632,"[ 5  2  1  2  2  2  5  3  0  2  2  1  4  0  0  3  6  3  2  0  6  3  5  1
  5  0  2  3  1  1  1  3  7  0  6  1  3 10  7  3 10  5  5  9 11  3 13 16
  4 12 18  0  3  1  2 14 18  5 14 11  0 22 21  2 17 20  0 23 23  3 14  2
  0  0 23 16 28 20 21]"
1100,334,1.0,14,4,331.64293479919434,293.82152795791626,0,281600,2395043,26713723,"[ 0  2  1  2  2  2  5  3  0  2  2  1  4  0  1  3  6  3  2  3  6  3  5  1
  5  0  2  4  5  1  1  6  7  0  5  6  3 10  7  3 12 10  5  9 11  3 13 15
  4 12 18  0  3  1  0 11 10  5 14 11  2 15 21  3 21 18  2  2 15  2  3  1
  0  0 23 16 28 20 21]"
1200,334,1.0,14,4,360.679212808609,290.36275148391724,0,307200,2565946,29075400,"[ 0  1  1  3  2  2  5  3  0  2  2  1  2  0  1  3  6  3  2  6  0  3  5  1
  2  8  3  4  5  0  1  3  7  1  0  6  3 10  7  0  5  5  5  9 11  4 11 10
  4 13 18  0  3  1  2 17 11  5 14 11  2 23 21  5  3 16  5  2 18  2 18 14
  0  0 23 16 28 20 21]"
1300,334,1.0,14,4,389.67920184135437,289.9998617172241,0,332800,2736549,31432500,"[ 2  2  3  2  2  2  5  3  0  2  2  1  2  1  2  3  6  3  2  3  0  3  5  1
  3  4  0  4  5  0  1  3  7  3  0  6  3 10  7  0  5  4  5  9 11  3 11 10
  4 13 18  0  3  1  2 17  2  5 14 11  1  1  2  4 19 15  4  2 14  5  1 17
  0  0 23 16 28 20 21]"
1400,334,1.0,14,4,419.15133452415466,294.721302986145,0,358400,2910235,33829502,"[ 4  2  3  2  2  2  3  0  3  2  2  1  4  3  2  5  6  3  2  3  0  3  5  1
  5  7  4  4  5  0  1  3  7  3  0  8  3 10  7  1  9  8  5  9 11  2  1 12
  4 13 18  0  3  1  3 17  2  5 14 11  1 16 19  3 18 15  4  2  0  3  1 18
  0  0 23 16 28 20 21]"
1500,334,1.0,14,4,447.94692492485046,287.9558753967285,0,384000,3080563,36180433,"[ 4  3  2  2  2  2  5  0  3  2  2  1  2  1  1  3  6  3  2  6  3  3  5  1
  3  7  1  4  5  0  1  3  7  3 12 13  3 10  7  2 10 11  5  9 11  2 11  2
  4 13 18  0  3  1  2  3  2  5 14 11  5 23 21  2 19 20  4 14  2  1 17 15
  0  0 23 16 28 20 21]"
1600,334,1.0,14,4,476.871444940567,289.2451739311218,0,409600,3251048,38536036,"[ 2  2  3  2  2  2  5  0  3  2  2  1  2  3  1  3  6  3  2  6  3  3  5  1
  0  2  5  4  5  0  1  6  7  1  6  8  3 10  7  4  2  8  5  9 11  1  0 16
  4 13 18  0  3  1  5 13 14  5 14 11  3 23 23  5 18 19  4  0  1  5 18  3
  0  0 23 16 28 20 21]"
1700,334,1.0,14,4,505.9486608505249,290.77213525772095,0,435200,3421459,40890902,"[ 2  3  1  3  2  2  5  0  3  2  2  1  3  3  1  3  6  3  2  3  0  3  5  1
  0  0  4  4  5  0  1  6  7  4  6  0  3 10  7  5  6  8  5  9 11  3  2  2
  4 13 18  0  3  1  2 18 11  5 14 11  3  0 16  0  0 17  2  1 22  0 20 18
  0  0 23 16 28 20 21]"
1800,334,1.0,14,4,535.1429960727692,291.94331884384155,0,460800,3590588,43228518,"[ 2  3  0  2  2  2  5  0  3  2  2  1  0  1  0  3  6  3  5  3  0  3  5  1
  2  1  5  4  5  0  1  6  7  4  4  0  3  4  7  5  9 12  5  9 11  5  2 18
  4 13 18  0  3  1  2  3  1  5 14 11  1  3 22  1 15 15  2 23  1  2 20 18
  0  0 23 16 28 20 21]"
1900,337,1.0,11,4,564.29177069664,291.4877223968506,0,486400,3767722,45601710,"[ 2  3  0  2  2  1  3  0  3  2  2  1  0  1  3  5  6  3  0  3  0  3  5  1
  4  5  1  4  5  0  0  3  6  4  8 11  3  4  5  4 11  9  3  9  9  4  2 16
  4 13 18  5  3 17  1  1  1  5 14 11  3  1 15  1  1 16  5 15 15  2  0  3
  0  0 19 16 28 20  8]"
2000,339,1.0,9,4,585.6052167415619,213.13443422317505,0,512000,3923085,47134108,"[ 2  3  0  2  2  1  5  3  2  5  0  2  0  1  3  3  6  8  0  8  6  4  1  2
  2  0  1  4  5  0  2  5  6  2  1 12  3  4  5  4  8  2  4  4  0  4  2 16
  4 13 18  1  0 14  2  3 18  4 13  0  3 19 15  4  1 23  1 23  0  3  0 17
  0  0 19 16 28 20  8]"
2100,339,1.0,9,4,605.2364816665649,196.31262063980103,0,537600,4070311,48453226,"[ 2  3  0  2  2  1  3  3  0  0  2  2  0  1  3  3  5  1  4  3  5  3  4  1
  1  5  1  4  5  0  5 11  4  4  5 12  3  4  5  4  9 10  2  4  0  4  2 16
  4 13 18  3 18 16  0  1 14  1 13  2  0 14 14  2  1  2  2  1 20  0  0  0
  0  0 19 16 28 20  8]"
2200,341,1.0,7,4,623.0230257511139,177.8654170036316,0,563200,4217046,49594848,"[ 2  3  0  2  2  1  1  1  1  2  3  2  0  1  3  4  4  5  4  0  7  2  6  7
  3  3  7  1  1  4  4  9  7  5  1  4  3  4  5  0  5  6  0 11  2  4  2 16
  3  3  0  0 13 14  4  2  1  0 11  2  3 20 22  4 17 19  1  2 21  1 20 20
  0  0 19 16 28  9  8]"
2300,341,1.0,7,4,640.0366232395172,170.13594150543213,0,588800,4365900,50637274,"[ 2  3  0  2  2  1  4  2  1  5  3  3  0  1  3  4  4  5  5  0  8  0  4  0
  5  7  2  2  4  4  5  2  0  3  9  0  3  4  5  1  6 11  1  8  7  4  2 16
  0  1 13  3 16 17  3 18  0  1 14 15  2 18 17  1 17  2  4  1 23  2 17 14
  0  0 19 16 28  9  8]"
2400,341,1.0,7,4,656.8102140426636,167.73587942123413,0,614400,4512589,51665580,"[ 2  3  0  2  2  1  1  2  3  1  2  1  0  1  3  4  4  5  1  0  7  4  4  4
  1  3  4  4  7  4  5  9 11  0  9  6  3  4  5  2 11 10  1  9  3  4  2 16
  0 14 14  2 13 13  3 12  9  1  0 10  2  2 17  5 21 21  5  1 21  3 15 18
  0  0 19 16 28  9  8]"
2500,341,1.0,7,4,673.6855053901672,168.75288724899292,0,640000,4659634,52696631,"[ 2  3  0  2  2  1  5  0  3  2  0  3  0  1  3  3  0  7  0  3  7  0  4  3
  4  5  4  1  1  2  4  8 12  2 11 13  3  4  5  1 11 10  0  8 13  4  2 16
  3 10  2  2 10  9  4  0 13  3  0  1  5  3 17  0 22 15  4 18 18  1 14 16
  0  0 19 16 28 12  8]"
2600,341,1.0,7,4,690.5130500793457,168.27541828155518,0,665600,4807100,53731254,"[ 2  3  0  2  2  1  5  2  2  4  3  3  0  1  3  3  2  5  1  7  4  4  8  7
  4  5  4  1  4  2  1 13 11  2  2  0  3  4  5  3  6  9  0  0  2  4  2 16
  1  0  2  2 14 13  0 10 14  0 10 17  5  3 23  0 18  1  0 18  2  5 17 15
  0  0 19 16 28 12  8]"
2700,341,1.0,7,4,707.3945834636688,168.8153052330017,0,691200,4954366,54764203,"[ 2  3  0  2  2  1  1  1  2  0  2  0  0  1  3  1  7  2  5  7  2  4  5  6
  4  5  4  1  0  5  1 13  1  4 10  6  3  4  5  3  0  4  0  8  1  4  2 16
  4 18 14  3 18  2  4 14 10  2 16  3  4  2 22  2  2  3  3 16  3  2 17 22
  0  0 19 16 28 12  8]"
2800,341,1.0,7,4,724.1412382125854,167.46652126312256,0,716800,5102645,55801893,"[ 2  3  0  2  2  1  3  1  1  1  3  1  0  1  3  2  7  0  5  3  4  1  2  4
  4  5  4  4  5  7  2  7  2  2  6  4  3  4  5  3  8  3  4  9 11  4  2 16
  1 13  0  3 14  9  1 11  0  1 13  0  0 23 14  3 20 18  4 18 22  4 15 22
  0  0 19 16 28 12  8]"
2900,341,1.0,7,4,740.853643655777,167.12403297424316,0,742400,5250006,56834485,"[ 2  3  0  2  2  1  0  1  3  4  1  0  4  0  2  2  8  4  3  0  5  5  7  8
  4  5  4  2  3  5  4  3  9  3 11 10  3  4  5  3  5  2  3 10  5  4  2 16
  2 15 13  0 16 18  1 16  2  2 10  2  3 17 21  2 18 21  2 23  3  1 16 22
  0  0 19 16 28 12  6]"
3000,341,1.0,7,4,757.8216369152069,169.67990398406982,0,768000,5399622,57881710,"[ 2  3  0  2  2  1  0  1  3  1  2  2  2  0  0  5  5  8  2  3  7  1  4  0
  4  5  4  3  4  5  3 12  8  3 10 12  3  4  5  5  6 11  0  2 10  4  2 16
  1  0 14  1 16 11  3  3 13  0  9 14  0 17 18  1 14 21  5 16 16  4 23 15
  0  0 19 16 28 12  6]"
3100,341,1.0,7,4,774.6649949550629,168.43355178833008,0,793600,5546525,58910906,"[ 2  3  0  2  2  1  0  1  3  0  0  0  4  0  3  0  5  8  3  1  2  0  2  7
  4  5  4  5  4  5  5  0  0  0  2 13  3  4  5  3 12  0  2 11 11  4  2 16
  1 12 10  2 13 14  3 11 14  4 12 13  5 18 18  2 20 22  2 16 16  2 18  3
  0  0 19 16 28 12  6]"
3200,341,1.0,7,4,791.5954482555389,169.30450439453125,0,819200,5693181,59938204,"[ 2  3  0  2  2  1  0  1  3  1  2  3  1  0  1  2  3  6  2  4  2  3  7  5
  4  5  4  5  2  4  1  3 11  4 11  4  3  4  5  4 11  6  3  7  2  4  2 16
  5  3  1  1 13 10  1 16 11  3 11  0  3 18 14  0 19 22  2 18 19  1 22 19
  0  0 19 16 28 12  6]"
3253,343,1.0,7,2,800.5552132129669,169.05211952497373,0,832768,5772223,60491285,"[ 2  3  0  2  2  1  0  1  3  1  2  2  2  1  2  3  1  7  2  5  5  2  2  0
  4  5  4  1  2  8  5 12  8  3  2  7  3  4  5  3 11  6  3  7 12  4  2 16
  3 13  1  5 10 12  1 13 18  4  0  1  3  1 20  0 15 22  0 18  1  1 15  1
  0  0 19 16 17 12  6]"
