generation,fitness,functionality,active_nodes,longest_path,time,gen_time,nc_gens,fitness_evals,graph_evals,node_evals,genotype
0,190.0,0.484375,16,5,0.007989883422851562,7.986783981323242,0,0,0,0,"[ 4  1  3  0  0  3  3  3  1  5  3  0  4  2  2  5  2  1  3  0  3  1  6  1
  3  7  3  0  7 10  3  0  6  0  0  0  5  4  6  4  0  8  0  3 17  2  1 15
  2  0 12  1  1 15  3 12 17  5 14  3  2  1 13  5  3  2  3  2 23  1 19 22
  1  0 19  3  3  0  4 19 22  2  0 18  3 29 27  5  2 28  5  0  1  3 25 28
  4 30 26  0  3 27  2 26 30  0  2 38  0 38 32  1 34 38  5  3 35  2 36 37
  4 33 35  1  0  3  3 39 39  0 40 39  1 40 45  2 45 42  1  2 40  2  2  2
  3 45 40 36 14 37  4]"
100,319.0,0.84375,5,2,0.6970524787902832,6.890599727630615,30,400,5595,52159,"[ 3  2  0  5  3  0  0  3  0  2  1  0  4  2  2  2  0  2  2  3  3  1  6  9
  2  0  4  3  1  0  5  4  4  2  9  6  5  8  8  4  1  8  1 13  0  1  0 12
  4  1  3  0 14 12  1 17  0  5  3 16  3  1 16  5  1  3  1  2  1  3  2  1
  4 23  2  0 24 22  2 24 18  0 18  1  4  1 29  4  2  2  4 28 26  4  3  1
  4 26 26  0  1 25  0  0 25  3 33  3  4 32 37  2  2 38  0 34  1  4 38 36
  5 33  1  4 37 34  5 45 39  0 39  3  1  1 44  0 43 40  0 39  1  1 41 45
  0 45 39 36  8  1 37]"
200,329.0,0.875,5,2,1.1813735961914062,4.843184947967529,74,800,10662,78665,"[ 4  3  1  3  0  3  5  3  1  0  2  3  0  2  0  5  0  1  3  2  0  3  9  5
  0  4  3  3  2  1  0  4  0  4  2  6  3  1  8  0  2  1  5  3  2  4  0 17
  3 11  0  3 17  1  4 13  1  1  0  3  0 14 11  3  0 19  4  0  3  0 18  2
  1  0 18  4 24  0  2 22 18  0  2 23  0  0 28  2 28  0  2 31  0  5  3 26
  4 26 26  0  1  3  0 30 30  0 37  1  0 36 32  0 35 36  1  3  1  2 35  3
  0 32  3  5  3  2  2  3  0  4  2 44  5  1 44  0 39  3  0  1  1  0 43 41
  3 42 40 36 36 19 37]"
300,330.0,0.875,4,2,1.7153398990631104,5.33963680267334,121,1200,15958,111215,"[ 0  3  2  0  3  3  3  2  3  3  3  2  2  3  1  5  1  2  2  2  1  3  1  1
  3  3  9  2  6  8  2  1  0  3  5  7  5  0  6  2  2  0  4  0 12  0  0  0
  5 16 13  0 16 16  3  0  0  0  3 16  2 11 12  0  2  1  3  2  3  0 19 22
  1 18 23  4 24 20  5 18 20  1  2  0  5 29  3  2 28 28  4  1  0  4  2 28
  4 26 26  0  1  3  2 30 25  4 36  0  3  2 38  5 36 32  1  1 35  3 38 35
  3  2 34  2  2  1  3 45  2  1 40 45  3 45  0  2 42 44  3 42  2  2 39 40
  4 43 41 36 36 25 37]"
400,330.0,0.875,4,2,2.2035303115844727,4.881877899169922,167,1600,20968,140135,"[ 0  1  3  2  3  3  0  1  3  3  2  0  0  0  3  4  3  0  1  0  3  1  5  6
  4  4  3  0  5  1  1  4  3  1  3  4  1  3  0  3  2  0  1 15  1  4  1 15
  5 12  3  3 14 12  4 13  3  1 15  3  5 16 16  0  2  1  4  2  1  5 20  3
  1 21  2  5 18 20  5  3 20  0 24  3  4 31  3  0 26 27  1  3 28  0 25  0
  4 26 26  0  1  3  0 27 27  2 33  1  1  1  3  3  0  1  0  3 34  3  3  3
  5 32  1  5 37 34  3 42 40  2  1 41  4  0 42  1 43  0  0  3 42  1 39  1
  4  3 42 36 36 25 37]"
500,340.0,0.90625,4,2,2.734281539916992,5.307486057281494,204,2000,26283,174718,"[ 2  3  3  2  2  1  5  2  3  3  1  1  1  1  1  0  3  1  0  2  1  2  8  5
  4  8  5  2  5  5  2  0  5  0  1  0  0  9  0  4  2  8  0 15  2  5 12  0
  1  0 11  4 15 12  3 13 14  4 16 17  1 15 17  0  2  1  0  0  2  0 21  3
  2  0 24  2 18 21  2  3 21  5 24 21  1 30 26  4  3  3  1  3 28  0 29 27
  0  0  2  0 26  3  3 31 30  4 34 38  1 36  3  0  1 38  5  2 32  0  3  0
  2 33 38  0 35  0  5  2  3  4 45 40  3  3 40  5  2 40  4 41 44  1 39 42
  4 40  0 16 36 25  9]"
600,340.0,0.90625,4,2,3.199979782104492,4.656963348388672,260,2400,31209,201799,"[ 2  2  3  4  3  1  5  1  0  5  0  0  2  0  0  0  3  1  5  2  2  0  8  5
  5  8  9  0  0  7  5  3  0  2  8  8  1  5  2  1  1  5  4  1 13  4 14 11
  4  3 15  3 15  3  4  1 13  3 13 11  2  0 17  0  2  1  4 23 24  4 19 23
  5  2  2  5 21 23  2 20  3  3 18 19  1 27 27  1 28  2  5 30 29  2 28  2
  0  0  2  2  2  3  0 29  3  1  0 35  0 36  3  3 35  3  3 33 36  1 36  1
  3  1  2  0 35 33  0  3 45  1  2 39  0  2 39  4 45  1  4 41 41  0  3  0
  1 40  1 40 36 25  9]"
700,340.0,0.90625,4,2,3.6713945865631104,4.7141265869140625,317,2800,36141,228844,"[ 3  3  2  1  1  3  3  1  3  0  2  2  0  1  3  0  3  1  2  0  1  3  3  3
  5  8  8  0  0  1  5  5  1  4  2  8  3  7  1  4  1  9  4 16 13  1  2 11
  0 13 15  0 16  1  0 16  0  1 17 17  3  0 14  0  2  1  4 21 24  1  3 20
  5 19 19  1  1 24  2  2  2  0  2 24  3  2 29  0  3  3  3  3 28  1  1 31
  0  0  2  2 30 31  4  2 29  2  3 33  0 36  1  0  0 33  4  1 32  1 37  1
  3  1  2  0 35  3  5 43  2  2 40  3  3 39 40  5  3 42  1 42 41  4 45  3
  2 41  2 40 36 25  9]"
800,341.0,0.90625,4,1,4.139807939529419,4.684109687805176,381,3200,41042,255694,"[ 3  2  3  0  3  2  3  1  1  1  0  0  0  1  3  0  3  0  3  0  3  0  6  7
  5 10  2  1  7  6  5  0  8  4  5  8  4  6  1  2 10  6  4  0 13  0  2 16
  1 13 16  2  3  1  2  0  1  4 12 15  1 11 13  3 21 22  3  1 24  1 21 21
  3 21 23  3  0 19  1 24  1  0  2  1  1  1 31  5 27  2  3 29 26  3 27 28
  0  0  2  0  3 30  5  3 29  4 38  2  5 35 32  0 37 38  4  1  1  1 33 35
  2  0 33  1 35 32  2 43  1  2  3 41  3 39  3  4 42 42  3  0  1  1 43  2
  4 43  2 42 36 31  8]"
900,341.0,0.90625,4,1,4.597872257232666,4.580621719360352,445,3600,45881,281386,"[ 4  2  3  1  3  2  3  0  2  0  2  1  0  1  3  2  3  3  3  1  1  0  5  7
  1  9  6  3 10 10  3  8  9  5  8  8  0  8  2  2  9  9  4  0  2  3 17  0
  5 17 13  4 12 16  1 12  3  0  1  2  4 15 13  0 21  2  4  1 23  1 20  0
  5 19  1  5 24  2  3 20 22  5  2 24  5 25  0  1 27 31  3 25 29  0 29  3
  0  0  2  0  1 26  2  2  3  5 32  1  1 35 35  4 37  2  4  1  1  5 32 35
  3 35 38  1  0 36  3  2  1  2 40 41  2  2 39  4 41 44  1 40 45  0 43 44
  3 41 40 42 36 23  8]"
1000,341.0,0.90625,4,1,5.155523061752319,5.576486587524414,514,4000,50644,308028,"[ 2  2  2  3  2  3  3  0  3  2  3  0  0  1  3  3  1  3  1  2  1  1  5  7
  4  8  2  0  1  2  2 10  6  4  3  8  0  7  4  5  5  6  5 12 16  3  0 13
  5  3 16  5  1 15  5 12 13  0  1  2  0 12 13  1 22  1  0  1 19  2 18  0
  0 24 24  5 24  0  0  3 23  1 22 22  4 29 25  2  3 31  4 25 30  1 29 29
  0  0  2  1 26 30  2 31 31  4 32  1  4 35 34  4 32 35  4  1  1  2  3 36
  3 34  0  5 32 37  3 43  0  4 40 45  1  1  1  0 41 45  1 43 41  4  3 39
  3  3 45 42 36 23  8]"
1100,341.0,0.90625,4,1,5.627431154251099,4.719057083129883,570,4400,55658,334143,"[ 5  3  1  3  1  0  1  0  3  1  3  1  0  1  3  5  2  1  4  1  0  0  8  0
  0 10  6  2  6  2  0  3  7  1  9  9  2  7 10  5  9  8  1  3 12  5  1 16
  5  1  3  2  0 13  1 16  1  0  1  2  3  3 13  4  0 23  0 20  2  5 18 18
  4 22  1  1  3 22  0 20 18  2  2  3  2 28 25  4 27  1  0  2 25  3 31 27
  0  0  2  5  3 27  0 28 31  5  1 32  4 36  2  3 33 33  4  1  1  3  1 36
  4 36 32  1  0 37  2  2  3  4 43 44  0  2 45  4 45 44  1  0 41  3 41 41
  1 45 41 42 36 23  8]"
1200,341.0,0.90625,4,1,6.086660385131836,4.592266082763672,634,4800,60536,360030,"[ 0  3  3  3  1  2  5  3  1  3  3  1  0  1  3  3  2  2  4  2  3  4  1  4
  3 10  0  4  5  2  0  9  0  1  2  9  1  9  1  5  5  9  1  0  3  0 17  0
  5  0  3  1  0 17  1 12  2  0  1  2  1 16 11  0 20 24  0 18  2  0  3 20
  1  3  0  3 18  2  0 21 22  3  2  1  2 31 27  3 30 26  0  2  3  1 31  0
  0  0  2  2 30 27  2 30 26  0 37  0  3 34 38  4 34 33  4  1  1  1 32  0
  3 36 36  3 37 37  1  3  0  5 43 44  1 40 43  2 42 39  5 43 40  2  2 45
  0  1 41 42 36 23  8]"
1300,341.0,0.90625,4,1,6.53621768951416,4.495549201965332,687,5200,65582,385047,"[ 3  1  0  3  2  3  5  3  0  2  2  1  0  1  3  0  1  2  5  3  1  2  8  1
  4 10  4  4  8  6  2  3  8  4  0  5  0  7  7  5  4  9  2 14  0  4 14  2
  4 14  3  5  1 13  4  3 14  5 14  0  4 17 17  3  2 21  3 23 19  5 18  3
  3 22 24  3 18  2  5 23 23  1 18 19  5 26  3  3 27 28  0  3 28  4 30 27
  0  0  2  5 30 29  1 28  2  2 36  2  1 32 32  2 33 35  4  1  1  0 38  1
  0  1 35  3  2 34  4  2 39  4  1 41  3  3 45  2  0 42  1 44 45  5 44  2
  1  1 40 42 36  9  8]"
1400,341.0,0.90625,4,1,6.9750306606292725,4.388108253479004,740,5600,70550,408821,"[ 5  1  0  4  1  1  1  1  0  0  3  1  0  1  3  0  1  2  5  0  1  2  0  0
  5  0  4  1  8  9  2 10  1  1  8  8  2  4  7  0  3 10  5  2 15  5  1 15
  1 13 12  4  1 17  0 16  1  5 14 15  5 17  2  4  2  2  3 19  2  0  3 22
  1 20 20  4  2  2  0  3 22  1 20  2  4 28 29  0  1  3  2  2  0  2  1 30
  0  0  2  4 29 27  2 29 27  1  0 33  3  0  0  2 35  0  1 32 36  0 35 33
  0  3 35  3  0 36  4 43 45  5 42 39  5 44  1  5  3 41  5  1 42  5  3 41
  2  0 40 25 36  9  8]"
1500,341.0,0.90625,4,1,7.429657220840454,4.546241760253906,803,6000,75556,433912,"[ 5  3  3  4  0  0  5  3  1  4  3  0  0  1  3  0  2  1  5  0  2  5  8  4
  0  9  1  2  8  2  0  8  7  1  1  5  1  2  3  0  9 10  1  1 14  2 16 14
  2  0 17  0 13 15  5 14 12  5  0  3  2  1 12  4  2  2  1 19  1  1  3  2
  4 23 19  5 24 24  0 21 22  4 23  2  3 29  0  0  1  2  1 30 26  2  1 26
  0  0  2  3  2 29  1 29 27  4  3 33  2 37  0  3 32 34  1 32  1  0  1 33
  1 38 34  4 32 35  5 43 41  5  0  2  1 44  2  0 42  2  1  2 39  0  3 42
  0 41  0 25 36  9  8]"
1600,341.0,0.90625,4,1,7.878576755523682,4.489171504974365,857,6400,80527,458313,"[ 3  1  3  2  1  2  4  2  1  0  3  0  0  1  3  4  2  0  5  0  3  0  4  1
  4  7  9  5  4  1  3  0  3  3  0  6  3 10  2  5  8  3  3  2 15  0 13 13
  1 11 15  4 13  3  3 11 13  2 15 14  4 12 15  4  2  2  3 24 21  3  0 23
  2  1 19  4 18 20  0 22  2  1 18  1  4  1  2  2 26  3  1  0 31  5  0 31
  0  0  2  4  1 28  0 31 27  4 36 33  2  1  3  0 32 34  0 32  1  0  1  3
  1  1 37  5 37 37  2  0 45  5 40 41  0 40 43  3  3 43  1  0 40  3 44 41
  2  2 44 25 36  7  8]"
1700,341.0,0.90625,4,1,8.31620454788208,4.376256465911865,922,6800,85366,482617,"[ 3  3  3  0  1  2  4  1  1  0  3  0  0  1  3  5  3  1  1  0  1  0 10  1
  5  5 10  2  2  3  3  0  6  3  8  0  3 10  8  3  0  5  3  2 12  2 15 16
  1  2 11  4 13  3  1 14 12  2 13  2  0  0  0  4  2  2  3 22 18  3 21 20
  0 18 20  4 18 20  5 23 20  1 23  1  1 31  2  2 27 25  5  3 28  1  2 27
  0  0  2  4 29  0  0  2 25  0 36  3  2 36 35  0 35  1  1 32 37  2 34  2
  0 32 33  5 33 34  2  0 45  3 43  3  1 40  0  3 43  0  3  3 40  3  2 42
  1 41  0 25 36  5  8]"
1800,341.0,0.90625,4,1,8.821677446365356,5.0547051429748535,982,7200,90260,508507,"[ 5  0  3  0  1  1  5  3  1  1  0  1  0  1  3  3  0  0  2  0  2  1 10  2
  4  3  0  3  8  3  0  5  0  3  1  2  4  9  9  5  0  5  3 15 12  2 14  0
  2 11 16  5 17  3  1 11 12  2 13  2  5 11 16  4  2  2  2  1 24  2 21 24
  5 18 22  5  2  1  4 24  1  4  3 23  4 31  2  2 31 27  3 29  0  4  3  1
  0  0  2  4 29  2  1  1 25  0  3  0  0 35 38  0  3 35  4 34 36  4 38 32
  3 36 32  0 38 37  4  0  0  3  1  0  0 43  0  3 44  1  0  3 40  4  2 42
  4 45  1 25 36 39  8]"
1900,341.0,0.90625,4,1,9.306363582611084,4.846830368041992,1035,7600,95042,532477,"[ 5  0  3  5  2  2  4  3  0  0  3  1  0  1  3  0  2  2  5  3  2  1  1  8
  4  8  3  4 10  3  0  7  4  1  8  2  3  5  5  3  9  7  4 13 15  0 15 17
  2  1  1  4  3  0  2 17  3  2  1 17  3  2 17  4  2  2  1 22  1  2  2 19
  4 18 22  0 22 23  2 21  1  5 20  2  4 28 27  5 26  2  3 30 28  4  2 25
  0  0  2  4 25 26  3 28  1  0  3  0  2 35 37  5 32 37  4 32  1  5 37 34
  2 35  1  2 38 35  1 40  3  3 40  2  5 42 42  2  2  2  1 40  0  0  2 41
  0  0 44 25 36 39  8]"
2000,341.0,0.90625,4,1,9.76865530014038,4.622893333435059,1102,8000,99878,558325,"[ 1  0  3  5  0  3  3  3  1  4  2  0  0  1  3  0  3  0  4  1  2  2  6  3
  5  9 10  2  9  0  1  2  8  1  2  7  3  4  1  5  3  3  4 15  0  0 12 16
  3 13 13  4 16 17  5 17 15  5  2 14  2  2 15  4  2  2  5 22  2  2 23  3
  4  0  3  2  1 24  3  3  3  5 21 22  3 27 25  2  2  0  3  2 27  4 30 27
  0  0  2  5 28 27  2 27  0  0  3  0  5 38  1  5 33 37  3 36  1  1 36  3
  1 32 34  1 37 36  0  3 42  2 43  1  1 42 42  4  2  2  3 39 41  2 42 39
  0  3  3 25 36  9  8]"
2100,341.0,0.90625,4,1,10.20137357711792,4.3271589279174805,1161,8400,104527,581919,"[ 2  2  3  2  3  0  0  2  2  3  3  0  0  1  3  0  3  0  4  3  0  3  6  6
  3  7  9  2  2 10  2  9  8  3  6  0  4  0 10  0  9  5  0 15  0  1 16 13
  2 13 14  3 12  3  2 11 15  1 12  2  1 12  2  5  2 19  5 19  0  4 20  3
  3 20 19  5 20  0  1  0 23  3 19  0  3 28 30  4 27 29  3 28  3  5  1 29
  0  0  2  4 30  0  5  2 25  5  2  0  5 34 35  5  0  0  1 36 32  2  3 37
  4 34  3  4  1 34  4  0  1  3  1  1  1  1  2  4  2  2  0 42 45  1  3  3
  4  0 42 49 36  9  8]"
2200,341.0,0.90625,4,1,10.665335178375244,4.639592170715332,1217,8800,109523,608147,"[ 2  1  1  2  0  1  0  1  2  0  2  1  0  1  3  2  3  0  4  0  0  2  5  6
  3  2 10  2  3  8  5  1  6  1 10  0  4  1 10  5  7  7  0 15 14  0 13  0
  5 11  1  4  2 17  0 11  1  1 13 12  3  2 14  3 22  0  2  0 22  0 18 22
  1 22  0  4  3 23  0 22 23  2  0 24  5 30 25  4  3 27  1 30 30  3  1 25
  0  0  2  5 25 30  1  2 29  4 36 38  1 38  1  2 33 38  1  2 36  4  2 35
  4  3  3  3  0 36  4  2 45  2  2  1  2 41 42  0  2  1  0  3 43  3  1 41
  2  2 44 44 36  6  8]"
2300,341.0,0.90625,4,1,11.113562107086182,4.482245445251465,1259,9200,114411,633171,"[ 3  3  3  4  3  3  0  1  2  1  0  0  0  1  3  0  1  2  0  0  3  3  8 10
  0  8 10  4  8  2  2  0  9  4  7  0  3 10  8  4 10  4  0 11 15  4  1 14
  4 17  2  2  1 16  4  0  1  0  0 15  1  2  0  2 24  0  4  3 23  2 24 23
  1  1 24  3 19 20  4  1  2  2 18 24  5  2  1  3 29  0  3  2 25  2 26 27
  0  0  2  2  1 29  2  1 28  1 32 33  4  0  0  1  1 35  4  1 38  2 32 34
  4  3  3  1 32 36  0 44  1  3  1 39  3 45 40  0 41  1  2 42 39  3 40  3
  3  1  1  5 36 10  8]"
2400,341.0,0.90625,4,1,11.548888206481934,4.3532395362854,1320,9600,119268,656181,"[ 3  0  2  4  3  3  0  3  0  1  0  1  0  1  3  1  2  2  0  0  3  5  4 10
  4  6  1  4  6  4  2  6  9  4  3  5  1  1  6  3  0  4  4 14 16  0 17 16
  0  1 16  1 17 17  3 17 11  1 16  0  2  1  3  3 24 19  4  1 22  0 24 20
  0 24  1  5 20  0  5 22 18  1 22  3  5 29 25  2 31 27  2 26 27  5  1 28
  0  0  2  1 28  2  3  0 27  3  0 32  0  0 35  3  1  0  3 32  1  5 33  1
  1 38 38  5  3 36  0 42  1  1 45  3  1 45  0  2 42  2  5 42 39  2  2 40
  2  2 41  5 36 10  8]"
2500,341.0,0.90625,4,1,11.986497163772583,4.376068115234375,1377,10000,124198,680177,"[ 3  2  0  4  3  3  3  0  0  5  3  0  0  1  3  3  2  1  4  1  2  4  6  9
  1  1  2  0  9  6  0  2  5  4  8  2  0  2  0  4  0 10  4 17  0  1 11 11
  3 16  0  1  2  0  4  0 16  2 14  0  4 13  1  3 21 20  4 20  0  3 19 22
  4  1  0  4 18 24  0 23  2  1 19  0  0  0  3  3  1 30  0 31  1  5  1 27
  0  0  2  1 28 26  3 28 27  4  3  1  3 33 35  3  0 34  2  1 34  1 33 34
  4 33 36  5 35 34  0 42  0  4  3  2  5 44  1  0 43 45  3 43 39  1 42  3
  2 45  3  5 36 32  8]"
2600,341.0,0.90625,4,1,12.441850900650024,4.553515911102295,1432,10400,129143,705606,"[ 2  2  1  4  3  3  1  3  0  5  1  1  0  1  3  4  0  3  2  3  3  1  0  8
  3  3  3  4  4  8  1  8  3  1 10  6  0 10  2  1  1 10  0 12  0  2 16  1
  2 17  0  2  2  0  1 14  2  1 13 15  0  0 15  3 19 24  0 24 24  4 20 22
  2  2 22  3  2 23  1  1  3  1 23 24  0  0  3  2 31 31  0  2  2  0 27 29
  0  0  2  0  1 30  3  0 27  4 35 35  3  3 34  1 34 33  5  1 32  0  1 37
  4  1  2  1 37  1  1 42 41  5 45 41  4  2 44  5 41  0  3 39  0  1  0  2
  0 43  1  5 36 32  8]"
2700,341.0,0.90625,4,1,12.906485795974731,4.646327495574951,1488,10800,133961,731626,"[ 0  3  1  4  3  3  5  2  1  5  2  1  0  1  3  2  1  0  1  3  3  4  4  9
  3  3  7  3  3  4  2  9 10  1 10  0  1  9  6  1  8  7  3  0 11  1 15 11
  1 17 11  3  2 17  1 12 15  3 13 15  2  2  3  4  3 24  3  2  0  1  1 19
  1 18 20  4 18 19  0  1  3  1 18 24  0  0  3  0 29 25  2 25 29  2  1 26
  0  0  2  0 28  3  0 31 27  2  2 35  0 37 38  1  1  0  2 32 35  2 34 32
  3 32 37  3 38  2  4 43 40  1  0 43  2  0  0  4 41  0  5 39 41  4  3 41
  4 45 42  5 36 32  8]"
2800,341.0,0.90625,4,1,13.357990980148315,4.515023231506348,1550,11200,138603,756923,"[ 5  1  3  4  3  3  1  0  1  1  1  1  0  1  3  2  0  2  0  3  3  4  1  4
  0  6 10  2  6  7  4  2  8  3  2  8  3 10  6  1  6  1  0  0 11  2 17 11
  1  1  1  3  1 17  5 15  3  4 15 13  3 16  2  1 21 22  5  2 19  1  1 18
  5 24 19  2 23  3  4 24 20  4 21  1  0  0  3  3 27 25  1 30 26  0  3 26
  0  0  2  3 26  3  1 30 27  2 34 33  3 37 33  4 38 36  0 35 36  2 38 37
  4  0 36  3 36 36  1 44 44  3  0  3  4 44 41  2 45  0  1 45 41  2  3 41
  2 45  0  5 36 32  8]"
2900,341.0,0.90625,4,1,13.803925037384033,4.459316730499268,1605,11600,143264,781575,"[ 0  1  3  4  3  3  4  2  1  1  1  0  0  1  3  0  2  2  5  3  3  1  8  7
  2  5  7  2  0  1  5  3  1  5  1  1  3 10  6  0  8  1  2 14 11  1 15  0
  4  1 12  3 12 12  1 17  1  3 17  1  3 17 16  0 18 19  5 23 19  1  2  0
  1  3 21  2  2  3  2 23 18  4 21  1  0  0  3  1  2  3  0  3  3  5  2 26
  0  0  2  4  3 25  1 30 26  5 37 33  5  2 36  3  0 36  3  0  1  5  0 37
  0  0  1  2 36 38  1 45  0  5  0 41  3 40 41  3 42  3  5  3 41  5 45 40
  1 41 39  5 36 32  8]"
3000,341.0,0.90625,4,1,14.248392581939697,4.4446516036987305,1653,12000,148181,806115,"[ 4  1  2  4  3  3  1  2  1  4  0  0  0  1  3  1  1  2  3  1  0  3  7  9
  0  5  8  2  7  6  4  7 10  2  4  3  1  3  4  0  7  8  2 13 16  4 17 14
  5  2 12  2 14 17  2 16 15  5 16 17  5  0 11  1 21  0  5  1 18  3  0 18
  4  0 20  2 24  1  0 23 18  4 22 20  0  0  3  0 26 27  2 27 25  0 31  3
  0  0  2  2  1  0  1 31 26  2 37 38  5  2  3  0 32  2  0 34  1  5  0 38
  1 38 38  3 33  0  4 39  0  3 45 39  0 43  2  2  2 43  5 39  1  3  2 43
  1 45  2  5 36 32  8]"
3100,341.0,0.90625,4,1,14.705119848251343,4.567248821258545,1711,12400,153167,832114,"[ 0  0  0  4  3  3  3  2  1  4  0  2  0  1  3  2  0  3  5  0  3  1  7  2
  2  6  8  1  5  1  0  2  8  1  7  7  2  5  7  2  5  6  3 12 15  5 14 15
  5  3 13  5 15  3  2 17 14  4 13 17  0 14 11  3 21 20  4  1 20  0 21  3
  2  2 22  3  3 23  2  1 18  1  3  0  0  0  3  0  0  0  5 28 31  0 25  3
  0  0  2  1 27 26  3 25 31  5 33 34  3 34 38  3  2 35  5 37 38  2 35 32
  3 37 33  0  2 38  2 39 44  5 40 44  1 42  2  3  3 41  3 43  0  2 45 44
  0 45  1  5 36 32  8]"
3200,341.0,0.90625,4,1,15.159782886505127,4.546606540679932,1757,12800,157984,857764,"[ 5  3  2  4  3  3  0  0  3  3  3  2  0  1  3  1  1  1  5  2  1  2 10  8
  4  3  3  4  2  6  4  8  5  3  5  5  4  9  1  1  2  6  0 12  1  3  2 11
  2 17 12  2 12 17  2 13 16  5 14 13  4 14  3  0 22 21  0 19 23  5  3  3
  0  2  0  5  1 22  2 22 18  2 18 24  0  0  3  0  1 30  2 30  1  0 26  1
  0  0  2  4 31 28  4 25 30  5 36 34  0 37 38  2 35  0  0 35 37  3  3 34
  5  0 33  1 33 33  2 44  3  5  0 40  0  0 41  2 41 40  4  1 45  5 45 45
  0 45 43  5 36 32  8]"
3300,341.0,0.90625,4,1,15.609991073608398,4.502058029174805,1814,13200,162785,882812,"[ 4  3  2  4  3  3  0  3  2  3  2  1  0  1  3  2  2  1  2  1  0  3 10  3
  2  3  1  0  0  4  5  0  0  5  5  5  3  8  6  4  1  1  2  0 17  5 15  3
  5 13 13  3  1 12  0 11 12  4 15 15  1 17 17  5 23 22  2 19 19  2  3 22
  5  0  1  2 21  0  5 19  2  3 23 22  0  0  3  5 25 30  3 26  1  1  2 27
  0  0  2  3 30  0  1  1 29  3  2 35  5 38  0  3 35  2  3 38 37  2  3 35
  0 33  3  0 32 37  2 42 42  1 42  3  1 42 44  0 44  0  3 39 44  5  1 42
  5 41 39  5 36 32  8]"
3400,341.0,0.90625,4,1,16.076067686080933,4.660742282867432,1866,13600,167650,909536,"[ 1  1  0  4  3  3  1  1  1  4  2  1  0  1  3  2  3  1  1  2  1  5  8  0
  1  7 10  4  1  0  5  0  0  2  2  0  3  5  3  4  1  8  1 16 17  5 15 13
  2 13 13  3 15  1  3 12 16  5 11 16  2 15 12  4  1 23  4 18 20  1 20 20
  0  2 21  0 22  0  2 24 20  1  3  2  0  0  3  1 25  0  1 29 31  4  3  2
  0  0  2  3 25 26  2  1 27  5 34 38  1  0 34  0  3 37  4  2 37  2 35 35
  1 33 35  0  3 37  1  2  2  2 40 42  1 42  2  3  1 40  4 45  0  2 45 42
  0 42 39  5 36 32  8]"
3500,341.0,0.90625,4,1,16.5316481590271,4.555776119232178,1923,14000,172482,934572,"[ 1  2  3  4  3  3  1  1  1  4  3  0  0  1  3  5  3  2  4  3  3  0  9  9
  3 10  8  1  5  3  0  0  6  5  3  9  4  7  8  2  6  8  5 17 16  3  1 13
  2  3 16  4 14 17  2 16  2  4 11 16  4 13 16  4 23 24  3 22  1  4 23 22
  4 20  0  2 20  1  3 18 23  1  0  1  0  0  3  0 29  2  4 25 26  2  3  1
  0  0  2  4 30 26  2  3 30  0 35  0  1 36 36  0 38  1  2 34 33  0 35 33
  0  3 35  2 35 35  2 41  3  0 41 42  2  1  2  2 42 45  0 42  0  4 43  1
  4 43  3  5 36 32  8]"
3600,341.0,0.90625,4,1,17.007975578308105,4.763245582580566,1980,14400,177249,960855,"[ 1  1  2  4  3  3  2  1  0  1  3  0  0  1  3  5  1  3  4  1  3  5  7  2
  1 10  8  1  8 10  3  3 10  0  2  6  1  7  9  2 10  9  3 17  2  3 17 12
  1  0  1  4 16 13  4  1 13  3 11  1  5 13  0  4 18 24  3 21  3  4  3  1
  4 20 21  5 21  0  1 18 18  5  0 24  0  0  3  0 30 29  2 25  0  4 26 26
  0  0  2  2  2  1  2 30  3  0  2  1  3 35 35  5  3  1  3 34  2  5 32 32
  2  0 32  2 36  0  2 44  3  1 40  1  4 40 41  5 42  1  0 43 39  5 39  3
  3  0 40  5 36 32  8]"
3700,341.0,0.90625,4,1,17.46951937675476,4.6154069900512695,2034,14800,182086,986345,"[ 5  1  0  4  3  3  5  0  2  3  2  1  0  1  3  4  1  3  1  0  2  0  1  3
  2  0  8  5  6  9  1  1  6  1  7  0  4  8  0  1 10  2  1 11 12  1 11 13
  0 17 14  0 15 17  0  0  1  1 14  0  1 15  0  5 19 18  1  2 18  4 24 24
  0  1 22  5  0 23  0 20 20  2 19  2  0  0  3  2  3 28  0  1  1  3 31 27
  0  0  2  4 30 27  4  2  0  5 33 35  3 36 33  2 35  3  1 34 35  5 38 37
  2 34 35  0 33  3  3 41 45  2 39  0  0 43 45  4  1 43  5 41 45  4  0  2
  5  2  0  5 36 32  8]"
3800,341.0,0.90625,4,1,17.920220136642456,4.506983757019043,2090,15200,186999,1010870,"[ 1  2  3  4  3  3  2  2  1  1  2  0  0  1  3  5  3  0  4  2  0  5 10  3
  0  7  9  3  2  7  0  1  6  2  5  2  4  1  3  4  5  6  4 15 16  1 15 13
  0  1 11  3  0 15  1  2 15  5 15 12  3  2  1  4 19  1  0 18  1  1 18 24
  3  1  3  4 20 23  4 21 22  5 24 22  0  0  3  3 26 25  0 30 26  4 28 27
  0  0  2  0 28  3  2 29  0  0  0 38  5  1  3  4 34 33  1  1  3  3 38 37
  0  2 34  0 36  3  0 39 41  1  2  3  4 41 43  5  3 43  5 43 44  0  0 45
  1 41 45  5 36 32  8]"
3900,341.0,0.90625,4,1,18.381231784820557,4.610092639923096,2143,15600,191932,1037362,"[ 1  2  3  3  2  1  5  0  1  1  0  1  0  1  3  4  0  0  4  2  3  4  9  7
  5  6  9  1  1 10  0  1 10  5  6 10  4  8  4  4  8  7  3 16  3  3 14 16
  3 12 15  1  0  2  5  1  0  0 12  2  5 12 15  2 19 20  2 21  3  5 21  1
  4  2 18  1  3 24  5 19 23  4  2  1  0  0  3  3 26 28  0 27  1  0 25 27
  0  0  2  3  3  3  2  0  2  4  1 32  0 34 36  4 38  3  2  1 37  0 33  2
  4 34 36  4  3 38  0 41  0  2  1 43  1 44 45  5 44 44  5 44 42  0 45  3
  1 43 40  9 36 32  8]"
4000,341.0,0.90625,4,1,18.832462072372437,4.51228141784668,2191,16000,196897,1063014,"[ 4  1  1  2  0  2  4  0  3  0  0  3  0  1  3  4  0  0  0  1  3  3  6  7
  0  1  4  1  5  9  4  4  0  2 10  9  3  6  6  3  5  9  1 11 14  3 16 13
  4 12 17  1  1  2  5  1 17  2  1 16  2 14  1  3 19 20  3 24 18  0 24  1
  2  1 20  4  3  3  4 19 24  3 23 24  0  0  3  3 26 26  1 25 28  3 25  2
  0  0  2  5  3 26  0 25 28  5  2 37  4 38 35  3  0  3  5 38 34  2 33  2
  1 37  0  4  2 38  2  3  1  2  0 44  1 44 44  0 44 44  5 45  2  1  0 43
  0 45  2  9 36 32  8]"
4100,341.0,0.90625,4,1,19.28632378578186,4.538593292236328,2245,16400,201804,1088417,"[ 0  0  3  0  1  3  1  0  1  0  3  2  0  1  3  4  0  0  2  3  1  5  0  4
  1  5  1  0  4  4  2  8  3  2  5  7  0  1  3  3  9  9  3  3 17  5 14  2
  4  0 15  0  3 16  1  0 17  3 13 14  4  1 11  2  3 19  5  1 22  5 18  0
  0 21  3  3 18  3  0  2 18  5  0 20  0  0  3  0  1  3  2 30  2  3 26 29
  0  0  2  0 25 25  3  2 31  0 33 37  2 34 36  0 35  3  5 37 35  2 34  1
  4  1 36  2  1 33  2 42  3  1 45 43  0 44  1  2  2  0  3 42  0  1  2  3
  2  0  0  9 36 32  8]"
4200,341.0,0.90625,4,1,19.724015712738037,4.376897811889648,2303,16800,206566,1112759,"[ 0  0  0  5  3  2  1  3  2  3  0  3  0  1  3  4  0  0  2  1  3  3  8  8
  3  6  1  0  1  1  1  9  4  0  4  0  4  7  2  1  1  6  2 12 15  5 17 13
  4 14 16  0  1 16  3  2 13  0  0 12  4  2  0  4 18 19  4  1  1  4 24  1
  0  3 18  3 20  2  1 21  0  5 19 24  0  0  3  0 30 27  4 30 27  4 30 25
  0  0  2  5 28 25  5 26 29  1  2  1  0 35 37  4 38 38  2  0  3  5  2  1
  3 32  0  1 38 38  4 42 44  4 41 44  1 40 44  5  1  1  1 44 41  4 45  3
  0  0  0 26 36 32  8]"
4300,341.0,0.90625,4,1,20.167609691619873,4.435915946960449,2366,17200,211335,1137527,"[ 4  0  1  4  0  1  5  3  3  3  3  2  0  1  3  4  0  2  4  2  0  0  0 10
  3  6  1  5  5  0  2  2  4  3  7 10  1  9  2  1  8  6  3 15 15  4 14  3
  2 16 14  3 14  3  0 15 13  3 14  2  3  2 15  0 19 24  4  1  1  2 20  2
  1  2 18  4  3 20  2 21 20  4 19 21  0  0  3  4 30 29  5 30 26  4 27 25
  0  0  2  5 28 25  5 26 29  3 32  1  3  3  0  2 33 36  1 32  2  4 38 33
  0 35 35  4 36 38  1 42 43  3 41  0  0  0 39  2  1 41  1 45 41  5  0 39
  1  3  0 26 36 32  8]"
4400,341.0,0.90625,4,1,20.604649305343628,4.370372295379639,2420,17600,216106,1162019,"[ 3  0  1  4  1  1  1  3  3  3  3  2  0  1  3  5  0  3  4  3  0  1  9  8
  1  6  8  2  2  3  2  0  0  4  8  8  3  2 10  5  9  4  0 15 13  5 17 15
  1 14 15  5 15  1  0 12 17  4  1  3  1  1  2  4 19 18  4  1  1  1 21 20
  1  2 20  5  1 21  0  2 18  3 21  2  0  0  3  1 30 31  3 25 28  4 31 31
  0  0  2  5 29  2  0 31 29  0  2  1  0 33 36  0 36  3  5 32 32  2  1 33
  1 32 32  2  3 32  1 42 40  3  1  3  0  0  1  5 40 40  0 43 45  4  1  2
  3  3 39 26 36 39  8]"
4500,341.0,0.90625,4,1,21.138396739959717,5.337438583374023,2476,18000,221104,1187111,"[ 0  0  0  1  1  3  0  2  2  1  3  3  0  1  3  4  2  3  4  1  0  4  6  9
  0  4  0  3  4  1  0  9  4  4  1 10  5  3  3  2  6  0  0 17  2  1 16  3
  1  1 15  2  0  2  1  3 11  4  1 11  4  2 11  1 19 18  4  1  1  4 18 20
  1  2 22  3 22  1  5  1  3  3 20  0  3 27 25  0 30 29  5  2 30  5 26 28
  0  0  2  2 28  2  1  2 28  0  2  1  5  0 36  2  2 38  5  1 36  2  3 37
  0 33 32  0 38 35  2  2  1  3  0 44  4 39 41  2 43  0  1 43 43  0 43 42
  3  3  2 26 36 39  8]"
4600,341.0,0.90625,4,1,21.68851113319397,5.501117706298828,2534,18400,225934,1213075,"[ 3  0  3  1  0  3  0  0  3  0  3  0  0  1  3  5  1  0  0  1  0  3  5  9
  5  2  3  1  9  9  0  6 10  5  6  7  5  3 10  4  6  2  1 15  0  3 17 11
  0 17 15  2 14 14  1  0 14  4 11  0  4 12 12  4 19 18  4  1  1  4 24  3
  3 21 20  4 21  1  1 21 24  0  2  3  3 25 27  5 30 31  5 31 30  3  3 28
  0  0  2  3  0 25  3  2  2  0  1  1  0 34 34  4 33 35  3  3 35  0 37  1
  1 32 34  0 34 38  1 45  1  5 39 43  3 45 45  3 43 40  4 41 40  4 43  1
  3  0  2 26 36  7  8]"
4700,341.0,0.90625,4,1,22.13585329055786,4.473397731781006,2591,18800,230812,1237250,"[ 2  3  0  2  0  0  4  0  0  0  3  0  0  1  3  3  1  1  1  1  1  3  5  4
  4 10  3  1  5  8  4  5  8  0  6  9  5  5  4  4  6  7  5 15  3  0 15  2
  0  3 17  2 12 16  1 17 12  4 11  0  1 12  0  1  0 18  4  1  1  5  3  0
  2 18  0  5 21 21  0 21 19  3  3 24  3 25 27  3 26 28  5 30 30  3 25 26
  0  0  2  3  0 27  1 31  3  0 36 38  5 32  1  4  1  3  3 34 36  1 37 36
  2  3  3  2 36 37  5 45 44  5 39  1  3  1 42  5 41 43  5 40 45  5  2  2
  1 45  2  6 36  7  8]"
4800,341.0,0.90625,4,1,22.575191497802734,4.393355846405029,2643,19200,235797,1260837,"[ 3  3  3  5  3  3  4  0  0  0  3  0  0  1  3  5  3  2  3  0  1  2  2  4
  4  7  3  2  1  2  4  8  0  5  5 10  3  5  1  0  6  1  3  3  1  1  3  2
  2  1 16  4 13  1  2 14 12  3 12  3  5 12  0  1  0  3  0  2 19  1 20  2
  5 19  3  1 24  2  4 18 18  1 18 23  4 31  1  0  0 31  1 28 27  4 29 25
  0  0  2  3 30  0  0 31 29  4 33  0  4 32 34  4  2 36  3 32 36  3  2  3
  2  1 33  5 36  0  5 42  1  4  2 44  2 43 40  5 45 42  3  3 44  4  2 44
  2  2  2  6 36  7  8]"
4900,341.0,0.90625,4,1,23.012919902801514,4.377260208129883,2683,19600,240757,1284053,"[ 2  3  2  4  2  1  4  0  0  0  3  0  0  1  3  0  1  0  3  0  1  4  7  2
  5  7  9  2 10  2  1  4  5  1  0  4  1  8  6  0 10  5  0 11 12  0 15  0
  0 17 13  5  0  1  4 14 13  1 15 12  3 11 17  2 21 20  0  3  2  5 21 21
  3  3 23  3 21  2  1  2 21  4 19 22  4  2 30  5 25 31  3 30  2  5 30  3
  0  0  2  3 30 31  0  2  0  0 34  3  2  1  3  2  0 37  1 33 34  5 38  0
  0 37  0  4 38 36  5 39  0  4 41 40  1 44 44  3 45 39  4 40 39  4  0  2
  4 43 42  6 36  7  8]"
5000,341.0,0.90625,4,1,23.45493197441101,4.420099258422852,2736,20000,245767,1307215,"[ 5  0  3  0  2  2  4  0  0  0  3  0  0  1  3  5  1  2  0  0  2  1  5  7
  1  6  0  1 10  7  1  4  3  5  6  8  1  9  6  2  9  6  3 11 12  3 17 17
  4 16 11  0  0  3  2  0 11  3 12 11  5 11 17  5  2 22  0  0 19  3 23 21
  2  2 19  0  2  3  4  1 22  1 20 18  4 31  1  5 31  0  3  1  0  2 25 29
  0  0  2  4  0  1  3 31  0  1 34  0  0  3 38  5 36  2  2  3 38  4 36  3
  1  0 33  4 38  0  4  3  1  2  3 42  1 44 45  2 45  2  0 40  1  0 40 41
  4 42 41  6 36  7  8]"
5100,341.0,0.90625,4,1,23.899008750915527,4.440746307373047,2789,20400,250649,1331438,"[ 2  0  2  4  2  0  4  0  0  0  1  3  0  1  0  3  3  2  2  0  3  5  8  5
  3  1  0  2  7  6  1  8  8  3  3  3  5  4  7  0  4  3  5  0 13  0 13 16
  5 17 17  0  0  3  0  3 11  5 12 14  5  2 16  5  2 20  2 21 22  4  1  1
  5 21 23  0  2 23  2 19 20  2  2 20  1 29 27  4 30 30  2  0 28  4 31  1
  0  0  2  4 25 30  3 31  0  5 33 34  0 36  3  2 35 36  5 36 34  2 35 35
  3  1 38  4 38 36  4 40  0  1 43  2  0 45 45  5  2 44  5 39 42  0 45  2
  4 40  3  6 36 21  7]"
5200,341.0,0.90625,4,1,24.33898663520813,4.399755001068115,2849,20800,255606,1355485,"[ 1  2  2  1  2  1  4  0  0  0  1  3  2  1  0  1  0  0  3  2  1  5  9  0
  3  6  7  1  4  2  4  1  7  0  3  0  1  9  7  0  4  2  5 13 13  1 16  3
  5  0  1  0  0  3  5 13 16  4 11 15  5  1 13  5 24 22  2  1  0  3 24 20
  4 18 22  1  3 18  5 23  0  4  2 24  1  0 30  1 28  1  2 31 26  0  2 31
  0  0  2  5 27  0  0  0 30  0  2 33  0  2 35  3 37  0  5 35  1  4 32  3
  2 34 35  3  0 36  4 41 41  0 44  2  4 45  1  1  0 41  5  0 42  4 45 44
  2 41  0  6 36 21  7]"
5300,342.0,0.921875,6,3,24.860926389694214,5.219371318817139,2888,21200,260819,1383508,"[ 2  1  1  0  1  2  0  0  2  0  1  3  5  2  2  2  3  2  3  0  3  0  6  7
  5  6  2  5  0  8  4  3  6  2 10  3  0  9  1  1  3  2  0 11  0  3 14  2
  4 13 14  0  0  3  1 17 11  0  2 15  4  2 16  1 21 24  0 19  3  0 19 22
  0 18 19  3 23  3  1 22 21  3  3 23  5  3 25  0  3  1  0 25 30  0 26  1
  0  0  2  3  1 31  4 25 28  3  2 35  5 36  0  1  0  2  0  0 33  1  0  3
  3  2  2  5 37 33  2 41 40  3 42 39  4  2  0  3 43  0  5 40 41  5 42 45
  1  3  1 18 36 21  7]"
5400,351.0,0.953125,7,3,25.411027431488037,5.500984191894531,2934,21600,265512,1416500,"[ 0  3  2  0  2  0  0  1  2  0  1  3  3  0  0  0  1  3  4  0  3  0  6  7
  5  2  5  2  9  5  4  3  6  0  5  9  2  4  7  3  2  2  0 11  0  4 14 13
  4  0 17  0  0 14  3 13  1  4 14 14  0 12 16  0  1 18  2 19  3  5 21 22
  2  0  1  1  1  0  4  3 22  2 20  3  3 28 25  0 30  0  0 29  0  5 26 26
  0  0  2  3  1 28  2  1 31  3  2 35  5  0  3  3  3 36  4  0  2  5 37  3
  4  2  3  4 38 35  5 44 40  3  1  0  5  2 43  4 40 40  5  1  1  0 43  2
  5  3  1 18 36 21  7]"
5500,353.0,0.96875,8,5,25.883224725723267,4.721946716308594,2994,22000,269481,1447413,"[ 0  0  3  0  0  0  0  1  2  0  1  3  4  1  1  4  1  3  4  0  1  0  6  3
  1  1  5  3 10  8  4  3  6  1  5  5  3  5  3  2  2  2  0 11  0  0  3 15
  0 14 13  0  0 14  0 14 12  1  3 14  2 17  3  4  0 18  0 21  0  5  0  2
  2 23 24  3  3  3  4  3  1  2  1 20  0 25 25  0  2 30  0 29  3  2 27 26
  0 25  2  3 31 28  2  1  3  3 34  2  5  0  3  4  3 35  0 33  2  4 35 38
  0 37  3  2 38 38  2 39  2  3  1 44  2  1 40  3  2 40  4 39  2  0 39 45
  5 44 42 18 36 21  7]"
5600,353.0,0.96875,8,5,26.34780216217041,4.645750522613525,3048,22400,273216,1478360,"[ 3  1  0  1  0  1  0  1  2  0  1  3  5  2  1  4  3  2  2  0  2  0  6  3
  5  4  8  3 10  5  4  3  6  2  0  6  1  5  3  2  5  0  0 11  0  3  3 11
  3  3 11  0  0 14  3 17 12  2  2  3  2 16  3  4  0 18  2 21 22  2 21  2
  2 19 21  3  0 20  4  0 22  4  0 20  0 26  0  0  1 31  5 29 25  2 27  3
  0 25  2  4 31 28  5 30  3  3 34  2  3  0  3  1  3 32  1 33  2  1 32 38
  0 37 32  1 38 34  2 39 43  2 41 44  0  2 41  4 45 40  4  2 45  0  1 45
  5 44 39 18 36 21  7]"
5700,353.0,0.96875,8,5,26.811604738235474,4.638004302978516,3104,22800,276955,1509471,"[ 3  3  2  1  0  0  0  1  2  0  1  3  5  0  1  2  0  2  4  0  3  0  2  7
  5  4  9  0 10  9  4  3  6  4  0  9  1  8  8  2  5  7  0 11  0  3 12  0
  3  3 11  0  0 14  4  2 12  1 15 14  5  2 13  4  0 18  0  3  0  5 24  2
  2  0 19  2  3 23  1  0  1  3 22 20  5 26  0  5  0 26  3  1  3  2 28 30
  0 25  2  4 28  3  0  1 30  4 34 33  3  0  3  0  3 32  1  2 36  5 32 34
  4  3 36  0  3 34  0 39  2  2 43  3  4  2  3  4 39  3  1 40  1  5 45 43
  3 44 39 18 36 21  7]"
5800,353.0,0.96875,8,5,27.263293266296387,4.516861438751221,3164,23200,280559,1539360,"[ 3  0  3  2  3  3  0  1  2  0  1  3  5  0  1  3  2  3  2  2  0  0  6  7
  5  3  3  0  0  9  4  3  6  1  4  3  5  0  8  0  5  1  0 11  0  3  2  0
  5  0 11  0  0 14  1 12 12  0  2 16  1  2 13  4  0 18  2  1  1  1 19 23
  0 19 18  2 24  2  4  1 24  3 22 22  2  1  0  5  0 25  4 28 31  3 31 30
  0 25  2  5 26 25  2 25 30  2 34 33  4 34  1  0 38 37  1  0  0  5  3  2
  0  3  3  3  3  3  2  2  2  1 44 44  1 43  0  5 39 41  1 42  3  3 39  2
  3  0  2 18 36 21  7]"
5900,353.0,0.96875,8,5,27.705520153045654,4.422245025634766,3227,23600,284110,1568691,"[ 3  1  3  3  1  3  0  1  2  0  1  3  1  0  3  4  2  3  2  2  0  0  2  7
  3  7 10  4  0  8  4  3  6  5  6  7  5  1  8  5  2  6  0 11  0  3  0  0
  5 14  0  0  0 14  2  2 11  0  2 15  2 15  3  4  0 18  0 24  1  4 19 20
  0 19 20  2  3 19  5  1 23  0 22  2  2 26 25  5  0 28  4 28  0  4 28  3
  0 25  2  0 26  3  1 25 30  4 38 33  4 34 32  5 38  1  2 36  3  2  3  3
  0  3 37  3 38  2  3  2 39  4  2 41  1 41 42  3 39  2  2 43 40  3 39  2
  3  0 45 18 36 21  7]"
6000,353.0,0.96875,8,5,28.154995679855347,4.494733810424805,3285,24000,287726,1598626,"[ 0  3  0  3  1  3  0  1  2  0  1  3  0  0  3  4  1  3  1  2  2  0  2  7
  2  6  1  4  0  3  4  3  6  5  1  7  4  1  4  4  4 10  0 11  0  3 11 11
  2 15  1  0  0 14  2  2  0  4 13 17  0 12  2  4  0 18  2 24 18  4 19 22
  0  2 24  2 21 21  2 20  0  5 19  2  4  3  1  5  0 25  1  3 28  0  0  3
  0 25  2  3  0  3  1 25  0  4 38 36  4  1  2  4 33 37  2 33  3  0  2  0
  0 38  0  3  2  2  1 43 43  4 40  0  1  2 39  5 39  2  5 43 41  0 44 39
  4  0 41 18 36 21  7]"
6100,357.0,0.984375,9,5,28.60591769218445,4.5092010498046875,3341,24400,291234,1628500,"[ 4  3  0  5  0  3  0  1  2  0  1  3  0  0  3  3  3  0  5  3  1  0  2  7
  1  7  1  4  5  2  1  3  6  2  4 10  4  1  9  1  0  6  0 11  0  2 13 14
  2 15  1  0 17 14  2  3 12  2 13 17  2 12  2  4  0 18  2  0 18  4  0 18
  5 22 24  3 21 22  2 19 18  1  0  2  5  3 27  5 30 30  4  3 30  4 30 28
  0 25  2  2 25 25  3 25  1  4  1 37  5 35  2  2 37 38  3  0  1  3  3 33
  5  2  0  5 38  2  1 43 40  2 40  0  0  1  0  1  3  2  3 43 41  2 41  3
  1 43 41 18 36 21  7]"
6200,357.0,0.984375,9,5,29.13815212249756,5.322318077087402,3394,24800,294521,1658301,"[ 5  1  2  1  0  3  0  1  2  0  1  3  0  2  3  2  1  0  5  3  1  0  2  7
  3  5  1  3  7  2  1  3  6  1  4  2  0  6  7  1  0  6  0 11  0  2  0 14
  1 14  2  0 17 14  4  3  1  2  1 12  2 16  2  4  0 18  5 21 18  4  0 18
  5 21  2  2 23 18  1 19  3  4  0  2  1  3 25  5  3 30  3 25 31  5 26  0
  0 25  2  5  1 30  2 25  1  4 34 37  5 36  0  3 37 34  3 32 38  3 38 33
  2  2  0  5 38 34  1 43  2  0 40  0  3  2 40  2 39  2  3  1 44  2 41 39
  1 44 41 18 36 21  7]"
6300,357.0,0.984375,9,5,29.613748788833618,4.7559428215026855,3444,25200,298006,1689936,"[ 0  1  2  3  0  3  0  1  2  0  1  3  0  3  3  5  1  0  4  2  1  2  3  1
  1  0  6  5  1  2  4  3  6  1  4  5  0  6  7  1  0  6  0 16  0  3  0 15
  1  1 17  0 17 14  4  3  1  0 13 11  2 16 13  4  0 18  5  1 18  4  0  0
  5 21  2  3  0 18  1 19  3  2 18  2  2 25 25  5 26 27  0 30 25  5 28  1
  0 25  2  3  1 30  1 25  1  4 36  2  5 36 38  5 35  2  5  0 35  1 35 37
  0 32 37  2  0 34  4 43 39  4 41  2  2 39 41  2 42  2  4 42  3  4 44  3
  5 44 39 18 36 21  7]"
6400,357.0,0.984375,9,5,30.06943130493164,4.5568037033081055,3499,25600,301329,1720774,"[ 0  3  2  1  0  0  0  1  2  0  1  3  2  3  2  2  2  1  3  0  2  3  9  1
  4 10  4  3  0  5  1  3  6  3  0  7  0  6  7  1  0  6  0 16  0  3 12 16
  4  3  2  0 17 14  2 14  1  2  1 13  1 12 12  4  0 18  5 21  1  5  0 23
  5 19 21  0  0 18  3  2 18  2 19 19  4 30 29  5 31 27  2  1 31  0 31 27
  0 25  2  0  3  3  1 31  1  2 34 35  4 36 38  0 36 32  1  0 32  4 35 34
  5  2 33  2 34 34  4 44  0  5  3 44  4  0 39  2 43 44  4  3  3  3 45 41
  1 43  1 18 36 21  7]"
6500,357.0,0.984375,9,5,30.483148336410522,4.13715124130249,3555,26000,304255,1747793,"[ 0  3  2  3  1  1  0  1  2  0  1  3  0  3  2  3  0  3  3  2  2  3  0  1
  4 10 10  1  8  1  4  3  6  3  5  7  0  6  3  1  0  6  0 16  0  3 12  3
  3 12  2  0 17 14  1 14  2  4  1 14  5  2  0  4  0 18  5 18  0  2 22 22
  5 19 21  2  0 18  5 22 18  3 22 22  1 28 28  5 31 31  4 26  3  0 27 29
  0 25  2  3  1 30  1 31  1  2  2  3  4 34 34  0  1 32  5  3 35  4  2 32
  5 38 34  2 36 34  3  1 41  5  3 45  3  3  0  2 43 44  5  3 40  4 42 41
  1  1  1 18 36 21  7]"
6600,357.0,0.984375,9,5,30.942418336868286,4.592676162719727,3602,26400,307658,1779263,"[ 2  1  2  2  2  2  0  1  2  0  1  3  0  3  3  3  0  0  4  2  0  2  1  0
  5  1 10  2  8  6  1  3  6  3  7  2  0  6  7  4  0  6  0 16  0  2 13 13
  5 17  1  0 17 14  4 16 16  1 17 16  5  2  1  4  0 18  2 21  1  0 22 19
  5 19  2  2  3 24  2 22 24  2 19  2  2 30 29  2 31  0  2 25 28  3  2 29
  0 25  2  0 26 26  5 25 30  3 32 33  3 34 34  3  2  3  1  3 35  1 38  3
  4  1 35  4 36  2  1 42  1  2  0 45  3  2 43  5 39 44  5 42 40  2 39  3
  5  2  1 18 36 21  7]"
6683,363,1.0,10,5,31.313302755355835,4.4684611171124935,3648,26732,310389,1804311,"[ 1  3  0  2  1  0  0  1  2  0  1  3  0  3  0  3  0  0  1  2  3  1  1  0
  5  9 10  0 10  9  1  3  6  3  6  9  0  6  7  4  8  6  0 16  0  1 16 13
  2 15 15  0 17 14  4  1  2  3 17  0  4 17 14  4  0 18  2 21  1  0  1 19
  1  1  2  2  0 24  0 18 19  4 19 21  2  2 29  4  3 30  1 25 28  3  0  0
  0 25  2  3 28 26  5  2  3  3 32 37  3 34 34  3 34  3  1 37 35  1 38 35
  4 35 38  4 37 38  0  2 42  2  0 45  5  0 43  5 40 45  5  0 40  5 39 44
  5 41  1 18 36 21  7]"
6700,363,1.0,10,5,31.37834668159485,3.8259590373319736,3657,26800,310803,1808408,"[ 0  3  3  2  1  0  0  1  2  0  1  3  0  3  0  3  0  0  1  2  3  1  8  0
  5  9 10  0 10  4  1  3  6  3  6  2  0  6  7  4  8  6  0 16  0  1 16 13
  2 15 15  0 17 14  4  1  2  3 17  0  4 11 15  4  0 18  2 21  1  0  3 19
  1 18 20  2  2 24  0 23 19  4 19 21  1  2 29  5  3 30  1 25 28  3  0 31
  0 25  2  3 28 26  4 27  3  3 38 37  2  1 34  3 36  3  1 37 33  2 38 35
  4 35 38  4 37  3  0  2 42  2  0 45  0  0 43  3 44  0  0  0 40  1 39 44
  5 41  1 18 36 21  7]"
6800,363,1.0,10,5,31.777297258377075,3.9894795417785645,3713,27200,313431,1834525,"[ 1  2  3  4  0  0  0  1  2  0  1  3  0  3  0  3  0  2  1  2  2  1  5  2
  5  9  4  5  3  6  1  8  2  0  0  2  0  2  7  4  8  6  0 16  0  1 15 14
  5 15 12  0 17 14  5  0 17  3 15 17  1  1  3  4  0 18  1 22  3  1  2 19
  2 21 20  3  2  2  4 23 23  0 19 21  3 31 31  1  3 28  0 26 28  4 27 28
  0 25  2  5 28  0  4 27 28  2 34  1  5  1 32  3  0 35  0  0  0  2  1  2
  3 37 38  5 37 38  0  1 45  0 43 43  5 41 45  2 44  0  0 40 40  0 39  1
  5 40  0 18 36 21  7]"
6900,364,1.0,9,5,32.16784691810608,3.90547513961792,3760,27600,316104,1859847,"[ 1  2  1  3  3  0  0  1  2  0  1  3  0  3  0  3  0  2  0  2  2  1  1  1
  0  3  6  0  4  3  3  3  6  3  6  6  0  2  7  4  8  6  0 16  0  0 16 14
  5 14 17  1 17 17  0 16  1  3 11 11  3 13  3  4  0 18  2 19  0  0  1 18
  0 21 21  3  3 23  0 23 23  3 19 24  2 25 29  1 25  3  4 30 28  4  1 28
  0 25  2  4 27  1  1 27 31  3 37  1  4  3 36  1 35  2  2  0  0  2 37  2
  3 36 35  5  3 33  5 39 45  0 43  2  5  2 41  5 44  0  5  1 40  3 41  0
  5 45 43 18 36 21  7]"
7000,364,1.0,9,5,32.53434348106384,3.6649417877197266,3811,28000,318678,1882831,"[ 4  0  2  0  3  1  0  1  2  0  1  3  0  3  0  1  1  1  4  3  0  1  9  4
  1  3 10  1  4  5  2  8  6  0  3  6  0  2  7  4  8  6  0 16  0  3 16  0
  0 13  0  0 17 17  2 16  1  4 11 17  1  3  3  4  0 18  5 21 21  3  1 18
  0 21 21  3 20  1  5 23 23  1 19 24  5 25 29  2 30  3  2 30 29  0  1 29
  0 25  2  4  1  2  1  0 31  2  3 33  4 38  2  2 38  2  5  1 32  4  1  2
  0  2  2  0  1 33  4  0 44  0 43  3  3  1 45  3 39 45  3 40 42  4  2 40
  5  3 44 18 36 21  7]"
7100,364,1.0,9,5,32.941999673843384,4.076535701751709,3861,28400,321137,1904978,"[ 2  0  1  2  3  0  0  1  2  0  1  3  0  3  0  1  1  2  4  3  3  2  8 10
  5  9 10  2  9  1  1  8  0  1  3  9  0  6  8  4  8  6  0 16  0  5 17  0
  4 12  3  1 17 17  2 15 13  1 11  3  5  0  1  4  0 18  5  1 21  2 19 23
  4 19 21  1 20 23  0 20 20  1 22 20  1 25 29  2 30 28  5 31 25  4 27  0
  0 25  2  4  1  2  1  1  2  5  1 33  4 36  0  4  2  0  5 33 34  4 37 36
  1  2 38  0 37 33  4  0 44  0 43  0  3 41 40  1  1 41  3  3 42  0 39  3
  1 42  1 18 36 21  7]"
7200,364,1.0,9,5,33.34378361701965,4.017806053161621,3908,28800,323563,1926806,"[ 5  3  3  0  1  0  0  1  2  0  1  3  0  3  0  1  1  3  1  1  0  4  7 10
  2  3  6  2  7  4  2  5  7  5  4  8  0  6  3  4  8  6  0 16  0  1 14  1
  4  0 17  1 17 17  3  3 11  2 11 13  5 12  1  4  0 18  3 24 21  5 22 18
  0 18 24  0 20 24  2  0 22  0  1 20  1  1  0  1 31 28  0 25 30  0  2 31
  0 25  2  2  1  2  1 29 30  2 38 33  4  0  2  3  0 32  5 33 36  1 35 36
  1 38  1  0  0 32  0  0  2  4 44 44  3 39 41  1  1 41  0 40  3  0 40 39
  1 42  1 18 36 21  7]"
7300,365,1.0,8,5,33.686596155166626,3.4280991554260254,3965,29200,325952,1946045,"[ 2  0  2  2  2  0  0  1  2  0  1  3  0  3  0  1  2  3  3  1  1  0  9  5
  1  4  3  2  7  2  4  5  7  5  9  3  0  6  3  4  8  6  0 16  0  3 17 13
  4 12 17  1 16 16  0  2 13  4 13 13  5  3 16  4  0 18  3  1 20  1  1 18
  2  0 24  0  0  3  5 18 21  5 24 18  1  0  0  1 31  3  2 26 27  1  3 25
  0 25  2  1  2  2  5 28  3  0 38  2  3  0  2  5  0  0  2  3 33  1 36 38
  1 38  0  2 34 32  3 40 43  5  3  1  0 45 42  0 43 41  2 44 43  1  0  1
  0  2  1 18 36 17  7]"
7400,365,1.0,8,5,34.01057195663452,3.239734172821045,4023,29600,328258,1964435,"[ 2  3  2  5  1  2  0  1  2  0  1  3  0  3  0  1  2  3  3  1  3  0 10  0
  1  9  4  4  7  4  4  5  5  1  3  3  0  6  3  4  8  6  0 16  0  4  3 12
  0 15  2  1 17 16  2 12 12  1 13  3  5 13 15  4  0 18  2  3 20  1 20 21
  5 18 22  0 22 18  2 20 22  5 18 18  4 27 29  1 29 28  0 27  0  1 29 30
  0 25  2  2  2  3  5 28 30  1  3  2  3  0  0  3  1 36  3  3 38  1 36 36
  1 33  0  3 34 32  1  1 42  5 44  0  3 45 42  2  3 43  2  3  3  4 44  1
  0  2 43 18 36 17  7]"
7500,365,1.0,8,5,34.355650663375854,3.45076322555542,4066,30000,330807,1984815,"[ 4  3  2  0  0  3  0  1  2  0  1  3  0  3  0  1  1  1  0  0  3  3 10  9
  4  2  9  0  1  0  0  5  7  3  5  2  0  6  7  4  8  6  0 16  0  1  3 11
  3  1  2  2 13 16  1 12 16  0 15  2  5 13  2  4  0 18  0  3  1  5 23 19
  2 18 23  0 22 18  2 20  1  4 19  1  3 26 27  5 26  0  2 27 30  4  2 29
  0 25  2  2 25 29  3  2  3  0 35  2  1 35  3  5  1 33  4  2 38  1 35 33
  3  0  0  1 33  3  4  1  2  5 39  3  1 41 39  1  1  2  0  3 42  2 41 44
  5 41  0 18 36 17  7]"
7600,365,1.0,8,5,34.6786949634552,3.230419158935547,4126,30400,333080,2002964,"[ 1  3  1  0  2  0  0  1  2  0  1  3  4  3  0  1  0  0  0  0  3  3  9  3
  4 10 10  2  3 10  2  0  7  4  1  1  0  6  3  4 10  6  0 16  0  1  2 12
  5  1 14  0 11 11  1 12 16  5 13 15  2 17  0  4  0 18  0 19  1  4  2 19
  0 18 20  5 20  2  2 20 22  1 24 18  0 31  3  3 27  0  0 31  3  3  2 27
  0 25  2  2  1 30  5  3 25  4 35  2  4  1 38  5  3  1  0 37 34  1 35 33
  2  0  0  4 34  3  1 44 44  2 39  3  3 45 41  4 41 41  0 40 42  2 42 41
  0 39  0 18 36 17  7]"
7700,365,1.0,8,5,35.019519090652466,3.408219814300537,4183,30800,335546,2022647,"[ 5  3  2  4  0  0  0  1  2  0  1  3  1  2  0  4  1  2  0  0  3  0  8  3
  2 10  9  2  8  0  2  6  3  4  9 10  0  2  7  4 10  6  0 16  0  4  2 17
  4 13 15  0 13  2  4  0  3  3 15 11  4  3 17  4  0 18  5 23  2  1 22  2
  0 18  1  4  3  1  3  0  3  0  0 18  1 31 29  5 27 31  2 30  3  1 28 29
  0 25  2  0  1 30  5 29 31  0  1 36  5  0  3  5 35  3  4 37  1  3  2 37
  1  0 34  5 35 32  3 45 43  3 43  3  0 45 41  2 42  3  0 40 44  5 41 41
  3 44  0 18 36 17  7]"
7800,365,1.0,8,5,35.354413986206055,3.3489251136779785,4237,31200,337959,2041901,"[ 3  0  3  4  0  3  0  1  2  0  1  3  1  1  1  5  0  1  0  0  3  1  5  3
  0  5  5  2  8  0  0  6  4  4  1  9  0  6  7  4 10  6  0 16  0  5 17 12
  4 12 16  1 13  2  2  3 15  5  1 13  4 13 11  4  0 18  5 23  0  1 22 21
  0  0 20  2 19  0  1 23 19  2  1 19  1 31 28  2  3  0  2 26  3  3 29  0
  0 25  2  2  1 30  0 29  1  1 32 36  1 36  1  3 33 36  4 36 37  3 34 37
  1  2 33  4 37 32  5 45 39  0 43  3  0  3 45  2 41  0  0 41  0  3  1 41
  5 44  3 18 36 17  7]"
7900,365,1.0,8,5,35.691351652145386,3.3693528175354004,4294,31600,340383,2061360,"[ 3  2  3  2  0  3  0  1  2  0  1  3  3  0  3  3  0  1  0  0  3  1  8  4
  0  0  5  0  3  0  3  8  2  1  4  9  0  6  3  4 10  6  0 16  0  5  3 12
  4  0  1  4  1 16  2  3 12  1 14 16  4 16 11  4  0 18  5 23  2  0 24 23
  4  3 21  3 19 22  1 21 19  2  1 21  1 27 28  2  3 25  1 30  1  0 31  3
  0 25  2  0 31 30  3  1  3  2 36  2  4 38 36  4  0 36  4  2  1  5  3 37
  4 33 33  2 33 34  0  3 44  0  1 42  1 43 42  3  2 39  0 42 40  1  1 44
  3 41  3 18 36 17  7]"
8000,365,1.0,8,5,36.0376238822937,3.462700843811035,4343,32000,342890,2081528,"[ 2  1  3  1  0  3  0  1  2  0  1  3  0  2  1  3  3  2  0  0  3  2  1  6
  3  9  5  3  9  0  4  7 10  3 10  9  0  6 10  4 10  6  0 16  3  0 14 13
  1 13  1  5  0  3  3  3  2  1 15 12  4 16  2  4  0 18  0 19 22  3  0 21
  5  2 22  0 19  1  3 22  2  2  1 22  5 26 28  2  3 28  5  3  2  0  2 27
  0 25  2  0 31 29  0 26 25  4 33  2  2 35 35  4  2 38  1 33  1  3  3 37
  4 35  3  2  1  2  3 44 45  0 42 42  1 44 42  2 42 39  5  1 39  1 44  1
  3 42  1 18 36 17  7]"
8100,365,1.0,8,5,36.36633348464966,3.287069797515869,4399,32400,345237,2100404,"[ 1  0  1  1  3  2  0  1  2  0  1  3  5  0  1  5  0  0  0  0  3  2  6  5
  2  6  6  4  4  0  4  1  6  0 10  0  0  6  7  4 10  6  0  0 16  3  3 17
  1  0  1  4  3  0  5  3 11  5  0  3  4 14  2  4  0 18  0 18  0  1 19 24
  1  2 23  5 24 18  5 20 23  4 19 18  3  3  1  2 29 27  3  3 29  4 25 27
  0 25  2  0 29 29  3 28 31  3 37 33  2 35 32  1  0 33  1 35  0  0  2 32
  3  1  2  2  0  2  4 44 44  5  0  1  1 45 44  2 44 40  0  0 39  1 42 43
  4 44  0 18 36 17  7]"
8200,365,1.0,8,5,36.71457004547119,3.482341766357422,4455,32800,347688,2119827,"[ 4  3  1  2  2  2  0  1  2  0  1  3  5  1  2  3  3  2  0  0  3  3  0  8
  2  5  6  4  0  2  1  1  6  2 10  0  0  6  7  4 10  6  0  0 16  0  1 17
  3  2  1  5 15 11  3  3 13  5  2 16  3 14 14  4  0 18  0 18 20  0 19 18
  0  2  1  5  2 21  3 18 20  3  0 23  1  3  1  3 27 27  5  3  0  5 25 31
  0 25  2  1 29 29  4  2 31  3 38 34  1 35  1  1  0 37  1  0 33  5  3 38
  1 32 37  4  0 37  1 44 44  5 43  1  1 40 45  2 41 40  0  3 39  3 42  0
  0 45  0 18 36 17  7]"
8300,365,1.0,8,5,37.13268685340881,4.1811442375183105,4506,33200,350115,2139334,"[ 2  2  2  1  2  3  0  1  2  0  1  3  0  3  3  2  3  1  0  0  3  4  3  0
  1  5 10  0  4  2  1  6  6  1  6  6  0  6 10  4 10  6  0  0 16  0  1 17
  1 13  1  3 13 11  3  3 11  5 13 11  1 17 15  4  0 18  1 18  0  2  2 18
  5 24 24  4 20  2  1 22  1  0  0 21  0  3 27  0 30  3  0 26 25  2 30 28
  0 25  2  1  3 29  2 27  2  3 37 38  1  1 38  2 37  1  5  3 34  4 37 35
  1  1 37  4 34 37  3 44  3  1 40 40  3  2 45  5 40 41  2 45  2  4 42  0
  0  2  2 16 36 17  7]"
8400,365,1.0,8,5,37.56046462059021,4.277753829956055,4559,33600,352521,2158665,"[ 1  2  3  3  3  0  0  1  2  0  1  3  3  3  0  4  3  1  0  0  3  5  9  4
  3  8  3  0 10  5  2  4  6  3  6  8  0  6 10  4 10  6  0  2 16  3 17 11
  1 13 15  3 13 11  5  2 11  3 13  3  4 17  2  4 24 24  4 18  0  2  0  1
  4  0  0  1 24 23  2 20  3  0  2  2  3 30 31  1 30  1  0 26 30  0 29 28
  0 26  2  2  3 26  4 28  3  1 34 38  0 37 37  5  1  2  2 34 32  4 37 32
  0 37 37  4 38  2  5  1  1  5 40 39  1 40 45  3 40 43  2 45 43  4 42 44
  4  2 45 16 36 17  7]"
8500,365,1.0,8,5,37.884169816970825,3.237025737762451,4619,34000,354793,2177031,"[ 4  2  0  3  3  0  0  1  2  0  1  3  5  3  1  4  2  0  0  0  3  5  9  4
  3  8  5  1  2  5  2  3  3  0  4  8  0  6 10  4 10  6  5 16  2  3 17 17
  5 13 15  3 12 17  5  0 11  3  0 16  3 17 16  3 24 24  4 18  0  3 18  1
  4  1 24  1 19  1  3 20  3  1 22  1  5 28 28  0 31 25  4 30 30  0 28 28
  0 26  2  4 28 25  4 30  2  1  0 34  5 35 38  2  1  2  0 34 32  4 35 32
  1  3 35  4  3  2  5 39  3  2 42 40  1 40 44  3 40 41  0 39 39  5 40 44
  4  2 45 16 36 17  7]"
8600,365,1.0,8,5,38.222646951675415,3.3847475051879883,4672,34400,357253,2196626,"[ 1  0  1  4  3  0  0  1  2  0  1  3  2  1  0  1  1  2  0  0  3  1  9  3
  5  5  2  5  7 10  5  1  5  0  7  3  0  6 10  4 10  6  5 16  2  4  0 16
  1 16 13  5 14  3  2 16  0  2 13 14  2 15  3  4 24 21  2  0 18  5 22 24
  5 19 24  1  1 18  3 19 22  1 23  3  1 27 26  4 30 29  4 28  0  1  2 28
  0 26  0  2  0  1  0 30 28  1  2 34  0 37 33  1  1  0  4  1 32  0 34 32
  4 35 35  4 36 34  5 39  3  3 42  3  2  0  2  1 39  3  0 45 44  5 40 40
  3  2  0 16 36 17  7]"
8700,365,1.0,8,5,38.570587158203125,3.4793829917907715,4723,34800,359809,2216923,"[ 4  0  1  2  3  2  0  1  2  0  1  3  5  0  3  1  3  2  0  0  3  4  4  8
  0  8  0  5  3  2  4  1  5  4  7 10  0  6 10  4 10  6  5 16  2  5  1 16
  1 13 16  4 14  3  0 12 17  4  3  0  2 15 13  2 18  0  2  0 18  4  0  0
  5 23 23  1 21  1  0 24 19  4  0  3  1 26 26  4  2 28  5  3 30  2  0  1
  0 26  0  2  0  0  0 30 25  1 35 34  0 35  2  4  2  0  5  3 37  0 34 38
  1 35 36  5 33 36  5  1  3  3 42 44  2 39 39  1 39  3  5 45 43  5  0 44
  2 42 44 16 36 17  7]"
8800,365,1.0,8,5,38.900442600250244,3.2985353469848633,4784,35200,362170,2235736,"[ 5  2  1  2  3  0  0  1  2  0  1  3  1  2  1  0  3  2  0  0  3  4  4  8
  0  1  4  3  8  4  3  0  5  4  7  7  0  6 10  4 10  6  5 16  2  0 12 16
  0 13 16  0 14  3  0 12 13  0 16 11  2 17 17  3 18  1  2 18 18  1 19  0
  3 18  3  1 22  1  3  0 19  4  0 18  1 30 26  4  2 28  5  3 30  1  3 29
  0 26  0  2  3  0  0  0  3  1  3 34  3 35  2  4  2  0  0 35 37  5 34 36
  1  3 36  1 35 36  0 43  3  3 39 44  5  2 43  1 42 40  5  2 42  1 44 44
  2 43 44 16 36 17  7]"
8900,365,1.0,8,5,39.24041819572449,3.3997344970703125,4835,35600,364599,2255260,"[ 1  3  3  2  0  0  0  1  2  0  1  3  1  0  1  5  1  0  0  0  3  3  3  5
  1  1  3  0 10  6  3  6  1  5  1  7  0  6 10  4 10  6  5 16  2  4 14 16
  5 12 11  0 16  3  0  3 17  5  1  0  5 11  0  1  3 24  2 19 22  4 22  0
  5 18 19  0 22 20  5 22 18  2  0 18  1 31 27  3 27 28  3  3  3  1  3 27
  5 31  0  0  0 28  3  0  2  5 35 33  2 37 34  4  3 36  3 35 37  5 34  0
  1  3 36  1 37  0  3 45 41  5 45 44  5 40  1  0 45 40  0  0 43  4 44 45
  0 43 44 16 36 17  7]"
9000,365,1.0,8,5,39.5770320892334,3.366117477416992,4882,36000,366995,2274473,"[ 1  0  1  3  3  3  0  1  2  0  1  3  1  3  1  3  1  3  0  0  3  2  9  0
  1  2  3  4  6  8  1  8  2  1  6  5  0  6 10  4 10  6  5 16  2  3 15  1
  4 11  1  4 17  0  0  3 14  4  1 16  2 16 17  4  1  3  1 23 23  4 22 18
  4  3 23  2 24 21  2 22 20  2  0 18  4 31 30  3 27 31  5 29 30  4 28 25
  0 31  0  2  0 28  1  3  2  1 34 36  4 37  2  3 34 35  2  2  0  3  0  0
  2  1 32  1 36 35  0 42 44  1 40  1  4 40 45  3 45 45  4 43 43  3 43  1
  0 43 42 16 36 17  7]"
9100,365,1.0,8,5,39.909677028656006,3.326425552368164,4940,36400,369366,2293344,"[ 1  0  1  5  3  3  0  1  2  0  1  3  3  2  1  4  1  0  0  0  3  2  7  3
  5  0  6  4  6  8  4  6  1  5  1  3  0  6 10  4 10  6  5 16  2  3 15 17
  0  3 11  3 16 14  1 13  3  4 14 16  1 16 17  0 19 18  0  3 24  1 22 22
  4 23 24  3 24 23  4  1 20  3 18 18  3 30  0  3  0  3  5  2 29  4 27 28
  0 31  0  2  1 30  1  1  1  1 35 32  1  0  2  5 34  2  2  3 33  0  0  1
  2  1 32  2 38 37  2 44 42  5  0  2  0 45  2  4 44 40  3  3 44  4  2  2
  5 43 42 16 36 17  7]"
9200,365,1.0,8,5,40.25770306587219,3.480236530303955,4995,36800,371906,2313676,"[ 2  2  3  5  1  0  0  1  2  0  1  3  0  3  2  0  1  1  0  0  3  4  2  6
  4  4  6  4  6  2  2  6  4  4  3  3  0  6 10  4 10  6  0 16 16  5 11 16
  0 11  0  5 16 14  2 12  3  1 12  2  1  3  3  2 21 18  5  3 21  1 18 20
  4 23 20  3 24 21  2  1 21  4 18  0  2 26 30  2 29  3  3 31  0  2 31 28
  0 31  2  5 27  1  1  1 31  0 36 33  0  2 35  2  2 37  5 35  0  4 34  1
  4  3  3  4  0  2  2 44 42  3 45  3  5  0 45  4 45  0  3  3 39  4 41  2
  2 43 42 16 36 17  7]"
9300,365,1.0,8,5,40.6033935546875,3.456883430480957,5045,37200,374442,2333948,"[ 0  2  3  4  2  1  0  1  2  0  1  3  1  2  1  2  1  0  0  0  3  4  1  6
  5  4  9  0  7  5  3  6  7  3  7  3  0  6 10  4 10  6  0 16 16  4 14 16
  3 11  3  4 15 16  2 13  0  5 13 13  1 12  2  4 22  1  0 22  1  4 21  1
  4 20 20  4  0 23  5  1 19  4 18  0  2 28 27  4 27 30  0 31  3  2 31 31
  0 31  2  2  1  1  3 25 31  2 38  1  1  0 38  1 36 35  3 35  0  4 34  2
  4  0 36  4 38 35  2 40 45  4 44 40  0 44  3  0 42 42  3 41 39  5 43  2
  1 39 39 18 36 17  7]"
9400,365,1.0,8,5,40.98495292663574,3.8155674934387207,5097,37600,376769,2352650,"[ 2  0  3  5  2  0  0  1  2  0  1  3  1  0  2  2  3  0  0  0  3  5  1  8
  4  4  2  0  8  5  2  4  1  5  4 10  0  6 10  4 10  6  0  1 16  2 17 13
  5 16  0  5 15 14  2 13  1  2 17  1  1  0 11  1 24 21  4  1  1  0 23  0
  0 19  1  2 20  3  5  1 19  4 18  0  4 27 27  5  3 26  1  1  3  2 25  0
  0 31  2  2 28  1  0 29 31  2 35  1  1  0  1  1 38 33  4 36 38  5  0 33
  4  0  2  1 34 35  2  2 39  3 45 40  4 45 42  4 42 39  5 42  3  5 43 44
  4  3 41 18 36 17  7]"
9500,365,1.0,8,5,41.447157859802246,4.622025489807129,5144,38000,379275,2372697,"[ 2  3  3  1  2  3  0  1  2  0  1  3  2  3  2  1  1  3  0  0  3  3  1  4
  3  4  0  0  2  9  0  4  7  5  2 10  0  6 10  4 10  6  0 16  3  5  3 13
  2 16 13  2 15  3  3 13 14  0  1  3  3 14 13  5 24 18  5 19 18  3 19 22
  1  1  1  4 24 22  0 20 21  4 18  0  5  3  1  1 29 26  5 27 25  2 31  0
  0 31  2  1  3  3  3  2 30  0 38 38  3 37  1  4 32 34  4  3 35  1 32 38
  3 33 34  0  2 35  1 40 39  5 44 43  3 39 42  1 41 40  3  2  2  5 39 40
  2  3 41 16 36 17  7]"
9600,365,1.0,8,5,41.790223598480225,3.430635929107666,5192,38400,381705,2392155,"[ 3  3  3  1  3  2  0  1  2  0  1  3  3  3  2  3  2  0  0  0  3  5  5  6
  3  6  5  0  2  9  2  9  5  3  7  3  0  6 10  4 10  6  0 16  2  2  3 14
  5 16 12  1  1 13  0 13 15  4  3  3  5  1  1  0  3  3  5 23 18  1 23  1
  4 19 24  4  3 24  5  1 23  4 18  0  1  2 26  1 28  1  5 30 25  0  2  1
  0 31  2  4 29  3  0 27 29  4  3 38  3 35 34  5  2  1  2 34 36  0 33  1
  3  0 38  3  2  3  4  0  1  4 43 42  2  3 42  3 45 44  3 44  1  5 39 40
  4 40 45 16 36 17  7]"
9700,365,1.0,8,5,42.12162232398987,3.3139610290527344,5240,38800,384084,2411140,"[ 1  2  3  2  3  0  0  1  2  0  1  3  2  1  0  3  2  2  0  0  3  5  6  0
  3  6  2  3  2  9  2  0  3  1  7  4  0  6 10  4 10  6  0 16  3  3  3 14
  2 16 12  4 11 15  4 13  3  2  3  2  5  1 15  5 21  3  0 21  1  5 23  1
  3 24 24  2  1  1  5 22 20  4 18  0  1  2  0  0 28 28  5 30  2  5 29 30
  0 31  2  4 28  3  0  0 30  3 36 38  3 38  3  0 37 35  2 34  1  0 36  1
  4  0 35  2  0  3  5 42  1  1 41  0  2 39 42  3  3 40  4 44 41  1 39  2
  2 40 45 16 36 17  7]"
9800,365,1.0,8,5,42.47205209732056,3.5042738914489746,5286,39200,386636,2431534,"[ 2  2  0  5  1  2  0  1  2  0  1  3  3  0  0  0  2  1  0  0  3  5  5  7
  2  3  4  1 10  2  2  7  1  5  5  7  0  6 10  4 10  6  0 16  1  0 11 13
  1  0  2  4  3  2  1 14 12  4 13 13  3 11 12  3 24  3  3  0  1  5  1  2
  1  0 18  4 18 20  0 22 21  4 18  0  1 27 31  5 30  1  1 28  0  3  3  1
  0 31  2  1 28  3  5  3 31  4  3  2  0 36  3  3 35 36  0  1  1  0  1 32
  5 38 34  3  3 35  1  1  0  4  2 39  4  2  1  4  3 42  4 40  3  0 45  2
  5 42 44 16 36 17  7]"
9900,365,1.0,8,5,42.81111669540405,3.3906197547912598,5334,39600,389069,2451052,"[ 0  3  3  4  1  1  0  1  2  0  1  3  2  0  0  0  1  2  0  0  3  3  8  9
  1  3  4  0  1  4  2  8 10  5  5  2  0  6 10  4 10  6  5 16  2  0 15 13
  0 15 13  2  3 11  5 14 12  0  1 11  3  0  3  1  1 20  1 20  2  1 24 18
  4 19 18  1 24 24  3 21 18  4 18  0  0  1 29  1 30 31  2 28 29  3  2  2
  0 31  0  0 28 27  5 25  3  4  2  1  0 32 33  3 34  1  1  1 35  0 37 38
  5 33 32  2 33 33  5  0  0  1 42 43  0 43  2  4  3  0  3  0 44  4 42 45
  1 42 44 16 36 17  7]"
10000,365,1.0,8,5,43.15866804122925,3.475492000579834,5381,40000,391586,2471252,"[ 0  2  2  1  1  3  0  1  2  0  1  3  0  3  1  3  2  0  0  0  3  1  6 10
  2  3  1  5  8  7  2 10  8  5  4  0  0  6 10  4 10  6  0 16  0  2  3 12
  5 17 13  3  1 14  5 15 16  0  1 14  3 12  1  5  1 20  3  1 18  1 22  0
  2  1 23  4 24 21  1 18 23  4 18  0  4 25 27  4 28  3  2  1 26  3  0 26
  0 31  2  1 28 27  1 30  3  4 36 38  4 36  0  0  2 34  2 38 35  5  3 33
  1 36 32  1  2 37  0 43 39  3 42 40  0 40  1  1 44  2  3  3 44  5 41  3
  0 42 45 16 36 17  7]"
10100,365,1.0,8,5,43.504302740097046,3.4563207626342773,5427,40400,394126,2491566,"[ 0  2  3  2  2  3  0  1  2  0  1  3  0  3  3  4  1  1  0  0  3  1  1  7
  2  5  9  3  3  0  1 10  0  2  5  3  0  6 10  4 10  6  0 16  1  5 13 14
  2  1 13  3 11 14  3 12 16  3  3 14  3 12 13  4  1  1  4 19 21  0 24 18
  4  3 23  3 20 24  5 18  3  4 18  0  2 28  1  0 27 26  1  0 26  3  0 26
  0 31  2  1 28  3  2 30  1  4  3 33  0 33 37  0 34 32  4 38 34  4  3  2
  1  3  1  0  3 35  5 43  1  2 42 42  4 40  1  2  0 45  3  0 45  2  2 45
  2  3 45 16 36 17  7]"
10200,365,1.0,8,5,43.836310148239136,3.3200526237487793,5476,40800,396470,2510377,"[ 1  2  2  1  3  1  0  1  2  0  1  3  0  1  0  4  1  0  0  0  3  0  6  6
  1  7  8  1  5  2  0  7  7  4 10  8  0  6 10  4 10  6  0 16  2  1 11  2
  0  3  2  0  3 16  4 11  3  2 15  1  3 13 14  2  1 24  5 20 21  5 24 20
  2  3 18  5 22  3  5 24  0  4 18  0  2 25 31  0 27 29  1  0  3  3 26 31
  0 31  2  2 28  2  2  3 29  4  3 37  3 37 37  0  3 34  0 32 34  0 34 34
  5 38 32  2  2 34  2 44  1  5 42 41  3 40  2  1 45  0  1 39 44  5  3  2
  2 44 45 16 36 17  7]"
10300,365,1.0,8,5,44.16312313079834,3.268105983734131,5531,41200,398781,2528845,"[ 0  2  1  1  1  2  0  1  2  0  1  3  0  0  0  4  0  2  0  0  3  2  8  5
  0 10  4  3  2  2  0  1  4  2  6  6  0  6 10  4 10  6  0 16  1  2  0 16
  0 16 16  5  1 17  2 11  3  2  0  1  4  3 17  4 20 24  3 19 21  5 21  3
  3  3 18  2 22  1  0 24  2  4 18  0  4 31 27  1  0 29  4 29 28  0 26 30
  0 31  2  2 31 27  5  3  3  2  2 34  2 38 34  5 36 34  1 34  2  5  2 35
  5  3 32  2 36 34  1  1  1  0 42  1  3  2 39  5  3  0  5  0  1  0 43  2
  0 44 41 16 36 17  7]"
10400,367,1.0,8,3,44.50859093666077,3.4546542167663574,5576,41600,401335,2549263,"[ 4  2  3  1  1  2  0  1  2  0  1  3  3  2  0  3  3  1  0  0  3  2  9  7
  0  7  6  5 10  7  4  8  7  4  6  9  0  6 10  4 10  6  5 16 12  2  1  3
  0 16 14  4 17 12  2 14 17  5  0  1  4  0 17  4 23 23  0  1 24  2  2  1
  0 18 24  2 22  0  0  0 19  2  1  0  0 31 27  1 25 27  2 28 28  3  0  1
  0 30  2  3 28 27  3  2  3  4  2 34  1  0  0  4 36  0  3 36  1  5 32 34
  1  0 35  4 35  0  0 42 45  3  3  1  3 40 41  2  3  0  1  1 39  0 45 43
  4 40  2 16 36 17  7]"
10500,367,1.0,8,3,44.87596082687378,3.673672676086426,5633,42000,403636,2567611,"[ 0  2  2  1  3  2  0  1  2  0  1  3  5  0  1  2  3  1  0  0  3  0  1  3
  0 10  1  1  2  7  0  5  6  4  5  9  0  6 10  4 10  6  3  3  1  2  1  3
  0 16 17  2  2 16  2 14 17  5 14  1  0 15  3  4  1  3  5 22 20  0 23  2
  5  2  2  1 22  3  0  0 19  2 18  3  3  1 27  4 31 27  4 25 31  0 31 28
  0 30  2  3  2 27  2 26 28  2  2 34  0 36  2  4  3  0  4 36  3  3 32 34
  4  1 32  4 35  1  4 42 45  3 41  2  2 40  2  0  0 45  2  2 39  4 42  2
  1 44  2 16 36 17  7]"
10600,367,1.0,8,3,45.23918652534485,3.632228374481201,5696,42400,405892,2585537,"[ 0  1  1  0  3  0  0  1  2  0  1  3  3  1  1  5  1  3  0  0  3  1  1  0
  3 10  1  4  8  0  0  5  8  4  7  2  0  6 10  4 10  6  1 17  2  2  1  3
  0  2  1  2 12  3  2  2 13  1 14 11  2 11 15  4  1 18  5  2 19  0 23  2
  2  3  2  3 22  3  0  0 19  0 20  3  4 30 27  3 31 25  5  1 28  1 31 31
  0 30  2  0  2  3  2 31 30  5  2 34  1 36  2  4 38  3  0  3  3  3 32 32
  1 35  3  2 35 38  4 42 45  1  3  2  1 44  2  1 39 45  2 39 39  1  1 43
  1 41  2 16 36 17  7]"
10700,367,1.0,8,3,45.57314443588257,3.339555263519287,5745,42800,408182,2603784,"[ 5  3  1  3  3  0  0  1  2  0  1  3  3  2  1  2  2  3  0  0  3  1  1  3
  1  1  9  4  8  2  2  5  4  4  7  8  0  6 10  4 10  6  1 15  0  2  1  3
  0  0  0  0 15  3  4 15 13  5 17 15  5 11  1  4  1 19  0  1 19  1 22  2
  2 22 21  1 24 19  0  0 19  1 20 23  3 30 27  3 31  0  3  1 30  0 31  3
  0 30  2  0 27  0  2 31 30  3 34 34  1 32  2  5 37  3  2 33 33  2  2 36
  1 32  2  5 33 37  5 42  2  0 39  2  5  3  3  0 39 43  2  3 43  2 41 43
  0  3  3 16 36 17  7]"
10800,367,1.0,8,3,45.89815950393677,3.250129222869873,5800,43200,410540,2622517,"[ 1  1  0  3  1  3  0  1  2  0  1  3  1  0  3  4  0  2  0  0  3  4  1  0
  1  0  5  2  7  7  2  7 10  4  5 10  0  6 10  4 10  6  2  2  0  2  1  3
  0  2  1  4  0 15  4  1  2  5 17 15  5 11 16  4 23 19  0 20  0  1 22  2
  4 22 21  1 20 19  0  0 19  2 18  1  1  1 29  3 31  0  3  1 30  4 25 25
  0 30  2  4 31 27  2 27 27  1 34 35  5 33  3  0 38  3  4 38 32  5  2 36
  0  2  3  5 34 37  2  0 45  3 41 45  5 42  2  0 45  1  2 39 40  2  3 43
  2  0  3 16 36 17  7]"
10900,367,1.0,8,3,46.22256588935852,3.24404239654541,5858,43600,412893,2641163,"[ 3  1  2  4  2  2  0  1  2  0  1  3  1  0  1  4  1  0  0  0  3  4  1  9
  1  1  3  1  0  5  4  7 10  3  6  0  0  6 10  4 10  6  3 11  2  2  1  3
  5  1 17  1 16 11  4  2 12  5 13  3  2  1 11  4 18  3  0 21 18  4  0 22
  4  2 20  0 20  3  0  0 19  2 22  1  1 28 26  5 31  0  3 28 27  4 25 25
  0 30  2  5  3 30  1  2  1  3 34 34  0  3  3  0 38  2  0  3 37  5  2 35
  0  2 36  1 37  0  3 45 40  1  1  0  0  1  2  2 43  0  5 39 39  2  0 43
  2  0 40 16 36 17  7]"
11000,367,1.0,8,3,46.55768394470215,3.35115909576416,5907,44000,415345,2660634,"[ 2  3  1  0  3  3  0  1  2  0  1  3  4  0  1  4  0  0  0  0  3  4  8  9
  2  3  1  4  0 10  2 10 10  3  5  9  0  6 10  4 10  6  2 13  2  2  1  3
  2 16 13  0 16  2  5  2 15  1 15  2  2  1 12  1  1  3  1 21 18  4 23 20
  4 20 23  2  0 19  0  0 19  5 19 22  4  2 26  5 30 26  3  2 27  4  0  0
  0 30  2  4 26  2  2 30 26  1 34 32  0 35  3  2 36  2  5 32  0  5  1 38
  4 36 36  1  0  0  2 45  3  1 45 44  5 45  2  3 41  2  0 41 39  5 43 44
  2  3 44 16 36 17  7]"
11100,367,1.0,8,3,46.88628149032593,3.285953998565674,5958,44400,417754,2679722,"[ 0  1  1  3  3  1  0  1  2  0  1  3  4  2  0  3  3  3  0  0  3  4  8  7
  3  8  1  1  0 10  4  1 10  3  5  7  0  6 10  4 10  6  0 13  2  2  1  3
  2 16 16  4 14  2  3 13  0  1 15 13  2  1  2  2  1  3  1 19 20  5 19 20
  5 19 23  4 21 19  0  0 19  3 19 22  2  2 31  3 30 29  2  2 27  3 30  2
  0 30  2  4 29  2  4 29 25  1  0  1  0 36  3  5 32  1  5 38 36  3  1 32
  2 36  3  1  0  3  4  2 45  2  3 44  5 45  3  3 41 39  2 42 39  5 41 44
  0  0 40 16 36 17  7]"
11200,367,1.0,8,3,47.21827507019043,3.3199119567871094,6006,44800,420124,2698562,"[ 3  0  2  3  0  2  0  1  2  0  1  3  1  2  1  5  2  1  0  0  3  3  6  3
  1 10  1  4  5  8  5  9  1  5  8  1  0  6 10  4 10  6  2  2 12  2  1  3
  3 16 15  4 16  2  3 13 13  5 16 13  2 11  1  2 24  0  3  1  3  1 19 20
  0 23  1  3  3  1  0  0 19  2  1  3  0 29  0  4 30 29  2 26 30  1 28  3
  0 30  2  2 25 31  3 27 27  1  0  2  2 33  3  3 35  2  4 38  0  3 35 37
  5  3 34  1  0  3  3  3  1  5  1 41  5  1 43  5 41 39  2  3 43  2 39 43
  1  0 45 16 36 17  7]"
11300,367,1.0,8,3,47.573633670806885,3.5535621643066406,6065,45200,422334,2716216,"[ 5  0  1  0  1  2  0  1  2  0  1  3  2  1  0  2  1  1  0  0  3  2  6  9
  1  0  1  1  5  9  5  4  1  2  3  1  0  6 10  4 10  6  2 13 11  2  1  3
  1 16 14  5 15 15  3 13 13  2 15 17  2 11 15  3  3  3  2 20  3  5  0 20
  0 23 23  3  3  1  0  0 19  2 19  2  0  1 28  4 30 30  3  0  2  1 27 28
  0 30  2  2 30 31  3  2 26  2 35  2  1 33 33  3 36 32  4  1  0  3 35 37
  1  3 37  3 33 33  3 41  0  5 40 41  4  0 45  5  3 39  2  1 41  3 40 40
  1  2 41 16 36 17  7]"
11400,367,1.0,8,3,47.891735315322876,3.180997371673584,6133,45600,424557,2733971,"[ 5  3  1  3  1  2  0  1  2  0  1  3  3  0  3  2  1  2  0  0  3  2  6  9
  1  9  1  1  2  9  5  3  1  3  7  1  0  6 10  4 10  6  5 17 11  2  1  3
  3 17 16  4 15 16  3 11 13  0 14 17  2 11 13  3 24 23  2  2  1  3 23 24
  3 24 23  4 23 19  0  0 19  3 19 23  2  2 28  4 30 26  2 27 28  1 31 30
  0 30  2  3 28 31  5  2 27  3  0 33  1 38 36  3 33  1  5  1  1  3  0 34
  1  3  3  5  1 33  0 41  3  5  1 41  3  2  2  5  3  0  4  0 41  3 44  3
  2  1 45 16 36 17  7]"
11500,367,1.0,8,3,48.23148775100708,3.397502899169922,6182,46000,427088,2754045,"[ 4  3  1  1  1  3  0  1  2  0  1  3  0  0  2  5  3  1  0  0  3  5  8  9
  4  9  3  4  0  5  1  1  2  3  4  4  0  6 10  4 10  6  5 14  2  2  1  3
  3  2 16  3 12 13  3  1 15  0 16 12  4  0 13  3  3 20  5  0 20  1 23 21
  3 24  3  1 21  3  0  0 19  1  3 22  3 28 30  4  3  0  1 30  0  1 26  1
  0 30  2  3 28  2  5  2 31  3  0  2  4 35 35  0 36  1  5  3 35  5  0 38
  2 32 34  2 36 38  0  3 44  5  1 43  3  3  3  0 41 42  1 45  3  0 42  0
  2 44 41 16 36 17  7]"
11600,367,1.0,8,3,48.53598713874817,3.0449676513671875,6248,46400,429147,2770573,"[ 3  1  0  2  1  3  0  1  2  0  1  3  0  2  3  1  2  1  0  0  3  2  1  2
  4  9  6  3  3  0  3  0  2  3  4  4  0  6 10  4 10  6  5  2 13  2  1  3
  0 14 12  2  1 13  5 16  3  0 16 16  4 16  3  3 24 18  5 20  1  0  1 20
  3 24 23  1 21 19  0  0 19  4  3 23  3 28 30  0 28  0  2 31 30  2 26 26
  0 30  2  3 26  3  0 31  0  3  0 33  3 35 38  4 34  0  5 34 34  5  3 33
  2  1 36  5  1 34  0 43 42  2 40  1  3 40  3  0 40 43  2 40  2  4 43 42
  5 41 41 16 36 17  7]"
11700,367,1.0,8,3,48.91415357589722,3.7816405296325684,6307,46800,431543,2789659,"[ 4  0  0  2  3  3  0  1  2  0  1  3  0  0  2  1  2  3  0  0  3  2 10  6
  1  3  1  3 10  6  3  9  2  2  5  5  0  6 10  4 10  6  0  2 16  2  1  3
  2 14 16  2  1 17  5 16  3  1 11 13  0 11 11  4 24 19  0 24  2  0  1  0
  1  3  2  0 21  1  0  0 19  4 18 20  4 30 28  0 28  0  2  2 28  0 26  2
  0 30  2  1 26  0  1 29  0  3  0 33  1 33 36  1 32 33  5 34 33  3  3 35
  5 33 36  5  1 34  0  1 44  5 43 43  5  2 44  0  1 42  2 40 39  4 43 42
  2 41 41 16 36 17  7]"
11800,367,1.0,8,3,49.281259059906006,3.6710286140441895,6364,47200,433844,2808113,"[ 4  3  0  5  2  3  0  1  2  0  1  3  5  0  0  2  3  3  0  0  3  2  9  0
  5  0  4  0  4  0  1  9  5  2  0  6  0  6 10  4 10  6  2 15  1  2  1  3
  2  2 16  2 16 17  1 14 15  0 14 13  0 16 11  0 24 19  0 21  1  4  1  1
  2 22 20  4  0 22  0  0 19  4 18 20  0 30 28  2  1 31  2  2 28  0 29  2
  0 30  2  0 26 26  1 25 27  4  0 33  4 38  2  0 32  1  5 33 33  4 36 37
  5 38 36  5 32 34  0 45 43  0 43  1  2  0  0  4 45 42  3 40 39  1 43 42
  4 44 41 16 36 17  7]"
11900,367,1.0,8,3,49.62338614463806,3.4212493896484375,6418,47600,436276,2827554,"[ 4  2  0  5  1  3  0  1  2  0  1  3  5  2  2  0  1  0  0  0  3  2  9  0
  5  0 10  4  3  7  0  6  8  0  2  6  0  6 10  4 10  6  1 17 17  2  1  3
  2  3 17  2  2  2  5  0 15  3 14 13  3 14 11  0 21 22  4  3 18  0  1  3
  0  3 20  3  0  1  0  0 19  4 18 24  3  3  2  0 26 31  1 31 28  0 29  0
  0 30  2  4 27 28  3  0 31  4  3 35  2 38  0  2 34 34  3 35 37  4 34 37
  5 32 36  1 38 34  2 42 43  0  3 45  0  0  1  4 45 40  3 40 40  4 43 40
  3 42  0 16 36 17  7]"
12000,367,1.0,8,3,49.95552396774292,3.321354389190674,6470,48000,438653,2846623,"[ 3  0  0  1  0  2  0  1  2  0  1  3  3  2  2  5  3  2  0  0  3  3  1  3
  5  8  3  4 10  1  5  6  6  4  4  2  0  6 10  4 10  6  1 13 11  2  1  3
  0 13 12  4 12  0  5 15 15  0 14  2  3  0 13  4 19 23  2 23 21  3 22 23
  0 18 20  4  0 20  0  0 19  4  0 22  3 25 28  4 28 31  2 29 26  4 30  1
  0 30  2  1 28 26  0  3 31  0 37  2  2  2  0  4 34 38  3 35  2  5  2  0
  0  3 32  3 38 38  5 41 43  0 43 45  1  0 42  4 39 43  3 40 40  4  2  1
  3 42  2 16 36 17  7]"
12100,367,1.0,8,3,50.28589463233948,3.303687572479248,6524,48400,440997,2865451,"[ 4  0  1  2  2  0  0  1  2  0  1  3  3  0  0  2  3  2  0  0  3  1  9  3
  4  8  9  4 10  2  4  0  8  5  6  2  0  6 10  4 10  6  1 13 15  2  1  3
  4 13  2  1  2 11  2 15 12  0  1 12  3 14 16  4 20 23  2 23 20  5 22 20
  0 18 21  3  1 20  0  0 19  4  2  2  3 25 28  3 31 31  0 29 26  1 30  0
  0 30  2  0  3 29  0 25 25  3 37 36  0  0  1  5 34 38  1  2  3  3  2 36
  3  3 37  0 35 33  4 41  1  0 45 43  5  0  0  4 39 43  3 39 40  2 45 43
  4  2 44 16 36 17  7]"
12200,367,1.0,8,3,50.604796409606934,3.1889986991882324,6582,48800,443253,2883429,"[ 3  0  2  5  3  0  0  1  2  0  1  3  2  0  2  2  0  3  0  0  3  1  1 10
  4  8 10  5 10  2  0  6  0  1  4  2  0  6 10  4 10  6  4 12 15  2  1  3
  3 16  0  1 13 11  4 15 17  0  1 12  1  1 16  4 22 23  5 23 20  1  3 20
  0 18 18  3  1 24  0  0 19  4  3  2  4 26 25  4 31  3  3  1 26  3 29 30
  0 30  2  0 25  1  0 25  0  5  2 36  1  3  2  3  0  0  2 33 35  4  2  0
  1  3 36  0  0  2  5 41 42  0 42  1  4  3  0  5 43 43  2 40  0  3 39 43
  2  2 44 16 36 17  7]"
12300,367,1.0,8,3,50.930001974105835,3.2520318031311035,6649,49200,445547,2901711,"[ 4  3  1  2  0  0  0  1  2  0  1  3  5  2  0  5  0  0  0  0  3  2  1 10
  4  1 10  4  5  3  1  5  3  5  3  9  0  6 10  4 10  6  4  2 13  2  1  3
  1 12 12  1  2 11  2  3 17  3 15 12  1 17 16  4 23 20  0  0  0  1  0 21
  4 19 21  1 20 19  0  0 19  0  2  2  4 26  2  1  1 30  5 28 28  0 26 30
  0 30  2  2 25 28  4 25 27  5 32 32  3  3 33  4 34 38  0 33 36  0 38 33
  2 36 36  0 35 34  2 45 39  2 40 40  1 44  0  5  1 41  2 43 40  3 39 43
  5 45  3 16 36 17  7]"
12400,367,1.0,8,3,51.26229548454285,3.322911262512207,6710,49600,447922,2920710,"[ 5  2  3  2  2  3  0  1  2  0  1  3  4  2  1  2  0  0  0  0  3  2  9  4
  1  4 10  4  1  1  4  6  0  5  7  0  0  6 10  4 10  6  1 11  1  2  1  3
  4  2 14  0  2 11  3  1  1  4  0 15  4  0 12  0 20 23  5  0 21  0 19 21
  3 19 21  5  0 19  0  0 19  4 23 19  1 31  1  2  1  1  5  2  3  2  3 30
  0 30  2  2 25  3  5 29 28  1 36 32  2 37 38  2 36 36  5 35  0  3  2  3
  0 38 32  1 36 34  4 45  2  2 43 40  2 44  0  4  1 45  2  1  0  3  1 39
  2 42 40 16 36 17  7]"
12500,367,1.0,8,3,51.58309507369995,3.207974433898926,6768,50000,450161,2938682,"[ 3  1  3  0  2  3  0  1  2  0  1  3  4  3  1  2  0  0  0  0  3  5  5  6
  1  4  8  4  7  1  4  3  8  5  3  0  0  6 10  4 10  6  3 13 11  2  1  3
  0 16 14  2 14 11  4  1  1  4  0 13  4  0 15  4  1 19  5  0 21  3 19  3
  3 19 20  5  0 19  0  0 19  3 23 23  0  1  1  2 26  3  5 30  3  5  3 29
  0 30  2  5 30 25  1 29 28  4 36 32  2  1 34  0  3 36  1 35 37  5 33  3
  3 35 32  2 34 38  3 45  2  2 41 40  0  3 40  4  1 45  2 45 45  3  1 39
  2 39  1 16 36 17  7]"
12600,367,1.0,8,3,51.90941834449768,3.263211250305176,6820,50400,452494,2957222,"[ 0  1  0  2  2  1  0  1  2  0  1  3  2  2  3  2  2  0  0  0  3  0  6  6
  1  1  7  2  6  1  0  1  9  5  7  0  0  6 10  4 10  6  2 11 17  2  1  3
  0  3 16  2 14 17  2  1  1  4  0 13  5  0 15  1 18  3  3 19  0  5 19  3
  3 19 19  2 22 19  0  0 19  4  3  3  2 25 30  2 31 26  5 30  3  5  3  2
  0 30  2  1 30 28  1  2 26  4 36 32  2  1 38  0  3 34  1 33 37  1 33 34
  4 35 36  2  0 38  3 43  0  2 41  1  4 43 43  1 45  1  3 39  0  3  1 43
  4 39  1 16 36 17  7]"
12700,367,1.0,8,3,52.245091676712036,3.3567118644714355,6870,50800,454979,2976988,"[ 5  0  0  3  2  1  0  1  2  0  1  3  2  2  3  1  2  3  0  0  3  0  6  9
  2  1  2  1  5  1  3  9  9  5  7  2  0  6 10  4 10  6  1 11 17  2  1  3
  3  3 16  3 11 17  0  1  0  4  3  0  5  1 13  3 23  3  4 19  2  5 18 18
  0 18  2  0  0 20  0  0 19  1  2  0  4 25 30  2 26  0  5 27  3  0 28  2
  0 30  2  1  0  3  4  3 29  5 38 38  2 35  1  0  2 32  3 33  3  0  2 34
  2 35  2  0  0  2  3 41  0  1  2  1  1 44 43  3  1 43  3 44  0  5 41  0
  4 39  1 16 36 17  7]"
12800,367,1.0,8,3,52.589545011520386,3.444509506225586,6917,51200,457505,2997103,"[ 3  0  2  1  1  1  0  1  2  0  1  3  3  0  2  3  2  1  0  0  3  0  6  4
  4  9  2  1  6  1  0 10  3  2  7  8  0  6 10  4 10  6  1 13  0  2  1  3
  4 13 16  0 11 12  3  2 12  1 15  2  1  1 11  0 19  1  5 21  2  5 24 22
  0 18  2  1  0 20  0  0 19  4  0 20  0 31 31  4  2  2  0 28 27  0 25  0
  0 30  2  0 27 27  1 29 29  4 38 38  5  2  0  0 37  1  2  3  2  5 34 34
  1  0  2  3 38 33  4 44  1  2 43  2  3  3  2  5 45  1  4 43  1  2 42 44
  1 45 41 16 36 17  7]"
12900,367,1.0,8,3,52.92858815193176,3.3904051780700684,6972,51600,459813,3015586,"[ 3  0  0  2  2  0  0  1  2  0  1  3  3  2  2  4  2  1  0  0  3  0  6  4
  4  9  8  3  6  9  5  6  0  1  7  8  0  6 10  4 10  6  4  2  3  2  1  3
  4 11 14  2  1 11  3  3 12  0 16 12  1  1 15  3  0 23  2 24 19  3 20 22
  0  1  1  1  0 22  0  0 19  2  0 24  3 28  2  0 31 26  1 28 28  1 29 29
  0 30  2  2  0 27  2 29 29  0  1 38  4 34  0  0 38 33  0 38  0  5  3 34
  2 33 32  3 38  2  1  3  1  2 44  2  5 40  2  4 45  1  2 39 43  5  0 39
  1  0 41 16 36 17  7]"
13000,367,1.0,8,3,53.30246663093567,3.7387561798095703,7029,52000,462163,3034486,"[ 4  1  1  2  0  0  0  1  2  0  1  3  5  2  0  4  2  3  0  0  3  4  1  3
  4  9  6  0 10  9  1  5  9  3  7  7  0  6 10  4 10  6  3  0  1  2  1  3
  2 11 14  1  1 11  3 16 12  2 17  0  1  1 13  0  0  0  2 18 22  3 20 20
  2 22 21  1  1  3  0  0 19  0  1  1  3 30  2  1 27 25  2  2 31  1 31 29
  0 30  2  4  2 28  2 29 31  0  3 34  4 38  1  4  3 33  1 33  0  5  1 38
  0 36  3  5 37 38  1 41 44  3 42 44  3  1 42  4 42 42  2 45 43  5 45 41
  5 39  0 16 36 17  7]"
13100,367,1.0,8,3,53.65010714530945,3.476381301879883,7084,52400,464669,3054557,"[ 3  1  1  5  0  1  0  1  2  0  1  3  0  3  1  4  0  1  0  0  3  1  9  7
  4  7  4  0  5  9  1  0  8  2 10  5  0  6 10  4 10  6  3  3  1  2  1  3
  2 11 13  1 13 11  3 16 11  3  1 12  5  1  0  0  3  0  3 23 22  1  2  1
  2 24 20  1 20 21  0  0 19  2 21  1  3  3  2  1 27  0  0  2 30  1 31 26
  0 30  2  5 28 31  5 29 30  2 34 35  4 38 35  5 35  0  5  2 34  5 37  3
  2 36 37  4  3  1  1  0 42  3 41 44  3 39 45  1 41  0  5  2 44  5 40 45
  5 39  0 16 36 17  7]"
13200,367,1.0,8,3,53.974058866500854,3.2394909858703613,7141,52800,466952,3072899,"[ 3  2  3  0  1  1  0  1  2  0  1  3  4  3  2  4  2  0  0  0  3  1  9  7
  5  3  4  3  3  3  3  0  8  5  3  5  0  6 10  4 10  6  3  3 12  2  1  3
  0 16  2  1 13 11  0 12 11  2 12 13  5 15  0  2 22 21  5  2  0  5 20 18
  3 24 20  1 21 21  0  0 19  3  3 22  5  0 28  4 28  0  0  2 29  1  3  1
  0 30  2  3 28 27  5  1 25  4 34 35  4 32 32  2 35 37  1  2 37  2 34 36
  2 36  3  5  3  1  1  0 42  3 40 40  0  0 44  1 42  0  2  2 44  5 40  2
  0 39 39 16 36 17  7]"
13300,367,1.0,8,3,54.3062698841095,3.3220863342285156,7194,53200,469316,3091918,"[ 5  2  3  3  1  0  0  1  2  0  1  3  5  0  2  3  0  0  0  0  3  2  5  0
  4  4  7  1  3  3  4  4  8  5  7  6  0  6 10  4 10  6  1 14  2  2  1  3
  2  2  2  3  2 11  0 12 11  4 11 17  5 15  1  2 22 21  0 19  1  1 21  0
  4  1  2  2 21 23  0  0 19  3 20 23  5  1 27  4 25  0  1 27 29  3 27 25
  0 30  2  4 28  2  5 26  0  4  0 35  4 32 38  3  1 37  4 33  3  3 34 32
  1 34 38  5 32  1  1  1 42  3 40 43  2  0 40  3 43 43  5  2 43  5  1 39
  3 43 39 16 36 17  7]"
13400,367,1.0,8,3,54.64297366142273,3.367016315460205,7242,53600,471740,3111385,"[ 4  3  0  3  2  0  0  1  2  0  1  3  3  2  1  3  0  3  0  0  3  2  5  9
  2  4  5  0  4  1  4  4  6  3 10  7  0  6 10  4 10  6  3 11 12  2  1  3
  3 16  2  4 17 13  0 12 13  2 13 12  0 15  2  2 22  1  2  2 24  0 22 21
  4  1 21  3 21 23  0  0 19  0 20 24  4  3  2  5 27  1  2 31 27  1 29 31
  0 30  2  1 28 28  5 29 29  5 38 33  3 34  0  5 37 32  3  1  2  2  1  0
  3 34 38  5  2 32  1  3  1  3 42  0  1 40 41  5 39 44  0 42  1  4  1 43
  2  1  3 16 36 17  7]"
13500,367,1.0,8,3,54.97160768508911,3.286316394805908,7297,54000,474059,3129986,"[ 5  2  3  2  2  2  0  1  2  0  1  3  3  0  0  3  1  3  0  0  3  2  0  9
  4  5  0  5  9  4  5  8 10  5  0  1  0  6 10  4 10  6  5 12 12  2  1  3
  3 13  2  5  3 13  0 12  3  0 11 17  4  0 14  4  1 21  2 20 24  5 19  3
  2 23  2  4 21 22  0  0 19  4 23 24  4  3 28  5 29 26  0 31  0  2  0 31
  0 30  2  0 31 28  5 30 31  5 36 33  3 34 36  2 37 32  3  1 34  5  0 38
  0 32  0  5  2 34  1 43  0  4  1 40  1 39 42  2 40 44  4 39  1  2  3  1
  0 44 39 16 36 17  7]"
13600,367,1.0,8,3,55.311548709869385,3.3993887901306152,7353,54400,476524,3149702,"[ 1  3  3  5  0  2  0  1  2  0  1  3  4  3  0  2  0  2  0  0  3  1  1  0
  4  8  6  4  1  4  5  1 10  4  0  4  0  6 10  4 10  6  2 11  1  2  1  3
  1 13 11  5  1 11  4  2  3  0 13 17  2 11 15  4  0 24  1  1  0  4 21  2
  2 24 21  4  1 24  0  0 19  3 23 24  4 31 29  0  3 28  2 26 27  2  2 27
  0 30  2  2 31 26  0 29 29  2  3 33  2 34 36  2 37  1  3 32 32  5  0  0
  3 38 34  0 37  3  1 39  0  0 40  1  2 44 42  2 40 43  4  1  1  3 43  1
  5 43  3 16 36 17  7]"
13700,367,1.0,8,3,55.64320206642151,3.316504955291748,7401,54800,478898,3168816,"[ 0  0  3  4  0  2  0  1  2  0  1  3  2  3  3  1  1  3  0  0  3  5  9  1
  5  3  8  5  2  4  3  8  2  4  6  4  0  6 10  4 10  6  2 14 14  2  1  3
  2 11  1  5 11  2  1 17 14  5 14 12  5  0 15  4  2 24  5 20  3  0 21  2
  2  0 21  4 19  2  0  0 19  3 21 23  0  1 28  2  3  2  1 27 27  2  2  0
  0 30  2  2  1 26  3 28 25  4 33 33  2 32 32  5 36 36  3 38 37  5 38  0
  3 36  1  1  1 33  4  0 41  3 40  1  1  3 41  0 39  1  4 40  1  1  1  3
  5  1  1 16 36 17  7]"
13800,367,1.0,8,3,55.983896255493164,3.4069180488586426,7451,55200,481424,3188921,"[ 5  0  3  4  2  0  0  1  2  0  1  3  5  2  3  3  1  1  0  0  3  2  9  7
  4  3  8  4  0  1  3  9  5  5  6 10  0  6 10  4 10  6  2  3 15  2  1  3
  0  3 15  1 15 15  3 14 17  5  2 12  3  0  1  4 21 23  5 19  3  0 23 18
  1 21  1  3 19  0  0  0 19  0 20  1  1 28 28  2  3  2  0 25 28  2  2  0
  0 30  2  5 30 25  0  2 25  0  0 33  3 33 32  1  2  1  0 38 37  1 34  3
  4 32 34  5  0  1  3  1 41  3 41 45  5  1 39  1 39 43  4 45 41  1  1  3
  0 41 43 16 36 17  7]"
13900,367,1.0,8,3,56.326685667037964,3.427867889404297,7497,55600,483938,3208978,"[ 4  2  2  1  1  2  0  1  2  0  1  3  5  2  3  1  0  1  0  0  3  1  1  7
  5  0  0  0  0  1  3  9  3  3  1 10  0  6 10  4 10  6  3  0 15  2  1  3
  3 15  3  5 13 15  3 15 13  3  2  0  3  1  0  2 22 18  2 19 19  2 21 20
  2 22 20  3 19 19  0  0 19  1  0 19  0 28 30  0  3 25  3  0 25  2 26 26
  0 30  2  2  2 27  5 31 30  2 35 33  4  0  1  4  3 37  0 34  3  0  0 36
  4  2 36  5  1 32  4 45  1  3 41 40  5  0 42  1  0 45  4 45  1  1  3 40
  0 39 42 16 36 17 26]"
14000,367,1.0,8,3,56.63555717468262,3.088691234588623,7563,56000,486011,3225764,"[ 4  2  0  2  1  2  0  1  2  5  1  3  4  3  3  0  3  1  0  0  3  1  2  6
  5  0  6  0  5  1  1  0  3  5  3  9  0  6 10  4 10  6  0 16 15  2  1  3
  3 15  3  5 13 15  3 15  3  5  2 12  4 12 11  0  0 18  3 19 19  2 21 24
  5 22 19  3 24 19  0  0 19  2 23 19  5  0 31  3  3  0  3 30 25  3  0 28
  0 30  2  2  0 26  0 25  0  2 32 36  1  1  1  2 36 37  4  1  3  5  0 34
  2  2 35  4  1 32  1  1 40  3 42 40  5 45 42  1  3 42  0 40 42  1  3 44
  0 41 42 16 36 17 26]"
14100,367,1.0,8,3,57.02035188674927,3.8479208946228027,7618,56400,488338,3244366,"[ 5  2  2  3  2  2  0  1  2  2  3  3  3  3  3  5  3  1  0  0  3  1  5  5
  5  6  5  3  6  1  2  8  9  3  1  0  0  6 10  4 10  6  0 16  0  2  1  3
  3  3  3  5  3  3  0  0  3  2 16  1  4 11 11  4  0 24  3 19 19  3  3  3
  3  2  0  2 19 20  0  0 19  3 23 19  5 26  2  4 25 29  5  2 25  4  2 28
  0 30  2  3 26 30  0 25  0  2 38  3  3  2 36  0 35 37  4  2  3  4  0  1
  5 35 37  1  0 32  1  0 44  0  2  3  3 45 43  3  3 43  2 41 40  1  1  2
  5 43  0 16 36 17 26]"
14200,367,1.0,8,3,57.372416734695435,3.5206174850463867,7677,56800,490441,3261243,"[ 4  3  2  4  2  0  0  1  2  0  3  3  3  3  2  5  2  1  0  0  3  1  8  5
  0  9  5  3  5  6  0  8  1  5  6  3  0  6 10  4 10  6  0 16 14  2  1  3
  4  3  0  5 16  1  0  0  3  1 16  1  4 11 11  3 18 19  3 19 19  3 18  3
  5 22  1  0 20 20  0  0 19  4 23 19  5 27  2  5 30 26  3  2 25  4  0  2
  0 30  2  5 26 26  4 25  2  2 36 38  3  2  2  3 35 37  4 33  1  4  1  1
  0  2  0  1  1 32  1 40 44  0  2  3  3 45  0  0  3 43  2 40 40  4  3  2
  5 40 43 16 36 17 26]"
14300,367,1.0,8,3,57.702208518981934,3.297896385192871,7730,57200,492656,3279075,"[ 4  3  2  4  0  1  0  1  2  4  0  3  3  1  1  0  0  0  0  0  3  0  9  2
  2 10 10  5 10  1  2  2  3  5  6  9  0  6 10  4 10  6  0 17 14  2  1  3
  4 12  2  0  1 16  3  0  2  2  2 12  1 15  0  4 21  0  3 19 19  1 24 19
  5 24 19  2  0  2  0  0 19  2 24 21  0 27 26  1 27 26  4 26  3  4  0 29
  0 30  2  5 26 25  4 25 28  2 36 37  3  0 35  0 35  3  2 36  2  0  0 32
  1  3 38  3  0  2  4 45 42  4 40  3  3 41 39  5  3 45  0 43 40  4  0 40
  0 40 40 16 36 17 26]"
14400,367,1.0,8,3,58.00735402107239,3.051431179046631,7788,57600,494666,3295280,"[ 2  2  2  4  0  2  0  1  2  5  0  3  3  1  0  3  2  0  0  0  3  0  9  7
  3 10  0  1  8  3  2  2  4  5  9 10  0  6 10  4 10  6  0 15 17  2  1  3
  3 11  2  2 16 16  3  0 16  0 15 12  1 15 13  4 20 21  3 19 19  4 20  0
  5 23 24  2  0  2  1 23 19  2 23 24  1  3 26  0 27  2  4 30 25  3 26 29
  1  3  3  1  2  3  0 29 28  1 33 33  0 36  1  0 35  3  2 37  3  0 35 36
  3 38 38  5  3  2  4  0 42  0 43 45  1 41  0  3  0 45  2  2 41  0  0  0
  4 43  3 16 35 17 26]"
14500,367,1.0,8,3,58.317219495773315,3.098628520965576,7842,58000,496747,3312108,"[ 4  1  1  2  0  2  0  1  2  3  2  0  4  3  1  4  3  3  0  0  3  4  2  1
  4  1  0  0  4  3  0  2 10  2  2 10  0  6 10  4 10  6  3 12  2  2  1  3
  3 17  0  3  3  2  4  0 15  0 14 12  0 11 16  0 24 22  3 19 19  2 21 21
  5 18 24  2  0  2  4 23  3  2  0 24  0  2 26  5 25  2  0 30  2  3 26 29
  2  3 30  0  2 28  3 27 25  2  3 33  0 36 35  0  0 36  4 37  3  0  0 36
  3  0  0  5  3 33  1 41  3  2 43 45  3 42 40  0  0 44  2 44 42  1 44 41
  3  2  1 16 35 17 26]"
14600,367,1.0,8,3,58.618138790130615,3.009166717529297,7895,58400,498711,3327986,"[ 3  2  3  3  2  0  0  1  2  1  3  0  1  2  0  0  3  0  0  0  3  0  6  9
  3  1  6  1  6  3  4  2  3  2  8  0  0  6 10  4 10  6  0 13  2  2  1  3
  2 14 16  2 13 15  4  0 15  2 12 13  1  1 16  1 23 18  3 19 19  5 24 21
  5 18  0  2  0  2  4 23 23  3 20 22  4 26 30  1 25 29  3 29  2  3 26 29
  5  3 30  0 30 28  2 27  1  2 34  0  1 34 32  0 37  1  0  2  0  2 38  2
  2  1 34  5 37 34  4 41 40  1 43 39  2 42  0  0 39 44  4 45 41  0  2 45
  3 39 45 16 35 17 26]"
14700,367,1.0,8,3,58.916319370269775,2.9817771911621094,7953,58800,500645,3343663,"[ 0  2  2  5  0  0  0  1  2  4  2  1  4  1  2  2  3  1  0  0  3  5  7  8
  3 10  7  5  6  3  0  2  3  1  2  6  0  6 10  4 10  6  5 14 11  2  1  3
  2  1  3  4 16  0  5 16  0  0 12 15  2  3 17  0 20  0  3 19 19  3 23  0
  1 18  3  2  0  2  4 18 22  1  1  1  1  1 26  4 27 30  5  2 30  3 26 29
  2  3 29  0 29 30  2 30  1  1  1  0  1 34 32  3 33  0  1  3 35  4  3 37
  2 34 36  5 32  0  0 41 41  4 41  2  1 41  3  1 41  2  1 44  3  2  0 42
  0 42  1 16 35 17 26]"
14800,367,1.0,8,3,59.21971273422241,3.033907413482666,8012,59200,502572,3359335,"[ 0  2  3  0  2  2  0  1  2  4  2  1  3  0  2  2  2  1  0  0  3  1 10  9
  1  8  0  5  5  2  0 10  5  3  5  1  0  6 10  4 10  6  5 14 12  2  1  3
  3  1  1  4 16  0  4 13  0  5 12  1  3  3 17  5 23 24  2 19 19  3 19  3
  5  0  2  2  0  2  1  0  2  1 20  1  3  1 28  4 27 30  5  2 30  3 26 29
  4 31 25  3 29  2  1 26 28  1  0 32  1 34  2  4 35 33  2 33 35  1 32 37
  5 34 36  5 32 36  0 39 41  4 43  2  4 42  3  5 40 42  3  2  3  1 45  0
  0  0  1 16 35 17 26]"
14900,367,1.0,8,3,59.51019477844238,2.904798984527588,8076,59600,504433,3374369,"[ 3  2  0  0  3  2  0  1  2  0  2  0  4  0  1  3  0  1  0  0  3  1  5  6
  1  8  5  5  4  2  4 10  7  3 10  1  0  6 10  4 10  6  1 12 16  2  1  3
  3  2  2  2 15 17  0 13  0  2 15 17  1 14 11  5 23 24  2 19 19  4  2  3
  5 24  0  2  0  2  1  0  1  1 20  1  5 26 29  4 27 29  5  0  2  3 26 29
  4 27 25  3 29  1  1 28 29  4 37 33  3 34  2  4  3 34  3 33  2  1 32  0
  5 34 36  5 33 36  0 39 40  0 43  2  4 42 42  5  3 39  2 40 41  1 40 42
  0 40  3 16 35 17 26]"
15000,367,1.0,8,3,59.80961894989014,2.99422025680542,8132,60000,506380,3390203,"[ 2  0  1  0  3  2  0  1  2  2  0  0  4  0  3  5  3  2  0  0  3  1  5 10
  1  8  8  4  4  2  4  3  7  2  1  1  0  6 10  4 10  6  3  1  0  2  1  3
  4  2 12  2  1 13  2  3  0  4  0 17  1 14 11  5 22 19  3 19 19  3  2 23
  0  2  0  2  0  2  0  0  3  2 20 21  0 29 30  4 27 30  5  2  3  3 26 29
  5  3  3  3 30 25  1 29  1  4  0 32  1 33 34  2 36 32  0  3  0  3  0  0
  5 33  1  5 38  1  2 39 45  1  2  2  4 42 42  5  3 43  4 44  2  3 39 44
  1  0  1 16 35 17 26]"
15100,367,1.0,8,3,60.12117552757263,3.115546703338623,8190,60400,508497,3407193,"[ 2  0  0  3  3  1  0  1  2  2  1  2  2  1  2  4  2  2  0  0  3  1  3 10
  1  5  8  4  2  6  4  9  3  1  6  1  0  6 10  4 10  6  4 16  0  2  1  3
  3  2 12  1 13 14  1 12 11  5  0  3  3 14 17  0 23 19  3 19 19  2 21 23
  0  2 22  2  0  2  0  0  3  2 20 21  2  2  0  0 27  0  2  0 30  3 26 29
  3  3 25  5  2 25  3 29  1  4  0  0  4 37  0  2 36 36  5 37 33  1 37 33
  0  1 33  3 37 34  5 45 45  2  1 39  3 42  0  0  2  0  0 44 42  3 41 44
  2 44  1 16 35 17 26]"
15200,367,1.0,8,3,60.43511462211609,3.139369487762451,8250,60800,510606,3424312,"[ 5  1  0  3  0  3  0  1  2  0  3  0  3  1  1  5  2  1  0  0  3  0  7  9
  0  9  8  4  1  8  2  2  4  3 10  5  0  6 10  4 10  6  2  2 11  2  1  3
  0 17  2  3 14 14  0 16 12  3 11  3  3 16 15  1 23 20  2 19 19  2 18  2
  4  2  2  2  0  2  3  3  3  2  1  1  5 25 25  0 27 29  4 27  1  3 26 29
  3 25  3  5 27 31  2 25  0  0  0 33  4  3 32  3 36  1  3 37  2  3  3 33
  1 32 33  1  2 36  3 40 43  2  3  0  2  0  0  0 41 45  2 44 42  3 40  0
  4 44  1 16 35 17 26]"
15300,367,1.0,8,3,60.73570513725281,3.0058813095092773,8310,61200,512411,3438942,"[ 5  3  1  0  2  3  0  1  2  0  1  1  5  2  1  5  2  3  0  0  3  5  3  8
  5  3  5  3  6  8  0  0 10  3  5  0  0  6 10  4 10  6  2 14 16  2  1  3
  5 16  1  5 14 15  1  2 16  0  1 12  3 16  1  1 22 20  3 19 19  4  2  3
  5  2  2  2  0  2  5 20 21  5 20 22  0 28 25  4  3 29  0 28 25  3 26 29
  2 29  2  5 25 25  4 25  1  0  1  2  4  3  3  3 36 35  3 37  2  0  1 33
  3 36 33  1  0  1  3 39 43  4 39  2  3 43  2  0 41 45  5  3 39  3  1  0
  3 42 43 16 35 17 26]"
15400,367,1.0,8,3,61.12119174003601,3.854827880859375,8361,61600,514644,3456992,"[ 0  1  2  4  1  3  0  1  2  5  1  3  1  3  1  2  2  3  0  0  3  1  3  3
  3  7  4  5  9  1  1  3  5  4  4  0  0  6 10  4 10  6  5 14 16  2  1  3
  3  0  2  0 17 15  5  2 16  5  1  3  3  2  1  5 22  2  3 19 19  0 18  3
  1  0 21  2  0  2  0 20 18  3  0 23  4 28 28  0 25 28  1 27 29  3 26 29
  5  1 30  5  1  1  1 31  1  3  1  2  1  3  0  0 38 35  0  3 36  0  1 32
  3 36 33  2  0 35  3 39 44  1 40 39  1 40 39  4 41  0  2  1 44  3 40  3
  2 42 40 16 35 17 26]"
15500,367,1.0,8,3,61.444801330566406,3.236067295074463,8423,62000,516640,3473124,"[ 5  3  0  5  1  0  0  1  2  1  2  2  3  3  1  2  1  1  0  0  3  1  0  3
  3  4  0  3  6 10  1  5  4  2  4  8  0  6 10  4 10  6  5 16 15  2  1  3
  0 12  2  0 17 14  5 11 11  3 16 11  1  3 16  1  3 20  3 19 19  0 23 20
  3  0 18  2  0  2  1 22  0  5  0  1  2  0  1  0 30  1  3 29 25  3 26 29
  1  1 30  5 27 30  0 29 27  0  3 34  0  3  3  3  0 34  0  0 38  4 36  1
  2 36 38  5 37 37  0 39 41  0 42 39  2 45 39  3  2  0  2 39 44  3 43 42
  2 43  2 16 35 17 26]"
15600,367,1.0,8,3,61.772430658340454,3.2762694358825684,8483,62400,518830,3490965,"[ 5  0  0  2  1  1  0  1  2  1  2  2  3  3  2  4  3  1  0  0  3  5  4  6
  3  4  7  2  3  6  5 10  9  3  8  0  0  6 10  4 10  6  4  2  0  2  1  3
  0  2  2  0 16 17  4 11 14  3 16 11  3 14 16  1  3 21  3 19 19  0 24 20
  1 19  1  2  0  2  4 22 19  3 23 19  2  1 30  2 25 25  1  0 28  3 26 29
  4  0 30  4  1 30  0 31 27  4 33 36  0 33 35  4  2  0  0  0 33  0 36  1
  2 35 37  4 36  1  2 39 44  4  0  0  4 40 45  3  2  0  3  2  0  3  0 44
  2 45 43 16 35 17 26]"
15700,367,1.0,8,3,62.081475496292114,3.0904269218444824,8533,62800,520871,3507501,"[ 1  1  2  2  3  3  0  1  2  3  2  1  2  2  2  5  0  2  0  0  3  3  4  1
  4  0  4  2  9  6  4  8  2  3  5  1  0  6 10  4 10  6  0 12 11  2  1  3
  0  2 13  2  1 17  0  3 14  0 14 11  4 16 16  1 18 22  2 19 19  0  0  3
  3 24  0  2  0  2  4  2 21  3 21  0  5  2 30  2  2  1  5 27 29  3 26 29
  3 28 30  1  3 30  1 31  2  5 36 35  4 38 35  3  2 33  0  0  1  0 36  0
  5  3  3  1 37  2  2 43 41  2  0 39  0  3  2  0  1  1  4 42  0  3  0  0
  3  3 43 16 35 17 26]"
15800,367,1.0,8,3,62.377925872802734,2.964482307434082,8592,63200,522784,3522992,"[ 3  1  2  2  0  2  0  1  2  0  1  0  2  2  0  2  3  2  0  0  3  3  4  1
  0  4  3  2  9  6  4  8  2  2  5  6  0  6 10  4 10  6  0  3 14  2  1  3
  4  0 13  1  1 17  0  1 14  1 12 15  4 16 15  1  2 19  2 19 19  0  0  0
  3 24  0  2  0  2  4 23  3  1  2  1  2 26 30  2 30  1  0 31 31  3 26 29
  2 28 29  1  2 30  1 31  2  5  3  1  0 32 32  3  0 34  1 36 37  0 33 32
  5  2 37  1 37 38  3  2 43  3 45 39  4  3 45  1 44  1  4 45  0  0  0  3
  3  3  0 16 35 17 26]"
15900,367,1.0,8,3,62.68209266662598,3.0416440963745117,8645,63600,524765,3539109,"[ 4  1  3  2  1  1  0  1  2  2  3  0  0  3  3  2  3  0  0  0  3  0  4  0
  2  1  4  4  3  8  3  9  8  3  7  3  0  6 10  4 10  6  4  2 14  2  1  3
  4  0 14  5  3 15  2 12 17  3  2 15  2 15 15  4  2 19  2 19 19  5 20 20
  3 24  3  2  0  2  4  3  3  5  3  3  4 28 25  5  2 30  1  3  1  3 26 29
  0 28 27  1 26 28  0  1 27  5  3 38  3 32 36  3 35 35  0 35 32  2 32 33
  1  3 37  1  1 37  4 44 45  3  1  0  4 44 41  1 44 41  3 44 42  0 43  3
  4  3 40 16 35 17 26]"
16000,367,1.0,8,3,62.98243951797485,3.0034470558166504,8712,64000,526695,3554881,"[ 4  1  2  1  0  0  0  1  2  1  0  2  4  2  3  2  3  1  0  0  3  1  4  0
  5  0  4  3 10  9  4  2  6  3  1  3  0  6 10  4 10  6  4  2 15  2  1  3
  4 17 13  0 17  1  2  2 17  3 11  3  5  1 14  3 18 19  2 19 19  4 20 20
  3 20  3  2  0  2  0  1  3  4  3  3  3 30  0  3 26  3  2 30  1  3 26 29
  1 28  3  1 28 25  1 25 30  5  3 38  4 36 34  5  0 35  3 35  2  2 34  3
  4 37 36  1 33  3  3 41 45  5 42  0  5 44 45  3  3 41  0 44 40  5  0  3
  1  0 43 16 35 17 26]"
16100,367,1.0,8,3,63.2796573638916,2.9721546173095703,8774,64400,528630,3570545,"[ 0  3  2  1  0  0  0  1  2  5  2  2  0  1  1  4  3  0  0  0  3  4  6  0
  0  0  1  3  4  7  4  7  3  3  5  0  0  6 10  4 10  6  5  2 13  2  1  3
  4  0 13  0 17 15  5  3 15  5  1  3  3  0 12  5 24  0  3 19 19  4  2  3
  4 20 24  2  0  2  0  2  3  4 21  3  5 27  1  2  2 30  1 25  1  3 26 29
  4 27 30  1 27 26  2 31  0  5  3 38  0 35 37  2 37 35  4 34  0  2 35 38
  1  3 36  1  3  1  5  2 40  0 42 42  5 39 40  1 42 41  0  2  2  1 39 40
  5 41 43 16 35 17 26]"
16200,367,1.0,8,3,63.59864115715027,3.189816474914551,8825,64800,530824,3588293,"[ 3  3  2  1  1  3  0  1  2  0  1  0  5  3  0  3  2  3  0  0  3  5  0  2
  2  8  4  3  1  7  4  6  1  1  5  0  0  6 10  4 10  6  3  2  2  2  1  3
  4  0 17  4  2 17  2 11 15  1 12 14  0  3  0  4  1 21  3 19 19  4 22 19
  0  3 24  2  0  2  0  3  2  2  0  0  2  2 26  0  2 27  5 29  2  3 26 29
  4  1 30  4  2 25  5 26  2  5 36  0  3 35 37  1 32 37  5 32  0  1  2 32
  0  3  1  0 38 34  3 41  2  5  2 43  1 43 42  2 43 44  1 39 42  1  0  0
  2 41 43 16 35 17 26]"
16300,367,1.0,8,3,63.89122223854065,2.9257917404174805,8887,65200,532718,3603550,"[ 1  3  2  3  0  3  0  1  2  3  0  2  2  3  0  3  0  1  0  0  3  5  3  2
  3  0  1  3  5 10  4  6  0  1  9  8  0  6 10  4 10  6  2 16  3  2  1  3
  2  1 17  1  3 17  2 11  3  1 16  3  0  3  0  2 23 19  2 19 19  2 18  1
  3 21 24  2  0  2  0 21 24  4 22 21  5 30 25  3 27  2  1  2 26  3 26 29
  4  1 27  4 26 25  0  2  2  5 36 34  5 35 35  1 32 35  5 37  0  3  1 35
  4  2 33  4 38 34  3  0  2  0 44 43  3 45 44  3 42 44  1 43 42  1  0  0
  2  2 39 16 35 17 26]"
16400,367,1.0,8,3,64.18968486785889,2.984602451324463,8945,65600,534659,3619238,"[ 3  2  3  3  1  0  0  1  2  5  2  1  5  1  3  3  2  3  0  0  3  5  7  1
  3  0  6  5  9  8  3  6  4  2  9  9  0  6 10  4 10  6  2 16 17  2  1  3
  2 13 14  4 12  3  1 14  0  5 15 15  1  3  0  2 18 19  3 19 19  2 24  3
  2 18 23  2  0  2  3 20  1  3 22  3  5 30 25  5  3  0  5 27 26  3 26 29
  4 26 27  4 26 31  0  2  2  5 33  1  1  2  2  1 36 38  0 37 33  2 35  0
  4 33 36  2 37 36  3 42 42  0  2 40  2 45 40  5 40 44  2  1  1  5 45 44
  0 43 45 16 35 17 26]"
16500,367,1.0,8,3,64.48622632026672,2.96539306640625,9011,66000,536550,3634597,"[ 4  3  3  4  1  1  0  1  2  0  2  2  5  1  2  5  1  2  0  0  3  2  6  1
  4  4  6  0  9  6  3  3  0  2  9  9  0  6 10  4 10  6  3  0 13  2  1  3
  5 16 12  5 12 11  1 14  1  5 15 17  1  3  0  3 18 20  3 19 19  2 24  3
  5 18 23  2  0  2  2 20  1  2 24 22  0  1 25  2 29 29  5 27 25  3 26 29
  1 26  1  3 25 31  0  2  2  2  3 32  1  1  2  5 34 38  0 34 33  5 35 33
  4 33  0  0 37 34  3 45 40  3  2 43  5 45 44  3  1 44  1  2 44  2 41  0
  0 43 45 16 35 17 26]"
16600,367,1.0,8,3,64.82288932800293,3.3666038513183594,9078,66400,538423,3649765,"[ 4  3  1  3  2  2  0  1  2  4  0  0  1  2  2  2  3  2  0  0  3  5  4  8
  1  2  6  0  9  8  2  3  5  4  9  7  0  6 10  4 10  6  4  0  3  2  1  3
  0 16 15  2  3 14  3 14  1  5 15 11  5  2  0  3 21  3  2 19 19  2 24  3
  3 21 22  2  0  2  2 20  1  2 21  0  0 29 25  3 29 29  5 27 25  3 26 29
  1 25  1  3  0 27  0  2 25  3  3  3  1  1  1  0  1 38  4 35 32  5 35  3
  4  3  0  0 32  0  3 41  1  3  0 43  5  2  3  3 41 44  0  2 44  4  1  0
  5 44 44 16 35 17 26]"
16700,367,1.0,8,3,65.17829155921936,3.5539960861206055,9134,66800,540502,3666605,"[ 0  3  1  1  2  1  0  1  2  5  0  0  3  3  1  1  2  2  0  0  3  1  3  1
  1  7  1  5  9  0  2  3  4  2  7  7  0  6 10  4 10  6  5  0 16  2  1  3
  4 12 16  1 13 14  4  3 12  4  1 16  5  2 14  2 19  0  2 19 19  0 24 19
  3 21 19  2  0  2  0 20 18  5 22  0  4 29 25  2  2 29  2 29 28  3 26 29
  3 29 28  3 28 27  5 31  3  4 36 34  1  1  3  0  1  3  2 33  1  0 35 36
  2 36 38  0 32 35  5 39  1  2  0 43  5 44  3  3 45  3  0 45 39  2  2 40
  4 44 44 16 35 17 26]"
16800,367,1.0,8,3,65.4928023815155,3.1450819969177246,9194,67200,542516,3682977,"[ 0  2  1  1  0  1  0  1  2  1  2  3  1  3  1  1  0  3  0  0  3  1  1  9
  1  7 10  4  0 10  4  5  1  0  7  7  0  6 10  4 10  6  1  2 13  2  1  3
  0 12 16  1 17  3  3 11 17  0  0  2  0 14  0  2 20 21  3 19 19  5  1 18
  1 21  0  2  0  2  4 20 20  1 21  2  5 27 25  2  1 28  1  0 28  3 26 29
  3  3  1  1 28 28  5 27 26  5  3 33  1 34  2  1  3 37  2  0  0  3  2  0
  5 36  2  2 38 37  2 42  2  3 40 42  5 44 41  3 43 42  0 41  3  1  2 44
  2 44 42 16 35 17 26]"
16900,367,1.0,8,3,65.81341600418091,3.2061100006103516,9253,67600,544626,3700044,"[ 3  0  3  3  1  0  0  1  2  0  0  2  3  2  1  3  1  3  0  0  3  4  3  9
  1  5  4  2  0  0  4  1  5  0  4  1  0  6 10  4 10  6  1  0 12  2  1  3
  4 15 16  3  3  1  0 16  3  4  1 11  2 15  0  4  3 19  2 19 19  3 19 20
  1 24 19  2  0  2  4 20 20  1  1 19  3  1 29  5 26  2  1  0 26  3 26 29
  0 27 26  1 25 28  3 31 28  5  3  1  0 38  0  4  0 37  1  0 34  4  2  3
  3 34 36  2  3 37  3 40  0  1 41  2  2  0 41  0 43 41  4  1  2  4 45  0
  3 45 41 16 35 17 26]"
17000,367,1.0,8,3,66.13179612159729,3.183774948120117,9305,68000,546811,3717723,"[ 2  3  0  0  2  2  0  1  2  5  0  3  1  2  1  5  3  3  0  0  3  2  3  8
  1  4  7  5  3  3  5  7  5  2  5  0  0  6 10  4 10  6  1 15 17  2  1  3
  0 15 14  1  3 15  5  3 15  4 13  0  2 15 15  4 19 19  3 19 19  2  2 20
  0 19 19  2  0  2  3 20 24  1  1  1  5 31 28  5 28  3  1 25  3  3 26 29
  0 27  2  0 25  1  3 31  0  4  3 37  4  2  0  4  1 35  5 38 34  5  2  3
  3 32 36  0 37 37  0  3  0  0 41 43  4  2 40  3  3 39  3 43  2  5 39 44
  2 42 45 16 35 17 26]"
17100,367,1.0,8,3,66.4349296092987,3.031308650970459,9363,68400,548804,3733863,"[ 3  0  0  5  2  2  0  1  2  1  0  1  0  3  1  0  2  3  0  0  3  4  6  6
  1  4  7  0  6  0  3 10  0  1  2  9  0  6 10  4 10  6  2 15  0  2  1  3
  4 15  3  2  1  1  5 12 15  5 13  0  4 15 15  4  0  1  3 19 19  0 20  0
  2 21 19  2  0  2  1 20 24  4  1  1  5 29 26  1 25  3  4 25 25  3 26 29
  0  1 30  0  2  2  0 31  3  3  3  3  4  2  0  4  1  3  1 38  3  2  0 33
  5  2 33  0  0  2  4 45 41  4 41 39  4  2 40  2  3 40  3 43  2  5 39  3
  5 44 45 16 35 17 26]"
17200,367,1.0,8,3,66.71435928344727,2.7942776679992676,9434,68800,550487,3747552,"[ 0  0  0  4  2  2  0  1  2  4  0  1  2  3  2  0  2  2  0  0  3  4  8  4
  4 10  7  0  6  2  5  8  6  4  8  5  0  6 10  4 10  6  2 16  0  2  1  3
  4  0  3  4  1  1  5 12 12  2 13  0  3 14  0  4  1 20  3 19 19  0 23  0
  2 20  3  2  0  2  1  2 24  4  1  0  1 28 26  2 25 27  5  0  2  3 26 29
  0 25  2  0  2 31  5 27 30  3  3  3  2 38 38  0  1  3  1  0  3  2  0 36
  2 38 35  3  0  2  3  2 43  4 43 42  0  2 43  2 40 40  4 39  2  2 39  3
  0 44  2 16 35 17 26]"
17300,367,1.0,8,3,67.0025041103363,2.8814244270324707,9494,69200,552332,3762501,"[ 2  2  0  5  3  1  0  1  2  2  2  2  0  1  2  4  2  3  0  0  3  0  3  2
  1 10  1  5 10  2  5  7  9  4  0  0  0  6 10  4 10  6  3  3  2  2  1  3
  3 14  3  4 12 14  3 12 12  3  2 17  3  3 17  2 21 23  2 19 19  5 23  1
  3 20 18  2  0  2  1  1 24  4  1 20  2 27 25  3 27 28  0  0 31  3 26 29
  0 31 26  4 28  0  3 30 26  3  1 34  5 36 33  1 33  0  3 35 35  0 35 36
  1 38  0  2  0  1  3 41 43  4  0 41  1 42 39  0 40 40  4 40 44  2 45  3
  0 45  2 16 35 17 26]"
17400,367,1.0,8,3,67.3024754524231,2.999691963195801,9546,69600,554300,3778481,"[ 5  1  2  2  0  2  0  1  2  2  1  3  1  1  0  0  1  0  0  0  3  1  6  5
  5  9  5  0 10  1  5  6  4  1  9  0  0  6 10  4 10  6  4 15 13  2  1  3
  3 17 14  5 12 14  3 14  3  5 17  2  3 12 14  3  0 22  2 19 19  2 23  2
  5  3 18  2  0  2  2  1 24  5  2 20  5 31 25  3 31  0  3 25 26  3 26 29
  1  2 26  3 29 29  2 27 26  5  0 34  1 36 33  5 38 36  5 34 35  0 34 36
  1  1  0  2  0  2  2 41  2  1  2 42  0 39 44  2  3 44  5 45 40  2 45 39
  0 41  0 16 35 17 26]"
17500,367,1.0,8,3,67.61141967773438,3.089420795440674,9600,70000,556338,3795124,"[ 4  1  0  2  1  3  0  1  2  1  1  1  5  2  3  2  2  1  0  0  3  4  7  7
  5  3  4  2  6  8  0  8  9  1  6  6  0  6 10  4 10  6  1  3  2  2  1  3
  4  3  1  2 11 15  4 14  3  4 16  2  5 12  0  3 24  2  2 19 19  3 18  2
  0 21 19  2  0  2  1  1 24  4  2 21  5  2 25  3  1  0  5 31 30  3 26 29
  0 29 29  0 31  1  5 26 27  0 36 37  5  2 33  4 32 35  0 32 35  2  0 34
  3  1 36  5 35 36  2  0  0  1  1 43  1  3  2  2 41 40  1 44 45  3 41 44
  5  1 41 16 35 17 26]"
17533,369,1.0,7,2,67.71018290519714,2.992760051380504,9621,70132,556957,3800206,"[ 4  1  0  2  1  3  0  1  2  1  1  0  2  2  3  2  2  1  0  0  3  5  5  7
  5  8  8  2  6  8  0  3 10  1  1  9  0  6 10  4 10  6  5  3  2  2  1  3
  3 16  1  4 16 15  4 13  3  3 16  2  5  3 13  3 24 21  3 19 19  4 20  2
  0  3  1  2  0  2  1  1 24  3  2 21  5  0  2  4  1  0  3 31  3  3 28 29
  0 25 29  4 31  1  1 26 27  0 36 37  5 37 33  4 32 35  0  1 36  2 32 35
  4  1 35  5 35 36  0  0 40  1  1 43  4 40 40  2 45 40  1  0 45  4 41  2
  2  1 41 16 35 17 28]"
