generation,fitness,functionality,active_nodes,longest_path,time,gen_time,nc_gens,fitness_evals,graph_evals,node_evals,genotype
0,218.0,0.625,8,4,0.012833833694458008,12.829065322875977,0,0,0,0,"[ 1  1  3  3  3  0  1  2  2  5  2  0  2  1  3  4  1  6  3  2  3  3  8  6
  3  0  4  4  7  6  2  1  5  1  1  4  1  2  3  5 10  6  3  1  1  3 15  1
  1 15  9  2 17 10  5 13 15  3  3 13  4 18 21  1  0 18  1 22  3  3 23 22
  1  0  2 27  3  0  3]"
100,300.0,0.875,6,4,30.098863124847412,300.86025953292847,0,12800,155606,1056754,"[ 0  2  0  5  2  1  4  1  0  2  0  1  2  1  0  3  3  4  3  4  1  4  3  0
  2  1  5  2  2  0  5  3  3  1  1 13  5  0  4  1  9  0  5  4 13  0  2  1
  2 13  2  0 15 18  5 13 15  3  3 13  4 23 14  4 21 16  1 19  3  3 23 22
  1 23 19 27 23 19 27]"
200,317.0,0.9375,9,4,64.03613328933716,339.37264680862427,0,25600,301099,2314287,"[ 2  2  2  2  3  0  1  1  2  2  0  0  2  1  3  3  4  3  5  8  1  3  6  3
  2  8  0  3  2  2  1 13  0  3  1  7  5 10  9  2  8  8  5  4  0  0  2  1
  3  0 16  0 11 17  5 13 14  3 12 13  4  1 23  4 15 18  5  2  3  3 23 22
  2 23  0 27 23 19 17]"
252,338,1.0,11,3,81.14055609703064,328.931084045997,0,32256,369010,2969633,"[ 2  2  0  0  1  3  0  1  2  2  3  0  2  1  3  2  7  3  3  4  8  1  3  2
  4  1  1  2  0  2  5 13  6  5  1  7  5  6  1  2  8  8  2  8  0  5 16 15
  2  2  0  0 18 13  5 18 14  3 10 13  4  1 14  5  1 22  5  2 21  2 16 22
  2  1 19 10 23 19 17]"
300,338,1.0,11,3,92.16017961502075,229.575385649999,0,38400,406584,3376859,"[ 2  2  0  5  1  0  0  1  2  2  3  0  2  1  3  2  7  4  3  4  8  0  7  3
  0  4  1  2  0  2  0 13 10  5  1  7  5  6  1  2  8  8  1  0  0  5 16 15
  2 10  0  5 11 17  4 15 10  3 10 13  5 23 17  4  1  0  5 14  3  4 18 23
  2 22 19 10 23 19 17]"
400,338,1.0,11,3,117.03808617591858,248.7790298461914,0,51200,485367,4231400,"[ 2  2  0  5  0  1  0  1  2  2  3  0  2  1  3  4  4  1  3  4  8  2  5  6
  4  4  7  2  0  2  5  4  4  5  1  7  5  6  1  2  8  8  1 13  8  5 16 15
  4 12 14  4  9 14  3 10 14  3 17 13  3  1  1  0 23 22  0 23 22  1  1  1
  0 22  2 10 23 19 17]"
500,340,1.0,9,3,138.43774247169495,213.9965271949768,0,64000,568463,4975129,"[ 2  2  0  0  0  3  0  1  2  2  3  0  2  1  3  3  4  3  3  4  8  5  7  6
  3  3  7  2  0  2  4 13  3  0  2  4  1  8  5  2  8  8  0  2  8  5 12 18
  1  1  2  2  3  3  1 13 17  3 17 13  0  0  3  3 23 22  0  1 19  0 16 20
  3 21 22 10 23 11 17]"
600,340,1.0,9,3,160.80751609802246,223.69770050048828,0,76800,653354,5729312,"[ 2  2  0  4  0  3  0  1  2  2  3  0  2  1  3  3  7  5  3  4  8  5  7  6
  4  0  0  2  0  2  3  5  6  3  4  5  5  3  3  2  8  8  1 12  3  4 10 18
  3  3  2  1 12  3  1  3 16  3 10 13  2 20 17  4 15 18  1  1 19  3 22 17
  3 17 18 10 23 11 17]"
700,340,1.0,9,3,183.1883680820465,223.80847454071045,0,89600,736991,6473812,"[ 2  2  0  4  1  2  0  1  2  2  3  0  2  1  3  2  0  3  3  4  8  5  7  6
  0  8  8  2  0  2  3  9  6  1  3  5  1  4  7  3  8  8  5 12  8  4 14 16
  0  0 15  0  0 15  1 14  3  3 10 13  4 18  3  1  2 22  0 16 17  5  3  0
  3  2 18 10 23 11 17]"
800,340,1.0,9,3,205.71692180633545,225.28548955917358,0,102400,820927,7219846,"[ 2  2  0  0  1  2  0  1  0  2  3  0  2  1  3  0  2  1  3  4  8  5  7  5
  4  7  8  2  0  2  1  2  8  3  8  5  4  6  9  2  8  8  1  6  9  4 12  1
  1  9  0  4  9 10  0  9 10  3 17 13  0 17  2  4  0 21  1 16  3  0 14  0
  0 15 23 10 23 11 17]"
900,340,1.0,9,3,227.6377558708191,219.20828580856323,0,115200,905127,7968117,"[ 2  2  0  0  1  2  0  1  0  2  3  0  2  1  3  0  2  3  3  4  8  5  7  5
  1  1  2  2  0  2  1  0 10  1  2 11  4 11 13  2  8  8  0 12  6  2 13  1
  0 10 11  3  9 11  2  9 11  3 10 13  5 16  0  4  3 21  0 20 14  4 15  2
  4 16 23 10 23 11 17]"
1000,340,1.0,9,3,249.53608751296997,218.98328304290771,0,128000,989455,8717662,"[ 2  2  0  0  1  2  4  3  2  2  3  0  2  1  3  0  6  8  3  4  8  5  7  5
  2  2  4  2  0  2  5 10  6  4  1 11  5  9  6  2  8  8  0  4  9  1 10 18
  4 11  0  4  0 10  1 15 17  3 10 13  1 21 17  4  2  1  1 14 14  0 15 21
  2 23  1 10 23 11 17]"
1100,341,1.0,8,3,271.5080466270447,219.7195529937744,0,140800,1072688,9452273,"[ 2  1  0  0  1  2  0  0  3  2  3  0  2  1  3  3  4  3  3  4  8  5  7  5
  3  6  3  2  0  2  0  0  0  1  6  6  3 11  7  3  8  8  0 11  6  0 14 13
  4 16  9  4  2 11  2 17 17  3 17 13  0 17 18  4  0 16  0 14 17  4 14 17
  5 17 23 16 23 11 17]"
1200,341,1.0,8,3,289.78154397010803,182.73492813110352,0,153600,1142768,10012648,"[ 1  1  2  0  1  2  4  0  0  2  3  0  2  1  3  2  8  4  4  7  7  5  7  5
  5  7  8  2  0  2  3 12 13  4  9  7  3 11  7  2  8  8  4 12 11  0 11  2
  4 16 18  5 16 18  0  0  9  3 17 13  4 21 21  2  1 17  4 21 14  4 16  2
  5 21 19 16 23 11 17]"
1300,341,1.0,8,3,307.76706075668335,179.8551344871521,0,166400,1211980,10565538,"[ 5  2  0  0  1  2  2  3  1  2  3  0  2  1  3  3  0  6  4  5  7  5  7  5
  3  4  4  2  0  2  2  5  3  4  8 12  3 11  7  2  8  8  4  3 11  5 12  0
  5  3 15  5 16 15  3 12 17  3 17 13  5 15  0  2  3 22  5 15  0  0 19 17
  1 19 21 16 23 11 17]"
1400,341,1.0,8,3,325.7563443183899,179.89280223846436,0,179200,1282341,11128013,"[ 0  0  2  0  1  2  2  3  0  2  3  0  2  1  3  5  5  0  4  5  8  5  7  5
  3  7  5  2  0  2  4 10  9  4  1 13  3 11  7  2  8  8  5 13  4  1  2 15
  5 10  0  2 15 16  5 12 17  3 17 13  5 18 19  5  1 20  3 22 22  0 14 18
  3 22 18 16 23 11 17]"
1500,341,1.0,8,3,343.9738619327545,182.17512130737305,0,192000,1353487,11695640,"[ 0  3  2  0  1  2  2  3  2  2  3  0  2  1  3  1  2  6  3  0  3  5  7  5
  5  3  2  2  0  2  4 10 13  3  1  4  3 11  7  3  8  8  0  8  7  3  2 12
  2  2  0  1 10  0  1 16 10  3 17 13  0 15 23  3 14 14  5 18 18  5 14  2
  3 15  2 16 23 11 17]"
1600,341,1.0,8,3,361.63557481765747,176.61709547042847,0,204800,1423145,12251157,"[ 5  0  3  0  1  2  1  0  0  2  3  0  2  1  3  0  8  0  2  0  8  5  7  5
  3  7  0  2  0  2  4  7  3  3  8 12  3 11  7  3  8  8  5  8 13  4 16 11
  0 10  0  4 11 12  4  0 14  3 17 13  4 16 15  0  1 21  1 19 18  1 17 22
  4 20 23 16 23 11 17]"
1700,341,1.0,8,3,379.258008480072,176.22430324554443,0,217600,1492500,12805286,"[ 5  0  0  0  1  2  0  2  0  2  3  0  2  1  3  5  8  5  5  4  0  5  7  5
  2  5  7  2  0  2  1 13  3  2 12 11  3 11  7  3  8  8  2 13  3  0 15 12
  2  0 16  3 14 17  5  1  1  3 17 13  5  1 23  2 22  3  3  0 16  5 15 18
  4 18  2 16 23 11 17]"
1800,341,1.0,8,3,397.8328900337219,185.74877500534058,0,230400,1562676,13366054,"[ 4  0  3  0  1  2  0  0  3  2  3  0  2  1  3  2  6  4  1  7  4  5  7  5
  1  2  3  2  0  2  1 12  8  2  7 11  3 11  7  2  8  8  4  6  2  3  9 16
  3 18 10  2 12  9  0 12 15  3 17 13  5  3  2  1 17  1  1  2  2  5 15 22
  0 21  2 16 23 11 17]"
1900,341,1.0,8,3,415.81071424484253,179.77819204330444,0,243200,1631171,13913940,"[ 1  0  1  0  1  2  3  3  0  2  3  0  2  1  3  0  3  1  0  4  6  5  7  5
  0  3  3  2  0  2  4  4 10  5  7  6  3 11  7  2  8  8  1  5  0  0 14 12
  2 10 14  3 16 15  2 16 18  3 17 13  0 17 16  3  0  0  1 18 14  5 22 18
  3 21  3 16 23 11 17]"
2000,341,1.0,8,3,433.9893145561218,181.78597211837769,0,256000,1700457,14466999,"[ 3  1  2  0  1  2  0  2  0  2  3  0  2  1  3  0  2  7  4  8  8  5  7  5
  1  3  0  2  0  2  5  7  8  3  1 12  3 11  7  3  8  8  4  9  5  1 14  1
  4  0  1  2 16 17  5 13 10  3 17 13  0 17  1  2 22 15  1  3 17  5 14  1
  5 18  0 16 23 11 17]"
2100,341,1.0,8,3,452.13356757164,181.4424729347229,0,268800,1770035,15022465,"[ 5  3  0  0  3  3  0  2  1  2  3  0  2  1  3  2  6  5  3  1  1  5  7  6
  1  6  2  2  0  2  4  0  1  0  3 12  3 11  7  3  8  8  0  3  0  1 11  9
  0 15  3  1 14 18  2  9  1  3 17 13  5  3 18  3 17  0  2 23 16  3 17 16
  1 18 14 16 23 11 17]"
2200,341,1.0,8,3,470.34429144859314,182.10720300674438,0,281600,1839297,15576037,"[ 1  1  3  0  2  2  0  2  1  2  3  0  2  1  3  4  2  0  0  5  1  5  7  6
  3  5  5  2  0  2  3  2  0  2  4  0  3 11  7  2  8  8  3  1  8  4 13 10
  3 18 12  2  0 14  3 11 18  3 17 13  1 14 23  2  1 15  3 23  0  2  2 15
  3 22 16 16 23 11 17]"
2300,341,1.0,8,3,488.28596925735474,179.4167447090149,0,294400,1908881,16131617,"[ 1  3  2  1  0  2  0  2  1  2  3  0  2  1  3  1  3  0  4  0  5  5  7  6
  0  5  8  2  0  2  0  2  6  5  6  5  3 11  7  3  8  8  2 12 12  0  2  1
  2 11 12  5  0  0  1 17 13  3 17 13  3 22  1  1 21  0  5 22 17  2 20 14
  3 15 19 16 23 11 17]"
2400,341,1.0,8,3,507.30380606651306,190.17831563949585,0,307200,1979798,16698243,"[ 3  1  0  1  3  1  0  2  1  2  3  0  2  1  3  2  3  8  3  8  8  5  7  6
  0  7  7  2  0  2  0  9  8  1  2 13  3 11  7  3  8  8  4  2  5  1  9  3
  0  2  2  0 15  0  4 17 10  3 17 13  1  0 14  2 23 16  3  3 14  4  3  1
  1  2 18 16 23 11 17]"
2500,341,1.0,8,3,525.4823863506317,181.7857527732849,0,320000,2050391,17261926,"[ 3  1  2  4  3  3  0  2  1  2  3  0  2  1  3  0  0  0  3  4  1  5  7  6
  3  7  7  2  0  2  0 12  8  5 13  5  3 11  7  3  8  8  2  2  9  1 10  9
  1 18  0  0  2  0  4  1  0  3 17 13  4 19  2  4 14 14  0  0 20  4 19 22
  0 20 23 16 23 11 17]"
2600,341,1.0,8,3,544.1179058551788,186.35515689849854,0,332800,2120351,17821006,"[ 2  0  1  1  2  2  0  2  1  2  3  0  2  1  3  2  5  7  3  5  3  5  7  6
  3  0  7  2  0  2  2  0 13  5 10  2  3 11  7  2  8  8  5  8 12  4 16 10
  2 15 14  1 16 13  1 16  2  3 17 13  0 23 23  5 21 22  0 16 15  2 21 20
  1  0 15 16 23 11 17]"
2700,341,1.0,8,3,562.2060391902924,180.8812952041626,0,345600,2191227,18386858,"[ 1  1  2  3  1  0  0  2  1  2  3  0  2  1  3  1  7  1  1  6  0  5  7  6
  5  8  6  2  0  2  1  2  3  3  0  4  3 11  7  3  8  8  3  1  3  4 11 18
  1  3  0  3 11 15  5  2 11  3 17 13  2 18 20  2 14 19  5 21 15  0 14  3
  5 21 23 16 23 11 17]"
2800,341,1.0,8,3,580.2568089962006,180.50766706466675,0,358400,2261570,18948752,"[ 2  1  1  4  0  1  0  2  1  2  3  0  2  1  3  5  7  3  5  6  4  5  7  6
  1  0  6  2  0  2  1  2  5  3  0  4  3 11  7  3  8  8  2  2 11  4 12  1
  1  9 15  3  2 10  0 14 14  3 17 13  0 19 15  2 20  3  1  1 21  1 21 17
  3 19 22 16 23 11 17]"
2900,341,1.0,8,3,598.6588397026062,184.02027130126953,0,371200,2331852,19510085,"[ 5  0  3  0  2  1  0  2  1  2  3  0  2  1  3  4  4  6  1  7  6  5  7  6
  2  6  8  2  0  2  4 11 11  5  3  1  3 11  7  2  8  8  0  6  3  2 16 16
  3 10 16  4 17 11  2  0  1  3 17 13  3  3 19  5 15 14  5  0 18  0 15 16
  1  0 19 16 23 11 17]"
3000,341,1.0,8,3,617.0241038799286,183.65258932113647,0,384000,2403126,20079402,"[ 5  0  0  0  2  1  1  2  3  2  3  0  2  1  3  1  7  7  3  4  1  5  7  5
  0  5  0  2  0  2  1  8  5  4  2 12  3 11  7  3  8  8  5  9  7  3 14 17
  2 12 15  3 15 16  5  1 11  3 17 13  1 23 18  2  2 15  5 23  1  3 17  1
  2 18  2 16 23 11 17]"
3100,341,1.0,8,3,635.8250336647034,188.00926208496094,0,396800,2473708,20642603,"[ 0  3  3  0  2  1  1  1  2  2  3  0  2  1  3  5  2  8  1  5  3  5  7  5
  4  1  5  2  0  2  5 12  2  0  7 13  3 11  7  3  8  8  1 11  8  0 17 17
  0  3 12  0 18  3  4 17  9  3 17 13  3 23 17  1  1 18  0 18 21  2 23 15
  4 17  3 16 23 11 17]"
3200,341,1.0,8,3,653.4446370601654,176.1959981918335,0,409600,2543934,21203276,"[ 2  2  2  0  2  1  1  3  1  2  3  0  2  1  3  3  2  0  4  3  5  5  7  5
  4  3  3  2  0  2  3  1  4  3  7 10  3 11  7  2  8  8  3  8  5  1 12  1
  2 12 13  3 11 15  2  9 15  3 17 13  2 21  2  0  0 21  2  3 22  2 19  0
  0 17 19 16 23 11 17]"
3300,341,1.0,8,3,671.3417055606842,178.97064685821533,0,422400,2613494,21758805,"[ 0  3  3  0  2  1  0  2  1  2  3  0  2  1  3  3  6  3  0  2  8  5  7  6
  2  1  2  2  0  2  2  7  9  0  7  8  3 11  7  3  8  8  5 12  3  5 11 18
  0  9 17  5  2  3  5 17 15  3 17 13  2 22 22  0 15 23  4  3 16  5 23  3
  5 18 23 16 23 11 17]"
3400,341,1.0,8,3,689.9795393943787,186.37830018997192,0,435200,2683918,22321149,"[ 2  3  2  1  1  2  0  2  1  2  3  0  2  1  3  2  6  4  1  1  1  5  7  6
  4  1  4  2  0  2  0  7  4  3  7  6  3 11  7  2  8  8  1  8  0  1 14  9
  0  9 11  4 16 14  0  3 18  3 17 13  4  0 14  0 22 14  4 23 17  2  2 16
  5  0 14 16 23 11 17]"
3500,341,1.0,8,3,708.1882629394531,182.08720207214355,0,448000,2754914,22888029,"[ 0  2  1  3  2  3  0  2  1  2  3  0  2  1  3  1  1  4  2  2  0  5  7  6
  2  8  8  3  6  8  3  1  3  5  8  8  3 11  7  3  8  8  4  4  1  4 10 17
  2 11 12  4 17 16  4 10 15  3 17 10  4  0 20  5 21  0  4 14  2  0  1 23
  1  3 22 16 23 11 17]"
3600,341,1.0,8,3,726.6482644081116,184.5999813079834,0,460800,2825093,23448986,"[ 0  0  0  1  0  3  0  2  1  2  3  0  2  1  3  1  7  2  2  2  0  5  7  6
  1  8  8  3  0  2  0 10  8  3  0 10  3 11  7  3  8  8  2  9  6  5 15 12
  4  1 17  0 12 15  1 11 14  3 17 10  1 23 18  0  2 16  1 20 16  5  2  2
  3 18 22 16 23 11 17]"
3700,341,1.0,8,3,744.7898726463318,181.41604661941528,0,473600,2896570,24019779,"[ 5  2  3  5  2  2  0  2  1  2  3  0  2  1  3  5  6  0  2  2  0  5  7  6
  3  8  6  5  6  3  2  9 13  0  7  6  3 11  7  3  8  8  0 12  7  0 10 18
  4 15 17  5 12 13  1 18  0  3 17 10  4  2 18  5  2 20  3  3 15  2 18 17
  1  1 18 16 23 11 17]"
3800,341,1.0,8,3,762.5192081928253,177.29331970214844,0,486400,2966060,24574962,"[ 2  1  0  5  3  1  0  2  1  2  3  0  2  1  3  5  8  2  2  2  0  5  7  6
  1  2  6  0  0  5  1  1 13  5  5 13  3 11  7  3  8  8  5  7  5  3  3 17
  1 11  1  2  9 16  0 16 17  3 17 10  5  2 16  5 20  3  4 19 20  4 16 21
  3 19  0 16 23 11 17]"
3900,341,1.0,8,3,781.0446875095367,185.2547550201416,0,499200,3036572,25138384,"[ 5  1  1  5  2  3  0  2  1  2  3  0  2  1  3  5  1  2  2  2  0  5  7  6
  0  1  5  1  5  2  3  8  0  5  0  6  3 11  7  2  8  8  0  3 13  4  2  0
  1 18 18  5  1 14  2  2  1  3 17 10  3 18  3  3 15 21  4  1  0  3 19 14
  3  1 17 16 23 11 17]"
4000,341,1.0,8,3,799.501461982727,184.56770658493042,0,512000,3107665,25705578,"[ 3  3  1  5  0  3  0  2  1  2  3  0  2  1  3  2  3  7  2  2  0  5  7  6
  0  0  3  0  1  1  4 12  6  1  0 13  3 11  7  2  8  8  0  3  9  3 11 14
  3  0 12  4  3 14  5  2  1  3 17 10  0 23 17  2  2 17  3 21 19  1 18 21
  3  3  0 16 23 11 17]"
4100,341,1.0,8,3,818.2796969413757,187.78231620788574,0,524800,3175906,26250890,"[ 0  2  2  1  3  3  0  2  1  2  3  0  2  1  3  4  0  8  2  2  0  5  7  6
  4  5  3  1  4  4  2  9 10  2 13  7  3 11  7  3  8  8  1  0  9  1  9  3
  1 14 11  2 16 18  2  9  0  3 17 10  2 15 22  0  2  0  3  2 23  4 22  3
  0 16 19 16 23 11 17]"
4200,341,1.0,8,3,836.578813791275,182.99113273620605,0,537600,3245667,26808005,"[ 4  3  2  2  0  3  0  2  1  2  3  0  2  1  3  2  1  8  2  2  0  5  7  6
  1  8  5  5  3  4  5 10  3  2  0 12  3 11  7  3  8  8  3  3  1  4 17 15
  4  9 12  1 11 11  2  9 10  3 17 10  4  3 16  2  2 21  0 15 23  2  1  1
  5 20 22 16 23 11 17]"
4300,341,1.0,8,3,854.7933185100555,182.1450114250183,0,550400,3314526,27358590,"[ 1  1  0  1  1  2  0  2  1  2  3  0  2  1  3  0  0  5  2  2  0  5  7  6
  1  8  0  5  1  3  4 12 12  5  9  0  3 11  7  3  8  8  4  5  9  4 13 10
  0  9 11  4  9  0  1  2 13  3 17 10  4  1 18  1 21  2  1 17  2  0  3  3
  2  1 14 16 23 11 17]"
4400,341,1.0,8,3,872.9235711097717,181.30248546600342,0,563200,3383430,27909590,"[ 3  1  0  5  3  3  0  2  1  2  3  0  2  1  3  3  4  7  2  2  0  5  7  6
  4  5  6  5  8  6  5  9  9  0 13 13  3 11  7  2  8  8  4  9  6  0 12 10
  5  2 16  5  9 17  2  1  2  3 17 10  5 22 16  3 18 22  1  3 22  0  0 23
  3 20  1 16 23 11 17]"
4500,341,1.0,8,3,890.914167881012,179.90593194961548,0,576000,3452934,28466029,"[ 4  2  3  3  0  0  0  2  1  2  3  0  2  1  3  1  8  2  2  2  0  5  7  6
  3  7  8  1  6  7  3 12  1  5  2  9  3 11  7  3  8  8  2  9 10  5 15 15
  5  2 18  0 11 15  2 18  2  3 17 10  3 14 22  0 19 14  5 17  0  0 17 18
  2 15 22 16 23 11 17]"
4600,341,1.0,8,3,909.6753959655762,187.61224746704102,0,588800,3523126,29026862,"[ 0  3  1  0  0  0  0  2  1  2  3  0  2  1  3  0  2  8  2  2  0  5  7  6
  5  3  1  3  6  6  4  7  6  5  0  5  3 11  7  2  8  8  2 11  2  0 15 18
  5 10 16  3  0 18  0 12 12  3 17 10  5 17 14  4 18 21  5  1 19  2  2 23
  0 21 17 16 23 11 17]"
4700,341,1.0,8,3,927.202033996582,175.2663278579712,0,601600,3593186,29585915,"[ 5  0  1  5  0  2  0  2  1  2  3  0  2  1  3  3  7  5  2  2  0  5  7  6
  3  6  6  1  7  2  5  2  7  5  0  2  3 11  7  2  8  8  2  2  8  5  9  2
  2 18  9  0 10  9  2  2 17  3 17 10  2 20 20  5  0 16  4  2 17  0 14 18
  1 23 19 16 23 11 17]"
4800,341,1.0,8,3,946.0373108386993,188.35272073745728,0,614400,3664174,30152922,"[ 1  3  1  1  2  0  0  2  1  2  3  0  2  1  3  0  4  6  2  2  0  5  7  6
  2  6  6  4  3  2  2  4  5  3  4  1  3 11  7  2  8  8  3 13  5  5  0 11
  0 13  9  0 10 16  1  2 16  3 17 10  1  3 17  4  0 18  0 14 16  2 15  3
  4 23  2 16 23 11 17]"
4900,341,1.0,8,3,963.8985877037048,178.61273527145386,0,627200,3733802,30709029,"[ 1  3  3  0  2  3  0  2  1  2  3  0  2  1  3  5  3  7  2  2  0  5  7  6
  1  7  3  3  8  0  0 11  5  4  4  8  3 11  7  3  8  8  2  1  7  0 14  9
  0 12 10  4  3  0  3 12 10  3 17 10  0  0 23  3 18  1  0 15 23  1 17  1
  1 21 17 16 23 11 17]"
5000,341,1.0,8,3,982.1663990020752,182.67807722091675,0,640000,3804010,31269337,"[ 2  2  3  3  1  2  0  2  1  2  3  0  2  1  3  3  4  3  2  2  0  5  7  6
  5  3  8  2  0  2  4  4  0  0  6  8  3 11  7  3  8  8  3  2  6  2 12 10
  3  1 10  5  0  0  4 12 10  3 17 10  4  3  3  0 18 20  1 18 18  4 22 16
  1 16 20 16 23 11 17]"
5100,341,1.0,8,3,1000.622679233551,184.56276893615723,0,652800,3874221,31829842,"[ 4  2  3  2  2  3  0  2  1  2  3  0  2  1  3  5  4  8  2  2  0  5  7  6
  2  8  4  4  1  3  1  7  6  2  9  8  3 11  7  3  8  8  5  4  2  2  0 14
  2 11 13  1  0 13  1  1  0  3 17 10  1 17  0  1  0  3  0 15 22  4 18 14
  4 16 15 16 23 11 17]"
5200,341,1.0,8,3,1019.9516477584839,193.28964471817017,0,665600,3945260,32397660,"[ 3  1  2  1  0  3  0  2  1  2  3  0  2  1  3  3  5  7  2  2  0  5  7  6
  3  6  4  2  3  1  3 13  0  1  7  9  3 11  7  3  8  8  3  3  6  0 13  2
  2  0 10  3 10 17  0 11  9  4 15 10  5 22  2  5 19 18  3 22 15  4 19 15
  0 15 17 16 21 11 17]"
5300,341,1.0,8,3,1038.4436604976654,184.9200940132141,0,678400,4015568,32960042,"[ 3  0  3  2  0  3  0  2  1  2  3  0  2  1  3  5  5  3  2  2  0  5  7  6
  2  5  5  3  3  8  1  6 12  0  2 13  3 11  7  2  8  8  3 10 13  5 16  3
  3  2  1  3 10 17  5 16  3  1 13 10  1 21 16  5 16 17  4  3  3  2 19 20
  1 15 15 16 21 11 17]"
5400,341,1.0,8,3,1056.7021005153656,182.58435487747192,0,691200,4085091,33515977,"[ 0  2  2  5  0  3  0  2  1  2  3  0  2  1  3  3  5  1  2  2  0  5  7  6
  3  1  5  1  5  8  5  7 12  5 10  1  3 11  7  2  8  8  1 11 10  3 14 16
  0  0  1  3 10 17  3 12  0  5 18 14  0  2  3  4 21 21  2 14 19  2 18  0
  3  1 21 16 21 11 17]"
5500,341,1.0,8,3,1074.723049402237,180.20943403244019,0,704000,4155183,34076018,"[ 5  1  0  3  1  0  0  2  1  2  3  0  2  1  3  5  2  1  2  2  0  5  7  6
  5  7  4  3  0  0  1  0  5  2  0 11  3 11  7  3  8  8  1  5 12  1 10 15
  1 11 13  3 10 17  1 10  9  2 18  9  2 14 22  4  1  0  1 23  0  3 21 22
  0 19  2 16 21 11 17]"
5600,341,1.0,8,3,1092.9591183662415,182.3606562614441,0,716800,4223848,34624895,"[ 0  2  0  1  3  1  0  2  1  2  3  0  2  1  3  5  4  7  2  2  0  5  7  6
  5  0  2  3  3  2  4  6  0  2  5  6  3 11  7  3  8  8  4  6  6  4 14 12
  3 12 12  3 10 17  2 10 17  0 14  9  0 15  3  0 18  2  3 14  2  3  0 19
  2 19 22 16 21 11 17]"
5700,341,1.0,8,3,1111.7159714698792,187.56849765777588,0,729600,4292431,35172331,"[ 5  3  2  1  3  3  0  2  1  2  3  0  2  1  3  4  1  7  2  2  0  5  7  6
  2  4  8  4  3  8  5 10  0  2  3 12  3 11  7  2  8  8  2  8  5  4 15 11
  3  3 15  3 10 17  2 13 16  1 16 12  4 21 20  5 16 20  4  3  0  3 15 14
  0 17  3 16 21 11 17]"
5800,341,1.0,8,3,1129.6469786167145,179.31003332138062,0,742400,4361825,35726560,"[ 3  0  2  1  3  1  0  2  1  2  3  0  2  1  3  0  2  2  2  2  0  5  7  6
  0  8  3  0  8  1  1  0  9  1 10  8  3 11  7  3  8  8  4  3  2  2 17  1
  2 16  3  3 10 17  3  0 12  3 13  1  5 18 16  2  2 18  2 23 20  5 18 14
  1  1  2 16 21 11 17]"
5900,341,1.0,8,3,1148.0665514469147,184.19567823410034,0,755200,4432404,36289855,"[ 2  0  3  1  3  0  0  2  1  2  3  0  2  1  3  4  1  7  2  2  0  5  7  6
  4  1  6  2  2  7  4  5  8  4  1  7  3 11  7  2  8  8  4 10  4  5 17 16
  2 15 17  3 10 17  1  1  9  4 15  1  2 16 18  4 16 14  2 21 14  2  2 14
  5 19 18 16 21 11 17]"
6000,341,1.0,8,3,1166.5662534236908,184.99698162078857,0,768000,4501779,36843630,"[ 5  0  0  0  3  1  0  2  1  2  3  0  2  1  3  4  0  2  2  2  0  5  7  6
  5  2  5  1  6  7  1 10  2  4  2 10  3 11  7  2  8  8  2 11 10  3  0  2
  0 16 18  3 10 17  5  0 11  0 15 10  1 18  2  1  2 18  0  0 21  5  3 21
  2 18 18 16 21 11 17]"
6100,341,1.0,8,3,1184.8570458889008,182.90786027908325,0,780800,4571763,37402712,"[ 1  3  2  2  3  3  0  2  1  2  3  0  2  1  3  1  4  7  2  2  0  5  7  6
  1  7  7  4  2  3  3 13  3  3  2  8  3 11  7  3  8  8  2  7 12  5 13  2
  3  0 13  3 10 17  2 15  0  0 13 18  3 23 16  5 17 19  4  0 20  2 19 23
  0 18  1 16 21 11 17]"
6200,341,1.0,8,3,1202.5943310260773,177.37281799316406,0,793600,4641380,37958608,"[ 4  3  2  5  1  3  0  2  1  2  3  0  2  1  3  4  5  7  2  2  0  5  7  6
  1  1  5  0  6  7  0  0 11  0  5  7  3 11  7  3  8  8  4  9  3  3 13 10
  4 13  1  3 10 17  2 10 10  5  3 15  3 15  2  2 16  3  1 23 20  5 20 18
  2  3 15 16 21 11 17]"
6300,341,1.0,8,3,1220.8240354061127,182.2969937324524,0,806400,4712217,38524588,"[ 4  2  1  1  1  3  0  2  1  2  3  0  2  1  3  4  6  8  2  2  0  5  7  6
  2  3  3  0  0  0  5  9 11  3  0  1  3 11  7  3  8  8  4  9 11  0  1 16
  2 11 14  3 10 17  5 12  3  2  3 12  3 17  0  5 17  0  2 22 21  0 21  3
  0  0 14 16 21 11 17]"
6400,341,1.0,8,3,1238.5258343219757,177.01795101165771,0,819200,4782070,39082200,"[ 5  0  3  0  1  1  0  2  1  2  3  0  2  1  3  4  3  2  2  2  0  5  7  6
  1  2  5  4  5  2  3  9  8  5 12 13  3 11  7  3  8  8  3  8  2  0  1 10
  2  2  9  3 10 17  0 11  2  3  9 17  5 23 18  4 15 23  2 22 19  0 17 17
  0  3  0 16 21 11 17]"
6500,341,1.0,8,3,1256.783224105835,182.57386445999146,0,832000,4852928,39647872,"[ 1  3  3  0  1  2  0  2  1  2  3  0  2  1  3  3  8  6  2  2  0  5  7  6
  1  8  4  5  4  8  5  8 11  3  4  3  3 11  7  3  8  8  1 10  2  3 12 13
  4 17 18  3 10 17  1 18  9  1  0 12  2 19  2  1  0  0  4 14 19  3 16 16
  5 23 14 16 21 11 17]"
6600,341,1.0,8,3,1275.322049856186,185.38822174072266,0,844800,4923137,40208896,"[ 4  2  1  1  0  3  0  2  1  2  3  0  2  1  3  4  3  8  2  2  0  5  7  6
  5  8  4  0  6  3  1  4  4  5  8  3  3 11  7  3  8  8  5 13 13  4  9 14
  2 16  3  3 10 17  2  3  9  0 13 16  3 18 22  3 17 16  5 17 20  3 20  3
  4 16 21 16 21 11 17]"
6700,341,1.0,8,3,1292.8389086723328,175.16854524612427,0,857600,4992811,40765108,"[ 4  2  2  3  1  0  0  2  1  2  3  0  2  1  3  3  4  2  2  2  0  5  7  6
  5  3  4  0  6  6  3  4  2  4 12 12  3 11  7  3  8  8  4  3 13  3  9 15
  1 16 17  3 10 17  4 11 10  0 14  9  0  2  0  3  3 18  5  3  2  5 20 23
  2  2 21 16 21 11 17]"
6800,341,1.0,8,3,1311.1143612861633,182.75447368621826,0,870400,5062549,41321756,"[ 5  0  2  3  3  1  0  2  1  2  3  0  2  1  3  1  8  6  2  2  0  5  7  6
  5  8  7  4  3  8  3  6  2  5  5  6  3 11  7  3  8  8  5 13  0  0  9 17
  5  2 12  3 10 17  0 12 11  2 17  3  0 21  0  0  2 20  2 15 15  1 18  2
  0 21 19 16 21 11 17]"
6900,341,1.0,8,3,1329.770541191101,186.56176090240479,0,883200,5133285,41887338,"[ 0  2  2  2  0  1  0  2  1  2  3  0  2  1  3  0  7  6  2  2  0  5  7  6
  3  4  7  4  0  8  0  5 12  0  3  5  3 11  7  3  8  8  2  4 13  3  3 18
  4 15 14  3 10 17  1 16 10  5 11  3  3 14 23  5 15 22  0 15 18  0  0  0
  1 16 14 16 21 11 17]"
7000,341,1.0,8,3,1347.834642648697,180.6409740447998,0,896000,5203489,42447925,"[ 0  0  1  3  0  2  0  2  1  2  3  0  2  1  3  1  1  1  2  2  0  5  7  6
  2  2  7  0  8  0  4  6  9  1  8  2  3 11  7  2  8  8  0  4 10  0 10 11
  0  2 16  3 10 17  4  0 16  3  1 15  2 21 21  4  3 19  2  0  1  2 15 20
  4 21 14 16 21 11 17]"
7100,341,1.0,8,3,1365.8874628543854,180.52812099456787,0,908800,5275196,43020602,"[ 5  1  3  2  2  2  0  2  1  2  3  0  2  1  3  1  4  8  2  2  0  5  7  6
  3  3  7  3  0  2  1  7  4  0  9  7  3 11  7  3  8  8  3 13  7  2 15  3
  0 17 18  3 10 17  2 17 14  4  0 17  4 15 22  1 18 19  3 14 16  4  3 20
  2 16  1 16 21 11 17]"
7200,341,1.0,8,3,1384.1535449028015,182.6607847213745,0,921600,5346873,43592742,"[ 4  3  0  2  2  3  0  2  1  2  3  0  2  1  3  4  7  6  2  2  0  5  7  6
  4  0  6  4  7  8  2  7  7  4  9  6  3 11  7  3  8  8  5  6  2  4  3 12
  5 16 10  3 10 17  1 18  3  4 10 14  2 19  1  5  0  1  0  3 20  3  2 17
  4 21  2 16 21 11 17]"
7300,341,1.0,8,3,1402.978528022766,188.24979305267334,0,934400,5418326,44163030,"[ 4  1  1  0  1  1  0  2  1  2  3  0  2  1  3  3  1  3  2  2  0  5  7  6
  2  7  8  2  6  1  0  9  1  4  5  6  3 11  7  3  8  8  1  8  2  2 18 10
  5 12  3  3 10 17  0 10 15  0 13  2  0  1  1  4  1  1  4 19 21  4  2 14
  3 23 20 16 21 11 17]"
7400,341,1.0,8,3,1421.5534653663635,185.7493257522583,0,947200,5489899,44733934,"[ 5  0  2  0  1  2  0  2  1  2  3  0  2  1  3  3  2  6  2  2  0  5  7  5
  1  6  0  1  5  8  0  7  8  3 10  3  3 11  7  3  8  8  0 10  6  3  9  9
  1  9  3  3 10 17  1  3  2  2  1 16  3 23 17  2 20 19  0 21 20  4 20 18
  4 14 23 16 21 11 17]"
7500,341,1.0,8,3,1439.8558297157288,183.0236029624939,0,960000,5560481,45297555,"[ 1  1  1  0  1  2  2  1  3  2  3  0  2  1  3  4  0  2  2  2  0  5  7  5
  3  2  1  0  1  4  0  8 12  4  3 11  3 11  7  2  8  8  4  3  5  5 14 15
  0 10 15  3 10 17  3  3 17  2 14  0  4 15 18  3 17  1  1 16 15  2 18  3
  4  1 18 16 21 11 17]"
7600,341,1.0,8,3,1457.886721611023,180.30887842178345,0,972800,5630681,45858298,"[ 3  3  1  0  1  2  1  1  3  2  3  0  2  1  3  2  6  7  2  2  0  5  7  5
  5  6  3  4  5  6  3  9  6  1 11  3  3 11  7  3  8  8  3 11  2  1  3  3
  5  1  1  3 10 17  5  2  3  1 10 13  1  0 16  0 16 20  5 16  1  2 20  2
  0 23 16 16 21 11 17]"
7700,341,1.0,8,3,1475.794552564621,179.07825231552124,0,985600,5701196,46421311,"[ 1  3  1  0  1  2  2  3  1  2  3  0  2  1  3  3  0  4  2  2  0  5  7  5
  0  3  8  5  8  4  4 11  5  4  2  7  3 11  7  3  8  8  1  7  3  3  3  3
  3  2 10  3 10 17  3 12 17  1  0 11  2  1  3  3 14 19  2 15 18  5  1 16
  2  1 17 16 21 11 17]"
7800,341,1.0,8,3,1494.5572035312653,187.626473903656,0,998400,5771703,46984548,"[ 0  0  1  0  1  2  1  0  0  2  3  0  2  1  3  0  0  4  2  2  0  5  7  5
  3  4  2  5  4  7  5  3  8  5 11 10  3 11  7  3  8  8  0 10  3  2  0 14
  1 18 11  3 10 17  4 18  2  2 10 13  4  0 18  2  1  1  3 20 18  1 19 22
  3  3 15 16 21 11 17]"
7900,341,1.0,8,3,1512.5742855072021,180.1707625389099,0,1011200,5842808,47552850,"[ 3  0  3  0  1  2  3  0  3  2  3  0  2  1  3  2  0  6  2  2  0  5  7  5
  1  3  1  0  4  4  2  4  8  0  0  4  3 11  7  2  8  8  5  9 12  4  3 15
  2  0  2  3 10 17  1  3 16  4 11 15  4 20 14  1  0 15  3 14  2  4 19 20
  3 15 23 16 21 11 17]"
8000,341,1.0,8,3,1530.0814142227173,175.0712537765503,0,1024000,5911717,48104321,"[ 5  3  2  0  1  2  1  1  2  2  3  0  2  1  3  2  4  3  2  2  0  5  7  5
  0  4  8  2  4  3  1 11 12  4  2  7  3 11  7  2  8  8  4  4  0  2 12 14
  0 18  3  3 10 17  5 10 14  0 10 12  2  1 14  5 18  1  3 16 19  5  0 22
  3  3 20 16 21 11 17]"
8100,341,1.0,8,3,1547.9028074741364,178.21388006210327,0,1036800,5982075,48666508,"[ 2  2  3  0  1  2  5  0  0  2  3  0  2  1  3  0  5  0  2  2  0  5  7  5
  2  6  2  5  6  0  1  6 12  4 12  9  3 11  7  2  8  8  1  1 13  4 12 17
  5 10 10  3 10 17  2 10  0  4 10 13  4 19 21  0  3 17  0 15 15  3 15 14
  2  1 17 16 21 11 17]"
8200,341,1.0,8,3,1566.4002003669739,184.97389316558838,0,1049600,6052608,49229935,"[ 5  3  1  0  1  2  5  2  0  2  3  0  2  1  3  2  6  1  2  2  0  5  7  5
  4  1  8  0  3  2  1  5  8  5  7  0  3 11  7  3  8  8  2  9  6  4 17 13
  0 12 13  3 10 17  4 12 12  1 14  1  2 20  2  2 21 17  5 19 17  4 20 15
  2  2 19 16 21 11 17]"
8300,341,1.0,8,3,1584.921059370041,185.20855903625488,0,1062400,6122535,49788305,"[ 5  3  3  0  1  2  5  2  1  2  3  0  2  1  3  1  7  2  2  2  0  5  7  5
  0  6  5  3  0  0  4  9 11  0 13  1  3 11  7  3  8  8  3  7  9  4 13 11
  1 15  2  3 10 17  2  0 17  3  2 12  4  0 18  2 21 22  2  2 23  3 16 19
  3  1 16 16 21 11 17]"
8400,341,1.0,8,3,1603.4140934944153,184.93030786514282,0,1075200,6193221,50352273,"[ 0  1  3  0  1  2  0  3  1  2  3  0  2  1  3  4  4  7  2  2  0  5  7  5
  0  8  8  2  7  3  5  5  4  5  1  6  3 11  7  3  8  8  5  5  6  5 13  2
  1 11 10  3 10 17  2 13 16  2 11 12  4 16 20  0 21 16  2 18 22  5 16 20
  4 17  1 16 21 11 17]"
8500,341,1.0,8,3,1621.6696591377258,182.5556206703186,0,1088000,6263762,50915459,"[ 5  2  2  0  1  2  5  1  3  2  3  0  2  1  3  0  3  5  2  2  0  5  7  5
  2  8  7  0  5  6  0  1  5  0  7  7  3 11  7  2  8  8  0  9 13  1  9 17
  0  2 10  3 10 17  1  3 10  3  1 10  5  3 22  5 23  2  4 23 20  5  3 17
  0 23 16 16 21 11 17]"
8600,341,1.0,8,3,1639.6519379615784,179.822735786438,0,1100800,6334658,51481635,"[ 3  2  0  0  1  2  1  2  3  2  3  0  2  1  3  5  1  5  2  2  0  5  7  5
  2  3  6  3  2  4  5  4  6  3  5  3  3 11  7  3  8  8  0 11 12  2 10 18
  5 12 16  3 10 17  2 11  0  1  0 12  4 14  2  3 14  0  2 20  1  4 18  1
  5 17 16 16 21 11 17]"
8700,341,1.0,8,3,1657.6981112957,180.46167850494385,0,1113600,6404213,52037242,"[ 2  1  0  0  1  2  5  2  1  2  3  0  2  1  3  2  7  6  2  2  0  5  7  5
  0  7  2  4  1  4  5  5 12  0  3  3  3 11  7  2  8  8  0 10 10  0 15  2
  3 18  3  3 10 17  5 11  3  4 13 11  2 21 15  3  3 17  4  2 17  3 14 21
  1 17 18 16 21 11 17]"
8800,341,1.0,8,3,1676.3400313854218,186.41916513442993,0,1126400,6474153,52595807,"[ 5  3  3  0  1  2  4  3  1  2  3  0  2  1  3  0  2  8  2  2  0  5  7  5
  0  5  2  4  4  2  5  6  3  5  0  2  3 11  7  2  8  8  3  2  3  1 18 18
  3 11 18  3 10 17  0 14 11  3 17 11  2 20 22  3  3 15  5 15 20  0 21  3
  1 14  1 16 21 11 17]"
8900,341,1.0,8,3,1694.5094377994537,181.69403076171875,0,1139200,6545138,53162799,"[ 2  3  2  0  1  2  3  1  2  2  3  0  2  1  3  0  7  5  2  6  2  5  7  5
  2  0  2  3  2  6  2  6  8  5  0 13  3 11  7  3  8  8  2  3 11  0 18  9
  3  9 18  3 12 17  0  3 10  5  1 14  5 20 21  1  3 21  3 15  0  1 23 15
  1 23  3 16 21 11 17]"
9000,341,1.0,8,3,1713.566260099411,190.5681848526001,0,1152000,6615255,53722735,"[ 2  2  3  0  1  2  1  0  0  2  3  0  2  1  3  4  7  2  1  3  8  5  7  5
  2  0  2  2  5  5  1 10  3  2  6  9  3 11  7  2  8  8  4  4  8  4 10 16
  3 15 11  3 12 17  3 12 18  1 11  9  2 23 14  4 16  1  5 23 21  3 21 14
  2 19 21 16 21 11 17]"
9100,341,1.0,8,3,1732.155464887619,185.89200973510742,0,1164800,6686031,54288217,"[ 4  0  0  0  1  2  2  3  3  2  3  0  2  1  3  5  2  0  3  0  6  5  7  5
  2  0  2  2  4  5  5  2  8  0  2 10  3 11  7  3  8  8  4  1  2  0 10  3
  3 10  2  3 12 17  3  9 16  5 10 17  3  3 19  0 14  1  5 19 20  3 23 18
  3 16 14 16 21 11 17]"
9200,341,1.0,8,3,1750.442126750946,182.8665852546692,0,1177600,6756005,54847718,"[ 2  0  3  0  1  2  5  1  3  2  3  0  2  1  3  3  6  4  4  0  3  5  7  5
  2  0  2  0  7  4  2 11 12  4  7  8  3 11  7  2  8  8  2  8 10  4  1  3
  4  2  3  3 12 17  2 10  2  5  2 10  5 14 19  3 20 20  4 19 19  0 22 15
  5  0 19 16 21 11 17]"
9300,341,1.0,8,3,1768.430935382843,179.88805294036865,0,1190400,6824318,55394263,"[ 2  0  1  0  1  2  2  1  0  2  3  0  2  1  3  0  3  6  4  5  0  5  7  5
  2  0  2  4  5  3  2  2  5  3  1  2  3 11  7  2  8  8  1  8  9  0 17 13
  0 16 12  3 12 17  4  2 12  4 11 13  4  2 20  0 21  2  4 19  1  0  2  3
  2  3 23 16 21 11 17]"
9400,341,1.0,8,3,1785.558772802353,171.27832651138306,0,1203200,6893724,55948442,"[ 5  0  1  0  1  2  3  3  2  2  3  0  2  1  3  0  7  1  1  2  7  5  7  5
  2  0  2  2  0  3  0 12  3  2 10 10  3 11  7  3  8  8  5  7  2  5 16 14
  5 11 15  3 12 17  5 15  1  2 14 13  4 19 15  1 22 19  5 22 16  2  2 20
  0 21  0 16 21 11 17]"
9500,341,1.0,8,3,1803.770439863205,182.1166181564331,0,1216000,6963621,56506948,"[ 2  0  3  0  1  2  1  0  3  2  3  0  2  1  3  5  3  0  5  0  1  5  7  5
  2  0  2  1  2  2  3  1  8  4  4  9  3 11  7  3  8  8  2  2  6  3 16 10
  5 18  2  3 12 17  2  0 12  0 16  0  1 19 15  1 23 19  3  1 22  3  3  2
  0 14 17 16 21 11 17]"
9600,341,1.0,8,3,1822.4332520961761,186.62808895111084,0,1228800,7034193,57070490,"[ 1  1  1  0  1  2  1  1  2  2  3  0  2  1  3  3  8  3  1  3  1  5  7  5
  2  0  2  5  3  3  0  6  1  0  0 10  3 11  7  3  8  8  1 10  6  0  2  1
  5 11 18  3 12 17  4  0 14  0  0 14  5 17 16  0 15 21  3 20 17  0  0 21
  2  0 18 16 21 11 17]"
9700,341,1.0,8,3,1840.6053564548492,181.7210078239441,0,1241600,7104798,57634754,"[ 0  1  1  0  1  2  2  2  0  2  3  0  2  1  3  1  4  2  4  6  4  5  7  5
  2  0  2  0  1  3  3  7  5  3  5  2  3 11  7  3  8  8  4  3  9  1 11 18
  0  1 14  3 12 17  0 18 16  2 16 12  5 20 16  5 19 19  3 18  0  3 17 20
  3  0 20 16 21 11 17]"
9800,341,1.0,8,3,1859.53879737854,189.3343734741211,0,1254400,7174272,58189135,"[ 5  1  2  0  1  2  4  2  0  2  3  0  2  1  3  2  7  2  5  1  5  5  7  5
  2  0  2  2  2  1  3  9  8  4  8  0  3 11  7  3  8  8  4  7 13  3  3 18
  2 10 13  3 12 17  4 12 16  3 18  1  0  3 16  3 14  3  4  1 16  2 17 23
  0 18 18 16 21 11 17]"
9900,341,1.0,8,3,1879.382726430893,198.4392523765564,0,1267200,7245001,58753692,"[ 3  2  2  0  1  2  1  0  3  2  3  0  2  1  3  0  4  5  3  7  1  5  7  5
  2  0  2  2  4  8  1  5  9  0  8  5  3 11  7  3  8  8  2  8  0  3 16 12
  4  0 15  3 12 17  2 15 15  3 17  1  3 21 15  4 15  3  3 18 16  1 17 20
  4 15 15 16 21 11 17]"
10000,341,1.0,8,3,1899.4746360778809,200.91904878616333,0,1280000,7315941,59319738,"[ 5  2  2  0  1  2  2  0  1  2  3  0  2  1  3  2  7  1  2  2  1  5  7  5
  2  0  2  3  2  3  2 12 11  1  4  1  3 11  7  3  8  8  0  4  9  4 10 14
  3 18 13  1  2 17  3  2 15  3 12 17  1 17  3  0  2 22  1 23 18  2 17 22
  3 21 19 16 23 11 17]"
10100,341,1.0,8,3,1919.0964622497559,196.2182092666626,0,1292800,7385768,59877428,"[ 0  3  1  0  1  2  2  2  3  2  3  0  2  1  3  1  6  8  2  2  5  5  7  5
  2  0  2  3  2  4  3  3  3  4 12  2  3 11  7  3  8  8  3  7  5  2 13  9
  1 12 13  3  0  0  0 16  9  3 12 17  4 17 21  5  0 23  5  0 18  4 18 18
  3  3 22 16 23 11 17]"
10200,341,1.0,8,3,1939.1485888957977,200.52123069763184,0,1305600,7455628,60435342,"[ 4  1  3  0  1  2  5  2  2  2  3  0  2  1  3  3  4  2  5  8  4  5  7  5
  2  0  2  3  7  5  2  6 13  5 13 12  3 11  7  3  8  8  5  9 13  4  2 16
  3 15 17  1 14  1  2  0 13  3 12 17  4 14 22  0 23 16  5 19 14  0 21 19
  4 15 15 16 23 11 17]"
10300,341,1.0,8,3,1958.3482341766357,191.99641704559326,0,1318400,7526004,60997857,"[ 5  2  0  0  1  2  4  2  0  2  3  0  2  1  3  4  2  3  1  4  2  5  7  5
  2  0  2  1  5  6  1  6  3  5  5  2  3 11  7  3  8  8  0  9 13  4 15 11
  1 14  1  2  9 18  1 11  0  3 12 17  0 14 22  5 16 16  3  1 15  2 22 15
  4 17  1 16 23 11 17]"
10400,341,1.0,8,3,1978.0822710990906,197.34031677246094,0,1331200,7596413,61560821,"[ 0  2  1  0  3  3  5  3  1  2  3  0  2  1  3  2  7  4  4  8  3  5  7  4
  2  0  2  1  0  7  1  4 12  1  7  6  3 11  7  2  8  8  1  9  7  2  3 11
  0 14 15  4 16 14  4 18 10  3 12 17  0 20 16  2 19 23  3  1 19  5 18 20
  3 17 14 16 23 11 17]"
10500,341,1.0,8,3,1997.9367616176605,198.5448718070984,0,1344000,7667177,62125609,"[ 0  2  1  3  3  2  2  3  1  2  3  0  2  1  3  3  0  5  3  5  7  5  7  4
  2  0  2  4  2  4  4  8  4  5 12  0  3 11  7  2  8  8  5 11  6  1 17  1
  1 11  3  3  2  3  0  3  2  3 12 17  0 17  0  2  1 17  1 21 17  2 20  3
  0  0  0 16 23 11 17]"
10600,341,1.0,8,3,2017.9282698631287,199.91504907608032,0,1356800,7736699,62680688,"[ 0  2  1  3  1  2  4  3  1  2  3  0  2  1  3  2  1  5  3  5  2  5  7  4
  2  0  2  2  8  6  2  8  6  5 13 10  3 11  7  2  8  8  5 12 12  1 13 10
  4 14 10  0 17 17  3 13  1  3 12 17  5 16 19  2 18 15  1 19  1  3 16 17
  5 16 16 16 23 11 17]"
10700,341,1.0,8,3,2037.5033814907074,195.75106620788574,0,1369600,7807360,63245872,"[ 0  2  1  4  1  1  4  0  3  2  3  0  2  1  3  2  3  4  1  6  8  5  7  4
  2  0  2  0  7  3  2 11  8  0  8 13  3 11  7  3  8  8  3 11  0  0 10 18
  1 12  3  4 13 18  1 18 15  3 12 17  5 19 19  4 16 15  4  1 18  5  1  1
  4 19 21 16 23 11 17]"
10800,341,1.0,8,3,2055.4414858818054,179.38100814819336,0,1382400,7876526,63798998,"[ 0  2  1  0  3  3  5  1  0  2  3  0  2  1  3  5  6  3  0  0  6  5  7  4
  2  0  2  5  7  6  1 10 10  4 11  7  3 11  7  2  8  8  5 11  6  0 16 10
  5 15  9  3  9 11  3  0 18  3 12 17  4  1  1  5 19 15  4 22 18  4  3 22
  4  1 20 16 23 11 17]"
10900,341,1.0,8,3,2074.0157845020294,185.74295043945312,0,1395200,7945808,64352935,"[ 0  2  1  1  3  0  5  3  1  2  3  0  2  1  3  4  8  7  0  8  4  5  7  4
  2  0  2  0  4  7  4 13  4  5  6  7  3 11  7  2  8  8  4  5  4  2 16  3
  0 13 11  0 16 11  5 12 11  3 12 17  4 17 18  5 14 16  4 23 16  4 23 20
  2 14 14 16 23 11 17]"
11000,341,1.0,8,3,2092.027484893799,180.1169490814209,0,1408000,8016720,64918703,"[ 0  2  1  5  3  3  5  1  2  2  3  0  2  1  3  1  6  2  4  8  2  5  7  4
  2  0  2  3  8  1  3  7  2  0  3  8  3 11  7  2  8  8  4  6  8  4 11  2
  0 18 18  2  3  2  1  0 10  3 12 17  5  1 21  3  0  2  4  0 14  5 15  0
  3 14 22 16 23 11 17]"
11100,341,1.0,8,3,2110.0228056907654,179.95317459106445,0,1420800,8086655,65476717,"[ 0  2  1  5  2  3  0  2  0  2  3  0  2  1  3  3  4  6  3  8  3  5  7  4
  2  0  2  0  0  4  5  1  8  1  1 11  3 11  7  2  8  8  4  8  0  2  9 14
  0  9 12  5  2 10  3 17  3  3 12 17  2 16 17  0 19 16  3  0 22  4  3 17
  3 19 19 16 23 11 17]"
11200,341,1.0,8,3,2128.051293849945,180.2848482131958,0,1433600,8156332,66032949,"[ 0  2  1  0  0  3  1  2  1  2  3  0  2  1  3  4  0  3  3  7  6  5  7  4
  2  0  2  5  8  0  5 10  2  0  8 10  3 11  7  2  8  8  4 10  7  4  9 13
  4  2 13  0  9 12  0 14 14  3 12 17  5 14 16  2 14 17  5 21  0  4 16  1
  2 14 19 16 23 11 17]"
11300,341,1.0,8,3,2145.8351986408234,177.83901453018188,0,1446400,8225861,66588139,"[ 0  2  1  4  1  0  2  1  0  2  3  0  2  1  3  1  2  1  4  2  1  5  7  4
  2  0  2  5  5  8  3 13  2  0  0  2  3 11  7  2  8  8  3 12 13  4 17  0
  4  3 16  2 10  9  0  9 15  3 12 17  4 19  3  5 19 17  1  1 22  5  2 17
  4  0 14 16 23 11 17]"
11400,341,1.0,8,3,2163.7844099998474,179.49207544326782,0,1459200,8295761,67146321,"[ 0  2  1  4  1  2  1  2  2  2  3  0  2  1  3  5  5  7  3  6  3  5  7  4
  2  0  2  1  6  7  1 11  5  5  8  0  3 11  7  2  8  8  2  4  9  1 18 18
  1  2 10  4 11 15  4 14  9  3 12 17  1  2  2  4 17  0  3 23 19  0 14 18
  3 14  2 16 23 11 17]"
11500,341,1.0,8,3,2181.612808704376,178.283953666687,0,1472000,8364257,67693581,"[ 0  2  1  5  1  0  0  2  2  2  3  0  2  1  3  0  0  5  3  7  3  5  7  4
  2  0  2  5  6  3  0  3 12  4  0 10  3 11  7  2  8  8  1  3  7  4 18 17
  3  9  2  1  0 18  4 14  9  3 12 17  1  2 20  0  0  0  1 16 14  4 14 17
  2 15  0 16 23 11 17]"
11600,341,1.0,8,3,2199.675699234009,180.6288719177246,0,1484800,8433505,68246736,"[ 1  1  0  2  0  1  0  1  2  2  3  0  2  1  3  0  0  6  3  7  8  5  7  6
  2  0  2  2  1  1  5 11 12  5  3  5  3 11  7  2  8  8  5 11  8  4 12 14
  5  2 12  2  0 14  2 10 12  3 12 17  0  3 22  3  1 22  0 23  3  4 15  3
  3 14 23 16 23 11 17]"
11700,341,1.0,8,3,2217.997703552246,183.2200050354004,0,1497600,8503922,68808582,"[ 5  1  2  4  2  3  0  1  2  2  3  0  2  1  3  2  2  0  4  5  3  5  7  6
  2  0  2  0  3  7  1  1 13  5  3  4  3 11  7  2  8  8  1  6  3  2 11  1
  3  9  1  0  0  0  3 14 18  3 12 17  0  2  1  3 19 17  2 22  2  3 15 14
  4 15 20 16 23 11 17]"
11800,341,1.0,8,3,2236.530860900879,185.33154010772705,0,1510400,8574362,69372087,"[ 0  2  2  4  2  1  0  1  2  2  3  0  2  1  3  0  4  4  3  7  7  5  7  6
  2  0  2  3  0  5  4  4 12  4  9  1  3 11  7  2  8  8  5  5  5  4 13 11
  5 16 10  4 10  2  0  9 17  3 12 17  3 14 23  3 16 14  4 23  3  0 17 14
  5 18  1 16 23 11 17]"
11900,341,1.0,8,3,2254.3452141284943,178.1434965133667,0,1523200,8643934,69927606,"[ 2  3  0  5  3  0  0  1  2  2  3  0  2  1  3  0  4  4  4  2  4  5  7  6
  2  0  2  4  3  3  5  0  0  1 13 10  3 11  7  2  8  8  0 11 10  5  1 11
  5  2 15  5  2 10  0  0 12  3 12 17  3  0  0  0 14 21  0  2 16  0  0  2
  5  3  1 16 23 11 17]"
12000,341,1.0,8,3,2272.046411514282,177.01192140579224,0,1536000,8714391,70490856,"[ 5  1  2  2  1  3  0  1  2  2  3  0  2  1  3  1  4  4  3  2  0  5  7  6
  2  0  2  5  4  6  3  8  4  2 10 10  3 11  7  3  8  8  4  4  0  1 17 11
  2 16 12  3 12 18  1  2  3  3 12 17  2 19  2  1  0 18  4  3 22  2 14 20
  0  0 23 16 23 11 17]"
12100,341,1.0,8,3,2290.267820119858,182.21405029296875,0,1548800,8784424,71050346,"[ 3  3  2  2  3  1  0  1  2  2  3  0  2  1  3  1  6  5  4  2  8  5  7  6
  2  0  2  0  4  2  1  9 10  5 12  9  3 11  7  3  8  8  0 13  3  2 13  0
  5 17 10  0 18 14  0  0 13  3 12 17  0 21 18  0 18 18  3  2 21  2  3 20
  0 14  1 16 23 11 17]"
12200,341,1.0,8,3,2309.1366472244263,188.68823766708374,0,1561600,8853676,71603802,"[ 0  0  1  4  2  1  0  1  2  2  3  0  2  1  3  2  3  2  5  7  1  5  7  6
  2  0  2  3  4  0  0  9  4  5 12  7  3 11  7  2  8  8  1  7  2  0  1  1
  4 12 11  1 17  0  5 13 18  3 12 17  3  0 17  5 19 16  4  1 17  5 22 18
  1  1 22 16 23 11 17]"
12300,341,1.0,8,3,2326.322027683258,171.85375213623047,0,1574400,8921286,72144155,"[ 5  2  3  2  0  1  0  1  2  2  3  0  2  1  3  5  5  8  4  2  1  5  7  6
  2  0  2  3  4  2  0  6  9  5 10  6  3 11  7  3  8  8  1  6  7  1 13 16
  0  9  3  4 14 11  4  0  9  3 12 17  3 23 21  2 19 15  0  2 15  1 22 14
  5 21  1 16 23 11 17]"
12400,341,1.0,8,3,2344.942363500595,186.2033247947693,0,1587200,8991449,72704849,"[ 4  2  3  0  0  3  0  1  2  2  3  0  2  1  3  4  8  4  4  0  3  5  7  6
  2  0  2  0  8  8  5 10  1  0 12 10  3 11  7  3  8  8  1 11  7  4  1 15
  1  3 10  5 17  3  3 17 11  3 12 17  1 21 21  1 17  2  5  2 16  1 19  1
  3 20 20 16 23 11 17]"
12500,341,1.0,8,3,2363.542494535446,186.00125551223755,0,1600000,9061530,73264947,"[ 1  2  2  5  1  2  0  1  2  2  3  0  2  1  3  0  3  8  5  8  6  5  7  6
  2  0  2  3  1  2  3 13  9  4 11 13  3 11  7  3  8  8  1  5 10  5 15  1
  2  9  2  5 15  9  5  1 12  3 12 17  5  3 15  5 21  1  2 15 15  1 21  1
  3 22 17 16 23 11 17]"
12600,341,1.0,8,3,2381.5624589920044,180.1996111869812,0,1612800,9132647,73833415,"[ 3  2  0  3  2  0  0  1  2  2  3  0  2  1  3  5  8  8  4  6  5  5  7  6
  2  0  2  1  7  0  1  2 13  4  3 13  3 11  7  3  8  8  5  6  8  4 10 14
  4  1 16  4 15 18  5 13 17  3 12 17  4 22  0  2 22 23  4 21 19  3 15 20
  3 23 20 16 23 11 17]"
12700,341,1.0,8,3,2400.4025688171387,188.40105772018433,0,1625600,9202593,74392852,"[ 4  3  2  0  0  0  0  1  2  2  3  0  2  1  3  5  4  7  5  0  4  5  7  6
  2  0  2  1  3  7  2  6  7  0 13  3  3 11  7  3  8  8  2  1  1  3 17 10
  4 12 12  1  1 14  1 15 17  3 12 17  2 19  0  2 15  3  4 21 14  0  1 22
  3 14 20 16 23 11 17]"
12800,341,1.0,8,3,2418.3681316375732,179.65558052062988,0,1638400,9272428,74950487,"[ 0  1  3  2  2  2  0  1  2  2  3  0  2  1  3  0  6  2  3  4  1  5  7  6
  2  0  2  2  6  3  4  5  5  1 13 12  3 11  7  2  8  8  0  7 11  2  9 15
  5 12 13  3 17 14  4 11 17  3 12 17  2  2  2  4 14 23  2 23 15  3 18 19
  0 22 20 16 23 11 17]"
12900,341,1.0,8,3,2436.761887073517,183.93751859664917,0,1651200,9342240,75508522,"[ 3  3  3  3  2  0  0  1  2  2  3  0  2  1  3  3  7  6  1  4  6  5  7  6
  2  0  2  5  6  3  3 13  4  3  9 13  3 11  7  2  8  8  1  9  2  2 10  2
  1  0 17  3 17 10  5  2 17  3 12 17  3 18 23  0 17  2  3  0 17  0 15 22
  5 19  3 16 23 11 17]"
13000,341,1.0,8,3,2454.922415494919,181.6052484512329,0,1664000,9411974,76065081,"[ 1  2  3  3  2  3  0  1  2  2  3  0  2  1  3  1  8  2  4  4  0  5  7  6
  2  0  2  1  3  2  5 10  5  1  0  7  3 11  7  3  8  8  5  8  7  2 11 10
  4  9 17  5 16 12  5  9 17  3 12 17  4 23 15  4 18 17  3 23  1  2  0 22
  5 16 16 16 23 11 17]"
13100,341,1.0,8,3,2472.9441137313843,180.21693468093872,0,1676800,9483020,76633099,"[ 3  2  1  3  1  3  0  1  2  2  3  0  2  1  3  0  3  2  5  3  0  5  7  6
  2  0  2  1  2  8  4  7  1  0  6  8  3 11  7  3  8  8  4  3  9  5  3  9
  2 12  9  0  3 18  3 16  1  3 12 17  3 20 15  5 22 15  2 20  0  1 14 22
  0 14 14 16 23 11 17]"
13200,341,1.0,8,3,2491.3615939617157,184.17476892471313,0,1689600,9553168,77193674,"[ 5  3  0  2  0  2  0  1  2  2  3  0  2  1  3  4  1  5  0  1  3  5  7  6
  2  0  2  2  2  5  1  0  3  4  3  7  3 11  7  2  8  8  1  3 13  3 10 13
  5 14 15  4 18 17  5 12 11  3 12 17  0 22 20  3 18 15  2 20 18  1 20 14
  3 19  0 16 23 11 17]"
13300,341,1.0,8,3,2509.51708984375,181.5549087524414,0,1702400,9623011,77752467,"[ 5  0  0  5  0  2  0  1  2  2  3  0  2  1  3  1  5  3  0  7  4  5  7  6
  2  0  2  1  1  4  3  7  8  1  2  9  3 11  7  3  8  8  2 10  9  4 14 14
  5 17  9  0 12  1  0 14 12  3 12 17  4 16  2  1 15 16  2 21 23  5 22 23
  1 17 19 16 23 11 17]"
13400,341,1.0,8,3,2527.4773535728455,179.60259199142456,0,1715200,9692346,78307179,"[ 5  3  3  5  1  0  0  1  2  2  3  0  2  1  3  1  0  4  4  2  0  5  7  6
  2  0  2  2  5  3  3  2  4  1 10  7  3 11  7  2  8  8  2  0 10  2 15 14
  3  3 12  2  9 14  1  9 15  3 12 17  3 19 20  4 23 18  1 17  2  5 23  1
  1 17  1 16 23 11 17]"
13500,341,1.0,8,3,2545.0483186244965,175.70961236953735,0,1728000,9762261,78865602,"[ 3  3  1  1  1  0  0  1  2  2  3  0  2  1  3  5  3  6  2  3  0  5  7  6
  2  0  2  3  7  1  3  2  3  5  0  9  3 11  7  2  8  8  1 13 11  1  3  0
  3 15  9  0 11 14  4 16  1  3 12 17  0 19 17  2  2  3  2  3 21  2 20 20
  0 18  3 16 23 11 17]"
13600,341,1.0,8,3,2562.9380996227264,178.8977551460266,0,1740800,9832772,79428964,"[ 2  0  1  4  2  3  0  1  2  2  3  0  2  1  3  3  1  5  0  5  2  5  7  6
  2  0  2  4  6  2  3 11  7  1  1 11  1  9  4  2  8  8  0 10  0  1  0 16
  0 15  9  5 14 14  0 14 14  3 12 17  0 21  3  0 20 14  0 20 18  1 20 15
  5 22 19 14 23 11 17]"
13700,341,1.0,8,3,2581.143876552582,182.0577335357666,0,1753600,9904527,80002067,"[ 0  0  2  3  2  3  0  1  2  2  3  0  2  1  3  3  7  5  2  8  7  5  7  6
  2  0  2  4  2  0  3 11  7  5  9 10  3  7  0  2  8  8  4 12  6  4  3  0
  4  0 11  3 17  9  5 14 13  3 12 17  3  3  2  3 19 14  5  1 22  2 17 21
  2 18 22 14 23 11 17]"
13800,341,1.0,8,3,2599.587255001068,184.4337272644043,0,1766400,9974449,80560268,"[ 5  2  2  2  2  3  0  1  2  2  3  0  2  1  3  1  1  3  5  6  3  5  7  6
  2  0  2  3  1  4  3 11  7  2  4 13  1  6  4  2  8  8  5 12  3  1 15 11
  2 12  3  5 17 17  2 15 13  3 12 17  2 20 19  1 23 15  3 23 22  0  3  2
  0 21 19 14 23 11 17]"
13900,341,1.0,8,3,2618.085935354233,184.98676776885986,0,1779200,10046063,81131909,"[ 5  2  0  1  3  0  0  1  2  2  3  0  2  1  3  4  8  3  5  0  8  5  7  6
  2  0  2  4  3  0  3 11  7  1  5  1  5  8  9  3  8  8  5  1 10  4 13 14
  5  1 15  4  2 14  2  0 11  3 12 17  5 14  3  0 15 15  5  0  0  3 20 14
  5  0 20 14 23 11 17]"
14000,341,1.0,8,3,2637.0281217098236,189.42182779312134,0,1792000,10117244,81699944,"[ 3  3  2  0  3  3  0  1  2  2  3  0  2  1  3  4  0  0  3  3  0  5  7  6
  2  0  2  3  1  5  3 11  7  5  4  4  2  3 13  2  8  8  5  8  8  5  0  9
  5 12  9  2 16 13  1 14 17  3 12 17  5 15  3  5 18 23  4 14 19  4 15  1
  2  2 16 14 23 11 17]"
14100,341,1.0,8,3,2655.044103384018,180.15975952148438,0,1804800,10187288,82259477,"[ 2  0  1  2  2  2  0  1  2  2  3  0  2  1  3  5  4  2  2  2  0  5  7  6
  2  0  1  3  6  4  3 11  7  0  9 11  4 13 12  3  8  8  3  4 10  1 14 13
  5 15 13  3 17  9  1 14 15  3 10 17  4  3 20  2 15 17  3 14 16  1 15  2
  0 21 22 14 23 11 17]"
14200,341,1.0,8,3,2672.931651353836,178.8754439353943,0,1817600,10257202,82818511,"[ 0  0  3  4  1  3  0  1  2  2  3  0  2  1  3  0  5  8  2  2  0  5  7  6
  1  7  0  1  0  2  3 11  7  2  7 10  5 12  7  3  8  8  5 11  9  3  9 16
  4 15 12  5 16 17  0  3  0  3 10 17  2 19 18  0 22 16  2 17 21  1  3 19
  0 14  0 14 23 11 17]"
14300,341,1.0,8,3,2691.8085403442383,188.76882553100586,0,1830400,10326465,83372089,"[ 0  0  0  5  2  0  0  1  2  2  3  0  2  1  3  1  1  2  2  2  0  5  7  6
  3  4  3  4  0  5  3 11  7  1  6 11  5  4  1  2  8  8  5  7  9  1 12 15
  4  9 14  3 17 15  1  3 13  3 10 17  3 16 14  4 21 18  0 23 19  5  3  0
  1 20  1 14 23 11 17]"
14400,341,1.0,8,3,2709.6543066501617,178.45762729644775,0,1843200,10396955,83935460,"[ 5  1  2  3  0  2  0  1  2  2  3  0  2  1  3  3  3  5  2  2  0  5  7  6
  0  7  0  4  2  8  3 11  7  0  5  3  0  3  5  2  8  8  4 13  3  2  1 13
  2  9  9  3 10 10  0 18  0  3 10 17  1  1 16  4 17 22  1 14 17  5 20 14
  2  2  3 14 23 11 17]"
14500,341,1.0,8,3,2728.0847265720367,184.30416584014893,0,1856000,10467929,84502020,"[ 1  1  3  4  1  2  0  1  2  2  3  0  2  1  3  0  4  8  2  2  0  5  7  6
  0  0  3  1  8  0  3 11  7  2 10  6  3  2  2  2  8  8  0  3  9  4 10 17
  1 18  0  3 16  3  2  2 12  3 10 17  4  3 14  3 20 22  1 16 16  4 15 14
  1  2 19 14 23 11 17]"
14600,341,1.0,8,3,2746.497245788574,184.1251564025879,0,1868800,10537777,85059833,"[ 3  3  1  1  1  3  0  1  2  2  3  0  2  1  3  1  7  7  2  2  0  5  7  6
  5  2  6  3  2  7  3 11  7  3  3  8  5  0  1  2  8  8  2  3  9  0  1  9
  1  3 17  3  9  9  1  1 11  3 10 17  2  3 21  0  1  0  5  1 17  4 17 19
  3 17 21 14 23 11 17]"
14700,341,1.0,8,3,2764.570096731186,180.72847604751587,0,1881600,10608130,85621840,"[ 2  1  2  4  1  2  0  1  2  2  3  0  2  1  3  4  0  4  2  2  0  5  7  6
  4  0  8  5  2  3  3 11  7  3 12  7  1  2 12  3  8  8  2 11  3  2 16 14
  2  2 18  3  3 16  4  2 16  3 10 17  0 18 21  2 18 19  4 17 23  2 17 19
  1 23  1 14 23 11 17]"
14800,341,1.0,8,3,2783.348146677017,187.78044939041138,0,1894400,10678259,86182544,"[ 5  0  1  0  2  1  0  1  2  2  3  0  2  1  3  1  0  0  2  2  0  5  7  5
  3  0  6  2  1  5  3 11  7  4  4  1  5  0  0  2  8  8  2  6 12  2 16 16
  4 12 18  2 13 10  0  0  0  3 10 17  0 18  3  1 15 16  5 19 14  3 15 22
  1 19 14 14 23 11 17]"
14900,341,1.0,8,3,2801.8611137866974,185.12962818145752,0,1907200,10749506,86752194,"[ 0  1  3  0  2  1  0  1  3  2  3  0  2  1  3  1  7  4  2  2  0  5  7  5
  0  1  0  4  4  2  3 11  7  0  6  4  0  6 12  2  8  8  0  7  2  4 10  0
  2 13 13  4 16 18  0  3  0  3 10 17  3 23  0  3 17 19  1 21 16  3 18 19
  1  2 20 14 23 11 17]"
15000,341,1.0,8,3,2820.6123518943787,187.51232385635376,0,1920000,10819729,87313024,"[ 1  3  3  0  2  1  3  2  1  2  3  0  2  1  3  4  5  3  2  2  0  5  7  5
  5  7  2  4  1  4  3 11  7  5 13  7  3 11  6  2  8  8  2  9 10  3 10 10
  5  3 11  1  1 12  0 10  3  3 10 17  4 18  1  1 21 16  0  2 17  5 16 20
  5  1 22 14 23 11 17]"
15100,341,1.0,8,3,2840.244643688202,196.32286071777344,0,1932800,10890547,87878591,"[ 3  1  3  0  2  1  3  0  3  2  3  0  2  1  3  1  8  4  2  2  0  5  7  5
  3  8  2  2  5  3  3 11  7  1 13 12  0  3 12  2  8  8  2  4 10  0 18 18
  0 10  9  5 16 12  3  2  3  3 10 17  3  1  3  3 23  0  4 23 22  4 21  2
  1 19 18 14 23 11 17]"
15200,341,1.0,8,3,2858.3709197044373,181.26272201538086,0,1945600,10960852,88440561,"[ 4  0  0  0  2  1  3  2  2  2  3  0  2  1  3  0  0  0  2  2  0  5  7  5
  5  4  4  5  6  2  3 11  7  5 13  3  1  3 10  2  8  8  3 11 10  3 14 14
  1 12 14  3  1 18  3 15 15  3 10 17  4  0  2  4 21  0  2  2 22  5 23 14
  5  2 16 14 23 11 17]"
15300,341,1.0,8,3,2876.5146975517273,181.43774271011353,0,1958400,11030903,89000229,"[ 4  2  2  0  2  1  5  3  1  2  3  0  2  1  3  0  0  2  2  2  0  5  7  5
  3  0  7  0  5  2  3 11  7  0  7  9  1  1 10  2  8  8  4  8  9  1  2 14
  3 10 14  3 18 11  0  1  1  3 10 17  5 14  2  0 18 20  0 14  1  5 16  1
  3 14  1 14 23 11 17]"
15400,341,1.0,8,3,2894.3675994873047,178.52898597717285,0,1971200,11101981,89568011,"[ 5  0  3  0  2  1  3  2  3  2  3  0  2  1  3  5  2  5  2  2  0  5  7  5
  2  5  4  1  1  4  3 11  7  0  8  7  0  2  6  3  8  8  4  1  6  5  9  0
  0 10 13  1  2 18  1 14  2  3 10 17  0 14 23  5 22  1  3  0 15  5 23  0
  0  3 16 14 23 11 17]"
15500,341,1.0,8,3,2912.649957895279,182.82355070114136,0,1984000,11170170,90113350,"[ 1  1  3  0  2  1  0  3  2  2  3  0  2  1  3  5  6  4  2  2  0  5  7  5
  0  1  4  1  5  1  3 11  7  3  3  1  0 12  6  2  8  8  5 10  7  1  9  0
  2 13 15  2  2  9  2  0  1  3 10 17  2 16 17  5  2  1  5 22 22  0 17 16
  3 23 14 14 23 11 17]"
15600,341,1.0,8,3,2930.3905816078186,177.40618705749512,0,1996800,11240635,90676047,"[ 1  0  2  0  2  1  0  0  2  2  3  0  2  1  3  0  2  0  2  2  0  5  7  5
  2  1  1  4  4  5  3 11  7  1 11  9  0  0  9  2  8  8  3  6  8  1 11 17
  1 12 11  0 13 15  1 16  1  3 10 17  1 23 22  3 18  2  0  2 20  1 16 20
  5 18  0 14 23 11 17]"
15700,341,1.0,8,3,2948.613333940506,182.22748279571533,0,2009600,11310941,91237635,"[ 1  1  2  0  2  1  0  3  1  2  3  0  2  1  3  1  2  8  2  2  0  5  7  5
  2  6  4  3  5  4  3 11  7  4 12  9  0  7  2  2  8  8  1  9 11  5 16  3
  0  1 10  1  0  1  3 12  9  3 10 17  2  0 20  5  0 23  5  0  2  1 23 23
  1 14 14 14 23 11 17]"
15800,341,1.0,8,3,2966.9825518131256,183.69213819503784,0,2022400,11380821,91795917,"[ 0  2  1  1  1  1  1  3  0  2  3  0  2  1  3  1  6  8  2  2  0  5  7  4
  5  1  1  2  4  7  3 11  7  1 11  6  0  3 11  2  8  8  2  5  3  1 18  9
  2 11 18  3 12 10  0  3 18  3 10 17  1 23 17  5  1 20  3 19  2  2 14 22
  5 14  3 14 23 11 17]"
15900,341,1.0,8,3,2985.3475086688995,183.6495327949524,0,2035200,11450211,92350753,"[ 0  2  1  5  3  3  5  2  1  2  3  0  2  1  3  3  2  2  2  2  0  5  7  4
  5  4  8  1  3  2  3 11  7  0  0 12  4  4  9  3  8  8  0  5  0  5  1  1
  2 13 15  5 11 16  5 11  9  3 10 17  0  2 20  5 15 19  5  0  3  2 20  1
  2 23  1 14 23 11 17]"
16000,341,1.0,8,3,3004.2063496112823,188.58837366104126,0,2048000,11521050,92916515,"[ 0  2  1  4  2  1  4  1  1  2  3  0  2  1  3  3  1  4  2  2  0  5  7  4
  5  7  6  3  6  0  3 11  7  1  0  1  4  6 12  2  8  8  0  2  5  1 17  3
  3 17 12  1 10 14  0  2 14  3 10 17  1  1 18  0 18  3  3  3 15  4  2  2
  1  1 14 14 23 11 17]"
16100,341,1.0,8,3,3022.6278445720673,184.21491146087646,0,2060800,11591825,93481696,"[ 0  2  1  4  3  3  5  1  0  2  3  0  2  1  3  2  5  2  2  2  0  5  7  4
  2  7  5  5  7  1  3 11  7  5  1  6  2  7  5  2  8  8  3  2 11  2 12 18
  0 11 10  0  0 16  2 18  1  3 10 17  5 15 18  5 18 23  5 22 19  4 14 22
  5  2 20 14 23 11 17]"
16200,341,1.0,8,3,3041.690814971924,190.62967538833618,0,2073600,11662912,94049521,"[ 0  2  1  5  3  1  1  1  0  2  3  0  2  1  3  2  1  6  2  2  0  5  7  4
  4  1  8  5  3  1  3 11  7  5 12  8  4  8 12  3  8  8  0  2 11  5  1 13
  3 11 10  3 11 18  0  9  2  3 10 17  3 22 23  3 18 23  5 14 14  4 19 18
  1 20 18 14 23 11 17]"
16300,341,1.0,8,3,3059.9684693813324,182.7764916419983,0,2086400,11732554,94606264,"[ 0  2  1  1  3  1  4  3  0  2  3  0  2  1  3  2  6  6  2  2  0  5  7  4
  2  2  6  5  5  6  3 11  7  4  9  5  3  6  7  3  8  8  3  3  2  4 14 13
  5  0  0  3 10  2  1 12 15  3 10 17  2 19 14  2  3  0  3  0  2  1 19 17
  4  0  1 14 23 11 17]"
16400,341,1.0,8,3,3077.7849605083466,178.1648588180542,0,2099200,11802235,95163118,"[ 0  2  1  0  2  0  1  3  0  2  3  0  2  1  3  1  8  6  2  2  0  5  7  4
  1  7  8  3  7  2  3 11  7  1  0 13  1  8  0  2  8  8  4  2  1  5 14  0
  5  0  0  1  3 16  1 16  9  3 10 17  4  1 15  1 21 18  0 14  2  3  3 23
  3 21 22 14 23 11 17]"
16500,341,1.0,8,3,3096.171692609787,183.86728525161743,0,2112000,11871948,95718939,"[ 0  2  1  0  0  0  2  3  2  2  3  0  2  1  3  5  4  3  2  2  0  5  7  4
  2  0  2  3  3  0  3 11  7  1  4 11  0  7  5  3  8  8  2  4  6  5 15  2
  1 12  3  3  3  2  2 14 10  3 10 17  4 18 17  0 19  1  1 14 19  0 18 20
  1 16 21 14 23 11 17]"
16600,341,1.0,8,3,3114.872438430786,187.0074200630188,0,2124800,11942923,96285194,"[ 4  2  3  0  2  1  2  1  2  2  3  0  2  1  3  2  7  7  2  2  0  5  7  5
  5  1  8  2  4  7  3 11  7  1 10 10  4  6  3  2  8  8  1  5  3  3  9 16
  3 16 16  5  2 16  5 11  3  3 10 17  3  0 19  3  3 16  1  1 21  2 15  3
  2 16  3 14 23 11 17]"
16700,341,1.0,8,3,3132.355213165283,174.8276972770691,0,2137600,12011415,96832252,"[ 4  3  3  0  2  1  1  3  0  2  3  0  2  1  3  2  4  8  2  2  0  5  7  5
  5  7  8  3  5  7  3 11  7  4  9  3  2  8 12  3  8  8  1 11  8  4  9 14
  0  1 12  0 11 13  0  9  0  3 10 17  2  2 16  4 15 14  1  0 15  3 14 19
  5 16 21 14 23 11 17]"
16800,341,1.0,8,3,3150.472757577896,181.17539167404175,0,2150400,12081135,97389238,"[ 1  1  2  0  2  1  1  1  3  2  3  0  2  1  3  1  0  4  2  2  0  5  7  5
  2  3  8  3  3  0  3 11  7  1  9 13  2  0 11  3  8  8  0 13  0  1  0  1
  2  9 16  1 11 17  1 13 15  3 10 17  0  3 16  1  2  0  4 18 16  2 16  0
  1 18 23 14 23 11 17]"
16900,341,1.0,8,3,3169.567708015442,190.94947338104248,0,2163200,12150910,97946084,"[ 3  0  2  0  2  1  5  2  2  2  3  0  2  1  3  4  5  4  2  2  0  5  7  5
  0  5  1  4  7  8  3 11  7  0  0 11  4  5  6  2  8  8  4  1  0  2 10  0
  3 18 18  5 14 18  0 18 17  3 10 17  5  2 23  3  0  1  2 15 15  5 23 14
  5 15 18 14 23 11 17]"
17000,341,1.0,8,3,3187.480907201767,179.13193464279175,0,2176000,12221248,98507396,"[ 4  3  3  0  2  1  5  1  0  2  3  0  2  1  3  5  7  6  2  2  0  5  7  5
  0  3  0  3  3  8  3 11  7  5  8  4  4  7 13  3  8  8  5  8 12  4 13 18
  4 13 18  1 13 11  5 12 13  3 10 17  1  0 17  1  1 14  1  3 22  0 15 14
  1  1  0 14 23 11 17]"
17100,341,1.0,8,3,3205.8957812786102,184.14870262145996,0,2188800,12292233,99073948,"[ 3  2  3  0  2  1  5  3  2  2  3  0  2  1  3  4  5  7  2  2  0  5  7  5
  2  3  0  1  7  7  3 11  7  4  5  5  3 13 10  2  8  8  3  4  9  1  3 11
  5 14 13  3 13 15  0 13 18  3 10 17  2 19 16  2 17  1  2  3 21  1 15  0
  5 15 21 14 23 11 17]"
17200,341,1.0,8,3,3224.317887067795,184.22102212905884,0,2201600,12361937,99630415,"[ 2  2  1  0  2  1  5  3  1  2  3  0  2  1  3  2  2  0  1  4  0  5  7  5
  0  3  5  5  2  6  3 11  7  4  7  8  4 13  8  2  8  8  1  3  0  5 11 18
  0  2 10  3 13 17  2 13  9  3  9 17  1 20  1  3 17 18  3 22  0  4 21  1
  4 15 22 14 23 11 17]"
17300,341,1.0,8,3,3242.8496086597443,185.31718015670776,0,2214400,12431717,100188390,"[ 4  0  1  0  2  1  5  1  2  2  3  0  2  1  3  2  2  0  4  3  2  5  7  5
  5  6  6  3  5  5  3 11  7  4 10 10  5  0  9  3  8  8  1  3  7  2 18 17
  0  0  2  1 10  0  1  2 18  3  9 17  4 18 23  5 23 18  1  3 14  3 22  2
  5 18 19 14 23 11 17]"
17400,341,1.0,8,3,3261.0513446331024,182.01732873916626,0,2227200,12501339,100744877,"[ 2  1  2  0  2  1  5  1  3  2  3  0  2  1  3  2  2  0  5  8  5  5  7  5
  5  2  1  0  8  3  3 11  7  1  6  4  0 13  6  2  8  8  5 11  2  4 18 13
  1 14 10  4 17  9  2 15 17  3  9 17  0 16 21  4 20 23  0 16  2  2 19 18
  3 19 16 14 23 11 17]"
17500,341,1.0,8,3,3279.1100997924805,180.58751583099365,0,2240000,12572269,101311323,"[ 3  3  2  0  2  1  4  3  3  2  3  0  2  1  3  2  2  0  5  8  2  5  7  5
  0  7  5  3  5  3  3 11  7  0  1 10  3  1  5  3  8  8  3 12 12  1  9 16
  4 17 14  3  9 17  5  3 10  5 11 17  0  0  1  2 17 19  5 22 21  4  2 18
  4  0 23 14 21 11 17]"
17600,341,1.0,8,3,3297.576318025589,184.66214656829834,0,2252800,12642206,101869469,"[ 3  1  2  0  2  1  4  0  3  2  3  0  2  1  3  2  2  0  1  2  6  5  7  5
  4  5  2  1  3  4  3 11  7  0  4 10  1 11  5  3  8  8  4  1 11  5 10 16
  1 17  9  3  9 17  0  1 15  3 17 17  0 14 18  3 14 17  5 22 22  4 22  1
  0  0  0 14 21 11 17]"
17700,341,1.0,8,3,3315.970871925354,183.94550323486328,0,2265600,12713622,102440199,"[ 3  2  1  0  2  1  4  2  1  2  3  0  2  1  3  2  2  0  5  2  5  5  7  5
  5  3  0  3  6  4  3 11  7  1  8  6  1  4  4  3  8  8  0  2  9  1 11 14
  0 11 16  3  9 17  3 12 12  2  2 14  0 19 15  0  0 17  4  3 21  3 19 21
  3 16  0 14 21 11 17]"
17800,341,1.0,8,3,3334.440824508667,184.69949007034302,0,2278400,12783700,102999835,"[ 2  2  2  0  2  1  3  2  0  2  3  0  2  1  3  2  2  0  3  5  8  5  7  5
  2  0  5  5  7  0  3 11  7  1  9 10  0  8  2  2  8  8  5  4  1  4  9 15
  3 11 12  3  9 17  2  9  2  3  3  1  5 19 19  5 22 14  5  2 18  1 19 23
  2 23 19 14 21 11 17]"
17900,341,1.0,8,3,3352.898483991623,184.57653760910034,0,2291200,12854059,103561784,"[ 5  0  2  0  2  1  2  3  0  2  3  0  2  1  3  2  2  0  3  8  8  5  7  5
  1  8  5  1  1  1  3 11  7  1 10  5  5 12  3  3  8  8  5 13  5  0 18 17
  2 16  3  3  9 17  5  3  0  3 11  1  3 21  1  1 23 21  0 16  3  3  0  3
  2 22 23 14 21 11 17]"
18000,341,1.0,8,3,3371.396486520767,184.979989528656,0,2304000,12924981,104128195,"[ 5  2  2  0  2  1  1  2  2  2  3  0  2  1  3  2  2  0  3  6  7  5  7  5
  3  0  6  4  6  2  3 11  7  3 13 12  1  9  5  3  8  8  5  6  6  1 18  9
  2 11  2  3  9 17  3  9  2  5 10 12  0 21 22  2 23 21  0  3 14  5  2 21
  4 20 15 14 21 11 17]"
18100,341,1.0,8,3,3389.977771282196,185.81280708312988,0,2316800,12995871,104694380,"[ 5  3  3  0  2  1  3  2  3  2  3  0  2  1  3  2  2  0  0  1  7  5  7  5
  0  0  1  5  5  7  3 11  7  0  6  1  0  7  5  3  8  8  5 10 13  2  3 18
  4 13  1  3  9 17  0  2 16  1 13 15  1  0  1  2 21 18  1 14 20  3 20 18
  1 18 22 14 21 11 17]"
18200,341,1.0,8,3,3407.907011270523,179.29234981536865,0,2329600,13065432,105250064,"[ 0  1  2  0  2  1  5  3  2  2  3  0  2  1  3  2  2  0  1  0  3  5  7  5
  0  2  1  1  2  0  3 11  7  0 13 10  3 13 10  2  8  8  3  9  9  0 18  9
  4  3  3  3  9 17  1 15  1  4 18 11  5 20 22  3 21 16  3  1 21  2 21  3
  1  0 19 14 21 11 17]"
18300,341,1.0,8,3,3425.8912699222565,179.84254598617554,0,2342400,13135035,105805549,"[ 3  1  0  0  2  1  4  0  3  2  3  0  2  1  3  2  2  0  1  7  6  5  7  5
  2  2  2  5  7  1  3 11  7  3  8  9  3  3  9  3  8  8  0 12 13  3 17 11
  2 16 15  5  9 15  4  1  9  4 15 15  2  2 19  2 17  1  3 20  2  4 15 16
  4 21 18 15 21 11 17]"
18400,341,1.0,8,3,3443.1881194114685,172.96844005584717,0,2355200,13203870,106353329,"[ 5  1  0  0  2  1  4  1  1  2  3  0  2  1  3  2  2  0  4  2  1  5  7  5
  4  8  6  5  6  8  3  3  9  3  8  9  1  3 10  2  8  8  2 13  6  5 15  2
  0  3  1  3  9 15  5 15 12  0  0 10  4 15 19  5  2 19  3  2  2  2 16 17
  0  0 14 15 21 11 17]"
18500,341,1.0,8,3,3462.174004793167,189.85881805419922,0,2368000,13283153,106981761,"[ 0  1  2  5  1  1  0  3  0  2  3  0  2  1  3  2  2  0  2  8  8  5  7  4
  4  2  7  5  5  1  0  6  7  3  8  9  1 13 10  3  1  8  0  3  0  1  3 16
  0  3  1  3  9 15  2 15 15  2 15 14  0 20 18  5 22 19  0  1 18  5 14 14
  0  1 15 15 21 11 20]"
18600,341,1.0,8,3,3481.836414337158,196.62405729293823,0,2380800,13362694,107612191,"[ 0  1  2  3  1  0  3  0  1  2  3  0  2  1  3  2  2  0  2  3  8  5  7  4
  4  0  4  4  4  2  3 11  1  3  8  9  2 13  9  0  2 10  4  0 10  0 14 16
  0  3  1  5  9 15  0 14  3  2 13 13  3 16 17  5 17 14  2 22  2  2 16 15
  2 17 15 15 21 11 20]"
18700,341,1.0,8,3,3501.84285736084,200.064377784729,0,2393600,13442932,108247921,"[ 0  1  2  2  0  3  5  1  0  2  3  0  2  1  3  2  2  0  2  5  8  5  7  4
  5  2  1  1  5  7  0  0 12  3  8  9  1  2  4  3  2  9  4  4  7  5 18 18
  0  3  1  3  9 15  2  0 12  1  9 16  5 16  0  0 22  1  2 15 20  3 17 15
  5 14 20 15 21 11 20]"
18800,341,1.0,8,3,3521.586765527725,197.4390411376953,0,2406400,13522714,108881445,"[ 0  1  2  1  0  2  1  1  2  2  3  0  2  1  3  2  2  0  0  1  0  5  7  4
  3  3  8  3  6  3  3  1 12  3  8  9  1  9  1  0  0  8  1 10 10  3  0 14
  0  3  1  5  9 15  0 17 10  2  0 10  0  1  0  2 16 17  3  1 22  3  3 18
  2  3 20 15 21 11 20]"
18900,341,1.0,8,3,3541.6222479343414,200.35479068756104,0,2419200,13600747,109500369,"[ 0  1  2  3  1  3  4  0  0  2  3  0  2  1  3  2  2  0  3  6  8  5  7  4
  5  1  0  3  3  2  4  5  6  3  8  9  0  6  4  4  7 11  1  5  6  1 12 17
  0  3  1  5  9 15  2 17 13  0 11 10  3  2  0  0 22 14  4  3 15  3 21  0
  5  1 21 15 21 11 20]"
19000,342,1.0,8,2,3560.9527723789215,193.30520868301392,0,2432000,13679177,110128999,"[ 0  1  2  0  3  2  0  3  2  2  3  0  2  1  3  2  2  0  3  0  1  5  7  4
  0  3  6  3  7  6  4  4 10  3  8  9  0  8  8  0  1  3  0 10  0  1 10 17
  0  9 17  3  9 17  2 15  0  0  3  1  3 21 19  0 23 17  1 14 19  4  0  1
  5 16 22 15 21 11 17]"
19100,342,1.0,8,2,3579.51798248291,185.6520676612854,0,2444800,13755701,110732858,"[ 0  1  2  2  0  3  5  2  2  2  3  0  2  1  3  2  2  0  5  1  3  5  5  4
  4  4  8  1  2  2  5  6  7  3  8  9  0  1  0  0  1  3  3  6  7  2 14 14
  1 18  3  3  9 17  5 18 14  1 17 16  4  0 23  3 23 16  5 23 20  4 14 19
  5 14 19 15 21 11 17]"
19200,342,1.0,8,2,3599.0846223831177,195.666344165802,0,2457600,13834942,111358994,"[ 0  1  2  2  0  3  0  0  0  5  3  2  2  1  3  2  2  0  5  1  3  5  5  4
  3  7  3  2  8  0  4  5  1  3  8  9  0  9  7  0  1  3  3  9  5  2 18 14
  1 15  2  3  9 17  5  1  1  4 18  2  1  2 23  4 14 14  0 15 22  0  1  2
  2 14 19 15 21 11 17]"
19300,342,1.0,8,2,3618.0401287078857,189.55502033233643,0,2470400,13912877,111973980,"[ 0  1  2  2  0  3  5  3  3  1  0  2  2  1  3  2  2  0  3  5  6  5  5  4
  0  0  1  4  6  7  0  5 10  3  8  9  5  0 11  0  1  3  3  6 11  5 14  1
  1 13 13  3  9 17  2  2  1  5 11  9  1 21 18  2  3 20  4 15 17  0 16 20
  2 18 17 15 21 11 17]"
19400,342,1.0,8,2,3636.5595746040344,185.1944088935852,0,2483200,13990585,112588058,"[ 0  1  2  2  1  3  2  0  3  0  0  1  3  1  3  2  2  0  2  8  7  5  6  4
  5  1  6  3  1  1  5 12 10  3  5  9  0  1  1  0  1  3  2  3  3  3 17 17
  3 16  1  3  9 17  3  2  1  2 13 14  5 16 17  0 20 22  0 19  2  0  3 15
  5 14  0 15 21 11 17]"
19500,342,1.0,8,2,3656.3007023334503,197.41122245788574,0,2496000,14069232,113208268,"[ 0  1  2  2  1  3  2  0  3  3  3  3  4  2  3  2  2  0  4  7  6  5  6  4
  2  8  1  3  4  5  1  7  0  3  5  9  0  3  1  0  1  3  0 13  1  4 15  2
  3 10  1  3  9 17  4 15 18  2  3  3  5 15 14  0 16  2  4 21 22  4 16  0
  1  1 22 15 21 11 17]"
19600,342,1.0,8,2,3675.2701563835144,189.69449996948242,0,2508800,14146972,113822680,"[ 0  1  2  2  1  3  2  0  3  4  1  3  4  1  0  2  2  0  1  6  6  5  6  4
  2  8  1  0  5  3  0  8  3  3  5  9  1  4  1  0  1  3  4  2  8  0  2 13
  0 18 11  3  9 17  3 17 17  5 11 18  0 17 20  1 17 17  2 22 19  4 17 22
  5  1 22 15 21 11 17]"
19700,342,1.0,8,2,3694.60595870018,193.35798978805542,0,2521600,14224457,114434086,"[ 0  1  2  2  1  3  2  0  3  4  2  1  5  2  0  2  2  0  1  3  6  5  6  4
  0  5  0  3  0  2  4  2  9  3  5  9  4  2  0  0  1  3  0  8  5  5  2  2
  0 13  0  3  9 17  2  0  9  0 18 16  4 16 16  0 17 17  2 15  0  4  0 17
  4  1 16 15 21 11 17]"
19800,342,1.0,8,2,3713.939637899399,193.33675861358643,0,2534400,14302232,115048069,"[ 0  1  2  2  3  0  1  0  0  2  1  3  2  3  1  2  2  0  5  1  0  5  5  4
  1  3  1  3  5  6  2 10 13  3  7  9  2 11 12  0  1  3  2  6  3  1 12  9
  0 16 12  3  9 17  0 14 18  2  1 18  0  1 23  3 18 17  4  2 20  4 22 18
  0 18 22 15 21 11 17]"
19900,342,1.0,8,2,3733.4701104164124,195.30468940734863,0,2547200,14380304,115664984,"[ 0  1  2  2  3  0  5  1  0  2  1  3  2  0  1  2  2  0  2  1  5  5  5  4
  0  7  4  0  2  6  0  2  0  3  7  9  5  5  2  0  1  3  0  1 11  3 10 14
  0 18  3  3  9 17  0 11  0  1  1 18  4 19  2  2 15  2  4  1 16  4 14 16
  0 21 16 15 21 11 17]"
20000,342,1.0,8,2,3752.7753024101257,193.05188655853271,0,2560000,14457322,116273200,"[ 0  1  2  2  3  0  2  0  3  2  1  3  4  3  2  2  2  0  3  6  0  5  5  4
  5  1  7  1  3  0  2  4  0  3  7  9  4  3  2  0  1  3  1  5  7  0 14  0
  4 18  3  3  9 17  1 17 15  5 18 18  1 16  3  0 18  2  4 21 14  4 23 16
  0  0 18 15 21 11 17]"
