generation,fitness,functionality,active_nodes,longest_path,time,gen_time,nc_gens,fitness_evals,graph_evals,node_evals,genotype
0,271.0,0.78125,6,3,1.5556321144104004,1555.6321144104004,119,512,4825,35238,"[ 4  2  2  4  1  1  2  0  0  5  1  2  0  1  2  4  5  6  0  3  7  3  7  3
  5  8  8  5  3  0  4  1  0  5  1  1  3  3  7  5  9  5  0 10  8  3 15 16
  5  9 14  2 18 12  3 13  9  5 11 13  1 18 19  5 16  2  0 21 14  0 23 16
  5 23  1  5 19 10  3]"
100,315.0,0.90625,4,1,2.3413329124450684,7.85700798034668,155,912,10317,59716,"[ 3  0  2  4  1  1  1  3  1  0  1  3  2  3  2  5  1  3  0  4  1  2  5  7
  0  2  0  0  0  3  2 10  1  0  3  6  4  9  0  4  1 12  0 11  8  5  2 16
  2 13 12  0 18 16  3  3  2  2 10  9  2  3 23  2 15 23  4 14 19  4 18 15
  2 22 20  5 12 13  7]"
200,315.0,0.90625,4,1,3.1662991046905518,8.249661922454834,211,1312,15449,81653,"[ 2  2  2  4  1  1  1  0  1  0  1  3  4  2  0  0  8  2  2  3  5  2  0  3
  0  2  0  0  0  3  4  7  3  4 13  4  0  5  8  0  1  4  1  9  0  2 10 16
  5 14  3  0 17 18  4  2 13  1 14 10  2  1  0  2  1  1  4  1  2  2  3  3
  3 22 19  5 12 13  7]"
300,315.0,0.90625,4,1,4.06912899017334,9.02829885482788,270,1712,20544,103047,"[ 0  1  2  4  1  1  2  1  2  0  1  3  2  0  1  5  0  4  4  5  7  3  7  2
  0  2  0  0  0  3  5  2  0  2 13  0  0  0 11  0  5 13  4  2  0  3 18  2
  4  9 10  5 13 11  2 13  0  4  9  1  2  1  3  5  0  1  3 20 20  3 20 14
  2 21 16  5 12  4  7]"
400,315.0,0.90625,4,1,4.794573068618774,7.254440784454346,317,2112,25858,125432,"[ 2  3  1  4  1  1  0  1  2  0  1  3  0  2  1  3  0  7  3  0  3  3  2  3
  0  2  0  2  3  3  1 13  9  3  6  2  3  7  6  1  8 13  0  7  5  4 15 13
  4 12  2  0 15 15  5 10  9  4  2 11  2  2 15  3 15 21  2  3  1  3  3 21
  2 15 22  5 12  8  7]"
500,315.0,0.90625,4,1,5.64639949798584,8.518264293670654,358,2512,31135,147758,"[ 4  1  2  4  1  1  1  1  2  0  1  3  0  2  1  5  0  2  3  0  4  3  4  6
  0  2  0  5  7  0  0  9  4  3  5  5  0  6 10  4  3  9  2  0  5  3 10  9
  3  0 13  0 16 18  3 14 14  4  9 11  1  2  1  4 23  2  5 22 23  4 15 22
  4  1 21  5 12  8  7]"
600,315.0,0.90625,4,1,6.498835325241089,8.52435827255249,411,2912,36398,169994,"[ 1  0  0  4  1  1  4  2  3  0  1  3  0  2  1  3  7  2  2  1  0  3  0  4
  0  2  0  5  4  8  5  9  8  1 11 13  4  6  1  1  2  8  4  3  7  0  2  0
  4  0 10  1 13 11  0 12  2  0 14 12  4  2 14  4 15 23  4 16  2  4 20 22
  3 18  1  5 19  8  7]"
700,315.0,0.90625,4,1,7.277232885360718,7.783975601196289,459,3312,41601,192921,"[ 0  0  0  4  1  1  1  0  3  0  1  3  0  2  1  4  7  8  3  3  0  1  0  8
  2  8  8  3  4  7  1 13  9  0  5  8  3  0  2  2  2  4  1  9  6  0  2  0
  5  9 18  2  2  9  4 16 12  2 12  0  1 18  1  1 20 21  2 15  0  1 21 19
  2 19 18  5 19  8  7]"
800,316.0,0.921875,6,3,8.000105619430542,7.228727340698242,508,3712,46670,219073,"[ 2  2  0  4  1  1  1  0  1  0  1  3  0  2  1  4  6  7  5  0  0  3  7  5
  4  6  7  3  4  7  3 13  6  0  9  9  0 10  1  2  4  8  3  1  6  0 13  0
  5 15 18  0  1 14  0 16 15  3 16  0  4  1  0  2 21 21  1 15 22  1 17  3
  0 16 21  5 19  8  7]"
900,316.0,0.921875,6,3,8.83790898323059,8.378033638000488,555,4112,52001,251726,"[ 3  2  2  4  1  1  4  2  3  0  1  3  0  2  1  0  0  0  3  8  1  0  7  0
  4  2  7  3  4  7  0  8 12  0  4  4  3  5  7  0  7  1  3  5 12  0 13  0
  4 10 18  0 11  1  3 16  0  1 18  0  4 22 16  4 15 21  3 21 23  4 16 15
  2  1  1  5 19  8  7]"
1000,316.0,0.921875,6,3,9.652045726776123,8.141367435455322,599,4512,57245,283194,"[ 2  2  0  4  1  1  4  1  3  0  1  3  0  2  1  2  7  6  3  8  4  5  2  2
  4  7  2  3  4  7  2  0  5  2  2  3  0 13  5  5  4  4  2  2 12  0 13  2
  2 17  0  4  3 14  2  1 15  4 12 13  4 22 22  0 22 20  4 18 21  2 16 23
  4  0 19  5 19  8  7]"
1100,316.0,0.921875,6,3,10.485937356948853,8.338916301727295,648,4912,62319,314223,"[ 2  2  2  4  1  1  0  3  2  0  1  3  0  2  1  0  5  0  0  4  8  1  6  1
  0  3  0  3  4  7  1  9  5  0 13  1  5 10  9  5  4 11  0  3  1  0 13  0
  1 12 14  5  1 14  1 11 12  2  3  3  0 22 22  3 20  1  2 15 19  1 19  2
  4 14 19  5 19 15  7]"
1200,316.0,0.921875,6,3,11.316261053085327,8.303236961364746,695,5312,67315,345239,"[ 4  2  0  4  1  1  3  2  0  0  1  3  2  0  1  3  3  4  5  6  8  1  5  5
  2  5  4  3  4  7  2  2  5  0  2  1  5  4  7  0  4 12  0  3  9  0  0 13
  1  2 16  5 10 14  2 10 10  1 12  3  2 19 18  3 20  0  2 15 19  3 21  2
  3 18 19  5 19 15  7]"
1300,316.0,0.921875,6,3,12.113657712936401,7.973966598510741,746,5712,72389,376524,"[ 4  2  0  4  1  1  4  3  1  0  1  3  2  2  3  0  0  5  2  4  6  1  1  7
  1  4  8  3  4  7  0  2  9  0  4  3  5 12  7  5  4  1  0  3  9  0  0 13
  3 16 17  5 12 18  1  1  9  1 16  1  3 23 16  3 22 16  3 16  3  4 17 21
  2 23 23  5 19 15  7]"
1400,316.0,0.921875,6,3,12.895108699798584,7.814509868621826,795,6112,77298,407318,"[ 4  2  0  4  1  1  4  2  2  0  1  3  2  2  3  1  3  2  3  4  8  0  2  3
  2  1  5  3  4  7  1  3  0  0  4  3  3  4  3  2  8  3  3 11  9  0  2 13
  2  3 17  2 18 18  5 10 14  1  3  1  4 19 20  0 18 15  4 16 17  3 18 23
  4 23 18  5 19 15  7]"
1500,318.0,0.921875,5,2,13.746732234954834,8.5162353515625,844,6512,82174,433167,"[ 0  0  0  4  1  1  0  2  3  0  1  3  2  2  0  0  4  3  3  6  6  1  8  4
  2  8  5  3  8  7  1 10  0  0  0  3  0  4  4  2  0  8  3 11  9  0 18 13
  5  3  9  2 16 17  5 10 12  3  2 13  1 23 14  0  0 15  1  2 17  1 17 18
  4 22 20  5 13 15  7]"
1600,318.0,0.921875,5,2,14.419995546340942,6.732633113861084,901,6912,86888,457694,"[ 0  3  1  4  1  1  0  2  1  0  1  3  2  2  0  3  3  0  0  7  7  4  0  5
  3  3  0  3  8  7  2  4  3  0  0  3  0 11  4  3 11 11  3  6 12  0 18 12
  1  2 11  3 16 16  2  1 12  3  3 13  4 21 14  3  0 23  2  2 18  3  2 15
  4  0 23  5 13 15  7]"
1700,318.0,0.921875,5,2,15.088161945343018,6.681663990020752,955,7312,91699,482520,"[ 1  2  3  4  1  1  5  0  1  0  1  3  2  2  0  3  7  5  1  0  6  5  0  6
  5  6  8  3  8  7  4 11  3  0  0  3  4  1  4  4 11  8  2  6  5  1 14 11
  3  1 10  2  0 14  4  1 11  0  2 15  2  1 19  4 20  3  3  2 18  2 14 16
  5 18 19  5 13 15  7]"
1800,318.0,0.921875,5,2,15.794854402542114,7.066924571990967,1004,7712,96418,507703,"[ 4  0  2  4  0  2  4  1  1  0  1  3  2  2  0  4  0  5  3  5  8  4  5  7
  4  7  3  3  8  7  4  2  3  0  0  3  4  0  4  5  3  0  0  1  8  3 15 11
  2  0 17  3  1  0  4  3 10  0  2 15  0  0  3  4 23 14  4 22 16  4 19 21
  0 21 14 23 13 15  7]"
1900,318.0,0.921875,5,2,16.500179290771484,7.053248882293701,1057,8112,101092,532084,"[ 5  2  0  3  0  2  5  0  1  0  1  3  2  2  0  3  4  8  3  7  8  3  2  8
  2  5  2  3  8  7  0  2  7  0  0  3  2  0 13  4  5  0  5  6 13  5  9  1
  3 18 12  2  3  0  1 15  9  0  1 13  2 23  0  2 16  1  4 14 14  4  0 23
  3 16  3 14 10 15  7]"
2000,322.0,0.9375,6,2,17.220168828964233,7.19989538192749,1114,8512,105623,557798,"[ 5  2  3  0  0  2  5  0  1  0  1  3  2  2  0  2  6  7  3  7  8  1  6  0
  3  7  2  2  8  5  0  5  7  0  0  3  0 11 13  1  1  0  0 13 13  0 18 10
  1  0  1  3  3  0  1 10  9  3 17 13  4 22 20  4 14 14  4  0  1  4 17 22
  1 15  0 14 10 15  7]"
2100,322.0,0.9375,6,2,17.941502809524536,7.213339805603027,1175,8912,110191,585545,"[ 2  2  1  0  0  2  4  0  1  0  1  3  2  2  0  4  6  1  3  7  8  3  2  3
  2  8  2  1  8  1  0  5  7  0  0  3  5  0  5  5  3  0  1 13  8  1  1  1
  1 14 10  0 15  1  1 13  9  2 18 16  4  1 19  2 19 14  4 21 14  0 14 20
  2 16  2 14 10 15  7]"
2200,322.0,0.9375,6,2,18.682361602783203,7.40858793258667,1228,9312,114964,614469,"[ 2  1  3  0  0  2  2  3  3  0  1  3  2  2  0  2  2  0  3  7  8  3  8  4
  0  5  7  0  1  8  0  5  7  0  0  3  0  8  7  5  3  2  2 13 12  4  3 10
  4 14 10  5 15 13  1 13 10  5  3 16  1  3 22  2 19 14  0 23 14  4 17 17
  1 15 18 14 10 15  7]"
2300,322.0,0.9375,6,2,19.430522441864014,7.4816083908081055,1278,9712,119791,643982,"[ 1  1  3  0  0  2  4  3  0  0  1  3  2  2  0  2  0  1  3  3  8  3  6  0
  3  8  7  3  3  0  0  5  7  0  0  3  3  9  5  2  0  4  1  4  6  2  9 17
  5 11 14  2  9 14  3 13 11  5  1 16  5  3 15  2 15 14  4 19 15  4 17  1
  3 19 18 14 12 15  7]"
2400,322.0,0.9375,6,2,20.18093776702881,7.504153251647949,1325,10112,124538,672985,"[ 3  1  3  0  0  2  1  2  0  0  1  3  2  2  0  0  4  8  1  4  0  4  3  0
  3  8  7  1  6  7  0  5  7  0  0  3  3  9  1  1  4  6  4  2  7  4 11 17
  0  0  2  5  9 14  3 10 15  3  3 11  0 17  3  0 21 19  4 17 21  4 16 19
  0  0 18 14 12 15  7]"
2500,322.0,0.9375,6,2,20.932635068893433,7.51697301864624,1390,10512,129211,701719,"[ 1  1  1  0  0  2  2  3  0  0  1  3  2  2  0  4  6  3  0  6  5  4  5  0
  3  8  7  5  4  7  0  5  7  0  0  3  3  0  1  5 13  6  1  6 11  2 13 17
  4 12  2  5 10 17  0  1 11  2  1 16  3  2 20  3 16 19  4 16 15  4 20 19
  1  1 20 14 12 15  7]"
2600,322.0,0.9375,6,2,21.670694589614868,7.3805952072143555,1445,10912,134055,730984,"[ 4  1  2  0  0  2  1  1  1  0  1  3  2  2  0  1  4  2  0  6  6  4  3  3
  3  8  7  3  1  5  0  5  7  0  0  3  5 10 10  2  0  0  3 12 13  4  2  9
  4 14  1  4 10  0  0  1 15  3  0 18  0 21 20  1  0 17  5 19 19  2  0  1
  4 17 23 14 12 15  7]"
2700,322.0,0.9375,6,2,22.392199277877808,7.2150468826293945,1498,11312,138748,759293,"[ 1  1  1  0  0  2  2  3  1  0  1  3  2  2  0  1  7  2  4  2  6  3  7  6
  3  8  7  4  2  6  0  5  7  0  0  3  1 10  1  2  3  8  2  7  4  4  2 11
  4  1  2  5  3 15  4  0 10  4  0 18  4 21 16  4 14 21  2 15 17  3  3 14
  0 17 17 14 12 15  7]"
2800,322.0,0.9375,6,2,23.206334352493286,8.141350746154785,1556,11712,143565,788279,"[ 5  1  1  0  0  2  0  1  1  0  1  3  2  2  0  3  3  1  0  2  2  3  0  6
  3  8  7  0  8  1  0  5  7  0  0  3  4 12  4  4  1  0  0  9 11  4 10  1
  1 15  9  5 14 15  4  3 10  5  0 11  4  0  1  4  0 21  2  1 19  3 20 14
  0 18 17 14 12 15  7]"
2900,322.0,0.9375,6,2,23.98860812187195,7.822737693786622,1610,12112,148367,817898,"[ 2  1  3  0  0  2  4  3  3  0  1  3  2  2  0  4  0  3  1  4  7  1  4  7
  3  8  7  3  8  4  0  5  7  0  0  3  4  3  4  1  4  4  3  6 13  2 17 13
  3 11 16  0 14 17  4  0 12  5 17  0  0  0 23  4 17 15  0 14 15  5  3  2
  4 21  3 14 12 15  7]"
3000,322.0,0.9375,6,2,24.695796728134155,7.07188606262207,1670,12512,153084,846452,"[ 2  2  0  0  0  2  2  3  0  0  1  3  2  2  0  0  1  0  1  6  2  3  0  2
  3  8  7  3  2  3  0  5  7  0  0  3  3  1 12  0  4 11  3  6  1  3 17 13
  2  3  9  4 10 17  3 16  1  2 13  0  3 23 17  5 17 20  0  3 14  1 15 15
  5 17  3 14 12 15  7]"
3100,322.0,0.9375,6,2,25.436916828155518,7.411201000213623,1723,12912,157684,874449,"[ 0  0  0  0  0  2  0  1  1  0  1  3  2  2  0  0  7  6  3  0  7  3  0  7
  3  8  7  3  6  8  0  5  7  0  0  3  3  3  5  2  0  7  4  9  3  4 17 14
  5 14  0  5  9 16  5 16  0  0 11 15  1 14 22  2 20  2  2 18 20  1  2 20
  5 17 16 14 12 15  7]"
3176,342,1.0,8,2,26.012890815734863,7.578605099728233,1758,13216,160492,895124,"[ 2  0  0  0  0  3  1  1  1  0  1  3  2  2  0  0  2  1  5  7  2  3  0  5
  3  8  7  5  6  0  0  9  5  0  0 12  2  0  3  2  0 11  0  2  3  3 14 14
  2 13  0  5  9 16  1 16 16  1 11  1  3 14 22  4 20 15  1 18 22  5 15  1
  5 17 16 14 12 21  7]"
3200,342,1.0,8,2,26.181114673614502,7.009327411651611,1773,13312,161044,899480,"[ 2  0  3  0  0  3  3  1  2  0  1  3  2  2  0  0  2  1  5  1  2  3  0  5
  3  8  7  4  6  0  0  9  5  4  0 12  2  0  3  2  0  8  0  2  3  3 14 14
  2 13  0  5  9 16  1 16 16  4  1 11  3 14 15  4 20 15  1 18 22  4 15  1
  5 17 16 14 12 21  7]"
3300,342,1.0,8,2,26.689716815948486,5.086021423339844,1835,13712,163296,917211,"[ 2  1  1  0  0  3  1  1  3  0  1  3  2  2  0  0  2  1  1  1  5  0  0  8
  3  8  7  3  8  3  0  9  5  4  3  9  2  0  3  5  0  4  5  8  0  5 16 14
  0  2 15  5  9 16  1 11 16  0  1 11  3 14  1  4 16 15  4 15 18  4 16 16
  1 17 19 14 12 21  7]"
3400,342,1.0,8,2,27.240698099136353,5.509812831878662,1885,14112,165671,936000,"[ 2  0  2  0  0  3  5  2  3  0  1  3  2  2  0  0  2  1  1  1  8  0  5  8
  3  8  7  0  7  7  0  9  5  4  0  1  2  0  3  2  0  4  5  7  9  5 12 12
  2  2 15  5  9 16  2  1  9  0  1 14  0  0  1  4  2 16  5  0 18  4 16  2
  1 17  3 14 12 21  7]"
3500,342,1.0,8,2,27.801685333251953,5.609872341156006,1930,14512,168283,956645,"[ 0  2  0  0  0  3  4  0  3  0  1  3  2  2  0  0  2  1  3  6  4  2  0  5
  3  8  7  5  5  4  0  9  5  0  6  5  2  0  3  2  2  3  3  1  0  5  9 12
  0 16 12  5  9 16  1  1 11  2 12  9  1  1 21  1 19 16  2 23 23  4 14  0
  0  3 23 14 12 21  7]"
3600,342,1.0,8,2,28.32888674736023,5.272014141082764,1982,14912,170694,975753,"[ 1  3  0  0  0  3  2  0  3  0  1  3  2  2  0  0  2  1  3  0  6  2  0  5
  3  8  7  2  6  4  0  9  5  0  1  2  2  0  3  2  2  7  3 12  0  1 16 12
  0 10 10  5  9 16  2  1  3  2 12 18  3  0 23  0 19 16  3 23 23  4  0  0
  5  3 18 14 12 21  7]"
3700,342,1.0,8,2,28.852658987045288,5.237722396850586,2039,15312,172929,993434,"[ 1  2  1  0  0  3  3  0  3  0  1  3  2  2  0  0  2  1  1  1  6  4  6  4
  3  8  7  3  8  4  0  9  5  2  1  2  2  0  3  4  2  7  3 12  3  2 16 12
  0 10 17  5  9 16  2 10 11  1 17 15  3 20 16  5 17 23  5 15 20  0 16 16
  5 22 20 14 12 21  7]"
3800,342,1.0,8,2,29.37479853630066,5.221395492553711,2102,15712,175297,1012136,"[ 1  0  1  0  0  3  3  3  2  0  1  3  2  2  0  0  2  1  1  1  6  4  8  1
  3  8  7  1  7  2  0  9  5  2  1  2  2  0  3  4  0  5  3 12  7  2 16 12
  1 16 17  5  9 16  5 10 17  1 17 11  3 17 16  3 17 15  1 15 18  2  2 22
  2 22  1 14 12 21  7]"
3900,342,1.0,8,2,29.942402362823486,5.6760382652282715,2147,16112,177779,1031812,"[ 3  1  1  0  0  3  4  2  0  0  1  3  2  2  0  0  2  1  5  0  4  1  0  2
  3  8  7  4  5  1  0  9  5  3  0  5  2  0  3  4 13  8  1  6 10  5 16 15
  3  3 17  5  9 16  4 13  9  0 13 11  4  3 19  2 20  1  2 15 16  2  3 22
  2 18  0 14 12 21  7]"
4000,342,1.0,8,2,30.491827726364136,5.494253635406494,2201,16512,180199,1050926,"[ 1  2  3  0  0  3  4  2  3  0  1  3  2  2  0  0  2  1  2  1  4  1  7  2
  3  8  7  4  8  7  0  9  5  1  9  3  2  0  3  2  7  8  1  5  6  5 16 12
  3 16 11  5  9 16  2 15 16  0  9 17  1  3 19  2 20 23  4  1 22  5 22 22
  2 17 17 14 12 21  7]"
4100,342,1.0,8,2,31.02947735786438,5.376496315002441,2260,16912,182499,1069139,"[ 0  3  1  0  0  3  3  0  1  0  1  3  2  2  0  0  2  1  2  1  4  3  1  2
  3  8  7  1  1  7  0  9  5  4  6  1  2  0  3  2  4  1  1  6  4  3 17 10
  3 13 11  5  9 16  2 15 11  0  9 17  2  3 19  0 20 20  4  0 14  5 22 22
  4  2  1 14 12 21  7]"
4200,342,1.0,8,2,31.559759616851807,5.302822589874268,2310,17312,184942,1088554,"[ 5  0  1  0  0  3  1  2  3  0  1  3  2  2  0  0  2  1  1  1  4  0  3  1
  3  8  7  0  6  7  0  9  5  4 11 11  2  0  3  2  2  1  3  1  2  3 14 10
  1  1  2  5  9 16  2 16 10  0  9 11  3  2 20  4 15 18  2 21 22  0  1 15
  3  2 14 14 12 21  7]"
4300,342,1.0,8,2,32.06573152542114,5.059719085693359,2372,17712,187218,1106421,"[ 1  2  2  0  0  3  5  0  3  0  1  3  2  2  0  0  2  1  1  1  5  2  3  7
  3  8  7  3  6  5  0  9  5  0  7  7  2  0  3  5  8  5  3  5  2  3 14 10
  0 16 12  5  9 16  1  2 10  5 18 15  2 18  3  3 16 18  1 21  0  1  2 15
  3  1 22 14 12 21  7]"
4400,342,1.0,8,2,32.63469386100769,5.6896233558654785,2425,18112,189588,1125190,"[ 1  3  3  0  0  3  5  0  3  0  1  3  2  2  0  0  2  1  1  7  6  5  8  5
  3  8  7  1  8  3  0  9  5  3  6 12  2  0  3  5  8  5  2  6  2  1 14  9
  5 17 10  5  9 16  1 10  9  1 18  2  1  3 17  0 22  2  4 21 19  1  1 23
  0  1  1 14 12 21  7]"
4500,342,1.0,8,2,33.22488355636597,5.901896953582764,2475,18512,192175,1145584,"[ 0  3  1  0  0  3  2  0  0  0  1  3  2  2  0  0  2  1  3  7  8  5  8  7
  3  8  7  5  7  5  0  9  5  3  4  8  2  0  3  3 12  8  2  4  8  5 10 12
  0 14 18  5  9 16  0 11  9  0 14 14  1 20 16  0 15  1  2 20 16  1 15 23
  5 21 19 14 12 21  7]"
4600,342,1.0,8,2,33.75113272666931,5.262491703033447,2522,18912,194516,1164176,"[ 0  0  0  0  0  3  2  1  2  0  1  3  2  2  0  0  2  1  2  4  0  2  0  0
  3  8  7  1  6  6  0  9  5  3  5  8  2  0  3  3  1  1  2  6  1  1 18  3
  0  1  0  5  9 16  3 13  1  5  1  0  1 17  1  1  0  1  2 14 23  4 19 22
  1 21 14 14 12 21  7]"
4700,342,1.0,8,2,34.30743455886841,5.563018321990967,2580,19312,196847,1182605,"[ 1  3  0  0  0  3  2  1  1  0  1  3  2  2  0  0  2  1  1  4  1  1  2  5
  3  8  7  1  6  4  0  9  5  5  5  3  2  0  3  1 11  1  1  4  6  4 18  3
  0  1 17  5  9 16  2 13 12  1  1  0  5 17 20  1  3 22  0 14 19  5 23  3
  1 21 14 14 12 21  7]"
4800,342,1.0,8,2,34.93654942512512,6.291148662567139,2634,19712,199228,1201369,"[ 1  0  0  0  0  3  2  3  0  0  1  3  2  2  0  0  2  1  1  8  3  1  8  8
  3  8  7  5  0  0  0  9  5  4  2 11  2  0  3  5 11  5  4  7 10  4 10 15
  5 16 15  5  9 16  3 17 16  3  0 18  5 15 22  1 22  1  3 17 19  2  0 15
  1  3 20 14 12 21  7]"
4900,342,1.0,8,2,35.58695077896118,6.504013538360596,2688,20112,201554,1219730,"[ 1  2  3  0  0  3  0  2  0  0  1  3  2  2  0  0  2  1  3  1  3  1  6  4
  3  8  7  4  0  0  0  9  5  4 13 11  2  0  3  3  1  6  5  7  0  4 16 15
  3  0 12  5  9 16  4  2 16  3  0 10  3  3 22  3 15 18  3  0 16  2  3  1
  5  3 18 14 12 21  7]"
5000,342,1.0,8,2,36.1718544960022,5.849037170410156,2739,20512,203963,1238790,"[ 3  2  0  0  0  3  4  2  3  0  1  3  2  2  0  0  2  1  2  4  7  0  6  6
  3  8  7  0  0  4  0  9  5  1  1  2  2  0  3  5  1  3  3 11  5  2 12 15
  1 10  9  5  9 16  5 13 16  5  0 13  2 16 22  3 15 20  5  0 18  0  3  1
  1 18 14 14 12 21  7]"
5100,342,1.0,8,2,36.664981842041016,4.931273460388184,2804,20912,206312,1257270,"[ 0  2  0  0  0  3  5  0  3  0  1  3  2  2  0  0  2  1  2  3  7  3  1  0
  3  8  7  1  1  4  0  9  5  5  5  0  2  0  3  1 12  3  2  6 10  1 12  9
  5 15  0  5  9 16  1 17 10  1 11 14  2  1 15  0 17  0  5  0  0  3  3  1
  1 18 22 14 12 21  7]"
5200,342,1.0,8,2,37.21408152580261,5.490996837615967,2865,21312,208675,1275928,"[ 3  2  1  0  0  3  2  2  3  0  1  3  2  2  0  0  2  1  2  6  0  3  6  4
  3  8  7  3  1  8  0  9  5  1  5  0  2  0  3  1  5 10  2 13 13  2 12 17
  0 17 11  5  9 16  1 15 18  0  1 14  1 14 21  4  3  1  5 23 17  0 16  1
  2 15  1 14 12 21  7]"
5300,342,1.0,8,2,37.730751752853394,5.1667022705078125,2914,21712,211099,1295148,"[ 3  3  1  0  0  3  5  2  0  0  1  3  2  2  0  0  2  1  4  4  7  3  1  0
  3  8  7  2  4  8  0  9  5  1  4  0  2  0  3  1  1 10  2  3 13  4 12 17
  2 17 18  5  9 16  0 18  9  4 10 11  0 22  0  3 19 16  5 19  3  5  3  2
  3 20  2 14 12 21  7]"
5400,342,1.0,8,2,38.30993914604187,5.791873931884766,2966,22112,213439,1313719,"[ 0  3  2  0  0  3  3  2  0  0  1  3  2  2  0  0  2  1  5  0  7  5  5  1
  3  8  7  0  6  4  0  9  5  1  4  1  2  0  3  1  1 10  3 11  0  3  3 16
  5  2 18  5  9 16  3 18 11  1  9 11  3  3 14  3 20 16  0 16 14  5 18  0
  1 17 15 14 12 21  7]"
5500,342,1.0,8,2,38.853620529174805,5.436813831329346,3029,22512,215723,1331700,"[ 1  1  2  0  0  3  3  3  1  0  1  3  2  2  0  0  2  1  3  7  3  4  7  1
  3  8  7  3  5  4  0  9  5  1  4  1  2  0  3  1  1  0  3  2  0  2  3 16
  3 10 15  5  9 16  4 10  2  4  9 16  4  0 14  3 20 16  3 16 17  5 18  3
  5 22 14 14 12 21  7]"
5600,342,1.0,8,2,39.40053343772888,5.4691290855407715,3086,22912,218170,1351031,"[ 1  1  3  0  0  3  3  2  1  0  1  3  2  2  0  0  2  1  5  7  8  4  4  0
  3  8  7  0  8  7  0  9  5  1  7  4  2  0  3  0  1  3  3  7  0  5 11 14
  4 18 10  5  9 16  4 10 17  3  0  0  5  1 22  5 20 16  3  2 18  4 20 21
  5 16 14 14 12 21  7]"
5700,342,1.0,8,2,40.36873912811279,9.682056903839111,3139,23312,220493,1369406,"[ 5  0  3  0  0  3  4  3  1  0  1  3  2  2  0  0  2  1  5  1  8  4  4  5
  3  8  7  4  0  5  0  9  5  5  5  6  2  0  3  4  1  9  4  7  8  2  9 12
  1  3 18  5  9 16  2  2 10  3  0 13  5 23 22  1  3 14  3 22 18  1 14 21
  2 21  2 14 12 21  7]"
5800,342,1.0,8,2,41.56305384635925,11.9431471824646,3179,23712,222970,1389055,"[ 1  0  3  0  0  3  0  2  3  0  1  3  2  2  0  0  2  1  3  8  8  0  7  3
  3  8  7  3  2  1  0  9  5  5 13  2  2  0  3  4 12  4  0  6  5  2 16 15
  1 18  3  5  9 16  1  2  9  2  2  9  5 14 22  1  2  1  4 20 18  4  1 22
  5 14  3 14 12 21  7]"
5900,342,1.0,8,2,43.10057711601257,15.375232696533203,3231,24112,225489,1408942,"[ 5  2  3  0  0  3  4  0  2  0  1  3  2  2  0  0  2  1  3  4  1  2  7  3
  3  8  7  0  8  5  0  9  5  1 13  4  2  0  3  2  5  1  0 10  4  2 12  9
  3 17  3  5  9 16  1 11  9  2 13 10  1 17 23  1  3 23  3  2 14  0 16 23
  5 17 19 14 12 21  7]"
6000,342,1.0,8,2,44.28557109832764,11.849939823150635,3279,24512,227949,1428426,"[ 5  2  3  0  0  3  2  2  0  0  1  3  2  2  0  0  2  1  3  4  0  2  4  5
  3  8  7  0  4  7  0  9  5  5 13 13  2  0  3  2 10 13  3  4  7  1 11  1
  4  0  3  5  9 16  4  2 11  4 15  3  5 15 18  2  3 20  2 18 15  3 21 19
  2 19 17 14 12 21  7]"
6100,342,1.0,8,2,45.185950756073,9.003796577453613,3330,24912,230503,1448729,"[ 2  2  0  0  0  3  0  3  0  0  1  3  2  2  0  0  2  1  3  6  4  2  3  3
  3  8  7  0  1  1  0  9  5  0  3 13  2  0  3  5  8  1  5  8  4  3  0  0
  5 11  9  5  9 16  3 12  3  1 11 14  1  2 23  2 21 20  1 20 19  5 19 19
  0 20 15 14 12 21  7]"
6200,342,1.0,8,2,45.77770495414734,5.917541980743408,3387,25312,232839,1467234,"[ 2  3  2  0  0  3  0  3  1  0  1  3  2  2  0  0  2  1  3  6  1  1  2  3
  3  8  7  1  7  1  0  9  5  0  3  2  2  0  3  4  8  1  5  8  1  3 15  0
  3  3 18  5  9 16  4 10  3  1 10 15  3  2 23  5  0 20  0 17 16  5  1 19
  4  0  1 14 12 21  7]"
6300,342,1.0,8,2,46.50562858581543,7.279236316680908,3439,25712,235253,1486274,"[ 4  0  2  0  0  3  4  0  1  0  1  3  2  2  0  0  2  1  3  6  7  5  2  1
  3  8  7  3  6  1  0  9  5  0  3  9  2  0  3  5  2 12  2  8 13  1  2  1
  3  9 17  5  9 16  3 16 14  5  1 11  2  2 18  5 17 20  4 18  1  2 14  1
  3  0 22 14 12 21  7]"
6400,342,1.0,8,2,47.399038314819336,8.934097290039062,3495,26112,237631,1505034,"[ 2  0  2  0  0  3  4  1  0  0  1  3  5  2  1  0  2  1  3  0  6  3  4  8
  3  4  7  5  7  5  0  9  5  3  3  5  2  0  3  5 13 12  0  5  5  5 10  3
  3 14 14  5  9 16  1 16  9  4  1  0  5  2 16  3  0 23  4 19  1  2 23  1
  2  0  0 14 12 21  7]"
6500,342,1.0,8,2,48.262757539749146,8.637192249298096,3542,26512,240218,1525510,"[ 2  0  2  0  0  3  2  1  0  0  1  3  0  2  1  0  2  1  4  8  3  3  0  8
  3  4  7  3  7  7  0  9  5  4  2 11  2  0  3  3 13  9  2  2  5  2 17 18
  5 14 18  5  9 16  1 16 16  1  2 10  1 16 17  3 18  1  5 16  0  4 23  3
  2 15 17 14 12 21  7]"
6600,342,1.0,8,2,49.26155066490173,9.987931251525879,3609,26912,242515,1543774,"[ 2  0  2  0  0  3  2  1  0  0  1  3  4  3  1  0  2  1  1  2  7  3  8  8
  3  4  7  0  4  1  0  9  5  4  4 11  2  0  3  4  9 11  5 11  5  2 17 10
  0  0  9  5  9 16  3 11  9  3  1 10  3 15 17  0  0 22  5  1  0  4 15  2
  2 15 19 14 12 21  7]"
6700,342,1.0,8,2,49.89332056045532,6.317698955535889,3659,27312,244887,1562491,"[ 0  1  2  0  0  3  2  2  0  0  1  3  0  2  1  0  2  1  4  2  7  0  8  5
  3  6  7  0  5  6  0  9  5  2  4 11  2  0  3  2 11  1  1 13  8  2 16  1
  0 18  2  5  9 16  3 10  3  0 17  0  3  3 20  3 23 19  5 19 16  4 20  0
  0 21  1 14 12 21  7]"
6800,342,1.0,8,2,50.69002938270569,7.967088222503662,3722,27712,247122,1580064,"[ 0  1  3  0  0  3  2  2  0  0  1  3  5  2  1  0  2  1  5  7  3  4  0  7
  3  6  7  0  1  6  0  9  5  2  9 11  2  0  3  1  1 10  1  0  2  0 12 10
  5 16 11  5  9 16  3 10 12  1 12  0  3  3 15  3 19 22  0 19 17  3 23  3
  5  3 21 14 12 21  7]"
6900,342,1.0,8,2,51.31238317489624,6.223537921905518,3780,28112,249264,1596939,"[ 4  1  0  0  0  3  2  2  0  0  1  3  0  2  1  0  2  1  3  8  5  5  7  7
  3  6  7  5  4  1  0  9  5  4  2  1  2  0  3  2  5  4  1  6 13  0 12 13
  5 14  3  5  9 16  0  1  2  3 17  1  3 15 15  1 19 17  3 15 20  2  1 18
  1  3 17 14 12 21  7]"
7000,342,1.0,8,2,52.064189195632935,7.518060207366943,3834,28512,251639,1615789,"[ 4  1  1  0  0  3  2  2  0  0  1  3  3  2  1  0  2  1  0  7  5  5  1  4
  3  6  7  1  6  2  0  9  5  0  9  3  2  0  3  2  0  2  5  3 11  2  1  9
  1 14  3  5  9 16  0  1  0  3 12  1  0 17 14  3 19  3  2 15 20  3 19 18
  4 17 15 14 12 21  7]"
7100,342,1.0,8,2,52.840646266937256,7.764570713043213,3884,28912,253982,1634257,"[ 1  3  0  0  0  3  2  2  0  0  1  3  0  2  1  0  2  1  1  1  0  4  5  4
  3  6  7  1  5  3  0  9  5  2  5  3  2  0  3  0 10  7  5  9 13  1 12 14
  1 11 17  5  9 16  5  1  2  3 12  1  1 20 14  5 17 22  5 20  0  3 21  1
  1  3  0 14 12 21  7]"
7200,342,1.0,8,2,53.47435808181763,6.337118148803711,3931,29312,256333,1652843,"[ 0  3  0  0  1  3  2  2  0  0  1  3  0  3  1  0  2  1  4  4  4  3  2  1
  3  6  7  2  7  4  0  9  4  4  3  1  2  0  3  5  4  3  2 12  1  3 12 13
  5 17 15  5  9 16  5 17 16  5  0 11  4 17  2  0 21 17  0 16  2  5 21 14
  5 23 15 14 12 21  7]"
7300,342,1.0,8,2,54.078866958618164,6.045088768005371,3991,29712,258677,1671232,"[ 0  3  0  5  1  2  2  2  0  0  1  3  2  3  1  0  2  1  4  4  2  3  6  1
  3  6  7  1  0  8  0  9  4  5 12 10  2  0  3  0 12 12  5  6  1  3 12 16
  2 12  1  5  9 16  4  1 16  0 16 11  4 20 23  2  2  1  0 23 14  1 15 15
  4 14  1 14 12 21  7]"
7400,342,1.0,8,2,54.63083362579346,5.51966667175293,4049,30112,261116,1690445,"[ 0  3  0  0  3  1  2  2  0  0  1  3  2  2  1  0  2  1  2  4  2  3  4  1
  3  6  7  4  4  0  0  9  4  0  5  8  2  0  3  5 12  5  2 11  0  4 17 15
  2  2  2  5  9 16  1  1 16  0  1 11  0 20 23  4 21  3  2 22 22  3 15 19
  2 15  1 14 12 21  7]"
7500,342,1.0,8,2,55.1847038269043,5.538702011108398,4100,30512,263565,1709886,"[ 0  3  0  2  3  1  2  2  0  0  1  3  5  2  1  0  2  1  2  6  7  3  4  1
  3  6  7  1  4  5  0  9  4  5  1 11  2  0  3  5  6 13  2  4  0  4 18 10
  1 12 11  5  9 16  3  1 18  3 12 11  3  1 21  3 21 14  2  2 22  1  1 20
  5  0 20 14 12 21  7]"
7600,342,1.0,8,2,55.700934171676636,5.162303447723389,4149,30912,265982,1729068,"[ 0  3  0  3  0  0  2  2  0  0  1  3  2  2  0  0  2  1  0  3  7  5  3  1
  3  6  7  1  0  1  0  9  4  0  8 11  2  0  3  1 12 13  2 12  4  2 17 15
  4 12  0  5  9 16  3 17 18  3  0 16  3  3  1  2 16 22  3 22 17  0  1 20
  2  0 16 14 12 21  7]"
7700,342,1.0,8,2,56.34151101112366,6.405768394470215,4200,31312,268358,1747848,"[ 0  3  0  1  1  0  2  2  0  0  1  3  3  0  3  0  2  1  3  3  0  3  3  2
  3  6  7  2  3  1  0  9  4  0  4 13  2  0  3  4 11  2  1 11 12  4 18  2
  0  1  0  5  9 16  4 14  1  3 16  0  2 16  1  3 19 20  4  0 14  4 21  3
  4 23 21 14 12 21  7]"
7800,342,1.0,8,2,57.161354541778564,8.198435306549072,4250,31712,270677,1766174,"[ 0  3  0  0  1  1  2  2  0  0  1  3  0  0  1  0  2  1  2  2  4  4  3  8
  3  6  7  2  4  7  0  9  4  1  4  1  2  0  3  3  3 11  2  9  4  0  2 15
  1 16 15  5  9 16  4 14 18  0  0 12  2 16  3  2 19  2  3  0  2  1 21  2
  3 23  1 14 12 21  7]"
7900,342,1.0,8,2,57.883907079696655,7.225525379180908,4299,32112,273044,1784939,"[ 0  3  0  5  1  2  2  2  0  0  1  3  0  3  1  0  2  1  1  0  7  0  3  8
  3  6  7  3  4  7  0  9  4  2  4 10  2  0  3  4 10 11  3 11  2  4 14 11
  5 12  9  5  9 16  5 14 17  5 12  1  1  2  3  2 22 17  5 20 18  1 20  1
  4 19  2 14 12 21  7]"
8000,342,1.0,8,2,58.46740388870239,5.834968090057373,4344,32512,275480,1804147,"[ 2  3  3  0  0  3  2  2  0  0  1  3  4  2  3  0  2  1  2  8  4  5  1  4
  3  6  7  5  0  4  0  9  5  5  6 11  2  0  3  1 13  2  5 11 10  4 17  9
  5  9 15  5  9 16  3 10 18  0 13 14  2  3 17  1  1 15  5 20 14  1 23  1
  0 23 14 14 12 21  7]"
8100,342,1.0,8,2,58.98397445678711,5.165705680847168,4401,32912,277736,1822061,"[ 0  2  3  0  0  3  2  2  0  0  1  3  2  2  3  0  2  1  5  7  8  5  0  1
  3  6  7  4  6  6  0  9  5  5  9  5  2  0  3  1 12 13  5 10 10  4 15  1
  5  9 11  5  9 16  4 13 15  5 14 16  3  3 17  3  3  2  0  1 23  5 21 14
  1 14 14 14 12 21  7]"
8200,342,1.0,8,2,59.55421543121338,5.702409744262695,4445,33312,280357,1842762,"[ 5  3  3  0  0  3  2  2  0  0  1  3  2  2  3  0  2  1  1  2  8  3  2  1
  3  6  7  5  6  4  0  9  5  3 10  5  2  0  3  5  9  1  0 10 10  4  0  9
  5  3  2  5  9 16  2 13 18  3  2 10  3 17 17  3  3  2  2 14 22  1 21 19
  0 16 16 14 12 21  7]"
8300,342,1.0,8,2,60.101032733917236,5.468173027038574,4499,33712,282613,1860675,"[ 0  3  3  5  1  2  2  2  0  0  1  3  0  0  3  0  2  1  1  5  4  0  1  3
  3  6  7  5  1  1  0  9  8  4  2 11  2  0  3  5  9  1  5 11  2  4  0 10
  0 15 11  5  9 16  1  9 18  5 14 12  1 18 22  0  3 17  3 22  3  1 16 14
  0 14 17 14 12 21  7]"
8400,342,1.0,8,2,60.60780358314514,5.067708492279053,4562,34112,284718,1877404,"[ 0  1  3  2  3  0  2  2  0  0  1  3  0  0  3  0  2  1  1  5  0  2  5  2
  3  6  7  5  6  6  0  9  8  4  2  2  2  0  3  0  9  1  0 13 10  3 16 10
  4  1  3  5  9 16  5 12 12  4 16 15  2 19 21  0  1 18  2 16 17  1 16 19
  4  2 16 14 12 21  7]"
8500,342,1.0,8,2,61.12342929840088,5.156257152557373,4619,34512,287112,1896249,"[ 5  2  2  5  0  1  2  2  0  0  1  3  0  0  3  0  2  1  3  5  4  2  5  2
  3  6  7  2  3  6  0  9  8  0 13  2  2  0  3  0  6  7  1 10  3  4  9 18
  4 18 11  5  9 16  2  0 12  0  9  2  0  1 23  2 20 16  3 21 23  2 21  2
  3  2 16 14 12 21  7]"
8600,342,1.0,8,2,61.670172929763794,5.46743631362915,4672,34912,289553,1915585,"[ 4  3  3  5  0  0  2  2  0  0  1  3  0  0  3  0  2  1  3  4  7  2  6  2
  3  6  7  2  3  8  0  9  8  1  8  8  2  0  3  4  6  4  1 13  4  5 13 13
  2  0  2  5  9 16  2 16 12  5  2 18  0  1  2  2 20 15  1 15 19  1 14  2
  5  2 22 14 12 21  7]"
8700,342,1.0,8,2,62.247188091278076,5.770151615142822,4723,35312,291984,1934728,"[ 4  0  3  4  2  1  2  2  0  0  1  3  0  0  3  0  2  1  2  4  0  0  3  0
  3  6  7  4  2  2  0  9  8  1  3  0  2  0  3  4 10 10  3 11  6  5 13 10
  1 14  0  5  9 16  4  2 12  4 11  9  4  1 18  5 23 21  1 15  1  1 22 19
  5 22 15 14 12 23  7]"
8800,342,1.0,8,2,62.86840462684631,6.212165355682373,4780,35712,294511,1954612,"[ 2  0  2  4  0  1  2  2  0  0  1  3  0  0  3  0  2  1  2  3  3  0  3  0
  3  6  7  2  1  2  0  9  8  2 11  9  2  4  3  3  2 10  4 11  6  4 13 10
  4 14 18  3 10  0  0 18  2  4 11  9  4  3 18  1 23 21  0 20 20  4 21 21
  3 15  0 14 12 23  7]"
8826,343,1.0,7,2,63.03269910812378,6.3190185106717625,4795,35816,295145,1959619,"[ 4  0  2  4  0  2  2  2  0  0  1  3  0  0  3  0  2  1  2  5  3  0  3  0
  3  6  7  2  1  2  0  9 11  2 11  9  4  4  3  5  6  5  4 11 12  4 11  3
  4 14 18  3 10  0  0 18  2  4 11  9  4  3 18  1 23 21  4 20 20  2 21 21
  3 15  0 14 12 23  7]"
