generation,fitness,functionality,active_nodes,longest_path,time,gen_time,nc_gens,fitness_evals,graph_evals,node_evals,genotype
0,209.0,0.59375,8,3,0.013596057891845703,13.590812683105469,0,0,0,0,"[ 4  1  1  4  2  1  0  0  0  4  0  3  0  3  0  4  2  3  2  7  5  0  8  8
  5  2  0  1  1  2  2 13  7  0  4  1  4  8  3  0  3  8  0  1  8  1 15 14
  4  1 14  3  2  0  0 11  3  2 15 11  0  3 16  4 15 19  5  1  0  0 14  2
  2 18 14  0  0 28 24]"
56,341,1.0,8,3,12.247002601623535,218.45362016132898,0,14336,169359,932866,"[ 0  2  2  2  2  1  5  2  2  0  0  1  0  3  0  5  7  7  3  0  3  0  7  8
  2  2  0  4  2  2  5  7  3  0  8  1  5  8  5  0  6  1  0  1  3  5  3  3
  4 13  9  2  0 10  3 12 15  0 15  2  1  0 19  2 18 14  2 22  2  2 16  2
  4  1 21 23 22 16 18]"
100,341,1.0,8,3,18.930279970169067,151.89259160648695,0,25600,229888,1414216,"[ 5  3  1  2  2  1  1  2  1  4  0  3  0  3  0  4  8  7  1  0  3  0  5  8
  2  2  0  1  2  0  1  2 10  0  8  1  5  8  5  4  3  6  0  1  3  3  1  3
  1  0  2  0 10 12  3 12 15  0 15  2  1 18 20  2  3 16  5 22  3  2  0 20
  1 20 21 23 22 16 18]"
200,341,1.0,8,3,34.23709511756897,153.06811809539795,0,51200,368189,2512504,"[ 1  3  2  2  2  1  3  1  0  4  0  0  0  3  0  3  5  3  2  6  0  0  0  6
  2  2  0  0  1  5  4  9 12  0  8  1  5  8  5  3  3  1  0  1  3  2 16 16
  2 15  1  4 16 17  3 12 18  0 15  2  1  3 18  0 19 16  5  1  2  5  0 18
  2 18 21 23 22 16 18]"
300,341,1.0,8,3,49.55776882171631,153.20670366287231,0,76800,507462,3618001,"[ 5  1  1  2  2  1  5  0  3  1  3  3  0  3  0  5  2  6  2  5  2  4  8  2
  2  2  0  4  3  4  4 10  6  0  8  1  5  8  5  2  2  0  0  1  3  1  9 14
  2  2 10  3  2 17  3 12 15  0 15  2  1 16  2  1  1 21  0 22 19  2 16  0
  3 23 17 23 22 16 18]"
400,341,1.0,8,3,64.91945910453796,153.61686944961548,0,102400,647289,4730829,"[ 5  3  3  2  2  1  1  3  2  0  0  2  0  3  0  3  5  6  1  4  2  1  4  0
  2  2  0  1  8  5  5  8 13  0  8  1  5  8  5  0 11  1  0  1  3  4  9 15
  1 11  9  3  1 17  3 12 15  0 15  2  1 21 15  1 19  2  0 22 19  1  0 18
  2  3  0 23 22 16 18]"
500,341,1.0,8,3,80.37904047966003,154.59578037261963,0,128000,788714,5853772,"[ 0  3  2  2  2  1  1  2  2  2  1  2  0  3  0  3  8  0  2  0  4  5  6  0
  2  2  0  3  1  1  2  8  6  0  8  1  5  8  5  2 13  6  0  1  3  2 14 12
  3 18  0  3 13  2  3 12 15  0 15  2  0 15 18  1 16 21  0 23  2  1  1 22
  0 22 23 23 22 16 18]"
600,341,1.0,8,3,95.67349529266357,152.94450998306274,0,153600,927504,6959435,"[ 3  1  3  2  2  1  2  0  3  2  2  1  0  3  0  2  8  1  2  6  8  2  2  7
  2  2  0  0  7  4  1  9  3  0  8  1  5  8  5  5  4  9  0  1  3  4  1  1
  3 12 12  1 13 15  3 12 15  0 15  2  2 22 19  5 22  3  5 18  1  5 23 18
  1 19 16 23 22 16 18]"
700,341,1.0,8,3,111.00565481185913,153.3215618133545,0,179200,1066153,8062813,"[ 4  3  0  2  2  1  3  3  3  0  0  3  0  3  0  0  1  7  0  5  8  3  3  7
  2  2  0  3  4  2  3 10 12  0  8  1  5  8  5  4  6 12  0  1  3  1 10  1
  3  9 11  4  3 14  3 12 15  0 15  2  2  3 15  4  0 21  2  2 20  1  3 18
  3 21 20 23 22 16 18]"
800,341,1.0,8,3,126.20457291603088,151.98914766311646,0,204800,1203514,9155899,"[ 5  0  1  2  2  1  3  1  3  0  1  0  0  3  0  3  2  2  0  8  6  1  6  8
  2  2  0  2  6  1  3 10  5  0  8  1  5  8  5  0  3  5  0  1  3  4 16 18
  1 11  9  2  9 18  3 12 18  0 15  2  0 15  3  4 17 22  5 22  2  3 14 23
  4 21 21 23 22 16 18]"
900,341,1.0,8,3,141.52861976623535,153.2404327392578,0,230400,1342593,10259733,"[ 1  3  1  2  2  1  2  3  3  5  2  1  0  3  0  0  1  5  2  4  8  2  4  0
  2  2  0  5  5  0  3  6  3  0  8  1  5  8  5  4  0 12  0  1  3  5 15 18
  0 18  9  4 16 15  3 12 15  0 15  2  1  1 22  5 15 17  5  3 21  3 15 16
  2  1 16 23 22 16 18]"
1000,341,1.0,8,3,156.8420648574829,153.13441038131714,0,256000,1481095,11361619,"[ 1  3  0  2  2  1  1  3  1  1  1  0  0  3  0  2  2  8  3  0  1  2  6  0
  2  2  0  0  1  0  0  6 10  0  8  1  5  8  5  2  1  3  0  1  3  5 15  1
  0  9  1  2 18 11  3 12 15  0 15  2  0  3  1  4 19 18  2 14 21  5  2 20
  3 23 18 23 22 16 24]"
1100,341,1.0,8,3,172.12672352790833,152.84655094146729,0,281600,1619209,12462233,"[ 1  2  2  2  2  1  4  3  0  2  2  0  0  3  0  2  3  2  2  0  2  2  0  5
  0  2  3  3  4  7  4 11 13  0  8  1  5  8  5  1  1  4  4 11  4  1 15 12
  0 12 16  2 15 11  3 10 15  0 15  2  0  3  1  4  0  2  2 20 19  0  0 19
  3  1 21 23 22 16 24]"
1200,341,1.0,8,3,187.38022828102112,152.53500938415527,0,307200,1756069,13554437,"[ 4  1  3  2  2  1  2  3  2  2  0  0  0  3  0  1  7  6  2  0  2  4  0  5
  5  8  5  0  4  2  4 10 10  0  8  1  5 10  5  1 12  9  3  6 12  3 15 13
  2 12 14  1 17 15  3 10 15  0 15  2  0  3  1  3 22 14  4 22 18  3 18  1
  5  3 21 23 22 12 24]"
1300,341,1.0,8,3,202.58996963500977,152.0973777770996,0,332800,1894116,14654467,"[ 4  3  2  2  2  1  4  3  1  0  2  0  0  3  0  1  1  4  2  0  2  4  5  1
  5  8  5  3  7  2  4 12  2  0  8  1  5  4  2  2  9  4  5  5  3  0 18 18
  5  3  9  5 18 15  3 10 15  0 15  2  0  3  1  3  1 16  2 18 18  0 19  1
  2 19 16 23 22 12 24]"
1400,341,1.0,8,3,217.74665880203247,151.56685590744019,0,358400,2031912,15751523,"[ 0  0  3  2  2  1  3  1  2  2  0  1  0  3  0  4  5  1  2  0  2  2  4  3
  5  8  5  0  4  4  5  4  1  0  8  1  4  9 12  4  7 13  4 13  9  0 12  3
  1  3  1  5 16 17  3 10 15  0 15  2  0  3  1  5  2 19  1  2 23  1 21 19
  5 20 23 23 22 12 24]"
1500,341,1.0,8,3,232.90052390098572,151.53861045837402,0,384000,2168809,16844150,"[ 2  3  3  2  2  1  3  2  2  2  0  0  0  3  0  5  4  1  2  0  2  4  4  1
  5  8  5  3  4  5  5  4 10  0  8  1  2 13 11  0 10 13  3 11  3  4 11 18
  2 14 12  1  2 15  3 10 15  0 15  2  0  3  1  4  1  1  5 16 23  1  3 21
  3 17  3 23 22 12 24]"
1600,341,1.0,8,3,248.0802299976349,151.79702281951904,0,409600,2306873,17943817,"[ 3  2  0  2  2  1  1  3  2  4  1  0  0  3  0  5  4  2  2  0  2  4  8  7
  5  8  5  2  6  3  3  9  7  0  8  1  5  2  1  4  2  0  5 12 10  5 12  3
  0 17 11  3 10 15  3 10 15  0 15  2  0  3  1  4 22 22  0  3  1  5 21  2
  2 18 20 23 22 12 26]"
1700,341,1.0,8,3,263.2914822101593,152.11248874664307,0,435200,2444697,19043728,"[ 5  3  3  2  2  1  3  0  3  3  2  2  0  3  0  1  4  2  2  0  2  4  5  7
  5  8  5  0  1  1  1  6  8  0  8  1  2  0  1  5 13 13  2  9  3  1 12 17
  3  0 13  5 15  0  3 10 15  0 15  2  5 21 22  5 22 19  0  3  1  0 15 22
  3 15 21 23 22 12 26]"
1800,341,1.0,8,3,278.5441813468933,152.526957988739,0,460800,2583550,20148813,"[ 3  3  1  2  2  1  5  2  2  0  2  3  0  3  0  2  7  2  2  0  2  1  3  3
  5  8  5  1  3  1  2 13  4  0  8  1  1  2 12  4  4  8  3 13  5  4  2  2
  1  9  2  4 10 11  3 10 15  0 15  2  4 19 17  3 17 22  0  3  1  1 21  0
  5 23 23 23 22 12 26]"
1900,341,1.0,8,3,293.74681067466736,152.02625274658203,0,486400,2722134,21250103,"[ 1  0  0  2  2  1  2  3  3  5  2  1  0  3  0  0  6  1  2  0  2  2  3  5
  5  8  5  5  3  5  5  0  0  0  8  1  5  3  2  1  7 10  0  9 10  2  0  0
  5  3  0  2  9 12  3 10 15  0 15  2  1 20 14  1 17 15  0  3  1  0 23  0
  5 17 14 23 22 12 26]"
2000,341,1.0,8,3,308.99625730514526,152.49442338943481,0,512000,2860909,22355513,"[ 4  1  1  2  2  1  0  1  3  0  2  0  0  3  0  4  6  1  2  0  2  2  2  5
  5  8  5  2  8  7  3  0  7  0  8  1  0  0  0  5 12 10  4  0  5  5 10 14
  3  1 14  5  9  3  3 10 15  0 15  2  5 20  2  1  1 22  0  3  1  5 23  0
  5 15  3 23 22 12 26]"
2100,341,1.0,8,3,324.2787184715271,152.82456636428833,0,537600,2999782,23462107,"[ 2  2  2  2  2  1  0  1  2  0  2  1  0  3  0  3  2  7  2  0  2  0  5  1
  5  8  5  2  2  0  3 13  9  0  8  1  4  3  6  3 11  9  1  0  4  1  2  0
  3  9  9  0  1  9  3 10 15  0 15  2  4 18 23  2  1 15  0  3  1  2  2 22
  1 15  1 23 22 12 26]"
2200,341,1.0,8,3,339.5486717224121,152.69949436187744,0,563200,3138541,24567451,"[ 0  1  2  2  2  1  0  3  1  3  0  3  0  3  0  1  5  5  2  0  2  2  3  8
  5  8  5  3  3  1  1  5  8  0  8  1  1 11 13  5 11  0  4 13  4  1  1  1
  4  1 18  0  2 11  3 10 15  0 15  2  1 17  3  0  0  3  0  3  1  4 20 18
  1 17 15 23 22 12 26]"
2300,341,1.0,8,3,354.68273544311523,151.34060382843018,0,588800,3275972,25660601,"[ 4  3  0  2  2  1  1  1  3  1  3  2  0  3  0  2  5  0  2  0  2  5  5  8
  1  2  4  2  3  3  3  0  7  0  8  1  5 11 13  1  1  3  4  9 12  2 16 11
  4  0 13  1 10 16  3 10 15  0 15  2  1 15  3  0 16  2  0  3  1  1 19 23
  3 14 21 23 22 11 26]"
2400,341,1.0,8,3,369.8364245891571,151.53684854507446,0,614400,3413666,26756174,"[ 1  3  1  2  2  1  1  2  2  0  2  3  0  3  0  3  2  0  2  0  2  5  5  8
  4  8  2  4  0  3  5  3  4  0  8  1  4 11  3  0  2  1  1 11  4  2  1 18
  4 15 12  3 10 11  3 10 15  0 15  2  2 23  1  2 16 21  0  3  1  4 19 20
  1 17 22 23 22 11 26]"
2500,341,1.0,8,3,385.0427577495575,152.0632791519165,0,640000,3550892,27851322,"[ 3  0  0  2  2  1  5  3  2  5  1  0  0  3  0  2  8  3  2  0  2  5  5  8
  4  2  8  4  5  5  4  5 12  0  8  1  3  6 13  3  1  3  3  3  9  0  2 17
  1 17 17  5  2  0  3 10 15  0 15  2  3  1 16  5  2 15  0  3  1  3 19 22
  2  2 16 23 22 11 26]"
2600,341,1.0,8,3,400.240083694458,151.97322130203247,0,665600,3688781,28949310,"[ 4  1  2  2  2  1  1  1  0  2  0  3  0  3  0  2  3  6  2  0  2  5  5  8
  0  0  0  2  5  0  5  9  5  0  8  1  2 11 10  0  3  6  5  8  4  2 12 15
  3  9 17  3  0  2  3 10 15  0 15  2  3  1 22  2 14 16  0  3  1  3  3 21
  0  2 16 23 22 11 26]"
2700,341,1.0,8,3,415.48729944229126,152.47212409973145,0,691200,3827355,30053667,"[ 5  0  3  2  2  1  1  0  3  5  1  1  0  3  0  0  3  6  2  0  2  5  5  8
  3  2  7  0  5  0  3  5  4  0  8  1  5  9  2  3  0  0  0  8  2  1 15  2
  4 12  1  0 12  1  3 10 15  0 15  2  0 17  2  3 15 18  0  3  1  5 20 21
  0  1 18 23 22 11 26]"
2800,341,1.0,8,3,430.6246802806854,151.373770236969,0,716800,3964625,31146893,"[ 5  1  3  2  2  1  2  0  0  5  0  3  0  3  0  3  3  5  2  0  2  5  5  8
  0  4  3  2  1  0  4  3 12  0  8  1  0  4 12  4  9  6  2 11  2  0  0 18
  1 12 11  3 10  1  3 10 15  0 15  2  5 16  3  5 23  1  0  3  1  5 17 18
  3 14  2 23 22 11 26]"
2900,341,1.0,8,3,445.68048119544983,150.55797338485718,0,742400,4100345,32229151,"[ 2  0  3  2  2  1  3  0  2  1  3  1  0  3  0  2  0  2  2  0  2  5  5  8
  4  5  3  3  7  3  5 10 12  0  8  1  1 10 10  5  2  9  5  0 10  0 10 18
  3 14 18  3  9 16  3 10 15  0 15  2  0 23 19  4 19 21  0  3  1  5  3 21
  5 20 14 23 22 11 26]"
3000,341,1.0,8,3,460.92427682876587,152.43792057037354,0,768000,4238944,33332801,"[ 4  1  3  2  2  1  5  0  2  3  0  3  0  3  0  4  6  2  2  0  2  5  5  8
  3  8  3  3  3  8  0  5  2  0  8  1  1 10 10  5  5  8  0 10 13  1 10 13
  2 18 16  5 17 13  3 10 15  0 15  2  4 23  3  1 15 18  0  3  1  0 15 21
  5 17  0 23 22 11 26]"
3100,341,1.0,8,3,476.15895676612854,152.34676837921143,0,793600,4377695,34437626,"[ 3  1  3  2  2  1  3  3  2  3  0  2  0  3  0  4  6  6  2  0  2  5  5  8
  4  6  8  3  6  4  5  7  1  0  8  1  2  2  5  0  8  0  0  7 12  0 13 18
  4 17 15  0 11 17  3 10 15  0 15  2  5 17 22  3 23 15  0  3  1  3 19 21
  0 17 16 23 22 11 26]"
3200,341,1.0,8,3,491.4507665634155,152.91805982589722,0,819200,4516783,35546629,"[ 1  3  3  2  2  1  2  3  3  0  0  3  0  3  0  4  0  3  2  0  2  5  5  8
  5  3  0  1  7  5  3  8 11  0  8  1  3  2  1  4  7  8  5 13  8  0 14  2
  2 10 10  3 14  3  3 10 15  0 15  2  5  3  3  2 18 17  0  3  1  2 21 19
  0 20 15 23 22 11 26]"
3300,341,1.0,8,3,508.3427107334137,168.91824960708618,0,844800,4653591,36637608,"[ 2  3  3  2  2  1  3  3  3  2  1  0  0  3  0  5  5  4  2  0  2  5  5  8
  5  6  5  1  1  5  3  4  1  0  8  1  3 12 11  4  3  8  5 11 11  4 14  2
  2  9  1  1  9 10  3 10 15  0 15  2  5 21 17  3  0 22  0  3  1  3 19 19
  3 16  0 23 22 11 26]"
3400,341,1.0,8,3,525.4212419986725,170.78458070755005,0,870400,4789037,37720051,"[ 5  3  0  2  2  1  5  3  3  2  3  0  0  3  0  0  3  6  2  0  2  5  5  8
  4  3  4  2  5  2  2  0  4  0  8  1  4 11  6  0 11  1  3  4  7  3 11 14
  1 11 18  4 17 12  3 10 15  0 15  2  0  3 21  5  0 19  0  3  1  4  0 19
  4 14 14 23 22 11 26]"
3500,341,1.0,8,3,540.6056880950928,151.84442520141602,0,896000,4925580,38809355,"[ 2  2  2  2  2  1  5  1  2  5  1  0  0  3  0  1  5  5  2  0  2  5  5  8
  1  7  7  1  2  2  2 12  3  0  8  1  1  8  1  0  8  5  0  6  8  4  2 14
  5 15 11  4  1  0  3 10 15  0 15  2  4 18 23  1 20 19  0  3  1  3  0 17
  3 18 15 23 22 11 26]"
3600,341,1.0,8,3,555.7843358516693,151.78644180297852,0,921600,5063134,39905489,"[ 0  1  3  2  2  1  2  1  3  1  0  3  0  3  0  0  4  5  2  0  2  5  5  8
  5  3  2  0  1  2  5  7  6  0  8  1  5  2 12  0  5 11  1 10  0  0 10  2
  3 11  0  1 16 15  3 10 15  0 15  2  2 19 17  2  3  0  0  3  1  3 15 19
  3 14  3 23 22 11 26]"
3700,341,1.0,8,3,571.0541250705719,152.697856426239,0,947200,5202192,41013244,"[ 5  0  3  2  2  1  4  2  3  4  1  2  0  3  0  0  7  7  2  0  2  5  5  8
  4  7  2  3  3  8  0  4  2  0  8  1  4 13  0  4  0  7  1  1  5  1 10  9
  5  1 15  1  3 18  3 10 15  0 15  2  0 16 16  1  3 21  0  3  1  5 20 22
  4  1  3 23 22 11 26]"
3800,341,1.0,8,3,586.1687867641449,151.14657878875732,0,972800,5338973,42102868,"[ 0  3  1  2  2  1  3  0  3  3  3  3  0  3  0  3  3  2  2  0  2  5  5  8
  4  2  1  0  3  5  5 13  2  0  8  1  4  6  7  0 13  9  5  4  7  2 15 18
  5 18 17  2  3  9  3 10 15  0 15  2  3 21 21  1 17 15  0  3  1  4 20 20
  0  1 19 23 22 11 26]"
3900,341,1.0,8,3,601.3257386684418,151.56949043273926,0,998400,5476330,43198037,"[ 5  1  3  2  2  1  5  0  0  5  1  1  0  3  0  4  4  7  2  0  2  5  5  8
  5  1  1  5  0  2  3  7  6  0  8  1  5  2 12  4  5  1  0 13  4  3 11  2
  0  0 17  5 10 11  3 10 15  0 15  2  3 21  2  1 23  3  0  3  1  0 15 19
  5 20 17 23 22 11 26]"
4000,341,1.0,8,3,616.5432720184326,152.17530012130737,0,1024000,5614537,44299378,"[ 3  1  3  2  2  1  2  3  0  4  1  2  0  3  0  4  7  0  2  0  2  5  5  8
  4  2  7  4  6  2  2  3  5  0  8  1  5 11  2  1 11 10  2  0  2  5 15 17
  2 14  3  5  1 18  3 10 15  0 15  2  2 21  0  3 17 18  0  3  1  4 18  0
  5  1  2 23 22 11 26]"
4100,341,1.0,8,3,632.0767405033112,155.33464908599854,0,1049600,5757305,45436125,"[ 0  1  3  2  2  1  5  3  0  2  1  1  0  3  0  2  0  7  3  6  6  5  5  8
  1  6  0  4  0  3  4  8  2  0  8  1  1 12  2  3  4  3  2  0  2  3  3 14
  1 18 13  1  3  1  3 18 15  0 15  2  5 16 20  0  2 20  3  2 23  4 19 17
  3  3 14 23 22 11  4]"
4200,341,1.0,8,3,647.5645203590393,154.87775564193726,0,1075200,5899217,46566770,"[ 0  1  3  2  2  1  5  3  0  2  3  2  0  3  0  1  5  3  5  2  7  5  5  8
  2  2  8  5  4  3  5 10 11  0  8  4  1 10  4  3 13  6  2  0  2  3  2 18
  5 18 13  4  3 10  3 18 15  0 15  2  2 16 15  5  3 19  0 20 19  5 18 20
  5 15 18 23 22 11  4]"
4300,341,1.0,8,3,663.2905404567719,157.26016998291016,0,1100800,6043939,47716243,"[ 0  1  3  2  2  1  5  2  2  1  1  3  0  3  0  3  3  0  5  0  7  5  5  8
  2  2  4  4  7  1  3  0 11  0  8  1  4 10  1  2  6  4  2  0  2  3 15 13
  5  3 13  0 13 14  3 18 15  0 15  2  0  2  3  1 17 23  2 15 21  0 18 16
  4 20 18 23 22 11  4]"
4400,341,1.0,8,3,678.9896874427795,156.99143171310425,0,1126400,6189011,48870344,"[ 0  1  3  2  1  0  4  2  0  2  1  2  0  3  0  3  5  3  0  5  7  5  7  8
  3  6  5  4  7  7  4  4 10  0  8  1  5  5  2  3  6  9  2  0  2  4  3 10
  4 14 15  0 18 11  3 18 15  0 15  2  2  2 15  0  0 19  5  1 18  2 18 22
  1  2 20 23 22 11  4]"
4500,341,1.0,8,3,694.6283142566681,156.38623237609863,0,1152000,6333206,50019040,"[ 0  1  3  2  1  0  4  1  3  2  1  2  0  3  0  3  0  4  1  1  4  5  7  8
  2  1  5  0  3  7  2  5 12  0  8  1  4  9  0  3 12  3  2  0  2  2  0 14
  4 17 15  5  9 15  3 18 15  1 14 10  0  2 15  0 19  3  5 23 21  2 20 22
  1 15 22 24 22 11  4]"
4600,341,1.0,8,3,710.1627240180969,155.34406185150146,0,1177600,6475978,51155186,"[ 0  1  3  2  2  1  3  2  2  2  1  2  0  3  0  3  0  1  1  0  4  5  7  8
  4  1  4  4  1  0  2  4 12  0  0  4  1 11  3  4  0  7  2  0  2  4  9 18
  5 10  1  0 16 11  3 18 15  2  2 14  0  2 15  5  3 17  4  3 16  5  3  0
  1 16 20 24 22 11  4]"
4700,341,1.0,8,3,725.6595578193665,154.96830463409424,0,1203200,6618359,52288008,"[ 0  1  3  4  2  2  4  2  2  2  1  2  0  3  0  5  2  0  1  8  2  5  7  8
  3  1  6  0  0  4  5  1  2  0  8  4  1  6  8  4  0 10  2  0  2  3  2 15
  3  3 12  1 12  0  3 18 15  1  3 17  0  2 15  1  2 17  2  3 19  3 19 16
  2  3 15 24 22 11  4]"
4800,341,1.0,8,3,741.1775350570679,155.1797342300415,0,1228800,6759921,53415291,"[ 0  1  3  2  1  3  4  2  1  2  1  2  0  3  0  1  4  8  1  8  4  5  7  8
  1  8  0  1  2  3  1 13  3  0  8  4  5  2  8  0  8  4  2  0  2  4  0  1
  3  0  0  3  3 14  3 18 15  1 13 18  0  2 15  1  0  0  1 18  2  5  0 17
  3  2 15 24 22 11  4]"
4900,341,1.0,8,3,756.7210161685944,155.43477535247803,0,1254400,6902533,54548405,"[ 0  1  3  0  1  3  1  2  3  2  1  2  0  3  0  0  4  8  4  4  1  5  7  8
  5  2  5  4  3  4  0  4 11  0  0  4  5  0 12  1  3  8  2  0  2  2  0 18
  0  0  9  5  9 11  3 18 15  4 13 10  0  2 15  0 21 17  4 19  1  3 20 14
  3 23 22 24 22 11  4]"
5000,341,1.0,8,3,772.3223841190338,156.01364374160767,0,1280000,7046139,55687083,"[ 0  1  3  5  1  2  2  0  1  2  1  2  0  3  0  4  6  2  1  6  8  5  7  8
  1  3  1  1  0  0  4  1  9  0  0  4  2  4  7  0  6  8  2  0  2  3 17  0
  4  1 14  2  9 16  3 18 15  0 14 13  0  2 15  2 20  3  3 14 19  5  2  3
  1  3  2 24 22 11  4]"
5100,341,1.0,8,3,787.8943181037903,155.71930646896362,0,1305600,7189869,56826339,"[ 0  1  3  4  1  1  4  0  1  2  1  2  0  3  0  0  3  3  2  1  5  5  7  8
  4  6  1  4  6  8  0  2  3  0  0  4  3  4  8  4  0  1  2  0  2  1 11  3
  5 10  0  1 10 18  3 18 15  4 14 10  0  2 15  2 15  2  0  2 15  1  3 21
  3 15 22 24 22 11  4]"
5200,341,1.0,8,3,803.4174599647522,155.23138523101807,0,1331200,7332092,57956151,"[ 0  1  3  0  0  3  3  1  3  2  1  2  0  3  0  3  2  4  3  0  6  5  7  8
  0  3  4  4  8  5  1  6 13  0  0  4  2  9  3  0  1  9  2  0  2  4 14 16
  3 10  0  0 14 18  3 18 15  4 16 16  0  2 15  3 18 16  0 18 17  4 22 20
  1 21 17 24 22 11  4]"
5300,341,1.0,8,3,818.9077744483948,154.90310907363892,0,1356800,7474326,59084631,"[ 0  1  3  4  1  3  4  2  3  2  1  2  0  3  0  2  8  4  1  5  5  5  7  8
  5  0  6  1  4  6  4  8  0  0  8  1  1 11  7  4  8  2  2  0  2  5  2 13
  0 13  1  2 14  9  3 18 15  3  9  0  0  2 15  4 22 21  1  1 20  5  2 14
  1  3  1 24 22 11  4]"
5400,341,1.0,8,3,834.5427286624908,156.34950637817383,0,1382400,7618004,60228056,"[ 0  1  3  4  3  2  2  2  2  2  1  2  0  3  0  2  1  5  0  6  7  5  7  8
  4  3  6  3  1  4  1  1  5  0  0  4  1  1  5  4 10  2  2  0  2  0  3  0
  5 13  9  5 13 17  3 18 15  3 11  2  0  2 15  4  1  1  1  0 19  1 21 16
  0 22 21 24 22 11  4]"
5500,341,1.0,8,3,849.9613716602325,154.1864037513733,0,1408000,7759680,61353131,"[ 0  1  3  4  3  0  5  1  1  2  1  2  0  3  0  0  7  0  2  1  0  5  7  8
  3  3  8  3  5  4  1  0  6  0  8  1  1  8  7  0  8  2  2  0  2  4  0 18
  5  1 18  3  3  3  3 18 15  4 14 12  0  2 15  5 16 18  1 16 17  2 23  3
  4 19 14 24 22 11  4]"
5600,341,1.0,8,3,865.5367772579193,155.7540225982666,0,1433600,7903376,62495340,"[ 0  1  3  4  0  2  1  1  0  2  1  2  0  3  0  2  1  3  2  1  1  5  7  8
  1  3  4  4  0  0  5  8  0  0  8  1  2  7  4  3  9  1  2  0  2  4  3  9
  5  1  3  4 18 16  3 18 15  4 14 18  0  2 15  2 16 16  4 22 19  4  1 23
  4 20 16 24 22 11  4]"
5700,341,1.0,8,3,880.9005777835846,153.63797187805176,0,1459200,8043868,63610424,"[ 5  0  0  5  3  1  4  3  3  2  1  2  0  3  0  1  4  0  0  1  3  5  7  8
  5  6  2  2  8  6  0  7 13  0  8 10  0 13  0  0  8  1  2  0  2  1  0 10
  0 16  2  1  3 13  3 18 10  3 16 18  0  2 15  5 16  3  3 16 22  3 17 20
  3 20  0 24 22 11 10]"
5800,341,1.0,8,3,896.0965161323547,151.95934295654297,0,1484800,8180708,64700990,"[ 2  3  0  3  1  0  1  1  1  2  1  2  0  3  0  5  7  3  0  1  3  5  7  8
  1  7  5  2  5  8  0  1  9  0  8 10  4 12 12  0 12  1  2  0  2  5  9 10
  4  0 17  1  2 16  3 18 15  3 17 15  0  2 15  0 16 23  2 20 17  4 17 15
  1 16 16 24 22 11 10]"
5900,341,1.0,8,3,911.3638401031494,152.67320156097412,0,1510400,8318827,65799882,"[ 1  3  1  3  1  2  4  3  2  2  1  2  0  3  0  5  6  6  0  1  3  5  7  8
  4  0  7  0  5  1  5  4  9  0  0 10  0  6  2  4 12 12  2  0  2  1  9 15
  4 13 18  0 14 12  3 18 15  5  0 12  0  2 15  5 22 21  3 19 19  0 22 14
  4  3 19 24 22 11 10]"
6000,341,1.0,8,3,926.4753568172455,151.11512660980225,0,1536000,8454641,66880821,"[ 1  2  1  4  3  2  0  3  0  2  1  2  2  3  1  3  4  3  0  1  3  5  7  6
  1  5  5  4  5  1  4  2 12  0  6  1  3  0 10  4 11  5  2  0  2  1  2 15
  2 10  3  2 13 11  3 18 10  5 10 16  0  2 15  4 17  1  3  2 18  4 20 15
  3 22 19 24 22 11 10]"
6100,341,1.0,8,3,941.7680943012238,152.92734146118164,0,1561600,8593724,67987245,"[ 2  1  2  5  0  3  0  3  0  2  1  2  2  2  0  2  1  6  0  1  3  5  7  6
  1  4  6  0  0  1  5  9 11  0  6  1  2 12 12  1  5  8  2  0  2  3 17 16
  4  0 15  2  9  9  3 18 10  2 15 16  0  2 15  5  3 20  3 14 15  4 18  0
  1  3 19 24 22 11 10]"
6200,342,1.0,7,3,955.7752423286438,140.07144451141357,0,1587200,8722662,68941133,"[ 3  3  3  4  3  0  0  3  0  2  1  2  2  1  1  0  6  8  0  1  3  5  7  6
  3  8  6  0  4  2  0  1  3  1  7  6  4  5 12  3  0 11  2  0  2  4 12 10
  5  2 15  5 17  9  3 18 10  2 13 14  0 23  2  1 21  1  3  3 22  3 18 22
  3  1 18 27 22 11 10]"
6300,342,1.0,7,3,969.1962943077087,134.21048164367676,0,1612800,8847797,69818277,"[ 4  3  1  0  0  1  0  3  0  0  2  0  2  1  2  4  1  8  0  1  3  5  8  6
  1  5  6  0  6  2  4  5  9  2 10 12  1 11  5  5 10 10  2  0  2  1  3  2
  0 12 13  0  1 13  3 18 10  1 16 11  0 14  3  1 16  0  5 16 18  5 18 22
  2 14 21 27 22 11 10]"
6400,342,1.0,7,3,982.622261762619,134.2596411705017,0,1638400,8973774,70698982,"[ 5  0  3  0  3  1  0  3  0  1  0  2  2  1  2  2  7  1  0  1  3  5  8  6
  4  6  4  4  7  3  1  1  9  1 10  0  2  4  4  4  3 11  2  0  2  1 10 17
  3 17 18  1 17 18  3 18 10  5 11 16  0 16  2  4  3 16  3  1  3  5 18 22
  1  3 14 27 22 11 10]"
6500,342,1.0,7,3,996.0748319625854,134.52566862106323,0,1664000,9100376,71584366,"[ 2  3  1  1  1  0  0  3  0  2  3  1  2  1  2  5  2  0  0  1  3  5  8  6
  2  6  4  2  2  0  4  5  9  4  6  7  1  0  4  0  0 11  2  0  2  4  2 11
  1  0 11  1 13  3  3 18 10  2 14  0  1  1 17  2 19  0  0  2  1  5 18 22
  3  0  1 27 22 11 10]"
6600,342,1.0,7,3,1009.4765717983246,134.01736497879028,0,1689600,9226467,72465240,"[ 0  2  2  1  0  3  0  3  0  2  1  2  2  1  2  0  7  2  0  1  3  5  8  6
  0  5  2  0  1  1  1 10  9  3 10 10  0  8  4  1 10  1  2  0  2  2 10 11
  5  0 11  4  9  1  3 18 10  3  0 17  5 17 19  4 23 22  2 15  3  5 18 22
  1 22 15 27 22 11 10]"
6700,342,1.0,7,3,1022.7236106395721,132.47035026550293,0,1715200,9349784,73329194,"[ 1  3  2  1  2  1  0  3  0  4  3  3  2  1  2  5  0  8  0  1  3  5  8  6
  0  5  6  5  7  8  3 10  8  3  5  5  0  4  1  0 10  1  2  0  2  2  9 15
  1 14 14  2 17  3  3 18 10  4 14 17  0  1 17  0 16 18  0 15 14  5 18 22
  5 20  0 27 22 11 10]"
6800,342,1.0,7,3,1035.9508039951324,132.27190017700195,0,1740800,9472447,74186941,"[ 5  3  2  0  2  0  0  3  0  4  1  0  2  1  2  5  2  1  0  1  3  5  8  6
  0  5  1  2  0  2  0 10 10  1  9  5  5  6  4  2  1  4  2  0  2  3 12 17
  5  1 17  5 18 10  3 18 10  1 14  1  2 14  2  4  3 15  0  1 20  5 18 22
  0 16 21 27 22 11 10]"
6900,342,1.0,7,3,1049.2211921215057,132.70384073257446,0,1766400,9596050,75051859,"[ 1  1  2  4  2  3  0  3  0  0  1  2  2  1  2  0  3  0  0  1  3  5  8  6
  1  7  5  2  3  5  4  6 10  0  3  2  1  2  8  4  8 11  2  0  2  2  1 17
  4  0 17  2 14 12  3 18 10  4  3 12  1 23 19  0 17 18  4  2  2  5 18 22
  1 17 19 27 22 11 10]"
7000,342,1.0,7,3,1062.5325689315796,133.11373472213745,0,1792000,9720643,75923133,"[ 5  0  3  4  3  2  0  3  0  3  1  0  2  1  2  3  8  4  0  1  3  5  8  6
  3  1  5  0  1  7  3  3  2  2 13 13  4  5  5  0  3  9  2  0  2  0 13 18
  1  2 11  2  1 11  3 18 10  2 17  2  5 22 18  3 18 16  2 19  2  3 18 22
  1 16 15 27 22 11 10]"
7100,342,1.0,7,3,1075.8739109039307,133.41338872909546,0,1817600,9845484,76797704,"[ 0  0  0  3  1  0  0  3  0  2  1  2  2  1  2  0  6  5  0  1  3  5  8  6
  1  8  1  5  0  2  5  5 13  3  0 12  3  3  1  0 13  9  2  0  2  0 17 17
  5  0 14  2  9 16  3 18 10  1  2  2  2 14 20  0 16 21  5 20 18  5 18 22
  3 23 19 27 22 11 10]"
7200,342,1.0,7,3,1089.407557964325,135.33643007278442,0,1843200,9972675,77689282,"[ 4  2  3  1  2  1  0  3  0  5  3  0  2  1  2  5  3  1  0  1  3  5  8  6
  3  0  1  1  1  2  4  7  4  1  6  9  3 11  8  5  4 11  2  0  2  1 16 11
  4  3  0  0  9 11  3 18 10  5 13 12  0 22 22  2  1 16  5 15 14  3 17 17
  3  2 20 16 22 11 10]"
7300,342,1.0,8,2,1104.2902355194092,148.8267421722412,0,1868800,10112695,78739670,"[ 0  0  3  2  0  3  0  3  1  5  1  0  2  1  2  2  0  3  0  1  3  5  6  1
  2  8  7  5  5  0  5  4  3  5  4  8  3  5  8  1  4 13  2  0  2  4  1  3
  4 11  0  0  1 11  3 18 10  4  9  1  2 15 15  2 17 16  0 21 14  0 22 16
  2 17  3 16 22 15 10]"
7339,343,1.0,7,2,1110.455538034439,158.08458817310822,0,1878784,10170317,79195322,"[ 0  0  3  2  0  3  0  2  3  4  1  1  2  1  2  4  5  8  0  1  3  1  7  7
  3  1  1  5  3  4  0  4  3  5  4  8  3  5  8  0  4 13  2  0  2  2 12 15
  2 10 15  3 14 16  3 18 10  0 16  1  5 20 19  3 16 21  4  3  0  0 23 18
  4 16 14 16 22  9 10]"
