generation,fitness,functionality,active_nodes,longest_path,time,gen_time,nc_gens,fitness_evals,graph_evals,node_evals,genotype
0,253.0,0.75,12,5,0.06760144233703613,67.60144233703613,1,16,223,1711,"[ 1  2  2  3  2  2  0  1  2  4  2  1  5  2  3  4  6  0  2  1  0  0  3  0
  1  6  5  5  3  1  0  8 12  4 11  1  4  6  0  3  9  3  5  4 10  4 11  2
  1 10  0  0 17 10  0 18 17  4 16  1  5  2  2  4 22 22  2  3 21  2  1  0
  4  3  2 25 28 19 13]"
100,306.0,0.875,3,1,0.897911548614502,8.303101062774658,39,416,5393,32387,"[ 5  3  2  2  2  0  4  2  3  3  1  0  4  0  1  1  8  0  2  3  8  0  2  0
  3  0  1  0  3  1  3  3  4  1  1  4  1  3  9  5  0 10  2 12  8  5 15  9
  1  2 18  2 17 10  5  2  9  0 13 18  3  1 19  4  3  3  1  3 15  2 22  0
  4 20 20 25 11 13 13]"
200,306.0,0.875,3,1,1.4980292320251465,6.001176834106445,102,816,10158,51352,"[ 5  1  3  5  2  2  4  2  1  4  0  2  4  3  1  5  3  3  4  2  1  0  2  0
  0  3  0  0  3  1  4  4  9  3 13  5  2  6  9  3 12 10  1  7 11  4 10 14
  0 12 13  5  3 13  5 16 13  3 15 14  1 20 21  4  3  3  1  0  1  1 23 22
  0 16 14 25 11  1 13]"
300,315.0,0.90625,4,1,2.2163431644439697,7.183139324188232,171,1216,15088,73601,"[ 4  2  3  5  2  1  2  0  0  4  0  2  3  3  1  5  5  3  3  7  8  0  2  0
  0  3  0  0  3  1  3  1 13  0 13 10  5  0 13  3  5 11  1 13  6  4 12 11
  1  0 11  1  1 12  0 13 13  4 13  9  4 20  0  4  3  3  0 20 22  1 20 20
  4 18 14 25 11 12 13]"
400,317.0,0.921875,5,3,2.9923970699310303,7.7605390548706055,229,1616,20056,100908,"[ 1  2  0  5  0  0  1  0  0  3  3  3  2  1  2  2  4  8  3  7  2  0  2  0
  0  3  0  0  3  1  0  5  0  0  6 10  2  6  5  1  8 13  1  0 11  1 12 10
  5  0 18  5 11 12  0 13 11  2  0 18  5 15  0  2 20 14  1 22 22  1 21 15
  1 23 17 26 11 12 13]"
500,317.0,0.921875,5,3,3.7966785430908203,8.0428147315979,289,2016,25067,129051,"[ 0  2  1  0  0  2  1  1  1  4  2  3  1  0  0  4  4  6  4  6  2  0  2  0
  0  3  0  0  3  1  1  3  7  1 13  6  2 10  5  4  1  7  2  5  1  2 12 13
  4  9  3  0  3 12  0 12  2  5  3  9  3 15 19  0  3 17  0  1 22  4 14 17
  1 18 15 26 11 12 13]"
600,317.0,0.921875,5,3,4.550910234451294,7.542316913604736,348,2416,30052,156756,"[ 3  0  0  0  3  3  5  3  0  0  2  3  0  1  0  3  0  8  5  8  2  0  2  0
  0  3  0  0  3  1  2  2 12  3  8  5  0  7  5  1 11  7  4  1  3  5 15 18
  3 15  9  0 14 10  0 12 11  5 15  9  4 22 14  2 18  1  0 22  1  2 14 21
  1 18 14 26 11 12 13]"
700,317.0,0.921875,5,3,5.399471282958984,8.485610485076904,409,2816,35003,184416,"[ 5  3  2  2  2  1  5  0  3  1  2  1  1  3  0  5  8  3  2  2  2  0  2  0
  0  3  0  0  3  1  0 12 11  0  5 12  3  2  6  1  5  7  0  1  3  3 17  3
  1 15 15  1 14  9  0 12  2  2 12 18  2 23 22  1  3 19  0 22  1  1  2 21
  4 14 14 26 11 12 13]"
800,317.0,0.921875,5,3,6.1761794090271,7.767081260681152,470,3216,39998,212037,"[ 3  3  2  2  0  1  1  1  3  0  0  0  3  3  1  3  8  4  2  5  2  0  2  0
  0  3  0  0  3  1  0  3 11  3  5 12  0 11  6  5  5  8  3  7 13  4 16  3
  1 10 14  2 10 18  4 12 15  5  9 16  5  2 20  2  2 14  0 14  1  5 21 15
  4  0  0 26 11 12 13]"
900,317.0,0.921875,5,3,6.892186880111694,7.160074710845947,516,3616,44901,238386,"[ 3  0  3  2  1  2  5  3  0  5  2  3  3  2  0  0  3  7  4  5  0  0  2  0
  0  3  0  0  3  1  0 13 11  2  8  0  5 10  7  4  3 10  1  7  4  2 17  2
  1 12 15  4  3 16  4  3  3  3 10  3  1 17 20  2 19 20  0 14  0  4 16 20
  1  0 19 26 11 12 13]"
1000,317.0,0.921875,5,3,7.602509260177612,7.10322380065918,575,4016,49766,265056,"[ 0  2  3  4  2  1  1  1  3  4  1  3  2  1  1  0  7  4  2  3  0  0  2  0
  0  3  0  0  3  1  0 13 11  2 12 12  3  7 12  3 12  4  4  1  2  1  0 15
  2 13 14  3  9  3  5  3 18  5 11 17  2 19 17  4 14  2  0 14  2  4 21 20
  5 23  2 26 11 12 13]"
1100,317.0,0.921875,5,3,8.31106424331665,7.085549831390381,627,4416,54719,291921,"[ 0  0  0  4  3  3  5  0  0  1  2  2  0  0  3  4  1  6  0  1  3  0  2  0
  0  3  0  0  3  1  0 13  2  2  8 12  4  7  0  5  2  9  4  3  4  4  2 15
  1 13 15  2 14  3  1  2 12  0 10 13  1 16 19  5  2 17  0 14  0  1 21  0
  2 14 17 26 11 12 13]"
1200,317.0,0.921875,5,3,9.059385776519775,7.48321533203125,695,4816,59709,319332,"[ 0  0  3  4  1  0  4  2  1  5  3  3  2  0  2  2  3  3  4  6  7  0  2  0
  0  3  0  0  3  1  0 13  2  3  5  2  2  1  4  3 11  9  1  8  9  4 15 15
  1 14 10  1 15  3  4 17  3  4 15  1  4 16 23  5 19  2  0 14  0  1  0 17
  2 18 21 26 11 12 13]"
1300,317.0,0.921875,5,3,9.808450937271118,7.490651607513428,749,5216,64886,348224,"[ 1  0  2  2  0  3  1  0  0  0  1  3  2  1  3  0  6  7  5  6  4  0  2  0
  0  3  0  0  3  1  0 13 11  3  5  3  2  5 11  4  1 12  4  8  6  2 18  9
  0 11 11  1 15  1  3 17 17  4 13  1  2 23 23  1 23  2  0 14  3  1  1  2
  5  0 15 26 11 12 13]"
1400,317.0,0.921875,5,3,10.537541627883911,7.29090690612793,816,5616,69738,374811,"[ 3  0  2  1  1  2  3  0  3  0  1  2  5  3  3  2  7  7  5  4  6  0  2  0
  0  3  0  0  3  1  0  1 11  5 10  3  2 13  9  3 11  6  4  2  6  0 17 16
  3 16 11  0 15 11  5  1 17  4 16 17  2  1 14  4 17 19  0 14  3  5  2  2
  5 19 23 26 11 12 13]"
1500,319.0,0.921875,4,2,11.300756931304932,7.632153034210205,885,6016,74695,402445,"[ 1  0  3  4  2  2  1  0  2  3  0  0  2  3  2  1  6  1  5  1  3  0  2  0
  0  3  0  0  3  1  0 13 11  1  2 11  4  9  8  4  3  6  4  2 10  0 18  2
  2 13 18  3 12 14  4  1 11  2 15  2  0 17 16  4 23 14  0 14 20  1 18 17
  4 15 14 14 11 12 13]"
1600,319.0,0.921875,4,2,12.039171695709229,7.384147644042969,944,6416,79672,424378,"[ 0  0  0  5  2  2  0  3  0  3  3  2  4  3  1  4  3  8  5  6  5  0  2  0
  5  5  8  0  3  1  0 13 11  0 13  9  3  9  9  5 12  3  3 12  7  4 15 16
  3 11 11  0 11  3  1 12 10  4 15 13  4 19 17  4 21 15  5 18 16  4 14 22
  4  2 23 14 11  6 13]"
1700,319.0,0.921875,4,2,12.771306037902832,7.321343421936035,1008,6816,84504,446019,"[ 3  0  0  2  0  1  0  3  0  1  1  3  1  1  3  2  4  0  0  6  0  0  2  0
  5  0  3  0  3  1  0 13 11  0  2  5  5  2 12  1  9  8  4  2  6  0 15  1
  5  1 13  2 11  9  5 12 10  5 12 15  4 20 16  2 14  2  3 17 21  1 23  2
  4  2 16 14 11  6 13]"
1800,319.0,0.921875,4,2,13.510005474090576,7.386994361877441,1066,7216,89401,467946,"[ 3  3  1  4  2  2  0  3  0  3  1  0  1  1  3  4  3  7  5  1  8  0  2  0
  1  6  8  0  3  1  0 13 11  4  6 10  5  3  0  5  4 12  5  1  3  4 16  0
  5 10 17  2 17 17  0  1 10  4  1  3  3 19 18  5 20 20  4 17 18  4 14 19
  4 18 16 14 11  6 13]"
1900,319.0,0.921875,4,2,14.158556938171387,6.4855146408081055,1125,7616,94199,489252,"[ 0  3  3  1  1  0  0  3  0  2  1  0  2  3  3  1  1  4  4  0  7  0  2  0
  3  6  2  0  3  1  0 13 11  4  1 11  4  8  1  0 12 13  5  5  8  2 14 14
  0  3  9  1 14  2  5 11 10  1 17 17  1  0 18  4 16 19  0 22  3  3 15  2
  0 22  1 14 11  6 13]"
2000,319.0,0.921875,4,2,14.895962238311768,7.374053001403809,1198,8016,99213,511488,"[ 0  3  3  0  2  0  0  3  0  0  1  1  4  3  1  3  2  4  1  7  1  0  2  0
  2  4  2  0  3  1  0 13 11  2  1  9  5  0  1  5  1 13  5  5  7  4 13  3
  0 13  9  2 18 17  5 10  2  2 15 17  1  1 18  2  1 20  3 16 20  2 15 23
  1 17  1 14 11  6 13]"
2100,319.0,0.921875,4,2,15.620384693145752,7.244224548339844,1261,8416,104215,533641,"[ 0  2  1  1  2  1  0  3  0  2  0  0  1  1  1  3  0  6  1  3  1  0  2  0
  4  4  6  0  3  1  0 13 11  2  4 13  4  8 11  3  6  4  1  6  8  4 13 17
  3 18  2  1  9 17  3 14 14  0 16 17  2  3 23  1 22 23  5 19 14  4 15 22
  5  0  3 14 11  6 13]"
2200,319.0,0.921875,4,2,16.304152488708496,6.837677955627441,1315,8816,109128,555667,"[ 3  2  1  3  2  2  0  3  0  5  3  3  3  2  2  3  0  8  1  1  8  0  2  0
  1  0  7  0  3  1  0 13 11  3  5  8  1  3 12  0  0  8  2 11  1  1 17 17
  0  1 11  2 12 17  0 12 16  2 16  0  5 23 17  1 14  2  5 14 22  2 21 16
  3 22  3 14 11  6 13]"
2300,319.0,0.921875,4,2,17.0388343334198,7.346818447113037,1376,9216,114015,577525,"[ 2  3  3  3  3  3  0  3  0  5  2  3  0  2  3  3  3  6  3  6  2  0  2  0
  2  3  5  0  3  1  0 13 11  5  7  4  0  9 13  5 10 13  1 11  4  1 17  0
  4 11  3  1 14  9  5 12 16  4 13  2  1 15  1  0 16  3  1 14 18  4 22 16
  0  3  3 14 11  6 13]"
2400,319.0,0.921875,4,2,17.76744771003723,7.286133766174316,1435,9616,119026,599996,"[ 3  1  0  0  3  2  0  3  0  3  0  2  5  2  1  5  6  4  3  7  2  0  2  0
  4  0  4  0  3  1  0 13 11  2  9  4  2  8  3  0  6 13  5 11 11  2 15  0
  3  1  9  1 10 10  1 12  2  1 17 13  0  2 21  0 22 23  3  0 23  5  0 22
  0  1 14 14 11  6 13]"
2500,319.0,0.921875,4,2,18.41939091682434,6.519432067871094,1497,10016,123863,621455,"[ 0  1  1  3  2  3  0  3  0  4  3  3  3  1  2  4  8  1  5  4  0  0  2  0
  1  0  6  0  3  1  0 13 11  3  9  2  0  0  9  1  4 13  5 12 11  2  3 13
  4 14 18  5 10 11  1 14  2  0 17  1  4 18 23  0 17 21  0 17 19  0 16 18
  5  1  0 14 11  6 13]"
2600,319.0,0.921875,4,2,19.08512234687805,6.657314300537109,1556,10416,128779,643485,"[ 5  1  1  2  1  1  0  3  0  2  2  0  0  3  3  5  7  7  0  4  0  0  2  0
  4  1  1  0  3  1  0 13 11  2  4  6  1  1 11  1  9  4  5 12  7  2 12  2
  4 13  3  1  1 15  4 18  1  2 10 12  5 18 22  0 17 23  1  0 20  3 19 22
  2 22  0 14 11  6 13]"
2700,319.0,0.921875,4,2,19.72830629348755,6.431839466094971,1620,10816,133503,664542,"[ 2  1  3  5  1  3  0  3  0  5  3  0  4  2  1  2  3  2  3  1  0  0  2  0
  4  1  4  0  3  1  0 13 11  2 10  6  3 13  4  3 11  2  0 11  1  1  3 12
  4 13 11  1 12 15  0 10 10  1 13 10  2  0 19  5 17 15  0  0 19  5 19  0
  1 23  1 14 11  6 13]"
2800,319.0,0.921875,4,2,20.356343984603882,6.28037691116333,1696,11216,137482,682329,"[ 1  2  3  2  3  3  3  3  3  1  1  2  4  1  1  4  6  4  0  1  2  0  2  0
  4  4  8  0  3  1  0 13 11  5 10  6  3  1  3  1 13  5  0 11  1  1 15  0
  4 13 11  4 17 18  4 10  0  1 13  3  1 18 23  5  0 18  4 22 18  1 17 16
  4 14 23 14 11 20 13]"
2900,319.0,0.921875,4,2,20.959357023239136,6.030130386352539,1761,11616,141534,700876,"[ 5  0  3  3  2  0  3  0  2  2  2  3  4  3  0  3  6  5  3  5  2  0  2  0
  2  1  7  0  3  1  0 13 11  3  8  4  3  4  3  3  9  0  4 12  1  4  3 15
  4 13 11  4 11 12  4 10 15  2 15  3  3 23  2  4  3  2  5  2  1  1 14 19
  4  1 18 14 11 20 13]"
3000,319.0,0.921875,4,2,21.561259508132935,6.019024848937988,1824,12016,145667,719981,"[ 0  1  3  5  2  0  5  0  0  1  3  3  1  3  0  5  1  5  0  0  8  0  2  0
  4  8  3  0  3  1  0 13 11  5 13  9  2 10  1  3  5  7  4  0 11  3 17  2
  4 13 11  4 16  1  5  3 11  0 15  3  4 21 21  4  3 20  5 23 21  1 22 23
  4 18 14 14 11 20 13]"
3100,319.0,0.921875,4,2,22.16158103942871,6.003215312957764,1894,12416,149753,739101,"[ 0  0  2  1  3  1  3  0  0  1  2  0  5  2  3  0  8  7  2  5  7  0  2  0
  4  7  5  0  3  1  0 13 11  1  7 12  4 10  1  4  4 10  1 13  2  4 17 17
  4 13 11  4 11  1  5 13 14  3  3  3  2 16  1  0 15  3  2 15 22  4  2 22
  4 19  1 14 11 20 13]"
3200,319.0,0.921875,4,2,22.730551958084106,5.689709186553955,1963,12816,153857,758256,"[ 2  2  0  4  1  1  3  0  2  1  0  3  1  2  0  3  8  7  2  3  3  0  2  0
  4  0  4  0  3  1  0 13 11  1  8 10  4  9 13  4  4  5  0  6  6  3 14  2
  4 13 11  2  3  1  4 13 14  5  3  3  2 17  1  4 15 16  3  1 15  2  2 21
  3 19 19 14 11 20 13]"
3300,319.0,0.921875,4,2,23.284655332565308,5.541033744812012,2032,13216,157919,776770,"[ 3  3  0  5  1  1  3  0  2  4  0  1  4  2  0  1  2  8  0  7  1  0  2  0
  2  0  3  0  3  1  0 13 11  4 10 13  3  3  0  1  4  6  1 12  9  3  1 10
  4 13 11  0  2 14  3 13 14  5  1  3  2 14 15  0  2 16  3  1 15  5  2 23
  1 16  1 14 11 20 13]"
3400,319.0,0.921875,4,2,23.868205070495605,5.8354973793029785,2097,13616,162160,795869,"[ 3  3  0  5  2  3  3  0  3  4  2  0  4  1  1  1  7  3  0  2  1  0  2  0
  3  1  8  0  3  1  0 13 11  4  7 12  2  8  0  3  4  6  4  6 12  3 13 14
  4 13 11  0  9  9  3 11 15  3 18  3  5  3 20  2  3 22  1  2 23  5 15 23
  1 16 20 14 11 20 13]"
3500,319.0,0.921875,4,2,24.422834157943726,5.546290874481201,2170,14016,166216,814280,"[ 0  0  0  3  0  3  1  0  0  5  2  2  3  2  3  2  0  1  4  4  2  0  2  0
  0  8  7  0  3  1  0 13 11  1  6  1  3  7  5  0 11  6  1  6  3  0  2 18
  4 13 11  0 14 18  2  3  1  4 16 13  5 20  2  2 19  1  2  0 15  1 23 23
  2 22  2 14 11 20 13]"
3600,319.0,0.921875,4,2,24.99244260787964,5.696084499359131,2237,14416,170457,833082,"[ 0  2  2  5  2  3  1  1  1  1  3  3  1  2  0  2  1  1  3  1  1  0  2  0
  3  8  8  0  3  1  0 13 11  5  5  0  3 13  0  4 11  5  4  6  4  1  2  2
  4 13 11  2  2 18  2  9  1  1 17 12  5 16 17  5  0 17  0 20 20  4 23 23
  2 17  2 14 11 20 13]"
3700,319.0,0.921875,4,2,25.57079315185547,5.783505439758301,2315,14816,174522,851902,"[ 2  3  2  5  3  1  4  0  3  1  0  2  1  0  2  1  5  1  2  7  1  0  2  0
  0  8  5  0  3  1  0 13 11  5 10  0  3 10  4  4  5  3  4 12  2  5  2 18
  4 13 11  2  2 16  3 17  1  1  0 10  2 16  2  0 18 15  5 22  2  2 23 23
  2 17 14 14 11 20 13]"
3800,319.0,0.921875,4,2,26.14891743659973,5.781242847442627,2382,15216,178869,871366,"[ 1  0  1  4  2  3  1  2  3  5  3  2  0  3  0  5  0  6  5  6  4  0  2  0
  5  7  4  0  3  1  0 13 11  4  2  0  3  3 10  4  3  0  4 13 12  3  2  3
  4 13 13  1 15 16  1 15 14  0 18  0  0 22 22  2 23 15  0  1 14  4 23 19
  2 23 23 14 11  8 13]"
3900,319.0,0.921875,4,2,26.758292198181152,6.093747615814209,2449,15616,183636,892690,"[ 1  3  2  5  1  0  0  2  2  5  3  1  0  3  0  0  5  7  0  3  5  0  2  0
  2  4  4  0  3  1  0 13 11  4  2  8  3  4  7  0  9  2  3  0  8  5  9 10
  0 16 16  1 17  1  4  0 11  4 13 12  5  2 17  0 23  0  2 17  3  4 17  1
  0  1 18 14 11  8 13]"
4000,319.0,0.921875,4,2,27.398873329162598,6.405811309814453,2514,16016,188650,914963,"[ 5  2  2  3  2  2  0  1  2  5  2  2  3  2  0  0  5  5  5  1  0  0  2  0
  2  3  4  0  3  1  0 13 11  1  0 13  0 10 13  4 11  2  4  5  8  2  1 12
  2 15 16  1 14 10  2  2 14  2  3 12  1 16 20  4 23 15  0 17 17  1 18  0
  2 19 17 14 11  6 13]"
4100,319.0,0.921875,4,2,28.039498329162598,6.40625,2573,16416,193653,937169,"[ 1  2  0  5  2  3  0  1  2  4  1  2  0  2  2  4  8  6  0  1  3  0  2  0
  5  2  4  0  3  1  0 13 11  4 10  3  0  5  1  2  2  4  5  5  8  5 18 10
  0 11 17  5 15  3  3 13 15  2  3 14  2 21 16  5  0 22  4 19 20  0 22  0
  3 22 21 14 11  6 13]"
4200,319.0,0.921875,4,2,28.664548635482788,6.250503063201904,2633,16816,198636,959624,"[ 4  0  0  4  0  0  0  1  2  4  1  2  1  3  2  1  8  3  5  5  2  0  2  0
  4  0  7  0  3  1  0 13 11  0  2  3  0  5  1  2 11 12  1  5 12  4 10 13
  5 16  1  4 14 14  4  0  2  3 15  0  2  2 14  5 22  0  4 14 20  1 19  3
  4 21 17 14 11  6 13]"
4300,319.0,0.921875,4,2,29.32119393348694,6.566452980041504,2700,17216,203526,981815,"[ 2  1  2  1  3  3  0  1  2  5  3  1  1  3  2  1  0  4  2  2  4  0  2  0
  1  0  0  0  3  1  0 13 11  5  8  7  2  5  5  0  5  5  1  5  6  0 12  0
  1 14 15  0 18 17  5 15 15  1 13  2  0 18  2  5 16 16  4 15 20  0 19 15
  4 14 14 14 11  6 13]"
4400,319.0,0.921875,4,2,29.977983951568604,6.56790018081665,2771,17616,208412,1004379,"[ 4  1  2  3  0  1  0  1  2  4  3  2  0  3  3  5  8  4  2  8  0  0  2  0
  4  8  8  0  3  1  0 13 11  0  8  9  2  8  5  1  8  0  1  1 10  3  2  0
  2 12  9  0  2 11  5  1 16  5 17 18  3 23 23  4  1  2  1 15 14  4  1  0
  2  0 23 14 11  6 13]"
4500,319.0,0.921875,4,2,30.61901044845581,6.41026496887207,2834,18016,213521,1026923,"[ 0  0  3  5  1  1  0  1  2  4  3  1  2  1  3  4  7  6  4  6  1  0  2  0
  1  3  1  0  3  1  0 13 11  0  6  0  0  0 11  2 12  0  3  6  7  4  2 10
  5  0  3  0 13 17  3 10 16  0 13 13  4 23 15  3 17 23  1  1 14  4 20  0
  2 14 23 14 11  6 13]"
4600,319.0,0.921875,4,2,31.22834610939026,6.093356609344482,2903,18416,218368,1048199,"[ 3  3  3  5  1  1  0  1  2  5  1  1  3  0  0  2  3  5  3  6  3  0  2  0
  0  1  4  0  3  1  0 13 11  5  5  0  0  0  4  3  1  8  0 11 11  5  3 10
  2 18 10  0  0 11  3 16 10  4 10 17  0 23 20  0 22  2  4 20 16  2 21  0
  2  2  3 14 11  6 13]"
4700,319.0,0.921875,4,2,31.85349678993225,6.251506805419922,2964,18816,223357,1070590,"[ 3  3  3  0  1  1  0  1  2  1  2  3  0  3  2  3  8  5  3  6  8  0  2  0
  0  1  3  0  3  1  0 13 11  3  1  5  3  7  4  0  3  8  1  1  8  3  0  2
  1  1  0  2  0  1  2 11  2  1 11  2  0 21 17  2  0  1  4 14 21  3 17 22
  2 14 15 14 11  6 13]"
4800,319.0,0.921875,4,2,32.52537822723389,6.718814373016357,3030,19216,228349,1093266,"[ 3  3  3  2  1  1  0  1  2  1  0  1  3  2  1  4  0  2  3  0  8  0  2  0
  2  4  4  0  3  1  0 13 11  3  7  5  3  9 13  0  2  6  3  0 10  2 17  2
  1  2  2  1 14 17  2 17 10  4 12 10  0 21 17  3 20 14  0 16 16  4  1 17
  3 20 21 14 11  6 13]"
4900,319.0,0.921875,4,2,33.18166375160217,6.562855243682861,3087,19616,233378,1116102,"[ 5  2  1  1  3  3  0  1  2  4  2  2  0  0  0  0  0  5  5  8  3  0  2  0
  2  2  2  0  3  1  0 13 11  3  2 13  4  5  9  5  7  7  4  8 10  4 17 13
  2 12 10  1 14 17  3  1  2  3 16 11  3 14 16  5 20 19  5  2 16  0 20 15
  3  1 22 14 11  6 13]"
5000,319.0,0.921875,4,2,33.83787488937378,6.5621113777160645,3146,20016,238484,1139197,"[ 3  1  3  5  1  3  0  1  2  1  0  0  3  1  0  0  5  1  3  5  2  0  2  0
  0  5  5  0  3  1  0 13 11  3  0 12  1  7 12  4  7  4  2  2 12  4 17 13
  4 15  1  3  2 11  3 11 16  3 16 10  2  2 20  5  3 23  2 17 19  0 20 15
  0  3 22 14 11  6 13]"
5100,319.0,0.921875,4,2,34.47854709625244,6.406722068786621,3213,20416,243452,1161640,"[ 3  3  1  0  2  2  0  1  2  1  1  3  1  0  1  2  8  1  2  6  5  0  2  0
  1  8  8  0  3  1  0 13 11  2  8  7  2  0  7  2  5  9  1  7 11  1 18 10
  5  9  9  1 13 11  0  0 13  3 15  3  1 15 15  1  0  3  2 17 20  2 16  0
  1 19 23 14 11  6 13]"
5200,319.0,0.921875,4,2,35.08803677558899,6.0948967933654785,3268,20816,248414,1183477,"[ 5  3  2  5  2  2  0  1  2  2  3  0  0  0  0  1  5  2  1  4  3  0  2  0
  2  8  6  0  3  1  0 13 11  2  1 12  2  7  9  0  1  3  5 13 11  0 13 17
  3 17 17  5 13  3  0  3  2  2 15 12  4  0 14  1 19 20  1 19  3  3  3 18
  4 21 17 14 11  6 13]"
5300,319.0,0.921875,4,2,35.791516065597534,7.034792900085449,3329,21216,253369,1205622,"[ 5  0  0  2  1  0  0  2  2  2  2  1  4  3  0  5  2  2  0  7  2  0  2  0
  1  6  0  0  3  1  0 13 11  1  5 11  0  7  8  5  1  9  0 11 13  1  0 17
  4  1  0  0  3  0  5  1  0  2 16 17  4  3 20  5 22 22  0 14  3  0 19 18
  1  0  0 14 11 21 13]"
5400,319.0,0.921875,4,2,36.43209719657898,6.405811309814453,3395,21616,258184,1227758,"[ 3  3  1  1  1  2  4  3  2  2  0  1  4  1  3  2  2  3  5  4  6  0  2  0
  1  1  0  0  3  1  0 13 11  0 13 10  5 13 10  4 13  5  0 12  4  4  3  1
  3 14  3  0  3  0  1 15  1  3  3 13  4 22 21  3 22  0  5 22  1  1 19 21
  4 20 18 14 11 21 13]"
5500,319.0,0.921875,4,2,37.15125346183777,7.191562652587891,3462,22016,262908,1249653,"[ 2  3  0  0  3  3  3  2  1  0  3  2  5  1  1  4  5  5  4  6  7  0  2  0
  2  1  0  0  3  1  4  6  2  0  2 10  0  5  5  0 13 11  3 12  8  3 15  9
  0  0  3  0  3  0  0  2 14  0  3 13  3 16 23  3 14  3  2 14 18  0 22 21
  4  2 18 17 11 21 13]"
5600,319.0,0.921875,4,2,37.80806016921997,6.5680670738220215,3518,22416,267747,1271855,"[ 5  2  0  4  3  2  1  1  0  4  0  0  2  1  1  0  5  3  5  1  5  0  2  0
  0  2  2  0  3  1  2 10  2  5 11  5  0  8  4  0 13 11  2  9 10  3  1 16
  4 15 14  0  3  0  2 14 12  2 13 12  3 22 16  4 20  3  3 18 17  0 16 20
  4  2 21 17 11 21 13]"
5700,319.0,0.921875,4,2,38.62094783782959,8.128876686096191,3586,22816,272562,1294305,"[ 3  0  1  0  3  3  2  2  1  3  3  3  1  2  3  0  5  6  0  3  0  0  2  0
  3  2  0  0  3  1  2 10 10  3  1  5  4  0  4  0 13 11  3  3 12  2  1 13
  0 16 13  0  3  0  3  3  2  0 18  1  3 23 16  0 17 22  1 20 15  5 16 17
  1 16 22 17 11 21 13]"
5800,319.0,0.921875,4,2,39.40219736099243,7.812495231628418,3650,23216,277402,1316315,"[ 2  1  2  0  1  3  3  2  2  1  3  0  4  2  2  0  5  0  3  5  5  0  2  0
  5  3  5  0  3  1  4 12  7  4 13 13  0  0  2  0 13 11  4  1 10  2 12 11
  5 18 17  0  3  0  4 12  3  3 10 11  3  0  1  3 22 15  1 22 14  5 14 15
  1 22 16 17 11 21 13]"
5900,319.0,0.921875,4,2,40.261571168899536,8.593738079071045,3717,23616,282187,1338635,"[ 2  1  3  5  1  1  4  2  2  5  2  0  1  2  1  3  7  6  1  8  3  0  2  0
  0  5  4  0  3  1  3 12  5  0 13  9  0 12  5  0 13 11  4  8  2  1 11 10
  4 13  2  0  3  0  5 12  2  2  3 18  4 22  0  0  0 17  0 22 14  3 14 20
  4 17  0 17 11 21 13]"
6000,319.0,0.921875,4,2,41.13712286949158,8.75551700592041,3784,24016,287097,1361420,"[ 0  2  1  1  3  0  1  1  2  0  3  1  1  2  1  0  3  6  5  6  5  0  2  0
  1  1  4  0  3  1  4  6  5  0  9  3  0  1  5  0 13 11  3  6  9  1 12 16
  0  9 10  0  3  0  5 11  1  0  0 13  4 22  0  5 15 14  1  1 17  1 19 14
  4 23 17 17 11  4 13]"
6100,319.0,0.921875,4,2,41.856279134750366,7.191562652587891,3844,24416,292055,1383333,"[ 2  2  3  0  0  3  1  1  1  0  3  0  1  1  0  5  4  7  3  3  8  0  2  0
  2  0  4  0  3  1  4  1  5  0  6  5  3  1  9  0 13 11  5  6  3  5 16  2
  4  0  2  3  9 11  4 12  1  5 10 13  0 23 16  5 16 14  2 21  3  2  2  3
  4 20 15 17 11  7 13]"
6200,319.0,0.921875,4,2,43.03216624259949,11.758871078491211,3899,24816,297115,1405741,"[ 2  1  1  0  2  1  5  3  1  0  3  2  1  2  1  5  8  1  2  5  1  0  2  0
  0  8  5  0  3  1  2 12 10  4 10 10  3  1 11  0 13 11  5  6  0  2 15  3
  0 18 14  2  2 10  2  1  1  4  9 17  4 20  1  3 19  3  0 21  3  0 19  2
  4 18 20 17 11  5 13]"
6300,319.0,0.921875,4,2,44.82628607749939,17.941198348999023,3965,25216,302085,1428624,"[ 5  3  2  0  2  1  5  2  1  5  0  0  5  3  3  0  7  1  5  8  2  0  2  0
  0  7  1  0  3  1  2 12 13  1  8  5  1  1  5  0 13 11  2  6  0  0  9 12
  5 12 16  3  9 17  2 12 11  3 14 11  2  2 16  3 14 23  4 20  3  5 16 23
  4 18 14 17 11  5 13]"
6400,319.0,0.921875,4,2,45.72765302658081,9.013669490814209,4028,25616,307078,1450470,"[ 4  1  1  0  2  1  1  2  1  3  3  2  5  2  2  0  2  7  2  6  3  0  2  0
  0  6  4  0  3  1  0  7  4  2  8  3  2  1  3  0 13 11  5 13  0  0 16 16
  3 11 10  0  3 11  2 16  9  1 17  0  0 21  2  4 21 23  4 16  3  1 14 14
  0 21 20 17 11  5 13]"
6500,319.0,0.921875,4,2,46.376139879226685,6.48486852645874,4089,26016,312037,1472481,"[ 2  2  2  0  2  1  2  2  2  0  1  3  2  1  2  3  5  3  5  1  7  0  2  0
  5  5  6  0  3  1  4  3  4  5  8 10  0  1  0  0 13 11  0  7 12  4 18 16
  3  2 11  1  2  3  1 11 10  4 14  2  1 18  3  3 20 15  0 18  3  3 21  2
  3 14  1 17 11  5 13]"
6600,319.0,0.921875,4,2,47.20049715042114,8.24357271194458,4156,26416,317039,1494746,"[ 2  3  3  0  2  1  3  2  3  4  3  1  2  2  0  1  5  3  4  6  5  0  2  0
  2  1  7  0  3  1  1  3  8  4  2  8  4  8 11  0 13 11  2  0  9  2  2 10
  2  1 11  5 10  9  4 11 16  4 15 12  1 19 18  3  0 14  2  3 17  3 21  2
  1 23 16 17 11  5 13]"
6700,319.0,0.921875,4,2,47.94753813743591,7.470409870147705,4217,26816,321858,1516371,"[ 4  1  2  0  2  1  2  1  2  3  3  0  5  2  0  2  5  2  0  8  7  0  2  0
  0  0  0  0  3  1  5  7 11  4  6  5  4  4  7  0 13 11  1  4  4  2 11 10
  2 14 11  5  1 18  1 11  3  3  2  3  4 19 18  4 16 20  0  0 18  2 19 19
  1 20  1 17 11  5 13]"
6800,319.0,0.921875,4,2,48.779356241226196,8.318181037902832,4276,27216,326713,1538175,"[ 2  3  1  0  2  1  3  0  3  3  2  1  3  0  2  2  8  5  4  1  2  0  2  0
  4  6  1  0  3  1  1 10  1  3 10  7  4  4  2  0 13 11  2  8  8  1 11 11
  1  2  1  0 17  9  3  9 14  5 16  1  3 23  1  5  1 20  1 16 21  4 18 23
  1 15  2 17 11  5 13]"
6900,319.0,0.921875,4,2,49.53796696662903,7.58610725402832,4338,27616,331627,1559746,"[ 0  0  2  0  2  1  1  0  0  5  2  2  3  0  1  2  6  1  1  7  6  0  2  0
  4  0  1  0  3  1  4 10  1  1  5 12  2  4  8  0 13 11  2  3  2  5  3  1
  4  0  0  2 16 12  0  9 14  1  1  2  4 15  3  2 16 20  0 19  0  4  1 20
  2 20 22 17 11  5 13]"
7000,319.0,0.921875,4,2,50.22842478752136,6.90457820892334,4394,28016,336648,1582239,"[ 2  3  1  0  2  1  1  0  0  2  2  0  5  0  3  0  5  8  3  7  8  0  2  0
  5  6  2  0  3  1  4  1  8  1  7  1  4  4 11  0 13 11  1  0 11  1 16 10
  3 10  0  2 12 16  2  0  2  5 18 10  0 14  2  2  2 17  4  3 19  5  3 16
  0 22  1 17 11  5 13]"
7100,319.0,0.921875,4,2,50.92304706573486,6.94622278213501,4451,28416,341604,1604557,"[ 2  1  0  0  2  1  1  0  0  0  1  3  2  1  2  4  7  8  0  5  3  0  2  0
  0  7  5  0  3  1  2  7  8  2  2  4  4  9  9  0 13 11  3  4 12  1  3 10
  5 10  2  0 15 13  2 12  2  3 13 11  0 14 21  1 20 19  3 21 19  5 22  3
  4 21 15 17 11  5 13]"
7200,319.0,0.921875,4,2,51.859405279159546,9.363582134246826,4513,28816,346666,1627249,"[ 2  0  0  0  2  1  4  1  1  3  1  0  5  1  2  0  1  5  2  4  3  0  2  0
  5  1  6  0  3  1  3  1  8  2  7  8  1  3  4  0 13 11  1  2  4  1 11 10
  3 12 17  0 15 13  2 12  2  1 13 14  0  2  2  3  0 21  3 16  3  1 15 22
  3 21 15 17 11  5 13]"
7300,319.0,0.921875,4,2,52.545122385025024,6.857171058654785,4573,29216,351584,1649265,"[ 4  2  3  0  2  3  4  1  3  3  1  3  5  1  2  0  0  3  2  2  7  0  2  0
  5  2  6  0  3  1  0  1  8  4 10  7  3  3  2  0 13 11  5  4 12  1  0 10
  2  3 18  3 11  0  2  9  2  3 13 17  0 14  2  3  0 23  3 15 22  5 14 22
  5 23 22 17 11  9 13]"
7400,319.0,0.921875,4,2,53.235761642456055,6.906392574310303,4638,29616,356452,1671151,"[ 3  3  3  0  2  2  2  1  3  5  0  0  0  1  3  0  0  3  2  2  5  0  2  0
  3  2  6  0  3  1  5 11  2  2 10  7  1  4  2  0 13 11  5  1 12  4 16 17
  4 14 17  0 12 17  0  9  2  4 10 17  5  0 19  5  3 17  1  1 23  3 20  2
  0 23  3 17 11  9 13]"
7500,319.0,0.921875,4,2,54.132222175598145,8.964605331420898,4700,30016,361103,1691807,"[ 2  3  3  4  1  1  2  0  2  5  2  2  3  2  0  0  0  3  4  0  3  0  2  0
  4  7  8  0  3  1  2 10  5  1  0  7  3  1  2  0 13 11  4  2  0  3 12 15
  5 14 13  4  3  1  5  1  2  3 10  0  3  2 15  2 16 15  0  1  2  3  1 19
  0 14 23 17 11  9 13]"
7600,319.0,0.921875,4,2,55.37592887878418,12.437067031860352,4765,30416,365863,1713493,"[ 1  0  0  5  3  2  5  1  3  2  2  3  0  1  2  0  0  3  5  1  5  0  2  0
  4  8  7  0  3  1  3  9  5  1  8  4  3  9  3  0 13 11  4  3 10  5 16 17
  0 14  2  2 11  3  1  1  9  0 14 17  1 15 23  0 20 19  0  0 14  2 18 18
  3 14 14 17 11  9 13]"
7700,319.0,0.921875,4,2,56.05895924568176,6.83030366897583,4834,30816,370547,1734776,"[ 5  2  2  2  3  1  2  0  0  2  2  0  0  0  0  0  0  3  0  1  1  0  2  0
  2  1  8  0  3  1  3  5  7  5  7 10  3  9  4  0 13 11  3  5  0  5  9  1
  1 12 12  4 17 14  3 10  9  1 10  9  5 16 16  0 22 19  2 21  2  4 16 17
  5 17  3 17 11  9 13]"
7800,327.0,0.96875,9,4,56.82759618759155,7.6863694190979,4886,31216,374806,1761919,"[ 5  1  0  2  1  1  3  1  2  2  0  2  5  2  3  0  0  3  2  2  6  0  2  0
  3  7  1  0  3  1  0  0 13  5 11  5  5  8  2  0  1  2  1 10 11  5  3 18
  3 15 10  4 17  9  3 17 11  2  3  9  3  1 18  5  2 19  1 17 15  3 18 15
  3 16  0 24 11 21 13]"
7900,335.0,0.984375,8,2,57.65894961357117,8.313534259796143,4929,31616,378827,1794550,"[ 3  3  2  2  0  2  2  3  1  1  2  2  5  2  0  0  0  3  5  1  0  0  2  0
  3  5  6  0  3  1  4 11  9  0 10  2  2 12  2  0  1  2  1  6 11  0 14 12
  4  3 10  4 17  9  2  2 11  2 16 11  5 17 18  4 18 19  3  1 15  1 15  2
  0 19 17 12 11 21 13]"
8000,335.0,0.984375,8,2,58.38939905166626,7.304494380950928,4980,32016,382536,1823965,"[ 2  3  1  2  0  2  5  3  1  2  1  2  0  2  2  0  0  3  5  1  2  0  2  0
  3  5  4  0  3  1  3 11  9  0  7  2  2  7  2  0  1  2  1  6 12  0  3 10
  0  9 13  4 17  9  1 13 13  4 17 18  4 23 18  4 19 19  3 16 14  0 23  2
  4 21 16 12 11 21 13]"
8100,335.0,0.984375,8,2,59.11373496055603,7.243359088897705,5035,32416,386057,1851747,"[ 2  3  1  2  0  2  5  2  1  4  2  1  2  3  2  0  0  3  5  3  4  0  2  0
  3  5  4  0  3  1  1  0  8  1 12 10  1  7  2  0  1  2  0 11 12  0 18  0
  0 18 12  4 17  9  3  3  3  1 17 17  5 23 18  0 19  2  3 16  1  0 23  2
  0 20 15 12 11 21 13]"
8200,335.0,0.984375,8,2,59.79834508895874,6.8461012840271,5098,32816,389538,1879314,"[ 2  3  1  2  0  2  5  2  1  3  3  1  1  0  1  0  0  3  2  2  7  0  2  0
  3  5  4  0  3  1  3 10  5  4  4  6  2  7  5  0  1  2  4  9  5  3  2 17
  1 18  0  4 17  9  0 13  3  3 18 17  3 19 19  0 14 19  5  3 21  4 23  0
  0 18  3 12 11 21 13]"
8300,335.0,0.984375,8,2,60.49448347091675,6.961383819580078,5160,33216,393119,1907808,"[ 2  3  1  2  0  2  5  2  1  0  1  1  5  0  1  0  0  3  2  5  0  0  2  0
  3  5  4  0  3  1  3  1  2  4  0 12  5  7  7  0  1  2  4  1 12  2  3 11
  1 14  0  4 17  9  3  9  3  2 18 10  2 19 19  0  0 19  5 19 21  0 17 19
  0 16 23 12 11 21 13]"
8400,335.0,0.984375,8,2,61.29651188850403,8.020284175872803,5221,33616,396882,1937691,"[ 2  3  1  2  0  2  0  2  1  0  2  2  5  2  1  0  0  3  2  5  1  0  2  0
  3  5  4  0  3  1  0  2  2  2 13 12  3  7  5  0  1  2  2  1 12  2  2 11
  3 11 13  4 17  9  0 15  0  1 18 16  4 19 19  1  1 19  5 19 21  4 23 19
  3 23 15 12 11 21 13]"
8500,335.0,0.984375,8,2,62.00234055519104,7.058286666870117,5286,34016,400659,1967602,"[ 2  3  0  2  0  2  2  1  2  0  1  3  2  1  3  0  0  3  2  1  2  0  2  0
  3  5  8  0  4  5  4  2 13  0  7 12  4 10 10  0  1  2  5  8  5  5 14 11
  1  9 13  4 17  9  2 15  2  4  9  0  0 21 19  3  1 19  5 23 21  3  0 16
  0 23 16 12 11 21  7]"
8600,335.0,0.984375,8,2,62.71149945259094,7.091588973999023,5344,34416,404485,1997582,"[ 2  3  1  2  0  2  0  0  1  0  1  3  2  1  3  0  0  3  2  1  3  0  2  0
  3  5  8  4  0  2  3  5  7  0  2 11  5  7  9  0  1  2  2  2  5  3  0 16
  0  9 17  4 17  9  2 14  1  3  3 14  0  1 16  4 20 19  0 18 14  0  3 19
  2 15 20 12 11 21  7]"
8700,335.0,0.984375,8,2,63.59266638755798,8.81166934967041,5403,34816,407978,2025199,"[ 3  1  1  2  0  2  3  2  1  0  1  3  2  1  3  0  0  3  4  0  3  0  2  0
  3  5  8  5  0  2  3  5  7  5 12 10  3  3  6  0  1  2  0  2  9  0 16 16
  0 12 15  4 17  9  0 13 16  4  9 10  3  1 17  5 20 14  4 18 14  0  3 19
  3  3 20 12 11 21  7]"
8720,342,1.0,8,2,63.73765015602112,7.249188423156738,5415,34896,408675,2030636,"[ 3  1  1  2  0  2  1  2  1  0  1  3  2  1  3  0  0  3  4  0  3  0  2  0
  3  5  8  5  0  5  3  5  7  5 12 10  2  3  8  0  1  2  0  9  9  0 16 16
  0 12 18  4 17  9  0 13 16  4  9 10  3 15 17  5 20 14  4 18 21  4 22 19
  3  3 20 12 14 21  7]"
8800,342,1.0,8,2,64.14024138450623,5.032390356063843,5471,35216,410569,2045601,"[ 3  0  1  2  0  2  1  2  2  0  1  3  2  1  3  0  0  3  0  0  3  0  0  0
  3  5  8  0  2  5  3  5  7  5  2 10  2  4  8  0  1  2  0  9  9  0 16 16
  0  3  3  4 17  9  0 13  1  1 16 10  2 15  2  5 17 14  4 18 17  4 19 15
  0 14 20 12 14 21  7]"
8900,342,1.0,8,2,64.64663863182068,5.063972473144531,5525,35616,413117,2065745,"[ 1  3  1  2  0  2  1  2  1  0  1  3  2  1  3  0  0  3  0  1  6  2  2  7
  3  5  8  0  5  5  3  5  7  4  1 10  4  4  4  0  1  2  4 11  9  1 11 11
  0  0  3  4 17  9  0 18  0  1  1  2  2 22 14  1 21  3  2  2 17  0 23 15
  5 18 17 12 14 21  7]"
9000,342,1.0,8,2,65.18455648422241,5.379178524017334,5575,36016,415672,2085901,"[ 2  3  1  2  0  2  4  2  1  0  1  3  2  1  3  0  0  3  1  6  3  2  0  7
  3  5  4  2  5  7  3  5  7  2  1 13  5 11 11  0  1  2  5  2 13  0 11 15
  5 17  9  4 17  9  0 13  0  1  2 17  1 16 18  2 17  3  0  1  2  4 14 18
  3 17 22 12 14 21  7]"
9100,342,1.0,8,2,65.72343349456787,5.38877010345459,5631,36416,418283,2106490,"[ 2  2  1  2  0  2  2  2  3  0  1  3  2  1  3  0  0  3  1  6  8  0  6  1
  3  5  8  4  8  3  3  5  7  2  5 12  2 11 11  0  1  2  3  9  1  0 12  0
  5 11  9  4 17  9  0 13 18  1 10 10  1  0 16  2 15 19  0 21  3  3 19 21
  2  0 22 12 14 21  7]"
9200,342,1.0,8,2,66.26006388664246,5.36630392074585,5684,36816,420883,2127002,"[ 2  2  0  2  0  2  0  2  3  0  1  3  2  1  3  0  0  3  2  3  0  1  6  5
  3  5  8  3  3  3  3  5  7  4  5  4  2 11 11  0  1  2  4  9  8  2  3  0
  5 12  9  4 17  9  3 11 18  5 18 11  4  0 16  3  3 22  5  2 23  3  0 21
  2  0  0 12 14 21  7]"
9300,342,1.0,8,2,66.78298687934875,5.229229927062988,5742,37216,423379,2146671,"[ 1  2  0  2  0  2  4  2  3  0  1  3  2  1  3  0  0  3  2  7  5  1  3  8
  3  5  8  4  6  3  3  5  7  4  7  4  5  2 11  0  1  2  4  3  8  2  3 15
  0  9  0  4 17  9  3 15 15  4 13 11  0 16 16  2 16  0  5 17  0  5  0  2
  1 21  1 12 14 21  7]"
9400,342,1.0,8,2,67.3177535533905,5.3476667404174805,5795,37616,425927,2166749,"[ 0  3  0  2  0  2  3  3  3  0  1  3  2  1  3  0  0  3  5  6  5  0  3  4
  3  5  8  2  7  3  3  5  7  3 12 10  3  6 12  0  1  2  4  3  6  3  1 13
  0  9  0  4 17  9  3 11 13  4 13  1  2 17 16  2 14 19  5 17 16  3 21 23
  4 20 18 12 14 21  7]"
9500,342,1.0,8,2,67.82010412216187,5.023505687713623,5851,38016,428351,2185732,"[ 3  3  2  2  0  2  3  3  3  0  1  3  2  1  3  0  0  3  4  1  0  0  1  2
  3  5  8  2  3  3  3  5  7  3  0 11  3 12  9  0  1  2  3  6 10  2  3 13
  0  1 10  4 17  9  0 14 13  4 15 17  2 15 22  3 17 20  4  3  2  3 23  1
  4 22 14 12 14 21  7]"
9600,342,1.0,8,2,68.35754060745239,5.374364852905273,5903,38416,430963,2206317,"[ 5  2  1  2  0  2  5  0  1  0  1  3  2  1  3  0  0  3  5  6  8  0  1  2
  3  5  8  4  0  1  3  5  7  4  1  1  4  0  6  5 13  4  3  5  5  0 15  3
  2 14  2  4 11  9  5  3 18  2 10 15  5 15 17  4 18 23  4 17  2  5 21 22
  4 14 14 12 14 21  7]"
9700,342,1.0,8,2,68.8793683052063,5.2182769775390625,5955,38816,433567,2226762,"[ 5  2  2  2  0  2  3  0  2  0  1  3  2  1  3  0  0  3  0  6  3  0  1  2
  3  5  8  3  0  0  3  5  7  0  3  9  3  0 10  5  0  4  2 11 13  1  3 16
  3 14  0  4 11  9  1  1 18  2 12  2  1 19 17  5 18 23  0 16 15  4 19 18
  3 14 17 12 14 21  7]"
9800,342,1.0,8,2,69.44859957695007,5.692312717437744,6003,39216,436382,2248933,"[ 5  2  2  2  0  2  4  3  0  0  1  3  2  1  3  0  0  3  0  5  4  0  1  2
  3  5  8  3  5  6  3  5  7  3  3 12  1  9 11  1 13  0  3  1  5  1 16 18
  1 14  0  4 11  9  2  9 17  2 12 15  4 16  1  2 15  0  0  0 20  4 19 21
  3 20 20 12 14 21  7]"
9900,342,1.0,8,2,69.97042632102966,5.218267440795898,6057,39616,438893,2268671,"[ 2  3  1  2  0  2  3  3  1  0  1  3  2  1  3  0  0  3  4  8  0  0  1  2
  3  5  4  3  0  6  3  5  7  4  0  9  0 10  2  1 11  3  2  1  6  3 15 14
  1  3 12  4 11  9  5 17  2  2 10 15  4 15 16  4 23  0  1 18 15  2 19 16
  4 22 20 12 14 21  7]"
10000,342,1.0,8,2,70.49671530723572,5.262889862060547,6117,40016,441352,2288113,"[ 2  3  1  2  0  2  2  2  3  0  1  3  2  0  3  0  0  3  3  6  2  0  1  2
  3  5  4  2  5  1  3  5  7  2  9 10  5 11  2  4 13 11  2  1  9  5 15 14
  1 10  9  4 11  9  1 13  1  4  3 15  5  2 14  4 22 18  1 15 15  3 21  1
  1 22  1 12 14 21  7]"
10100,342,1.0,8,2,71.01523566246033,5.185203552246094,6173,40416,443872,2307975,"[ 2  3  1  2  0  2  0  2  3  0  1  3  3  0  3  0  0  3  4  1  5  0  1  2
  3  5  4  4  5  1  3  5  7  2  5 10  5 11  2  2  3 11  4  4 13  2  0 18
  1 12 11  4 11  9  1 13 17  1  3  0  5 18 14  2 16 18  0 20  0  4  3  1
  1 16 21 12 14 21  7]"
10200,342,1.0,8,2,71.51664781570435,5.0141215324401855,6243,40816,446302,2327048,"[ 2  3  1  2  0  2  1  1  1  0  1  3  1  1  0  0  0  3  5  1  5  0  1  2
  3  5  4  2  2  6  3  5  7  4  5 10  5 11  2  2 11 11  4 10  3  1  0 18
  0 12 11  4 11  9  4  3 17  1  1 12  2 22 19  2 16 18  0  2 14  3 23 19
  0 22 21 12 14 21  7]"
10300,342,1.0,8,2,72.09938907623291,5.8274126052856445,6287,41216,449228,2350085,"[ 2  3  1  2  0  2  1  3  0  0  1  3  0  1  0  0  0  3  4  2  8  0  1  2
  3  5  4  3  8  7  3  5  7  1 10 11  2  3 10  0  3  2  1  9  5  1 18 18
  0  0 16  4 11  9  3  3 17  1  2  0  3  1 17  3 23 22  0  3  0  4 22 18
  3 18 21 12 14 21  7]"
10400,342,1.0,8,2,72.65116596221924,5.517768859863281,6340,41616,451922,2371284,"[ 2  3  1  2  0  2  4  0  0  0  1  3  1  2  2  0  0  3  4  4  4  0  1  2
  3  5  4  3  1  0  3  5  7  4 11 11  0  0  8  2 10  1  1  6 12  3  2 18
  0 10 16  4 11  9  2 14  3  4  2 12  1 20  0  3  2  0  1 14 14  4 22  1
  2 17 21 12 14 21  7]"
10500,342,1.0,8,2,73.22098350524902,5.698175430297852,6391,42016,454795,2393860,"[ 2  3  1  2  0  2  0  1  2  0  1  3  3  3  3  0  0  3  4  4  6  0  1  2
  3  5  4  1  1  4  3  5  7  0  7  7  3  0  8  1  8  0  5  3 12  0 18 18
  0 10 13  4 11  9  5  1 10  1 13 14  5 21  1  0  2  0  0 22 14  0 22 16
  1 22 21 12 14 21  7]"
10600,342,1.0,8,2,73.76039791107178,5.394144058227539,6445,42416,457438,2414467,"[ 2  3  1  2  0  2  0  2  2  0  1  3  0  1  1  0  0  3  4  2  0  0  1  2
  3  5  4  3  7  8  3  5  7  0  5  2  2  6  7  0  5  0  2 11 12  5  3 18
  1 17 17  4 11  9  5  9  0  1 10 14  2  1  1  0 17  0  0 22  2  4  2 14
  5 20 22 12 14 21  7]"
10700,342,1.0,8,2,74.280029296875,5.196313858032227,6502,42816,459953,2434332,"[ 2  3  1  2  0  2  0  1  0  0  1  3  1  1  1  0  0  3  4  7  2  0  1  2
  3  5  4  3  4  8  3  5  7  1  5 10  1 10  2  4 11  5  0 11  6  5  3 18
  0  2 16  4 11  9  1 10  0  0 10 15  2 22  1  5 17 22  0 17  0  2  2 20
  5 20 15 12 14 21  7]"
10800,342,1.0,8,2,74.78814578056335,5.081164836883545,6558,43216,462508,2454548,"[ 2  3  1  2  0  2  0  2  3  0  1  3  1  1  3  0  0  3  2  5  0  0  1  2
  3  5  4  2  1  5  3  5  7  1  0  7  2  2  0  5 11  8  5  8  5  0 11 10
  4  3  0  4 11  9  0 17  2  2  0 16  3  2  0  0 19 20  2  2 16  0 19 23
  5 23  0 12 14 21  7]"
10900,342,1.0,8,2,75.34020137786865,5.5205559730529785,6612,43616,465186,2475640,"[ 2  3  1  2  0  2  1  2  2  0  1  3  2  0  1  0  0  3  2  0  8  0  1  2
  3  5  4  0  5  5  3  5  7  1  2  4  2  9  1  5  0  0  5 13  2  4 11 14
  5  1 18  4 11  9  0 12  3  2 18 16  3  0 21  3 17 20  2 20 19  0  3 18
  5 23  1 12 14 21  7]"
11000,342,1.0,8,2,75.89355278015137,5.533514022827148,6670,44016,467890,2496772,"[ 2  3  1  2  0  2  1  1  2  0  1  3  3  0  1  0  0  3  4  8  2  0  1  2
  3  5  4  4  5  8  3  5  7  2  7  8  4  0  4  5  6  3  5  0  1  0  3 14
  4  2  9  4 11  9  0  9  0  4 10 16  5 19 22  1 21 20  0 14 16  0  3  3
  5 21 19 12 14 21  7]"
11100,342,1.0,8,2,76.50031423568726,6.067614555358887,6724,44416,470350,2516300,"[ 2  3  1  2  0  2  3  1  2  0  1  3  3  2  1  0  0  3  4  8  5  0  1  2
  3  5  4  3  8  3  3  5  7  2  7  8  5 13  4  5 13  5  2  8 13  0  3 14
  2 14  9  4 11  9  0  9 10  4  9 17  0 23 22  3  1  1  2 19  3  1  3 22
  5 21 15 12 14 21  7]"
11200,342,1.0,8,2,77.04885935783386,5.4854512214660645,6777,44816,473026,2537349,"[ 2  3  1  2  0  2  5  0  0  0  1  3  1  3  3  0  0  3  5  8  0  0  1  2
  3  5  4  5  6  8  3  5  7  5  3  8  5  7  2  5 13  3  4  5 13  1  3 14
  1  2  3  4 11  9  5 18  9  4 11  0  1 19 14  4 18  2  1 19  0  4 14 22
  5 21 21 12 14 21  7]"
11300,342,1.0,8,2,77.54934215545654,5.004827976226807,6832,45216,475446,2556507,"[ 2  3  1  2  0  2  3  0  3  0  1  3  1  3  2  0  0  3  5  8  8  0  1  2
  3  5  4  0  6  8  3  5  7  5  1  8  1 10  2  5  5 10  4  6  7  3  3  9
  5  2 18  4 11  9  4 17  9  2 13 16  3 20 19  2 21 16  3  0 20  2 21 22
  5  0 15 12 14 21  7]"
11400,342,1.0,8,2,78.1134102344513,5.64068078994751,6873,45616,478280,2578945,"[ 2  3  1  2  0  2  3  0  2  0  1  3  1  2  0  0  0  3  0  6  1  0  1  2
  3  5  4  3  7  8  3  5  7  0 12  6  0  4 12  0  2  5  4  7  0  3 17  2
  3 17 15  4 11  9  5  3  3  2 15 12  1 20 16  1  3 16  1 21 21  0 21  3
  5 18 14 12 14 21  7]"
11500,342,1.0,8,2,78.66176676750183,5.483565330505371,6931,46016,480959,2600006,"[ 2  3  1  2  0  2  0  0  2  0  1  3  1  3  1  0  0  3  0  3  7  0  1  2
  3  5  4  5  6  8  3  5  7  1 12  2  0  4  9  0  6 12  2  7  0  4  9 11
  3 16 14  4 11  9  5  9  3  3 15 12  3 20 16  4 14 18  1 22 17  2 16 18
  5 19 14 12 14 21  7]"
11600,342,1.0,8,2,79.20991778373718,5.481510162353516,6987,46416,483415,2619311,"[ 2  3  1  2  0  2  3  3  1  0  1  3  0  2  2  0  0  3  0  3  8  0  1  2
  3  5  4  0  6  7  3  5  7  3  6  5  0 12 13  0  6 12  2  7  0  3 18 11
  1 16 12  4 11  9  0  9 12  3 15 14  4 22 17  4  3 20  2 16 16  3 16  2
  5 17 14 12 14 21  7]"
11700,342,1.0,8,2,79.8905713558197,6.806535720825195,7030,46816,486082,2640383,"[ 2  3  1  2  0  2  3  1  0  0  1  3  4  3  0  0  0  3  0  7  7  0  1  2
  3  5  4  3  5  7  3  5  7  5  1  2  2  0  6  2  6  4  1  7  0  0 18  1
  3 16  2  4 11  9  0 12 17  4 11 14  1 14 17  0  3 15  2  2 15  3  0  0
  2  2  2 12 14 21  7]"
11800,342,1.0,8,2,80.4843533039093,5.937819480895996,7086,47216,488506,2659463,"[ 2  3  1  2  0  2  3  1  3  0  1  3  4  3  1  0  0  3  2  4  5  0  1  2
  3  5  4  3  1  4  3  5  7  1  3  5  5  0 12  4  6  6  3  8  4  0 15 17
  3 18 13  4 11  9  0  9 17  1 11 13  0 14 18  5  0 17  4 16 15  5  0  0
  4 20 14 12 14 21  7]"
11900,342,1.0,8,2,81.07806706428528,5.937137603759766,7136,47616,491175,2680479,"[ 2  3  1  2  0  2  3  1  3  0  1  3  5  3  1  0  0  3  3  1  8  0  1  2
  3  5  4  1  4  4  3  5  7  4 13  3  5  0  8  4  5  6  2  6  1  3 15 17
  3 10  2  4 11  9  1  1  2  1 11  9  0 18 16  2  0 22  5 22  1  1 23  0
  2 14 14 12 14 21  7]"
12000,342,1.0,8,2,81.6249430179596,5.468759536743164,7194,48016,493703,2700492,"[ 2  3  1  2  0  2  3  0  3  0  1  3  2  1  1  0  0  3  1  7  8  0  1  2
  3  5  4  3  2  2  3  5  7  1 10  5  1  2  8  4  3 13  2  3  4  2 14 11
  2 12 15  4 11  9  1 17 10  2 13 15  4 18 16  2 23 15  0  1 18  3  3 14
  1 18 17 12 14 21  7]"
12100,342,1.0,8,2,82.18748188018799,5.6253886222839355,7251,48416,496352,2721373,"[ 2  3  1  2  0  2  5  3  2  0  1  3  2  3  1  0  0  3  1  8  2  0  1  2
  3  5  4  3  2  0  3  5  7  3  0 12  1  8  8  4  1 13  1 12 11  5  9  9
  2 17  2  4 11  9  2 16 17  3 14 15  1 18  3  4  1 16  3  2 22  1 23 23
  1 22 17 12 14 21  7]"
12200,342,1.0,8,2,82.70325827598572,5.157763957977295,7309,48816,498867,2741136,"[ 2  3  1  2  0  2  0  3  3  0  1  3  2  3  1  0  0  3  1  0  5  0  1  2
  3  5  4  3  2  7  3  5  7  3  6 13  5  6  8  5  7 13  4  6  1  5 16 16
  2 10 15  4 11  9  3 16 17  0 14 11  1 22  1  4 18 16  4  1  3  1 19 22
  2 22 16 12 14 21  7]"
12300,342,1.0,8,2,83.25012874603271,5.468704700469971,7371,49216,501406,2761126,"[ 2  3  1  2  0  2  0  3  1  0  1  3  4  1  3  0  0  3  1  1  0  0  1  2
  3  5  4  3  5  4  3  5  7  3  8 13  1  6  9  4 12 13  4  6  1  5 15 18
  3 16 11  4 11  9  0 12 12  1 14 11  1 19 21  4 21 18  2  1  0  1  0 22
  2 21 22 12 14 21  7]"
12400,342,1.0,8,2,83.78137850761414,5.312497615814209,7427,49616,504040,2781790,"[ 2  3  1  2  0  2  2  1  2  0  1  3  4  1  3  0  0  3  4  1  8  0  1  2
  3  5  4  1  5  4  3  5  7  3  6  6  1  5 10  4 12  1  4  6  1  5 17 18
  4 11  9  4 11  9  0 11  2  4 14 15  0 18  1  2 20 18  4  1 20  5  0 22
  0 21 23 12 14 21  7]"
12500,342,1.0,8,2,84.29696679115295,5.155882835388184,7484,50016,506529,2801321,"[ 2  3  1  2  0  2  2  1  2  0  1  3  4  1  2  0  0  3  0  1  7  0  1  2
  3  5  4  0  3  7  3  5  7  3  5  6  2  9  2  2  4 10  1  0  8  0 17 11
  2 15 12  4 11  9  0 18  9  5 12 16  4 18  2  2  1 18  0  1 20  5 19 21
  4 17  1 12 14 21  7]"
12600,342,1.0,8,2,84.80094194412231,5.0397515296936035,7538,50416,508977,2820547,"[ 2  3  1  2  0  2  4  1  2  0  1  3  4  1  3  0  0  3  0  1  6  0  1  2
  3  5  4  4  3  7  3  5  7  0  5  6  4  1  3  0 12  8  1  0  4  2 17 17
  5  1 17  4 11  9  0 18  9  5 12 10  1 19 23  4 14 18  0  1 22  1 19 22
  5 17  2 12 14 21  7]"
12700,342,1.0,8,2,85.33580803871155,5.348660945892334,7592,50816,511452,2840052,"[ 2  3  1  2  0  2  0  3  3  0  1  3  2  1  3  0  0  3  1  2  6  0  1  2
  3  5  4  0  7  7  3  5  7  0  6 12  2  9  3  5  0  0  4  7 12  4  3 17
  5 14 14  4 11  9  3  3 16  2 10 11  4 22 20  4  0 18  2  1 22  1 17 18
  0  3  3 12 14 21  7]"
12800,342,1.0,8,2,85.89140009880066,5.555920600891113,7641,51216,514263,2862209,"[ 2  3  0  2  0  2  0  2  3  0  1  3  2  1  3  0  0  3  2  2  3  0  1  2
  3  5  8  3  7  0  3  5  7  0  7  2  2  1  3  5  8  0  3  7  6  4  1  2
  5  0 17  4 11  9  2  0 12  5 10 14  3 19 17  0 20 18  2  1 23  1 17 17
  0 16 16 12 14 21  7]"
12900,342,1.0,8,2,86.46125507354736,5.698549747467041,7697,51616,516867,2882757,"[ 5  3  0  2  0  2  5  2  1  0  1  3  2  1  3  0  0  3  2  2  4  0  1  2
  3  5  8  0  8  3  3  5  7  0  7  5  4  1 10  5  9  2  2 11  5  1 17 16
  4  0 16  4 11  9  1  3 12  2 15 12  5 17 22  0 23 18  1 21 23  1 17 19
  1  0 16 12 14 21  7]"
13000,342,1.0,8,2,87.15677547454834,6.955204010009766,7750,52016,519473,2903356,"[ 4  3  0  2  0  2  3  1  3  0  1  3  2  1  3  0  0  3  5  2  4  0  1  2
  3  5  8  0  0  4  3  5  7  0  7  8  3  4 12  0  3  2  1 12  2  2 13 10
  4  3 18  4 11  9  3  1 10  0 15 12  4 20 16  4 21 18  0  2 23  3  2 23
  0 14 18 12 14 21  7]"
13100,342,1.0,8,2,87.74309468269348,5.863192081451416,7798,52416,522300,2925648,"[ 5  1  1  2  0  2  1  2  0  0  1  3  2  1  3  0  0  3  3  1  4  0  1  2
  3  5  8  0  2  4  3  5  7  2  2  2  0  5 12  4 10  4  1  5  0  2 15  9
  1 16 12  4 11  9  2  9 10  2 10 11  4 21 22  2 15 19  0 14 22  5 16  3
  0 19 21 12 14 21  7]"
13200,342,1.0,8,2,88.34819054603577,6.050958633422852,7845,52816,524968,2946817,"[ 3  3  3  2  0  2  1  0  0  0  1  3  2  1  3  0  0  3  5  6  2  0  1  2
  3  5  8  0  2  4  3  5  7  1  5  9  0  7 13  1  7  9  0  4  0  2 15  9
  0 14 12  4 11  9  2  0 16  2 18 17  5 16 19  2 16 20  4 16 23  3  2 20
  0 23 20 12 14 21  7]"
13300,342,1.0,8,2,88.9783148765564,6.301243305206299,7898,53216,527668,2968024,"[ 0  0  3  2  0  2  3  1  0  0  1  3  2  1  3  0  0  3  2  5  2  0  1  2
  3  5  8  2  4  6  3  5  7  2  7 12  0  7  4  1  3  0  3  9 13  5 15  3
  1 10 10  4 11  9  3  0 18  0 17 17  4 16 23  3 14 15  2 18 23  2 22 15
  1 20 23 12 14 21  7]"
13400,342,1.0,8,2,89.55828380584717,5.799689292907715,7947,53616,530377,2989418,"[ 4  0  2  2  0  2  5  1  0  0  1  3  2  1  3  0  0  3  4  8  6  0  1  2
  3  5  8  2  7  2  3  5  7  3  5 12  1  5  9  4 11  7  2  2  3  0 16  3
  4 10 13  4 11  9  5  1  2  5 15 12  0  1 16  0  2 15  2 19 23  5 17 20
  0 16 21 12 14 21  7]"
13500,342,1.0,8,2,90.10828137397766,5.499975681304932,8007,54016,532870,3009113,"[ 4  1  2  2  0  2  5  1  0  0  1  3  2  1  3  0  0  3  5  8  3  0  1  2
  3  5  8  2  2  6  3  5  7  3 13 11  2  1 12  5 13  7  2  3  3  4 14 12
  5 10 13  4 11  9  1 13  0  5 13 17  3  1  3  4  2 14  2 19 19  3 19 20
  0 16 17 12 14 21  7]"
13600,342,1.0,8,2,90.7411756515503,6.328942775726318,8057,54416,535539,3030243,"[ 1  1  3  2  0  2  2  0  2  0  1  3  2  1  3  0  0  3  5  8  4  0  1  2
  3  5  8  0  6  5  3  5  7  5  5  4  0  7 12  4  5  7  0  7  3  0 18 16
  2  2 13  4 11  9  4 13  9  3 13 14  1 17 18  2 20 21  5 15 19  5  3 20
  0 20 16 12 14 21  7]"
13700,342,1.0,8,2,91.40725469589233,6.66079044342041,8105,54816,538051,3050126,"[ 0  0  3  2  0  2  5  3  3  0  1  3  2  1  3  0  0  3  4  5  5  0  1  2
  3  5  8  0  7  0  3  5  7  1  5 10  4  3 12  1 11 11  5  3  5  0  0 18
  4  0 14  4 11  9  3 18  9  2  0  0  1 17 21  1  0  0  4  2  3  2 23  2
  5  0 22 12 14 21  7]"
13800,342,1.0,8,2,92.00369453430176,5.964398384094238,8162,55216,540618,3070224,"[ 1  2  0  2  0  2  0  3  0  0  1  3  2  1  3  0  0  3  5  3  3  0  1  2
  3  5  8  4  2  1  3  5  7  5  1 10  1 11  8  0  3 13  2  9  5  0  3 17
  0  1 14  4 11  9  1  0 11  3 11  1  5 17 21  4 17  0  3  2  0  3  3 20
  2  3 22 12 14 21  7]"
13900,342,1.0,8,2,92.55429410934448,5.505995750427246,8218,55616,543176,3090303,"[ 5  3  3  2  0  2  2  0  0  0  1  3  2  1  3  0  0  3  2  0  1  0  1  2
  3  5  8  5  0  1  3  5  7  1  4  0  1 11 10  5  4 10  3  2  5  0 18  0
  1 10  3  4 11  9  0 12 11  5 10 11  3  0 22  4 17 21  3  2 15  3  0  3
  1  3 15 12 14 21  7]"
14000,342,1.0,8,2,93.12206554412842,5.6777143478393555,8273,56016,545747,3110559,"[ 3  0  2  2  0  2  4  0  0  0  1  3  2  1  3  0  0  3  2  3  3  0  1  2
  3  5  8  4  0  1  3  5  7  3 11  8  0  0 10  4  5  0  1  1  5  0 18 13
  1  9 18  4 11  9  1  3 16  5  3 18  3  0 22  4 17 19  0  2 14  0  2 17
  0 17  2 12 14 21  7]"
14100,342,1.0,8,2,93.68153834342957,5.594727993011475,8327,56416,548343,3130906,"[ 5  0  1  2  0  2  0  3  0  0  1  3  2  1  3  0  0  3  2  4  6  0  1  2
  3  5  8  2  7  1  3  5  7  0  8 13  3  2 10  4  5  0  1  1  0  0 18 13
  1 12  9  4 11  9  0 13 16  5  1 18  1 18 19  4 17 19  0  2  0  4 19 20
  4 17 17 12 14 21  7]"
14200,342,1.0,8,2,94.23766160011292,5.561232566833496,8383,56816,550932,3151319,"[ 5  3  0  2  0  2  0  3  3  0  1  3  2  1  3  0  0  3  5  5  6  0  1  2
  3  5  8  2  0  3  3  5  7  1  5 13  0  2  9  0  4  1  0  6  0  1 18 12
  5 12 14  4 11  9  3 14 11  5  1  9  1 19 19  1 21 19  5 16  1  1 15 15
  4 15 23 12 14 21  7]"
14300,342,1.0,8,2,94.83494067192078,5.972790718078613,8433,57216,553582,3172123,"[ 4  3  0  2  0  2  0  3  2  0  1  3  2  1  3  0  0  3  1  8  6  0  1  2
  3  5  8  3  0  6  3  5  7  1  6  5  3  8  4  5  1 10  3  8 12  2  9 12
  3 11  2  4 11  9  4  2 14  5 13  9  3 19 17  4 20  1  0 21 17  3 14 16
  4 15 23 12 14 21  7]"
14400,342,1.0,8,2,95.47048449516296,6.355438232421875,8491,57616,556217,3192883,"[ 3  3  1  2  0  2  0  2  3  0  1  3  2  1  3  0  0  3  3  7  8  0  1  2
  3  5  8  3  0  5  3  5  7  1  5  2  4  8  4  2 12  1  3  3  5  2  9 14
  5 11  2  4 11  9  4  1 14  5 13  9  5 20 17  4 19 15  0 21 18  3  1 15
  5 15 15 12 14 21  7]"
14500,342,1.0,8,2,96.13685965538025,6.663751602172852,8541,58016,558912,3214188,"[ 4  1  0  2  0  2  3  0  3  0  1  3  2  1  3  0  0  3  3  6  6  0  1  2
  3  5  8  5  6  1  3  5  7  1  1  3  4  8  4  3 12 11  0  3  7  5 11  1
  1 17  9  4 11  9  4 16 18  1 13  9  1 20 23  5 14 22  2 21  1  1  1 15
  1 14 23 12 14 21  7]"
14600,342,1.0,8,2,96.68790435791016,5.510447025299072,8601,58416,561379,3233560,"[ 4  0  3  2  0  2  1  1  3  0  1  3  2  1  3  0  0  3  3  7  1  0  1  2
  3  5  8  0  6  8  3  5  7  1  1  3  5  9 13  3  1  3  0  3 11  3 15  1
  5 11 14  4 11  9  1 16 18  1 13  9  4 20 23  5 19 22  5 21 21  4  1 15
  1 17 23 12 14 21  7]"
14687,343,1.0,7,2,97.21956372261047,6.111027180463418,8651,58764,563684,3251753,"[ 0  0  3  2  0  2  1  2  1  0  1  3  2  1  3  0  0  3  0  6  1  0  1  2
  3  5  8  0  3  8  3  5  7  2  7  3  0  9 11  3  7  5  1  3  7  3 11  0
  5 10 14  4 11  9  3 16 18  1 13 11  4 20 17  0 15 22  5 17 21  4  3 18
  2 20 23 16 14 21  7]"
