generation,fitness,functionality,active_nodes,longest_path,time,gen_time,nc_gens,fitness_evals,graph_evals,node_evals,genotype
0,247.0,0.65625,15,4,0.007459163665771484,7.456302642822266,0,0,0,0,"[ 5  1  2  4  3  3  5  1  0  0  3  2  2  1  2  2  1  2  2  2  2  3  4  9
  5  5  8  0  5  7  2  2  6  3 10 10  2  7  3  3 10 10  3  9 11  4 14  7
  0 17 14  0  3 11  0  5  5  0 14 15  2 16 11  0  7  0  4 23  5  0 14 15
  1 17 22  3 11 13  4  6 16  3  0  7  3 21 14  4 30  1  3  8  0  2 13 26
  1 31  0  2 16  8  4 29 20  1 16  9  0 12 37  3  7  7  3 21  4  5  3 36
  2 15  7  4 13 28  3 16 29  0  8 34  4  6  8  0 34 26  4 34 15  4  6 21
  3 40 21 42 27 23 37]"
100,327.0,0.890625,11,3,0.7735321521759033,7.660703659057617,37,400,5585,65232,"[ 5  3  1  3  0  3  3  1  0  0  3  2  2  1  3  3  1  3  2  2  3  2  4  4
  3  5  2  2  5  5  2  3  6  3  1 10  2  8  4  3  5  8  5  2 11  0 14  2
  0  1  4  0 13 11  0  0  5  0  2 11  2 11  4  0 10  3  4  7  6  0 14 15
  4  2  7  0  8 13  5  5  2  2  0  3  3 10 22  4  3 18  2 30  2  5 15  5
  2 27 22  3  8  8  2  2 11  2 38  9  2 12 20  3 38 20  3 11  4  5  3  7
  2 25  2  3 31 15  5 13 29  0 44 34  4 30 32  1 34  8  5 34 19  3 38 21
  2 10 38 42 27 23 37]"
200,333.0,0.90625,10,3,1.4518358707427979,6.783013343811035,70,800,10606,120491,"[ 5  3  1  0  3  3  0  3  0  0  1  3  3  1  3  3  0  2  2  2  2  3  4  4
  1  5  5  4  4  5  4  0 10  3  4 10  1 10  1  3  2  3  5  7  6  3  1  4
  5  2  2  5  6  1  3  5  5  0  2 15  3  0  4  0 13  3  0 13  6  0 14 15
  4  8  9  4  1 13  4  5 18  2  9  3  3 10  8  3 23 16  3 30  2  2 15 31
  2 27 14  5 11  8  3  7  6  2 24 23  2 25 19  3 18  4  5 11  4  5  4  4
  2  9 14  2  5 37  2 10 19  0 44 40  1 17 32  0 34  8  4 45 19  5  1 34
  5 17 42 42 27 23 37]"
300,338.0,0.921875,10,3,2.0894222259521484,6.375842094421387,117,1200,15546,172176,"[ 5  3  1  0  3  1  5  1  0  2  3  1  3  1  3  1  2  1  3  2  2  3  4  8
  0  5  5  4  1  5  1  3  4  5 10  3  1 10  3  3  7  3  5 17 15  3  5 10
  0  8 14  5  6  1  3  5  4  0 11  0  2 12  4  2 13  3  1 13 20  0  0 19
  4  7  9  4 23 19  3  7 18  5 12  3  2 15  0  1 23 14  2 18 18  1  0  4
  0 31  8  5 11  8  3  7  8  2 30 21  3 25 19  4 16  4  3 11  4  4 13 23
  2  9  5  2 29  6  1 31 19  0 33 17  3 38 20  4  8  9  0 45 17  2  1 31
  2 17 22 42 27 23 37]"
400,338.0,0.921875,10,3,2.6687257289886475,5.79301118850708,171,1600,20005,217800,"[ 5  3  1  0  3  1  2  1  0  0  3  3  3  1  3  5  3  1  2  0  2  3  4  8
  0  1  4  5 10  0  2  5  1  3 10  6  0  8  0  5  7  3  0  4  4  3  5 10
  0  8  8  3 12  2  2 16  2  0 11  0  1 10 12  4 13  3  3 13  7  0  0 19
  3 10  9  4 18  1  4 17 18  4 12 18  2 12  0  5 23  2  4 28 12  3 19  4
  3 14  8  5 11  8  4 25 25  4 30 28  4  5 32  4 13 13  3 11  4  4 13 22
  2  0  5  2 34  1  0 10 19  1 33 29  4 11 42  4  0 14  2 45 37  5  8 31
  3 20 22 42 27 23 37]"
500,339.0,0.921875,9,3,3.246770143508911,5.780422687530518,219,2000,24639,263025,"[ 3  3  1  0  3  1  2  1  1  4  3  3  3  1  3  5  3  3  2  0  2  3  8  5
  0  2  4  2  3  0  1 10  7  3  1  6  3  8  6  5  0  3  1  4  4  3  5 10
  1 10  8  3 12  2  5  8 12  0 11  2  1  5 13  4 13 23  3 10  4  0  2 19
  2 10 18  1  4 17  0 17  6  4 15 11  4 12  0  1 23  8  0 26 12  0 29  8
  4 17  9  3 11  8  0 18 13  1 11  4  4  5 36  4 13 13  5 37 30  1 13 22
  2 11  5  2 19  9  0 33 28  1 33  7  2  4 31  4 11  7  5 10 32  3 18 17
  3 34 23  7 27 23 37]"
600,339.0,0.921875,9,3,3.823091745376587,5.763192176818848,267,2400,29506,307503,"[ 1  1  1  0  3  1  3  1  2  4  3  3  3  1  0  1  3  1  2  0  0  5  8  5
  0  8  9  3  6  0  1 10  0  3  8  1  1  0 10  0 10  3  3  0  5  3  5 10
  4  2  8  2  6  7  4  3 12  0 11  2  3 12  8  4  5 24  0 10  4  0  2 19
  0 21 23  4  4 17  2 10 10  5 15 19  2 31  7  2 15 23  1 20  9  2 25  8
  5 13  9  3 11  8  5  6 11  2  5  5  4  4  9  1 11 13  1 37 21  4 33  3
  2  7  6  4 17 36  4  1 45  4 33  7  2 42  9  5 11  7  1 27 23  1 45 43
  0 42 24  7 27 23 37]"
700,339.0,0.921875,9,3,4.392265558242798,5.691711902618408,310,2800,34149,350193,"[ 1  2  2  0  3  1  1  1  2  4  3  3  3  3  3  1  3  1  2  0  0  3  8  5
  4  8  9  3  6  2  1  3  9  4  8  9  1  9 10  2  2  1  2 16  8  3  5 10
  3  6 10  2  3  8  3  7  2  0 11  0  3 12  2  4 24  7  1 19 24  0  2 19
  2 11 23  3  1 20  5 19 19  0 15 23  2  2 23  4 10  5  3  4 11  0 10  8
  5 21 25  3 11  8  1  6 15  2 34 28  1  0 16  2 11 13  1 37 13  4 28 22
  0  3 29  2 17 16  3  1 28  1 16 43  2 21  1  4 31 25  4 27 23  4 45  6
  4 43  0  7 27 23 37]"
800,339.0,0.921875,9,3,5.015832901000977,6.235649585723877,355,3200,39213,396927,"[ 5  1  1  0  3  1  5  1  1  4  3  3  3  1  3  2  2  2  5  3  1  5  8  5
  2  8  2  0  5  8  2  7  5  4  4  8  2 10  3  4  6  1  5  3  1  3  5  9
  4  9  4  5 11  1  3  4  3  0 11  0  5 12 11  4 23  8  0  6 19  0  0 19
  2 10  4  0  6  4  4 19  4  0 22  5  2  4 23  4 10  0  0 13  0  2  8  8
  5  3  3  3 11  8  0 28 12  0  3  7  2 13 30  2 38 21  4 25 35  3  2 16
  2  4 29  2 31 34  3 29 29  1 26  9  3  7 45  2  7 40  4 28  2  4  3 45
  2  4 29  7 27 23 37]"
900,340.0,0.921875,8,3,5.572681427001953,5.5684614181518555,401,3600,44236,437299,"[ 4  1  2  0  3  1  4  0  0  4  3  3  0  1  0  3  2  2  5  3  2  3  4  5
  1  8  3  0  0  8  3  2  0  2 10  5  0 10  9  0  6  1  3  9  1  3  5  9
  2 17  4  5 11  1  3  7  3  5 15  0  3  2 16  0 21  4  0 12 19  0  0 19
  2 23 21  5 21  7  4 12  6  5 11  5  2 22 28  5 19  7  0 22 10  4 17  1
  3 23  3  0  1  0  3 21 25  0  3 22  2  5  9  2  6 21  0 32 35  5 33 16
  0  4  1  1 21 23  0 30  8  4 39  5  0 42 42  3 29 40  4  7  2  2 23 44
  1 16  5  7 27 23  5]"
1000,340.0,0.921875,8,3,6.111883640289307,5.392005443572998,453,4000,49019,475978,"[ 3  3  1  0  3  1  4  0  0  3  3  3  3  3  0  2  2  2  3  3  1  3  8  5
  5  6 10  4  7  8  4  6  1  2 10  0  3  4 10  5  9  1  1 14 17  3  5  9
  4 17  4  5  5 13  3  1  2  0 15  0  4  1  5  0 24 19  3 23  4  0  0 19
  0 20  8  2 13 21  4 18  6  1  3  5  1 24 28  5 19 21  5  1  4  2  2  2
  4 23 18  4 23  3  4 27  4  0 31 22  3  5 35  1 19 12  3  7 25  5 24  4
  1 35 29  4 22 23  2 39 33  4  2 30  5 45 28  2  9 40  4 34 24  5 41  4
  1 34 42  6 27 23  5]"
1100,342.0,0.921875,6,3,6.6179540157318115,5.060687065124512,504,4400,54159,509646,"[ 5  3  0  0  3  1  4  0  0  5  2  0  2  0  0  2  2  0  2  2  3  5  3  5
  5  7  9  0  6  1  0  4  8  0 10  9  3  4  2  2  7  1  0  2  9  3  5  9
  4 13  2  5 14 13  2  8 17  0  3  0  0  4  7  5  8 19  1  7  4  0  0 19
  2 24  2  3 13 16  5  7  1  3 17 19  3 19 28  5 24  6  1 26  7  4  9  2
  3 14 24  4  4  3  2  0  5  3  8 17  1  5 31  3 13 18  4 34 38  5 20 22
  4 35 29  2 28  8  5 35 33  0 39 19  5 43  0  4 41  1  0 34 20  0 16  2
  4 41  0  6 27 23  5]"
1200,342.0,0.921875,6,3,7.081532716751099,4.635765552520752,558,4800,58810,539098,"[ 1  2  3  0  3  1  4  0  0  2  2  0  3  1  2  4  2  0  0  0  2  2  6  2
  0  7 10  1  9  3  5  5  0  3  2  0  4  6  3  2 10  3  0 10  9  3  5  9
  5 17  3  0  9 13  5  2 17  0  3  0  2  3  2  5  3 14  0 16  4  0  2 19
  5  7 12  5 16 21  1 24 15  3 10 13  2  4 15  3 19 25  1 14  3  3  6 28
  2 14  7  4 15 18  5 23  0  5 22 21  5 33 10  1  2  3  4 34 17  4 11 34
  3  7 34  2 31 35  4 20 44  3  1  4  0 13 15  3 30  4  5  4 12  5 11 20
  4 39  6  6 27 23  5]"
1300,342.0,0.921875,6,3,7.556357145309448,4.748222827911377,606,5200,63563,569226,"[ 2  3  3  0  3  1  4  0  0  1  0  3  1  1  0  4  2  0  0  3  2  3  6  7
  4  5  7  4  4 10  2  9  6  2  1  0  2  8  8  3  8  1  4 11  2  3  5  9
  5 17 13  4 16 10  0 10  5  0  1  9  2  7  7  5 18  1  1 15  8  0  2 19
  5 16 21  5 15 14  4  0 15  3 13 15  0 20  5  3  4 11  1 14  7  3 26 11
  4  0 11  0 25 18  3 31  6  5 31 24  2  5 10  4 21 25  5 11 30  2  5 15
  3 27 14  1  4  7  1 10 26  4  9 37  0 16 13  3 30  1  5  7  0  1 10 23
  5  0 37  6 27 23  5]"
1400,342.0,0.921875,6,3,8.038231372833252,4.818718433380127,658,5600,68250,600068,"[ 1  0  1  0  3  1  4  0  0  0  0  3  1  2  1  4  2  0  2  1  3  0  4  6
  5  2  8  0  7  8  3  3  1  3  1  7  2  6  7  5  6 10  0  1  3  3  5  9
  4 12 12  4  9 15  3 12 16  0  5  9  0  6 10  5 18 22  1  4 21  0  0 19
  2  6 11  1 13 13  0 20 17  1  3 22  1 20 29  2  8 23  3 14 13  0 11  1
  0 26  9  5 27  7  5 21 24  3  7 28  3 36 10  3 38 31  3 35  5  2 15 29
  0 36 14  4  6 38  4 15 33  3 34 38  0 20 15  2  2 39  2 32  9  1 32 25
  4 14  3  6 27 23  5]"
1500,342.0,0.921875,6,3,8.522553443908691,4.843194484710693,710,6000,73058,630958,"[ 1  2  3  0  3  1  4  0  0  3  0  0  0  2  3  4  2  0  4  2  0  0  0  2
  5  9  8  1  8  9  1  1  3  4  1  1  5  0  3  5  3  2  0  1  3  3  5  9
  5  3  7  0  9 14  3  2  7  0  1  9  3 11 10  5 23 20  2 13 21  0  0 19
  3  6  3  4 13 13  1 13 23  2  0  7  4 20 19  3 10 28  2 30 19  0 11  8
  5  5  9  0 27 25  4 14  3  2 22 30  4 28 30  3 16  1  3  0 12  2 18 31
  4 33 12  4 11 36  4 25 22  0 24  8  2 41 29  2 44 27  1 32  9  1 42 25
  3 14 16  6 27 23  5]"
1600,342.0,0.921875,6,3,8.99878215789795,4.76226806640625,766,6400,77882,661547,"[ 4  3  3  0  3  1  4  0  0  0  2  1  1  2  0  4  2  0  1  1  2  2  0  7
  4  6  5  1  8  9  1  0  4  3  6  5  2  2  9  3  3 10  4  9  6  3  5  9
  1  3 10  1 15  1  5  9  4  0  3  9  3 13 11  4  1 15  1 13 12  0  0 19
  5 23  6  0 12  5  4  8 22  2 21 17  4 23  4  2 29 25  5 11 24  4 11 11
  4 18 23  2  8 25  1 16 31  2 35 30  1  0 35  2 16  0  3 38 37  5 25 38
  1 17 35  4 17 14  2 41 41  3 33 15  0 11 39  5  3 13  2  2 34  5 41 18
  2  5 28  6 27 23  5]"
1700,342.0,0.921875,6,3,9.465285301208496,4.665012359619141,821,6800,82550,691581,"[ 4  2  3  0  3  1  4  0  0  2  0  3  2  1  2  2  2  0  5  3  3  4 10  2
  1  0  5  1  5  7  1  9  5  5  4  9  2  7  4  3  3  0  5  6 16  3  5  9
  2  1 16  1 15  4  5  9  6  0  3  0  2  6 11  5  8  4  5 13  1  1 19 19
  4  1  4  0  6 18  4 12  8  4 19  8  3 22 27  2 25  5  1  3  7  4 24  3
  5 18  1  2  8 18  5  6 17  5 19 23  4 15 30  3 16 20  5  6 11  1 25 23
  1 38 10  4 13 14  3 15 41  4 45 15  0 40 33  4  7 26  2 36  9  0 41  4
  5  4 33  6 27 23  5]"
1800,344.0,0.921875,5,2,9.888823747634888,4.235363006591797,874,7200,87001,716541,"[ 3  3  0  0  3  1  4  0  0  1  0  0  0  1  2  2  2  0  0  2  1  2  9  0
  3  5  9  5  3  4  4  4  0  1  1  7  2  4  4  3 10  3  2  3 12  4 16  9
  3 13 17  3  1 13  0  0 14  0  3  0  2  3 13  1  8 22  3 19 17  5 21 10
  2 12  4  4 10 20  0  5 14  0 16 23  2 27 23  2 14  0  2  9 12  4 13  7
  0 26 30  1  8  5  5 10  8  3  9  2  4  0  2  3 13 20  5 10 38  0 31 33
  5  3 21  3 19 14  1 26 44  1 23 15  1 14 12  2 27 26  2 40 13  3 41 24
  1 21 34  6 12 23  5]"
1900,344.0,0.921875,5,2,10.319801568984985,4.3097615242004395,923,7600,91668,741800,"[ 3  2  3  0  3  1  4  0  0  2  0  1  5  3  3  2  2  0  2  0  2  5  2  8
  3  5  9  0  5 10  3  8  9  1  4  6  4  4  2  2  3  5  2  4  4  1 16  9
  4  2  6  0  7 17  2 12  6  0  3  0  2  2  9  0 18  5  0  0  6  3 16 19
  3 12 15  4  5 17  2 21 10  5 20 12  1  6 20  3  9 24  2 28  8  4 27 12
  0 16  8  2  0  5  0 10 25  1 33 31  0 38 13  3  2  9  2 18 15  1 34 25
  5 30 25  5 31 34  2 33 15  2 28 25  5 10  9  2 31 42  2 24 40  2 43 19
  3 21 45  6 12 23  5]"
2000,344.0,0.921875,5,2,10.753713369369507,4.339101314544678,975,8000,96445,767520,"[ 5  0  0  0  3  1  4  0  0  0  3  0  4  1  3  2  2  0  1  2  0  5 10  7
  3  5  9  1  5  8  2  8  1  1  6  4  5  7  1  2  7  0  4  0  2  5 13  4
  1  8 15  0 15 10  1  3 11  2  1 14  2  8  7  0 20 16  2 16 14  0 14 23
  5 20 16  5 17  4  2 10  4  2 12  1  0 29  5  3 19  9  4 29 11  4  1 12
  2 29  5  0 11  9  1 23 25  5 13  6  2 36 12  3 23  1  0 14 32  1 30 11
  5 21 30  3  9  6  3 43  9  5 15 38  1 15 40  4 27 13  3  0  5  4 23 18
  0 16 42  6 12  7  5]"
2100,349.0,0.953125,9,3,11.228954076766968,4.752390384674072,1013,8400,101141,798148,"[ 2  1  1  0  3  1  4  0  0  0  3  0  0  2  2  2  2  0  1  2  3  0  3  0
  3  5  9  3  7  5  4  8  9  1  7  1  2  1 10  3  1  4  1  8  7  3 12 17
  3 15 14  5 16 10  4 13 16  2 12  9  4 12 11  1  9 22  1 20 22  3 23 10
  2 22 16  0  0  0  4 15  9  3  2 23  0  5  6  2 12 16  2 29 28  0 18 14
  0  3 11  1 16 25  1  5  4  0 34  6  2  5 21  4 24 32  4 38 14  4 33 26
  5  2 18  4 26 19  3 31 15  1 14 16  2 27 33  2 29 42  0 29 10  2 24 31
  3 36  7  6 12 22  5]"
2200,355.0,0.96875,8,3,11.707237243652344,4.78280782699585,1052,8800,105040,831238,"[ 2  2  1  0  3  1  4  0  0  0  3  0  0  0  3  2  2  0  0  2  0  1  2  0
  3  5  9  5  7  6  5  8  4  5  4  1  2  8  4  4  8  4  1 11  7  4 11  3
  1  4  6  5  7 12  2 13  4  5 11 10  2 12  2  4 17 22  1  3 22  3 23  9
  5 19 18  5 15  0  0 18 22  3 22 23  3 31  3  5 19  1  1  6 11  0 17 23
  0  2 20  4  8  1  4  2  1  2  1 21  2 34 28  5 15 27  4  3 14  2  1 37
  4  3 22  0  2 30  4  0 43  5  5 15  4 37 33  4 33 37  0 29 21  0 10 42
  0  8 20  6 12 22  5]"
2300,360.0,0.984375,8,3,12.130342483520508,4.2310261726379395,1101,9200,108145,855987,"[ 2  2  1  0  3  1  4  0  0  0  3  0  0  0  3  2  2  0  4  0  3  3  2  1
  3  5  9  5  8  6  5  0  4  4  1  8  3  0  2  5  4  3  4  2 15  2  7  8
  1  8  7  5 12 14  4 13  4  5 15 13  0 17  7  5 22 11  5  0 12  4 23  9
  0 18  7  3  1 23  4  2 23  0 22 20  2 18 29  4  3  7  1 10  5  4 17 23
  4 13 20  0 30 19  4  2 12  4  1 14  1  4 20  1 36 27  0 11 34  0  9  8
  4 30 13  2  2 36  0 20  4  3 42 44  4 43 18  3 14 21  5  5 21  2 44  7
  5 32 23  6 12 22  5]"
2400,360.0,0.984375,8,3,12.515211582183838,3.8486671447753906,1150,9600,111159,880154,"[ 2  2  1  0  3  1  4  0  0  3  3  3  0  0  3  2  2  0  4  2  1  3  9  8
  3  5  9  5  8  6  5  4  4  5  1  0  0  7  6  1  0  3  2 10 15  2 12 16
  1 11  7  0  6 13  4 13  4  3  7  7  5 13  7  4 17  8  1  9  1  3 11 14
  0 20 11  3 11 20  2 17 23  0 19 12  3  6 28  1 20 30  1 10 28  2 18 23
  0  0 12  5  6 22  1  2 29  1 23 10  4  3  3  2  3 13  0 17 29  0 12 17
  4 31 35  2  0  8  5 31 31  5  3 13  5 33 21  3 19 31  2 31 24  2 37  9
  1 26 35  6 12 22  5]"
2500,360.0,0.984375,8,3,12.888699293136597,3.734860420227051,1197,10000,114068,903605,"[ 2  2  1  0  3  1  4  0  0  2  2  1  0  0  3  2  2  0  1  3  1  3  0  7
  3  5  9  3  8  6  4  3  9  4  2  9  1  1  7  4  2  7  1  4 17  2 15 17
  2  7  4  1  6 11  4 13  4  0  5 16  3  8 12  5 18  8  1 13 10  0 21 13
  5 11 10  4  0  3  3 11  2  5 12 12  0 25 28  3 18 19  5  7 29  2  7 26
  2  5 13  2 14 22  3  5 18  5 37 26  4  3 15  3 29  3  2  4 10  0 12  2
  2 25 13  4 25 15  4 31 31  0 23 26  3 19 20  3 36 36  2 31 24  2  0  9
  4  5 41  6 12 22  5]"
2600,360.0,0.984375,8,3,13.247756004333496,3.590545654296875,1252,10400,116812,925699,"[ 2  2  1  0  3  1  4  0  0  3  2  1  0  0  3  2  2  0  4  3  1  5  0  8
  3  5  9  5  8  6  5  3  9  5 10  9  1  8  4  2 10  9  1  4  6  5 15  2
  2 11 14  3 14  4  4 13  4  0 10 14  0  8 17  2 11 14  2  8  3  5  8 16
  4 20 12  5 21 18  0 11 24  4  6  8  4  0  0  2 29 19  5 26 22  2 10  0
  3  1 22  0 14 22  4 16 18  1  0 26  4  4  5  2  9  6  4 38 11  0 12 10
  4 37 29  0  5 36  4  3 36  0  4 40  3  0 27  0 19 10  5 18 21  5 12  9
  4  4  3  6 12 22  5]"
2700,360.0,0.984375,8,3,13.623507261276245,3.75748872756958,1293,10800,119774,949238,"[ 2  2  1  0  3  1  4  0  0  3  1  1  0  0  3  2  2  0  4  0  1  0  2  8
  3  5  9  3  6  8  4  4  8  2  8  9  3 10  3  0  1  0  4 13 10  4 15  8
  3 16 14  1  6  3  4 13  4  4 11 14  1  8  5  2 11  7  2  0  7  0  7 16
  4  4 20  3 10 13  0  9 17  2 14  3  5 19  1  1 11 22  1  5 21  3 23  0
  0 30 22  2  7  1  2 27 11  1  2 26  5 34 13  2  9 26  5 32 15  0  5 11
  3 15 19  3 29  4  5 40 43  4  4 21  3 26 44  1 32  5  2 26 39  0 23  1
  0 18  3  6 12 22  5]"
2800,360.0,0.984375,8,3,14.01587200164795,3.9236307144165044,1338,11200,122983,974690,"[ 2  2  1  0  3  1  4  0  0  3  3  1  0  0  3  2  2  0  3  3  0  1  2  4
  3  5  9  2  8  0  0  3  0  2  8  6  3  0  3  3  1  8  0  6 11  4 15  9
  4 16  7  4  1 17  4 13  4  3  1  7  2  0 16  2 10  6  2  4  7  1 19  5
  4  7 19  0  3 13  5  9 21  3 11 13  4 14  7  5 29  8  4  3  7  0 27 20
  0 19  2  0  0 23  4  3 11  4  2 30  0 25 26  2 34 30  5 32 15  2  5 20
  5  8 13  5  1 15  0 45 24  4  4 30  3 21 42  0 32 28  2  7 39  4 33 35
  4 18 39  6 12 22  5]"
2900,362.0,0.984375,7,2,14.354555130004883,3.386812210083008,1390,11600,125823,994781,"[ 2  2  1  0  3  1  4  0  0  2  1  1  1  2  3  2  2  0  3  2  0  3  7  2
  3  5  9  2  3  0  4  0  6  0  8  6  0  3  3  0  1  8  0 10  0  5  6  6
  4  1 10  5  9 15  4 13  4  3  6  1  5  5 16  4 11 13  1 16 24  1  4  2
  0  7 10  3  9 13  5 14  3  0  8 13  5  3 10  2  5 15  2 18 10  0  2 20
  1 19  2  2  0 17  2  0 14  3 29 29  0  5  1  3 21 30  4 29  3  2  5 20
  2 37  0  2  1  1  3 18 21  1 22 29  3  9 15  2 23 41  2  7 15  3 28 35
  5 32 19  6 12 22  5]"
3000,362.0,0.984375,7,2,14.694268703460693,3.3971142768859863,1444,12000,128676,1014842,"[ 2  2  1  0  3  1  4  0  0  1  1  0  2  2  0  2  2  0  3  1  0  3  8  2
  3  5  8  2  3  0  1  0  0  1  3  6  0  3  3  3  1  7  1 12 11  4 14  6
  2  2  7  3 17 11  4 13  4  1  6  2  0  0  6  3  1  0  1 16 17  4  4  6
  4  7 17  4 10 13  2  5 16  0 22  3  4  8 10  3 12 30  2  7 10  0  2 18
  5  6  2  1  0 16  1 13  6  4 26 33  0  5 22  4 29  8  3 13  7  3 32 30
  5 37 25  4  0  1  0 30 26  1 19 28  3 42 15  0 32 34  2 38 35  3 17  4
  5 12 22  6 12 22  5]"
3100,362.0,0.984375,7,2,15.035287618637085,3.410165309906006,1500,12400,131497,1034804,"[ 2  2  1  0  3  1  4  0  0  4  2  0  2  2  0  4  1  3  3  3  1  2  2  0
  3  5  8  2  3  0  5  2  6  4  1  9  1  4  9  0  3  9  5  1  0  3  0 13
  2 10  7  3 16  1  4 13  4  3 17  4  2 14 16  4 19  1  1  7 17  4 17  6
  4 15  6  4 16 12  3 19  8  2 15 18  5 10 14  3  4 24  2 28  4  0  3 18
  5  6  0  5 11 21  5 12  6  5 15 20  0 14 20  0  1 12  0 27 29  3 36 13
  4 36 37  5 10 34  5 15 18  5 38  5  1 37 15  3 10 32  2 32 23  5  5  3
  5  8 18  6 12 22  5]"
3200,362.0,0.984375,7,2,15.40376591682434,3.6847448348999023,1546,12800,134497,1055988,"[ 2  2  1  0  3  1  4  0  0  2  1  1  2  2  0  1  0  0  1  1  0  5  2  5
  3  5  8  2  3  0  4  5  8  3  1  1  3  6  9  2  3  6  4 15 10  2 10  1
  2  0 10  4 16  1  4 13  4  3  5 14  2 12 16  4 19  5  1  7  7  1 17 11
  4 24  1  4 12  9  0  2  0  4  3  5  4  0 14  3 26 22  3 12  7  0  4 18
  5  8  2  3 10 24  5 12  2  2 16 31  4 28 21  2 10 27  4 18  0  2 38 11
  4  1  6  2 15 29  5 35 34  3 36 17  1 19 14  0  8 39  5 27 25  4 30 18
  4 22 45  6 12 22  5]"
3243,364,1.0,10,4,15.589243650436401,4.313380219215571,1565,12972,135776,1065106,"[ 2  2  1  0  3  1  4  0  0  2  1  2  2  2  0  2  3  3  1  1  0  1  4  3
  3  5  8  2  3  0  5  5  8  1  3  1  3  6  9  2  2  6  0  5 10  2 15  4
  0  7 10  4  9  1  4 13  4  3  7 17  4 10 16  3 19 18  4  7  7  4 17 18
  4 24  3  4  8  9  0 10 22  1  3 20  0  0 14  3 31 22  3 30  7  2  4 25
  2 20 14  3 18 24  4 29 21  0 24 25  4 28 21  5 38 27  4 18  0  2 34 28
  2 19  6  1 16 27  5  1  2  2 36 17  1 33 16  0  8 39  5 27 25  4 30  5
  4 22 45 34 12 22  5]"
3300,365,1.0,9,4,15.82861328125,4.199429562217311,1585,13200,137251,1078528,"[ 2  2  1  0  3  1  3  0  1  2  1  2  2  2  0  2  0  3  5  1  1  1  7  3
  3  5  8  2  8  7  4  5  8  3  7  1  2  6  4  2  9  6  1  3 10  5 15  6
  4  8 10  4 12  7  4  9  4  3  7  4  5 10 12  3 19 18  4 22  7  4 10 18
  4 21  8  3  8 24  0  2 22  1  3 20  2  0  8  3 31 22  3 30  7  4  3 13
  1 20 14  2 29 24  4  3  5  0 24 18  3  2 21  0 35 32  4  4  2  2 34 19
  5 19 37  4 16 27  3  3  2  4  9 17  5 37 16  1  8 33  5  2  6  4 37  5
  4 42 45 34 12 22  5]"
3363,369,1.0,7,2,16.06318426132202,3.7233148302350725,1617,13452,138897,1092947,"[ 2  2  1  0  3  1  3  0  1  2  1  2  2  2  0  2  0  3  2  0  1  1  4 10
  3  5  8  4  8 10  1  1  8  5  5  0  3  6  4  3  9 10  0 13  2  0 15  4
  3  9  0  4  6 11  4  9  7  5  0 16  5 16  3  3  7  0  2 22 24  4 23 18
  1 23 16  3  7 11  5  2 22  4  0 14  2  0  7  2 14 10  3  9  7  4  9  5
  2 14  1  2 23 24  3  5  2  0 21 36  3 36 21  0 33 32  2 13  2  2 13 21
  5 32 37  4 14  5  3 25 42  4  6 17  5 37 42  2 12 41  5  2  1  5  0 16
  4 30 45 34 12 22  5]"
