generation,fitness,functionality,active_nodes,longest_path,time,gen_time,nc_gens,fitness_evals,graph_evals,node_evals,genotype
0,163.0,0.4375,4,3,0.005673646926879883,5.671024322509766,0,0,0,0,"[ 0  2  1  2  1  1  3  3  1  4  1  3  0  1  3  2  1  6  5  0  6  1  7  7
  0  0  1  2  0  1  3  5  1  3 11  5  3 12  0  0  3  4  0  6  1  0 18 14
  3  3  3  1  2 15  1  1 10  2  0  9  0 15  0  2  1 16  1  3 21  1 15 15
  0  2 23 22  7  6  2]"
100,313.0,0.90625,5,2,13.641728162765503,136.3605237007141,0,12800,166111,923496,"[ 0  2  1  2  1  3  4  2  2  3  1  2  0  1  0  3  7  8  0  1  8  2  0  6
  1  0  4  5  4  3  1  4  1  3  6  5  0 12 13  1 12 10  1  5  6  2 18 17
  5  0 11  3  9 10  2 15  2  1 12  9  0 18 14  4 18 17  3  2 22  2 19 20
  0  2  0  6 28  4 15]"
200,332.0,0.96875,6,2,25.864737033843994,122.230064868927,0,25600,312280,1730607,"[ 0  2  1  2  0  3  4  2  2  1  3  1  4  0  3  5  8  7  1  6  1  0  4  1
  4  2  3  4  6  1  0  3  1  5  5  4  2 12  0  1  1  6  1  1  3  0 12 16
  0 13  1  2 11  1  1 12 13  1 12 15  5 16 18  4 22 19  0  1 15  2 14 14
  0  2  0  6 28 15 14]"
300,332.0,0.96875,6,2,36.521584272384644,106.56844854354858,0,38400,428302,2434529,"[ 0  2  1  2  0  3  4  2  2  0  0  3  3  1  1  1  2  0  4  3  1  4  3  1
  0  2  0  0  6  6  0  3  1  5  5  4  5  6 12  3  2  4  3 11  0  2 15  9
  4 18  9  2 16 13  4 17 18  5 14  2  2 18 16  2 19 20  1 16  2  4 21  1
  5  0 19  6 12 15 14]"
400,335.0,0.984375,7,3,46.83900499343872,103.17417860031128,0,51200,529749,3126796,"[ 0  2  1  2  0  3  2  3  1  4  0  2  3  0  1  0  4  0  5  6  5  3  1  6
  0  2  0  2  4  0  0  3  1  5  5  4  3 13  9  5  5  0  5 13  0  5 11 17
  5 11 17  3 16  1  3 15 13  4  0 16  5 19 14  0  2 22  3  0 23  3 21  0
  4  3  0 22 12 15 14]"
500,336.0,0.984375,6,3,55.729549169540405,88.90542030334473,0,64000,615487,3673021,"[ 0  2  1  5  2  0  0  1  0  4  3  3  5  0  2  2  6  6  5  8  8  5  3  1
  0  2  0  2  3  0  0  3  1  5 13  4  5  8 10  5 12 10  3  3  7  2 17 17
  2  3 12  5 14  1  3 15 13  2 14  3  2 23 19  1  2  1  0 20 19  0  3 19
  4  3 15 22 12 15 14]"
600,336.0,0.984375,6,3,64.74283123016357,90.13279676437378,0,76800,701878,4220039,"[ 0  2  1  5  0  0  5  1  1  2  0  0  1  0  1  5  5  5  2  1  5  2  2  6
  0  2  0  2  3  0  0  3  1  5 13  4  5  2 10  2 10 10  5 13  7  4 18 15
  1  0 15  4  3  2  3 15 13  3  1  3  2  1  1  5 14 15  2 18 16  0 20  3
  2  3  0 22 12 15 14]"
700,336.0,0.984375,6,3,73.78671646118164,90.43882846832275,0,89600,788431,4763324,"[ 3  2  2  0  3  0  3  1  1  3  2  1  0  2  1  1  3  3  2  3  6  1  8  1
  0  2  0  2  3  0  0  3  1  5 13  8  4  2  2  5 13 11  1  4 11  2 15 11
  2 17 18  0 10 13  3 15 13  3  0  1  4 20 19  3  0  2  0 20 21  3  2 20
  0  1 21 22 12 15 14]"
800,336.0,0.984375,6,3,82.77075552940369,89.84036207199097,0,102400,876072,5315112,"[ 4  3  1  0  2  0  5  0  3  5  0  2  0  2  1  3  2  1  4  8  6  0  6  1
  4  0  0  2  3  0  0  3  1  5 13  8  4 10  3  2  1  1  1  8  3  4  9  0
  2 13 10  1 14  1  3 15 13  5 12 18  2 14 23  4 22 17  5 23  3  3 17 20
  3 17 23 22  5 15 14]"
900,336.0,0.984375,6,3,91.73649716377258,89.65738773345947,0,115200,963201,5862028,"[ 4  0  1  0  2  0  4  3  2  4  3  2  0  2  1  1  4  8  5  1  5  1  1  1
  2  6  1  2  3  0  0  3  1  5 13  8  4  8  0  5  9  4  2 13  5  2 14 16
  1 15  2  3  9 18  3 15 13  0 11 14  3 20 16  2 21 18  4 18  2  5  1 18
  4 15 22 22  5 15 14]"
984,340,1.0,9,3,99.29461598396301,89.97757094247001,0,125952,1037745,6326405,"[ 3  1  1  0  2  0  3  1  1  0  3  1  0  2  1  4  7  2  1  4  8  2  8  5
  1  4  3  2  3  0  0  3  1  5 13  8  4  3  0  0  9  5  2  8  0  5 17  3
  5  3 18  2  1  3  3 15 13  2 17  0  0 19  0  0 17 17  1 16 16  5 18  0
  2 18 23 22 17 15 14]"
1000,341,1.0,8,3,100.86519241333008,98.16086292266846,0,128000,1051146,6433615,"[ 3  1  1  0  2  0  3  2  1  0  3  1  0  2  1  4  7  2  1  4  8  2  8  5
  1  4  1  2  3  0  0  4  1  5 13  8  4  9  0  0  9  5  2  8  0  5 17 11
  5  3 18  2  1  3  3 15 13  2 17 12  0 19  2  0 17 17  1 16 16  5 18 21
  2 18 23 22 17 15  7]"
1100,341,1.0,8,3,110.4297125339508,95.64517498016357,0,140800,1131697,7072112,"[ 2  0  2  0  2  0  2  3  3  0  3  1  0  2  1  2  7  2  0  4  5  5  6  4
  3  5  1  2  3  0  5  9  5  5 13  8  2 11  2  0  9  5  4  5  2  3 16 16
  0  3 18  1 10 18  3 15 13  2  3 12  5 22 20  2  0 18  2  3 18  2 19  3
  5 21 19 22 17 15  7]"
1200,341,1.0,8,3,119.69388175010681,92.64166593551636,0,153600,1207480,7675155,"[ 4  3  3  0  2  0  3  3  3  0  3  1  0  2  1  2  5  7  3  6  7  1  5  2
  3  4  4  2  3  0  2  8  4  5 13  8  0  2  0  5  9  5  0  7  3  2 13 16
  0  1 18  4 11 17  3  9 15  1 18 13  1 19 21  0 23  1  3 19 14  1 21 21
  2 17  1 22 17 15  7]"
1300,341,1.0,8,3,128.73505330085754,90.41169166564941,0,166400,1281542,8265564,"[ 2  0  1  0  2  0  5  0  1  0  3  1  0  2  1  2  2  7  2  2  0  4  6  5
  0  7  3  2  3  0  5  9  4  5 13  8  4  8  5  0  9  5  5  7  7  3  1  1
  4  1 10  5 12 17  3 13 15  2 11 12  4 17 15  5 20  3  2 18 17  2 20  3
  3 16 15 22 17 15  7]"
1400,341,1.0,8,3,138.2539439201355,95.18887996673584,0,179200,1360874,8896569,"[ 3  3  3  0  2  0  5  1  2  0  3  1  0  2  1  2  5  7  4  7  4  0  8  7
  4  4  0  2  3  0  3  3  9  5 13  8  1  2  3  0  9  5  4  8 10  2  3 11
  5 17  3  3  9 15  3  9  9  5 12 18  2 15  3  5 19  1  0 18 14  1 22 16
  3 16 15 22 17 15  7]"
1500,341,1.0,8,3,147.35594987869263,91.02003335952759,0,192000,1436184,9495256,"[ 2  0  3  0  2  0  3  1  1  0  3  1  0  2  1  2  5  7  5  6  1  2  7  7
  0  4  7  2  3  0  3  9  5  5 13  8  4  1  4  5  9  5  2  7 12  3 17 16
  1 18 12  3 14 10  3 15 13  1 17 13  0 21 16  0  2  1  4  1 17  0 14  0
  1 15  0 22 17 15  7]"
1600,341,1.0,8,3,156.87209057807922,95.16138076782227,0,204800,1515154,10121804,"[ 1  2  0  0  2  0  1  2  3  0  3  1  0  2  1  2  2  7  2  2  0  2  6  5
  0  3  5  2  3  0  5 11  8  5 13  8  5 11  4  0  9  5  3 11  0  3  2  0
  2 12  1  4 13 17  3  9 13  0 10 18  4 18  1  0 23 22  5 22 21  3 16 14
  5 20 15 22 17 15  7]"
1700,341,1.0,8,3,166.46906042099,95.96967220306396,0,217600,1594882,10752370,"[ 3  2  1  0  2  0  4  0  3  0  3  3  0  2  1  2  3  8  4  4  0  1  3  4
  0  1  3  2  3  0  2  5 11  5 13  8  1  2 13  0  9  5  5  3  0  3  0 13
  5 16 13  5  0  3  3 15 13  4  9 16  4  1  2  5 16 19  5 19 22  1  2 14
  4 14 18 22 17 15 12]"
1800,341,1.0,8,3,175.48880529403687,90.19742012023926,0,230400,1669015,11339882,"[ 3  3  1  0  2  0  1  3  1  1  2  0  0  2  1  2  3  8  3  0  5  3  2  4
  0  1  3  2  3  0  2 13  9  5 13  8  3 12  5  0  9  5  1  2  5  1  2 10
  5 16 12  3  9 10  3 15  9  2  2  2  5 19 20  0 14 16  3 18  0  1 22 15
  5 14 16 22 17 15 12]"
1900,341,1.0,8,3,184.40979647636414,89.20989036560059,0,243200,1742061,11919147,"[ 5  3  2  0  2  0  2  2  0  2  0  0  0  2  1  2  3  8  0  3  4  2  0  0
  0  1  3  2  3  0  2  1 12  5 13  8  0  6  3  0  9  5  1  3 10  0 16  0
  3 15  0  0  1 18  3 15  9  3  3 13  3  2 14  2  3 15  1  2  2  4  0 22
  5  0 19 22 17 15 12]"
2000,341,1.0,8,3,193.1688048839569,87.59004831314087,0,256000,1813490,12486876,"[ 5  3  2  0  2  0  1  3  1  3  3  1  0  2  1  2  3  1  2  0  2  2  2  2
  0  1  3  2  3  0  3  8 12  5 13  8  3 12 11  0  9  5  4 10  5  5 15  2
  5  9 11  1  2 11  3 15 13  0 18 13  4  3  0  5 23 19  4 23  1  5  2  3
  5 15  1 22 17 15 12]"
2100,341,1.0,8,3,202.12049436569214,89.5168685913086,0,268800,1885956,13062425,"[ 4  2  2  5  0  0  1  3  3  5  2  0  0  2  1  2  3  8  0  0  2  2  5  6
  0  1  3  2  3  0  2  0  1  5 13  8  5  8  5  0  9 10  0  7  3  2 17 14
  1  0  9  5  0 16  3  9 15  3 18  3  0 23  3  3 18 18  0 19 19  3  1  3
  2 18  0 22 17 15 12]"
2200,341,1.0,8,3,211.1274654865265,90.0696849822998,0,281600,1959590,13646608,"[ 0  2  0  2  0  1  4  3  3  2  2  2  0  2  1  2  3  8  3  8  0  2  2  3
  0  1  3  2  3  0  5  0  8  5 13  8  3  4 11  0  9  4  1  5  4  2 12 15
  2 17 15  5 12 18  3 13 15  5 16 14  4  1 18  5 21 19  0 19 14  4 19 17
  2 17  0 22 17 15 12]"
2300,341,1.0,8,3,220.31455159187317,91.8708324432373,0,294400,2035440,14250596,"[ 0  2  0  0  1  1  0  0  2  4  2  2  0  2  1  2  3  8  0  7  0  4  3  5
  0  1  3  2  3  0  5  3 11  5 13  8  0  4  8  0  9  4  2  5  7  4  2 12
  2 17 13  2 10 18  3 15  9  5  3 10  4  1  1  0 21  2  4 18 20  5 16 21
  0 14  1 22 17 15 12]"
2400,341,1.0,8,3,230.02534651756287,97.10792541503906,0,307200,2118324,14909747,"[ 0  2  0  0  3  1  1  2  0  4  0  1  0  2  1  2  5  2  3  3  0  4  7  6
  0  0  7  2  3  0  1 11  6  5 13  8  2 12  8  0  9  4  2  2  4  2  2 14
  3 17 10  3 15  2  3 13  9  4 12 10  4 22 23  2 18 20  0 17 17  3 20 20
  3 23 14 22 17 15  5]"
2500,341,1.0,8,3,239.65682554244995,96.31476402282715,0,320000,2197064,15534518,"[ 0  2  0  0  3  1  5  1  2  3  3  2  0  2  1  2  8  3  3  0  1  2  1  1
  1  5  1  2  3  0  4 11 11  5 13  8  1  0 13  0  9  4  0 12  0  4  9 15
  4 14 11  5 12 10  3 13 15  1 16  9  3  0 23  5 14 14  4 16 22  3 16  1
  5  2 18 22 17 15  5]"
2600,341,1.0,8,3,249.07700634002686,94.20178174972534,0,332800,2276156,16160343,"[ 0  2  0  0  3  1  1  2  1  1  3  0  0  2  1  2  5  1  3  3  5  2  1  4
  1  6  5  2  3  0  0  4  1  5 13  8  2  8 11  0  9  4  2  5 12  2 11 14
  5 18 16  1 15 14  3 13 15  2 18 11  5 20 15  4 18 16  3 23 23  1 16  0
  5 19 20 22 17 15  5]"
2700,341,1.0,8,3,258.77463698387146,96.97627067565918,0,345600,2358047,16808905,"[ 0  2  0  0  3  1  2  2  2  0  2  0  0  2  1  2  8  3  1  0  4  2  3  3
  2  5  7  2  3  0  0  1  0  5 13  8  1  0  7  0  9  4  1 13 13  1  0 11
  1 10 18  1 11  1  3 13 15  4 12  2  4  3  2  0 22 23  3  3 19  0  2 22
  0 19 19 22 17 15  5]"
2800,341,1.0,8,3,268.322514295578,95.47874927520752,0,358400,2438972,17449123,"[ 0  2  0  0  3  1  5  1  2  1  1  1  0  2  1  3  3  5  2  3  8  1  3  6
  0  3  3  2  3  0  2  1  6  5 13  8  5 13  8  0 10  4  0 12 11  2 16 11
  1 16  9  4  9 12  3 13 15  2 15 14  4 21 15  3 19  0  2 18 19  0 16 14
  4 23  2 22 17 15  5]"
2900,341,1.0,8,3,277.9132606983185,95.90744018554688,0,371200,2520289,18093088,"[ 0  2  0  0  3  1  3  0  3  5  3  3  0  2  1  3  7  5  2  5  8  0  2  6
  5  1  4  2  3  0  2  6  7  5 13  8  0  5  4  0 10  4  5 10  2  0  0  3
  0 16  9  5  3 17  3 13 15  3  0 13  5  3 16  3 18 23  1  2 18  5 20 23
  1 21 21 22 17 15  5]"
3000,341,1.0,8,3,287.0641670227051,91.50903940200806,0,384000,2595987,18695630,"[ 0  2  0  0  3  1  1  1  3  3  2  1  0  2  1  5  6  7  2  5  4  5  1  5
  2  3  4  2  3  0  3  2 11  5 13  8  5  1  9  5 10  4  0 10  2  4  2  3
  4 18  1  1 10 17  3 10 13  2 12 16  5 17  0  4 15  2  2  2  1  4 17 20
  4 23  0 22 17 15  5]"
3100,341,1.0,8,3,296.3904604911804,93.26290369033813,0,396800,2672678,19305924,"[ 0  2  0  0  3  1  0  0  1  3  2  0  0  2  1  4  5  7  2  0  5  5  7  0
  5  3  3  2  3  0  4  5  1  5 13  8  5  3  1  0 10  4  5 12  9  4 17 18
  1 14 13  4 14  3  3 15 10  1 10  2  5  3 18  2 21 21  2 18 18  2  1 19
  3 17 14 22 17 15  5]"
3200,341,1.0,8,3,306.0299446582794,96.39481782913208,0,409600,2754524,19956806,"[ 0  2  0  0  3  1  3  2  0  3  1  0  0  2  1  0  8  3  2  4  5  4  2  7
  4  3  4  2  3  0  2 13 12  5 13  8  5  9 10  0 10  4  3  6  7  3 10 13
  1 12 17  2  1  1  3 10 13  0 11  1  3 22  2  3 19 16  5  3 17  2 20 18
  2 20 16 22 17 15  5]"
3300,341,1.0,8,3,315.46791529655457,94.37968015670776,0,422400,2833741,20588101,"[ 0  2  0  0  3  1  3  2  1  1  0  2  0  2  1  5  2  6  2  4  5  0  4  6
  3  2  4  2  3  0  2  6 12  5 13  8  3  1  2  5 10  4  2  0  6  1 13 15
  0 17 15  3  0  9  3 10 15  5 10 17  5  0 15  3 15 18  1 22 22  4  0 18
  1 18 17 22 17 15  5]"
3400,341,1.0,8,3,324.72165608406067,92.53738164901733,0,435200,2909905,21194511,"[ 0  2  0  0  3  1  1  0  1  2  3  1  0  2  1  1  2  2  2  4  5  2  1  3
  1  2  2  2  3  0  3  2  6  5 13  8  5  0  6  5 10  4  2  3 11  2 18 12
  2 12 18  3 10 11  2 10 10  2 17 14  2 21 15  0 22 23  5  1 20  1  2 15
  3  1 22 22 17 15  5]"
3500,341,1.0,8,3,333.91022515296936,91.88566207885742,0,448000,2985747,21798236,"[ 0  2  0  0  3  1  5  3  2  5  2  3  0  2  1  2  3  5  2  4  5  5  2  6
  5  4  0  2  3  0  2  6  2  5 13  8  0  3  7  0 10  4  3  3 12  1 13  2
  2  9 14  2 11 17  3 15 10  2  9 12  3  1 14  0 17 22  4 19 15  1 15  1
  0 18 22 22 17 15  5]"
3600,341,1.0,8,3,343.44141483306885,95.31186819076538,0,460800,3066619,22438567,"[ 0  2  0  0  3  1  2  3  1  0  1  2  0  0  2  5  1  2  3  4  7  1  1  0
  1  8  2  2  3  0  1  8  7  5 13  7  3  6  5  0  6  4  5 10  9  0  9  0
  2 10 17  1 15 14  3 13 15  0  2 12  0 23  3  4 16 22  2  1 18  1  3  0
  0  2 17 22 17 15  5]"
3700,341,1.0,8,3,352.87105560302734,94.29638147354126,0,473600,3146351,23070582,"[ 0  2  0  0  3  1  2  3  2  0  1  2  1  1  3  5  0  5  2  7  3  2  8  1
  3  3  0  2  3  0  4 10  2  5 13  7  5  0  2  0 10  4  5  8  5  4  3 10
  1 10  9  1  2  0  3 10 15  4  0  3  0 18  3  3 15 22  3 20 20  5  0 16
  3  2  2 22 17 15  5]"
3800,341,1.0,8,3,362.1372458934784,92.6618766784668,0,486400,3222663,23677739,"[ 0  2  0  0  3  1  0  0  0  0  1  2  5  1  2  0  2  8  2  4  5  0  6  1
  1  0  6  2  3  0  0  4  2  5 13  7  0  3  3  5 10  4  5  5  5  3  9 16
  5 17  1  1 16 18  3 10 15  0  9 16  3 17  3  1 17 22  2 20 21  2 19 20
  2 23 18 22 17 15  5]"
3900,341,1.0,8,3,371.3458948135376,92.08646059036255,0,499200,3299259,24286635,"[ 0  2  0  0  3  1  3  2  1  0  1  2  5  1  0  5  6  5  2  5  7  4  2  4
  2  2  8  2  3  0  4  2  0  5 13  7  3  9  0  0 10  4  5  2  6  3 17 13
  5 12  2  0  1 14  3 10 15  0  2 16  4 19 14  3  2  0  0 14 16  0 21  1
  1 23  1 22 17 15  5]"
4000,341,1.0,8,3,380.50940108299255,91.63503408432007,0,512000,3374342,24885510,"[ 0  2  0  0  3  1  5  3  3  0  1  2  4  0  2  0  0  7  2  5  7  5  3  3
  1  7  6  2  3  0  4  3  4  5 13  7  3 12 13  0 10  4  1  3  3  3 10 14
  3  0 16  0 12 15  3 10 15  4  3 15  1 14  3  5 16 23  5 16 22  2 15 17
  0 19  3 22 17 15  5]"
4100,341,1.0,8,3,390.12369203567505,96.14288091659546,0,524800,3454606,25520851,"[ 0  2  0  0  3  1  0  0  2  0  1  2  4  3  0  3  5  2  2  5  5  4  1  7
  1  4  7  2  3  0  0  3  0  5 13  7  2  8  2  0 10  4  2  1  3  0 12 10
  1 13 17  4  2 12  3 13 15  3  3  1  3 21  1  5 20 22  0 20 18  2 17 19
  1 23 15 22 17 15  5]"
4200,341,1.0,8,3,399.6331868171692,95.0949215888977,0,537600,3535111,26156764,"[ 1  1  2  0  3  1  0  0  2  0  1  2  5  1  2  1  8  0  2  2  5  2  7  1
  4  6  8  2  3  0  3  3  4  5 13  7  5 10  1  0 10  6  3  5  9  2 16  2
  5 15 17  0 15 12  3 13 15  4 17  3  3 16 19  0  1 23  3  2 19  2 22 20
  0 18  2 22 17 15  5]"
4300,341,1.0,8,3,409.2933988571167,96.60209655761719,0,550400,3617849,26810465,"[ 1  2  3  0  3  1  0  0  2  0  1  2  1  1  3  1  3  8  2  1  3  4  8  5
  3  2  4  2  3  0  1  5 13  5 13  7  0 11  2  0 10  6  3  7  2  0  3 11
  5  9 15  0  2 17  3 13 15  3 15 10  3 18 14  2 22 23  3  2 19  1 21  0
  5  1 23 22 17 15  5]"
4400,341,1.0,8,3,418.5105152130127,92.17113494873047,0,563200,3694830,27422369,"[ 0  1  1  0  3  1  0  0  2  0  1  2  0  0  3  2  1  0  2  2  5  3  8  5
  2  8  6  2  3  0  4 13  9  5 13  7  5  8  0  0 10  6  0  5 10  3  0 10
  5 14 13  0  2 16  3 10 15  0  3 11  5 23  2  2 23  3  0  0  2  0 21 17
  0  1 23 22 17 15  5]"
4500,341,1.0,8,3,428.2112386226654,97.0072078704834,0,576000,3775866,28063086,"[ 2  1  3  0  3  1  0  0  2  0  1  2  1  2  3  4  3  7  4  0  5  2  7  0
  3  5  3  2  3  0  1  1  1  5 13  7  1 13 13  0  4  6  3 12  3  4  2  9
  1 16 10  0 16 13  3 15 13  3 13 15  5 18  1  5  1 23  4 15 21  1 14 16
  0  1 19 22 17 15  5]"
4600,341,1.0,8,3,437.83501648902893,96.23775243759155,0,588800,3858451,28716739,"[ 2  1  3  0  3  1  0  0  2  0  1  2  4  2  2  1  7  6  4  8  5  5  3  0
  3  6  1  2  3  0  1  9  7  5 13  7  0  2 13  0  4  6  5  8 10  5 14 16
  1 14  0  5  0 13  3 15 13  3  3 11  5 16 20  5 20 20  5  2  0  0 14 21
  4  1 17 22 17 15  5]"
4700,341,1.0,8,3,447.6967945098877,98.61775636672974,0,601600,3939505,29357526,"[ 4  3  1  0  3  1  0  0  2  0  1  2  4  2  0  0  6  8  4  6  5  0  3  0
  2  7  3  2  3  0  4  3  4  5 13  7  5 11 11  0 10  6  5  1  5  5 15 11
  2  0 18  4  1 15  3 15 13  0  3  3  1 23  1  5  0 18  5 17  3  0  3 22
  1 21 14 22 17 15  5]"
4800,341,1.0,8,3,457.4312937259674,97.34495878219604,0,614400,4021851,30009263,"[ 1  1  0  0  3  1  0  0  2  0  1  2  2  0  1  4  8  7  2  5  6  4  3  6
  1  8  5  2  3  0  5  0  4  5 13  7  1 10 12  0 10  6  4  0 10  0  1 16
  4 14 16  4  1 15  2 10 10  5 15 18  0 15  1  4  1 19  5  3 21  4  3 18
  2 21  3 22 17 15  5]"
4900,341,1.0,8,3,467.1598422527313,97.28545904159546,0,627200,4103283,30655333,"[ 5  1  3  0  3  1  0  0  2  0  1  2  2  3  2  2  0  6  2  3  1  5  7  7
  5  1  0  2  3  0  0  0  8  5 13  7  4 13  5  0 10  6  0  7 10  1 16 15
  5 14 13  1 14 16  3 13 15  1 15  1  3 21 17  2  0 19  3 15  2  1 21 22
  5 21 19 22 17 15  5]"
5000,341,1.0,8,3,476.9946849346161,98.34839582443237,0,640000,4186247,31311576,"[ 5  3  3  0  3  1  0  0  2  0  1  2  2  3  1  5  7  0  0  1  0  3  2  6
  2  1  4  2  3  0  0 13  6  5 13  7  4 11  6  0  8  6  4  1  7  1 14 13
  0  3 13  1 10  9  3 13 15  5 13  2  0  0 19  1 20  0  1 22 22  0 16 21
  3  0 20 22 17 15  5]"
5100,341,1.0,8,3,486.6798679828644,96.851806640625,0,652800,4267763,31956237,"[ 3  1  1  0  3  1  0  0  2  0  1  2  2  3  1  1  7  3  4  2  4  0  1  6
  1  8  4  2  3  0  0 12  6  5 13  7  3  7  8  0  8  6  0  1 11  1 14  2
  2 17  0  3 14 14  3 13 15  1 15 12  4 16 23  3 16 19  0  2  3  4 21 21
  3  3  1 22 17 15  5]"
5200,341,1.0,8,3,496.4655146598816,97.85643815994263,0,665600,4351732,32618919,"[ 5  3  3  0  3  1  0  0  2  0  1  2  2  3  1  3  3  4  5  1  3  2  0  0
  5  8  4  2  3  0  4  5  1  5 13  7  1  2  3  0  8  6  3  7 11  4 14  9
  3 16 15  5  0 14  3 13 15  4 18 10  3  0 22  3 18  3  0 22  1  1 23 16
  4 15 19 22 17 15  5]"
5300,342,1.0,8,2,506.1784770488739,97.1295976638794,0,678400,4435563,33279445,"[ 4  3  2  0  3  1  0  0  2  0  1  2  2  3  1  0  6  5  0  3  6  4  1  6
  1  8  8  2  3  0  1  8  4  5 13  7  1  6 13  0  8  6  1  4  0  0 14  0
  5  0 15  5  1 11  3  3 17  2 11 13  1  3 23  3  3 17  3 15  2  5 22  0
  0  2 21  9 17 15  5]"
5400,342,1.0,8,2,516.0175068378448,98.39027404785156,0,691200,4521774,33958506,"[ 4  3  2  0  3  1  0  0  2  0  1  2  2  3  1  0  6  5  0  1  7  4  3  5
  5  4  4  2  3  0  0  5 12  5 13  7  1 12  7  0  8  6  1 10  2  5  9 17
  5 14  0  2 12  1  5 12 18  3 13 12  2 17 14  1 14  3  4 17 23  4 22 21
  4 14 20  9 17 15  5]"
5500,342,1.0,8,2,525.846352815628,98.28843355178833,0,704000,4607837,34636198,"[ 3  3  3  0  3  1  0  0  2  0  1  2  2  3  1  0  6  5  2  2  2  4  7  5
  1  0  3  2  3  0  4  0  8  5 13  7  2  0 11  0  8  6  2  3  1  5  2 17
  3 17 15  0 13  0  3 10  0  1 14  1  5 20  2  1 17 15  4  1  3  1 14 18
  1 23 20  9 17 15  5]"
5600,342,1.0,8,2,535.8276045322418,99.812490940094,0,716800,4694889,35322481,"[ 2  1  2  0  3  1  0  0  2  0  1  2  2  3  1  0  6  5  0  7  1  5  1  2
  4  1  0  2  3  0  0 13  7  5 13  7  1  1  7  0  8  6  4  4 10  1  2 11
  5  3 15  1 10  0  1  2  3  5  3 11  4 20  2  2  1 23  1  3 15  1 17 18
  5 19 17  9 17 15  5]"
5700,342,1.0,8,2,545.7930355072021,99.65428352355957,0,729600,4781763,36007037,"[ 5  2  3  0  3  1  0  0  2  0  1  2  2  3  1  0  6  5  2  1  0  0  8  1
  5  2  0  2  3  0  1 13  5  5 13  7  2 13  8  0  8  6  5 11  2  1 15 13
  4 15 15  1 13  0  0  1 14  2 13  2  0 15 23  5 20  3  2 17  2  2 23 19
  2 17 18  9 17 15  5]"
5800,342,1.0,8,2,555.4623816013336,96.693434715271,0,742400,4864918,36662602,"[ 2  0  2  0  3  1  0  0  2  4  0  2  2  3  1  0  6  5  2  1  2  5  6  6
  3  7  8  2  3  0  1  6 12  2  0  0  4 13 10  0  8  6  4  6 10  0 16 17
  0 17 16  2 10 10  3  1 12  4 11 15  3 15  3  1  0 16  0  0 17  1 14 22
  3 16  2  9 17 16  5]"
5900,342,1.0,8,2,565.3771586418152,99.14774656295776,0,755200,4950411,37336949,"[ 1  2  0  0  3  1  0  0  2  2  1  2  2  3  1  0  6  5  4  1  7  5  4  6
  0  0  4  2  3  0  4  7  4  2  5  8  4 13  7  0  8  6  0  5  2  5 13 14
  4 14 14  3 15 11  1 18 18  4  1 10  4 20  3  4  2  2  1  3 15  2 23 16
  3 18  2  9 17 16  5]"
6000,342,1.0,8,2,575.4318256378174,100.54664134979248,0,768000,5036111,38013524,"[ 5  1  0  0  3  1  0  0  2  2  1  2  2  3  1  0  6  5  4  5  6  2  4  2
  1  2  5  2  3  0  1 11  4  0 12 11  4 13  7  0  8  6  4  8 12  4  1 18
  0  2 11  3  9 15  3 18  3  4  1  3  5 23 14  4 21  2  2 17 18  1 15 20
  3 16 14  9 17 16  5]"
6100,342,1.0,8,2,585.4235036373138,99.9167537689209,0,780800,5122360,38693683,"[ 1  2  0  0  3  1  0  0  2  2  1  2  2  3  1  0  6  5  0  0  5  4  3  0
  2  7  5  2  3  0  2 11  2  4  7  1  4 13  7  0  8  6  1  5  5  2 18 15
  5 11 18  3  0  1  3 17 15  0 15  3  2 21 18  0 18 20  5 19 23  1  1 23
  0  3 22  9 17 16  5]"
6200,342,1.0,8,2,595.3206217288971,98.97115230560303,0,793600,5208658,39374860,"[ 3  3  0  0  3  1  0  0  2  2  1  2  2  3  1  0  6  5  1  3  1  5  4  6
  3  1  4  2  3  0  0  0  4  0 13  8  4 13  7  0  8  6  4  7 13  1 17 12
  2  2 16  1  1  1  3  1 12  1 17  0  0 18  1  4 19 16  3 23 14  0 17 17
  4  3 15  9 17 16  5]"
6300,342,1.0,8,2,605.2924845218658,99.71860408782959,0,806400,5295085,40056810,"[ 1  3  3  0  3  1  0  0  2  2  1  2  2  3  1  0  6  5  2  6  6  5  2  3
  3  1  1  2  3  0  5  7  6  0  0  5  4 13  7  0  8  6  2 10  3  3 14 15
  4  2 13  2 13 13  2 14 18  4  1 10  2 15 22  3 16  1  0 19  1  3 20 17
  1 18  1  9 17 16  5]"
6400,342,1.0,8,2,615.2431628704071,99.5067572593689,0,819200,5380510,40730221,"[ 5  1  2  0  3  1  0  0  2  2  1  2  2  3  1  0  6  5  4  7  8  3  5  0
  1  7  8  2  3  0  2  2  6  3  6 11  4 13  7  0  8  6  4  3 12  5  2  3
  2  0  9  4 12 18  0 18 13  1 10 14  1  0 14  1  2  3  0  3 21  0 22  3
  0 18  1  9 17 16  5]"
6500,342,1.0,8,2,625.2074060440063,99.64240550994873,0,832000,5466513,41408804,"[ 1  1  0  0  3  1  0  0  2  2  1  2  2  3  1  0  6  5  3  7  6  5  6  1
  3  7  8  2  3  0  1  5  8  1 11  9  4 13  7  0  8  6  2  2  7  3  0 18
  2  2 13  5  0 12  3 10 13  2 14 10  0  1  1  0 23  2  5 22 23  0  2 22
  1 21 19  9 17 16  5]"
6600,342,1.0,8,2,634.7519013881683,95.44492721557617,0,844800,5547777,42050327,"[ 0  1  3  0  3  1  0  0  2  2  1  2  0  0  2  0  6  5  2  1  3  2  3  1
  3  3  8  2  3  0  4  9 10  2 10  1  4 13  7  0 10  6  2  1 11  2 12 18
  1 12 18  4 13  3  3 17 13  1 18 16  1  1 20  1 15 23  0 15 21  2  3 16
  1  1 14  9 17 16  5]"
6700,342,1.0,8,2,644.1708674430847,94.18963670730591,0,857600,5627081,42675874,"[ 2  0  2  0  3  1  0  0  2  2  1  2  1  0  0  0  6  5  2  1  3  3  3  5
  0  3  8  2  3  0  5  6 13  2 11  8  4 13  7  0 10  6  1  0  9  3 16 17
  1 17 17  5 12 12  3 11  2  4 11 11  5 15 15  0  2 19  2 19  2  1 16  3
  4 22 20  9 17 16  5]"
6800,342,1.0,8,2,653.4108757972717,92.4000597000122,0,870400,5705676,43295171,"[ 2  1  3  0  3  1  0  0  2  2  1  2  1  2  3  0  6  5  2  1  3  3  7  7
  5  1  3  2  3  0  5  2  2  3  0  1  4 13  7  0 10  6  4  0  7  3 12 12
  2  1 13  5 13  3  5 10 17  1  3  9  2 14  2  1 17 16  3  2 19  0 14  3
  0 23 21  9 17 16  5]"
6900,342,1.0,8,2,662.6462435722351,92.35365152359009,0,883200,5784042,43913178,"[ 2  1  2  0  3  1  0  0  2  2  1  2  1  2  3  0  6  5  0  5  8  2  8  6
  2  1  3  2  3  0  0  0  7  2  6 12  4 13  7  0 12  6  0  3 12  5  0  3
  3 15 13  4 11  2  4  2  1  5 14 14  1 22 14  0 19  3  4  2 20  1  0 19
  1 19 20  9 17 16  5]"
7000,342,1.0,8,2,671.9107458591461,92.64498949050903,0,896000,5862746,44533621,"[ 2  3  0  0  3  1  0  0  2  2  1  2  1  3  3  0  6  5  0  7  0  4  3  7
  2  1  3  2  3  0  0  1 13  2  8  3  4 13  7  0 12  6  3  3  0  0 10 14
  3  9  3  0  3  0  5  0  1  5 17  0  3 16 17  1 16  0  5 17 18  0  2 20
  0 22 22  9 17 16  5]"
7100,342,1.0,8,2,681.2822794914246,93.71531009674072,0,908800,5942634,45163989,"[ 2  1  2  0  3  1  0  0  2  5  1  3  2  3  2  0  6  5  0  8  4  4  2  6
  2  1  3  2  3  0  5  1 10  2 13  8  4 13  4  0 12  6  4 10 10  0  3 17
  3  2  3  1 12 16  3  3  1  1  3 12  4 19 18  3 22  2  0  2 20  5 17 14
  2 19 15  9 17 16  5]"
7200,342,1.0,8,2,690.5637023448944,92.814199924469,0,921600,6021120,45782713,"[ 2  1  2  0  3  1  0  0  2  2  0  0  4  0  0  0  6  5  4  5  0  5  6  0
  2  1  3  2  3  0  3  0  4  3  2  7  4 13  4  0 12  6  1 13  8  4 17  9
  4  2 15  4  3  2  3  1  3  1 14 13  1 22 18  4  1 17  1 20 18  0 16 17
  1  0 15  9 17 16  5]"
7300,342,1.0,8,2,699.8612320423126,92.97526836395264,0,934400,6099635,46400999,"[ 2  1  2  0  3  1  0  0  2  0  1  3  0  3  2  0  6  5  2  3  0  2  6  6
  2  1  3  2  3  0  5 13 11  1  2  7  4 13  4  0 12  6  2 10  2  5  3  3
  3 16 18  3 12 18  4 18  0  2  0  3  1  3  2  4 20  1  1  0 15  4 18 16
  5  1 23  9 17 16  5]"
7400,342,1.0,8,2,709.2183876037598,93.57153415679932,0,947200,6178185,47020311,"[ 2  1  2  0  3  1  0  0  2  5  2  2  5  3  2  0  6  5  0  7  3  0  8  5
  2  1  3  2  3  0  4  0 13  4  8 10  4 13  4  0 12  6  2 13 10  0 15  3
  0 13 12  5  1 18  4 13  0  3 18 11  3  1 21  3  0 15  4  0 23  2 17 23
  1 23 15  9 17 16  5]"
7500,342,1.0,8,2,718.5248126983643,93.06422710418701,0,960000,6256246,47636512,"[ 2  1  2  0  3  1  0  0  2  5  3  1  0  3  3  0  6  5  3  2  5  5  8  1
  2  1  3  2  3  0  3 11  8  4 13  8  4 13  4  0 12  6  5  9  1  2 15  9
  1  0 18  3  1 10  3  1  1  2 10  9  5 16 15  2  0 18  1  0 22  4  0 18
  4 15 15  9 17 16  5]"
7600,342,1.0,8,2,727.803989648819,92.79174566268921,0,972800,6334607,48253967,"[ 2  1  2  0  3  1  0  0  2  4  3  1  4  3  2  0  6  5  5  7  3  4  2  4
  2  1  3  2  3  0  1  8  6  1 11  4  4 13  4  0 12  6  0  7  2  4 10 14
  3 14 13  3 18 11  1 16  1  3 12 12  2 16 22  2 21  0  5 14  3  2  1  1
  4 21  1  9 17 16  5]"
7700,342,1.0,8,2,737.0800697803497,92.76077508926392,0,985600,6412961,48871966,"[ 2  1  2  0  3  1  0  0  2  2  3  2  4  1  2  0  6  5  5  0  5  3  5  4
  2  1  3  2  3  0  5  2  5  5  4  4  4 13  4  0 12  6  3  3  9  5 11  3
  0 14 12  0 16 15  5 14  0  3  0 14  2  2 21  5 21  2  3  1  0  0 22  1
  1 19  0  9 17 16  5]"
7800,342,1.0,8,2,746.521332025528,94.41259622573853,0,998400,6491808,49493328,"[ 2  1  2  0  3  1  0  0  2  4  1  0  3  0  2  0  6  5  0  1  6  1  6  2
  2  1  3  2  3  0  5  9  9  3  6  4  4 13  4  0 12  6  3  8  5  2 17 15
  4  3  2  4  0 15  5 16 13  4  0 11  3 16 19  3 19 23  4  2 16  1 23  3
  4 14  1  9 17 16  5]"
7900,342,1.0,8,2,755.9953012466431,94.73966836929321,0,1011200,6570681,50115587,"[ 2  1  2  0  3  1  0  0  2  2  2  0  3  0  1  0  6  5  4  4  6  5  0  8
  2  1  3  2  3  0  4  3 13  4  7  1  4 13  4  0 12  6  0  6  7  5 17 12
  3 16 15  5  9 10  1 13 13  5  0 14  0 20 17  0 19  0  1 18  1  4  2  0
  0 14  1  9 17 16  5]"
8000,342,1.0,8,2,765.3203160762787,93.25012683868408,0,1024000,6649126,50733646,"[ 2  1  2  0  3  1  0  0  2  4  2  2  5  1  2  0  6  5  1  1  1  1  7  0
  2  1  3  2  3  0  2  0  1  5 10  1  4 13  4  0 12  6  2  5 10  4  1  2
  3 10 15  5  9 17  0 12 17  0 10 14  0  1 15  0  3 16  4  2 18  3 21 16
  1  2 17  9 17 16  5]"
8100,342,1.0,8,2,774.6885080337524,93.68189811706543,0,1036800,6727545,51351061,"[ 2  1  2  0  3  1  0  0  2  4  2  2  5  2  2  0  6  5  4  2  1  3  8  6
  2  1  3  2  3  0  2  5  8  2  1  1  4 13  4  0 12  6  0 12 12  5 12 16
  5 18  1  2 12  0  3  1 13  3 18  0  5 23 14  4 17 16  5 22  3  5 17 21
  0 20 18  9 17 16  5]"
8200,342,1.0,8,2,783.8688817024231,91.80370807647705,0,1049600,6804821,51960135,"[ 2  1  2  0  3  1  0  0  2  2  1  0  2  1  2  0  6  5  4  4  8  4  1  3
  2  1  3  2  3  0  2  7  7  5  7  7  4 13  4  0 12  6  2  9  5  5 13  9
  3 12  9  1 13 13  2 17 13  2 15  2  3 19  1  2 17  3  0 23 19  4  1 14
  0 17 20  9 17 16  5]"
8300,342,1.0,8,2,793.1968483924866,93.27964067459106,0,1062400,6882511,52572494,"[ 2  1  2  0  3  1  0  0  2  3  2  0  1  1  0  0  6  5  2  4  2  3  3  0
  2  1  3  2  3  0  3 13 12  1  5  2  4 13  4  0 12  6  2  3  9  4  2 18
  1 18 11  5  3  3  0 17  3  4  0  9  1 17 17  2 14  1  2 18 16  1 15 19
  3 21 17  9 17 16  5]"
8400,342,1.0,8,2,802.3465278148651,91.49677038192749,0,1075200,6958567,53171956,"[ 4  0  0  0  3  1  0  0  2  5  1  2  1  1  1  0  6  5  2  1  2  2  7  1
  2  1  3  2  3  0  3 11  9  3  5  9  4 13 10  0 12  6  3  3  2  1 11  0
  3 13 11  2 10  3  5 11 18  5  3 14  1 22 17  5 15 17  1  2 15  1 16 20
  4 19 21  9 17 16  5]"
8500,342,1.0,8,2,811.5684201717377,92.21889734268188,0,1088000,7034231,53768559,"[ 2  0  3  0  3  1  0  0  2  4  2  2  0  0  0  0  6  5  2  1  2  3  7  8
  2  1  3  2  7  1  1  0 10  1  9  9  4  4 10  0 12  6  3  1  2  5 12 11
  5  0 12  0 13 13  0  2  3  5  1  0  5 14 23  3  1 18  2 22 14  2 16 15
  2  0 22  9 17 16  5]"
8600,342,1.0,8,2,820.914365530014,93.45942735671997,0,1100800,7113015,54389773,"[ 2  0  3  0  3  1  0  0  2  3  1  3  5  3  2  0  6  5  2  1  2  5  7  0
  2  1  3  4  6  2  5  1 13  3  4  1  4  4 10  0 12  6  5 11  1  5 13  3
  1  9 13  5 12 11  5 17 16  4 16  9  3 17 17  4  2 23  5 23  3  0  3 15
  1 17  1  9 17 16  5]"
8700,342,1.0,8,2,830.1855163574219,92.71148204803467,0,1113600,7191123,55006030,"[ 2  0  3  0  3  1  0  0  2  1  1  0  5  3  3  0  6  5  2  1  2  3  4  0
  2  1  3  5  8  3  1 10 10  4  4 10  4  4 10  0 12  6  3 12  2  4 13 17
  4 18 10  3 15 11  5 13  2  0 14 14  4 17  1  2 20 21  5 23  3  5 19  2
  2  1 21  9 17 15  5]"
8800,342,1.0,8,2,839.6721103191376,94.86591339111328,0,1126400,7271052,55635760,"[ 2  0  3  0  3  1  0  0  2  3  3  3  3  2  1  0  6  5  2  1  2  1  1  4
  2  1  3  4  1  2  3 12  9  0  4 12  4  4 10  0 12  6  3  6  5  1 18 10
  2 12 13  1  0  9  1 10 13  1 17  2  4 18 15  3  3 20  3 21 14  2  2  2
  3  1 23  9 17 16  5]"
8900,342,1.0,8,2,849.0024650096893,93.30352067947388,0,1139200,7350553,56261839,"[ 2  0  3  0  3  1  0  0  2  3  1  1  3  2  2  0  6  5  2  1  2  1  1  5
  2  1  3  2  7  1  3  2  1  1  6  0  4  4 10  0 12  6  1  8 11  1 15 15
  0  9 14  0  3 17  1  9 10  4 17 10  3 20 20  1 19 23  1 14 15  4 23 20
  3 17 20  9 17 16  5]"
9000,342,1.0,8,2,858.5188512802124,95.16383409500122,0,1152000,7429810,56887313,"[ 2  0  3  0  3  1  0  0  2  3  2  0  4  3  2  0  6  5  2  1  2  2  2  0
  2  1  3  1  5  3  4  3  2  1 12 11  4  4 10  0 12  6  3 10  7  0  1 12
  0 15  3  0 11 14  0  0 13  0 12 18  4 17 14  5 21 20  1 17 16  1  0 14
  0 17 14  9 17 16  5]"
9100,342,1.0,8,2,867.8494000434875,93.30546379089355,0,1164800,7508858,57510631,"[ 2  0  3  0  3  1  0  0  2  1  2  2  3  1  2  0  6  5  2  1  2  1  4  0
  2  1  3  2  6  0  4 13 10  5  5  5  4  4 10  0 12  6  2  1  5  5 11 18
  3 12  3  4  9 10  3 16 18  4  1  1  5 20 22  0 21 22  1 16 14  1 23 14
  4  3 17  9 17 16  5]"
9200,342,1.0,8,2,877.1592876911163,93.09885263442993,0,1177600,7588004,58134742,"[ 2  0  3  0  3  1  0  0  2  2  0  0  1  3  0  0  6  5  2  1  2  4  1  0
  2  1  3  2  7  1  1 12  8  4  2 10  4  4 10  0 12  6  2  9  6  3 13  3
  1  0 15  0 10  3  1 17 17  5  1 15  2 18  2  0 17 23  1 20 22  0  2  1
  3 20 22  9 17 16  5]"
9300,342,1.0,8,2,886.4384236335754,92.79133319854736,0,1190400,7667065,58758348,"[ 2  0  3  0  3  1  0  0  2  4  2  1  2  1  0  0  6  5  2  1  2  2  0  2
  2  1  3  5  2  6  1  4  8  0  4  4  4  4 10  0 12  6  2  2  6  2 13 15
  2 15 15  1  9  2  2 10 11  0  2 10  5  1 23  2 19 22  0 14  2  5 21 20
  4 20  2  9 17 16  5]"
9400,342,1.0,8,2,895.7468740940094,93.08447599411011,0,1203200,7745432,59376615,"[ 2  0  3  0  3  1  0  0  2  3  2  2  5  2  0  0  6  5  2  1  2  2  6  0
  2  1  3  1  2  7  3 11  8  0 13  5  4  4 10  0 12  6  5  3 12  0 12 18
  3 10  9  2 13 16  1 18 11  1 18 18  2 14 19  5  0 16  5  3 18  4  1 17
  4 20 18  9 17 16  5]"
9500,342,1.0,8,2,905.0348079204559,92.87931442260742,0,1216000,7823531,59993275,"[ 2  0  3  0  3  1  0  0  2  0  0  0  5  3  1  0  6  5  2  1  2  2  1  1
  2  1  3  0  8  0  1 11 10  0  1  6  4  4 10  0 12  6  4 13 11  4  1 10
  3  2  2  1 17 13  3 13  9  2  1 11  2 20 14  1 15  0  2 17 18  4 15 16
  0  1  0  9 17 16  5]"
9600,342,1.0,8,2,914.4830195903778,94.48208808898926,0,1228800,7904097,60627853,"[ 2  0  3  0  3  1  0  0  2  0  1  0  2  2  1  0  6  5  2  1  2  1  7  8
  2  1  3  5  4  5  1  8  8  2 10  5  4  4  8  0 12  6  4 12  8  2 15 16
  3  2 18  0 16 17  1  9 11  2 18 12  0  1 19  1  3  0  5  0 15  1 15 22
  1 14 21  9 17 16  5]"
9700,342,1.0,8,2,924.3316531181335,98.48630905151367,0,1241600,7987895,61288640,"[ 2  0  3  0  3  1  0  0  2  0  2  0  2  2  1  0  6  5  3  4  6  3  7  5
  2  1  3  4  7  8  5 12  9  2  9  1  4  4  8  0 12  6  5  3  9  1  9 17
  0  3  3  0  3  1  2 16 10  4  0 10  0  3 21  2  2  2  3 22 16  5  0 21
  4 21 16  9 17 16  5]"
9800,342,1.0,8,2,933.9299392700195,95.98283529281616,0,1254400,8070512,61939821,"[ 2  0  3  0  3  1  0  0  2  5  1  3  2  2  1  0  6  5  3  4  5  3  8  5
  2  1  3  5  1  8  2 11 13  4  1  1  4  4  8  0 12  6  3  4 10  5  3  2
  5 12  9  4 10 11  1 15 14  2 16 17  1 23 21  4 15 20  2  0 14  2 23 19
  0  1  1  9 17 16  5]"
9900,342,1.0,8,2,943.4474341869354,95.17492294311523,0,1267200,8152453,62587064,"[ 2  0  3  0  3  1  0  0  2  5  0  2  2  2  1  0  6  5  1  6  1  2  1  8
  2  1  3  5  8  6  4 11  8  4  0 10  4  4  8  0 12  6  5 10  1  0 14 11
  2  9 11  1  9  0  5 17 11  2  0 14  5 22  2  4  3 14  3 20 14  4 14 21
  3 14 21  9 17 16  5]"
10000,342,1.0,8,2,953.0627255439758,96.15289211273193,0,1280000,8235063,63238388,"[ 2  0  3  0  3  1  0  0  2  2  1  1  2  2  1  0  6  5  5  8  3  5  7  1
  2  1  3  1  3  3  4 13  1  0  4 11  4  4  8  0 12  6  3 12  1  4  2 12
  0 13 13  1  9 18  5 15 16  1  0 13  0 18 15  5 18 15  1 22  2  0 21 15
  5 19 19  9 17 16  5]"
10100,342,1.0,8,2,962.8404786586761,97.77750492095947,0,1292800,8318374,63895078,"[ 2  0  3  0  3  1  0  0  2  1  1  1  2  2  1  0  6  5  2  3  6  1  4  1
  2  1  3  2  0  3  0  7  8  0 11  7  4  4  8  0 12  6  5  6  8  2 15  9
  4  3 17  0  2 13  5  3  1  4 18  9  2  0 16  2  0 20  5 22  2  4 17  2
  2 20 14  9 17 16  5]"
10200,342,1.0,8,2,972.481115102768,96.40633821487427,0,1305600,8399904,64537072,"[ 2  0  3  0  3  1  0  0  2  0  2  3  2  2  1  0  6  5  0  1  0  2  2  8
  2  1  3  3  1  7  5 10  8  4 10  8  4  4  8  0 12  6  4 12  0  4 10 10
  2 13  1  2 17 10  0 14 11  2  2 15  0 18  2  0  2 15  1 17  0  4 16 20
  4 18 22  9 17 16  5]"
10300,342,1.0,8,2,982.0659062862396,95.84788799285889,0,1318400,8481976,65184206,"[ 2  0  3  0  3  1  0  0  2  1  0  1  2  2  1  0  6  5  4  5  4  3  5  8
  2  1  3  4  4  2  2  3  7  0  3  2  4  4  8  0 12  6  1  0  5  3 16 17
  3  2  9  2  3 12  3 15 15  3  3 14  5 16 20  3 19  1  2 15 23  5 19 14
  1  3 20  9 17 16  5]"
10400,342,1.0,8,2,991.7014510631561,96.35542154312134,0,1331200,8564422,65834370,"[ 2  0  3  0  3  1  0  0  2  1  0  1  2  2  1  0  6  5  0  6  2  2  8  7
  2  1  3  0  7  0  3  0  2  0  3  0  4  4  8  0 12  6  1  0  0  3  0 11
  5 16 11  2 12 11  0 16  9  3  1 16  5 20 14  2 23  1  1 22 17  4 16  2
  2  0 15  9 17 16  5]"
10500,342,1.0,8,2,1001.5088269710541,98.07373285293579,0,1344000,8648430,66496563,"[ 2  0  3  0  3  1  0  0  2  3  1  3  2  2  1  0  6  5  4  6  7  1  8  7
  2  1  3  0  3  7  3  8 10  0  9  7  4  4  8  0 12  6  3  3  3  2 16 10
  2  3 11  0 10  9  3 17  9  3 15 18  2  2  3  5 23  0  1 20 20  0 15 15
  4 14 19  9 17 16  5]"
10600,342,1.0,8,2,1011.2332422733307,97.2441291809082,0,1356800,8731227,67149850,"[ 2  0  3  0  3  1  0  0  2  2  3  2  2  2  1  0  6  5  1  0  8  2  0  4
  2  1  3  3  5  7  2  7  3  3  2  3  4  4  8  0 12  6  3 11 11  1 10 15
  4  9  1  1 12 15  3  9 16  2 11 11  3 15  3  3 20 15  4 18 16  3 18 19
  0 21 14  9 17 16  5]"
10700,342,1.0,8,2,1020.8204340934753,95.87189197540283,0,1369600,8814170,67803906,"[ 2  0  3  0  3  1  0  0  2  4  3  2  2  2  1  0  6  5  5  5  7  3  3  4
  2  1  3  4  6  3  5  2  5  5  8 10  4  4  8  0 12  6  3  0  5  0 15  0
  5 11 13  0 11 17  1  1 16  3 12 16  4 19  3  2 19 21  3 18 14  2 23 20
  1 17  3  9 17 16  5]"
10800,342,1.0,8,2,1030.492027759552,96.71591281890869,0,1382400,8898056,68465013,"[ 2  0  3  0  3  1  0  0  2  1  1  1  2  2  1  0  6  5  4  1  3  4  0  3
  2  1  3  1  8  1  3 10 12  5 10  0  4  4  8  0 12  6  4  8  2  1  9  2
  5 13  1  4 15 13  3  2 12  0 10 15  5 19  0  2 17  0  4  1  0  4 14  0
  2 17 18  9 17 16  5]"
10900,342,1.0,8,2,1040.168918132782,96.7688798904419,0,1395200,8981243,69120410,"[ 2  0  3  0  3  1  0  0  2  1  0  1  2  2  1  0  6  5  0  8  5  3  4  7
  2  1  3  0  3  8  1  1  5  5  7  2  4  4  8  0 12  6  4 13  6  5  3  0
  1 11 17  2  1 18  0  2  9  2 15  1  4  3 18  4 17  1  5 19 20  0 16 14
  0  1 14  9 17 16  5]"
11000,342,1.0,8,2,1049.90949177742,97.4057126045227,0,1408000,9064273,69774359,"[ 2  0  3  0  3  1  0  0  2  4  0  2  2  2  1  0  6  5  1  1  3  3  2  6
  2  1  3  5  7  1  2  3  6  2  1  5  4  4  8  0 12  6  5  7  5  3 15 11
  2  2 18  4 18  0  3  9  2  3 18  1  3  1 14  4 22 18  0 16 20  1 18 22
  0 22  0  9 17 16  5]"
11100,342,1.0,8,2,1059.4677567481995,95.58262586593628,0,1420800,9146749,70424214,"[ 2  0  3  0  3  1  0  0  2  5  0  1  2  2  1  0  6  5  1  2  8  3  7  5
  2  1  3  5  6  2  0  4  2  0  6  6  4  4  8  0 12  6  0 11  7  0  9 15
  5 18 14  2 13 10  4 12 18  4  9  3  4 18 14  4 22 23  3 22 23  4 18  2
  4 16 16  9 17 16  5]"
11200,342,1.0,8,2,1069.0001640319824,95.3240442276001,0,1433600,9227171,71058693,"[ 2  0  3  0  3  1  0  0  2  0  1  1  5  0  3  0  6  5  2  2  1  2  8  4
  2  1  3  1  1  8  2  6  2  3  8 12  4  4 10  0 12  6  0  3  3  2  1  1
  1  1 10  0 12  1  0 16 18  3 10  1  2  3  1  1 23 14  0 16 23  4 19 23
  2 15 16  9 17 16  5]"
11300,342,1.0,8,2,1078.4497299194336,94.49563264846802,0,1446400,9306189,71681190,"[ 2  0  3  0  3  1  0  0  2  2  2  1  2  1  2  0  6  5  2  2  1  0  4  5
  2  1  3  1  2  2  4  7  2  4 13  5  4  4  7  0 12  6  2 12  1  5 13 15
  0 18 16  1 11 18  5 16 15  2  3 12  2 18  3  1 22 14  4 20 14  0 14 20
  5 17 23  9 17 16  5]"
11400,342,1.0,8,2,1088.2880346775055,98.3830213546753,0,1459200,9390006,72341995,"[ 2  0  3  0  3  1  0  0  2  2  2  1  5  2  1  0  6  5  2  6  3  1  0  6
  2  1  3  3  6  2  2  2  9  1 13 12  4  4  7  0 12  6  5  0 10  2  2 11
  1  1 12  1 12 12  2 12  0  2  2 15  4 22  0  0 15 15  3  2  3  1 19  3
  1 20  2  9 17 16  5]"
11500,342,1.0,8,2,1097.9236953258514,96.35658025741577,0,1472000,9473006,72996548,"[ 2  0  3  0  3  1  0  0  2  2  2  1  0  1  3  0  6  5  2  4  8  2  1  3
  2  1  3  1  5  6  0  1 11  4  0  8  4  4  7  0 12  6  4  5  1  4  9 18
  3 15 16  2 18  2  4 10  2  5 11 11  2 21 22  1 14 22  3  0  3  0 15  3
  0 18 16  9 17 16  5]"
11600,342,1.0,8,2,1107.5729267597198,96.49228572845459,0,1484800,9555269,73645904,"[ 2  0  3  0  3  1  0  0  2  2  2  1  0  3  0  0  6  5  4  5  2  4  1  7
  2  1  3  0  2  0  0 11  8  2 13  1  4  4  7  0 12  6  2  4  3  2  2 14
  5 10 12  5 18 16  3  2 17  4 18  1  1 14  3  5 14 14  1  3 19  2 22 19
  1 21 15  9 17 16  5]"
11700,342,1.0,8,2,1117.102045059204,95.29116153717041,0,1497600,9637407,74293946,"[ 2  0  3  0  3  1  0  0  2  2  2  1  3  3  2  0  6  5  1  7  0  5  4  7
  2  1  3  1  1  0  4  1  5  0 13  7  4  4  7  0 12  6  4 13  8  1 13  2
  2 16 18  3 11  9  1 17 13  0 10 18  0 23 16  5  2  2  2  1  2  0  1  3
  3 21  3  9 17 16  5]"
11800,342,1.0,8,2,1126.7637360095978,96.61687850952148,0,1510400,9720557,74950023,"[ 2  0  3  0  3  1  0  0  2  2  2  1  5  0  3  0  6  5  1  3  4  3  8  0
  2  1  3  0  7  7  4  6 11  5  1 11  4  4  7  0 12  6  4  4  6  1 16 17
  5 18  3  5 12 13  0 18 12  4 11  1  0 17  0  0 18  0  2  0 14  2  3 22
  5 15  2  9 17 16  5]"
11900,342,1.0,8,2,1136.6601917743683,98.9645266532898,0,1523200,9805238,75618269,"[ 2  0  3  0  3  1  0  0  2  2  2  1  2  1  2  0  6  5  3  2  8  3  5  0
  2  1  3  5  1  1  5  6 12  4  1  7  4  4  7  0 12  6  3 11  7  1 15 18
  3 18 14  3 18 12  4  2 13  3 15  1  4 23  2  1  0  0  0 18 21  3 21 19
  3 22 23  9 17 16  5]"
12000,342,1.0,8,2,1146.309980392456,96.4978575706482,0,1536000,9887883,76270359,"[ 2  0  3  0  3  1  0  0  2  2  2  1  4  2  3  0  6  5  4  7  8  5  7  8
  2  1  3  4  8  4  4  3  3  1 11 13  4  4  7  0 12  6  2  6  2  1  9 14
  0  3 17  3 10 11  0 14 13  3  1  3  5 19 16  2 22 15  1 19 15  3 19 17
  5 20  0  9 17 16  5]"
12100,342,1.0,8,2,1155.9971151351929,96.87132120132446,0,1548800,9970709,76923411,"[ 2  0  3  0  3  1  0  0  2  2  2  1  5  2  2  0  6  5  4  1  3  1  6  3
  2  1  3  3  4  7  4  7  3  1  4 10  4  4  7  0 12  6  5 12  2  1 15 14
  5  1 12  3 10 11  4 16  1  2  0  3  2  2 23  0 18 19  1 19 15  4  0  3
  1 21  1  9 17 16  5]"
12200,342,1.0,8,2,1165.769267320633,97.72149801254272,0,1561600,10053292,77574269,"[ 2  0  3  0  3  1  0  0  2  2  2  1  0  1  2  0  6  5  0  5  0  4  1  7
  2  1  3  5  2  5  3  4  7  4  0  6  4  4  7  0 12  6  3 10 10  1  2  1
  1  1 13  5  3 12  4 16 14  5 11  3  1 20 23  2 22 19  3 16 23  5 21 19
  3 18  0  9 17 16  5]"
12300,342,1.0,8,2,1175.461797952652,96.92527770996094,0,1574400,10136683,78232288,"[ 2  0  3  0  3  1  0  0  2  2  2  1  4  1  3  0  6  5  4  5  4  5  7  4
  2  1  3  1  1  0  4  7 11  1  7  6  4  4  7  0 12  6  5  1  7  0  3 11
  4  2 14  0 18 11  1 14 18  0 11 12  2 20 17  0 17 22  1  2 22  4 19  0
  2  2  3  9 17 16  5]"
12400,342,1.0,8,2,1185.2456848621368,97.83884763717651,0,1587200,10219835,78888392,"[ 2  0  3  0  3  1  0  0  2  2  2  1  2  2  1  0  6  5  0  7  2  3  4  6
  2  1  3  5  8  1  2 13  7  5  0  7  4  4  7  0 12  6  5  2  6  2 17 17
  5 13  3  2  1 16  5 11 14  5 10  0  4 23 15  5  3 16  1 19  1  1 22 20
  2 21 17  9 17 16  5]"
12500,342,1.0,8,2,1194.9916338920593,97.45946407318115,0,1600000,10302268,79537709,"[ 2  0  3  0  3  1  0  0  2  2  2  1  3  3  3  0  6  5  2  1  7  3  6  8
  2  1  3  2  3  5  0  2  1  4  6 10  4  4  7  0 12  6  1  0 11  5  3  0
  1  1  2  1 15 10  1  1 14  0 17 14  3 21 17  5 18 23  4 22 22  0 19 20
  2 19 23  9 17 16  5]"
12600,342,1.0,8,2,1204.6451349258423,96.5349817276001,0,1612800,10384685,80187978,"[ 2  0  3  0  3  1  0  0  2  2  2  1  3  2  3  0  6  5  5  0  4  0  5  5
  2  1  3  1  2  1  5 11 12  0  5  3  4  4  7  0 12  6  0  4  0  4 18  3
  2 12 12  1  9  2  3 12 16  5 17 16  4 17  2  2 21 18  3 22 20  1  3 17
  5  0  1  9 17 16  5]"
12700,342,1.0,8,2,1214.4248542785645,97.79716968536377,0,1625600,10468058,80845697,"[ 2  0  3  0  3  1  0  0  2  2  2  1  4  0  0  0  6  5  0  3  8  3  2  0
  2  1  3  3  0  8  3 10 11  5  1 13  4  4  7  0 12  6  2 13  7  5 16  2
  0  0  1  5  1 13  3 12  0  1 10 14  3 17  3  1 23  1  2 23 18  5 23  2
  1 23  1  9 17 16  5]"
12800,342,1.0,8,2,1223.9356336593628,95.10776996612549,0,1638400,10549833,81490939,"[ 2  0  3  0  3  1  0  0  2  2  2  1  4  0  3  0  6  5  1  4  8  1  0  2
  2  1  3  0  8  4  5  9  4  3  1 13  4  4  7  0 12  6  5 13  0  5 18  3
  2 14 13  2 15 18  3 17 14  0  9  1  1 17  2  5 19  3  2 14 18  5 22 14
  2 22 21  9 17 16  5]"
12900,342,1.0,8,2,1233.8247022628784,98.89065265655518,0,1651200,10633155,82148653,"[ 2  0  3  0  3  1  0  0  2  2  2  1  5  1  3  0  6  5  5  1  1  3  7  7
  2  1  3  0  8  6  4  7  0  4  5 12  4  4  7  0 12  6  4  0  5  2 15 11
  2 13 14  0  3 17  2  0  9  1 17 13  5 14  3  1 21 15  4 17 18  4  0 23
  4 19 23  9 17 16  5]"
13000,342,1.0,8,2,1243.6419882774353,98.17283868789673,0,1664000,10716062,82802458,"[ 2  0  3  0  3  1  0  0  2  2  2  1  5  3  1  0  6  5  2  0  1  3  5  8
  2  1  3  5  8  6  2  4  1  1 13  1  4  4  7  0 12  6  5  1  0  2  2  2
  1 16 10  4 12  1  4  0  9  0 13 16  0 21 15  4 18 20  4 17 20  1  2 23
  5 16 19  9 17 16  5]"
13100,342,1.0,8,2,1253.2196221351624,95.77630996704102,0,1676800,10797872,83447979,"[ 2  0  3  0  3  1  0  0  2  2  2  1  1  2  0  0  6  5  0  4  6  3  6  0
  2  1  3  4  1  8  0  4  2  1  1  7  4  4  7  0 12  6  1  2  7  3 10 15
  1 10 14  0 14 17  3 12 12  1 16 18  4  2 19  2 20 21  3 17  3  3 18 15
  1  2 14  9 17 16  5]"
13200,342,1.0,8,2,1262.8550703525543,96.35446071624756,0,1689600,10881173,84104940,"[ 2  0  3  0  3  1  0  0  2  2  2  1  5  0  2  0  6  5  4  6  4  2  6  8
  2  1  3  1  6  4  2 13  8  1  8  6  4  4  7  0 12  6  5  5  9  1 11 13
  1  2 14  4  2  1  3 16 12  3  1 14  4  2 20  5 18  3  1 15  3  2  1 14
  1 21 22  9 17 16  5]"
13300,342,1.0,8,2,1272.4520962238312,95.97022294998169,0,1702400,10963148,84752485,"[ 2  0  3  0  3  1  0  0  2  2  2  1  2  0  3  0  6  5  5  6  5  0  8  5
  2  1  3  1  5  3  1 13  2  1 10  9  4  4  7  0 12  6  4  3  7  1  1 11
  0 17 12  4 15 17  3 10  9  5  2 14  5  3  3  2  3 18  2 20 21  2  1 19
  1 14 19  9 17 16  5]"
13400,342,1.0,8,2,1282.1546642780304,97.02565431594849,0,1715200,11045319,85400039,"[ 2  0  3  0  3  1  0  0  2  2  2  1  1  1  3  0  6  5  1  2  6  1  4  4
  2  1  3  3  6  4  1  2 12  0  1  6  4  4  7  0 12  6  5 13 12  0  3 15
  2 16  9  4  9  0  0 17 16  3  2 12  0 18  1  5 16  3  2 22 22  2 16 23
  2  1 20  9 17 16  5]"
13500,342,1.0,8,2,1291.855700492859,97.01033592224121,0,1728000,11127036,86043758,"[ 2  0  3  0  3  1  0  0  2  2  2  1  4  0  2  0  6  5  1  1  4  1  6  1
  2  1  3  5  6  8  3  4  5  4  1  9  4  4  7  0 12  6  4  5  6  1 17 17
  1 15  9  0 14 14  5 16 14  2  1 12  5 18 22  2 22 18  3  0 18  0 14 19
  1 22 15  9 17 16  5]"
13600,342,1.0,8,2,1301.4649612903595,96.0925817489624,0,1740800,11209842,86696528,"[ 2  0  3  0  3  1  0  0  2  2  2  1  0  1  0  0  6  5  5  4  5  4  5  0
  2  1  3  3  5  3  3 11  5  0 10  5  4  4  7  0 12  6  2  0  2  3 11 14
  2 18 12  3 16  9  1 14 17  5 10  9  1  1 18  0 19 14  3  0 22  0 14 19
  2 18 14  9 17 16  5]"
13700,342,1.0,8,2,1311.0025091171265,95.37544012069702,0,1753600,11291904,87342663,"[ 2  0  3  0  3  1  0  0  2  2  2  1  3  0  1  0  6  5  2  0  8  3  5  6
  2  1  3  1  7  7  0  2  3  2  0  6  4  4  7  0 12  6  4 10  4  3 13 18
  3  0  0  1  9  3  0 10 18  2 13  2  2 14  3  1  3 20  3 16 21  2 19 15
  4  0 21  9 17 16  5]"
13800,342,1.0,8,2,1320.6321885585785,96.29676818847656,0,1766400,11374250,87992031,"[ 2  0  3  0  3  1  0  0  2  2  2  1  0  3  3  0  6  5  3  2  4  3  7  8
  2  1  3  3  8  2  0  7  8  3  1  8  4  4  7  0 12  6  3  9  7  1 10 15
  5 10  0  1  9  9  2 15  0  2 16  9  2 16 21  1 17 20  3  1 21  5  2 17
  3 20  3  9 17 16  5]"
13900,342,1.0,8,2,1330.2339437007904,96.01752758026123,0,1779200,11457177,88645545,"[ 2  0  3  0  3  1  0  0  2  2  2  1  0  1  3  0  6  5  1  6  4  0  6  4
  2  1  3  0  4  0  3 11 12  0  8  4  4  4  7  0 12  6  4 11  8  1 18 12
  0  2  0  5  9 17  0  2 17  0  9  1  3 20 22  3 23  1  1 22  1  1  1 16
  0 17 19  9 17 16  5]"
14000,342,1.0,8,2,1339.8730738162994,96.39127731323242,0,1792000,11540669,89303577,"[ 2  0  3  0  3  1  0  0  2  2  2  1  0  2  3  0  6  5  2  8  4  2  0  1
  2  1  3  1  2  3  3  3  1  5 11  0  4  4  7  0 12  6  5  5 13  3 18  9
  4 12 14  3 16  3  1 16  2  0  2  9  2 16 22  4 23  2  3 22 15  2 23 14
  3 17 21  9 17 16  5]"
14100,342,1.0,8,2,1349.6218702793121,97.48793840408325,0,1804800,11625202,89970990,"[ 2  0  3  0  3  1  0  0  2  2  2  1  2  1  1  0  6  5  0  5  4  2  5  0
  2  1  3  5  1  2  3  8 11  0  4  4  4  4  7  0 12  6  3 10  6  5 12 16
  1 10 17  2 14 18  1 15 15  5  1 18  2 20 15  5 15 21  1 21 23  2 14 17
  1 16 17  9 17 16  5]"
14200,342,1.0,8,2,1359.3990268707275,97.77154445648193,0,1817600,11708715,90629730,"[ 2  0  3  0  3  1  0  0  2  2  2  1  5  0  0  0  6  5  1  4  1  3  1  2
  2  1  3  5  0  0  3  5 10  2 13  4  4  4  7  0 12  6  2  6  9  4  2 15
  0 13  3  0 15  3  2  9 15  2  1  2  4  0 16  1 22 19  1 16  0  5 17 16
  3  1  0  9 17 16  5]"
14300,342,1.0,8,2,1369.095380783081,96.96351051330566,0,1830400,11792056,91287612,"[ 2  0  3  0  3  1  0  0  2  2  2  1  0  0  3  0  6  5  4  0  0  3  1  7
  2  1  3  5  7  4  5  2 13  3  1  5  4  4  7  0 12  6  4 12 12  4  2  1
  3 15 17  2  3 12  1 12 14  2 14 13  0 15 21  1  1  2  2 23 20  1 20  2
  2 19 21  9 17 16  5]"
14400,342,1.0,8,2,1378.7103900909424,96.15006685256958,0,1843200,11875344,91943355,"[ 2  0  3  0  3  1  0  0  2  2  2  1  2  2  0  0  6  5  5  5  7  3  3  2
  2  1  3  4  7  1  4  7  7  4 10  3  4  4  7  0 12  6  5 13  2  1  2 12
  2 18 18  3 10  2  3  1 10  3  2 16  5 15 17  0  1  1  2 15 17  0 15  2
  4 20 15  9 17 16  5]"
14500,342,1.0,8,2,1388.3320384025574,96.21645927429199,0,1856000,11958205,92596344,"[ 2  0  3  0  3  1  0  0  2  2  2  1  1  3  3  0  6  5  2  5  7  4  0  6
  2  1  3  0  1  7  3 13  8  3  9  1  4  4  7  0 12  6  5  7  7  1 12  0
  0 10 14  0 13 11  2 13 12  1 15 16  5 14  0  2  1 22  0 19  3  3  1 19
  4  2 16  9 17 16  5]"
14600,342,1.0,8,2,1398.0562210083008,97.24180221557617,0,1868800,12040204,93243390,"[ 2  0  3  0  3  1  0  0  2  2  2  1  2  2  1  0  6  5  4  5  8  2  4  8
  2  1  3  0  7  1  5  7  5  0  6  3  4  4  8  0 12  6  1 13 13  2  9 12
  0 13  2  3 11 10  5  9 17  2  2 15  4 18 16  3 22 16  4 16  0  0  2 18
  4  3 23  9 17 16  5]"
14700,342,1.0,8,2,1407.7717680931091,97.155442237854,0,1881600,12123260,93898535,"[ 2  0  3  0  3  1  0  0  2  1  2  0  2  2  1  0  6  5  0  3  1  4  7  8
  3  3  0  2  1  3  5  3 13  2  5  6  4  4  8  0 13  6  4  0  3  2 12 17
  3  1  3  3  1 18  4  9  0  4 16 16  0  3  1  2 15  3  3  2  0  2 18 23
  3 15 14  9 17 16  5]"
14800,342,1.0,8,2,1417.5897390842438,98.17968368530273,0,1894400,12207197,94559820,"[ 2  0  3  0  3  1  0  0  2  1  0  3  2  2  1  0  6  5  4  5  8  2  2  2
  5  3  6  2  1  3  4  0 12  1  9  5  4  4  8  0 13  6  2  4 12  1 15 11
  1  1  3  0  1 13  4 14  0  3  9 14  3 14 19  4 22  0  0 14 18  0  0 16
  5  0 19  9 17 16  5]"
14900,342,1.0,8,2,1427.2838294506073,96.94087505340576,0,1907200,12290209,95214425,"[ 2  0  3  0  3  1  0  0  2  2  2  1  2  2  1  0  6  5  0  4  6  1  2  1
  2  5  1  2  1  3  1 10  4  2  6  8  4  4  7  0 13  6  4 10 12  3 16 15
  2 16  3  3 10 13  2  3  0  5  2 13  1  0 17  3 15 23  1  0 23  2 20 22
  2 18  2  9 17 16  5]"
15000,342,1.0,8,2,1437.006186246872,97.22354173660278,0,1920000,12374089,95875606,"[ 2  0  3  0  3  1  0  0  2  2  2  1  1  1  3  0  6  5  3  3  7  0  3  7
  1  1  2  2  1  3  5 13 11  2  3  8  4  4  7  0 13  6  0  7  2  1 16 13
  3  3 13  5 16 16  5  2 14  3 15 10  1 23 21  3 17 14  5 21 16  1 19  3
  5 23 21  9 17 16  5]"
15100,342,1.0,8,2,1446.7364282608032,97.30239629745483,0,1932800,12457376,96531931,"[ 2  0  3  0  3  1  0  0  2  2  2  1  0  0  0  0  6  5  0  8  5  5  8  8
  0  2  0  2  1  3  0  7  2  2  7 11  4  4  7  0 13  6  2  7 12  0  1 18
  0  1  0  2  1 17  1  2 14  5 15 11  2  2 21  3 15 23  5  2  1  1 19 22
  3  3 15  9 17 16  5]"
15200,342,1.0,8,2,1456.3081667423248,95.71735143661499,0,1945600,12538253,97168999,"[ 2  0  3  0  3  1  0  0  2  2  1  1  2  1  2  0  6  5  5  6  6  2  7  2
  2  2  1  2  1  3  5  1 11  1  3 11  4  4 12  0 13  6  0  5  3  0  2 15
  3 14 17  1 17  0  4  2 10  0 10  2  0  1  3  0 22 21  1 21  2  3  0 19
  1 15 22  9 17 16  5]"
15300,342,1.0,8,2,1466.0780746936798,97.6990556716919,0,1958400,12623406,97840956,"[ 2  0  3  0  3  1  0  0  2  2  0  2  2  1  3  0  6  5  4  5  1  3  8  7
  2  2  1  3  6  4  1  5 12  2 12 10  4  4 12  0  8  6  0  0  9  0 11 15
  2  1 11  4  3 17  1 16 14  2 17  1  5 21 20  4 23 15  0  2 16  3  2  3
  0 19  0  9 17 16  5]"
15400,342,1.0,8,2,1476.1231570243835,100.45079708099365,0,1971200,12709948,98522641,"[ 2  0  3  0  3  1  0  0  2  2  3  0  2  1  3  0  6  5  0  7  8  1  6  2
  2  2  1  0  1  1  1 11  6  5 12  9  4  4 12  0  8  6  1  5 12  3 15 15
  0  0 18  0 11  0  5 15 17  2  1  1  5 18 17  0 15 17  1 23 21  3  3 14
  4 17 21  9 17 16  5]"
15500,342,1.0,8,2,1485.9630341529846,98.39874505996704,0,1984000,12795866,99199754,"[ 2  0  3  0  3  1  0  0  2  4  1  0  2  1  3  0  6  5  4  1  2  2  4  1
  2  2  1  5  0  1  4  4  3  3  1  4  4  4 12  0  8  6  2  6  3  1 15  9
  2 13 16  4 11  0  5 10 16  3  9  1  4  2 16  0 14 16  3  2  0  1  2  2
  0 15 14  9 17 16  5]"
15600,342,1.0,8,2,1495.975924730301,100.12887954711914,0,1996800,12883290,99888648,"[ 2  0  3  0  3  1  0  0  2  0  2  3  2  1  3  0  6  5  4  6  3  2  2  2
  2  2  1  1  3  3  4  9  3  4  3 13  4  4 12  0  8  6  4  0  9  5 17  2
  0  0 13  2 18 11  5  1 15  1  2  2  1 21 18  2 18 22  2  2 17  0 23 15
  4 23  2  9 17 16  5]"
15700,342,1.0,8,2,1505.8751652240753,98.99237871170044,0,2009600,12969667,100570395,"[ 0  0  3  0  3  1  0  0  2  2  0  3  2  1  3  0  6  5  2  2  7  1  2  5
  2  2  1  5  8  4  4  0 13  5 11  9  4  7 12  0  8  6  2  9 12  2 16 17
  0 14  1  2  3 16  5 11 15  5  9  2  2 16 18  0 21 15  5 22 17  3 14 20
  1  1 19  9 17 16  5]"
15800,342,1.0,8,2,1515.7893695831299,99.14201736450195,0,2022400,13055510,101248098,"[ 3  1  0  0  3  1  0  0  2  2  0  3  2  1  3  0  6  5  0  4  0  5  6  0
  2  2  1  2  7  2  3 11  2  0 11  1  4  7 12  0  8  6  4  2  0  4 17 14
  4 10  0  1 14 12  5  2 18  5 14 10  5  0 21  2 20 19  4 22  1  5  2 22
  4 16 23  9 17 16  5]"
15900,342,1.0,8,2,1525.812837600708,100.23465156555176,0,2035200,13140531,101919686,"[ 5  2  2  0  3  1  0  0  2  2  0  3  2  1  3  0  6  5  5  5  8  0  7  5
  2  2  1  5  4  1  2  8 11  5  8  3  4  7 12  0  8  6  2 13  9  2 17  0
  3 15 14  2 16  0  4  0 10  4  9  1  3 19  1  3 23 19  1 22  2  0 14 20
  2 19 20  9 17 16  5]"
16000,342,1.0,8,2,1536.0084841251373,101.95643663406372,0,2048000,13229110,102619191,"[ 1  0  2  0  3  1  0  0  2  2  0  3  2  1  3  0  6  5  1  7  2  1  4  7
  2  2  1  3  3  1  4 12  0  2  8 11  4  7 12  0  8  6  3  2  1  2 16 15
  0  1  3  1 13  0  4  0 16  2 11 11  0  2  1  5 23 17  1 14  2  3 14 18
  1 19 19  9 17 16  5]"
16100,342,1.0,8,2,1545.9981906414032,99.89703893661499,0,2060800,13315852,103303728,"[ 2  1  3  0  3  1  0  0  2  2  0  3  2  1  3  0  6  5  3  4  8  2  5  5
  2  2  1  0  3  6  0  9  2  1 13 12  4  7 12  0  8  6  4  4  4  2 11 17
  2  9 10  2  0 17  0  9 12  0 13  2  1 22 18  2 17 15  3 20 19  3 17 21
  3  3 14  9 17 16  5]"
16200,342,1.0,8,2,1556.0039496421814,100.05756616592407,0,2073600,13402596,103987694,"[ 2  1  3  0  3  1  0  0  2  2  0  3  2  3  1  0  6  5  4  3  1  1  8  2
  2  2  1  0  2  2  5 13  5  5  7  3  4  7 12  0  4  6  2 11  0  4 17  9
  1  1 10  2 10 18  4 17  9  3  2 10  0  0 23  1 20 19  5 16 14  0  1  1
  1 20 22  9 17 16  5]"
16300,342,1.0,8,2,1566.0869274139404,100.82975387573242,0,2086400,13490584,104681715,"[ 2  1  3  0  3  1  0  0  2  2  0  3  4  3  2  0  6  5  0  4  6  5  3  0
  1  5  8  2  2  1  1  6  8  3  5  4  4  7 13  0  4  6  5 11  7  0 14 13
  1  1  3  1  9  3  2 18  2  1  9  0  5  0 17  4 16  3  3  2 14  4  0 17
  2 16 22  9 17 16  5]"
16400,342,1.0,8,2,1576.1100828647614,100.23152828216553,0,2099200,13578294,105372870,"[ 2  1  3  0  3  1  0  0  2  2  0  3  0  0  0  0  6  5  0  4  6  0  6  7
  0  0  0  2  2  1  4  5  9  1 11  6  4  7 13  4  4  2  3  8  4  4 18 11
  0 11  2  2 14  3  4 13 10  3  1  1  3 14 19  5 17  3  0 22  1  4 17 23
  4 23 19  9 10 16  5]"
16500,342,1.0,8,2,1586.2344121932983,101.24326467514038,0,2112000,13665776,106062526,"[ 2  1  3  0  3  1  0  0  2  2  0  3  1  0  1  0  6  5  0  4  6  3  0  7
  1  0  4  2  2  1  4  5  9  1  1  3  4  7 13  4  7  4  4  0  7  0 13 18
  5 10 11  1  1  0  2 17  9  5 10 16  4 23 22  0  2 17  5 14  2  0 17 21
  0 17  2  9 10 16  5]"
16600,342,1.0,8,2,1596.4168901443481,101.82475328445435,0,2124800,13755191,106767511,"[ 2  1  3  0  3  1  0  0  2  2  0  3  2  3  2  0  6  5  0  4  6  4  0  1
  4  1  8  2  2  1  4  5  4  2 13 11  4  7 13  4  8  4  5  5  0  5  9 11
  5 16  0  3 10  9  4 16 13  0 11 16  1 16 23  3 14 18  3 15 14  4  0 19
  0 14 14  9 10 16  5]"
16700,342,1.0,8,2,1606.4356400966644,100.18747568130493,0,2137600,13843166,107461016,"[ 2  1  3  0  3  1  0  0  2  2  3  0  2  0  3  0  6  5  0  4  6  4  2  2
  5  2  6  2  2  1  0 11  9  3 13  1  4  8 13  1 12 11  4  1  5  4  3 12
  5 10 14  0 10  3  3  0  1  5 15 11  4 21 20  4  2 21  3 16 22  1 21 22
  0 14 21  9 10 16  5]"
16800,342,1.0,8,2,1616.7442026138306,103.08560132980347,0,2150400,13932408,108164023,"[ 2  1  3  0  3  1  0  0  2  2  3  2  2  0  3  0  6  5  0  4  6  4  5  4
  0  8  7  2  2  1  3 13  5  2  0  9  4  8 13  1  5 11  3 10  1  3  3 17
  1 13 16  5  9  3  1  0 15  1 17 10  1  3 22  4  2 14  1  0  3  3 19  0
  1  0  0  9 10 16  5]"
16900,342,1.0,8,2,1627.071507692337,103.273024559021,0,2163200,14021065,108861957,"[ 1  2  1  0  3  1  0  0  2  2  3  1  2  0  3  0  6  5  0  7  6  4  8  0
  3  3  8  2  2  1  5  1  2  4  7  6  4  8 13  2  5  9  0  4  0  5  1 16
  4 17 10  5  0  3  2 10 11  2 15  0  4 16 20  3 17 22  3 16  2  0 14 22
  1 16 20  9 10 16  5]"
17000,342,1.0,8,2,1637.2631950378418,101.9168496131897,0,2176000,14109585,109558846,"[ 4  0  1  0  3  1  0  0  2  2  3  1  2  0  3  0  6  5  0  7  6  2  0  4
  1  5  4  2  2  1  4  8  7  4  5 13  4  8 13  4 10  6  3  7 13  2 17 14
  4  0  2  5 10  0  1 17  9  3 12 13  3 19 16  3 20 14  0  1 15  2 14 20
  2 16 19  9 10 16  5]"
17100,342,1.0,8,2,1647.4558942317963,101.92696571350098,0,2188800,14198917,110262708,"[ 2  1  2  0  3  1  0  0  2  2  3  1  2  0  3  0  6  5  0  7  6  0  8  5
  4  6  3  3  0  3  2 11  2  4  0  8  4  8  4  5  3  8  0  7  6  4 12 18
  4 17 12  1  1 11  3 15  2  1  2  0  1  2  2  4 21 20  2  3  2  1  1  0
  1 19  1  9 10 16  5]"
17200,342,1.0,8,2,1657.8092226982117,103.53325605392456,0,2201600,14291505,110991399,"[ 2  1  2  0  3  1  0  0  2  2  3  1  2  0  3  0  6  5  0  7  6  5  5  0
  1  0  3  1  0  8  4  4  8  4  9  0  4  0  9  4  5  6  0  6  9  3  3 12
  2  3 16  4 12 15  0 12  3  0  1 16  0  3 23  3  2 20  2 22 20  1 17 16
  1  1  3  9 10 14  5]"
17300,342,1.0,8,2,1668.3791408538818,105.69915294647217,0,2214400,14384706,111724662,"[ 2  1  2  0  3  1  0  0  2  2  3  1  2  0  3  0  6  5  0  7  6  4  7  3
  2  2  2  3  6  8  4  4  8  2  2 10  2  0  6  2  5 12  2  6  1  4  3 16
  4  3 13  5 15 16  2 10 10  5 13 11  1 15 19  1 16 23  1 17 19  2 20  1
  0  2 18  9 10 14  5]"
17400,342,1.0,8,2,1678.7509207725525,103.71777296066284,0,2227200,14477271,112454257,"[ 2  1  2  0  3  1  0  0  2  2  3  1  2  0  3  0  6  5  0  7  6  0  2  2
  2  0  3  5  6  0  4  4  8  0  4  6  2  5  7  2  3  2  0  6  7  3  2 17
  5 16 13  0 12 17  5  2 10  0  3 11  5 23 16  3 14 18  2 20 14  3 14 17
  5  2 14  9 10 14  5]"
17500,342,1.0,8,2,1689.2617590427399,105.10835647583008,0,2240000,14569818,113184311,"[ 2  1  2  0  3  1  0  0  2  2  3  1  2  0  3  0  6  5  3  3  6  2  2  8
  4  7  0  3  2  1  4  4  8  0  7  6  4  5 13  4 10  3  0  0 10  3  0  9
  1 14  9  4  0  1  3  2 13  2 12 17  1 22 21  4 19 14  3  0 14  4 20 16
  0  1 18  9 15 14  5]"
17600,342,1.0,8,2,1699.5367259979248,102.74964332580566,0,2252800,14660867,113902227,"[ 2  1  2  0  3  1  0  0  2  2  3  1  2  0  3  0  6  5  3  4  0  4  8  3
  4  2  3  5  6  6  4  4  8  0  7  6  4  5  8  1  3  0  5  3  9  5  2 18
  5 15 13  0 16  0  2 17  2  1 15 16  5 14 15  3 17 21  3 21  1  4 22 21
  1 21  0  9 15 14  5]"
17700,342,1.0,8,2,1709.8278090953827,102.91080713272095,0,2265600,14751166,114614794,"[ 2  1  2  0  3  1  0  0  2  2  3  1  2  0  3  0  6  5  0  8  2  0  6  6
  1  1  2  1  1  7  4  4  8  0  7  6  0  6  8  3 13  3  3 13 10  4 16 16
  4 10 12  2 11 17  0  3 14  0 18 14  3 16 14  5 15 23  4 17  0  0 19  3
  4 19  2  9 15 14  5]"
17800,342,1.0,8,2,1720.4122989177704,105.84487676620483,0,2278400,14842978,115339122,"[ 2  1  2  0  3  1  0  0  2  2  3  1  2  0  3  0  6  5  1  5  2  2  1  1
  2  7  7  0  1  3  4  4  8  0  7  6  4  6 10  1  9  3  1  3  3  4 10 11
  0 13 10  0  3 17  1  0  3  0  0 13  3 18 16  2  3 18  3 14  1  1 16 21
  4 15  1  9 15 14  5]"
17900,342,1.0,8,2,1730.7032403945923,102.9093861579895,0,2291200,14933502,116053376,"[ 2  1  2  0  3  1  0  0  2  2  3  1  2  0  3  0  6  5  1  2  8  0  2  8
  3  4  3  4  5  1  4  4  8  0  7  6  3  0  3  1  7 12  2  8 11  5 17 14
  1  0 16  5  3 13  2 12  2  3  9  2  5 22 14  3 14 20  4 18 19  5  2 23
  4  2 15  9 15 14  5]"
18000,342,1.0,8,2,1741.1867356300354,104.83492851257324,0,2304000,15024499,116771197,"[ 2  1  2  0  3  1  0  0  2  2  3  1  2  0  3  0  6  5  0  8  5  2  0  8
  3  8  6  3  5  6  4  4  8  0  7  6  3  4  8  0 10  9  0 13  5  5  3  1
  1 14 14  2  0  2  0 16  0  0 12  1  2 15 17  4  3 15  1  3 22  3 19 19
  0 14 16  9 15 14  5]"
18100,342,1.0,8,2,1751.6018414497375,104.15103197097778,0,2316800,15115298,117488007,"[ 2  1  2  0  3  1  0  0  2  2  3  1  2  0  3  0  6  5  3  2  6  2  2  1
  0  5  1  2  0  7  4  4  8  0  7  6  4 11  4  5  1 12  0  0  7  2 16 10
  0 12 18  2  3 12  0 11 10  4  3 10  1 17 18  2 15  2  4  3 15  5 21 19
  2 14 19  9 15 14  5]"
18200,342,1.0,8,2,1761.5290517807007,99.27207708358765,0,2329600,15201871,118171616,"[ 2  2  0  0  3  1  0  0  2  2  3  1  2  0  3  0  6  5  5  2  5  2  2  1
  3  7  7  1  1  5  4 11  8  0  7  6  2 10  2  3 11 13  0  7  6  4  0  0
  5  9  2  1  3  9  0 10  0  0 16  9  3  3 16  5 16 15  1 16  2  4 23 20
  5  1 15  9 15 14  5]"
18300,342,1.0,8,2,1771.5041558742523,99.75101470947266,0,2342400,15288472,118854420,"[ 1  2  2  0  3  1  0  0  2  2  3  1  2  0  3  0  6  5  5  3  8  2  2  1
  0  7  1  5  2  7  4 11  8  0  7  6  4  8  3  2  1  3  3  0  8  3 12 11
  5 12 12  0  3 15  0 12 18  2 13 16  0 14 16  0  0 16  3  1  0  4 16  0
  3  3 20  9 15 14  5]"
18400,342,1.0,8,2,1781.5626001358032,100.58441877365112,0,2355200,15376140,119545919,"[ 3  0  0  0  3  1  0  0  2  2  3  1  2  0  3  0  6  5  0  8  6  2  2  1
  5  8  5  0  3  2  4 11  8  0  7  6  1  8  1  5  6 11  1  4  5  3  3 12
  2 16 10  2 12 11  4 18  0  4  9 17  2  2 16  3 23 19  0 23  3  5 19 14
  0 20 17  9 15 14  5]"
18500,342,1.0,8,2,1791.656479358673,100.93875885009766,0,2368000,15463954,120239019,"[ 3  0  3  0  3  1  0  0  2  2  3  1  2  0  3  0  6  5  2  2  4  2  2  1
  3  8  3  0  2  4  4 11  8  0  7  6  1  7 10  4  3  4  1 11 11  5 15  0
  5  2  0  4 12 13  4 11  2  2 14 16  0 22  3  3  1  1  5 14 15  1 22 22
  1 17 19  9 15 14  5]"
18600,342,1.0,8,2,1801.6690731048584,100.12591123580933,0,2380800,15550859,120924974,"[ 2  0  0  0  3  1  0  0  2  2  3  1  2  0  3  0  6  5  0  6  2  2  2  1
  5  1  3  4  0  1  4 11  8  0  7  6  1 13  9  1  8 13  5 10 10  1  3  0
  4  1 16  0  9 18  2  2  0  3 15 18  2 19  3  0  1 16  4  2  0  4 19 20
  4 18 15  9 15 14  5]"
18700,342,1.0,8,2,1811.7711701393127,101.02094411849976,0,2393600,15638229,121615011,"[ 5  3  1  0  3  1  0  0  2  2  3  1  2  0  3  0  6  5  0  4  0  2  2  1
  1  5  4  4  7  3  4 11  8  0  7  6  2  1 10  2  1  7  2  1  3  1  9 10
  2 12  2  3 18  9  5  1 10  4 15 18  4 23  1  5 16 16  4 17 20  1 19 22
  3 18  1  9 15 14  5]"
18800,342,1.0,8,2,1821.8470299243927,100.75856924057007,0,2406400,15724645,122297477,"[ 0  3  2  0  3  1  0  0  2  2  3  1  2  0  3  0  6  5  4  2  7  2  2  1
  0  6  8  5  7  5  4 11  8  0  7  6  5  8 12  4 13 10  3  4  9  5  2 17
  1 13  2  5 13 13  4  1 10  3 15 16  0 22 18  0  0 23  1 14 14  1  0 23
  2 16 17  9 15 14  5]"
18900,342,1.0,8,2,1831.8272414207458,99.8020887374878,0,2419200,15811719,122984850,"[ 5  3  0  0  3  1  0  0  2  2  3  1  2  0  3  0  6  5  2  0  8  2  2  1
  5  3  7  1  3  7  4 11  8  0  7  6  3 13  7  2  9  6  1 11  9  5 15  0
  5 14  9  1 14 18  1 17 16  5  1  9  3 18  2  5 18  1  1 21 23  2  3  0
  1  1  0  9 15 14  5]"
19000,342,1.0,8,2,1841.7216289043427,98.94384860992432,0,2432000,15897500,123661614,"[ 3  3  1  0  3  1  0  0  2  2  3  1  2  0  3  0  6  5  2  3  1  2  2  1
  5  5  7  3  1  3  4 11  8  0  7  6  2 12  3  3  8  4  5  3 10  3 16  0
  5 12  3  5  3 13  3 14  2  5  0  1  5  2 14  2 17 16  0 18 15  2 18  0
  5  0 23  9 15 14  5]"
19100,342,1.0,8,2,1851.2928698062897,95.71238279342651,0,2444800,15977005,124288389,"[ 5  3  0  0  3  1  0  0  2  2  0  3  2  0  3  0  6  5  4  8  2  2  2  1
  4  6  3  2  1  3  4 11  8  0 13  6  4  7  2  2  7  0  4  2 13  3 13  3
  2 16  1  0 15  9  4  9 12  0 11 11  2 23  1  4 14 19  1  3 15  2 19 14
  3 19 23  9 15 14  5]"
19200,342,1.0,8,2,1860.7913687229156,94.98496055603027,0,2457600,16057109,124919926,"[ 2  2  3  0  3  1  0  0  2  2  0  3  5  0  2  0  6  5  4  0  5  2  2  1
  4  4  3  2  1  3  4 11  7  0 13  6  3 11 10  5 13 13  4 12  6  3  3 14
  4 10 16  5  1 16  5 13 13  2 11 15  2 23  3  3 22 23  0 16  1  3 20 16
  5 19  3  9 15 14  5]"
19300,342,1.0,8,2,1870.1295783519745,93.38207483291626,0,2470400,16136395,125544507,"[ 1  0  0  0  3  1  0  0  2  2  0  3  2  2  1  0  6  5  4  1  8  2  0  2
  1  5  1  2  1  3  4  8  7  0 13  6  0  6  2  2  9 13  0  5  3  3 17 16
  4 10  3  0 18  9  0 11  1  5  9 11  4 22 20  0 22  3  2 21 15  2 18 18
  1  0  1  9 15 14  5]"
19400,342,1.0,8,2,1879.739658355713,96.10077381134033,0,2483200,16219058,126195657,"[ 0  2  1  0  3  1  0  0  2  2  0  3  2  2  1  0  6  5  5  3  1  4  0  3
  4  2  3  2  1  3  4  8  7  0 13  6  5 11 10  1  5  7  2  3  8  2 17 14
  4 16  0  3  3 10  1 14 17  4 13 16  1 23 15  1 22 23  5  1 21  0 16  2
  2 15  1  9 15 14  5]"
19500,342,1.0,8,2,1889.5832197666168,98.4355902671814,0,2496000,16302503,126854058,"[ 4  3  0  0  3  1  0  0  2  2  0  3  2  2  1  0  6  5  3  3  2  0  8  0
  0  6  4  2  1  3  4  8  7  0 13  6  0  9 11  3  4 10  5  0 11  0 14  3
  1 16 10  3 11 15  0 14  0  4 15  2  2 17  0  4  1 19  5 15 18  4  0 19
  0  3 21  9 15 14  5]"
19600,342,1.0,8,2,1899.295906305313,97.12683916091919,0,2508800,16385867,127511539,"[ 3  3  1  0  3  1  0  0  2  2  0  3  2  2  1  0  6  5  1  3  3  3  7  7
  5  6  6  2  1  3  4  8  7  0 13  6  0  4 10  3 10 13  3  6  9  0 15  9
  5 10  9  0 15 11  0 17 16  1 16  2  5 23  1  4  2 20  4 23 17  3 18 16
  0 23  3  9 15 14  5]"
19700,342,1.0,8,2,1908.9241292476654,96.28220319747925,0,2521600,16468885,128166260,"[ 2  1  1  0  3  1  0  0  2  2  0  3  2  2  1  0  6  5  4  4  0  1  8  4
  1  3  1  2  1  3  4  8  7  0 13  6  2  5 10  0 11  5  3  4 13  1  0 15
  2  2 18  0  0 18  0  3 16  3 18 18  1 23 23  3 20 23  1 20 14  3 23 17
  4 23  3  9 15 14  5]"
19800,342,1.0,8,2,1918.7301502227783,98.06017875671387,0,2534400,16553335,128832829,"[ 1  0  2  0  3  1  0  0  2  2  0  3  2  2  1  0  6  5  3  2  8  2  4  5
  5  5  6  2  1  3  4  8  7  0 13  6  4  3  3  2  2  2  1 12  8  0 18 15
  4 14 18  0 18 11  0  2 15  2 13 18  2  3 21  1 22 16  0 22 20  4  1  1
  4 18 20  9 15 14  5]"
19900,342,1.0,8,2,1928.2776637077332,95.47510862350464,0,2547200,16634661,129474359,"[ 3  2  3  0  3  1  0  0  2  2  0  3  2  2  1  0  6  5  3  7  7  4  3  7
  1  0  3  2  1  3  4  8  7  0 13  6  3 11 12  5 10  0  4  0 12  0 10  9
  4 12 18  5 13 18  2 13 18  0 17 13  1 17 16  0 23 19  3 15  0  0  0 15
  4  3 20  9 15 14  5]"
20000,342,1.0,8,2,1938.024979352951,97.47313261032104,0,2560000,16717624,130128370,"[ 1  3  3  0  3  1  0  0  2  2  0  3  2  2  1  0  6  5  3  3  8  4  4  5
  1  4  5  2  1  3  4  8  7  0 13  6  5  8  2  3  3  6  3  8  9  0  1  2
  3 10 17  3 16 18  5  3  1  1  2 10  3 15 23  3 15 14  1 16 17  2 15 19
  3 23  1  9 15 14  5]"
