generation,fitness,functionality,active_nodes,longest_path,time,gen_time,nc_gens,fitness_evals,graph_evals,node_evals,genotype
0,193.0,0.53125,5,2,0.006067752838134766,6.064176559448242,0,0,0,0,"[ 4  3  3  2  3  1  3  1  0  2  3  0  5  3  3  5  7  7  4  1  3  4  6  4
  3  7  4  5  2  1  0 13 10  1 11  5  3  1  2  5  8 10  1  9  8  2 11 11
  1 16 10  2 16  0  5 13 15  4 17 13  3 16  2  4 14  0  5 16 16  1 20 15
  2  1 21 17  2 17 21]"
100,309.0,0.90625,8,3,2.2395880222320557,22.3351788520813,5,1600,19536,159877,"[ 3  3  3  5  1  0  3  0  2  2  2  1  5  1  1  4  5  0  4  1  3  0  3  2
  5  7  5  2  8  7  0  2 10  3  2  9  1  2 12  3  7  2  1  7  8  1 11  1
  4  9 16  3 10  9  0  0 14  0 17  3  2 18 17  3  1  1  5 15 22  5  1 16
  0  0 16 17 22 22 21]"
200,316.0,0.921875,6,3,4.319391250610352,20.79801082611084,12,3200,38260,295618,"[ 5  2  2  0  2  1  1  2  1  2  3  0  5  2  1  2  2  0  2  1  3  0  4  3
  5  3  2  5  3  0  5  2 10  2  9  9  2 13  6  3  9 10  4  7 10  5  3  2
  0  0 10  3 10 10  0  0 14  2 17 14  0 14 18  4 22 14  0  2  3  2 21 16
  0 14 20 17 22 22 21]"
300,320.0,0.9375,7,3,6.402721881866455,20.833282470703125,26,4800,57053,441286,"[ 4  3  0  2  2  1  5  0  1  0  3  0  3  0  1  2  2  0  2  1  3  3  0  2
  0  2  1  2  8  1  0  0  1  0 12  9  0 13 11  3  9 10  2 10  4  2 12  2
  0  0 10  2 10 10  1 18  1  2 15 10  5 19  0  2 15 17  4 23  3  4 23 21
  0  2 20 17 28  7 21]"
400,320.0,0.9375,7,3,8.424312353134155,20.215880870819092,36,6400,75945,579460,"[ 1  2  3  0  1  3  2  0  0  0  3  0  2  0  0  2  2  0  2  1  3  5  0  1
  4  6  4  3  6  6  4  1  7  3 10  9  4  8  5  3  9  6  0 12  5  0 13  2
  0  0 10  2 10 10  2 16 12  3 13 18  5 20 17  1  2 20  5 21 14  1 16  3
  0  2 20 15 28  7 21]"
500,320.0,0.9375,7,3,10.43521761894226,20.109031200408936,49,8000,94601,718276,"[ 2  3  3  4  1  3  1  0  3  0  3  0  3  1  1  2  2  0  2  1  3  4  3  8
  1  4  3  0  1  7  0  0 11  3 10  9  4  9  7  3 12 11  1 12 13  5  3 13
  0  0 10  3 10 10  1  0 14  1 16  2  5 23 18  2 18 17  0  0 20  4 16  1
  0  2 20 15 28  7 21]"
600,320.0,0.9375,7,3,12.455667495727539,20.204474925994873,58,9600,113636,857119,"[ 5  3  1  3  1  0  1  0  0  0  3  0  0  1  3  2  2  0  2  1  3  0  8  1
  3  5  2  2  0  7  4 12 10  3 10  9  5  5 13  1  9  7  0 10  1  4  1  1
  0  0 10  2 10 10  4 14 11  3 15 16  1 21 23  0 14 18  4 21 17  2 19  0
  0  2 20 15 28  7 21]"
700,324.0,0.953125,8,3,14.448062181472778,19.923925399780273,67,11200,130401,993505,"[ 3  1  1  1  1  2  4  0  1  4  1  2  3  1  2  2  2  0  2  1  3  2  1  4
  2  6  1  2  0  3  3  1  2  3 10  6  1  2 13  4 10  3  0  2  1  0  1 11
  0  0 10  2 10 10  2 10  3  3 12 11  0  0 15  4 15 18  5 16 19  0 21 18
  0  2 20 15 28 25 21]"
800,324.0,0.953125,8,3,16.470398902893066,20.22334337234497,75,12800,146844,1131235,"[ 2  0  3  4  0  1  1  3  3  4  2  3  0  0  0  4  1  0  2  1  3  2  1  5
  4  4  7  2  7  7  2  1  2  3 10  4  3  2  5  4 11  7  0  2  1  0  9 13
  0  0 10  2 10 10  1  1 15  4 13 18  4 23 20  4 15 18  0 15 20  2 17 14
  0  2 20 15 28 25 21]"
900,333.0,0.984375,9,3,18.337666511535645,18.672654628753662,82,14400,162319,1262242,"[ 5  1  3  5  3  2  1  2  1  5  1  3  0  1  3  4  7  2  2  1  3  5  0  2
  3  6  6  2  0  3  2 12 12  2 13 13  0  5  6  3  1  4  0  2  1  1 16  0
  0  0 10  4  2 10  5 14  9  2 14  0  3 22 23  4 15 18  4 20 20  0 14 17
  0  2 20 26 28 25  8]"
1000,333.0,0.984375,9,3,20.03219223022461,16.94523572921753,93,16000,175040,1379059,"[ 0  0  3  1  1  3  1  3  1  0  3  1  4  1  3  5  1  3  2  1  3  0  3  4
  3  4  1  2  0  3  2  9  7  3 13 13  5  1  3  4  7 10  0  2  1  4 13 16
  0  0 10  5 11  2  4 18  1  4 14 12  4 20  0  4 15 18  4 20 20  3 18  0
  0  2 20 24 28 25  7]"
1100,333.0,0.984375,9,3,21.718777179718018,16.865825653076172,98,17600,187947,1495775,"[ 0  3  0  4  2  2  1  2  3  0  3  1  5  1  1  0  2  6  2  1  3  1  7  1
  3  4  6  2  0  3  5  1  9  3 13  5  5  1 12  0  4  9  0  2  1  2 18 13
  0  0 10  4 13 10  3  1  2  2 17 15  5  2  1  4 15 18  3 21 22  4  3 18
  0  2 20  5 28 25  7]"
1200,333.0,0.984375,9,3,23.426185846328735,17.074055671691895,110,19200,201041,1614106,"[ 4  0  2  4  2  2  5  3  2  0  3  1  2  2  0  0  1  2  2  1  3  4  6  4
  0  0  8  2  0  3  1 10 11  3 13 13  2  7  5  1  4  1  0  2  1  5 11 16
  0  0 10  4 14 16  3  1 18  3 14 17  4  1 19  4 15 18  5 15 17  5 22 22
  0  2 20  5 28 25  7]"
1300,333.0,0.984375,9,3,25.157854080200195,17.31665849685669,122,20800,214232,1733494,"[ 5  1  2  4  2  2  0  2  3  0  3  1  5  0  3  3  4  3  2  1  3  5  3  6
  0  3  3  2  0  3  0  8 11  5  5 13  5  7  0  1  7  1  0  2  1  1  3 11
  0  0 10  2 11 16  3 10 18  2 16  0  4 16 15  4 15 18  5 21 16  4 18 22
  0  2 20  5 28 25  7]"
1400,333.0,0.984375,9,3,26.88758111000061,17.29724645614624,128,22400,227457,1853192,"[ 4  2  2  4  2  2  1  0  3  0  3  1  1  1  3  3  6  0  2  1  3  0  1  5
  5  2  3  2  0  3  5  2  1  5  5 13  0  8  2  1  3 13  0  2  1  2 14 11
  0  0 10  4  1 18  4 18 17  2 15 16  4 18  2  4 15 18  4 17 18  2  3  1
  0  2 20  5 28 25  7]"
1500,333.0,0.984375,9,3,28.569565296173096,16.819818019866943,134,24000,240418,1970259,"[ 2  1  1  4  2  2  4  2  3  0  3  1  5  3  3  2  7  1  2  1  3  0  4  1
  5  2  3  2  0  3  1  8  3  5  5 13  2  6 12  2 13 10  0  2  1  4 14 12
  0  0 10  0 11  0  1  0  2  4  3  1  5 19  2  4 15 18  4 22  1  0  3 23
  0  2 20  5 28 25  7]"
1600,333.0,0.984375,9,3,30.205041885375977,16.35474443435669,143,25600,252994,2083325,"[ 1  2  2  4  2  2  2  0  1  0  3  1  3  0  0  5  5  1  2  1  3  0  6  5
  0  6  5  2  0  3  0  5  4  5  5 13  1  7  4  2 10  5  0  2  1  1  2 10
  0  0 10  0 11  3  4  3  3  2 13  0  1 19 19  4 15 18  4  2 16  1 23  1
  0  2 20  5 28 25  7]"
1700,333.0,0.984375,9,3,31.877744436264038,16.726999282836914,151,27200,265754,2197815,"[ 0  3  0  4  2  2  3  1  1  0  3  1  5  2  3  0  7  6  2  1  3  0  6  2
  1  3  3  2  0  3  3  9  2  5  5 13  3  3  1  2  9  4  0  2  1  3 13 11
  0  0 10  3  1  3  5 11 18  0  3 11  1 23 17  4 15 18  5 15 16  1 19 23
  0  2 20  5 28 25  7]"
1800,333.0,0.984375,9,3,33.562501192092896,16.847543716430664,159,28800,278607,2314357,"[ 3  2  3  4  2  2  5  1  2  0  3  1  2  1  3  3  5  0  2  1  3  2  2  5
  5  4  3  2  0  3  3  6  8  2 13 13  0 13  9  3  6  2  0  2  1  4 14 18
  0  0 10  3  1 18  0  3 18  5 15  9  2  2 14  4 15 18  4 20 17  1  0  1
  0  2 20  5 28 25  7]"
1900,333.0,0.984375,9,3,35.33583688735962,17.733333110809326,172,30400,291364,2429001,"[ 0  0  2  4  2  2  1  1  3  5  3  1  0  1  3  1  2  3  2  1  3  4  2  3
  0  0  2  2  0  3  2 11  1  5 13  5  5 10  1  5  3  2  0  2  1  2  2 16
  0  0 10  3 17 16  3  3 15  5  1 12  1 20  0  4 15 18  3  0 16  0  3  1
  0  2 20  5 28 25  8]"
2000,334.0,0.984375,8,3,37.03731727600098,17.014780044555664,190,32000,304506,2546256,"[ 0  1  2  4  2  2  4  1  3  3  2  3  0  1  3  1  7  8  2  1  3  4  5  0
  1  0  7  2  1  8  0  3  0  3 13  5  4  1  1  2  8 11  0  2  1  3 16  1
  0  0 10  4 17 17  4 17 13  5 18  3  0 18 16  4 14 18  2  3  3  0  2  1
  0  2 20  5 28 25  8]"
2100,334.0,0.984375,8,3,38.65959286689758,16.222732067108154,206,33600,317631,2652607,"[ 5  0  1  4  2  2  1  0  3  5  1  2  0  1  3  0  1  6  2  1  3  5  7  4
  2  6  2  1  2  8  0  3  0  3  9  7  3  9  1  2  8  7  0  2  1  2 15 18
  0  0 10  5 17  9  1  9  0  0 13 12  2 14  2  4 14 18  2  3  2  3  0  0
  0  2 20  5 28 25  8]"
2200,334.0,0.984375,8,3,40.25534796714783,15.957531929016115,223,35200,330777,2759503,"[ 3  2  0  4  2  2  3  3  2  1  1  3  0  1  3  2  6  8  2  1  3  3  6  3
  5  8  2  1  7  4  0  3  0  2 11  2  0  0  2  3 11  7  0  2  1  0 10  0
  0  0 10  5 17 15  4 18 11  0 14 17  0 14  3  4 14 18  0 19  3  3  2 15
  0  2 20  5 28 25  8]"
2300,334.0,0.984375,8,3,41.81907773017883,15.637271404266357,231,36800,343645,2864078,"[ 1  3  3  1  1  2  4  3  3  5  1  0  0  1  3  5  4  0  2  1  3  3  5  1
  5  2  7  3  3  8  0  3  0  3  9  5  5  8  1  2  8  4  0  2  1  5  1 13
  0  0 10  5 11 13  5 17 17  3 10  3  2 18 15  4 14 18  2 23 17  1 17  2
  0  2 20  6 28 25  8]"
2400,334.0,0.984375,8,3,43.50478768348694,16.857075691223145,246,38400,355923,2964681,"[ 1  0  3  3  2  3  3  2  1  3  0  0  0  1  3  0  5  2  2  1  3  0  5  3
  2  5  1  3  3  1  0  3  0  0  3  1  4  8  1  2  9  5  0  2  1  1 15 13
  0  0 10  2  3  0  2 17  9  3 10  3  3 20 14  4 14 18  1 19  0  3 20  2
  0  2 20 23 28 25  8]"
2461,339,1.0,10,3,44.460081815719604,15.660524368286133,257,39376,363436,3027093,"[ 5  0  1  0  1  0  2  2  2  2  0  2  3  1  3  0  7  3  2  1  3  0  5  5
  2  2  3  3  6  5  0  3  0  0  3  1  5  1  1  4  4  3  0  2  1  1  2 16
  0  0 10  4  3  2  4 13 11  3 10  9  5 20 20  4 14 18  0 19 20  2 17  0
  0  2 20 23 28 25 15]"
2500,339,1.0,10,3,45.0250198841095,14.485536477504631,267,40000,367325,3064947,"[ 0  0  0  3  1  2  1  2  2  2  0  2  4  1  1  5  7  3  2  1  3  4  8  3
  2  3  3  4  8  1  0  3  0  0  3  1  5 12  1  1 10 11  0  2  1  3 16 16
  0  0 10  4  9 10  4 13 14  3 10  9  5  0  1  4 14 18  0 19 15  2 15 22
  0  2 20 23 28 25 15]"
2600,339,1.0,10,3,46.49941158294678,14.743890762329102,277,41600,377132,3160846,"[ 3  2  2  4  2  2  3  2  2  2  0  2  2  2  0  5  3  7  2  1  3  3  7  0
  4  2  4  1  7  1  0  3  0  0  3  1  3  9  1  3 11 10  0  2  1  2 14  3
  0 15  9  0 10  0  5 15 17  3 10  9  4  1 21  4 14 18  4 23 23  2  0  1
  0  2 21 23 28 25 15]"
2700,339,1.0,10,3,48.00133967399597,15.019254684448242,288,43200,386763,3255255,"[ 3  0  3  1  1  3  0  1  2  2  0  2  0  3  0  0  3  7  2  1  3  5  7  0
  4  7  6  1  1  5  0  3  0  0  3  1  0 13  4  3  9  5  0  2  1  3  3  3
  1 17  3  0 10  0  0  2  3  3 10  9  5 22 21  4 14 18  2 16 15  1 15  2
  0  2 21 23 28 25 15]"
2800,339,1.0,10,3,49.46066689491272,14.59324598312378,299,44800,396691,3353065,"[ 2  1  2  2  1  2  2  0  0  2  0  2  4  1  3  5  3  7  2  1  3  1  7  7
  0  1  8  4  1  2  0  3  0  0  3  1  4  1 10  3  0  8  0  2  1  2 13  3
  5 10 13  0 10  0  0  9  3  3 10 11  1  0 14  4 14 18  2  0 15  5 23 14
  0  2 21 23 28 25 15]"
2900,339,1.0,10,3,50.90823745727539,14.475681781768799,313,46400,406426,3448555,"[ 0  3  0  3  2  2  3  0  0  2  0  2  1  0  3  0  0  0  2  1  3  0  7  7
  2  6  7  1  7  8  0  3  0  0  3  1  3  0  7  3  0  4  0  2  1  5 11 13
  3  9 15  0 10  0  5  9 18  3 10 11  2 17  2  4 14 18  5 23 15  0 22 15
  0  2 21 23 28 25 15]"
3000,339,1.0,10,3,52.32981324195862,14.215736389160156,330,48000,416091,3543430,"[ 0  1  2  4  1  1  1  0  2  2  0  2  1  2  1  1  7  7  2  1  3  5  7  1
  1  4  6  4  4  0  0  3  0  0  3  1  0  1  0  5  4  5  0  2  1  3  9 10
  3  0 17  0 10  0  3  9  0  3 10 11  4  1 23  4 14 18  4 17 17  3 22 14
  0  2 21 23 28 25 15]"
3100,339,1.0,10,3,53.771674156188965,14.418585300445557,338,49600,425859,3639335,"[ 4  2  0  2  1  0  1  3  0  2  0  2  4  2  2  5  3  7  2  1  3  3  1  1
  4  3  6  4  4  4  0  3  0  0  3  1  1  4  9  0 11 13  0  2  1  0 14 11
  1 15  1  0 10  0  3 11 18  3 10  9  3 15 14  4 14 18  2 17  3  0  1 15
  0  2 21 23 28 25 15]"
3200,339,1.0,10,3,55.30563020706177,15.339539051055908,354,51200,435388,3732573,"[ 5  2  2  4  0  3  2  0  0  2  0  2  2  0  1  0  3  7  2  1  3  1  1  8
  4  1  2  4  0  4  0  3  0  0  3  1  3 10  7  1  1 13  0  2  1  3 12 17
  0 18 14  0 10  0  1 12 16  3 10  9  1  2 23  4 14 18  5  1 16  4 14 19
  0  2 21 23 28 25 15]"
3300,339,1.0,10,3,56.71862173080444,14.129891395568848,365,52800,444772,3824714,"[ 1  0  0  2  0  3  0  2  3  2  0  2  2  2  1  5  1  7  2  1  3  5  0  1
  2  3  1  2  0  5  0  3  0  0  3  1  5  6  9  4  1  8  0  2  1  4  9 10
  2 17 11  0 10  0  5  3  2  3 10  9  1  2 15  4 14 18  3 23  2  4  0 15
  0  2 21 23 28 25 15]"
3400,339,1.0,10,3,58.17515778541565,14.56533432006836,375,54400,454318,3918020,"[ 2  0  2  3  2  3  0  3  1  0  3  0  2  1  2  5  3  4  2  1  3  1  5  5
  2  3  3  4  0  6  0  3  0  0  3  1  1 10  4  0  2  2  0  2  1  5 17  9
  2 18 17  0 10  0  0 12  3  3 10  9  5 17  0  4 14 18  0 23  3  1 21  1
  0  2 21 23 28 25 15]"
3500,339,1.0,10,3,59.588064670562744,14.129045009613037,388,56000,463532,4008464,"[ 2  0  2  2  0  2  1  3  2  0  0  3  3  1  0  5  4  1  2  1  3  3  4  5
  2  6  6  4  5  4  0  3  0  0  3  1  5  9  4  5  9  5  0  2  1  0  1 15
  5 10 11  0 10  0  5  1  0  3 10  9  0  0 22  4 14 18  1  0  1  1  2  3
  0  2 21 23 28 25 15]"
3600,339,1.0,10,3,61.01945638656616,14.31389331817627,398,57600,473110,4102546,"[ 1  0  0  2  2  0  0  2  0  4  0  1  1  3  1  0  5  5  2  1  3  5  6  5
  1  1  2  3  4  6  0  3  0  0  3  1  3  3  9  0  3  6  0  2  1  2 10 10
  1  1 18  0 10  0  5  2 17  3 10  9  1 16 22  4 14 18  3 16  2  5  1 20
  0  2 21 23 28 25 15]"
3700,340,1.0,9,3,62.346004247665405,13.26545238494873,416,59200,482199,4186523,"[ 4  0  0  2  0  2  0  2  0  2  1  1  2  0  2  3  1  8  2  1  3  4  2  1
  2  6  6  2  0  2  0  3  0  0  3  1  5  1 11  3  3 10  0  2  1  2 18 15
  2 18 18  0 10  0  1  2 12  3 10 13  1  2 23  4 14 18  5 21 20  2  0  3
  0  2 21 23 28 25 15]"
3800,340,1.0,9,3,63.643651247024536,12.976446151733398,442,60800,491231,4266175,"[ 3  2  0  3  3  3  0  2  1  0  1  1  4  2  3  1  7  5  2  1  3  5  4  2
  0  0  0  2  0  2  0  3  0  0  3  1  5  1 11  1  3  7  0  2  1  0 10 17
  1 13 15  0 10  0  2 16 12  3 10 13  1 23 22  4 14 18  0 16 20  1 22 16
  0  2 21 23 28 25 15]"
3900,340,1.0,9,3,64.8876576423645,12.440042495727539,465,62400,499756,4341832,"[ 0  2  1  3  3  0  0  3  1  2  0  3  2  0  3  0  7  8  2  1  3  1  4  0
  4  8  5  2  0  2  0  3  0  0  3  1  4  4 13  3 10  2  0  2  1  1 18  3
  2  9  9  0 10  0  5 11  1  3 10 13  4  0 22  4 14 18  2 16 23  0 19  0
  0  2 21 23 28 25 15]"
4000,340,1.0,9,3,66.15233397483826,12.64674186706543,482,64000,508530,4419793,"[ 2  1  1  1  1  3  4  2  1  0  1  1  2  0  0  5  5  8  2  1  3  4  4  0
  0  1  5  2  0  2  0  3  0  0  3  1  4  8 11  5 11  0  0  2  1  4 17  9
  4 11  3  0 10  0  1 15 12  3 10 13  3 18 20  4 14 18  0  0 23  3 15  1
  0  2 21 23 28 25 15]"
4100,340,1.0,9,3,67.42269897460938,12.703626155853271,498,65600,517478,4499052,"[ 5  3  3  1  3  3  0  0  2  0  1  2  2  3  2  4  0  0  2  1  3  5  4  0
  2  4  5  2  0  2  0  3  0  0  3  1  4  7 13  2  9  0  0  2  1  5 11 13
  3 17 10  0 10  0  0  0 17  3 10 13  4 19 14  4 14 18  0 16  2  0 14 17
  0  2 21 23 28 25 15]"
4200,340,1.0,9,3,68.68147993087769,12.587788105010986,518,67200,526330,4577438,"[ 0  0  0  1  1  3  4  0  2  5  0  3  3  0  0  1  7  5  2  1  3  0  8  0
  2  4  1  2  0  2  0  3  0  0  3  1  1  2 13  2 12  9  0  2  1  0 10 10
  4 15  0  0 10  0  4  3 11  3 10 13  1  0  3  4 14 18  5 19  0  2 19  2
  0  2 21 23 28 25 15]"
4300,340,1.0,9,3,70.09508633613586,14.136040210723877,530,68800,535297,4657126,"[ 3  0  3  2  0  3  0  2  1  4  1  1  0  2  1  3  2  7  2  1  3  4  0  2
  0  2  8  2  0  2  0  3  0  0  3  1  1  7  1  0 12  9  0  2  1  5  9  3
  4 12 14  0 10  0  0 17 12  3 10 13  4 19 15  4 14 18  3 18 18  2 21  0
  0  2 21 23 28 25 15]"
4400,340,1.0,9,3,71.36077833175659,12.656896114349365,547,70400,544300,4736780,"[ 5  3  1  4  2  0  2  0  3  4  3  3  5  1  1  1  2  7  2  1  3  4  0  4
  0  7  4  2  0  2  0  3  0  0  3  1  5  2  9  0  0  4  0  2  1  0 10  3
  4  1 13  0 10  0  3  3 15  3 10 13  2 15  2  4 14 18  5 14  1  0 22 18
  0  2 21 23 28 25 15]"
4500,340,1.0,9,3,72.66811633110046,13.07335376739502,569,72000,553611,4819263,"[ 4  2  3  2  2  0  5  1  3  1  0  3  1  1  3  0  6  1  2  1  3  4  7  4
  0  6  6  2  0  2  0  3  0  0  3  1  0  4  4  0 13  1  0  2  1  4 10 18
  1  9  9  0 10  0  3  3 15  3 10 13  1 21 20  4 14 18  5 20 19  2  3  2
  0  2 21 23 28 25 15]"
4600,340,1.0,9,3,73.94634485244751,12.782258987426758,585,73600,562573,4898861,"[ 1  1  2  4  3  1  0  0  1  2  1  2  3  2  0  4  8  6  2  1  3  0  7  1
  4  1  3  2  0  2  0  3  0  0  3  1  5 11 13  1 13  9  0  2  1  0 12 18
  1 11  1  0 10  0  3 17  1  3 10 13  4 20 22  4 14 18  0  1 17  1 17  3
  0  2 21 23 28 25 15]"
4700,340,1.0,9,3,75.23474192619324,12.883946895599365,600,75200,571708,4979981,"[ 1  2  2  2  2  2  4  0  1  2  2  0  3  3  2  5  1  5  2  1  3  4  0  7
  2  8  1  2  0  2  0  3  0  0  3  1  4  6  5  4  9  3  0  2  1  4  2 14
  3  9 17  0 10  0  3  1 12  3 10 13  5 19 19  4 14 18  2  3 17  0 17 15
  0  2 21 23 28 25 15]"
4800,340,1.0,9,3,76.49101948738098,12.562754154205322,621,76800,580589,5058533,"[ 2  1  2  2  1  2  3  2  1  3  1  2  3  1  0  3  5  0  2  1  3  5  0  0
  2  7  3  2  0  2  0  3  0  0  3  1  4  5  0  0 12 12  0  2  1  0 10 11
  5 15  1  0 10  0  5 17 12  3 10 13  1 14  2  4 14 18  2 21 18  1  3 19
  0  2 21 23 28 25 15]"
4900,340,1.0,9,3,77.78674101829529,12.957189083099365,639,78400,589680,5139210,"[ 0  3  1  5  0  3  5  2  0  3  2  0  4  0  1  0  8  3  2  1  3  4  6  4
  1  2  6  2  0  2  0  3  0  0  3  1  4  3  4  5  0  0  0  2  1  0  9  3
  5 14 12  0 10  0  3 18  0  3 10 13  3 19 22  4 14 18  2 18 15  0  3  2
  0  2 21 23 28 25 15]"
5000,340,1.0,9,3,79.0596535205841,12.729103565216064,657,80000,598721,5218960,"[ 2  3  2  0  2  1  5  2  1  3  2  1  4  0  0  3  4  5  2  1  3  4  6  5
  4  7  6  2  0  2  0  3  0  0  3  1  4 13  4  0 10  2  0  2  1  1 12  1
  4 10  1  0 10  0  3 16 16  3 10 13  2 20 22  4 14 18  4 15 15  1  3 14
  0  2 21 23 28 25 15]"
5100,340,1.0,9,3,80.29827380180359,12.386183738708496,676,81600,607388,5295846,"[ 2  1  0  5  2  3  3  2  1  4  0  2  2  0  1  3  4  4  2  1  3  2  6  0
  2  7  4  2  0  2  0  3  0  0  3  1  0 13  2  2  0 13  0  2  1  1  1 14
  1 10 15  0 10  0  3  9 15  3 10 13  5 20 16  4 14 18  2 21  1  3  2 20
  0  2 21 23 28 25 15]"
5200,340,1.0,9,3,81.61331796646118,13.150413036346436,692,83200,616297,5374674,"[ 5  2  2  2  0  3  1  2  3  1  0  2  4  3  3  2  1  5  2  1  3  3  4  4
  3  5  8  2  0  2  0  3  0  0  3  1  4  0  9  0  8  9  0  2  1  2  3 15
  3 17 14  0 10  0  0 16  2  3 10 13  1 14 22  4 14 18  2 17 21  0  1 21
  0  2 21 23 28 25 15]"
5300,340,1.0,9,3,82.87452578544617,12.612054347991943,711,84800,625210,5453639,"[ 2  3  2  1  2  2  2  1  3  1  2  0  5  1  3  4  0  2  2  1  3  4  4  2
  5  1  8  2  0  2  0  3  0  0  3  1  4  3  6  4 12  9  0  2  1  0 11  1
  4 17 15  0 10  0  0 13 16  3 10 13  0 20 14  4 14 18  4 23  2  0 17 14
  0  2 21 23 28 25 15]"
5400,340,1.0,9,3,84.18812370300293,13.135955333709717,723,86400,634611,5537070,"[ 1  3  3  2  2  2  4  3  0  2  2  1  0  1  3  5  0  0  2  1  3  4  4  0
  4  4  2  2  0  2  0  3  0  0  0  1  2 13  6  5 12  9  0  2  1  1  3 13
  3 18 11  0 10  0  1  3 15  3 10 13  5 18 15  4 14 18  4 23 15  1  0 15
  0  2 21 23 28 25  8]"
5500,340,1.0,9,3,85.53834629058838,13.502199649810791,740,88000,643499,5616074,"[ 2  0  2  2  2  3  0  3  0  4  0  3  0  1  3  3  6  3  2  1  3  3  7  7
  2  8  5  2  0  2  0  3  0  4 11  6  3  3  7  5  6  3  0  2  1  3 17  9
  2 17 17  0 10  0  0 17  3  3 10 13  1 19  2  4 14 18  4 19  2  0  1 17
  0  2 21 23 28 25  8]"
5600,340,1.0,9,3,86.86012554168701,13.217768669128418,752,89600,652987,5699951,"[ 3  0  0  5  1  0  3  0  1  1  3  1  0  1  3  2  0  1  2  1  3  1  3  1
  5  6  4  2  0  2  0  3  0  0  7 11  3 13  9  5 10  2  0  2  1  3  1 17
  3 15 15  0 10  0  3 14  1  3 10 13  1 21  2  4 14 18  0 23  1  3 19 23
  0  2 21 23 28 25  8]"
5700,340,1.0,9,3,88.17152810096741,13.114004135131836,763,91200,662267,5782543,"[ 4  0  3  3  1  2  4  2  0  1  3  1  0  1  3  0  2  8  2  1  3  4  4  0
  2  2  1  2  0  2  0  3  0  4  9  4  2  4  1  0 11  5  0  2  1  5 17 17
  3 14 14  0 10  0  4 17  1  3 10 13  1 17  1  4 14 18  5  3 14  3  3 22
  0  2 21 23 28 25  8]"
5800,340,1.0,9,3,89.5405125617981,13.689818382263184,781,92800,671471,5864179,"[ 3  1  1  1  3  1  2  0  3  1  0  0  0  1  3  0  0  4  2  1  3  5  5  4
  2  2  0  2  0  2  0  3  0  2 11 11  2  6  8  1 13  2  0  2  1  5  3 16
  3 16  9  0 10  0  5 10  2  3 10 13  1 19 23  4 14 18  1 14 19  2 17 22
  0  2 21 23 28 25  8]"
5900,340,1.0,9,3,90.85778903961182,13.172738552093506,795,94400,680981,5948488,"[ 0  1  1  1  0  1  3  3  2  1  0  1  0  1  3  3  8  4  2  1  3  2  3  1
  2  2  0  4  1  2  0  3  0  1 13  7  2  0 13  0  8  2  0  2  1  5 12  2
  2 12 15  0 10  0  2 10  0  3 10 12  1 23 18  4 14 18  1 18 19  5  3 16
  0  2 21 23 28 25  8]"
6000,340,1.0,9,3,92.1895387172699,13.317475318908691,806,96000,690550,6033084,"[ 1  1  0  2  3  3  3  0  2  4  1  1  0  1  3  0  1  7  2  1  3  5  1  8
  2  2  0  2  8  0  0  3  0  2  9  7  1  5 10  0  9  1  0  2  1  0 10 10
  5 16 15  0 10  0  2  2 14  3 10 12  3 14 17  4 14 18  1  2 17  5  3 18
  0  2 21 23 28 25  8]"
6100,340,1.0,9,3,93.60207772254944,14.125368595123291,820,97600,700118,6117933,"[ 2  1  2  4  1  3  2  2  2  0  3  2  0  1  3  0  0  0  2  1  3  2  2  6
  2  2  0  5  2  7  0  3  0  2  1  6  0 11 10  5  0  2  0  2  1  4 17 14
  0  2  0  0 10  0  5  9  2  3 10 12  0 14 16  4 14 18  1 18 23  0 19  1
  0  2 21 23 28 25  8]"
6200,340,1.0,9,3,94.89721941947937,12.951393127441406,834,99200,709346,6199755,"[ 2  0  2  0  3  1  4  0  2  2  3  0  0  1  3  2  6  3  2  1  3  1  3  1
  2  2  0  0  1  2  0  3  0  1 13  1  0  3 10  1  4  1  0  2  1  5 11  3
  5  0 12  0 10  0  4 12 11  3 10 12  1  2 16  4 14 18  5  3  0  2 23 21
  0  2 21 23 28 25  8]"
6300,340,1.0,9,3,96.22105145454407,13.23829174041748,846,100800,718799,6283845,"[ 2  0  2  0  3  0  1  1  1  4  2  0  0  1  3  0  7  5  2  1  3  0  2  1
  2  2  0  5  6  7  0  3  0  1 10 13  5 13  5  0  9  7  0  2  1  1  3 17
  1  9 14  0 10  0  0 11 15  3 10 12  4 22 23  4 14 18  1 15 21  3 18  3
  0  2 21 23 28 25  8]"
6400,340,1.0,9,3,97.58042573928833,13.593719005584717,862,102400,728038,6366186,"[ 5  1  2  4  2  1  0  0  1  0  0  1  0  1  3  5  8  5  2  1  3  0  8  8
  2  2  0  4  2  8  0  3  0  4 12  2  4 11  7  1  9 10  0  2  1  5 15  3
  1  3  0  0 10  0  3 12  9  3 10 12  5 23 18  4 14 18  1 14 20  3 21 16
  0  2 21 23 28 25  8]"
6500,340,1.0,9,3,98.86655807495117,12.861299514770508,880,104000,737267,6447920,"[ 3  1  2  0  2  2  4  1  3  4  1  3  0  1  3  2  5  0  2  1  3  5  6  8
  2  2  0  1  2  5  0  3  0  5 12 11  1 11  3  5  3 13  0  2  1  4 15  0
  3 15  2  0 10  0  5 13 13  3 10 12  0  2  3  4 14 18  2 22  2  0  0 17
  0  2 21 23 28 25  8]"
6600,340,1.0,9,3,100.1419620513916,12.754018306732178,899,105600,746382,6528592,"[ 1  1  3  3  0  2  3  1  2  3  2  3  0  1  3  2  4  7  2  1  3  4  2  1
  2  2  0  2  1  4  0  3  0  3  6  4  5  3  4  1  8 10  0  2  1  2  3 16
  2 15 16  0 10  0  3 11  3  3 10 12  0  0  1  4 14 18  4 18 16  2 15  0
  0  2 21 23 28 25  8]"
6700,340,1.0,9,3,101.56311106681824,14.211466312408447,914,107200,755487,6609514,"[ 0  1  3  3  0  3  2  3  1  1  2  0  0  1  3  2  6  1  2  1  3  4  8  2
  2  2  0  4  6  6  0  3  0  0 13  3  0 13 13  4  8  0  0  2  1  5 14 18
  5 10 16  0 10  0  3 17  3  3 10 12  1 18 20  4 14 18  2 18  2  0 18 21
  0  2 21 23 28 25  8]"
6800,340,1.0,9,3,102.90174698829651,13.386332988739014,930,108800,765148,6695153,"[ 0  1  3  3  3  0  5  3  0  1  2  0  0  2  3  4  6  5  2  1  3  1  3  6
  2  2  0  5  4  8  0  3  0  5  9 12  1  7  0  3  1  1  0  2  1  3 17 17
  4 18 15  0 10  0  4  3 15  3 10 12  2  1 21  4 14 18  3 19  1  3 18 20
  0  2 21 23 28 25  4]"
6900,340,1.0,9,3,104.23857808113098,13.368282318115234,951,110400,774739,6780114,"[ 0  1  3  5  3  3  4  1  0  1  3  0  0  2  1  4  7  1  2  1  3  2  2  7
  2  2  0  5  4  7  0  3  0  3  3 12  5 13  9  1  5  1  0  2  1  0  2  2
  1  3 18  0 10  0  2  3 10  3 10 12  2  3  2  4 14 18  5  0  1  1  2 21
  0  2 21 23 28 25  4]"
7000,340,1.0,9,3,105.66170048713684,14.231197834014893,960,112000,784422,6866017,"[ 0  1  3  0  0  0  2  1  0  2  2  0  3  0  3  0  8  6  2  1  3  2  2  3
  2  2  0  1  5  5  0  3  0  2  1  6  5 13  6  2  7  9  0  2  1  5 17 16
  4 12 18  0 10  0  2 16 18  3 10 12  0 14 23  4 14 18  3  1  1  4 22 22
  0  2 21 23 28 25  4]"
7100,340,1.0,9,3,106.97827172279358,13.165690898895264,975,113600,793757,6949031,"[ 0  1  3  0  0  2  5  0  2  3  1  2  2  3  1  2  3  6  2  1  3  2  7  2
  2  2  0  2  2  4  0  3  0  2 12 13  5 10  8  0  8  1  0  2  1  0  3  0
  3  2  3  0 10  0  2  9  3  3 10 12  1 15 21  4 14 18  4  1 20  4 22 23
  0  2 21 23 28 25  4]"
7200,340,1.0,9,3,108.2882022857666,13.099279403686523,988,115200,803060,7031875,"[ 0  1  3  5  2  3  4  0  2  0  1  2  5  2  0  2  0  3  2  1  3  3  7  2
  2  2  0  0  7  4  0  3  0  0  5 13  4 11  8  5  8  7  0  2  1  2  1 11
  4 18 15  0 10  0  0  9  2  3 10 12  3 22 18  4 14 18  1 20  2  5 15 17
  0  2 21 23 28 25  4]"
7300,340,1.0,9,3,109.61831903457642,13.301141262054443,1006,116800,812655,7116954,"[ 0  2  3  0  1  3  2  3  1  1  0  0  4  1  0  4  3  3  2  1  3  3  0  8
  2  2  0  4  0  6  0  3  0  1  5 13  5  0  0  0  0  2  0  2  1  2 13  1
  1 12 16  0 10  0  5 17  2  3 10 12  5  3  3  4 14 18  3 20 20  2 20 23
  0  2 21 23 28 25  5]"
7400,340,1.0,9,3,110.93878388404846,13.204624652862549,1023,118400,822123,7200926,"[ 5  3  1  0  1  3  4  0  0  1  1  3  3  1  2  0  5  4  2  1  3  5  7  6
  2  2  0  3  6  7  0  3  0  5 12 13  3  9 12  4  2 10  0  2  1  2  1 14
  4 12 12  0 10  0  5  0 16  3 10 12  5 14 16  4 14 18  3 21 19  2 17 23
  0  2 21 23 28 25  5]"
7500,340,1.0,9,3,112.30274987220764,13.639614582061768,1044,120000,831333,7282738,"[ 0  1  1  0  1  3  5  1  2  4  1  0  4  1  3  1  7  2  2  1  3  1  1  6
  2  2  0  0  0  8  0  3  0  3 12 13  0  3 13  0  1  2  0  2  1  0 16  1
  4 18 17  0 10  0  1  3  9  3 10 12  4 23 21  4 14 18  5 14 16  2 15 20
  0  2 21 23 28 25  5]"
7600,340,1.0,9,3,113.5743088722229,12.715566158294678,1069,121600,840064,7360298,"[ 2  3  2  0  1  3  4  3  1  4  0  1  4  1  0  1  5  6  2  1  3  5  8  0
  2  2  0  5  1  7  0  3  0  1  7  7  2  3  5  0 13  1  0  2  1  4 15 12
  1 12 17  0 10  0  2 17 11  3 10 12  1 18 21  4 14 18  3  3 14  2 15  1
  0  2 21 23 28 25  5]"
7700,340,1.0,9,3,114.86490726470947,12.905962467193604,1084,123200,849194,7441551,"[ 2  1  0  0  1  3  0  2  2  2  1  0  1  1  2  1  4  8  2  1  3  2  5  4
  2  2  0  2  5  2  0  3  0  0  7  6  0  8  6  3  1  9  0  2  1  2 11 16
  4 17  2  0 10  0  0 14 12  3 10 12  1 20  0  4 14 18  3  3 17  1  2 15
  0  2 21 23 28 25  5]"
7800,340,1.0,9,3,116.26676535606384,14.01853084564209,1099,124800,858311,7522548,"[ 5  3  1  0  1  3  5  0  3  1  2  2  1  2  3  0  4  2  2  1  3  5  5  3
  2  2  0  4  4  2  0  3  0  1  8 10  0  2  6  0 11  4  0  2  1  1 10 14
  4 14 14  0 10  0  2 16 18  3 10 12  1  1 14  4 14 18  2 21  3  5 14 15
  0  2 21 23 28 25  5]"
7900,340,1.0,9,3,117.58341836929321,13.166508674621582,1120,126400,867404,7602977,"[ 5  2  1  0  1  3  1  3  0  3  3  2  1  2  1  0  8  5  2  1  3  5  5  5
  2  2  0  0  1  8  0  3  0  0  2 10  2  2  7  4  7  3  0  2  1  5 12 17
  3  1  1  0 10  0  4  9 18  3 10 12  1  3 14  4 14 18  2 14  2  1 14 15
  0  2 21 23 28 25  5]"
8000,340,1.0,9,3,118.91789102554321,13.34470510482788,1130,128000,876847,7686888,"[ 2  0  2  0  1  3  1  1  0  5  0  1  5  0  2  1  8  4  2  1  3  0  7  5
  2  2  0  0  7  1  0  3  0  5  8 12  0  2  1  0 10 11  5 10  3  4 18 13
  3  2  1  0 10  0  4  9 14  3 10 12  4 14 17  4 14 16  1 16 23  1 14 21
  0  2 21 23 28 25  5]"
8100,340,1.0,9,3,120.25304388999939,13.351502418518066,1147,129600,886180,7769662,"[ 5  0  1  0  1  3  5  1  0  2  1  2  3  0  1  1  7  3  2  1  3  2  1  6
  2  2  0  4  0  6  0  3  0  0  7  8  0  2  1  2 11 10  1  7 10  3  2 12
  1 12  9  0 10  0  4 15 16  3 10 12  4 14 18  4 14 16  1  1 20  4 19 18
  0  2 21 23 28 25  5]"
8200,340,1.0,9,3,121.54789280891418,12.948465347290039,1161,131200,895347,7850855,"[ 1  0  3  0  1  3  3  2  2  3  1  1  1  1  3  5  2  1  2  1  3  5  5  2
  2  2  0  3  8  7  0  3  0  1  2 13  0  2  1  0 11 10  2 13 13  2 14  2
  2 16  9  0 10  0  4 18 17  3 10 12  2 18 18  4 14 16  2  1 22  5 14 14
  0  2 21 23 28 25  5]"
8300,340,1.0,9,3,122.8454532623291,12.97558307647705,1175,132800,904584,7932802,"[ 1  0  1  0  1  3  0  3  2  0  1  3  2  1  0  2  8  4  2  1  3  3  1  1
  2  2  0  2  6  0  0  3  0  3 10 11  0  2  1  3  5  8  2  9  7  2 13 16
  3 10 10  0 10  0  3 15 11  3 10 12  5  0 16  4 14 16  2 15  1  5 20 17
  0  2 21 23 28 25 20]"
8400,340,1.0,9,3,124.18782639503479,13.423705101013184,1190,134400,913685,8013572,"[ 0  1  3  5  1  1  1  1  1  1  3  3  0  3  0  4  3  1  2  1  3  5  6  0
  2  2  0  1  5  2  0  3  0  3  8  6  0  2  1  0  2  5  1  7 13  3 18 15
  2 17 13  0 10  0  4 18 13  3 10 12  5  1 23  4 14 16  1 17  1  0 15  2
  0  2 21 23 28 25  4]"
8500,340,1.0,9,3,125.4952220916748,13.073933124542236,1207,136000,922910,8095430,"[ 0  1  3  3  1  2  5  2  3  2  0  2  4  2  1  4  3  6  2  1  3  5  5  6
  2  2  0  5  4  8  0  3  0  3  2  6  0  2  1  1 11  9  5 10  9  5 12 17
  5 17  3  0 10  0  0 12 17  3 10 12  5 16  1  4 14 16  3 18  1  3  1 15
  0  2 21 23 28 25  4]"
8600,340,1.0,9,3,126.80154180526733,13.063173294067383,1220,137600,932049,8177030,"[ 0  1  3  3  3  1  2  2  1  2  1  0  2  2  3  0  5  1  2  1  3  1  8  7
  2  2  0  5  0  6  0  3  0  5  4  6  0  2  1  1 11  0  4 12  2  0 12 11
  0 15 16  0 10  0  4 16 12  3 10 12  5 22 15  4 14 16  2 15  0  5  1  1
  0  2 21 23 28 25  4]"
8700,340,1.0,9,3,128.15372776985168,13.521833419799805,1238,139200,941639,8261903,"[ 0  1  3  2  2  0  5  3  0  2  1  0  0  3  1  5  1  2  2  1  3  0  1  8
  2  2  0  5  8  8  0  3  0  5 12  8  0  2  1  5  8  7  0 10 10  3 11 16
  3 13 15  0 10  0  5 18  2  3 10 12  3 15 19  4 14 16  4 19 22  0  1 21
  0  2 21 23 28 25  4]"
8800,340,1.0,9,3,129.48141813278198,13.276879787445068,1249,140800,951148,8346449,"[ 0  1  3  2  1  1  0  1  1  4  1  1  0  1  0  4  3  4  2  1  3  4  6  3
  2  2  0  3  8  6  0  3  0  0 12  6  0  2  1  1  8  7  4  9  7  0  2 13
  4 14 16  0 10  0  1 15  3  3 10 12  1 22 19  4 14 16  3  0 22  2 17 17
  0  2 21 23 28 25  4]"
8900,341,1.0,8,3,130.65572690963745,11.743063926696777,1261,142400,959779,8415740,"[ 0  1  3  4  0  1  3  1  3  4  0  1  5  1  0  1  7  4  2  1  3  2  7  0
  2  0  5  1  7  4  0  3  0  4  4 12  0  2  1  0  9  7  4 13 13  0  0  1
  0 14 16  0 10  0  4  2  9  4 16 12  5 17 14  4 14 16  1  3  0  4  0 18
  0  2 21 20 28 25  4]"
9000,341,1.0,8,3,131.84270524978638,11.869757175445557,1277,144000,968635,8485574,"[ 0  1  3  5  2  1  5  3  3  0  2  1  2  2  1  4  0  0  2  1  3  3  7  1
  0  6  5  1  8  5  0  3  0  3 13  4  0  2  1  4  3 11  5 13  1  1 16 11
  0 14 16  0 10  0  5 17 18  5 13  0  3 15 17  4 14 16  0  1 14  4 22 18
  0  2 21 20 28 25  4]"
9100,341,1.0,8,3,133.02552437782288,11.82816743850708,1296,145600,977549,8556097,"[ 0  1  3  5  0  1  1  2  1  1  0  1  0  2  2  1  8  8  2  1  3  1  7  1
  3  8  6  1  8  3  0  3  0  3  3  4  0  2  1  2 10 10  4  9  5  4 18  1
  0 14 16  0 10  0  5 17  2  2  0 13  0  1 19  4 14 16  5 23 14  4 16  2
  0  2 21 20 28 25  4]"
9200,341,1.0,8,3,134.1838173866272,11.582908630371094,1310,147200,986233,8624569,"[ 0  1  3  4  1  0  4  3  1  0  2  3  1  0  2  3  5  1  2  1  3  2  5  7
  5  6  7  1  3  7  0  3  0  0 11 10  0  2  1  1  8  7  1  4  4  1  3  0
  0 14 16  0 10  0  5  2  2  1  9 17  0 19 14  4 14 16  5 16 21  0 14 15
  0  2 21 20 28 25  4]"
9300,341,1.0,8,3,135.35619950294495,11.72379732131958,1323,148800,994922,8693294,"[ 0  1  3  4  1  2  4  2  3  5  2  3  3  3  2  0  3  0  2  1  3  1  1  5
  5  0  3  1  4  6  0  3  0  1  9  5  0  2  1  3  7  4  5  1  8  0 11 15
  0 14 16  0 10  0  5 12 10  3  3  2  4 20 23  4 14 16  3 20 21  0  2 21
  0  2 21 20 28 25  4]"
9400,341,1.0,8,3,136.52767324447632,11.71471357345581,1339,150400,1003715,8762834,"[ 0  1  3  4  1  2  3  3  1  0  2  1  2  3  3  1  0  1  2  1  3  0  4  6
  2  6  4  3  1  4  0  3  0  5  1  4  0  2  1  1  9  1  1  0 13  1 13 12
  0 14 16  0 10  0  0 16  0  4  3 13  3 18  1  4 14 16  3 20 14  5  3  3
  0  2 21 20 28 25  4]"
9500,341,1.0,8,3,137.69375944137573,11.660840511322021,1349,152000,1012350,8830728,"[ 0  1  3  5  3  2  5  0  0  5  3  2  3  1  2  3  1  2  2  1  3  0  6  5
  3  1  0  4  5  5  0  3  0  3  0  5  0  2  1  2 13  1  3  0  7  2 12  2
  0 14 16  0 10  0  4 18  1  0  1 17  5  2 18  4 14 16  3 18 18  3  1  2
  0  2 21 20 28 25  4]"
9600,341,1.0,8,3,138.85286569595337,11.591038703918457,1370,153600,1020917,8898332,"[ 0  1  3  3  3  1  3  0  0  0  1  2  5  0  3  1  3  8  2  1  3  1  2  1
  4  4  2  3  6  6  0  3  0  2  9  7  0  2  1  1  6 12  1  6  7  2  3 18
  0 14 16  0 10  0  2  1  9  4 14 17  1 21 19  4 14 16  5 23  2  5 15  3
  0  2 21 20 28 25  4]"
9700,341,1.0,8,3,140.09446620941162,12.41598129272461,1381,155200,1029837,8969053,"[ 0  1  3  2  1  2  1  3  3  0  0  2  5  1  3  2  4  6  2  1  3  5  2  3
  4  8  5  2  8  4  0  3  0  3  9  6  0  2  1  2  6 10  2 11  6  1 15 12
  0 14 16  0 10  0  2  1  0  2 15  9  0 19  3  4 14 16  3 19  0  0 16  3
  0  2 21 20 28 25  4]"
9800,341,1.0,8,3,141.2741823196411,11.797137260437012,1399,156800,1038474,9037707,"[ 0  1  3  4  3  0  2  0  3  5  0  0  0  2  3  3  0  5  2  1  3  0  7  6
  3  8  6  0  4  1  0  3  0  1  1 11  0  2  1  2  9  9  4  3  1  1  9 14
  0 14 16  0 10  0  3 12 18  2 10  1  0  2 17  4 14 16  5 20 23  1  1  3
  0  2 21 20 28 25  4]"
9900,341,1.0,8,3,142.42756533622742,11.533803939819336,1419,158400,1046884,9104343,"[ 0  1  3  5  0  2  2  1  1  5  0  0  3  2  1  3  6  1  2  1  3  2  8  7
  0  8  7  4  6  4  0  3  0  3 12  9  0  2  1  2 11  9  1  4  8  4  3 15
  0 14 16  0 10  0  3 18  3  2  3 17  4 14 19  4 14 16  1 16 14  1  1 21
  0  2 21 20 28 25  4]"
10000,341,1.0,8,3,143.62429666519165,11.967289447784424,1431,160000,1055915,9175538,"[ 0  1  3  4  1  0  2  2  0  1  3  3  0  3  3  0  0  2  2  1  3  2  0  3
  0  8  4  5  2  3  0  3  0  0  8  5  0  2  1  3  5  0  5  2  6  5  3 13
  0 14 16  0 10  0  1 10  3  3  3 10  1  0 19  4 14 16  3 20 15  0  0 17
  0  2 21 20 28 25  4]"
10100,341,1.0,8,3,144.84530568122864,12.210063934326172,1448,161600,1065249,9249329,"[ 0  1  3  4  1  3  3  1  2  0  2  2  3  1  2  0  2  1  2  1  3  1  6  3
  5  3  8  5  8  3  0  3  0  4  0 11  0  2  1  1  5  7  2  6  0  3 15 13
  0 14 16  0 10  0  5  1 11  3 17 10  0  0  0  4 14 16  4 14 23  3 15 21
  0  2 21 20 28 25  4]"
10200,341,1.0,8,3,146.0496027469635,12.042927742004395,1459,163200,1074124,9319145,"[ 0  1  3  0  0  2  2  3  2  3  2  1  2  3  2  4  0  5  2  1  3  2  3  7
  5  3  3  5  1  5  0  3  0  3  0  1  0  2  1  5  1  3  0 10  4  5 14  3
  0 14 16  0 10  0  1 11 12  3 17 12  5 23  2  4 14 16  2  3 14  2  2 16
  0  2 21 20 28 25  4]"
10300,341,1.0,8,3,147.25330781936646,12.03702449798584,1479,164800,1082774,9387347,"[ 0  1  3  5  1  3  2  3  1  1  2  0  5  2  0  2  0  4  2  1  3  0  5  7
  3  4  8  1  1  8  0  3  0  3  0  7  0  2  1  3 11 12  5  5 13  5 12 10
  0 14 16  0 10  0  2 15 12  3 10 15  0 16 20  4 14 16  0 18 17  0  2 20
  0  2 21 20 28 25  4]"
10400,341,1.0,8,3,148.40630769729614,11.529977321624756,1499,166400,1091330,9454888,"[ 0  1  3  5  1  2  4  1  1  5  3  1  0  3  0  0  0  8  2  1  3  1  8  3
  1  4  6  1  6  1  0  3  0  5  4  5  0  2  1  5  7  2  4 12  4  5 11 18
  0 14 16  0 10  0  3 13  0  1 10 18  1  3 14  4 14 16  0 23 15  2 22 20
  0  2 21 20 28 25  4]"
10500,342,1.0,8,2,149.57225513458252,11.65945053100586,1507,168000,1100107,9524408,"[ 0  1  3  5  3  0  1  1  3  2  1  0  1  0  2  1  0  1  2  1  3  3  4  1
  2  5  1  3  1  6  0  3  0  0  0  2  0  2  1  4 10  5  4 11 11  2  1 15
  0 14 16  0  3  2  2 13 15  0 10 15  1 14  3  4 14 16  0 23 22  4 19  0
  0 16 21 20 23 25  4]"
10600,342,1.0,8,2,150.70216369628906,11.29906177520752,1522,169600,1108308,9589548,"[ 0  1  3  0  3  0  2  0  3  1  0  3  5  0  1  4  8  4  2  1  3  1  7  6
  4  8  6  5  5  5  0  3  0  0  0  2  0  2  1  1  9 11  5 13 10  0 14  9
  0 14 16  2 13 14  3  0  3  0 10 15  0 17  2  4 14 16  1 17 16  3  2 19
  3 23 20 20 23 25  4]"
10700,342,1.0,8,2,151.8309097290039,11.287436485290527,1536,171200,1116568,9654922,"[ 0  1  3  5  3  0  4  1  0  0  1  1  1  0  1  1  3  4  2  1  3  4  3  2
  1  1  5  2  5  5  0  3  0  0  0  2  0  2  1  2  9 11  0  8  9  4 14 12
  0 14 16  2 13 11  0  1 15  0 10 15  0 17  1  4 14 16  1 17 16  1 18  2
  4 22 21 20 23 25  4]"
10800,342,1.0,8,2,152.97886657714844,11.479542255401611,1550,172800,1125125,9722679,"[ 0  1  3  2  0  0  3  2  3  2  2  3  1  1  1  1  8  5  2  1  3  4  3  7
  4  2  2  5  2  3  0  3  0  0  0  2  0  2  1  0  0  2  4  7  7  3 14 10
  0 14 16  1 12 18  1  9  0  0 10 15  1  1 15  4 14 16  2  2 17  2  1 14
  2 19 14 20 23 25  4]"
10900,342,1.0,8,2,154.10763788223267,11.287686824798584,1570,174400,1133438,9788151,"[ 0  1  3  0  2  2  3  0  1  1  3  0  1  2  1  1  0  1  2  1  3  1  7  5
  1  2  2  5  6  7  0  3  0  0  0  2  0  2  1  4 11  0  2  9  7  4 14 12
  0 14 16  2 12 18  1 10  0  0 10 15  1  1 14  4 14 16  4  1 14  4 17 23
  2  2 19 20 23 25  4]"
11000,342,1.0,8,2,155.22509455680847,11.174540519714355,1583,176000,1141559,9852411,"[ 0  1  3  2  0  1  5  3  0  5  3  1  2  1  3  1  4  7  2  1  3  3  1  5
  0  5  4  3  6  2  0  3  0  0  0  2  0  2  1  2 11  8  0  1  8  2 17  9
  0 14 16  1  0 13  3 14  0  0 10 15  3 20 14  4 14 16  2 23  0  0 17 19
  2 23 22 20 23 25  4]"
11100,342,1.0,8,2,156.3378894329071,11.127924919128418,1603,177600,1149587,9916287,"[ 0  1  3  5  3  0  4  1  2  3  1  3  4  0  2  4  2  4  2  1  3  3  3  8
  5  8  0  4  8  3  0  3  0  0  0  2  0  2  1  0 12  3  5 11 10  0 12 10
  0 14 16  3  1 15  3 16  3  0 10 15  5  0 20  4 14 16  2  1  0  0 17  2
  4 18 16 20 23 25  4]"
11200,342,1.0,8,2,157.51366019248962,11.757669448852539,1623,179200,1157841,9981380,"[ 0  1  3  5  2  1  4  2  1  0  3  3  5  3  0  5  6  3  2  1  3  1  3  7
  0  5  5  1  4  4  0  3  0  0  0  2  0  2  1  5 11  3  1  8 10  4 12 14
  0 14 16  0 10 15  1 12 14  5 10 15  1 20  0  4 14 16  0  1 23  0 19  3
  4 18  3 20 21 25  4]"
11300,342,1.0,8,2,158.7702808380127,12.566180229187012,1639,180800,1166345,10048489,"[ 0  1  3  5  1  1  4  3  0  5  3  2  5  0  2  3  3  8  2  1  3  2  1  0
  0  0  3  4  6  8  0  3  0  0  0  2  0  2  1  4  8  2  3 10 10  5 11 13
  0 14 16  0 10 15  0  2 10  3 16 18  1 16 19  4 14 16  5  3  0  4 18 18
  3  1 22 20 21 25  4]"
11400,342,1.0,8,2,159.92231273651123,11.520295143127441,1646,182400,1174932,10116293,"[ 0  1  3  5  3  3  3  1  0  1  0  0  0  1  2  2  4  4  2  1  3  5  7  5
  1  6  6  4  4  1  0  3  0  0  0  2  0  2  1  0  7  5  1 11  5  4  0 12
  0 14 16  0 10 15  1 11  2  5  3 18  5 15 20  4 14 16  3 23  0  5 18 16
  2  2 20 20 21 25  4]"
11500,342,1.0,8,2,161.02648043632507,11.041650772094727,1665,184000,1182933,10179709,"[ 0  1  3  5  0  1  4  3  1  2  0  1  0  0  1  4  8  6  2  1  3  2  7  7
  3  5  0  4  1  8  0  3  0  0  0  2  0  2  1  3 12 13  5 13  9  1 14 14
  0 14 16  0 10 15  3  9 11  5 10 18  4  1 15  4 14 16  3  3 21  5 23 17
  1 22 21 20 21 25  4]"
11600,342,1.0,8,2,162.17249178886414,11.460087299346924,1681,185600,1191273,10245866,"[ 0  1  3  1  1  3  1  3  0  1  1  3  4  2  0  5  1  0  2  1  3  1  0  1
  5  6  0  4  2  7  0  3  0  0  0  2  0  2  1  5  4 10  2  2  2  2 14 18
  0 14 16  0 10 15  2 17  0  5  2 14  0  3 17  4 14 16  2  2  2  2 23 21
  4  1 14 20 21 25  4]"
11700,342,1.0,8,2,163.3106427192688,11.38148546218872,1699,187200,1199736,10312831,"[ 0  1  3  0  2  3  2  1  0  5  3  3  0  0  1  5  6  4  2  1  3  4  3  1
  1  6  8  2  3  3  0  3  0  0  0  2  0  2  1  2 12 10  0  3 12  0 17 15
  0 14 16  0 10 15  5  0  9  2 13 17  2 16 19  4 14 16  1 17 17  0 17 20
  5 14 18 20 21 25  4]"
11800,342,1.0,8,2,164.4779291152954,11.672837734222412,1717,188800,1208503,10382191,"[ 0  1  3  1  2  0  3  2  0  3  2  3  5  1  3  5  4  0  2  1  3  4  1  6
  4  0  4  1  4  6  0  3  0  0  0  2  0  2  1  4  9 13  3  3  4  4 13 11
  0 14 16  0 10 15  1 11  1  2 13 16  0 22 16  4 14 16  1 20 18  3 19  3
  3 14 21 20 21 25  4]"
11900,342,1.0,8,2,165.6070249080658,11.290936470031738,1732,190400,1216692,10446873,"[ 0  1  3  0  0  2  0  0  1  1  3  2  1  1  0  3  3  2  2  1  3  3  7  5
  5  4  2  3  1  1  0  3  0  0  0  2  0  2  1  2  9  8  1  3 12  4  2 18
  0 14 16  0 10 15  0  0  3  4 16  2  1  1 22  4 14 16  5 17  3  4 19 17
  1 20 14 20 21 25  4]"
12000,342,1.0,8,2,166.68694043159485,10.799126625061035,1749,192000,1224459,10508355,"[ 0  1  3  4  0  1  5  0  0  3  1  0  2  2  1  0  8  0  2  1  3  3  6  6
  3  1  8  3  4  5  0  3  0  0  0  2  0  2  1  0 12 10  2  9 12  2 15 12
  0 14 16  0 10 15  2  0 16  5 10 13  5 18 19  4 14 16  4  1 22  3  1 21
  5 23 16 20 21 25  4]"
12100,342,1.0,8,2,167.81254267692566,11.256003379821777,1767,193600,1232775,10574165,"[ 0  1  3  4  1  0  5  2  3  4  0  2  4  3  3  3  1  4  2  1  3  1  6  0
  3  1  7  2  4  3  0  3  0  0  0  2  0  2  1  3  6  6  1 10  5  1 18  9
  0 14 16  0 10 15  2  1 18  5 10 13  2 18 20  4 14 16  2  3 18  2  1 19
  4 23 19 20 21 25  4]"
12200,342,1.0,8,2,168.95847511291504,11.459298133850098,1779,195200,1241208,10641070,"[ 0  1  3  1  3  0  3  2  1  0  1  1  5  2  2  2  5  5  2  1  3  0  1  1
  5  2  7  0  1  0  0  3  0  0  0  2  0  2  1  5  3  8  0 10 12  2 11 12
  0 14 16  0 10 15  0  1 18  4 11  1  3  3 16  4 14 16  3 21  0  2  0 19
  1 23  3 20 21 25  4]"
12300,342,1.0,8,2,170.14344692230225,11.84969186782837,1796,196800,1250077,10711324,"[ 0  1  3  2  0  2  0  1  0  1  0  1  5  1  3  0  6  7  2  1  3  5  0  3
  1  5  0  0  5  6  0  3  0  0  0  2  0  2  1  4 13 13  0 13 10  2 13 15
  0 14 16  0 10 15  0 14 11  0  1 17  3 22 18  4 14 16  1  1 18  0 22 23
  4 17 15 20 21 25  4]"
12400,342,1.0,8,2,171.26073098182678,11.172816753387451,1813,198400,1258151,10775740,"[ 0  1  3  4  0  0  1  2  1  1  3  2  3  0  2  2  6  4  2  1  3  1  4  0
  1  5  0  2  5  7  0  3  0  0  0  2  0  2  1  2  5 13  3 11  3  2 15  1
  0 14 16  0 10 15  1  1 12  4 14 18  3 22 15  4 14 16  3 19 19  1 15  1
  0 23 20 20 21 25  4]"
12500,342,1.0,8,2,172.38235902786255,11.216259002685547,1828,200000,1266338,10840474,"[ 0  1  3  2  1  2  1  1  2  3  1  0  3  1  1  1  3  0  2  1  3  2  4  4
  5  3  6  2  6  2  0  3  0  0  0  2  0  2  1  0  3  7  4  9  5  4 11 14
  0 14 16  0 10 15  1  2 18  3 13 14  0 17 23  4 14 16  4 15 21  4 20  1
  0 17 18 20 21 25  4]"
12600,342,1.0,8,2,173.53712058067322,11.547589302062988,1846,201600,1274824,10907617,"[ 0  1  3  2  0  2  0  2  0  3  0  1  1  1  1  5  3  1  2  1  3  2  3  3
  2  3  1  3  0  5  0  3  0  0  0  2  0  2  1  5  8  3  4  9 11  1  0 11
  0 14 16  0 12 15  1 14 18  3  2  9  3 15  2  4 14 16  1 14 17  5 20 18
  5  2 18 20 21 25  4]"
12700,342,1.0,8,2,174.6410071849823,11.03884220123291,1868,203200,1282869,10971192,"[ 0  1  3  1  2  2  1  2  0  1  0  0  5  1  3  3  6  6  4  7  7  5  7  8
  2  3  1  5  7  0  0  3  0  0  0  2  0  2  1  5 12  0  1 12  2  2 10  3
  0 14 16  0 12 15  5  3 18  3 11  2  5  1 16  4 14 16  4 19 20  4  0  0
  1 15 18 20 21 25  4]"
12800,342,1.0,8,2,175.7652292251587,11.242194175720215,1882,204800,1291184,11037075,"[ 0  1  3  2  3  3  2  2  1  3  2  0  1  0  2  3  4  1  1  7  7  3  8  5
  2  3  1  2  4  1  0  3  0  0  0  2  0  2  1  4  8  5  5 10  7  3  2 17
  0 14 16  0 12 15  0 12 10  3 15 12  3 20 20  4 14 16  0  3 20  0 20 18
  4  0  1 20 21 25  4]"
12900,342,1.0,8,2,176.90150809288025,11.362764835357666,1902,206400,1299427,11102354,"[ 0  1  3  5  3  1  0  0  1  3  0  2  0  0  0  1  0  1  3  0  1  0  8  0
  2  3  1  4  4  1  0  3  0  0  0  2  0  2  1  4 12 12  5  9  0  5  9 10
  0 14 16  0 12 15  0  1 16  1 18 11  5  2  3  4 14 16  2  0  3  3 16 14
  3 18 23 20 21 25  4]"
13000,342,1.0,8,2,178.05544543266296,11.539347171783447,1912,208000,1308037,11170554,"[ 0  1  3  0  3  2  2  3  2  5  3  1  0  3  3  0  8  4  3  3  1  1  6  3
  2  3  1  0  8  2  0  3  0  0  0  2  0  2  1  3  9  8  5 10 11  2 12  2
  0 14 16  0 12 15  1  1 17  3 10 10  5  2 16  4 14 16  1 18 18  5 21 23
  4 23 22 20 21 25  4]"
13100,342,1.0,8,2,179.1598482131958,11.044008731842041,1934,209600,1316076,11234356,"[ 0  1  3  1  2  0  2  3  3  5  3  1  5  3  2  1  6  5  3  1  5  2  0  1
  2  3  1  0  8  1  0  3  0  0  0  2  0  2  1  5  0  5  1  8  3  3 15  2
  0 14 16  0 12 15  3 10  2  5 18 13  1 23 21  4 14 16  2 21  2  3 22 17
  1 14  1 20 21 25  4]"
13200,342,1.0,8,2,180.3075830936432,11.477322578430176,1952,211200,1324562,11301512,"[ 0  1  3  0  2  3  4  2  0  1  0  1  0  1  2  1  0  3  0  1  8  5  1  5
  2  3  1  0  5  1  0  3  0  0  0  2  0  2  1  0  7 13  5 10  3  4 11  3
  0 14 16  0 12 15  5 10  2  1  2 17  1  0 18  4 14 16  3 23 23  2  1 15
  3  1 22 20 21 25  4]"
13300,342,1.0,8,2,181.40864491462708,11.010594367980957,1971,212800,1332489,11364182,"[ 0  1  3  3  3  1  5  1  0  1  1  3  3  2  2  3  6  6  1  7  4  1  0  7
  2  3  1  4  1  0  0  3  0  0  0  2  0  2  1  3 13  4  3  4  7  5 11 17
  0 14 16  0 12 15  1 15 12  1 10  2  4 15  1  4 14 16  5 22 20  0 16  0
  0 23 22 20 21 25  4]"
13400,342,1.0,8,2,182.5458402633667,11.37192964553833,1986,214400,1340881,11430381,"[ 0  1  3  3  3  1  2  1  3  5  3  2  2  2  0  3  8  8  3  2  8  1  2  4
  2  3  1  1  3  6  0  3  0  0  0  2  0  2  1  3  6 10  3  4 11  2 13  3
  0 14 16  0 12 15  2  1 18  2 15  9  0  3  2  4 14 16  4 15  3  4 23 15
  2  3 21 20 21 25  4]"
13500,342,1.0,8,2,183.65603303909302,11.101908683776855,2007,216000,1348912,11494267,"[ 1  1  0  0  1  3  3  3  1  0  1  1  0  0  0  4  2  1  3  4  3  1  2  2
  2  3  1  3  3  6  0  3  0  0  0  2  0  2  1  2 10 13  1  7  7  4 13  3
  0 14 16  0 12 15  5 11  9  2 13 14  5 22  2  4 14 16  4 18 19  4 23 14
  0  3 19 20 21 25  5]"
13600,342,1.0,8,2,184.8364188671112,11.803834438323975,2018,217600,1357138,11559650,"[ 2  3  1  0  1  3  1  1  3  2  2  3  1  0  2  2  7  2  3  3  0  0  5  6
  2  3  1  5  4  6  0  3  0  0  0  2  0  2  1  5  1  4  3  3 12  1  1  3
  0 14 16  0 12 15  0 11 18  2  3  3  5 21  2  4 14 16  0  3 19  0 17 14
  4 18 22 20 21 25  5]"
13700,342,1.0,8,2,185.96334743499756,11.269264221191406,2037,219200,1365446,11625385,"[ 5  0  3  0  1  3  4  1  1  4  2  3  0  0  1  4  8  6  0  3  6  0  2  2
  2  3  1  5  2  7  0  3  0  0  0  2  0  2  1  0  5  9  5  4 13  2  9 14
  0 14 16  0 12 15  4 18 18  2 16 16  4 17 22  4 14 16  1 17 16  4 22 15
  2 14 17 20 21 25  5]"
13800,342,1.0,8,2,187.10251593589783,11.391663551330566,2049,220800,1373876,11692003,"[ 4  2  1  0  1  3  0  2  1  3  0  0  1  0  3  4  0  5  5  3  4  3  0  8
  2  3  1  1  0  4  0  3  0  0  0  2  0  2  1  2  8 13  0  5  0  1  2  0
  0 14 16  0 12 15  4 16 14  3 15 18  1 14 17  4 14 16  1 18  1  5 16  0
  3 14 22 20 21 25  5]"
13900,342,1.0,8,2,188.24127984046936,11.387608051300049,2060,222400,1382264,11758248,"[ 0  0  1  0  1  3  2  0  1  5  3  2  1  0  1  4  1  8  2  2  8  5  8  7
  2  3  1  5  5  2  0  3  0  0  0  2  0  2  1  1 12  6  0  5  8  5 16 17
  0 14 16  0 12 15  0 16  0  3 10 16  3  1 15  4 14 16  0 22 19  0 18 16
  0 17 19 20 21 25  5]"
14000,342,1.0,8,2,189.39569354057312,11.544113159179688,2083,224000,1390806,11825675,"[ 0  1  2  0  1  3  1  0  0  2  2  3  4  2  1  4  8  8  2  2  2  5  2  4
  2  3  1  2  1  0  0  3  0  0  0  2  0  2  1  1  9 10  1  7  8  4 14 16
  0 14 16  0 12 15  2  0 17  5  3  3  3 16  0  4 14 16  2 15 17  0 21 19
  3  0 17 20 21 25  5]"
14100,342,1.0,8,2,190.5215356349945,11.258399486541748,2099,225600,1399170,11891556,"[ 3  3  2  0  1  3  0  0  0  3  3  1  3  3  2  2  3  2  2  0  2  5  1  2
  2  3  1  1  3  4  0  3  0  0  0  2  0  2  1  4  1  0  3 11  2  1 14  1
  0 14 16  0 12 15  1  2  3  0  2 12  0 16 18  4 14 16  1 19 20  0  2 16
  2 23  0 20 21 25  5]"
14200,342,1.0,8,2,191.67818331718445,11.566450595855713,2116,227200,1407381,11956718,"[ 2  2  0  0  1  3  2  3  1  2  1  0  0  2  3  4  1  8  4  1  3  2  8  3
  2  3  1  3  7  3  0  3  0  0  0  2  0  2  1  1 11  6  2  6 10  1 17 18
  0 14 16  0 12 15  5 18  2  4 13 15  2 17 22  4 14 16  2 19 17  3  3  0
  2 14 16 20 21 25  5]"
14300,342,1.0,8,2,192.93378257751465,12.5559663772583,2130,228800,1415742,12023106,"[ 3  2  2  0  1  3  4  3  3  5  1  3  2  1  0  2  2  8  1  3  5  0  7  6
  2  3  1  4  0  0  0  3  0  0  0  2  0  2  1  4 10  7  5  0  5  5 17 18
  0 14 16  0 12 15  1 15 11  3  2  2  2 17 18  4 14 16  2 22 21  5  2 14
  1 14 21 20 21 25  5]"
14400,342,1.0,8,2,194.03774213790894,11.039574146270752,2149,230400,1423704,12086377,"[ 2  2  0  0  1  3  5  1  0  4  2  1  3  2  3  5  0  1  2  6  4  0  3  6
  2  3  1  0  6  4  0  3  0  0  0  2  0  2  1  4  5  7  4 11  3  5  9  3
  0 14 16  0 12 15  3 10 15  0 15  9  0 21 16  4 14 16  5  2 23  0  0  1
  0 23 21 20 21 25  5]"
14500,342,1.0,8,2,195.15417051315308,11.164257526397705,2168,232000,1431902,12151421,"[ 0  0  1  0  1  3  5  3  3  4  2  1  1  2  0  3  5  7  4  6  2  1  3  7
  2  3  1  2  0  2  0  3  0  0  0  2  0  2  1  3 13  8  5  1  4  3 15 17
  0 14 16  0 12 15  2 12 11  3  9 11  2 19 22  4 14 16  0  2 17  3 22 15
  3  3  0 20 21 25  5]"
14600,342,1.0,8,2,196.30056428909302,11.463911533355713,2184,233600,1440287,12217802,"[ 5  3  1  0  1  3  0  3  0  4  0  0  0  2  0  3  2  7  1  6  7  1  2  8
  2  3  1  2  4  1  0  3  0  0  0  2  0  2  1  4  6 12  5 10  8  0  3 15
  0 14 16  0 12 15  3 13 11  2 10 10  0 21 14  4 14 16  4 15 17  1 16 23
  5  0 23 20 21 25  5]"
14700,342,1.0,8,2,197.45742297172546,11.568562984466553,2192,235200,1448942,12286203,"[ 5  2  2  0  1  3  0  1  3  5  2  3  4  2  0  1  5  8  2  0  2  4  2  5
  2  3  1  0  0  8  0  3  0  0  0  2  0  2  1  0 12  8  1  9  9  1 10 18
  0 14 16  0 12 15  0 13  0  1  9 17  0 20  0  4 14 16  0  3  3  0  1 23
  0  2 16 20 21 25  6]"
14800,342,1.0,8,2,198.57659792900085,11.191725730895996,2208,236800,1457142,12350924,"[ 5  0  0  5  0  2  0  1  3  5  1  3  0  1  3  4  2  5  2  2  8  4  4  5
  2  3  1  5  0  3  0  3  0  0  0  2  0  2  1  0  7  0  1 11 12  1 15  2
  0 14 16  0 12 15  0  9 10  3 11 11  1 14 21  4 14 16  0 20 16  4 21  3
  5  2 15 20 21 25  6]"
14900,342,1.0,8,2,199.77787065505981,12.012698650360107,2221,238400,1465418,12416592,"[ 3  2  1  2  3  3  0  1  3  4  2  3  1  2  1  2  0  2  3  0  7  2  0  0
  2  3  1  3  7  8  0  3  0  0  0  2  0  2  1  4  2  2  3  6  1  5  0 15
  0 14 16  0 12 15  3  9  1  1 18 11  2 18  3  4 14 16  4 21  3  4 14 16
  1 15 16 20 21 25  6]"
15000,342,1.0,8,2,200.89546585083008,11.175928115844727,2240,240000,1473579,12481103,"[ 3  0  2  3  0  0  0  1  3  0  0  3  2  3  3  3  8  2  4  5  7  2  1  8
  2  3  1  0  5  6  0  3  0  0  0  2  0  2  1  4 12  8  2  1  6  3 17 15
  0 14 16  0 12 15  3 14 14  3 13  2  3 19  2  0  2 22  1  2 18  4 14 16
  2 23 16 20 21 27  6]"
15100,342,1.0,8,2,201.99108171463013,10.95613956451416,2260,241600,1481407,12543035,"[ 4  2  3  4  2  3  0  1  3  3  0  1  2  1  1  5  0  0  4  5  0  0  3  6
  2  3  1  4  5  6  0  3  0  0  0  2  0  2  1  1  4  8  1 10 10  2 12 15
  0 14 16  0 12 15  2 13  9  0 15  0  4 21  1  4  3  1  5 17 15  4 14 16
  4  3 18 20 21 27  6]"
15200,342,1.0,8,2,203.12213563919067,11.310513019561768,2273,243200,1489666,12608493,"[ 2  3  0  2  3  3  0  1  3  5  2  0  2  0  2  3  5  8  1  2  5  0  6  4
  2  3  1  0  6  5  0  3  0  0  0  2  0  2  1  1 11  5  1  1 13  4 12  0
  0 14 16  0 12 15  0 13 12  0  2  3  1  1  2  5 20 14  5  0 18  4 14 16
  0  3  1 20 21 27  6]"
15300,342,1.0,8,2,204.31103587150574,11.888980865478516,2284,244800,1497774,12672838,"[ 2  0  2  1  0  0  0  1  3  0  2  3  3  1  0  3  3  8  1  7  6  3  4  8
  2  3  1  0  0  6  0  3  0  0  0  2  0  2  1  3  3  6  3  4 13  4  9  9
  0 14 16  0 12 15  3 15 17  2 17  9  0 19 18  4  0 19  4  1  3  4 14 16
  5 19 14 20 21 27  6]"
15400,342,1.0,8,2,205.4298951625824,11.188573837280273,2303,246400,1506017,12737921,"[ 4  3  1  4  0  2  0  1  3  0  2  0  0  0  2  1  1  5  3  4  0  4  6  7
  2  3  1  0  4  5  0  3  0  0  0  2  0  2  1  4  4  6  1  2  3  4  2  2
  0 14 16  0 12 15  3 13 17  4 10  9  2 22 22  4  1 17  1 23 18  4 14 16
  5 22 14 20 21 27  6]"
15500,342,1.0,8,2,206.54334998130798,11.13452434539795,2322,248000,1514183,12802481,"[ 5  3  0  0  0  3  0  1  3  0  0  1  1  0  3  1  2  4  3  8  4  1  3  7
  2  3  1  0  4  5  0  3  0  0  0  2  0  2  1  3 12  6  0  0  3  5 15 16
  0 14 16  0 12 15  2  3 18  1 13  1  2 14 14  5 19  0  1 20  0  4 14 16
  1  3 18 20 21 27  6]"
15600,342,1.0,8,2,207.69366836547852,11.503157615661621,2339,249600,1522474,12868421,"[ 0  3  0  5  0  2  0  1  3  4  1  1  3  3  2  3  8  4  3  7  4  2  5  3
  2  3  1  0  8  2  0  3  0  0  0  2  0  2  1  0  9  1  3 11  9  2 18 14
  0 14 16  0 12 15  0  9  9  5  3  1  5 21  0  1 19 22  2 21 22  4 14 16
  4  0  0 20 21 27  6]"
15700,342,1.0,8,2,208.84808373451233,11.544127464294434,2352,251200,1531034,12936339,"[ 5  3  0  1  2  2  0  1  3  0  1  0  5  3  1  2  8  4  3  4  0  5  4  3
  2  3  1  5  0  7  0  3  0  0  0  2  0  2  1  5 12 11  4  3  8  3  3 14
  0 14 16  0 12 15  1 11  0  4 10  2  2 18 14  0 19 20  0  0 17  4 14 16
  1  0  1 20 21 27  6]"
15800,342,1.0,7,3,209.94085550308228,10.927693843841553,2369,252800,1539089,12998210,"[ 1  3  1  0  3  0  0  1  3  3  2  1  5  2  1  3  7  6  5  5  5  2  8  3
  3  2  0  1  8  6  0  3  0  0  0  2  0  2  1  0  2  0  4 11  3  0 13 12
  0 14 16  2 12 15  4  2 12  4  3 16  3 17  1  4 18 14  5 20 17  4 14 16
  4 20 15 20 28 27  6]"
15900,342,1.0,7,3,210.97820353507996,10.373451709747314,2388,254400,1546868,13052786,"[ 2  1  3  5  1  2  0  1  3  5  3  3  2  3  3  3  0  1  1  0  1  0  0  4
  5  1  6  4  2  1  0  3  0  1  2 12  0  2  1  0  2  0  3  2  0  3 12 13
  0 14 16  5  2 10  0  2 11  3  3 16  3 18 20  3  2 14  0 18 21  4 14 16
  4 20 17 20 28 27  6]"
16000,342,1.0,7,3,211.9819893836975,10.037834644317627,2404,256000,1554333,13105457,"[ 5  3  3  4  2  2  0  1  3  3  1  3  5  2  2  3  5  5  4  4  8  0  4  1
  1  8  5  5  2  1  0  3  0  5  4  0  0  2  1  0  2  0  3  9  8  2 10 14
  0 14 16  0 15 16  2 15 11  2 15 16  0  0 17  0  2 22  1 18 16  4 14 16
  4 20 17 20 28 27  6]"
16100,342,1.0,7,3,213.0066957473755,10.247039794921875,2415,257600,1562121,13159953,"[ 4  2  1  4  3  0  0  1  3  3  3  3  3  2  3  4  1  3  5  5  8  3  4  4
  0  1  3  0  0  6  0  3  0  3 10 11  0  2  1  0  2  0  1 10  6  0 17 16
  0 14 16  5 18  2  4 18  0  3 11  2  1  0 17  2  2 23  5  0  3  4 14 16
  4 20 17 20 28 27  6]"
16200,342,1.0,7,3,214.0230941772461,10.163962841033936,2430,259200,1569820,13214006,"[ 1  2  1  3  0  1  0  1  3  1  0  0  1  2  1  1  8  3  4  8  8  5  5  8
  0  1  8  4  1  1  0  3  0  0 13  5  0  2  1  0  2  0  4  8  2  2  1 13
  0 14 16  4  0 16  2 15 18  1 14 14  5  3  1  0  0 16  1 15 20  4 14 16
  4 20 17 20 28 27  6]"
16300,342,1.0,7,3,215.05585098266602,10.327541828155518,2447,260800,1577429,13267529,"[ 5  1  3  1  1  2  0  1  3  1  3  2  1  0  3  3  2  4  2  2  3  3  3  2
  3  5  0  4  5  1  0  3  0  2  4  7  0  2  1  0  2  0  4  1  5  5  2  9
  0 14 16  4 16 12  2 11 11  0 18 14  4 19 23  0  0  2  4 19  2  4 14 16
  4 20 17 20 28 27  6]"
16400,342,1.0,7,3,216.10696268081665,10.511093139648438,2461,262400,1585408,13323556,"[ 2  2  2  5  1  1  0  1  3  3  0  1  3  0  0  0  4  8  4  1  0  0  7  0
  2  7  0  3  0  4  0  3  0  4  2 10  0  2  1  0  2  0  5  6  2  3  3 17
  0 14 16  5 14  9  1  3 16  1 13  9  0 23 14  4  0 16  4  3 15  4 14 16
  4 20 17 20 28 27  6]"
16500,342,1.0,7,3,217.1049404144287,9.979753494262695,2476,264000,1592809,13375698,"[ 5  0  0  0  0  3  0  1  3  1  2  3  1  0  3  2  2  8  4  8  1  2  2  6
  4  2  0  0  2  8  0  3  0  3  0 12  0  2  1  0  2  0  5  2  3  4 15  9
  0 14 16  5  9  3  2 17 16  0 12 14  1 22  0  5 20 23  1 22 19  4 14 16
  4 20 17 20 28 27  6]"
16600,342,1.0,7,3,218.1039958000183,9.990525245666504,2501,265600,1600220,13427599,"[ 2  3  3  0  2  0  0  1  3  2  1  2  2  1  2  0  5  7  3  5  1  3  4  5
  2  8  6  4  1  6  0  3  0  0  0  7  0  2  1  0  2  0  3  2  5  4  9 14
  0 14 16  5 17 10  4  3  3  2 18  9  5  2 23  3 22  0  2 14 21  4 14 16
  4 20 17 20 28 27  6]"
16700,342,1.0,7,3,219.12406206130981,10.200636386871338,2518,267200,1607759,13480731,"[ 2  1  3  5  2  1  0  1  3  2  3  1  0  3  0  3  5  6  1  7  2  5  1  3
  4  7  8  4  5  3  0  3  0  5  6  1  0  2  1  0  2  0  3  7  1  4  3 18
  0 14 16  4 11 10  1  9 18  5 11  3  1 18 23  2 16  2  3 19 23  4 14 16
  4 20 17 20 28 27  6]"
16800,342,1.0,7,3,220.1687879562378,10.447235107421875,2537,268800,1615556,13535547,"[ 1  2  2  1  0  0  0  1  3  5  0  3  5  3  2  2  2  2  4  6  1  4  5  1
  0  7  1  5  8  3  0  3  0  3  5  9  0  2  1  0  2  0  2  5  2  4  2  3
  0 14 16  0 12 10  5  9 16  0 16 18  2 14 17  1 23 19  5 19 17  4 14 16
  4 20 17 20 28 27  6]"
16900,342,1.0,7,3,221.1822464466095,10.13456106185913,2559,270400,1622967,13587470,"[ 4  0  0  5  2  3  0  1  3  3  3  1  5  0  0  1  0  4  2  6  2  3  7  8
  0  0  7  4  2  8  0  3  0  0  6 12  0  2  1  0  2  0  3  3  9  3  1 12
  0 14 16  2 13 14  5  2  3  1 17 16  2 22 15  4 18  0  3 18 17  4 14 16
  4 20 17 20 28 27  6]"
17000,342,1.0,7,3,222.21668767929077,10.344386100769043,2575,272000,1630709,13641679,"[ 5  0  0  2  0  3  0  1  3  0  2  3  5  1  2  1  1  2  3  3  0  2  5  1
  5  8  3  1  1  6  0  3  0  3  8 13  0  2  1  0  2  0  4 10 12  2 17 14
  0 14 16  4  9 14  2  1 16  3  0  1  5 21 18  2  3 15  5 18  1  4 14 16
  4 20 17 20 28 27  6]"
17100,342,1.0,7,3,223.2289981842041,10.12308120727539,2594,273600,1638265,13694786,"[ 5  2  3  4  3  0  0  1  3  0  0  3  3  0  2  2  4  5  0  3  7  4  8  3
  0  0  4  5  8  6  0  3  0  2 10  0  0  2  1  0  2  0  0 12  4  4 13 12
  0 14 16  4 15 16  2  1  9  4  2 13  0 18  1  3 18 17  5  0  0  4 14 16
  4 20 17 20 28 27  6]"
17200,342,1.0,7,3,224.19324111938477,9.642410278320312,2615,275200,1645300,13744359,"[ 0  3  3  2  2  0  0  1  3  4  2  1  4  2  0  3  5  4  1  5  1  4  6  7
  0  5  4  4  0  2  0  3  0  4 13  8  0  2  1  0  2  0  5  8 10  4 14 16
  0 14 16  4 14  9  1  3 18  4  3 10  1  3  3  4 20  3  5 21  0  4 14 16
  4 20 17 20 28 27  6]"
17300,342,1.0,7,3,225.22127199172974,10.280284881591797,2630,276800,1652991,13798625,"[ 4  0  2  0  2  1  0  1  3  5  0  0  4  2  1  1  1  8  3  7  4  4  8  1
  5  7  4  2  1  2  0  3  0  4  5 12  0  2  1  0  2  0  1  9  5  1  1  9
  0 14 16  1 13  0  4  9 12  5  1 17  0  3 18  1 14 18  4  2  2  4 14 16
  4 20 17 20 28 27  6]"
17400,342,1.0,7,3,226.32930898666382,11.08034610748291,2645,278400,1660565,13851818,"[ 1  0  2  1  0  1  0  1  3  5  0  3  5  3  0  4  3  1  1  3  7  5  3  1
  4  0  4  0  5  5  0  3  0  1  9  4  0  2  1  0  2  0  3  8 13  4 18  2
  0 14 16  0 17 16  4 10 11  2 17 18  1 15  2  1 16 16  4 21 17  4 14 16
  4 20 17 20 28 27  6]"
17500,342,1.0,7,3,227.34421157836914,10.148999691009521,2663,280000,1668168,13905043,"[ 0  3  1  1  1  0  0  1  3  2  0  0  2  0  2  3  7  6  2  8  3  1  8  1
  1  0  3  4  1  5  0  3  0  3  4  6  0  2  1  0  2  0  0  8  6  5 17 12
  0 14 16  3  0 16  1  3 18  2 16 16  3 20 21  1 19  2  4 19 20  4 14 16
  4 20 17 20 28 27  6]"
17600,342,1.0,7,3,228.39091229438782,10.466980934143066,2677,281600,1676233,13961498,"[ 4  0  1  0  1  3  0  1  3  0  3  1  5  3  2  4  1  3  3  4  0  1  0  8
  4  3  6  0  7  3  0  3  0  0 12 12  0  2  1  0  2  0  3  6  8  5 11 18
  0 14 16  5  0 15  4 12 12  3 18 14  1 14 22  3 15 22  5  2 20  4 14 16
  4 20 17 20 28 27  6]"
17700,342,1.0,7,3,229.44676303863525,10.558478832244873,2694,283200,1684007,14016059,"[ 2  2  2  0  0  1  0  1  3  3  1  2  5  1  0  3  7  8  2  2  6  4  5  7
  0  5  0  2  7  1  0  3  0  2 10 12  0  2  1  0  2  0  5 13 11  1  9  1
  0 14 16  3 15 11  3  0  1  1 13  1  5 16 22  3  0  1  2 23 18  4 14 16
  4 20 17 20 28 27  6]"
17800,342,1.0,7,3,230.46590542793274,10.191397666931152,2715,284800,1691480,14068750,"[ 5  0  2  2  3  1  0  1  3  3  1  3  2  0  0  5  0  4  0  4  1  2  5  6
  2  3  1  0  8  6  0  3  0  3  8  9  0  2  1  0  2  0  4  8  7  1 15 14
  0 14 16  5  2 11  0  0 10  3 13  1  3 20 22  5 23 14  5  2  0  4 14 16
  4 20 17 20 28 27  6]"
17900,342,1.0,7,3,231.490638256073,10.247306823730469,2731,286400,1698839,14120750,"[ 2  3  2  5  2  0  0  1  3  2  0  0  2  0  0  3  7  0  4  0  5  2  1  4
  5  0  2  5  7  1  0  3  0  3  5  8  0  2  1  0  2  0  0  3 13  5 15 15
  0 14 16  4 10 15  0 12 14  3 10  0  2 19  0  2 23 22  4 15 14  4 14 16
  4 20 17 20 28 27  6]"
18000,342,1.0,7,3,232.49912071228027,10.084798336029053,2745,288000,1706361,14173712,"[ 2  3  2  5  0  0  0  1  3  4  0  2  2  3  2  2  5  6  4  1  0  1  3  5
  4  4  1  4  6  7  0  3  0  3  1  8  0  2  1  0  2  0  1  5  8  5 10 10
  0 14 16  5 18 17  0 10 10  5 14 17  5  2 21  1 16  3  3 23 14  4 14 16
  4 20 17 20 28 27  6]"
18100,342,1.0,7,3,233.5390546321869,10.39931058883667,2753,289600,1714203,14228777,"[ 0  2  2  1  0  3  0  1  3  0  0  2  0  1  3  2  1  3  2  5  6  0  0  1
  4  5  2  2  0  6  0  3  0  5 10 10  0  2  1  0  2  0  1  4  2  3 16  2
  0 14 16  4 14 18  3  9 10  1 13 11  4 18 16  3  1 17  4 16 17  4 14 16
  4 20 17 20 28 27  6]"
18200,342,1.0,7,3,234.57465767860413,10.356006622314453,2767,291200,1722026,14283596,"[ 5  2  1  0  0  0  0  1  3  2  0  0  0  1  3  0  1  0  3  2  2  1  4  0
  0  0  3  2  4  8  0  3  0  1  8 10  0  2  1  0  2  0  0  4  3  0 18 16
  0 14 16  2  9 10  4 10 10  1  9 11  4 19 23  5 19 18  3 15  2  4 14 16
  4 20 17 20 28 27  6]"
18300,342,1.0,7,3,235.6059286594391,10.31268835067749,2778,292800,1729584,14336658,"[ 2  2  1  0  3  1  0  1  3  5  0  0  0  1  3  0  5  0  0  0  3  4  1  6
  5  5  3  1  0  8  0  3  0  5  7  0  0  2  1  0  2  0  4  4  6  5 13 17
  0 14 16  1 13 17  5 15 10  3 16  9  5 23  0  2 19 14  5 22  2  4 14 16
  4 20 17 20 28 27  8]"
18400,342,1.0,7,3,236.6453459262848,10.394148826599121,2797,294400,1737298,14391094,"[ 4  0  0  0  3  0  3  1  1  1  2  3  0  1  3  2  6  5  5  7  3  0  4  5
  2  4  3  5  1  0  0  3  0  5  7  5  0  2  1  0  2  0  3  4  6  4  3 15
  0 14 16  5  9 15  2  1 16  0 14 12  1  2 17  2  0 23  5 21 22  4 14 16
  4 20 17 20 28 27  8]"
18500,342,1.0,7,3,237.76701760292053,11.21669054031372,2809,296000,1744905,14444515,"[ 4  3  2  0  0  1  4  2  2  5  2  3  0  1  3  1  2  1  4  6  5  3  7  4
  2  6  0  2  1  7  0  3  0  2  1  2  0  2  1  0  2  0  2  0  6  1  3 14
  0 14 16  3 16 17  0 11 13  4 11 10  3 23 22  4 23 23  1 16  2  4 14 16
  4 20 17 20 28 27  8]"
18600,342,1.0,7,3,238.80395007133484,10.369303226470947,2825,297600,1752824,14500228,"[ 3  1  1  0  3  1  4  1  1  3  2  0  0  2  0  0  6  0  1  7  7  1  6  1
  0  0  3  4  3  1  0  3  0  5  0  5  0  2  1  0  2  0  4 11 12  1 11 17
  0 14 16  5 12  2  4 12 17  3 14  2  0 23  1  3 23 23  4 14  2  4 14 16
  4 20 17 20 28 27  5]"
18700,342,1.0,7,3,239.81562423706055,10.11671781539917,2848,299200,1760376,14553345,"[ 5  2  3  0  3  1  1  2  1  1  3  3  5  2  0  2  8  3  3  7  0  2  4  5
  2  3  8  5  3  1  0  3  0  1  0 12  0  2  1  0  2  0  2  8  0  1 11 13
  0 14 16  0 17  2  4 15 11  4 11  1  3  1 14  3 21 21  1 18 22  4 14 16
  4 20 17 20 28 27  5]"
18800,342,1.0,7,3,240.80999064445496,9.943642616271973,2869,300800,1767664,14604553,"[ 0  0  3  0  3  1  3  3  2  1  1  2  3  2  1  0  3  3  3  7  3  1  7  5
  1  1  4  5  7  5  0  3  0  1 13  4  0  2  1  0  2  0  2  8  4  5 13 12
  0 14 16  2 17 12  1  9 14  2  1  9  5 15 22  1  1  1  5 16 16  4 14 16
  4 20 17 20 28 27  5]"
18900,342,1.0,7,3,241.9465115070343,11.365184783935547,2879,302400,1775572,14660006,"[ 3  2  1  0  3  1  2  2  2  2  2  3  3  3  3  3  8  7  5  6  7  1  0  3
  5  7  0  1  5  2  0  3  0  2 11 13  0  2  1  0  2  0  2  9 10  3 10 17
  0 14 16  2 16 18  0  0 18  5  9  3  1 16  0  5 20 19  4  0  0  4 14 16
  4 20 17 20 28 27  5]"
19000,342,1.0,7,3,242.94697999954224,10.004658699035645,2903,304000,1783012,14712420,"[ 2  1  1  0  3  1  1  2  1  2  3  1  4  3  0  3  8  8  4  8  2  4  4  4
  2  7  3  4  5  5  0  3  0  1  4 12  0  2  1  0  2  0  5  0  0  5 11 17
  0 14 16  2 16 10  0 18  0  3  3 15  5 21 19  0 23 19  1  0 15  4 14 16
  4 20 17 20 28 27  5]"
19100,342,1.0,7,3,244.01210117340088,10.651187896728516,2920,305600,1791219,14770180,"[ 5  2  2  0  3  1  0  2  0  4  3  1  3  0  2  3  7  0  2  7  1  2  6  4
  1  8  1  4  6  5  0  3  0  0 10  0  0  2  1  0  2  0  3  0  2  1 18 11
  0 14 16  1  9 17  0 10 18  1 18  1  2 21  1  3 16  0  4 22  1  4 14 16
  4 20 17 20 28 27  5]"
19200,342,1.0,7,3,245.1094274520874,10.973238945007324,2933,307200,1799012,14825252,"[ 1  2  2  0  3  1  3  1  3  2  1  1  2  0  1  3  8  7  4  1  1  0  8  5
  2  7  1  1  4  8  0  3  0  2  1  9  0  2  1  0  2  0  4 11 11  3  3  0
  0 14 16  4 10  1  1 11  9  4 11  1  2 18 23  2 19 15  4 19 19  4 14 16
  4 20 17 20 28 27  5]"
19300,342,1.0,7,3,246.15655779838562,10.471282005310059,2943,308800,1806984,14881146,"[ 1  3  1  0  3  1  2  1  1  5  0  0  1  0  2  2  4  2  4  2  8  4  0  7
  2  8  0  1  0  3  0  3  0  1 10 12  0  2  1  0  2  0  4 13 11  5  1  9
  0 14 16  3 14  2  2  1 17  0  2  2  3 14 18  2 21 15  3 16 22  4 14 16
  4 20 17 20 28 27  5]"
19400,342,1.0,7,3,247.15512704849243,9.985668659210205,2963,310400,1814372,14932991,"[ 2  3  2  0  3  1  1  1  2  4  2  0  4  2  2  3  2  5  5  2  7  3  0  4
  2  6  2  4  1  0  0  3  0  5 13 13  0  2  1  0  2  0  0  9  1  0  3 11
  0 14 16  1 13  9  4 10 12  5 12 12  1 20 20  2 20 21  2 19 22  4 14 16
  4 20 17 20 28 27  5]"
19500,342,1.0,7,3,248.18436002731323,10.292305946350098,2978,312000,1822127,14987379,"[ 0  3  2  0  3  1  5  3  2  3  3  0  0  3  1  1  0  5  0  5  8  1  5  6
  5  1  5  1  4  5  0  3  0  2  4 12  0  2  1  0  2  0  0  1 10  0 17 17
  0 14 16  1 13 16  4 18  3  5  9  3  4 21  1  2  0 17  4 21 23  4 14 16
  4 20 17 20 28 27  5]"
19600,342,1.0,7,3,249.23400735855103,10.496447086334229,3001,313600,1829945,15041976,"[ 5  3  2  1  2  1  5  2  0  5  0  1  0  3  1  0  0  1  5  4  6  1  2  8
  0  8  2  4  3  6  0  3  0  3  0  3  0  2  1  0  2  0  1  0  9  0  9 14
  0 14 16  3  0 16  3 14 16  0 15 17  0 14 16  4 22 20  1 18  2  4 14 16
  4 20 17 20 28 27  8]"
19700,342,1.0,7,3,250.2409520149231,10.069425106048584,3018,315200,1837437,15094359,"[ 4  3  2  5  3  0  5  1  1  1  0  2  0  3  1  5  0  4  2  2  4  1  8  7
  0  7  2  2  2  1  0  3  0  3  4  0  0  2  1  0  2  0  5 12  1  3 10 11
  0 14 16  2  3 17  1  9  2  3 10 10  1  1  0  2  0 17  1 14  2  4 14 16
  4 20 17 20 28 27  8]"
19800,342,1.0,7,3,251.25472021102905,10.137660503387451,3038,316800,1844951,15147029,"[ 1  3  1  3  1  1  0  0  1  2  0  2  0  3  1  0  1  7  1  0  1  4  3  6
  2  6  3  3  2  5  0  3  0  2 10  0  0  2  1  0  2  0  0  2  8  4 15 17
  0 14 16  3 15 17  0  1 14  2 12  0  2 17 16  1 16 21  0  0  2  4 14 16
  4 20 17 20 28 27  8]"
19900,342,1.0,7,3,252.27503395080566,10.203111171722412,3057,318400,1852468,15199832,"[ 5  1  3  0  0  1  5  3  1  3  3  0  0  3  1  4  7  2  1  2  5  5  0  2
  2  6  4  4  2  7  0  3  0  1  0 10  0  2  1  5  2  8  0  2  0  3 14 13
  0 14 16  0 10  1  3 11 11  3 18  0  1 23 16  0 22 18  1  2 17  4 14 16
  4 20 18 20 28 27  8]"
20000,342,1.0,7,3,253.29175353050232,10.167171955108643,3076,320000,1860049,15253137,"[ 1  2  3  5  1  3  4  0  1  3  2  2  0  3  1  1  3  5  1  4  4  1  4  4
  3  0  5  3  7  3  0  3  0  0 13  2  0  2  1  0 13  5  0  2  0  3 16 11
  0 14 16  1 18  1  2  9 13  3  2  3  4 15 21  4  2 17  1  1 21  4 14 16
  4 20 18 20 28 27  8]"
20100,342,1.0,7,3,254.27373218536377,9.819762706756592,3098,321600,1867267,15303791,"[ 5  0  3  0  3  0  4  3  2  0  0  1  0  1  0  5  2  7  4  4  0  4  3  3
  4  2  6  2  3  8  0  3  0  2  0  5  0  2  1  0  3  1  0  2  0  4  0 11
  0 14 16  3  1  0  0  1  3  0  0 15  3 19 22  5 16 23  0  1 14  4 14 16
  4 20 18 20 28 27 17]"
20200,342,1.0,7,3,255.2620906829834,9.883561134338379,3125,323200,1874525,15354836,"[ 0  0  3  3  1  0  1  1  1  2  2  1  3  0  3  0  3  3  1  4  1  4  0  6
  5  4  0  4  7  8  0  3  0  2  4  4  0  2  1  0  3  1  0  2  0  4 12 16
  0 14 16  1 15 15  0 15  0  5 17 12  2  0 18  1 21 16  3 19 16  4 14 16
  4 20 18 20 28 27 17]"
20300,342,1.0,7,3,256.2605814933777,9.984879493713379,3145,324800,1881776,15406056,"[ 1  1  1  4  2  1  1  0  0  1  2  3  0  0  3  3  0  0  1  5  4  1  8  2
  3  4  7  4  1  8  0  3  0  0 10 10  0  2  1  0  3  1  0  2  0  3 14 18
  0 14 16  4  0 11  0  0 13  4 14  3  4  1  3  4 21  2  3 14 22  4 14 16
  4 20 18 20 28 27 17]"
20400,342,1.0,7,3,257.2521221637726,9.915380477905273,3159,326400,1889120,15457422,"[ 0  1  3  1  1  0  2  0  3  5  0  1  3  1  1  0  6  1  0  3  8  5  6  8
  4  7  7  1  5  2  0  3  0  0  7  4  0  2  1  0  3  1  0  2  0  5 13  3
  0 14 16  2 17  0  1 12 17  5 17 10  4 20  3  4 22 23  4  3 14  4 14 16
  4 20 18 20 28 27  4]"
20500,342,1.0,7,3,258.2758457660675,10.237212181091309,3172,328000,1896878,15512037,"[ 0  1  3  1  3  2  4  0  1  4  2  1  4  2  3  1  8  1  0  6  3  1  4  5
  1  0  5  0  4  6  0  3  0  5  9 10  0  2  1  3  3  9  0  2  0  4 11 13
  0 14 16  5 15  1  4 13  3  2 15 13  5 17  2  2 15 16  4 20 14  4 14 16
  4 20 18 20 28 27  4]"
20600,342,1.0,7,3,259.32531237602234,10.49464225769043,3182,329600,1904614,15566660,"[ 0  1  3  5  3  0  4  2  3  2  1  0  0  0  0  0  1  8  3  0  3  3  5  5
  5  4  0  3  3  3  0  3  0  5  5  0  0  2  1  1 12  5  0  2  0  3 14  9
  0 14 16  5  0 16  0 13 11  0  9  9  3 19 23  3 19 16  2 16 14  4 14 16
  4 20 18 20 28 27  4]"
20700,342,1.0,7,3,260.41027092933655,10.84956407546997,3197,331200,1912160,15619627,"[ 0  1  3  1  3  0  4  2  0  3  3  0  5  2  2  5  4  8  1  6  0  5  5  1
  2  3  0  0  6  0  0  3  0  5 10  4  0  2  1  1 12  7  0  2  0  3 11 10
  0 14 16  3  2  0  4 13 11  5 15  1  1 23  3  4 21 15  4  2 22  4 14 16
  4 20 18 20 28 27  4]"
20800,342,1.0,7,3,261.4124987125397,10.022251605987549,3215,332800,1919541,15671660,"[ 0  1  3  2  3  2  1  0  1  2  1  0  0  0  1  4  6  2  1  6  6  4  0  8
  0  8  0  3  1  8  0  3  0  3  5  9  0  2  1  3  7  7  0  2  0  3  2 14
  0 14 16  3 15 15  5  0 11  3 10 15  0 22 14  5 19 19  3 18 18  4 14 16
  4 20 18 20 28 27  4]"
20900,342,1.0,7,3,262.4053575992584,9.92856502532959,3237,334400,1926874,15723209,"[ 0  1  3  2  0  0  3  2  3  4  1  0  3  0  1  4  2  3  4  6  2  1  1  3
  0  4  0  4  1  6  0  3  0  2 10  3  0  2  1  4  4  1  0  2  0  0 17 13
  0 14 16  4 10  0  5 14  9  1 13 16  5 18 19  0 15 20  1 18 22  4 14 16
  4 20 18 20 28 27  4]"
21000,342,1.0,7,3,263.4110791683197,10.057194232940674,3252,336000,1934396,15776096,"[ 0  1  3  0  0  1  3  0  2  5  2  1  1  2  1  3  4  2  2  4  2  1  5  8
  0  4  1  2  1  2  0  3  0  0 12  1  0  2  1  0  0 13  0  2  0  2  2 16
  0 14 16  2 15 10  0 12 12  1  1 11  0  2 16  4 20 18  3 17  2  4 14 16
  4 20 18 20 28 27  4]"
21100,342,1.0,7,3,264.50023555755615,10.89153528213501,3269,337600,1941984,15829066,"[ 0  1  3  1  2  0  5  2  0  3  0  3  2  2  3  1  1  3  5  3  1  5  8  0
  0  1  5  3  8  1  0  3  0  1 12  8  0  2  1  0 10 13  0  2  0  2  2 15
  0 14 16  1 12  0  2 12 18  1  2 10  1 14  3  4 20 18  0 14 18  4 14 16
  1  0 18 20 25 27  4]"
21200,342,1.0,7,3,265.5111835002899,10.109455585479736,3282,339200,1949585,15882340,"[ 0  1  3  4  2  2  0  2  1  3  3  3  1  1  0  2  5  3  1  2  8  0  0  0
  1  7  3  5  8  7  0  3  0  5  3  2  0  2  1  2  1  3  0  2  0  4 18 18
  0 14 16  3  0 15  1 14 16  5 10 13  5 21 21  4 20 18  3 14 15  4 14 16
  4 20 23 20 25 27  4]"
21300,342,1.0,7,3,266.50297379493713,9.917881488800049,3301,340800,1956922,15933923,"[ 5  1  3  0  0  2  1  2  1  1  2  3  5  2  2  3  7  0  4  5  7  1  2  1
  2  1  2  2  8  2  0  3  0  5 11  4  0  2  1  0  1  3  0  2  0  2 12 14
  0 14 16  0 15 15  2 13  2  5 17 11  1  1 20  4 20 18  1 18 20  4 14 16
  1 23 19 20 25 27 17]"
21400,342,1.0,7,3,267.4850866794586,9.821102619171143,3321,342400,1963997,15983785,"[ 4  2  2  4  3  2  1  2  0  1  1  2  3  1  1  1  8  5  2  6  0  1  2  5
  3  2  3  5  2  3  0  3  0  1 11 10  0  2  1  0  1  3  0  2  0  3  1 15
  0 14 16  4  2  1  4  9  0  4 18  9  2 23 14  4 20 18  0 20 14  4 14 16
  1  0  1 20 25 27 17]"
21500,342,1.0,7,3,268.5750482082367,10.89958906173706,3339,344000,1971131,16033796,"[ 2  3  3  0  2  1  0  3  0  0  3  3  1  1  1  5  5  0  2  1  3  3  2  2
  3  1  6  1  8  5  0  3  0  1  6  3  0  2  1  0  1  3  0  2  0  5 17 16
  0 14 16  5 16 16  1 15 10  3 11 16  1  1 20  4 20 18  1 18 19  4 14 16
  4 16 15 20 25 27 17]"
21600,342,1.0,7,3,269.5599081516266,9.848575592041016,3354,345600,1978386,16084931,"[ 2  0  1  2  0  1  1  0  2  0  2  3  5  2  0  3  1  5  4  5  5  3  4  5
  5  2  8  2  6  0  0  3  0  4 10  7  0  2  1  0  1  3  0  2  0  2  2 18
  0 14 16  5  9  1  1 18 16  1 12  2  3 20 19  4 20 18  3 17 14  4 14 16
  4 18  0 20 25 27 17]"
21700,342,1.0,7,3,270.5563008785248,9.963903427124023,3373,347200,1985696,16136498,"[ 5  3  2  3  1  3  5  1  1  4  0  2  0  0  2  0  2  3  0  4  2  3  4  5
  0  8  3  2  1  0  0  3  0  3  0  5  0  2  1  0  1  3  0  2  0  3 18  3
  0 14 16  2  3 15  0  3 12  0  0  9  5 17 15  4 20 18  4 15 23  4 14 16
  4 17 23 20 25 27 17]"
21800,342,1.0,7,3,271.58663058280945,10.30327320098877,3390,348800,1993192,16189096,"[ 2  3  3  0  1  1  3  2  1  3  1  2  4  1  1  0  3  8  2  5  5  4  8  2
  2  0  3  4  3  1  0  3  0  5  6  8  0  2  1  0  1  3  0  2  0  5 14 16
  0 14 16  1  0 10  0 13  9  4 15 18  5 22 19  4 20 18  2 16 23  4 14 16
  4 20 21 20 25 27 17]"
21900,342,1.0,7,3,272.5992274284363,10.1259446144104,3401,350400,2000692,16241884,"[ 5  1  2  1  1  2  1  2  1  3  0  0  5  0  2  0  8  1  5  3  5  5  0  0
  2  2  2  4  3  1  0  3  0  4  6  7  0  2  1  0  1  3  0  2  0  0 15  3
  0 14 16  4 17 16  1  2 10  2  3 15  1 20  1  4 20 18  5 23 18  4 14 16
  0  0 22 20 25 27 17]"
22000,342,1.0,7,3,273.5820298194885,9.828004837036133,3419,352000,2007837,16292268,"[ 0  1  2  2  3  0  0  0  1  5  1  1  2  3  2  0  8  1  3  3  5  1  6  3
  4  6  6  2  3  1  0  3  0  0  9 13  0  2  1  0  1  3  0  2  0  4  9  0
  0 14 16  3  9  9  5 11 10  3  2 16  0  3 14  4 20 18  2 15  1  4 14 16
  0  2 17 20 25 27 17]"
22100,342,1.0,7,3,274.553635597229,9.716036319732666,3439,353600,2014942,16342149,"[ 3  0  3  5  2  2  5  2  3  5  3  1  1  2  1  4  1  1  5  2  2  4  5  8
  1  8  3  2  2  1  0  3  0  0  1  9  0  2  1  0  1  3  0  2  0  2  9 15
  0 14 16  3 11 17  5 15 17  2 16 18  4 15 19  4 20 18  2  3  1  4 14 16
  0 17  1 20 25 27 17]"
22200,342,1.0,7,3,275.53120040893555,9.775621891021729,3460,355200,2021764,16390333,"[ 0  3  1  5  2  0  0  2  1  1  2  3  1  2  1  1  5  4  4  6  4  2  8  0
  2  6  8  1  7  8  0  3  0  3  5  1  0  2  1  0  1  3  0  2  0  5  2 11
  0 14 16  0 13 18  3  1 12  4 17 15  5 19 22  4 20 18  0 22  1  4 14 16
  2  3  1 20 25 27 17]"
22300,342,1.0,7,3,276.4834611415863,9.52258586883545,3483,356800,2028557,16438181,"[ 5  2  2  3  1  2  4  0  3  0  3  3  1  0  1  4  1  1  5  2  5  1  8  2
  0  1  1  5  4  6  0  3  0  3  9  6  0  2  1  0  1  3  0  2  0  1 10  9
  0 14 16  2  9  9  5 14  3  5 17 15  3 15 19  4 20 18  3 18 15  4 14 16
  2 21  2 20 25 27 17]"
22400,342,1.0,7,3,277.48395824432373,10.004949569702148,3504,358400,2036047,16490723,"[ 4  3  0  5  1  3  1  2  2  1  3  3  2  1  1  3  6  2  5  8  0  5  7  3
  5  8  0  3  0  2  0  3  0  5  3 10  0  2  1  0  1  3  0  2  0  0  1 15
  0 14 16  1 10  2  5 15 11  1 16 18  5  0 17  4 20 18  3 21 16  4 14 16
  2 15  1 20 25 27 17]"
22500,342,1.0,7,3,278.4820747375488,9.981141090393066,3522,360000,2043396,16542488,"[ 1  0  1  1  0  2  5  2  2  4  0  1  2  2  3  3  5  0  0  4  7  5  7  8
  4  0  2  4  1  2  0  3  0  0  2 10  0  2  1  0  1  3  0  2  0  3 11 16
  0 14 16  2 14  9  4 10 10  3 16 12  4 23  1  4 20 18  1  1 23  4 14 16
  3 19 21 20 25 27 17]"
22600,342,1.0,7,3,279.55158519744873,10.695075988769531,3541,361600,2050804,16594746,"[ 3  3  2  2  2  1  5  1  1  2  1  0  3  0  2  4  3  1  0  3  5  1  0  8
  3  5  8  3  4  1  0  3  0  0  7  2  0  2  1  0  1  3  0  2  0  3  1 13
  0 14 16  2 10 18  4 18 10  4 18  3  4  2  2  4 20 18  3 23 16  4 14 16
  5 14  2 20 25 27 17]"
22700,342,1.0,7,3,280.5123052597046,9.607176780700684,3564,363200,2057762,16643577,"[ 0  2  2  4  1  3  5  0  2  4  3  0  5  0  1  4  5  1  5  7  2  3  6  6
  0  5  1  5  0  6  0  3  0  1  0  4  0  2  1  0  1  3  0  2  0  4 12  3
  0 14 16  1 11 17  4 13 12  3 11  1  2 14 20  4 20 18  2 15 15  4 14 16
  4 15  2 20 25 27 17]"
22800,342,1.0,7,3,281.52824568748474,10.159382820129395,3576,364800,2065407,16697319,"[ 5  3  1  3  0  1  4  2  3  4  2  2  5  2  2  3  2  1  0  2  1  5  6  0
  0  6  0  5  8  7  0  3  0  0 12 12  0  2  1  0  1  3  0  2  0  2  3 15
  0 14 16  1 18 16  4 18 16  5  3 11  1 16 19  4 20 18  3 22  1  4 14 16
  1  1 19 20 25 27 17]"
22900,342,1.0,7,3,282.4831042289734,9.548563957214355,3597,366400,2072298,16745557,"[ 1  0  2  4  3  0  0  1  0  4  2  1  4  1  2  0  7  0  5  5  0  5  5  2
  0  0  5  1  2  0  0  3  0  2  5  8  0  2  1  0  1  3  0  2  0  3  1 13
  0 14 16  2 18 17  0 14 10  2  0 15  3 18  2  4 20 18  2  0 19  4 14 16
  3  1 19 20 25 27 17]"
23000,342,1.0,7,3,283.4637906551361,9.806838035583496,3613,368000,2079395,16795600,"[ 3  0  1  1  0  2  2  3  0  0  3  3  3  1  3  0  0  4  3  6  0  0  7  5
  3  0  6  3  2  0  0  3  0  5  0 11  0  2  1  0  1  3  0  2  0  3  1  3
  0 14 16  5 13 10  5 17  3  1  0  2  4  2 19  4 20 18  0 16 16  4 14 16
  1 14 14 20 25 27 17]"
23100,342,1.0,7,3,284.45214581489563,9.883527755737305,3626,369600,2086788,16847279,"[ 0  2  3  0  1  1  4  3  1  5  2  1  3  3  1  1  2  8  4  6  4  2  7  2
  0  2  4  4  2  0  0  3  0  2 11  7  0  2  1  0  1  3  0  2  0  1 18  3
  0 14 16  5 17 12  0 11 16  1 12 11  5 22  3  4 20 18  3  0  0  4 14 16
  4 18 16 20 25 27 17]"
23200,342,1.0,7,3,285.44105052948,9.889023303985596,3650,371200,2094163,16898929,"[ 3  1  3  1  3  0  2  3  1  0  2  1  3  1  3  1  6  8  3  6  8  1  7  4
  5  0  3  4  2  1  0  3  0  1 11 11  0  2  1  0  1  3  0  2  0  1  9  3
  0 14 16  5 12 12  1 14 18  3 11 17  2 17 17  4 20 18  5  1  1  4 14 16
  1 17 17 20 25 27 17]"
23300,342,1.0,7,3,286.42757844924927,9.865257740020752,3668,372800,2101314,16949445,"[ 5  2  2  4  2  1  2  3  1  4  2  1  3  1  3  5  0  5  3  7  4  4  6  5
  3  6  7  4  0  2  0  3  0  3  2 13  0  2  1  0  1  3  0  2  0  5 13 15
  0 14 16  0 14 12  2 15 17  3 15 16  0 21  3  4 20 18  5 16 18  4 14 16
  2 19 19 20 25 27 17]"
23400,342,1.0,7,3,287.4142897129059,9.867086410522461,3693,374400,2108386,16999588,"[ 1  0  2  1  3  2  3  3  1  0  1  3  5  1  3  1  0  5  4  5  8  1  4  6
  4  6  8  1  8  3  0  3  0  2  9  5  0  2  1  0  1  3  0  2  0  4 16 15
  0 14 16  0 14  1  2 12 17  1 17  3  4 23  3  4 20 18  3 17 21  4 14 16
  1  3  3 20 25 27 17]"
23500,342,1.0,7,3,288.39516949653625,9.808776378631592,3712,376000,2115537,17049893,"[ 5  3  2  5  2  3  4  0  0  0  1  3  5  2  0  0  0  6  4  6  5  2  3  1
  0  1  2  1  5  8  0  3  0  4  0  6  0  2  1  2  6  1  0  2  0  5 15 11
  0 14 16  4  3  1  5  1  1  4  2 16  4  1  0  4 20 18  1  0  0  4 14 16
  1  2 17 20 25 27  7]"
23600,342,1.0,7,3,289.4082407951355,10.13068675994873,3725,377600,2123210,17103669,"[ 3  1  3  0  3  2  3  0  3  0  1  3  3  0  3  4  6  8  5  4  6  2  1  8
  1  6  6  1  5  1  0  3  0  3  9  1  0  2  1  0  3 11  0  2  0  2  2 17
  0 14 16  1 14  2  4 13  9  2 15 15  5 15 23  4 20 18  3  2  0  4 14 16
  1 15 16 20 25 27  7]"
23700,342,1.0,7,3,290.4251055717468,10.168616771697998,3735,379200,2130785,17156981,"[ 1  2  1  5  2  0  3  2  3  0  1  3  1  1  3  5  6  3  0  2  1  3  4  2
  5  5  5  2  8  6  0  3  0  4  7  7  0  2  1  2  9 10  0  2  0  2 17 13
  0 14 16  3 10  0  1 12 16  4 11 17  1 15 21  4 20 18  3 15  0  4 14 16
  4  0 16 20 25 27  7]"
23800,342,1.0,7,3,291.4458575248718,10.20749807357788,3752,380800,2138488,17210935,"[ 3  3  2  0  2  1  3  0  0  0  1  3  1  2  3  5  5  8  1  2  8  5  5  2
  5  6  3  5  2  3  0  3  0  3  0  0  0  2  1  3  5  1  0  2  0  4  1 14
  0 14 16  4  0  1  1  2 14  5 17  1  3 19 15  4 20 18  5 21 14  4 14 16
  4 16 14 20 25 27  7]"
23900,342,1.0,7,3,292.4734890460968,10.276291370391846,3772,382400,2146050,17263928,"[ 2  1  2  5  2  3  0  3  2  0  1  3  4  2  2  0  2  8  5  2  4  1  2  3
  2  5  6  1  3  7  0  3  0  0  3 13  0  2  1  0  2 12  0  2  0  2 12 14
  0 14 16  3  0 16  1  2  9  1  2  0  2  1  1  4 20 18  3  1 17  4 14 23
  4 16 14 20 25 28  7]"
24000,342,1.0,7,3,293.5019271373749,10.284359455108643,3786,384000,2153760,17318222,"[ 4  2  0  5  1  0  5  2  1  0  1  3  4  2  2  1  0  5  2  2  8  5  4  8
  5  0  0  1  6  3  0  3  0  3  7  8  0  2  1  1  8  0  0  2  0  5 13 10
  0 14 16  2 18 17  5 16 10  0 15 13  2 23  0  4 20 18  3 22  1  4 16 17
  4 16 14 20 25 28  7]"
24026,343,1.0,7,2,293.76693081855774,10.192366746755747,3791,384416,2155746,17332238,"[ 4  3  0  0  1  2  1  2  3  0  1  3  1  2  2  1  1  5  2  2  8  2  2  8
  2  0  2  0  5  5  0  3  0  3 12  7  0  2  1  1  8  9  0  2  0  0 13 10
  0 14 16  2  3 14  5 17 10  0 11 10  5 21 21  4 20 18  3 22 22  4 17  2
  4 16 14 20 15 28  7]"
