generation,fitness,functionality,active_nodes,longest_path,time,gen_time,nc_gens,fitness_evals,graph_evals,node_evals,genotype
0,197.0,0.40625,17,6,0.008293390274047852,8.290767669677734,0,0,0,0,"[ 3  0  2  2  1  3  1  0  0  0  3  3  4  3  0  3  1  3  4  2  1  0  0  1
  0  1  2  0  8  3  0  6  6  2  4 12  4  7  1  5  0  3  0 11  8  0  8  4
  5  7 11  4 12  3  1 14  0  2 10  2  4  4 13  2 18 10  4  4 20  2  1  0
  1 17 19  1  0 16  1  8  3  2  1 29  3 12 15  2  1 24  3  2 22  1 29 24
  5 26  9  5 23  8  2 19  7  5 17  1  1 15  1  0  5 39  5 19 26  0 23 33
  2 21  9  0 21 17  2  9 34  2  5 25  3 37 27  0 31 24  0 13 29  0 12 41
  0 24 21  0 45 37  3 28 44  2 16  3  0 20 43  2 35 47  3 20 25  1 53 51
  3  7 54  4 29 45  3 39 21  5 39 48  3 37  3  5 51 31  3 55 23  2  8 34
  4  2 58  4 39 24  1  8  6  1 25 19  1 58 56  4 14 34  0 48 35  2  6 58
  1 45 13  2 68 68  0 71 55  4 46  4  0 47 17  1  5 25  0  1 47  3 59 26
  5 11 67 55 69 79 46]"
100,371.0,0.921875,10,4,0.8876237869262695,8.793275356292725,29,400,5645,66100,"[ 3  0  2  3  1  1  1  0  2  3  2  3  0  3  0  3  1  3  4  3  2  0  0  2
  4  1  2  5  9  9  5  6 12  2  1  3  0 10  1  4 11  4  5 10  8  0  8  4
  3  2  6  0  9  8  4 14  5  5 11 15  4 10  1  2 12  3  4  4 19  4  6 21
  1 17 10  5  1 16  3  4  3  2  2  2  3  9 15  4  1 30  3  7  4  1  2 15
  2 17  3  0  8  1  3  7  1  2 25 26  5  7 23  1 13 26  2  2 22  4 35 19
  2 21 30  5 12 19  2  9 30  5 26 25  0 13 10  5 43  6  2 13 29  2  9 41
  0  0 12  0 46 22  3 42 45  2 16 17  3  9 12  3 41 47  5 52 14  0 32 51
  3 50 54  2 29 32  4  9 47  1 55 36  2  3 27  2 20 55  5  8  4  0 17  7
  4 13 36  5 24 65  2  9 58  2  0 59  1 34 41  4 48 33  4 13 12  2 51 23
  1 62  7  4 18 68  3 24 69  4 46  4  0 69 17  4 53 32  0 40 10  3 15 10
  2 35  6 21 11 79 32]"
200,373.0,0.921875,8,4,1.5456945896148682,6.580684185028076,76,800,10688,110623,"[ 3  0  2  3  1  3  1  0  1  3  2  3  0  3  1  3  3  1  5  3  0  0  0  2
  1  1  3  3  1  0  4  6  7  2  9  8  2 11  7  1  3  6  4  7  1  3  8  0
  3  2  9  0  9  3  4 19  6  3 15 15  4  1  1  5 15  4  5 10 10  4  8 20
  1 13  9  3  1 11  5  4  8  1 10  2  3 19 15  4  8  5  3 12  4  2  2 17
  2 15 28  3  8  1  0 21 28  2  8 20  4 38 27  1 11 27  1  2 37  0 35  1
  5 20 21  1 20 11  2  9 30  0 37  8  0 13 13  1 32  6  4 42 13  4  7 39
  2 26 16  2 46 13  3  0  2  2 11 18  3 31  1  5  8 13  1 52 26  0 13  0
  5 22 23  4 10  6  0 50 42  0  3  5  2  9  2  4 15 20  5  8 50  2 26 54
  5 13 25  0  6 42  2 50  3  4 43  1  2 34  6  1 22 22  4 63 25  0 59  5
  1 29  4  4  7 72  1 25 69  4 46  4  4 50 70  5 53 19  0 72 10  0 15 22
  3 34 12 21 11 79  8]"
300,373.0,0.921875,8,4,2.2010891437530518,6.553926467895508,137,1200,15876,154090,"[ 3  0  2  3  0  0  4  2  2  0  2  1  0  3  1  3  3  1  5  1  1  0  0  2
  3  0  1  4  1  0  4  8  9  5  8 10  2  3 10  1  4  1  4  7  4  3  8  0
  5  8  5  0  9  8  5  2  8  5  8 18  2  1  1  2 21 11  4 10 10  2 20  3
  1 13  3  3  6 20  3  4  8  3 22  8  0 25  2  5  8  2  3 12 19  0  2  0
  2 23 28  3  8  1  1  0 17  4  8 20  4  2 27  0 16  3  2 27 36  3 35  6
  2 11 21  3 22 11  2  9 30  3 37 38  0 16 13  5 32 19  4 42 13  2  7 39
  5 38 45  3 40 13  4  3 11  2 25 18  2 23  1  2 38 16  5 47 19  0  6 26
  5 31 21  5 17  6  1 50 42  0 17 33  2 43 39  4 48 20  5  4 44  3 44 13
  1 46 58  0 59 55  3 50 66  3 44 49  2 34 21  3  9 61  3 25 21  5 43 53
  1  9  2  4 69 55  1 71  1  4 46  4  4 61 70  5 69 52  3 72 10  0 15 39
  5 58 70 21 11 79  8]"
400,373.0,0.921875,8,4,2.849093198776245,6.480014324188232,188,1600,21028,197327,"[ 3  0  2  3  1  2  0  1  2  2  1  1  0  3  1  3  3  1  3  0  2  0  0  2
  1  2  2  2  5 11  0  8  3  5  9  2  0  7 12  5  8  7  4  9  9  5  6  2
  5  4  0  0  9  1  0  2  7  4  0  0  3  9  0  4  7 17  5 12 10  5 20  3
  1  0  2  2 19 19  3  4  3  2  5 28  5 21 19  5  1 13  3 15 11  1 23 27
  2 23 26  2 22 16  2 26  1  5  3  0  1  2  4  5  6  2  1 19 26  3  1 13
  0 13  6  0 28 27  2  9 30  3  9  1  3  4 26  1  9 12  4 42 13  5 15 41
  4 30 14  3 44 48  4 11 46  0 18  9  0 48 27  2  0 12  5 32 47  1 14 55
  3 51 37  1 24 29  1 16 20  4 16 28  0 13 28  4 14 13  5 37 21  1 48  9
  1 46 59  1 12 54  3  3 54  4 66 49  2 24 14  2  9 58  3 35 51  4 30 59
  1 20  5  0 36 45  5 11 33  4 46  4  4 45  0  3 69 15  1 72 52  0 15 68
  4 27 64 21 11 79  8]"
500,373.0,0.921875,8,4,3.4971110820770264,6.480157375335693,236,2000,26161,240448,"[ 3  0  2  3  0  3  4  3  3  2  0  2  0  3  1  3  1  1  1  2  3  0  0  2
  0  2  2  2  0  3  2 10 11  1  9  2  2  7  5  2  8  0  2 10  9  4  3  5
  5  9  0  0 11  1  4 14 21  5 21  2  5 19  0  0 13  0  2 10 10  5  6 15
  5  6 19  2 20 19  3  4  3  0  5 24  5 30 19  3 23  8  3 15 11  3 26 22
  3 15 19  4 22 16  4 26 23  2  3 22  5 29  4  0  6 30  0  0 34  3  1 34
  4 10 33  0 39 30  2  9 30  1 33 29  3  5 31  2 11 45  3 17 42  1 48 21
  4 22 31  4 45 24  4 11 11  4 18  9  0 47 10  5 33 21  5 25 16  1 10 49
  3 22 21  0 49 29  5 36 20  4 21 53  0 43 11  0 52 45  2 37 12  3 42 22
  2 16 59  1 48 32  3  2 17  2 44 12  4 21  0  5 22  0  0 63 51  2 35 46
  3 70 41  0 13 44  2 54 58  4 46  4  2 45  6  4 12  4  2 17 28  1 15 58
  1  5 54 21 11 79  8]"
600,380.0,0.9375,7,3,4.072783708572388,5.756707191467285,288,2400,30755,276368,"[ 3  1  2  1  3  0  4  0  1  5  2  0  0  3  1  4  3  1  4  3  3  0  0  2
  2  2  2  4 10  5  2  2  1  5  9  5  4  3  5  5  3  7  3  6  0  4  3  5
  1 11  9  0 11  8  4 14 10  2 20 20  1  2 12  1 18  0  5 10  6  5 15 17
  3 15  1  1 12 11  3  8  3  3 28 14  3 30 26  0  0 12  5  3 11  4  3  8
  3  8  2  4 16  1  0 24  1  5 13 17  4  5 11  3  3 30  4 24  7  0 18 37
  5 10  2  0 39  6  5  9 21  2 37 31  4  5  1  0 48 21  2 18 23  1 27 35
  1 17 25  1 45  7  5 45 11  4  5  9  1 23 38  5 39 39  5 43 45  1 50 27
  3 22 21  0  3 48  1 26 35  4 21 44  4 34 43  4 52 52  1 57 11  4 31 34
  4 16 57  0 64 22  1 40 46  0 58  6  1 21 52  0 14 56  3 23 60  2  9 65
  3 41 48  0  0 47  0 13 70  4  4  4  0 54  6  5 25 72  2 46 28  2 60 66
  3 27 12 21 11 60  8]"
700,380.0,0.9375,7,3,4.639718055725098,5.669312477111816,324,2800,35364,310290,"[ 2  1  1  2  2  2  4  2  1  4  0  1  0  3  1  5  0  1  5  3  1  0  0  2
  2  1  1  0  2  8  3  2  1  3  4  9  5 10 12  2  4 11  3  6  0  4  5  8
  1  6 12  0 11  8  3 20 12  3 19 20  0  2 12  4 14  2  1 16  9  5  4  7
  3  6  1  3 14  5  3 16 13  0 28  1  2 24 26  4  6 22  2  3 19  4 28 23
  1 13  2  4  9  9  3 14  0  3 13 16  4  5  4  5 10 18  2  5 30  4 18 16
  3  0  2  1 38  7  2 34 24  5 12 24  4 24 36  2  4 45  5 27 27  3 31  1
  1  9 15  3  4 28  2  0 27  0 39 21  1 15 38  2 19 26  2 10 35  0  7 54
  3 20 21  0 45 46  1 19 50  4 45 10  1 44 39  4 41 40  3 48 29  5 30 59
  5 22  0  0 35 35  2  2 59  1 64 26  4 27 52  2 51 53  5 55 19  5  3 21
  5 41 53  3  3 63  5 46 40  1 40 11  5 43 58  5 58 75  1 41 59  2 35 66
  0 33 59 21 11 60  8]"
800,380.0,0.9375,7,3,5.220238924026489,5.805182456970215,365,3200,39989,344107,"[ 0  0  1  1  0  2  3  1  3  2  1  3  0  3  1  3  0  0  2  2  1  0  0  2
  4  2  1  4 12  8  2  2 10  3  4 11  5 11 11  0  0 11  2 10  3  2  0  9
  1 10 12  0 11  8  0 18 12  2 20 11  2 10 15  4  7 17  1  0 11  3  4  1
  4  6 15  4 19  3  2 13  0  0 28 21  3 24 28  2  4 18  0  0 19  1 26 22
  2 14 10  1  9 12  4  5 19  2  0 16  4  5 26  0 38 28  3  3 32  0  6 28
  5  3  1  0 31  7  3  0 21  5 22 20  4  2 26  4 46  2  5 37 35  3 10  4
  2  1 15  5 47 28  2 43 16  0 13 21  4 27  0  0 19  5  2  3 26  2  9 29
  5 20 21  1 40 52  3 55 49  5  7 25  5 36 39  3 22 40  2 10 11  5 35  6
  5  9 47  4 50 49  0 65 65  4 64 26  4 42 53  2 64 11  4 14 10  5 39  1
  2 23 53  1 10 63  3 15 61  3 49 57  4 27  7  1 48 12  4 69 62  1 24 54
  2  9 22 21 11 60  8]"
900,381.0,0.9375,6,3,5.71755313873291,4.973123073577881,417,3600,44177,371606,"[ 5  0  1  0  3  3  5  3  3  5  3  1  0  3  1  3  1  1  2  2  1  0  0  2
  4  1  0  4  0  2  2 12  3  3  0 11  5  7 12  5 11  8  0  2  5  5  3  0
  0 10 10  0 11  3  5 20 12  5  9  5  0 12 15  1  1 12  1 11 17  3 11 12
  2 11  6  0  5 13  3 13 17  0 28 29  3 21  6  2 13  4  4  9  3  1  5 30
  3 20 12  1 21  3  0 23 22  2 16 16  1  5 25  2  8 13  3  3  2  1 30 12
  1 22 31  3 23 39  3 13  9  0  3 14  3 21  4  3 42 11  5  6 48  0  9  4
  4 19 29  5 10 33  1 31  8  2  3 43  5  3 12  4 21 42  1  3 52  0  8 49
  5 20 21  5  6  1  3 55  8  2 52 25  2 36  3  3 54  6  2 37 11  0 50  5
  2 15 26  2  5 51  0 65 37  2 56 37  2 33 63  1 41 22  3 30 12  5 64 53
  0 65 53  0  5 32  3 26 44  3 56 18  4 49 34  1 21 49  5  4 13  1 26 39
  1  8 21 21 11 60  8]"
1000,383.0,0.9375,5,2,6.187066555023193,4.695115089416504,476,4000,48210,396310,"[ 4  3  2  1  3  2  3  3  2  2  1  0  0  3  1  0  1  1  2  2  1  0  0  2
  3  1  0  4  8  9  4  8 10  2  0  0  5  5 12  0  1 11  4  9  8  0  6  0
  0  2 10  0  0  3  3 20  5  5 17  5  1 12  2  2  3 14  2 11  3  3  1  1
  1 11 20  2  8 15  0  4 17  1 28 11  3 24 29  1 12  4  0 13 12  4 26 15
  3 20  1  4  6 10  1 20 20  2 20 29  2  3 25  1 32  6  0 23 21  2 15 34
  4  5 17  3  7 30  5 13  5  3 10 14  1  9 26  5 33 43  5 20 48  3 40  7
  5 23 29  1 48  2  1 43 26  2  4 23  3  3 19  4 30 25  2 36 13  1  8 49
  5 10 21  4 57 28  2 52 23  1 12 57  4 36 13  3  1 39  2 48 16  4 37  5
  2  2 59  0 51  2  5 26 13  3 49 40  2 49 46  1 39 22  3 56 54  5 18 34
  4 41 74  0 67 62  4 63 50  3 56 18  4 41  4  4 66 67  4  4 24  4 26 70
  1  8  6 21 11 60  8]"
1100,392.0,0.96875,6,2,6.645342111587524,4.5827317237854,531,4400,52016,420065,"[ 0  0  1  1  3  2  3  1  3  3  2  3  0  3  1  0  0  2  2  2  1  0  0  2
  1  1  0  2  6  3  4  6  8  5  8  0  5  1  2  1 11  3  4  7  8  0 10 11
  4  0 10  0  0  3  2 21  3  0  2 21  4 10  4  4 14  6  2 19  7  3 10  0
  4 20  7  2 19  9  3 12 10  0 19  3  1  9 29  4 11 17  0 30 29  2 14 19
  3 10 12  5  6 11  0 15  2  3 20 18  0 35 12  1  0 24  2  3  3  2 17 34
  0  5 27  2 28 16  2 38 27  0  7 14  0 35 10  2  3 33  4 17 17  4 40 48
  3 30 35  3 48 47  1 39 18  3  4 27  0 29 27  5 30 14  2 38 22  4 29 49
  5 10 21  0 49 36  2  8 32  1 25 16  0 55 38  1 23 55  3  3 10  4 37  2
  1 66  0  2 16 43  3 21 45  3 65 35  3 66 19  4 63 41  3 25 46  5 18 47
  4 20 74  5 25 14  5  3 70  5 69  7  5  4 36  1 34 24  1 72 19  0 36 31
  1 68  6 23 11 60  8]"
1200,396.0,0.984375,7,2,7.076761722564697,4.3141770362854,587,4800,55363,442786,"[ 0  0  3  3  1  0  3  1  1  3  0  1  0  3  1  0  0  2  2  2  1  0  0  2
  1  1  0  2 12  0  1  6  5  3  3  0  5  9 11  0  1  2  0  4  8  1  6 11
  4  0 11  0  0  3  2 21  3  0  9  8  1 13  4  4 14 18  3 16 12  0 15 19
  4 11  7  5 13 18  2  4 10  1 19 30  1 15  5  5  3 24  5 30 29  0  8 16
  3 14 18  3  5  1  2  0  4  3 20 18  5 22 12  0 12 12  1  6  3  0 17 34
  2 16 34  1 37  6  2  6 30  2 31 14  3 16 30  0 17 33  2  4 17  4 42 18
  5 30 35  0 28 47  3 40 44  1  4 28  4 48 15  5 16 31  0 20  9  4 29 15
  5 10 21  2  9 40  5 33 34  3 16 35  5 55 13  1 16 55  5 33 10  4 60  2
  1 18 41  2 55 29  3 10 41  1 42  3  5 17 38  4 47 18  0 25 56  4 11 47
  4 42 70  4 25 64  5 13 70  5 69 13  5 31 24  3  5 58  1 49 19  2 36  2
  2 32  6 23 11 60  8]"
1261,397,1.0,11,4,7.351991653442383,4.511930903450387,624,5044,57455,458042,"[ 0  2  3  3  3  3  3  1  2  3  0  1  0  3  1  0  0  2  2  2  1  0  0  2
  0  0  0  2 11  0  1 11  5  4  3  3  5  9 11  2 10  6  1  0  2  0  6 12
  3  0  0  0  0  3  2  6  3  0  9  8  1 13  5  0  8 18  0 16 12  0 15  1
  4 11 16  1 13  7  2  4 10  1 19 26  3 16 23  5  3 24  3 21 15  0  8 27
  2 14 18  0  5  1  2 30 21  3  0 17  2  1 11  0 12 12  3  6 16  3 17  8
  2  5 34  1 20 30  5  0 30  1 24 14  3 12 38  0 21 33  4  4 36  1 14 18
  0 25 28  0 38  7  3 40 44  0  4 23  1 28 42  5 16 20  0 20  9  4  9  8
  5 10 21  2  9 40  5 33 48  2 37 19  3 55 13  5 16 13  4 29 15  4 15  2
  1 21 41  2 11 29  0 10 41  1 42  3  2 17 25  1 57 18  3 25 56  4 30 64
  4 59  8  0 25 20  5 29 63  5 12 41  5 31 24  1  5 58  2 12 19  4 36 14
  2 32 70 23 64 60  8]"
1300,398,1.0,10,4,7.542721748352051,4.890472461015751,638,5200,58607,470064,"[ 0  1  3  3  3  1  2  0  2  3  1  0  0  3  1  0  0  2  2  2  1  0  0  2
  0  2  1  2  9  0  5 11  5  2  3 11  5  9 11  2 10  9  4  0  2  3  5  9
  3 10  7  0  0  3  1  7  3  0  9  8  2 13  5  4 15 18  0 14 12  3 15  1
  4  8 16  1 13  4  2  4 16  5 17  6  2 26  1  5 30  5  3 21 15  3  3 27
  0 15 27  4  6  1  2 30 25  4  4 10  4  1 11  5  7 12  3 36 36  3 17  8
  1  5 34  1 39 10  2  0  9  1 20 38  3 16 38  3 21 33  4 26 27  1 14 48
  0 25 28  0 38 35  2 32 44  1  4 23  1 36 42  5 16 39  0 29 50  4 19 53
  5 10 21  5 16  8  2  0 26  2  4 19  3 55 13  4 39 40  4 29 15  2 15  5
  5 15 41  2 27 29  4 10 41  4 34  3  0 11 44  1 57 22  0  7 56  4 53 56
  4 73  9  0 51 15  2 25 63  4 12  4  5 31 38  1  5 74  2 26 70  4  9  0
  2 30 15 23 64 60  8]"
1400,399,1.0,9,4,7.948585748672485,4.0586161613464355,680,5600,60953,492350,"[ 0  2  0  3  0  2  3  1  0  1  3  3  0  3  1  1  0  0  2  2  1  1  0  0
  0  0  1  2  4  4  4 12  9  1 12  4  2  9 11  4 11 11  4  3 12  3  6  1
  5 10  9  0  0  3  2  1 11  0  4  8  4  3 21  2  0  8  5 14  9  2 20  4
  5  8 20  1 13 13  0  9  4  4 20 17  3 22 11  5 30  9  1 22  5  5 26 11
  0 20 27  4 26 26  2  7 25  1  4 21  0  6  4  5  7 23  3 12  4  3 12 34
  5 25 34  1  8 10  5 13  9  2  0 11  5 31 36  5 21 33  5 26 40  1 14 21
  5 17  4  1  4  7  3  6 47  0  1 23  2  2 42  0 48 39  2 29 15  4 47 16
  5 10 21  3 51 42  4  0 26  4 21 39  5 55 13  0 34 40  3 44 40  2 11 42
  1 15 41  2 30 40  0 64  1  3 12 29  0 31 52  1 65 59  0 45 10  4 52 15
  0 22  7  0  2  6  4 56 29  1 12 48  5 16 38  5 14 60  3 72 19  4 18 10
  0 11 62 55 64 60  8]"
1500,399,1.0,9,4,8.319400310516357,3.7081217765808105,741,6000,62931,510310,"[ 0  2  0  3  0  2  3  2  0  1  3  3  0  3  1  0  0  3  2  2  1  3  2  0
  0  0  1  2  0  2  1  6  0  1 12  4  3  9 11  4 11  6  5  1 12  3  6  4
  5 10  0  0  0  3  4 16  3  0  4  8  5  1  0  2 12  8  5 17 17  3 17  5
  5 16 20  2  6 13  2 13  4  4 20 25  3 21  3  5 16 12  1 24 21  5 26 19
  1  5 21  3 10 19  2 28 25  0 27 20  1  6  7  1 14 23  4 38 18  3 36 16
  4 23 27  1  3 27  3 13 26  3  0 11  3 31 36  5  7 14  3 31 40  1 14 40
  5 16  1  4  4  7  3 13 47  0  1 23  2  2 42  4 42  2  2 29 57  0 21 48
  5 10 21  3 54 42  4  0  6  5 56 39  5 55 13  4 21 37  4 15 40  2 11 42
  1 15 11  2 30 45  3 53 59  4 65 29  3 54 51  2 38 15  1 60 39  1 32 15
  0 53 71  0  2  5  1 63  8  2 45 36  1 61 35  0 48 45  0 54 19  4 52 10
  0 11 69 55 64 60  8]"
1600,399,1.0,9,4,8.749646663665771,4.3024396896362305,795,6400,65176,530738,"[ 0  2  0  3  1  2  3  2  1  2  0  2  0  3  1  0  1  0  2  2  1  2  1  2
  5  1  0  2  4  4  1  6  0  4 12  5  3  6  0  1  2  6  5  1  2  3  0 12
  1  5  4  0  0  3  3 15  4  0  4  3  2  4  4  4 17  7  0 17 17  3 17 21
  3 21 20  2  6 21  5 15  2  3 17 19  3 21  3  4  1 22  2 24  2  4 26 19
  2 20 16  0 20 19  2  2 26  2 27 20  2  5  8  1 25 39  4 30 27  2  4 16
  4 19  9  3 16 27  3 21 14  0  0  7  1 37 35  5  7 46  4 41 32  4 13 11
  3 17 20  0 30 45  0 18 47  0  1 23  5 39 41  4 46  2  2 57 57  1 40  1
  5 10 21  2 34 41  1 10 56  4 56 49  5 55 13  5 21 24  3 28 43  4 21 65
  3 20 23  2  7 57  3 57 36  4 52 29  3 63 53  2 15 10  5 60  2  2  1 15
  0  0 71  0 74  5  1 50 67  4 27 36  5 61 30  0 31 16  0 44 19  4  8 10
  3  0 69 55 64 60  8]"
1700,399,1.0,9,4,9.111469268798828,3.6182069778442383,852,6800,67201,549130,"[ 0  2  0  1  1  2  4  2  0  1  3  2  0  3  1  4  2  0  2  2  1  1  1  3
  5  1  1  2  4  0  3  5  8  4 12  5  0  7  6  1  7  7  5 11  8  3  0  4
  1  0  4  0  0  3  3 15 19  0  4  3  0 11  4  2  1  3  0  9  6  3 17  2
  2  5 21  2  6  9  2 15  2  1  3 20  2  9 28  3 10  4  2 13  9  4  3 19
  2 23 16  0  2  2  1 24 26  5 27 20  5  5 23  4 25 39  4 30 21  2 34  0
  4 33 26  4 31 15  5  6 33  2  0  8  5 20 35  4 19 10  4 41 32  4  5 11
  0 14  5  5 48  6  3 18 48  0  1 23  0 39 41  4 31  2  2 57 14  5 40  1
  5 10 21  5 39 36  2 12 43  4 57 57  5 55 13  5 57 48  3 19  4  5 21 65
  0 33 52  2 57 33  5 63  6  4 46 18  3 34  6  1 51 19  5 19 24  0 33 21
  0 50 13  0  4 50  3 50 67  5 39 62  2 61 30  0 48 46  2 72 19  1 18 10
  0  0 64 55 64 60  8]"
1800,399,1.0,9,4,9.498929977416992,3.8745856285095215,901,7200,69506,570064,"[ 0  2  0  0  3  1  4  2  1  4  1  2  0  3  1  3  0  1  2  2  1  0  1  1
  4  1  1  2  2  0  5  5  8  4 12  0  0  7  5  0  3  7  5  8  9  5  0 10
  3  7 10  0  0  3  5  4 19  0  4  3  4 11  4  2  2  3  0  9  0  1  2  2
  1  5 15  1  6  4  2 15  2  1  3 14  2  1  0  3  7  4  2 13 14  4  3 14
  2  1 16  3  2 19  5 30 26  5 27 18  5  9 16  1 34 24  5 10  1  0 34 13
  5  4 26  4  4 37  3 16  6  3 22  8  4  0 31  5 19 22  4 18 32  4 35 11
  0 14  5  5 31 37  4 39 48  0  1 23  3  6  3  4 31  2  0 55 48  0 40 54
  5 10 21  5 17 38  2  6 54  3 57 26  5 55 13  4 57 48  4 17  2  3 50 47
  4 10 64  4 57 22  5 63  6  4 26  6  0 23  6  3 51 16  0 29 16  3 42  4
  0 50 13  0  4  1  5 40 19  4 73 63  2 61 25  2 56 46  0 72 51  3 52 10
  1 16 30 55 64 60  8]"
1900,399,1.0,9,4,9.872802019119263,3.738701343536377,965,7600,71666,589563,"[ 0  2  3  0  3  1  4  1  1  4  0  1  3  1  3  1  3  2  2  2  1  0  3  1
  3  1  2  2  2  0  0 12 11  2  3 11  3  7  5  4  3  7  1  8  0  4  1 11
  0  3 10  0  0  3  4  8 19  0  4 21  5  0  4  5  7  6  1  4 10  1 17  2
  3  5  0  1 19  6  4 15 16  4 24 14  5 25  0  4  1 15  2 14 14  4  8 14
  2 25 16  5  1 19  0  6  8  3 19 13  4 36 16  1 39 24  1 16  1  0 16  0
  2  4 26  4 28 25  3 19 13  1 20 26  5  0 17  3 26 42  4 18 45  4 44 11
  0 14  5  4 18 25  3 23 25  0  1 23  3  3  3  3 31  2  5 55  6  5 40 54
  5 10 21  5 17 47  2 54 54  1  9 40  3 55 13  5 27 48  4 35  8  5 14  1
  5  5 16  4 62 18  0  0 28  4 58 45  3 55 23  2 32  2  1 50 27  2 42 63
  0 38 10  0 72 39  5 40 10  4 73 25  2 69 50  2 56 68  1 72 66  1  2 10
  2 10 30 55 64 60  5]"
2000,400,1.0,8,4,10.227317571640015,3.5451340675354004,1017,8000,73716,607018,"[ 0  3  1  0  3  1  2  0  1  4  2  0  3  1  3  4  3  0  2  2  1  0  3  2
  5  1  0  2  2  0  2 12  3  3  3  0  4  6  7  1  7  5  1  8 12  3 11 12
  5  5 10  0  0  3  0  8 13  0  2 21  5  4 20  1 18 13  5  3 19  0  4  1
  4  7  7  1  2  4  4  6  8  1 10 14  5  3 12  4 27  5  1 16 17  0 24 15
  0 28 14  5  1 21  2 16  9  0 11  8  1 24  1  2 39 24  4 21 31  3 16  2
  5  4 35  4 39 25  0 19 13  1 38 18  5  6 13  3 26  8  5 18  2  4 27 11
  0 37  5  2 35 20  2 19  8  0  1 23  2  5 23  3 48 47  4 55 42  1  1 48
  5 10 21  3 30 27  0 54 32  1  5 56  5 55 13  5  7 19  4 35  8  5 30 47
  5  4 65  1  0 56  0 50 28  2 58 25  3 55  3  2 33  2  3 25  0  3 25 63
  0 47 21  5 72 23  4 14 63  1  5 18  5 32  5  1 70 56  2 33 13  3 72 10
  3 17 30 55 64 60  5]"
2100,400,1.0,8,4,10.550277471542358,3.2295751571655273,1087,8400,75386,620692,"[ 3  1  0  0  3  1  2  0  3  1  3  2  3  2  0  4  3  3  2  2  1  0  2  1
  5  1  2  2  2  0  4  9  3  3  3  0  4  1  7  5  7  5  2 12 12  4  3 12
  4  0 10  0  0  3  0  8  1  0  2 21  3 19  6  4  0 21  5  7 19  0 19 14
  1  4 19  1  7 16  0 11 20  4 24  8  5  3 12  5  2  5  3 15 28  0  0  0
  0 14 28  3  1 21  2  9  8  0 26  1  1 24  1  4 39 24  1 28 21  3 37 20
  2  4 35  4 29 17  3 19  3  1 38 18  5  6 13  1 39  5  1  9  2  4 27 15
  4 37 18  5 34 23  5 18  8  0  1 23  2  5 23  1 22 47  5 14 42  1 24 57
  5 10 21  3 38 27  4 19 16  2 25 15  3 55 13  2  4 19  4 53  8  2 46 34
  3  4 65  3 16 56  0 11 53  1 58 25  3 57  3  3 41  2  4 59 10  5 46 12
  5 47 46  2 72 43  3 14 24  5 41 60  4 63 19  2 75 44  4  5 54  3 72 10
  3 70 73 55 64 60  5]"
2200,400,1.0,8,4,10.891638040542603,3.4135890007019043,1141,8800,77293,636306,"[ 4  2  3  0  3  1  2  0  3  2  3  3  3  1  2  2  3  0  2  2  1  1  0  1
  1  0  0  2  2  0  0  8  3  3  4 10  4 12  1  3  0  5  3  2 12  3  0  2
  5  0 12  0  0  3  0 13  4  0  2 21  3 18  6  1 18 21  1  8 19  4  8  5
  2  4 17  4  7 14  5 20  2  4 24 19  1 16  9  3  1  5  4  8 26  2 14 22
  4 18 17  3 20 28  0  9 13  1  7  1  3  5 16  3 37 33  5  4 21  5 33 24
  4  4 35  5 18 17  1 19 28  1 33 33  4 34 13  5 39  5  1 48  2  4 27 48
  0 37 11  4 41 23  3  8 20  0  1 23  1 29 23  1  1  0  0 17  2  4 24  4
  5 10 21  1  6 18  0 19 53  5  0 32  3 55 13  2 38 43  0 42 53  0 46 20
  4  4 61  4 45 55  0 43 53  1 28 25  0  1 31  3 34 24  5 58 26  0 30 12
  1 47 27  1 27 43  2 19 40  2 75 60  5 40 69  2 75 67  5 37 42  3 18  2
  3 49  0 55 64 60  5]"
2300,400,1.0,8,4,11.21372103691101,3.220813274383545,1202,9200,79027,650486,"[ 4  2  2  0  3  1  0  0  0  1  2  3  0  1  2  2  2  3  2  2  1  2  0  0
  5  2  0  2  2  0  5  4  3  2  2  0  4  8  1  3 11  9  3 12  2  0  6  5
  5  6 12  0  0  3  0 13  5  0  2 21  1 15 14  4 16 21  4  4 21  2  8  5
  4 18 17  5  7 11  5 20  2  5 24 15  1 16  4  0 13  5  3 19  0  5 14  4
  4 18 11  3 28 30  3 21  8  1  1 17  3 27 28  4 18 12  1 23 21  3 24 16
  4  4 22  0  5 39  4  0 21  0  7 33  4 36 16  5 14  5  0  1  2  4 14 48
  0 37 11  4 20 23  3 21 47  0  1 23  3 30  6  2 24  0  0 17 53  3 24 40
  5 10 21  3  5 44  0 25 15  5 54 32  5 55 13  3 38 10  0 31 53  1 59 30
  4 51 52  4 22 55  3 32 32  4 16 64  0 21  2  3 42 38  0 58 42  0 41 42
  4 34 27  4  9 54  3 12  1  3 25 40  3  3 71  2 71 67  3 61 55  2 65 22
  3 46 49 55 64 60  5]"
2400,400,1.0,8,4,11.534251928329468,3.205292224884033,1266,9600,80739,664461,"[ 4  1  2  0  3  1  1  2  0  5  3  2  0  1  2  0  2  3  5  3  3  2  0  2
  3  1  0  2  2  0  2  6  9  2  2  2  4  9  7  4  0  9  2  4 12  0  1  6
  2 10 12  0  0  3  0 15 10  0  2 21  3  0 14  0 11 10  4  8 21  3 16  1
  2 12 13  0  7 20  3  3  2  2  6 16  1 16 20  0  2 18  0  6  6  5 23 16
  2 18  9  4 28 11  3 21 19  1  1 17  2 19  8  4 33 28  1 37 37  3  8 16
  0 21 22  0 15  4  4  8  1  0  7 28  4 22 38  4  8  6  0 41 40  2 14 48
  5  1 17  4 37 46  1  8 24  0  1 23  3 30 43  2 24 47  2 16 28  3 28 40
  4 32  5  4 17 44  2 23 31  5 41 52  5 55 11  1 53 25  1 31 39  1 59 44
  4 56 58  1 22 33  4 53  0  0 60 48  0 52 48  3 20 38  2 21 15  0 41 40
  5 48 15  3  9 47  0 64  1  3 65 40  3 46 35  2 43 67  3 61 55  3 59 50
  1 65 49 55 64 26  5]"
2500,400,1.0,8,4,11.878563165664673,3.4430861473083496,1329,10000,82693,680446,"[ 0  3  2  0  3  1  2  2  2  3  3  2  0  1  2  2  3  3  5  2  3  2  0  2
  2  1  3  2  7  6  2  1  2  4  2  6  2  9  7  0  8  9  2  2 11  0  1  9
  4 10  9  0  0  3  2 15 15  0  2 21  3  0 13  4 13  5  4  8 21  1 21  2
  2 12 14  0 19 20  5  2  3  2  6 27  4 29 16  5 14 20  5  1  6  5 25 17
  1 18  2  1 28 10  4 23 25  1  8  0  1 17 17  4 33 32  3 30 32  3 23 16
  0 28 26  3  6 28  2  8 28  4  4 17  5  4 24  4 27  2  4  0 34  5 14 48
  1 32 17  4  6 41  0  8 32  0  1 23  3 30 12  4 31 46  0 57 28  1 14 40
  4 32 55  4 17 44  5  1 45  5 40 52  3 55 11  1 51 25  1  8 13  1 10 35
  0 38 58  1 19 47  2 57  1  0 11 52  4 56 38  2  8 38  2  7 61  2 40 22
  5 62 33  3 22 70  0 72 10  1 37  4  3 53 25  2  5 47  3 61 53  3 40 50
  1 12 73 55 64 26  5]"
2600,401,1.0,8,3,12.210609912872314,3.320438861846924,1392,10400,84476,695047,"[ 0  0  1  0  3  1  2  3  2  0  3  3  0  1  2  2  0  1  1  3  2  2  0  2
  5  3  3  5  4  6  3  5  2  5  7  2  1  9  5  5  8  9  5  2  5  5 10  7
  0 11  9  0  0  3  2 16 19  0  1 21  2  0 20  3 17  5  4  8 21  4  4  2
  0 15  8  0 19  9  5  2 18  5 29 16  3  9  1  3  8 11  1 24 30  5 25  3
  1 18 14  1 14 28  0  7 13  3 16 23  1  7 24  1 26 11  1 38 26  1 23  9
  0 23 26  5 20 12  5 27 27  4 23  1  0  9 28  4  4 30  5 14  6  1  4 39
  3 44 29  3  6 29  0 35 32  0  2 23  2 15 29  5  5 46  2 56  3  0 14 10
  3 45  7  2 29 55  3 37 45  2 40 11  3 23 11  0 52 25  1 27 16  5 19 18
  4 35 55  1 14 58  5 19  0  3 46 34  2 32 65  2 25 65  0  3 61  4 10 21
  3 62  4  3 22  7  3 40 62  2 27 44  1 32  2  2 27 49  2  7 33  3 45 23
  0 18 40 55 64 26  5]"
2700,401,1.0,8,3,12.565777063369751,3.551645278930664,1445,10800,86536,711632,"[ 0  0  2  0  3  1  1  3  2  3  3  2  0  1  2  1  0  0  2  3  1  2  0  2
  3  2  1  0  0  5  0  9  9  3  9  1  3  3  3  4  8 12  5  2  5  5 11  1
  1  3  9  0  0  3  5  8 14  5  8 21  2  4 20  2 13  5  4  8 21  2  4  2
  0  1 16  0 11  9  4  2 12  5 25  5  3  9  8  3 20 11  3 24 30  0 25  3
  4 18 14  2 23 11  5  9 13  1 20  9  1  7 24  1 24 11  1 29  7  1 23  9
  4 14 18  5 20 12  5  8  3  0  6 38  3 25 28  5 14 31  3 14  3  2  4 46
  4 32 10  3  6 21  0 14 29  0 21 23  2 15 19  5  5 44  4 56  3  0 51 19
  3 45  2  2  1  2  3 14 34  2 40 30  3  5 11  4 29 24  1 20 21  1 61  4
  5 35 64  1 25 50  5 65 16  4 66 34  1 32  9  2 24 65  0  2 61  5 12 10
  4 30 40  4 36 15  0 60 62  2 24 46  1 48 24  5 27 49  2  7  3  3 45  3
  0 63 70 55 64 26  5]"
2799,403,1.0,7,2,12.938085794448853,3.7606701706395005,1494,11196,88847,730418,"[ 5  0  2  0  3  1  1  3  2  5  1  2  0  1  2  4  1  0  5  2  1  2  0  2
  3  3  1  2  9  7  2  7 12  5  3  4  1 10  6  4  2 12  2  5 12  5 11 10
  4  9  9  0  0  3  2 19 14  0  2  8  3  4 14  2  0 10  4  8 21  2  9  3
  4  1 16  4 19 14  2  8 21  5 30 19  4 25 21  3 15 12  0  5 17  5 25  8
  5 23  9  5 13  9  3 17 13  0 21  8  0 34 24  1 24 20  0 35 27  1 37  9
  4 27 36  2 24 26  2 38  3  4  6 38  0 25 22  5 34 31  5 10  3  2 22 42
  4  8  3  0 11 33  1  7 18  0 21  8  2 20 34  0 38 47  0 27 54  3 10 57
  0 45 11  2  1 33  1 36 34  2 11  3  3  5 11  5 29 24  2 20 32  1  5  4
  5  1  3  1 38 50  3 16 37  4 41 10  1 27 64  3 24 21  0 47  3  4  4 10
  1 44 32  1 27 51  5 60 68  2  1 26  0 41  3  0 12  1  2  0 35  1 28 31
  2 24 40 55 64 26  5]"
