generation,fitness,functionality,active_nodes,longest_path,time,gen_time,nc_gens,fitness_evals,graph_evals,node_evals,genotype
0,272.0,0.78125,5,3,2.8924858570098877,2892.4858570098877,249,1024,9069,72476,"[ 0  2  2  4  2  2  3  0  3  1  2  2  2  1  1  3  4  2  1  1  2  4  2  2
  0  2  1  1  7  5  1  6  6  3  8  8  4  2  4  0 11  9  5  9  6  3 16 14
  4  3 15  2 14 15  5 16 17  5 16 16  0 22 22  4 19 20  1 16  0  3 15  1
  4 15 15 28 11  5  3]"
100,283.0,0.8125,4,3,3.5546858310699463,6.621999740600586,291,1424,14091,89524,"[ 2  0  1  5  3  0  0  1  2  5  2  2  1  0  0  2  0  1  3  4  1  4  2  2
  4  4  2  2  0  7  3  4 11  0  0  3  5  7  1  5  1  9  5  8 10  3 13  0
  1 13  3  2 17 13  4  1  2  5  3 15  2  0  3  3  3 20  5  0  3  0  2 17
  0 15 17 11 11 27  1]"
200,296.0,0.84375,3,1,4.253827810287476,6.991419792175293,346,1824,19511,112518,"[ 0  1  1  5  3  0  2  2  1  3  3  0  1  2  2  5  0  6  3  7  8  4  2  2
  1  8  2  4  8  7  1 11  4  0  3  7  4  7  3  3 10  7  5  8  4  0 15  2
  1 12 14  0 17  3  4  9  0  4 11 18  0  2 21  0  1  2  2  0 23  0  2  0
  0 15 19 11 27 25 11]"
300,296.0,0.84375,3,1,4.933752059936523,6.7992424964904785,414,2224,25008,135072,"[ 0  3  0  4  2  1  1  2  1  0  0  3  1  0  3  1  4  4  5  7  1  4  2  2
  2  5  5  5  7  6  1  5  6  0  5  8  4  4  4  3 12 11  5  5  3  1 17  2
  2  1  2  3 13 14  1 16  1  5 15 18  0 21  1  0  1  2  3 23 21  0  2  0
  2  3  2 11 27  7  7]"
400,317.0,0.921875,6,2,5.561610460281372,6.278584003448486,467,2624,30017,156574,"[ 1  3  1  1  0  2  2  2  2  0  1  3  4  3  0  4  2  0  4  4  0  4  2  2
  0  5  4  1  5  3  0  5  4  0  8  2  3 11  6  3 13  4  2 10  1  3 15 18
  2 11 16  3 16 13  3 15  0  0  3 17  2 19 20  2 14 16  1  3 21  0  2  0
  2 20 18 11 27 12  7]"
500,317.0,0.921875,6,2,6.36037015914917,7.987596988677979,513,3024,35192,188522,"[ 1  3  1  1  0  2  3  1  3  0  1  3  5  3  2  3  4  0  3  7  0  4  2  2
  0  5  4  5  1  0  4  5  8  5  1  2  4  3  6  3  2 10  5  1  0  1 11 15
  2 12 14  5 17  3  2 13 10  2 17  3  4 20 18  4  2 19  3  0 15  0  2  0
  1 17 19 11 27 12  7]"
600,317.0,0.921875,6,2,7.131813049316406,7.714428901672363,566,3424,40299,219265,"[ 1  3  1  1  0  2  1  0  3  0  1  3  4  1  2  3  3  4  5  5  1  4  2  2
  0  5  4  4  0  2  4 12 13  0  4  7  2  3  9  0  9 10  5 13  3  1 15  3
  3  2  1  2 17 10  5  9 12  2  0  2  0 15 18  2 22 16  2 22 15  0  2  0
  2 14 23 11 27 12  7]"
700,317.0,0.921875,6,2,7.962743043899536,8.309299945831299,623,3824,45521,251312,"[ 1  3  1  1  0  2  1  0  0  0  1  3  4  3  3  4  0  0  5  5  2  4  2  2
  0  5  4  4  0  2  3 12 12  0  1  6  4  5  5  5  6 10  5  8  1  4  9  3
  2 11  9  2 18  0  2 17  9  2 12 13  0  0 22  3  0 15  4 16  2  0  2  0
  1 15 15 11 27 12  7]"
800,317.0,0.921875,6,2,8.792418479919434,8.296754360198975,674,4224,50735,283097,"[ 1  3  1  1  0  2  1  1  2  0  1  3  1  2  3  4  0  0  1  7  4  4  2  6
  0  5  4  2  6  6  3 13  9  1  5  6  3  5  7  0  4  4  2  4  8  0 10  3
  1 18 17  0 10 11  2 17 13  3  9 13  0 17 15  0 23  2  0  3  2  0  2  0
  2 15 23  9 27 12  7]"
900,317.0,0.921875,6,2,9.573914051055908,7.814955711364747,727,4624,55875,314454,"[ 1  3  1  1  0  2  1  1  2  0  1  3  1  3  2  4  0  0  1  7  8  3  2  8
  0  5  4  4  3  2  3 13 10  2  9  3  0  2 13  2  4  3  5 12  9  0 12 11
  0 10  9  1 10  9  5 12 10  3 13 18  4  1  0  4  1  2  5  1 16  0  2  0
  1 23  1  9 27 12  7]"
1000,317.0,0.921875,6,2,10.357349634170532,7.83435583114624,776,5024,61072,345931,"[ 1  3  1  1  0  2  0  1  2  0  1  3  4  3  3  4  0  0  3  7  4  2  5  2
  0  5  4  0  7  4  2 13 10  2  2 13  2  9  9  4 11 11  2 10 12  5 15  2
  4 11 17  2 18  0  5 15 16  0  2 18  1 14  0  3 14 15  1 21 16  0  2  0
  4 16 22  9 27 12  7]"
1100,317.0,0.921875,6,2,11.14035964012146,7.830100059509277,826,5424,66258,377404,"[ 1  3  1  1  0  2  4  0  0  0  1  3  1  3  2  3  7  8  0  4  5  1  3  2
  0  5  4  2  3  0  2 12  8  1 13  9  4  4 10  2  3  6  0 10 12  2 16 15
  5 18 12  5 15  2  1  3  0  3 11 17  1 20 22  4 22 19  5  1 14  0  2  0
  5 16 22  6 27 12  7]"
1200,317.0,0.921875,6,2,11.93943738937378,7.990777492523193,879,5824,71380,408198,"[ 1  3  1  1  0  2  4  0  0  0  1  3  0  1  3  2  6  0  0  4  5  1  6  2
  4  2  5  5  8  2  3 12  1  0 13 13  5 10  4  2  4  4  0 10 13  0 10 15
  3  1  2  2 10  1  5  1  0  0 11 16  0 23 14  1 22 20  3 23 14  0  2  0
  5 21 16  6 27 10  7]"
1300,317.0,0.921875,6,2,12.744653224945068,8.05215835571289,925,6224,76559,439721,"[ 1  3  1  1  0  2  4  0  0  0  1  3  1  0  2  4  3  4  0  4  5  1  5  4
  5  5  0  5  2  4  2  1 13  2  1  3  3 10  2  1  3  8  3  3 13  3  3  1
  2  2  2  1 15 10  1  1 18  3 17 12  1 19 18  0 22 21  3 15 21  0  2  0
  4  0 16  6 27 10  7]"
1400,317.0,0.921875,6,2,13.519665241241455,7.750120162963867,978,6624,81637,470440,"[ 2  1  3  1  0  2  4  0  0  0  1  3  1  1  3  4  3  0  0  8  5  0  7  3
  5  6  8  2  6  5  2  1  0  1 10  4  4  6  9  2  6  3  2  3 13  0 18  1
  5 12 14  4  9 15  4 15  3  2 17 16  5 22  1  4  1  3  1 16  2  0  2  0
  2 18  1  6 27 10  7]"
1500,317.0,0.921875,6,2,14.296558380126953,7.7689313888549805,1033,7024,86749,501336,"[ 5  1  1  1  0  2  4  0  0  0  1  3  1  1  3  5  5  5  0  8  5  4  7  8
  1  6  0  4  1  2  2  1  5  0  4  1  2  5 12  2  9 11  1 10  8  0 18 11
  0 13 11  4 17 10  5 18 12  0 13  1  3 19  2  4 16  2  3 21 19  0  2  0
  1 15  0  6 27 10  7]"
1600,317.0,0.921875,6,2,15.088324785232544,7.917664051055907,1076,7424,91942,532860,"[ 1  2  3  1  0  2  4  2  2  0  1  3  1  1  3  5  1  7  0  8  5  4  8  8
  1  7  8  4  8  3  0 13  2  2  6  1  4  4  6  1 11 10  0  5  5  2 12 15
  5  1  9  4  3 10  3 18  1  1 13  9  4 20  2  4  1  2  0 21 19  0  2  0
  5  1 14  6 27 10  7]"
1700,317.0,0.921875,6,2,15.925843000411987,8.375182151794434,1129,7824,97149,564537,"[ 0  2  2  1  0  2  4  2  2  0  1  3  1  1  3  5  8  0  0  8  5  5  5  3
  1  3  6  0  3  0  1  8  3  0 12  1  3  6  3  3  5  1  2  5  5  0  1 15
  4  9 17  3 18 18  1  3  1  2  3 10  5 20 16  4 17 23  1 20 19  0  2  0
  0  1 17  6 27 10  7]"
1800,317.0,0.921875,6,2,16.725510835647583,7.996678352355957,1183,8224,102373,596199,"[ 4  3  3  1  0  2  4  2  2  0  1  3  1  1  3  2  1  6  0  8  5  5  4  1
  5  3  2  1  3  0  1  7  1  4 10 10  1  9  7  0  5 13  3 12  7  5  3 18
  5 16 18  1  2 18  1  1 10  1 15 18  5 20 21  0 15  1  5  2  1  0  2  0
  0  2 21  6 27 10  7]"
1900,318.0,0.9375,8,4,17.595948696136475,8.704378604888916,1225,8624,107397,632805,"[ 4  3  3  1  0  2  3  0  2  0  1  3  1  1  3  5  1  5  0  8  5  4  2  1
  3  7  2  1  3  6  3  7  4  2 12  9  2  7 11  1 11 13  5 12  7  1 12 15
  0  3 18  4 14 17  2  3 10  1  2  3  1 23 15  5 15 19  1  1  2  0 18  0
  3 21  2  4 27 10  7]"
2000,318.0,0.9375,8,4,18.491050243377686,8.95101547241211,1272,9024,112201,670666,"[ 4  3  3  1  0  2  3  3  2  0  1  3  1  1  3  4  2  5  0  8  5  0  2  1
  5  4  2  1  1  1  2  5  4  4 12  4  1  7  5  3  5  5  3 12  7  2 18 10
  4  3 10  4  0 17  1  3 10  1 12  3  1  3  3  5 16 23  1 19 14  0 18  0
  3 21 16  4 27 10  7]"
2100,319.0,0.9375,8,3,19.42505931854248,9.34009075164795,1307,9424,117162,709966,"[ 4  3  3  1  0  2  2  2  0  0  1  3  1  1  3  5  8  4  0  8  5  1  3  8
  4  5  1  5  3  7  5  8  8  4  5 13  0  6  5  2 11  9  3  6  7  2  0 14
  0  0 11  5 17 12  3 11 10  5 16 12  0 20 14  1 20 14  2 20  3  0 18  0
  4 15 19  4 27 10  7]"
2200,319.0,0.9375,8,3,20.353774785995483,9.28715467453003,1357,9824,122094,749339,"[ 1  3  0  1  0  2  4  0  2  0  1  3  1  1  3  4  6  7  0  8  5  3  0  7
  4  5  5  3  5  7  5 13  8  1 10  7  4  6  5  1 11  5  3  6  7  5 12  3
  0  0  2  2 12 17  1 11 17  5 11 17  4 20  2  3 16  0  1 20 19  0 18  0
  0 20  3 12 27 10  7]"
2300,319.0,0.9375,8,3,21.25610613822937,9.023313522338867,1415,10224,126982,788333,"[ 1  2  0  1  0  2  2  0  2  0  1  3  1  1  3  2  6  3  0  8  5  4  7  6
  4  5  5  2  2  8  5 11 10  1  4  2  3  6  6  3  4  1  3  6  7  1  1 12
  0 16  0  2  1  0  5 12 17  5 11 18  1 22 17  3  3 22  1 23 17  0 18  0
  3 18  3 12 27 10  7]"
2400,319.0,0.9375,8,3,22.17354393005371,9.174377918243408,1461,10624,132003,828249,"[ 4  3  0  1  0  2  2  2  0  0  1  3  1  1  3  3  6  0  0  8  5  5  7  2
  4  5  5  0  3  3  0 13  6  0  3 13  1  0  0  4  4 12  3  6  7  0 17 16
  5 15  0  3 17  2  0 12  9  0 15  3  3  1 18  3  3  2  0  1 23  0 18  0
  4 17 20 12 27 10  7]"
2500,321.0,0.9375,7,2,23.07923698425293,9.056930541992188,1504,11024,136940,866943,"[ 4  0  0  1  0  2  2  2  0  0  1  3  1  1  3  3  6  8  0  8  5  0  7  0
  2  0  4  1  4  0  3 13  5  1 13 13  1  6  0  5 12  2  3  6  7  3 17 10
  4 13 11  4  3 15  3 17  2  0 15  3  0 17 15  1 22 16  2  2  0  3 20 18
  2 17 19 11 18 10  7]"
2600,321.0,0.9375,7,2,23.853137731552124,7.739007472991943,1560,11424,141454,898266,"[ 1  2  0  1  0  2  2  2  0  0  1  3  1  1  3  4  5  3  0  8  5  0  7  2
  2  3  4  5  4  2  2 10  7  1  6  6  1 11  1  2 12  7  3  6  7  3 17 15
  2 17  3  5  9 16  0  2  2  1 15  3  0 18 15  1 16 21  2 21 14  3 20 19
  4 19  2 11 18 10  7]"
2700,321.0,0.9375,7,2,24.64106583595276,7.879281044006348,1615,11824,146083,930598,"[ 3  1  2  1  0  2  2  2  0  0  1  3  1  1  3  5  7  1  0  8  5  0  7  5
  1  8  4  1  5  2  4 12 12  4  6  6  0 11  2  3  2  7  3  6  7  3 16 10
  4  0 16  4 10 11  2 15  9  5 15  3  0 18 20  0 14  3  4 21 14  4  1  3
  3 19 18 15 18 10  7]"
2800,321.0,0.9375,7,2,25.46069073677063,8.196249008178711,1651,12224,150726,963013,"[ 2  1  1  1  0  2  2  2  0  0  1  3  1  1  3  1  5  1  0  8  5  2  2  5
  3  1  7  5  0  1  4  5 12  4  6  6  5  3  0  3 11 10  3  6  7  3  9 15
  4  0 15  3 18 11  0 11 13  1 17 13  2 16 19  3 19 16  5 22  2  3  0 18
  0 22 23 15 18 10  7]"
2900,321.0,0.9375,7,2,26.251086473464966,7.903957366943359,1705,12624,155383,995732,"[ 0  0  2  1  0  2  2  2  0  0  1  3  1  1  3  1  1  1  0  8  5  5  5  7
  1  4  1  2  0  6  3 10  3  4  6  6  4  3  0  3  1 10  3  6  7  5  9 10
  1 15 18  2 14 15  0 17 15  3 12  0  5  3 18  1  2 14  2 19 18  3 14 15
  4 23 16 15 18 10  7]"
3000,321.0,0.9375,7,2,27.048340559005737,7.972540855407716,1760,13024,160105,1028744,"[ 1  0  2  1  0  2  2  2  0  0  1  3  1  1  3  4  5  5  0  8  5  3  8  5
  4  7  8  4  6  5  0 10 12  4  6  6  3  3  0  3  3 13  3  6  7  5  9 16
  0 10 17  0 12 11  1  1 13  3 12 15  5  3 17  5  3 14  1 19  2  4 20 16
  4  1 20 15 18 10  7]"
3100,321.0,0.9375,7,2,27.86960530281067,8.212647438049316,1806,13424,164772,1061425,"[ 3  2  2  1  0  2  2  2  0  0  1  3  1  1  3  2  3  3  0  8  5  3  3  5
  1  4  2  4  8  2  5  9  9  4  6  6  3 11  6  4 11  7  3  6  7  5  1 17
  0 18 12  5 15 13  2 15 12  5 18 15  3 18 16  4  3  3  2 22 21  5  1  0
  1 15 19 15 18 10  7]"
3200,321.0,0.9375,7,2,28.658244609832764,7.886393070220947,1864,13824,169416,1093608,"[ 3  3  2  1  0  2  2  2  0  0  1  3  1  1  3  3  4  7  0  8  5  4  6  7
  5  2  2  4  8  7  2  9 13  4  6  6  5 12 12  4  6  5  3  6  7  5  0  2
  3 10 17  0 17 10  3 15 12  5 15 18  3 22  3  5  3 20  3 18 15  0  1  0
  1 21  1 15 18 10  7]"
3300,321.0,0.9375,7,2,29.46490788459778,8.066632747650146,1916,14224,174099,1126425,"[ 4  3  2  1  0  2  2  2  0  0  1  3  1  1  3  2  3  1  0  8  5  4  3  7
  2  6  2  3  2  8  1  4  1  4  6  6  3  9  4  3 10  8  3  6  7  0 13  0
  5 11  3  1 17  3  3 13 11  3 17 17  5 20 14  5 16 22  3 14 14  1 18  0
  4 21 22 15 18 10  7]"
3400,321.0,0.9375,7,2,30.24802279472351,7.831149101257324,1962,14624,178644,1158347,"[ 0  1  0  1  0  2  2  2  0  0  1  3  1  1  3  0  3  6  0  8  5  1  4  6
  2  2  4  5  6  0  4  9  9  4  6  6  3 12 13  2 11 10  3  6  7  1 15  0
  4 11 17  5 14 17  1  9  1  5  9  9  0  3  3  5 21  0  3 17 23  2 15 20
  1 19 14 15 18 10  7]"
3500,321.0,0.9375,7,2,31.043431758880615,7.954089641571046,2008,15024,183328,1191707,"[ 4  0  0  1  0  2  2  2  0  0  1  3  1  1  3  5  2  6  0  8  5  1  4  5
  0  4  0  3  3  1  1  6 12  4 12  6  4  6 13  0  6  0  3  6  7  5 16  1
  3 18 17  1 14  9  2 15  9  1  3 12  5 20 14  2 20 22  4  2 21  0 14 19
  2  2 15  4 18 10  7]"
3600,321.0,0.9375,7,2,31.841236352920532,7.97804594039917,2055,15424,188126,1224980,"[ 4  0  0  1  0  2  2  2  0  0  1  3  1  1  3  1  1  5  0  8  5  2  3  0
  2  4  5  0  4  0  5 12  0  4  0  4  0  4  8  3  4 13  3  6  7  5  1  9
  2 18  9  5  2 18  4 14 11  0  3  9  3  2 17  2  2 22  0 21 19  4 16 14
  2 16 15  4 18 10  7]"
3700,321.0,0.9375,7,2,32.64007759094238,7.988412380218506,2105,15824,192889,1257909,"[ 4  0  0  1  0  2  2  2  0  0  1  3  1  1  3  0  5  2  0  8  5  0  2  4
  3  6  6  3  4  0  4  9 10  1 12 11  3  4  5  5  2  0  3  6  7  2 15 17
  1 12  2  1 14 18  0 13 16  1 15 12  1  2 21  5 17 23  0  2  0  2 19  2
  4 22 21  4 18 10  7]"
3800,321.0,0.9375,7,2,33.428532123565674,7.88454532623291,2165,16224,197600,1290589,"[ 4  0  0  1  0  2  2  2  0  0  1  3  1  1  3  0  6  2  0  8  5  5  8  0
  3  4  6  1  8  3  0  6  8  1  6  4  2 12  5  3  8  4  3  6  7  5 15 16
  1  9  2  5 18 15  4 18 11  1  3 14  2 18 17  3  1 14  0 23 22  0 20 20
  5 20 17  4 18 10  7]"
3900,321.0,0.9375,7,2,34.241976737976074,8.134446144104004,2203,16624,202387,1323790,"[ 4  0  2  1  0  2  2  2  0  0  1  3  1  1  3  0  0  8  0  8  5  3  0  6
  5  5  4  0  6  7  1  4  5  5  3 13  5  1  9  5  8  8  3  6  7  4 12  3
  1 14 12  4  1 17  0 14 11  4 18 14  3 17 20  0 14 17  0 19 21  0 16  0
  2 17  3 11 18 10  7]"
4000,321.0,0.9375,7,2,35.0523636341095,8.103868961334229,2256,17024,207117,1356972,"[ 3  1  2  1  0  2  2  2  0  0  1  3  1  1  3  4  5  1  0  8  5  3  5  6
  5  3  8  0  2  2  2  4  5  5  3 11  2  9  9  2  6  7  3  6  7  2 10  3
  2  1 12  5 16 10  3 14 14  3  0  1  3 18 22  1 22 15  3 19 21  2 17  1
  5 21 17 11 18 10  7]"
4100,321.0,0.9375,7,2,35.87320351600647,8.208398818969727,2306,17424,211998,1391043,"[ 0  3  1  1  0  2  2  2  0  0  1  3  1  1  3  5  4  3  0  8  5  3  2  6
  1  7  8  3  2  8  1  5 10  4  5 11  0  5 11  3  5  8  3  6  7  5 11  0
  0  9 10  3  9 10  3 11  9  1 15  3  4  3  1  4 20  0  4  1 18  5  0  0
  0 17 14 11 18 10  7]"
4200,321.0,0.9375,7,2,36.68949604034424,8.162925243377686,2358,17824,216714,1423863,"[ 2  1  1  1  0  2  2  2  0  0  1  3  1  1  3  5  4  3  0  8  5  3  2  6
  3  4  8  4  0  1  1  8  0  1  3  8  1  9 10  5  8  1  3  6  7  5  9  0
  3 17 18  0 10  0  2  2  9  1 14  1  4 18 21  1 19 14  4 15  3  3 23 21
  1 21 18 11 18 10  7]"
4300,321.0,0.9375,7,2,37.49932503700256,8.098289966583252,2408,18224,221465,1456836,"[ 0  1  1  1  0  2  2  2  0  0  1  3  1  1  3  2  7  6  0  8  5  3  0  6
  5  1  5  3  1  7  1 13  1  5  6  8  2  9  2  0  7 11  3  6  7  0  2 12
  3  1 14  5 14  0  3 10 13  0  9  1  1 19 14  3 18 16  0 22  0  5 18  3
  1 22 21 11 18 10  7]"
4400,321.0,0.9375,7,2,38.29565691947937,7.963318824768066,2461,18624,226114,1489228,"[ 0  0  2  1  0  2  2  2  0  0  1  3  1  1  3  1  1  6  0  8  5  3  2  6
  5  6  8  2  4  6  2 10 13  3 10  5  2 13 13  2  5  0  3  6  7  0  2 12
  2 13  1  0  2 11  5 10  3  2  0 10  3 15 14  3 15 16  1 19 16  3 14 18
  1  3  0 11 18 10  7]"
4500,321.0,0.9375,7,2,39.09932827949524,8.036713600158691,2510,19024,230859,1522167,"[ 5  0  2  1  0  2  2  2  0  0  1  3  1  1  3  5  5  2  0  8  5  3  2  6
  4  2  7  2  1  7  4 13  8  0  2 10  4  5  5  1 13  2  3  6  7  0 12 17
  0  1 14  3 17 12  0 11 11  1 13 13  3 18 22  3 23 22  0 21 17  0  0  2
  1 16 17 11 18 10  7]"
4600,321.0,0.9375,7,2,39.9080274105072,8.086991310119629,2562,19424,235507,1554819,"[ 1  0  3  1  0  2  2  2  0  0  1  3  1  1  3  3  2  3  0  8  5  4  2  6
  2  7  2  5  5  6  2 13 13  2  3  8  3  6  5  2  9  6  3  6  7  5 12 11
  4 10 14  3 17  0  4 11  1  1  3  1  1  3  1  3 23 16  3 20  1  0 15  2
  1 15 15 16 18 10  7]"
4700,324.0,0.953125,8,3,40.72687029838562,8.18842887878418,2617,19824,240251,1588317,"[ 0  0  3  1  0  2  2  2  0  0  1  3  1  1  3  0  5  8  0  8  5  4  0  5
  2  7  0  1  6  0  4  9  6  2  1  6  3  6 12  0 11  0  3  6  7  3 10  0
  4 11 14  3 16  0  4 15  1  0 13  1  2 14  1  0 17 16  3 17 22  0 21 21
  2 21 15 16 18 10  7]"
4800,324.0,0.953125,8,3,41.58663749694824,8.59767198562622,2669,20224,244885,1625186,"[ 4  2  0  1  0  2  2  2  0  0  1  3  1  1  3  5  1  8  0  8  5  0  0  7
  2  0  7  2  2  0  4 13  6  4 13  0  3  6 12  3  9  6  3  6  7  1 16 12
  0 11 15  5 16  2  5 15  0  5  0 18  3 20  3  3 18 22  4 14 21  3 15 21
  4 18  2 16 18 10  7]"
4900,325.0,0.953125,8,2,42.45137596130371,8.647384643554688,2714,20624,249522,1661966,"[ 4  3  1  1  0  2  2  2  0  0  1  3  1  1  3  0  6  8  0  8  5  2  1  3
  2  4  8  0  2  6  3  5  7  3 13  2  3  6 11  0  9  3  3  6  7  2  9  1
  1 12 12  5 16 11  2 11  0  1 18 18  3  1 15  4 18  2  2 14 19  2 15 21
  2 18 17 16 18 10  7]"
5000,325.0,0.953125,8,2,43.32218527793884,8.708093166351318,2760,21024,254275,1699483,"[ 5  0  1  1  0  2  2  2  0  0  1  3  1  1  3  0  5  8  0  7  5  2  1  3
  5  4  1  1  2  4  5  3  1  1  3  2  3  6 11  4  4  0  3  6  7  4 11  1
  4 15  9  4 16 15  4  3  3  1  2 16  3 19 16  2 18 20  2  3 15  4 17  1
  1  1 17 16 18  9  7]"
5100,325.0,0.953125,8,2,44.20345091819763,8.81265640258789,2813,21424,258887,1736308,"[ 0  2  3  1  0  2  2  2  0  0  1  3  1  1  3  0  5  8  3  3  1  2  1  3
  5  6  8  1  1  3  1  3  1  2  3  2  3  6 11  5  4  9  3  6  7  1 15 10
  3  0  9  1  2 10  4  9  0  3 11 12  3 14 16  5 15 15  0  0 15  2 20 23
  3 16 21 16 18  9  7]"
5200,325.0,0.953125,8,2,45.05286979675293,8.494188785552979,2869,21824,263377,1772067,"[ 4  2  3  1  0  2  2  2  0  0  1  3  1  1  3  0  5  8  5  5  3  2  1  3
  5  6  7  0  4  3  1  3  2  4  9  4  3  6 11  3  4  9  3  6  7  1 15 16
  4 18  0  2 18 16  4 11 16  3  0  9  3 23 15  4 21 17  1 16 20  2 16  2
  3 16  0 16 18  9  7]"
5300,325.0,0.953125,8,2,45.940576791763306,8.87706995010376,2919,22224,268017,1809089,"[ 4  3  3  1  0  2  2  2  0  0  1  3  1  1  3  0  5  8  3  0  7  2  1  3
  1  6  3  5  1  6  2 11  4  1 11 10  3  6 11  3  3 10  3  6  7  3 10 18
  1  1 15  2 18 18  2  2 14  3 10 18  1 15 21  4 21 17  4  2  0  1 16 17
  5  2 15 16 18  9  7]"
5400,325.0,0.953125,8,2,46.780571699142456,8.399949073791504,2981,22624,272485,1844605,"[ 4  3  2  1  0  2  2  2  0  0  1  3  1  1  3  0  5  8  3  6  4  2  1  3
  5  3  0  5  6  6  3  9  4  1 11  3  3  6 11  3  3  3  3  6  7  3 12 18
  3 12 16  2 15 10  1  2 13  5 14 18  2  2 21  1 21 17  3  2  0  1  2 14
  0 20 21 16 18  9  7]"
5500,325.0,0.953125,8,2,47.634714126586914,8.54142427444458,3025,23024,277114,1881198,"[ 4  0  3  1  0  2  2  2  0  0  1  3  1  1  3  0  5  8  3  8  8  2  1  3
  5  2  1  5  1  7  4  7 11  2 11  9  3  6 11  5 12  3  3  6  7  5  0 13
  3 12 16  2 17  1  1 11 17  5 17 18  2  3 20  4 23 20  4 23  0  1  0 14
  0 22 21 16 18  9  7]"
5600,325.0,0.953125,8,2,48.48511600494385,8.504018783569336,3077,23424,281594,1916730,"[ 0  2  0  1  0  2  2  2  0  0  1  3  1  1  3  0  5  8  2  1  3  2  1  3
  4  3  6  5  0  7  4  3 11  4  3  1  3  6 11  4 12  8  3  6  7  5 12 13
  5 14 16  2 16  9  3 12  2  4  3 18  5  3 14  5 17 20  2 23 22  5 20 21
  4 15  2 16 18  9  7]"
5700,325.0,0.953125,8,2,49.3453528881073,8.602368831634521,3131,23824,286206,1953340,"[ 4  2  0  1  0  2  2  2  0  0  1  3  1  1  3  0  5  8  2  1  3  4  1  8
  4  7  4  4  0  6  4  4  9  5 11 12  3  6 10  0 12  8  3  6  7  4  0  9
  0 12  0  3 16 12  4  1  1  0  0 10  1  3  1  5 16 20  3 15 19  1  3 19
  4 21 20 16 18  9  7]"
5800,325.0,0.953125,8,2,50.21524739265442,8.698945045471191,3190,24224,290863,1990297,"[ 4  2  2  1  0  2  2  2  0  0  1  3  1  1  3  0  5  8  2  1  3  2  7  2
  0  7  5  0  5  6  4  5  9  0 11  3  3  6 10  0 12  8  3  6  7  4  9 10
  1 13  0  1 12 15  4  9 12  1  9 10  3 16  3  1 20  3  2 14 19  3 18 15
  2 20  3 16 18  9  7]"
5900,325.0,0.953125,8,2,51.075209617614746,8.599622249603271,3237,24624,295514,2027155,"[ 1  2  2  1  0  2  2  2  0  0  1  3  1  1  3  0  5  8  2  1  3  3  1  8
  2  7  4  5  2  4  4  6 12  4  5  9  3  6 10  0  6  8  3  6  7  4 10  9
  4 11 11  1 10 11  4 18 12  1  2  2  0 23 15  5 20  3  1 16 19  4  3  2
  4 15 22 16 18  9  7]"
6000,325.0,0.953125,8,2,51.90092635154724,8.257167339324951,3292,25024,300013,2062876,"[ 1  2  0  2  2  2  2  2  0  0  1  3  1  1  3  0  4  8  2  1  3  5  5  1
  2  1  7  4  2  4  0 12  5  1  5 11  3  6 10  3  4  3  3  6  7  4 10  9
  4 16 11  5 18  1  4 14 12  1  2  1  5  2 15  2 15  3  1 17 18  4 17  2
  1 22 16 16 18  9  7]"
6100,325.0,0.953125,8,2,52.7482225894928,8.472962379455566,3344,25424,304638,2099793,"[ 1  2  0  5  3  2  2  2  0  0  1  3  1  1  3  0  4  8  2  1  3  1  7  5
  1  5  8  1  0  5  0 13  4  5  0  4  3  6 10  4  1  9  3  6  7  5 10  9
  4 15 13  0 18 11  4 14 17  5 16 18  5 15  3  2 15 21  5  2 18  2 16  3
  2 16  2 16 18  9  7]"
6200,325.0,0.953125,8,2,53.6093316078186,8.611090183258057,3402,25824,309261,2136783,"[ 1  2  0  5  3  2  2  2  0  0  1  3  1  1  3  0  4  8  2  1  3  3  7  0
  1  1  8  3  0  5  0 13  0  1  0 11  3  6 10  5 10 12  3  6  7  0 10  9
  2  1 18  0 17 15  4 17 16  3 11 17  3 15  2  4 16  1  4  2  2  4 20 20
  2 14  2 16 18  9  7]"
6300,325.0,0.953125,8,2,54.4790997505188,8.697681427001953,3452,26224,313973,2173964,"[ 1  2  0  5  0  1  2  2  0  0  1  3  1  1  3  0  4  8  2  1  3  3  2  3
  4  0  8  5  1  1  5 13  0  5  0 12  3  6 10  5  4 13  3  6  7  0 12 11
  2  1  0  0 17  1  0  3 17  5  1  1  3  1 17  3 20  1  4 21  1  0 20 22
  4 18 22 16 18  9  7]"
6400,325.0,0.953125,8,2,55.312191009521484,8.330912590026855,3507,26624,318605,2210472,"[ 1  2  0  4  0  0  2  2  0  0  1  3  1  1  3  0  4  8  2  1  3  3  2  8
  2  1  6  2  3  5  0  4  0  2 12  9  3  6 10  3 10  8  3  6  7  0  1  3
  0 14 15  4 13 11  2 12 15  3  1 18  1  3 19  2 19 21  4 15 16  5 16 19
  5 18 18 16 18  9  7]"
6500,325.0,0.953125,8,2,56.170374631881714,8.581836223602295,3558,27024,323263,2247566,"[ 1  2  0  3  0  0  2  2  0  0  1  3  1  1  3  0  4  8  2  1  3  0  7  8
  1  4  6  1  3  2  0  9  8  1 12  2  3  6 10  2 10 12  3  6  7  5 17 10
  0 17  3  1 13  1  0  3 14  3 12 16  1  3 17  0 22 15  5 15  0  3 17 21
  1  0 18 16 18  9  7]"
6600,325.0,0.953125,8,2,57.04435634613037,8.739817142486572,3615,27424,327900,2284582,"[ 1  2  0  3  2  0  2  2  0  0  1  3  1  1  3  0  4  8  2  1  3  4  7  6
  0  4  6  1  3  0  3  9  2  0  3  2  3  6 10  2 10 12  3  6  7  5  3 10
  4 17 14  0 10  1  3 13 12  4 14 17  0  3 22  0 22 15  5 15 14  3 20 17
  1  2 22 16 18  9  7]"
6700,325.0,0.953125,8,2,57.88852119445801,8.441648483276367,3661,27824,332489,2321171,"[ 1  2  0  4  3  0  2  2  0  0  1  3  1  1  3  0  4  8  2  1  3  4  7  5
  3  2  7  3  6  5  3 10  2  1 12 12  3  6 10  0 11 11  3  6  7  5  3  0
  0 18 14  4 18  0  2 16 13  2 11 18  5 14  1  0 21 23  3 15 20  4 18  3
  1 14  0 16 18  9  7]"
6800,325.0,0.953125,8,2,58.72926688194275,8.407456874847412,3713,28224,337003,2357173,"[ 1  2  0  5  1  2  2  2  0  0  1  3  1  1  3  0  4  8  2  1  3  4  3  3
  1  2  1  3  8  5  3 12 11  2 12 10  3  6 10  4 11 11  3  6  7  5  3  0
  4 15 17  4 12  2  4 15 14  2 16 17  4 22 20  0 20 15  3  2 18  5 20 19
  4 15 14 16 18  9  7]"
6900,325.0,0.953125,8,2,59.581002712249756,8.517358303070068,3774,28624,341554,2393321,"[ 1  2  0  3  1  2  2  2  0  0  1  3  1  1  3  0  4  8  2  1  3  5  3  0
  4  1  5  2  8  5  2 13  6  2 11 12  3  6 10  2 11  6  3  6  7  4 11  0
  3 15 13  5 16  2  3  9  9  5  0 17  3 15 15  1 21 15  5  0 17  5 22 21
  3  2  1 16 18  9  7]"
7000,325.0,0.953125,8,2,60.437495946884155,8.564932346343994,3831,29024,346046,2429164,"[ 1  2  0  2  1  2  2  2  0  0  1  3  1  1  3  0  4  8  2  1  3  5  3  3
  4  6  6  0  8  5  4 13  6  5  7  3  3  6 10  2  9 10  3  6  7  2  9 16
  1 10 11  5 18 17  3 13  9  1  3  3  3 19  2  5 21 20  3  0 23  3 17 23
  3  2  1 16 18  9  7]"
7100,325.0,0.953125,8,2,61.29463028907776,8.571343421936035,3886,29424,350691,2466146,"[ 1  2  0  5  1  2  2  2  0  0  1  3  1  1  3  0  4  8  2  1  3  5  3  3
  4  3  3  1  5  5  4  1  5  3  6  5  3  6 10  0  9 13  3  6  7  2 13 16
  3 14 14  5 13  1  3 11  9  0 16 14  3  3  2  2 21  3  1 23 14  4 19 20
  3  2 16 16 18  9  7]"
7200,325.0,0.953125,8,2,62.154139041900635,8.59508752822876,3939,29824,355340,2502846,"[ 1  2  0  4  0  0  2  2  0  0  1  3  1  1  3  0  4  8  2  1  3  2  3  3
  4  5  4  0  0  8  4  1  4  1  3  7  3  6 10  4  9  4  3  6  7  2 13 12
  1 11  1  0 11  1  3 14  9  3  2 14  3  3 17  2 15 15  1 23 15  0 19 20
  5 22 14 16 18  9  7]"
7300,325.0,0.953125,8,2,62.978647232055664,8.245081901550293,3996,30224,359814,2538440,"[ 1  2  0  4  0  3  2  2  0  0  1  3  1  1  3  0  4  8  2  1  3  0  0  0
  0  8  7  3  1  8  4  4  4  0  3  0  3  6 10  2  8 13  3  6  7  2  1 17
  1 15  1  4 11  1  5 14 12  5 11 10  5  2 17  1 14 21  5 20 20  3 19 16
  5  1 16 16 18  9  7]"
7400,325.0,0.953125,8,2,63.846503019332886,8.678557872772217,4048,30624,364473,2575344,"[ 1  2  0  3  0  3  2  2  0  0  1  3  1  1  3  0  4  8  2  1  3  0  4  3
  0  8  7  4  6  8  2  2 13  3  6  8  3  6 10  2  6  2  3  6  7  2 18 17
  0  2 10  3  9 16  0 16 12  2 12 11  5 22 16  2 14 17  3 21 20  2 18 15
  4 15 14 16 18  9  7]"
7500,325.0,0.953125,8,2,64.71059226989746,8.640892505645752,4108,31024,369167,2612655,"[ 1  2  0  4  0  2  2  2  0  0  1  3  1  1  3  0  4  8  2  1  3  5  1  0
  2  5  7  4  6  1  2  4  1  4  9 12  3  6 10  2  3  9  3  6  7  5 18  2
  0 11 16  3  9 16  0 16 15  5  3 18  5 16 21  4 22 17  2 19 16  3 23 16
  4 16 20 16 18  9  7]"
7600,325.0,0.953125,8,2,65.56255531311035,8.519630432128906,4164,31424,373806,2649404,"[ 1  2  0  5  0  3  2  2  0  0  1  3  1  1  3  0  4  8  2  1  3  0  0  4
  2  4  7  2  1  6  2  4  1  4  1 12  3  6 10  2  3 12  3  6  7  2  0  2
  3 18 16  5 14  2  2 17 15  5  3  3  5  3 21  4  2 23  4 19 21  3 23 18
  3 14 19 16 18  9  7]"
7700,325.0,0.953125,8,2,66.45428657531738,8.917312622070312,4214,31824,378321,2684999,"[ 1  2  0  2  1  0  2  2  0  0  1  3  1  1  3  0  4  8  2  1  3  4  0  8
  4  3  8  0  1  3  2  0 12  5  1  3  3  6 10  4  8  0  3  6  7  4 16 10
  1 10 16  0 14 18  3  3 15  1 12 16  0  0 22  1 16 15  0 19 17  5 19 16
  3 15 18 16 18  9  7]"
7800,325.0,0.953125,8,2,67.2978127002716,8.435261249542236,4271,32224,382861,2720958,"[ 1  2  0  4  1  0  2  2  0  0  1  3  1  1  3  0  4  8  2  1  3  1  2  1
  3  4  1  0  2  0  2  0  4  3 11  3  3  6 10  0  7  5  3  6  7  4  0 14
  0  1 10  2 15  0  3  3 16  3 12 13  4 20 21  1  0 17  5 21 19  5 19 22
  0 20  0 16 18  9  7]"
7900,325.0,0.953125,8,2,68.35928797721863,10.614752769470215,4325,32624,387670,2758930,"[ 1  2  0  2  1  0  2  2  0  0  1  3  1  1  3  0  4  8  2  1  3  1  3  1
  1  2  3  1  5  5  3 12  8  1  3  3  3  6 10  2 12  8  3  6  7  5  0 14
  1 14  9  4 15  2  1 12  0  3  0 13  4  2 18  1 20 15  5 21 14  3 22 22
  3 15  3 16 18  9  7]"
8000,325.0,0.953125,8,2,69.37414121627808,10.148532390594482,4377,33024,392361,2795960,"[ 1  2  0  3  3  0  2  2  0  0  1  3  1  1  3  0  4  8  2  1  3  1  3  2
  2  7  0  1  7  0  2 10  8  2 12  2  3  6 10  2  7  8  3  6  7  5  9 18
  2 11 10  1 15 14  2 13 17  4 15  3  3  2  3  5 22 15  1 21 14  5 18 19
  5 16 17 16 18  9  7]"
8100,325.0,0.953125,8,2,70.21038460731506,8.362433910369873,4429,33424,396919,2831968,"[ 1  2  0  5  1  0  2  2  0  0  1  3  1  1  3  0  4  8  2  1  3  0  6  8
  2  7  7  5  7  2  1  6 10  2  7 13  3  6 10  1  2  4  3  6  7  2 10  0
  2 11  2  4  3 17  2  3 11  3 16 17  3  2 16  2 15 22  1 16  0  5  3 23
  5 18 22 16 18  9  7]"
8200,325.0,0.953125,8,2,71.05782699584961,8.474423885345459,4476,33824,401472,2867992,"[ 1  2  0  3  2  1  2  2  0  0  1  3  1  1  3  0  4  8  2  1  3  1  6  1
  3  6  7  1  1  1  2  3  3  3  0  9  3  6 10  5 11 12  3  6  7  1 15  0
  2 15  0  1  3 17  3 14 14  4 18  1  5 17 23  2 15  3  4 19 22  1 17 15
  0  1  3 16 18  9  7]"
8300,325.0,0.953125,8,2,71.95972490310669,9.0189790725708,4534,34224,405935,2903508,"[ 1  2  0  3  0  0  2  2  0  0  1  3  1  1  3  0  4  8  2  1  3  1  7  6
  0  4  7  3  6  1  2 11  0  2 13 12  3  6 10  2  2  0  3  6  7  1  0  0
  2 16 16  5  3  2  5 17 14  5  3 16  1  0  2  0 15 17  0 19 22  0 14 15
  3  3  2 16 18  9  7]"
8400,325.0,0.953125,8,2,72.82468223571777,8.64957332611084,4585,34624,410599,2940633,"[ 1  2  0  0  1  0  2  2  0  0  1  3  1  1  3  0  4  8  2  1  3  1  7  6
  4  7  4  4  1  4  3 11 11  5 13  4  3  6 10  5  2  0  3  6  7  3  0  3
  5 13 16  5 17 18  3 10 14  5  3 16  3  3 19  1 14  3  5 19  1  0 21  0
  1 19 21 16 18  9  7]"
8500,325.0,0.953125,8,2,73.71297550201416,8.882932662963867,4642,35024,415263,2977564,"[ 1  2  0  0  0  2  2  2  0  0  1  3  1  1  3  0  4  8  2  1  3  1  7  5
  2  3  5  4  1  4  3 11 11  5  5  4  3  6 10  0  4  5  3  6  7  0  0  3
  1 12 16  1  0 18  4 10 14  3 12  9  4  3 19  0 14 19  4  2  0  4  3  0
  0 19 21 16 18  9  7]"
8600,325.0,0.953125,8,2,74.5616044998169,8.486289978027344,4690,35424,419883,3014200,"[ 1  2  0  0  1  3  2  2  0  0  1  3  1  1  3  0  4  8  2  1  3  1  4  8
  1  4  7  3  3  0  3  4  7  2  7  5  3  6 10  0  4  5  3  6  7  3  1  3
  4 12  2  3 14 18  3 17 16  5  9 18  2 21 17  0 21 19  4  2 14  4 17 23
  0 21 18 16 18  9  7]"
8700,325.0,0.953125,8,2,75.42230153083801,8.606970310211182,4743,35824,424569,3051409,"[ 1  2  0  0  1  0  2  2  0  0  1  3  1  1  3  0  4  8  2  1  3  3  3  5
  1  4  0  3  8  2  1 13  7  3  7 10  3  6 10  2  8 12  3  6  7  3 12 14
  1  3 17  1 17 15  1 17 16  2  1 10  0 18 23  2 16 21  4  0 18  3 22 20
  0 21 23 16 18  9  7]"
8800,325.0,0.953125,8,2,76.2536313533783,8.313298225402832,4791,36224,429086,3087449,"[ 1  2  0  1  1  0  2  2  0  0  1  3  1  1  3  1  7  7  2  1  3  4  8  7
  3  3  3  0  8  4  3  7  7  1  9  6  3  6 10  4 10  4  3  6  7  3  0  0
  4 12 14  0  0  1  5 14 11  0 14 10  4 22 19  4  2 19  0  0 17  3 15 14
  1 23 18 16 18 13  7]"
8900,325.0,0.953125,8,2,77.16733837127686,9.137070178985596,4848,36624,433645,3123554,"[ 1  2  0  1  1  3  2  2  0  0  1  3  1  1  2  5  7  7  2  1  3  2  7  2
  0  3  1  0  5  4  3  3  8  1 11  6  3  6 10  4 12 10  3  6  7  3  0 18
  3 16 16  4 10 18  5  3 12  0 14 15  3  0 19  3  3 22  3 19 14  1 15 21
  4  0 19 16 18 13  7]"
9000,325.0,0.953125,8,2,78.10465693473816,9.373185634613037,4900,37024,438295,3160402,"[ 1  2  0  1  1  3  2  2  0  0  1  3  0  1  0  5  7  2  2  1  3  5  6  2
  1  1  8  0  5  4  5  3 12  1  1  6  3  6 10  4 12 10  3  6  7  0  0 17
  3 17  1  0  2 14  4 14  1  2 14 15  5 18 18  1 18 22  2 22 19  0 22 17
  2 19 18 16 18 13  7]"
9100,325.0,0.953125,8,2,79.28371500968933,11.790580749511719,4953,37424,442986,3197756,"[ 1  2  0  1  1  3  2  2  0  0  1  3  0  1  0  2  1  2  2  1  3  4  3  7
  5  8  6  0  5  4  3 13  8  1  1  0  3  6 10  1 11  7  3  6  7  0  0  1
  2 10 17  0  2 11  2 18  0  3 16 18  0 19 18  4  0 19  3 22 14  4 15 17
  3 23 19 16 18 13  7]"
9200,325.0,0.953125,8,2,80.19964528083801,9.159302711486816,5006,37824,447567,3234261,"[ 1  2  0  1  1  3  2  2  0  0  1  3  1  3  0  3  1  3  2  1  3  2  5  6
  2  8  6  0  5  4  3 10  0  2  6  0  3  6 10  3 13  7  3  6  7  0 16 13
  5 14  0  5 16  0  2  3 18  0  3 18  3 14 16  2 17 22  3 22 14  0 15  0
  0 23 17 16 18 13  7]"
9300,325.0,0.953125,8,2,81.06881093978882,8.691656589508057,5063,38224,452304,3271794,"[ 1  2  0  1  1  3  2  2  0  0  1  3  5  2  2  3  4  8  2  1  3  0  6  7
  2  5  5  0  5  4  3  0  9  5  6  0  3  6 10  0 10  7  3  6  7  5 16 13
  2 18  1  3  2  0  4  3 18  0  3 15  2 20 16  3 17 17  1 19 15  0 15 15
  4 16 17 16 18 13  7]"
9400,325.0,0.953125,8,2,81.91306447982788,8.442535400390625,5115,38624,456926,3308198,"[ 1  2  0  1  1  3  2  2  0  0  1  3  1  0  2  3  5  8  2  1  3  2  6  5
  4  4  6  0  5  4  0  7  1  4  7  1  3  6 10  0  0  7  3  6  7  1 14 13
  2 11  9  3 18  0  1  3  1  4 11 15  2 16 16  4 15 21  0 14 21  0 15 15
  4 23 23 16 18 13  7]"
9500,325.0,0.953125,8,2,82.78472805023193,8.716635704040527,5166,39024,461596,3345412,"[ 1  2  0  1  1  3  2  2  0  0  1  3  4  0  2  0  4  8  2  1  3  0  6  2
  4  2  3  0  5  4  0  3  1  0  7  8  3  6 10  0 12 12  3  6  7  0 12  2
  2 15  9  5 17  1  4 12  9  1  1 15  4 22 23  2 22 15  1 14 21  5 21  3
  1 23  3 16 18 13  7]"
9600,325.0,0.953125,8,2,83.64320349693298,8.584754467010498,5216,39424,466174,3381497,"[ 1  2  0  1  1  3  2  2  0  0  1  3  2  0  3  4  0  6  2  1  3  5  6  7
  2  2  3  0  5  4  4 13  1  4  1 12  3  6 10  0  9 11  3  6  7  2 11 16
  5 12 12  0 17  0  3 12 11  1  1 12  3  0 22  2 17 21  4  3 19  0  3 21
  1 15  2 16 18 13  7]"
9700,325.0,0.953125,8,2,84.48495101928711,8.41747522354126,5264,39824,470785,3418239,"[ 1  2  0  1  1  3  2  2  0  0  1  3  3  2  3  4  5  5  2  1  3  2  0  0
  3  1  3  0  5  4  5  9  5  4  9 12  3  6 10  1 12  0  3  6  7  4 17 16
  3  9  0  0 18 15  5 17 11  1 17 16  1 16 21  1 17  1  1 17 18  2  1 19
  1 22  3 16 18 13  7]"
9800,325.0,0.953125,8,2,85.37156176567078,8.86610746383667,5318,40224,475522,3455934,"[ 1  2  0  1  1  3  2  2  0  0  1  3  0  2  1  5  7  5  2  1  3  5  4  3
  3  7  3  0  5  4  3 12  5  4  1  5  3  6 10  0  0  3  3  6  7  5 10 15
  2  0 16  5 18 17  5 15  2  2 18 18  0  1  1  1 23  3  1 16  0  2 18 19
  2 17 14 16 18 13  7]"
9900,325.0,0.953125,8,2,86.21316695213318,8.416051864624023,5376,40624,480050,3491898,"[ 1  2  0  1  1  3  2  2  0  0  1  3  3  0  1  2  6  5  2  1  3  3  6  6
  2  7  3  0  5  4  1  8  5  0  9  5  3  6 10  1  2 12  3  6  7  3 16 15
  3 17  2  0  1  9  4 15  9  3 18  9  5  1 21  2  1  3  0 18 19  3 22 16
  1 17 14 16 18 13  7]"
10000,325.0,0.953125,8,2,87.06689596176147,8.537290096282959,5434,41024,484738,3528994,"[ 1  2  0  1  1  3  2  2  0  0  1  3  4  1  3  1  0  0  2  1  3  5  5  8
  1  4  3  0  5  4  1  3 11  0  2 10  3  6 10  1  2  1  3  6  7  0 12 15
  1 11  2  0 16 17  3 10 15  5 16  2  5 23 21  2  1 19  0 16 23  2 20 20
  3  2  2 16 18 13  7]"
10100,325.0,0.953125,8,2,87.9108214378357,8.439254760742188,5490,41424,489314,3565317,"[ 1  2  0  1  1  3  2  2  0  0  1  3  3  2  1  1  8  3  2  1  3  1  5  7
  5  2  6  0  5  4  2  7 12  5  7  3  3  6 10  1  4  7  3  6  7  5 18 17
  4 11  0  4 11 17  0 10 13  5 16 16  5  1 21  5 19 19  1 16  0  5 20  1
  2 16  2 16 18 13  7]"
10200,325.0,0.953125,8,2,88.75359153747559,8.427700996398926,5532,41824,493971,3602238,"[ 1  2  0  1  1  3  2  2  0  0  1  3  5  2  0  2  7  5  2  1  3  1  1  3
  2  2  5  0  5  4  2  5 13  3 10  4  3  6 10  0  3  7  3  6  7  4 18  1
  3  1 11  4 11 18  5 17 10  0 16 16  5  1 23  1 23 16  4 15 19  3  3 14
  1 14 14 16 18 13  7]"
10300,325.0,0.953125,8,2,89.6080310344696,8.544394969940186,5593,42224,498586,3638678,"[ 1  2  0  1  1  3  2  2  0  0  1  3  3  1  1  0  2  2  2  1  3  1  0  0
  1  2  7  0  5  4  2  0 13  2 11 11  3  6 10  5  3  4  3  6  7  5 18  3
  2 17 11  2 15 16  5 11 10  5 12 11  2  1 23  2 23 23  2 15 18  3  3 15
  1  1 22 16 18 13  7]"
10400,325.0,0.953125,8,2,90.45411562919617,8.460845947265625,5640,42624,503041,3674181,"[ 1  2  0  1  1  3  2  2  0  0  1  3  3  2  1  4  2  6  2  1  3  4  0  7
  2  7  3  0  5  4  1 12  2  0  8  4  3  6 10  1 10 11  3  6  7  4 17 15
  3 13 15  5 15  9  0  0 13  4  0 11  0 23 23  4 23  0  0 14  1  0  3 14
  5  3 21 16 18 13  7]"
10500,325.0,0.953125,8,2,91.33144760131836,8.773319721221924,5687,43024,507639,3710832,"[ 1  2  0  1  1  3  2  2  0  0  1  3  4  3  2  0  4  6  2  1  3  4  5  7
  2  7  5  0  5  4  1  4  4  4  8  7  3  6 10  2 10  8  3  6  7  5 17 13
  1 15  0  5 16  2  0 17 18  3 11 11  2 23 23  2 18  0  0 20  2  2 14 17
  3 19 23 16 18 13  7]"
10600,325.0,0.953125,8,2,92.17799544334412,8.465478420257568,5735,43424,512210,3747243,"[ 1  2  0  1  1  3  2  2  0  0  1  3  4  0  2  0  3  4  2  1  3  4  5  4
  0  3  7  0  5  4  5 11  3  5  8 11  3  6 10  2 10  8  3  6  7  5  3 13
  0 10 12  1 10 18  0 15 13  3 16 14  5 18 16  1  2  3  4 20  0  2 15 22
  3 19 22 16 18 13  7]"
10700,325.0,0.953125,8,2,93.04577136039734,8.677759170532227,5794,43824,516625,3782220,"[ 1  2  0  1  1  3  2  2  0  0  1  3  4  0  2  5  6  3  2  1  3  3  5  1
  3  8  6  0  5  4  2  4  3  5 13  6  3  6 10  4 12 12  3  6  7  1 15 13
  1 12  3  1 16 18  3 12 11  1 18  1  5  1 21  2  1 15  4 20  2  2  2 22
  3 16 21 16 18 13  7]"
10800,325.0,0.953125,8,2,93.87934136390686,8.335700035095215,5848,44224,521121,3817960,"[ 1  2  0  1  1  3  2  2  0  0  1  3  2  0  3  5  3  1  2  1  3  3  3  4
  2  7  0  0  5  4  2  7  8  2 12  8  3  6 10  0  9 12  3  6  7  5  9 11
  1  1 15  2 13 18  0 12 16  1  2 14  5  1 21  0  2 19  3  1 16  5  2 22
  2 22 21 16 18 13  7]"
10900,325.0,0.953125,8,2,94.73921322822571,8.598718643188477,5903,44624,525741,3854713,"[ 1  2  0  1  1  3  2  2  0  0  1  3  2  1  3  0  0  1  2  1  3  0  3  4
  0  5  1  0  5  4  2  6  3  2 12  8  3  6  8  4 13 10  3  6  7  1  9  0
  3  0 15  2 12  2  0 18  2  4 13  0  5 15 22  3 15 19  5  1 15  3  0 18
  4 17 20 16 18 13  7]"
11000,325.0,0.953125,8,2,95.5799868106842,8.407735824584961,5959,45024,530338,3891023,"[ 1  2  0  1  1  3  2  2  0  0  1  3  2  1  3  2  0  8  0  0  5  2  2  4
  2  6  1  0  5  4  2  3 11  2  6  7  3  6  8  1  9  6  3  6  7  3  1  0
  5  0 12  1 17 15  0  9 11  3 12  2  2  2 21  5  2 19  4  1 23  2 17 22
  5 17  0 16 18 13  7]"
11100,325.0,0.953125,8,2,96.42306113243103,8.430743217468262,6006,45424,534906,3926847,"[ 1  2  0  1  1  3  2  2  0  0  1  3  2  1  3  5  5  6  4  7  2  3  8  6
  1  1  0  0  5  4  4  0 13  3  1  4  3  6  8  2  5  4  3  6  7  3  1  3
  5 16 16  0  3 11  0  2 11  4 17 17  5 16 23  3  2 23  0 21  3  4 17 15
  2 15 22 16 18 13  7]"
11200,325.0,0.953125,8,2,97.28769087791443,8.646297454833984,6059,45824,539583,3964084,"[ 1  2  0  1  1  3  2  2  0  0  1  3  2  1  3  5  8  0  0  5  1  2  1  8
  5  1  7  0  5  4  4  5 13  5 11 10  3  6  8  4  5  2  3  6  7  3  1 10
  5  1  0  4  3 14  2  2 11  4 17 17  5 20 23  3 15 23  0  3 19  1 17  1
  3  2 22 16 18 13  7]"
11300,325.0,0.953125,8,2,98.1292040348053,8.415131568908691,6112,46224,544064,3999581,"[ 1  2  0  1  1  3  2  2  0  0  1  3  2  1  3  4  2  2  2  5  4  3  1  4
  4  1  0  0  5  4  5  3 12  4  6 13  3  6  8  4  9  2  3  6  7  1 16 15
  3  2  1  0 16  9  2  2 14  2 17  9  0 15 23  3  0 15  2 18 23  5 19 18
  3 21  0 16 18 13  7]"
11400,325.0,0.953125,8,2,98.99544048309326,8.662364482879639,6162,46624,548685,4036124,"[ 1  2  0  1  1  3  2  2  0  0  1  3  2  1  3  2  2  7  2  0  8  5  2  4
  2  8  0  0  5  4  5  5  9  0  6 13  3  6  8  4  6  7  3  6  7  4 15 15
  5 16  1  3 13  9  0 18 14  2 17 11  0 15  2  5 20 15  4 18 14  2 19 19
  3 21  0 16 18 13  7]"
11500,325.0,0.953125,8,2,99.86241340637207,8.669729232788086,6199,47024,553409,4073615,"[ 1  2  0  1  1  3  2  2  0  0  1  3  2  1  3  0  7  5  4  2  3  3  0  4
  4  0  4  0  5  4  5  8  9  5  6  4  3  6  8  5  2  9  3  6  7  4 17 11
  5 14 18  3 13 11  2 18  2  1  9 14  1 21  2  2 17  0  0 20 23  2 20 21
  1 21 21 16 18 13  7]"
11600,325.0,0.953125,8,2,100.69730591773987,8.348925113677979,6252,47424,557912,4109072,"[ 1  2  0  1  1  3  2  2  0  0  1  3  2  1  3  5  6  5  3  5  8  0  3  4
  3  1  5  0  5  4  2  0  6  5  2  4  3  6  8  5  6  9  3  6  7  3 17 17
  1 15 10  1 13  0  2 16  9  1  9  1  0 21 23  4 17 20  3  1 23  2 22 18
  5 14 21 16 18 13  7]"
11700,325.0,0.953125,8,2,101.53947067260742,8.421647548675537,6298,47824,562453,4145096,"[ 1  2  0  1  1  3  2  2  0  0  1  3  2  1  3  5  7  2  4  5  3  5  0  1
  5  7  6  0  5  4  2 10 12  3  0  8  3  6  8  2  1  6  3  6  7  3 17 16
  3  2 18  3  0 13  3  2 10  0 17  1  4  2 16  4 19  1  3  3 23  2 19  2
  4 22  2 16 18 13  7]"
11800,325.0,0.953125,8,2,102.40060234069824,8.611316680908203,6348,48224,567152,4182144,"[ 1  2  0  1  1  3  2  2  0  0  1  3  2  1  3  1  8  1  5  0  2  5  2  5
  0  4  1  0  5  4  2  0  5  3 12  8  3  6  8  4  5  6  3  6  7  4  9 16
  3 16 12  5  1 13  3  2 16  0 16  1  4 23 18  0  1 18  0 14 20  1 22 23
  3  3  2 16 18 13  7]"
11900,325.0,0.953125,8,2,103.24126982688904,8.406674861907959,6394,48624,571708,4218063,"[ 1  2  0  1  1  3  2  2  0  0  1  3  2  1  3  4  4  6  5  7  2  3  7  4
  5  7  6  0  5  4  3 10 13  5 12  2  3  6  8  4  4  8  3  6  7  0 13 11
  1 13 15  0  9 13  3 10 16  3 16 15  4 23 21  1  3  3  0 15  0  0  2 23
  5  0 19 16 18 13  7]"
12000,325.0,0.953125,8,2,104.10624098777771,8.649711608886719,6443,49024,576364,4254948,"[ 1  2  0  1  1  3  2  2  0  0  1  3  2  1  3  0  7  6  0  8  1  0  2  6
  0  0  6  0  5  4  1  8 11  0 13 10  3  6  8  4  2  8  3  6  7  5 17 13
  2  0 17  2 15 13  1 12  0  0  1 17  5 19 19  3  3 14  0  1 23  0 23 22
  0 19 19 16 18 13  7]"
12100,325.0,0.953125,8,2,104.98072028160095,8.744792938232422,6491,49424,581040,4291922,"[ 1  2  0  1  1  3  2  2  0  0  1  3  2  1  3  3  4  3  4  8  0  0  4  2
  5  1  0  0  5  4  1  8  1  0  3 13  3  6  8  1  1  2  3  6  7  4 17 13
  0  9 18  0  9 10  1 14 11  5 10  1  4 19 16  1  0 14  3 20 23  0 20 15
  0 22  1 16 18 13  7]"
12200,325.0,0.953125,8,2,105.79926204681396,8.185417652130127,6549,49824,585487,4327149,"[ 1  2  0  1  1  3  2  2  0  0  1  3  2  1  3  5  6  3  3  0  0  0  6  0
  2  5  5  0  5  4  5 12  5  1  3  6  3  6  8  5  1 12  3  6  7  3  2 16
  4  9 13  0  9 13  1 16  0  5 18  1  2 15 16  4  0 22  3  2 21  0 20 15
  0 16  1 16 18 13  7]"
12300,325.0,0.953125,8,2,106.68161416053772,8.823521137237549,6599,50224,590195,4364502,"[ 1  2  0  1  1  3  2  2  0  0  1  3  2  1  3  2  8  5  3  0  6  3  0  6
  2  5  0  0  5  4  2  2  3  4  7  1  3  6  8  4  2 12  3  6  7  3 17 16
  5 17 17  0 16  1  2  3  0  4 18 15  2 15 17  0 18  2  2 16 18  4 20 15
  0  3 16 16 18 13  7]"
12400,325.0,0.953125,8,2,107.53428292274475,8.526687622070312,6648,50624,594856,4401342,"[ 1  2  0  1  1  3  2  2  0  0  1  3  2  1  3  0  7  5  2  0  1  1  0  0
  5  5  2  0  5  4  2  2 12  3  4  0  3  6  8  4  2  9  3  6  7  3 17 16
  4  9 17  0 11  9  2  0 11  0 13 12  1  1  0  3 23 23  3 14 15  4 20 21
  5 21 20 16 18 13  7]"
12500,325.0,0.953125,8,2,108.37571477890015,8.414318561553955,6695,51024,599424,4437265,"[ 1  2  0  1  1  3  2  2  0  0  1  3  2  1  3  3  0  5  4  7  7  1  4  6
  3  0  5  0  5  4  3  5 12  1  9 13  3  6  8  1  8 10  3  6  7  3  0 16
  3  9 14  1 13 10  2  0 11  2  0 12  3  1 14  2 21 18  4 14 16  1 16  2
  5 14 14 16 18 13  7]"
12600,325.0,0.953125,8,2,109.28453230857849,9.088175296783447,6751,51424,604066,4474096,"[ 1  2  0  1  1  3  2  2  0  0  1  3  2  1  3  0  4  1  0  0  5  0  5  8
  2  0  5  0  5  4  3 11 12  3  9  4  3  6  8  1  7  2  3  6  7  3  2 16
  1  2 11  0 11 17  4 18 11  2  0 18  3 16 20  3 21 23  4 19 16  3 16 17
  4 22 19 16 18 13  7]"
12700,325.0,0.953125,8,2,110.11567068099976,8.311383724212646,6806,51824,608576,4509828,"[ 1  2  0  1  1  3  2  2  0  0  1  3  2  1  3  0  6  8  1  6  3  5  6  6
  0  0  7  0  5  4  3  8  0  3  9  5  3  6  8  0  9  5  3  6  7  3 16  1
  4 18 14  4 18 11  4  9 11  2 10 13  3  2  0  3  1 22  4 17 17  4  2 17
  5 23 16 16 18 13  7]"
12800,325.0,0.953125,8,2,110.9698793888092,8.542087078094482,6850,52224,613158,4546222,"[ 1  2  0  1  1  3  2  2  0  0  1  3  2  1  3  0  6  4  2  5  3  2  5  6
  0  7  5  0  5  4  2 11  0  0  4  5  3  6  8  0 13  4  3  6  7  2 11 16
  5  9 14  0 14  1  5  2  0  2 13  9  0  2  2  0 20 18  0 19  0  1 21 14
  3 23 16 16 18 15  7]"
12900,325.0,0.953125,8,2,111.88085436820984,9.109749794006348,6901,52624,617756,4582671,"[ 1  2  0  1  1  3  2  2  0  0  1  3  2  1  3  0  8  1  2  5  8  4  5  6
  3  4  8  3  4  5  2  6  3  0  4  5  3  6  8  1 11  5  3  6  7  0 11  2
  0 15 14  3 18 12  4 18 13  3  3  0  1 20 21  1  2 17  4 19 16  0 15 16
  2 20  2 16 18 15  7]"
13000,325.0,0.953125,8,2,112.73330330848694,8.524489402770996,6950,53024,622354,4619341,"[ 1  2  0  1  1  3  2  2  0  0  1  3  2  1  3  2  8  7  2  5  4  4  5  1
  1  5  5  4  4  2  3 10  6  0  4  5  3  6  8  3 13  5  3  6  7  4 15 12
  2  3  0  3 18 12  5 12 13  3  2 14  1 21  0  1  0  2  4 14  0  0  2 16
  0 17 23 16 18 15  7]"
13100,325.0,0.953125,8,2,113.55928325653076,8.259799480438232,7011,53424,626870,4655084,"[ 1  2  0  1  1  3  2  2  0  0  1  3  2  1  3  5  3  7  5  2  6  4  1  2
  1  7  5  4  6  5  3 10  5  0  4  5  3  6  8  3 10  5  3  6  7  4  1 12
  5 13  9  2 18 12  5 11 13  2 10  1  5 21 19  1  2  2  4  3  1  0 15 14
  4  3 22 16 18 15  7]"
13200,325.0,0.953125,8,2,114.40912437438965,8.498411178588867,7059,53824,631496,4691689,"[ 1  2  0  1  1  3  2  2  0  0  1  3  2  1  3  4  3  7  3  5  3  5  8  4
  3  0  3  4  7  5  5 10  2  0  4  5  3  6  8  3  2  1  3  6  7  4  1 12
  3 10 12  2 12 12  5 18 13  1 10  9  5 14 22  1  0  2  5 18 21  2  2 21
  0 14  1 16 18 15  7]"
13300,325.0,0.953125,8,2,115.2509377002716,8.41813325881958,7106,54224,636098,4728099,"[ 1  2  0  1  1  3  2  2  0  0  1  3  2  1  3  2  0  6  5  2  7  4  5  0
  0  0  2  0  4  3  5  4  5  0  4  5  3  6  8  3  3  5  3  6  7  1 10 16
  5 13  2  0 11 10  0  3 18  3 18 11  0  2 17  0 21 17  0 23 21  0  1  3
  2 16  2 16 18 15  7]"
13400,325.0,0.953125,8,2,116.09628868103027,8.45350980758667,7155,54624,640665,4764249,"[ 1  2  0  1  1  3  2  2  0  0  1  3  2  1  3  2  3  8  5  3  3  4  5  8
  0  0  2  5  4  8  5  4  9  0  4  5  3  6  8  3 11  5  3  6  7  4 14 18
  2 13  3  4  2 10  0 15 18  1 13  3  0  3 17  0 21  0  0  0 18  1 20  3
  0  2 16 16 18 15  7]"
13500,325.0,0.953125,8,2,116.95161533355713,8.553266525268555,7203,55024,645308,4800878,"[ 1  2  0  1  1  3  2  2  0  0  1  3  2  1  3  0  0  3  0  1  5  3  1  5
  0  0  0  4  4  7  4 10  8  0  4  5  3  6  8  3  1  4  3  6  7  0 14 13
  2 13  2  1  2  3  0 15 11  1 17 12  0  2  3  2 22  0  3  0 17  2 18 20
  1 23  0 16 18 15  7]"
13600,325.0,0.953125,8,2,117.80171585083008,8.501005172729492,7253,55424,649983,4837681,"[ 1  2  0  1  1  3  2  2  0  0  1  3  2  1  3  4  4  4  0  0  5  0  3  5
  5  3  8  5  3  4  1  0  8  0  4  5  3  6  8  5  8 12  3  6  7  0  0  1
  2 13  2  1 11 10  3 17 10  2 17 15  0 22 14  2 22 15  3  2 20  0 23 20
  3 17 14 16 18 15  7]"
13700,325.0,0.953125,8,2,118.65612697601318,8.544111251831055,7290,55824,654629,4874511,"[ 1  2  0  1  1  3  2  2  0  0  1  3  2  1  3  3  1  2  0  2  2  1  3  5
  4  7  1  0  4  4  2 13  9  0  4  5  3  6  8  4  1 13  3  6  7  0 15 15
  0 15 17  0  1 10  3 15 13  4  3 16  0  1 14  4 22 22  1  2 14  0 23 21
  3 18 22 16 18 15  7]"
13800,325.0,0.953125,8,2,119.52654147148132,8.704144954681396,7336,56224,659341,4912045,"[ 1  2  0  1  1  3  2  2  0  0  1  3  2  1  3  2  1  0  4  8  4  4  1  8
  1  2  0  2  0  4  2  3  2  0  4  5  3  6  8  5  0  4  3  6  7  2  9 17
  2 13 17  0 18  2  4 10 18  1  9 14  5 20 19  3 18 14  1 19  1  3 16  3
  4  2 17 16 18 15  7]"
13900,325.0,0.953125,8,2,120.38195371627808,8.55412244796753,7386,56624,663991,4948867,"[ 1  2  0  1  1  3  2  2  0  0  1  3  2  1  3  3  1  4  1  8  0  1  7  1
  1  2  0  2  4  2  0  3  7  0 12  5  3  6  8  0  8  4  3  6  7  4 18 16
  5 16 17  0 18 12  5 12 11  4  1 14  0 18 15  3  1 22  4 19 17  3 23  1
  3 17 15 16 18 15  7]"
14000,325.0,0.953125,8,2,121.24304246902466,8.61088752746582,7438,57024,668489,4984539,"[ 3  0  0  1  1  3  2  2  0  0  1  3  2  1  3  0  0  8  4  2  6  1  5  1
  1  2  0  5  0  6  3 13  2  0 12  5  3  6  8  4 10  7  3  6  7  4  0 18
  3 13 14  3 18 12  4  9 13  0  2 17  5 18 22  4 20  2  4 17  0  3  2  3
  1  3 18 16 18 15  7]"
14100,325.0,0.953125,8,2,122.1040461063385,8.610036373138428,7491,57424,673108,5021217,"[ 5  3  2  1  1  3  2  2  0  0  1  3  2  1  3  0  3  7  4  0  6  1  5  4
  1  2  0  5  0  5  3 10  3  0 12  5  3  6  8  4 11  7  3  6  7  5  2 18
  5  2 14  3  0  0  2 13 13  0  1 17  0 19 20  0 20 20  4 14  1  5  3 22
  4 15  1 16 18 15  7]"
14200,325.0,0.953125,8,2,122.94076800346375,8.367218971252441,7538,57824,677613,5057149,"[ 5  1  2  1  1  3  2  2  0  0  1  3  2  1  3  2  6  2  4  1  4  1  4  4
  1  2  0  1  0  3  3 10  4  0 12  5  3  6  8  5  9 13  3  6  7  2 14 17
  2 11 15  3  9  0  0 13  3  0  3 15  0 19 23  4 17 14  0 23 15  5 22 21
  0 23 23 16 18 15  7]"
14300,325.0,0.953125,8,2,123.7935860157013,8.528180122375488,7587,58224,682154,5093156,"[ 1  1  2  1  1  3  2  2  0  0  1  3  2  1  3  2  4  5  4  5  6  1  4  3
  1  2  0  1  1  1  3 10  4  0 12  5  3  6  8  5  5  7  3  6  7  2 14 12
  5 18  3  2 17  3  4  9 17  4  0 15  3 19 23  3  2  0  1 16 17  1  0 15
  0 21  1 16 18 15  7]"
14400,325.0,0.953125,8,2,124.60954642295837,8.1596040725708,7636,58624,686607,5128789,"[ 4  1  3  1  1  3  2  2  0  0  1  3  2  1  3  2  4  8  5  0  6  0  1  8
  1  2  0  1  1  7  0  4  6  0 12  5  3  6  8  5  5 10  3  6  7  2 15 12
  0  2  0  4 10 12  3 17  2  0  2  2  1  2 18  4 23 23  5 22 20  2  0  1
  0 19  1 16 18 15  7]"
14500,325.0,0.953125,8,2,125.45479583740234,8.452494144439697,7683,59024,691214,5165323,"[ 1  3  0  1  1  3  2  2  0  0  1  3  2  1  3  5  3  2  4  0  8  2  3  2
  1  2  0  3  3  2  1  6  1  0 12  5  3  6  8  0 12 10  3  6  7  5 10 13
  0  2  0  4 10 10  3 17  2  1 12 12  4 21 14  3 15 21  1 22 21  3 20 17
  2 23  3 16 18 15  7]"
14600,325.0,0.953125,8,2,126.34308075904846,8.882849216461182,7732,59424,695729,5201269,"[ 3  0  3  1  1  3  2  2  0  0  1  3  2  1  3  2  8  2  2  4  4  0  0  1
  1  2  0  2  2  2  1  9 12  0 12  5  3  6  8  1 12  4  3  6  7  3 13 13
  2  1 11  3 11 16  1 16 12  1  0  9  3 21 22  3 23 21  1 17 20  4 22  3
  0  0  0 16 18 15  7]"
14700,325.0,0.953125,8,2,127.18874073028564,8.456599712371826,7781,59824,700137,5236529,"[ 0  1  3  1  1  3  2  2  0  0  1  3  2  1  3  4  8  3  1  3  1  2  0  5
  1  2  0  0  6  8  4  1  9  0 12  5  3  6  8  3  1  4  3  6  7  4 13  3
  3  3 10  2  2 12  4  1 12  1 18 18  2 18 16  4 23 23  2 17  2  1 23 15
  0  0 14 16 18 15  7]"
14800,325.0,0.953125,8,2,128.06585049629211,8.771097660064697,7842,60224,704636,5272395,"[ 3  1  3  1  1  3  2  2  0  0  1  3  2  1  3  4  8  2  5  1  7  0  0  5
  1  2  0  1  1  8  4  2  9  0 12  5  3  6  8  3  0 11  3  6  7  0 13 12
  1  1 10  5 16 14  1  1 16  1 15  9  2  3  3  5 23 18  2 19 17  1 23 15
  1  0 23 16 18 15  7]"
14900,325.0,0.953125,8,2,128.9142928123474,8.484423160552979,7898,60624,709162,5308307,"[ 3  0  3  1  1  3  2  2  0  0  1  3  2  1  3  3  4  1  3  6  7  0  0  8
  1  2  0  4  5  8  3  2  4  0 12  5  3  6  8  3  6 12  3  4  1  0 14  0
  5  0 10  1 12 14  1  3 16  1 13 17  2  1 20  5 23 16  2  2 17  1 20 15
  3  0 21 16 10 15  7]"
15000,329.0,0.96875,8,3,129.75552678108215,8.412339687347412,7942,61024,713472,5343754,"[ 0  0  3  4  1  0  2  2  0  0  1  3  2  1  3  0  8  4  3  6  7  0  0  0
  4  2  4  1  5  0  1 11  4  0 12  1  3  6  8  5  8  2  1 10  9  4 10 11
  3 14 10  4  2 15  4 16 10  0 13 18  5 19  2  5 17 23  3  1 17  1  2 14
  1  1 20 16 10 15  7]"
15100,330.0,0.96875,7,3,130.52217388153076,7.666471004486084,7992,61424,717645,5375567,"[ 0  0  3  0  1  1  2  2  0  0  1  3  4  1  3  5  5  8  3  6  7  3  8  6
  4  2  4  2  3  1  5  1  1  0 12  1  3  6 10  4  5  3  4 10  2  4  1  1
  0  0  9  3 17 13  5 13 10  0  9 16  0 19 23  1  2 18  3 21 14  0  2 19
  4 15 22 16 10 15  7]"
15200,330.0,0.96875,7,3,131.2028193473816,6.806454658508301,8044,61824,721436,5402066,"[ 0  0  3  5  1  1  2  2  0  0  1  3  0  1  2  5  8  3  3  6  7  3  0  0
  4  2  4  5  3  0  3  2  1  0 12  1  3  6 10  1 13  8  0 12  3  4  1  1
  3 16  9  4  9  3  2 10 17  0  9  1  2  0 23  3  2 18  3 17 21  3 17  1
  2 15 14 16 10 15  7]"
15300,330.0,0.96875,7,3,131.8351171016693,6.322977542877197,8097,62224,725040,5427103,"[ 0  0  3  0  2  3  2  2  0  0  1  3  2  2  3  0  6  0  3  6  7  4  0  3
  4  2  4  4  3  1  0  4  7  0 12  1  5  6 10  3  5 11  0 12  8  4 15  2
  4 10 10  2 10 13  3 13 18  3  1 10  2  3 18  5 20 17  2 20 20  5 22 15
  4  2 16 16 10 15  7]"
15400,330.0,0.96875,7,3,132.50423908233643,6.691219806671143,8141,62624,728836,5453419,"[ 0  0  3  0  1  0  2  2  0  0  1  3  2  1  3  3  2  5  3  6  7  0  8  3
  4  2  4  4  7  1  1  1 13  0 12  1  3  6 10  2  9 11  2  4 10  2 17 11
  1 18 12  5  2 11  0 16 18  3  3  0  5 23 23  5  1 15  5  3  1  5 15 15
  1 16  1 16 10 15  7]"
15500,330.0,0.96875,7,3,133.17739295959473,6.731538772583008,8197,63024,732636,5479836,"[ 0  0  3  3  0  2  2  2  0  0  1  3  5  2  2  5  2  2  3  6  7  0  3  3
  4  2  4  1  5  1  1  5  2  0 12  1  5  6 10  5 11  7  1  0  0  3 13 11
  0 18 17  1  2  2  2  0 12  3 15  2  4 21 17  3 19 15  1 22  2  0 19 20
  3 15 23 16 10 15  7]"
15600,330.0,0.96875,7,3,133.86981892585754,6.924259662628174,8243,63424,736541,5507180,"[ 0  0  3  4  0  0  2  2  0  0  1  3  4  2  2  0  0  0  3  6  7  0  3  8
  4  2  4  1  1  4  5  5  6  0 12  1  3  6 10  1  1  4  4  3 10  3 13  3
  0  3 10  4 14 18  0 14 12  4  2  1  0 16  2  0  0  3  0 19  3  0  2 22
  0  3  1 16 10 15  7]"
15700,330.0,0.96875,7,3,134.57726216316223,7.074432373046875,8293,63824,740372,5533936,"[ 0  0  3  1  0  0  2  2  0  0  1  3  4  3  2  2  6  8  3  6  7  3  5  7
  4  2  4  2  8  4  4 11  7  0 12  1  5  6 10  3  8  7  5 10 11  3 10  3
  4  3  0  5 14  9  4 14 14  1  3  3  0 20 23  2 16 18  3 22 15  0 18 15
  4  3  2 16 10 15  7]"
15800,330.0,0.96875,7,3,135.32090973854065,7.43647575378418,8349,64224,744133,5560247,"[ 0  0  3  3  1  1  2  2  0  0  1  3  0  3  2  0  4  1  3  6  7  3  1  7
  4  2  4  0  0  7  5  1  3  0 12  1  3  6 10  0 10 10  5 13  6  4 10 18
  1 15  0  3 12 12  0 14 14  5  2 17  2 14 14  2  3 18  2 22  2  2 18 20
  4  1 17 16 10 15  7]"
15900,330.0,0.96875,7,3,136.01964592933655,6.987361907958984,8399,64624,747888,5586421,"[ 0  0  3  3  3  3  2  2  0  0  1  3  5  1  2  5  3  6  3  6  7  1  1  4
  4  2  4  5  4  4  2  9  8  0 12  1  3  6 10  5 10  7  1  8  8  4  3  1
  0 14 16  3  9  2  1 13 17  3 14  9  5  1 14  3 14 22  2 20 15  5  2 17
  1  1 17 16 10 15  7]"
16000,334.0,0.984375,8,3,136.66202878952026,6.423828601837158,8450,65024,750906,5610428,"[ 0  0  3  3  0  3  2  2  0  0  1  3  1  0  3  4  3  6  3  6  7  1  1  4
  4  2  4  5  2  4  4  5  8  0 12 11  3  6 10  5  3 12  1  1  8  4  3 12
  3 14 16  1 16 10  4 16 12  2 14 13  5  3 14  2 21 16  3 20 20  0  2 23
  1  1 23 16 10 15  7]"
16100,334.0,0.984375,8,3,137.35802149772644,6.959927082061768,8501,65424,754181,5636663,"[ 0  0  3  3  2  2  2  2  0  0  1  3  3  1  3  4  3  8  3  6  7  1  1  4
  4  2  4  4  8  4  0  5 10  0 12 11  3  6 10  3 10 12  1  3  8  4  3 12
  0 14 11  1 16 10  4 17 12  0  1  0  5 22  2  5 14 16  4 19 19  0 21 18
  1 14 16 16 10 15  7]"
16200,334.0,0.984375,8,3,137.9911561012268,6.331346035003662,8556,65824,757269,5661559,"[ 0  0  3  4  1  0  2  2  0  0  1  3  5  1  3  4  3  5  3  6  7  1  1  4
  4  2  4  5  8  4  0  7  0  0 12 11  3  6 10  3 10 12  3 13  8  2 13  0
  5 14 11  1 16 10  4 11 10  1 10  0  5 22 15  1  0 15  2 17 19  0 20 20
  1 22  0 16 10 15  7]"
16300,334.0,0.984375,8,3,138.65931963920593,6.68163537979126,8601,66224,760365,5686437,"[ 0  0  3  1  1  1  2  2  0  0  1  3  1  3  1  4  7  4  3  6  7  4  1  4
  1  2  4  4  8  1  3  9  6  0 12 11  5  6 10  5  7  8  2 11  8  0 17 12
  2 16 18  1 16 16  3 11 14  3 12 18  5 18  0  1 19 22  2 21  1  1  3 17
  4 21 23 16 10 15  7]"
16400,334.0,0.984375,8,3,139.2555549144745,5.962352752685547,8658,66624,763346,5710288,"[ 0  0  3  4  3  1  2  2  0  0  1  3  1  2  0  4  7  4  3  6  7  4  1  4
  1  2  4  1  2  8  3  9  6  0 12 11  3  6 10  1  2  6  5  1  4  4 17  2
  2 16 15  0  1  3  2 18 14  1 12 18  5 21  0  5  1 22  3  0 15  5 16 20
  5 21 23 16 10 15  7]"
16500,334.0,0.984375,8,3,139.8966567516327,6.411018371582031,8708,67024,766516,5735718,"[ 0  0  3  1  3  2  2  2  0  0  1  3  1  3  0  3  7  6  3  6  7  1  1  4
  4  2  4  0  6  8  5  4  1  0 12 11  3  6 10  5 13  1  5  8  4  4 15  0
  4 13 15  0 12  3  3 18  2  1 13  9  2 21 17  1 20  1  0 14  2  1  1 18
  2 21 15 16 10 15  7]"
16600,334.0,0.984375,8,3,140.55311369895935,6.564569473266602,8769,67424,769767,5761709,"[ 0  0  3  0  2  1  2  2  0  0  1  3  0  3  1  4  6  6  3  6  7  1  1  4
  4  2  4  5  5  0  1  4  8  0 12 11  3  6 10  0 12  1  0 11 11  4 13  0
  1 13  3  1  1 11  0 18  1  4 10  9  2 14 17  1  2  1  2 14 16  0  3 18
  5 16 20 16 10 15  7]"
16700,334.0,0.984375,8,3,141.19508743286133,6.419737339019775,8817,67824,773004,5787606,"[ 0  0  3  5  2  2  2  2  0  0  1  3  0  2  0  5  1  5  3  6  7  4  1  4
  1  2  4  3  3  3  2 11 10  0 12 11  5  6 10  0  2  1  1  4  0  1 12 14
  2  9  2  4  1 11  5 16 15  4 14  1  3 23 22  5  2 15  5 15 15  0 23 18
  0 14 17 16 10 15  7]"
16800,334.0,0.984375,8,3,141.85841989517212,6.63332462310791,8864,68224,776240,5813502,"[ 0  0  3  1  0  2  2  2  0  0  1  3  3  1  3  3  3  4  3  6  7  4  1  4
  1  2  4  4  8  3  5  1  3  0 12 11  3  6 10  5  2  5  4  1  3  0 12 14
  2 13 15  0 15  1  2 16  9  0 15 17  2 15 14  2  2 15  2 22  3  5  1 15
  1 15 16 16 10 15  7]"
16900,334.0,0.984375,8,3,142.48675441741943,6.2833452224731445,8911,68624,779318,5838056,"[ 0  0  3  4  2  0  2  2  0  0  1  3  5  3  0  4  2  8  3  6  7  1  1  4
  4  2  4  4  8  7  4  1  5  0 12 11  5  6 10  2  2  4  3  3  0  1  2  2
  2 13 17  0 17 10  2 15 15  1 15 14  3 20 17  1  0 18  2 16 19  4  1  0
  2 19  0 16 10 15  7]"
17000,334.0,0.984375,8,3,143.09212374687195,6.0536932945251465,8967,69024,782233,5861430,"[ 0  0  3  4  2  0  2  2  0  0  1  3  2  2  1  4  4  1  3  6  7  1  1  4
  1  2  4  1  8  7  2  8 11  0 12 11  5  6 10  4  2 12  3  8  2  3  2  2
  2 17 17  2 17 10  1 12 14  1  1  3  4 15 17  5  1 21  1  2 19  4  3 19
  2 23  0 16 10 15  7]"
17100,334.0,0.984375,8,3,143.72923183441162,6.3710808753967285,9017,69424,785414,5886826,"[ 0  0  3  4  2  0  2  2  0  0  1  3  0  2  2  3  4  4  3  6  7  1  1  4
  1  2  4  3  4  2  3  3 11  0 12 11  3  6 10  4  2  0  5  5  4  3 12  3
  4  0 16  5 16  0  4 13  1  1 10  9  3 23 17  4  1  0  5  2 22  2 23 19
  2 21 14 16 10 15  7]"
17200,334.0,0.984375,8,3,144.36093020439148,6.316983699798584,9068,69824,788533,5911817,"[ 0  0  3  4  0  1  2  2  0  0  1  3  0  0  1  3  0  7  3  6  7  1  1  4
  1  2  4  4  6  8  0  8 12  0 12 11  3  6 10  0  2 11  5  9  8  5 18 17
  4 13 16  1  2  0  0 14 12  5  1  9  3 23  0  4  0  1  0 23 14  2 23 18
  4  1 14 16 10 15  7]"
17300,334.0,0.984375,8,3,145.08439898490906,7.234687805175781,9115,70224,791710,5937325,"[ 0  0  3  4  2  1  2  2  0  0  1  3  1  1  3  3  0  0  3  6  7  1  1  4
  1  2  4  1  6  5  0 13  7  0 12 11  5  6 10  3  4 11  5 10  2  5 18  0
  3 10 17  1 13  9  4 16 12  5 12 12  0 17  0  1 22 23  4  2 14  0 15 15
  0  1 14 16 10 15  7]"
17400,334.0,0.984375,8,3,145.72199892997742,6.375999450683594,9165,70624,794760,5961715,"[ 0  0  3  1  0  1  2  2  0  0  1  3  2  3  3  0  3  0  3  6  7  1  1  4
  1  2  4  0  7  3  1  7  2  0 12 11  3  6 10  1  6  8  1 13  6  4 18  0
  3 10 15  5 17 17  5  2 15  5  0 14  5 17  0  5 22  3  2 16  3  5  3 15
  0 17  1 16 10 15  7]"
17500,334.0,0.984375,8,3,146.3334140777588,6.114151477813721,9221,71024,797808,5986134,"[ 0  0  3  2  0  3  2  2  0  0  1  3  2  3  3  3  0  1  3  6  7  4  1  4
  1  2  4  1  4  4  2 10  2  0 12 11  3  6 10  1  7  2  1  6 12  2 18 16
  3  9  9  4 17 15  4  3 13  5 15 14  5  2 21  2 22  3  3 14 17  5  3 15
  0 17  1 16 10 15  7]"
17600,334.0,0.984375,8,3,146.94762229919434,6.142082214355469,9279,71424,800865,6010668,"[ 0  0  3  5  2  3  2  2  0  0  1  3  4  3  0  3  0  7  3  6  7  4  1  4
  1  2  4  4  6  5  2 10  2  0 12 11  5  6 10  0  9 10  0  4  3  2 13 16
  5 11  9  5 17  0  2  3 18  5 18 14  5 21 19  4 21  3  3 19 16  5  3 15
  2  2 23 16 10 15  7]"
17700,334.0,0.984375,8,3,147.55242323875427,6.048009395599365,9330,71824,803872,6034705,"[ 0  0  3  0  1  2  2  2  0  0  1  3  2  1  1  4  0  7  3  6  7  1  1  4
  4  2  4  3  8  8  5 11  3  0 12 11  3  6 10  0 10  2  2  7  8  1  0 18
  1 16 13  1 17 17  3 11 18  0  1  3  0 21 21  2 20  3  3 14 17  1 20 14
  5  2 21 16 10 15  7]"
17800,334.0,0.984375,8,3,148.20267963409424,6.502563953399658,9379,72224,807068,6060219,"[ 0  0  3  0  2  0  2  2  0  0  1  3  5  1  2  4  2  7  3  6  7  1  1  4
  1  2  4  2  6  6  0  4 10  0 12 11  5  6 10  0  8  9  3  2  8  3 15 13
  5 12 17  2 16 18  3  1 12  1 14  3  1  2  1  3 18 17  3 14 15  3 20 14
  1 17 21 16 10 15  7]"
17900,334.0,0.984375,8,3,148.82707524299622,6.243956089019775,9433,72624,810181,6085015,"[ 0  0  3  3  2  0  2  2  0  0  1  3  4  1  0  4  2  5  3  6  7  4  1  4
  1  2  4  5  6  6  0  4 10  0 12 11  3  6 10  4 11  9  5  2  8  1 15 13
  0 12 15  4 12  9  4 14 17  1 16  3  1 17 22  3 18 19  0  0 22  0 21 16
  4 17  3 16 10 15  7]"
18000,334.0,0.984375,8,3,149.44781923294067,6.20743989944458,9483,73024,813258,6109667,"[ 0  0  3  3  2  1  2  2  0  0  1  3  3  3  2  4  6  0  3  6  7  4  1  4
  1  2  4  4  0  7  4 11  6  0 12 11  5  6 10  4  4  7  1  2  8  5 17  3
  0 17 13  0 14 18  5  2  2  1  3 16  4 17  2  1 21 17  0 16 22  5 15  2
  3 20  3 16 10 15  7]"
18100,334.0,0.984375,8,3,150.06974983215332,6.219305992126465,9530,73424,816310,6134116,"[ 0  0  3  2  3  3  2  2  0  0  1  3  0  0  1  1  6  3  3  6  7  4  1  4
  1  2  4  0  1  0  5 13  2  0 12 11  3  6 10  1  3  3  2  7 13  0 15  2
  4 10 13  4 10 18  5 11  0  2  3 15  4 20 17  1 17 21  5 16 22  0  2  2
  0 21  3 16 10 15  7]"
18200,334.0,0.984375,8,3,150.71969079971313,6.4994096755981445,9576,73824,819522,6159612,"[ 0  0  3  5  3  2  2  2  0  0  1  3  0  3  1  0  6  4  3  6  7  4  1  4
  1  2  4  2  1  6  5  7  4  0 12 11  5  6 10  5  9 13  2  7 10  0  2 16
  4 14 13  4 13  1  2 14 18  0  9 11  4 19  1  0 17 18  5  0 23  5 19 18
  2  1  1 16 10 15  7]"
18300,334.0,0.984375,8,3,151.349995136261,6.303043365478516,9628,74224,822657,6184773,"[ 0  0  3  4  1  0  2  2  0  0  1  3  0  0  1  4  6  2  3  6  7  1  1  4
  1  2  4  1  4  4  5 13  4  0 12 11  3  6 10  3 13  4  2  4  9  0 13  0
  1 14  0  5  2 15  0 11 17  2 13 14  5  3  0  0 18 18  5 23 17  3 20 20
  3 16 17 16 10 15  7]"
18400,334.0,0.984375,8,3,152.00151348114014,6.515183448791504,9675,74624,825897,6210757,"[ 0  0  3  3  3  0  2  2  0  0  1  3  4  2  1  1  6  8  3  6  7  4  1  4
  1  2  4  5  4  3  0  4 13  0 12 11  5  6 10  3 13  4  3  0 10  0 11  0
  3 11  2  3  1 12  3 18 11  5 10 11  4 17  0  4 21 21  2  3 19  1 20 20
  3 17 23 16 10 15  7]"
18500,334.0,0.984375,8,3,152.6174693107605,6.159558296203613,9727,75024,828968,6235167,"[ 0  0  3  4  2  0  2  2  0  0  1  3  2  2  2  1  6  3  3  6  7  4  1  4
  1  2  4  5  3  6  3  9 13  0 12 11  3  6 10  1 10  4  2  0 11  0  9 11
  1  9  2  1  0 13  0  3 13  1 10 10  4 18  0  2  1 21  3  3 21  4 18  3
  1  0 21 16 10 15  7]"
18600,334.0,0.984375,8,3,153.2393398284912,6.218705177307129,9786,75424,832075,6259911,"[ 0  0  3  4  1  0  2  2  0  0  1  3  4  2  2  2  6  1  3  6  7  1  1  4
  1  2  4  0  5  1  5 10 13  0 12 11  3  6 10  1  1  1  2  0 11  0 18  2
  1  9 12  1  0 13  1  3 17  1  0  9  3 20  1  3 20 21  2  2 21  4 21  3
  0 22 19 16 10 15  7]"
18700,334.0,0.984375,8,3,153.85868430137634,6.193444728851318,9841,75824,835135,6284602,"[ 0  0  3  3  1  0  2  2  0  0  1  3  2  0  2  3  1  6  3  6  7  4  1  4
  1  2  4  5  5  5  5 10 13  0 12 11  3  6 10  0  2  1  2 11  8  4 15 14
  5  9  0  1  0  1  4 17 14  4 14  1  3 19  1  3  0 21  5  2 15  0 21  3
  0  3 19 16 10 15  7]"
18800,334.0,0.984375,8,3,154.45129251480103,5.926082134246826,9902,76224,837999,6307702,"[ 0  0  3  3  1  1  2  2  0  0  1  3  4  0  1  0  1  6  3  6  7  1  1  4
  1  2  4  5  0  2  3 12 10  0 12 11  3  6 10  0  2  1  2 10  1  1 17  3
  5 13 15  1 11  9  4 17 14  5 14  1  3 19  1  5 14 21  0 22 19  2 18  3
  5  2 17 16 10 15  7]"
18900,334.0,0.984375,8,3,155.08191871643066,6.306262016296387,9956,76624,841087,6332305,"[ 0  0  3  1  1  0  2  2  0  0  1  3  1  2  0  0  1  6  3  6  7  1  1  4
  4  2  4  1  8  8  3 13 12  0 12 11  5  6 10  0 13  8  5 13 11  4  3  3
  4  0 15  5  2 11  5  9 10  5 12  3  2 19 22  1 14 21  4 22  2  1 21  3
  5  1  3 16 10 15  7]"
19000,334.0,0.984375,8,3,155.73583984375,6.539211273193359,10003,77024,844250,6357755,"[ 0  0  3  4  1  3  2  2  0  0  1  3  3  3  1  3  7  5  3  6  7  1  1  4
  1  2  4  0  2  8  0  0  5  0 12 11  5  6 10  3 12  2  5  9 10  0 12  3
  3  2  1  2  1  0  5 13 17  5  3 10  0 22  1  3 14 16  3 23 17  3 22 21
  4  3  3 16 10 15  7]"
19100,334.0,0.984375,8,3,156.3836088180542,6.477689743041992,10051,77424,847550,6384266,"[ 0  0  3  3  0  0  2  2  0  0  1  3  2  3  1  1  3  4  3  6  7  1  1  4
  4  2  4  4  7  0  0  1  5  0 12 11  5  6 10  3 12  1  5  3 12  0 12  0
  3 18  3  4 11  2  2 16 10  2 13  1  2  1 19  0 20  0  5 19 18  5 23 23
  2 16  3 16 10 15  7]"
19200,334.0,0.984375,8,3,157.008047580719,6.244387626647949,10110,77824,850571,6408441,"[ 0  0  3  2  1  2  2  2  0  0  1  3  5  3  2  1  6  4  3  6  7  1  1  4
  4  2  4  4  5  6  3  7  5  0 12 11  5  6 10  5 11 12  3  6  6  4  2 10
  3 13 13  0 18 13  4 10 14  3  2 17  2 21  2  1 23  0  5 17 18  0 19 23
  4  0  3 16 10 15  7]"
19300,334.0,0.984375,8,3,157.63865971565247,6.306121349334717,10153,78224,853671,6433422,"[ 0  0  3  4  1  3  2  2  0  0  1  3  2  3  0  5  0  2  3  6  7  1  1  4
  1  2  4  0  7  8  0 13  7  0 12 11  5  6 10  2 13  7  0  1  3  2  1 10
  0 10 14  3 18 14  3 13 11  1 16 15  2 17 21  1  1 16  2 20 18  0 21 23
  2  0  1 16 10 15  7]"
19400,334.0,0.984375,8,3,158.3053436279297,6.666839122772217,10196,78624,856789,6458267,"[ 0  0  3  4  1  3  2  2  0  0  1  3  1  3  2  3  7  1  3  6  7  1  1  4
  1  2  4  2  0  2  2  8 12  0 12 11  3  6 10  2 13  7  4  6  2  3  1 10
  0  9  0  4  9 18  0  3  9  2 10  1  5 17  0  5 22 20  3 14 18  2 21  3
  2 18 23 16 10 15  7]"
19500,334.0,0.984375,8,3,158.92099285125732,6.156492233276367,10255,79024,859875,6482786,"[ 0  0  3  2  1  1  2  2  0  0  1  3  1  0  2  4  1  1  3  6  7  1  1  4
  1  2  4  0  4  4  4 11  6  0 12 11  3  6 10  2 13  0  3  6 12  0  1 18
  2  2 10  2 17 18  2 16  9  5 10  1  2 20  0  5 22 19  3 14 19  2 21  0
  2  2  0 16 10 15  7]"
19600,334.0,0.984375,8,3,159.66175484657288,7.407619953155518,10306,79424,862972,6507612,"[ 0  0  3  3  2  1  2  2  0  0  1  3  4  1  2  5  7  4  3  6  7  4  1  4
  1  2  4  0  5  4  3  8  5  0 12 11  3  6 10  2  8  2  3  9  1  1  0  9
  2 16  2  2  0 14  1 16 14  3 13  0  2  2 23  1 21  0  3 19  2  2 21 15
  4  2  0 16 10 15  7]"
19700,334.0,0.984375,8,3,160.3113510608673,6.495962142944336,10359,79824,866179,6533311,"[ 0  0  3  2  0  1  2  2  0  0  1  3  4  1  0  1  0  7  3  6  7  1  1  4
  1  2  4  3  5  0  5  5  5  0 12 11  3  6 10  2 13 10  3  9  0  1 12  0
  2  2 13  1 12 12  1 14  2  0 13 18  2  0 23  1 19  0  1  0  1  3 18 15
  5 22 22 16 10 15  7]"
19800,334.0,0.984375,8,3,160.91944098472595,6.080899238586426,10416,80224,869154,6556978,"[ 0  0  3  2  0  3  2  2  0  0  1  3  0  1  3  5  4  0  3  6  7  1  1  4
  4  2  4  1  8  7  5 13  1  0 12 11  3  6 10  1  9 10  4  7  2  1 12 12
  5  9  0  5 12  3  3  9  2  0 18 14  3  0 21  3 22 22  4  0 16  2 21  3
  4 20 16 16 10 15  7]"
19900,334.0,0.984375,8,3,161.54632210731506,6.268811225891113,10467,80624,872237,6581840,"[ 0  0  3  2  1  2  2  2  0  0  1  3  5  1  3  1  6  0  3  6  7  4  1  4
  1  2  4  0  4  4  3 11  1  0 12 11  3  6 10  5  9  0  3  6  4  1 12 12
  4  9  0  1 13 10  1 18  2  5 10 17  3  0 16  1 22  3  0 21 17  0 21  3
  3 15  1 16 10 15  7]"
19968,340,1.0,9,3,162.01396226882935,6.877061198739445,10495,80896,874601,6600820,"[ 0  0  3  0  2  1  2  2  0  0  1  3  5  2  3  1  0  7  3  6  7  4  5  4
  1  2  4  1  6  4  4  0  6  0 12 11  3  6 10  1 11  5  0  4  9  4 12  3
  1  0  0  4 13  2  1 18 12  0 16 10  3 23 16  3  0 19  0  1 16  0 20 18
  3 16  1 16 10 15  7]"
20000,340,1.0,9,3,162.1986858844757,5.772612988948822,10511,81024,875378,6607744,"[ 0  0  3  0  2  1  2  2  0  0  1  3  5  1  3  1  3  7  3  6  7  4  5  4
  1  2  3  1  6  4  4  4  3  0 12 11  3  6 10  3 11  5  0  4  9  1  9  3
  1  0  0  3 13  2  1  0 12  0  0 10  5 23  2  0  1 19  0  3 16  0 20 23
  5 18  1 16 10 15  7]"
20100,342,1.0,7,3,162.73502326011658,5.363373756408691,10553,81424,878059,6627934,"[ 0  0  3  0  2  1  2  2  0  0  1  3  0  2  0  3  2  6  3  6  7  4  5  4
  2  8  4  2  2  6  3 10  1  1 12  3  5  6 10  2 11  2  0  5  7  1  1 11
  5 13  9  2 14 16  5 18 11  5 14  9  5 18 20  5 21 15  1 14 18  3 20 17
  5 18  1 16 10 11  7]"
20200,342,1.0,7,3,163.19970989227295,4.646866321563721,10610,81824,880397,6644190,"[ 0  0  3  0  2  1  2  2  0  0  1  3  1  3  1  5  2  7  3  6  7  4  5  4
  2  4  4  4  6  0  3  8  1  0 12  4  5  6 10  4 13 12  4  5  0  0  1 18
  0  0 14  0 12  0  0 18 11  5 14 16  5 16 18  5 23 23  0  1 21  0 21 23
  0 18  1 16 10 11  7]"
20300,342,1.0,7,3,163.67968368530273,4.799737930297852,10658,82224,882823,6660998,"[ 0  0  3  0  2  1  2  2  0  0  1  3  0  2  0  3  1  2  3  6  7  4  5  4
  4  6  2  0  0  0  5  3 12  0  2  9  5  6 10  1  0  4  4 10  0  1 15 14
  1 11 15  1  3 18  1 17  1  0 13 15  3 16 15  2 16 23  5  1 14  3 20 22
  1 18 19 16 10 11  7]"
20400,342,1.0,7,3,164.1859610080719,5.06277322769165,10702,82624,885347,6678560,"[ 0  0  3  0  2  1  2  2  0  0  1  3  1  2  3  3  5  5  3  6  7  4  5  4
  2  3  6  0  0  3  1  0 10  1  1  3  3  6 10  2  8 11  4  5 10  4 14 13
  0  1 13  1 13 15  5 17 15  0 15  2  3 19 20  3 21 20  1 20  2  3 22 21
  3  1 16 16 10 11  7]"
20500,342,1.0,7,3,164.68903827667236,5.030772686004639,10754,83024,887853,6695954,"[ 0  0  3  0  2  1  2  2  0  0  1  3  3  2  3  1  5  5  3  6  7  4  5  4
  2  4  8  2  7  1  4  2 11  0  3  5  5  6 10  2  8 10  5 13  3  2 17 13
  2 11 13  1 13 14  5  3 14  0 15  0  4  3 21  0  0 22  5 15 15  3 16  1
  5 22 14 16 10 11  7]"
20600,342,1.0,7,3,165.20014452934265,5.111062526702881,10793,83424,890596,6715069,"[ 0  0  3  0  2  1  2  2  0  0  1  3  5  3  1  1  5  0  3  6  7  4  5  4
  0  4  1  2  3  3  2 13 11  3 10 12  5  6 10  3  5  7  3  5  0  0 11 10
  2 14 17  5 11 15  0  1  0  4 18  9  4 17 19  3 20  1  2 22  0  2 16 18
  5  2 18 16 10 11  7]"
20700,342,1.0,7,3,165.67891359329224,4.78769063949585,10844,83824,893006,6731840,"[ 0  0  3  0  2  1  2  2  0  0  1  3  2  3  1  1  1  7  3  6  7  4  5  4
  1  8  6  2  3  2  0 10  2  2  3 12  5  6 10  3  5  7  3  6  5  0 11 10
  5  1 18  1 17 15  2 13 11  2 11  1  5 19  0  3 20 21  4 16 19  3 18  0
  4  3  2 16 10 11  7]"
20800,342,1.0,7,3,166.17894196510315,5.000283718109131,10893,84224,895565,6749573,"[ 0  0  3  0  2  1  2  2  0  0  1  3  5  0  1  1  2  5  3  6  7  4  5  4
  1  8  4  2  8  6  3  4  2  0  7  1  3  6 10  1  5  2  4 13  2  4 14  3
  3 15  1  1 18  0  1 16  2  2  1 18  0 14 23  3 14  1  1 16 15  2 20 20
  0 16 20 16 10 11  7]"
20900,342,1.0,7,3,166.6539707183838,4.7502875328063965,10941,84624,897959,6766218,"[ 0  0  3  0  2  1  2  2  0  0  1  3  3  3  1  2  7  2  3  6  7  4  5  4
  5  6  4  3  7  2  3  7 10  1 11  2  5  6 10  4  3  4  4 13  0  0 14 12
  4 12 10  4  0  3  3 16  2  1 13 16  1  3 22  3 14 19  1  3  1  2 19  1
  2 15  2 16 10 11  7]"
21000,342,1.0,7,3,167.14520049095154,4.91229772567749,10993,85024,900434,6783299,"[ 0  0  3  0  2  1  2  2  0  0  1  3  3  1  2  2  4  5  3  6  7  4  5  4
  1  6  0  3  4  2  0  1  2  4  5  1  3  6 10  0 10  0  1  7  0  1 14  1
  1 12 15  5 17 12  2 16  2  3  2 16  3  0 17  5 14 21  1 18 17  2 18  2
  3 15 20 16 10 11  7]"
21100,342,1.0,8,2,167.66656684875488,5.213663578033447,11043,85424,903073,6802573,"[ 0  0  3  0  2  1  2  2  0  0  1  3  2  1  3  0  3  5  3  6  7  4  5  4
  1  1  0  5  3  7  5 12  4  4  3  6  3  6  8  2  7  4  2 11  9  1 18 11
  3  1 10  5  1 15  4 13 16  5  3  3  0 20 17  2 18 21  3 20 14  2 23 20
  0 14  2 16 10 11  7]"
21200,342,1.0,7,3,168.18309664726257,5.165297985076904,11085,85824,905742,6821339,"[ 0  0  3  0  2  1  2  2  0  0  1  3  2  1  3  1  8  0  3  6  7  4  5  4
  5  1  8  2  7  8  2  6  4  5  7  7  3  6 10  4  4  0  3 13  2  3 10 18
  3 12  0  1  2 16  4 14 16  5  0 17  4  0  1  3 14 19  0 18 22  4  3 20
  1 23 14 16 10 11  7]"
21300,342,1.0,8,2,168.75365376472473,5.705571174621582,11135,86224,908574,6843369,"[ 0  0  3  0  2  1  2  2  0  0  1  3  2  1  3  1  8  0  3  6  7  4  5  4
  5  5  2  2  7  4  0 12 12  0 12  8  3  6  8  1  1  1  3 13 12  0 14 14
  3 11 13  5  9 16  4  2  3  5 12  2  1  3  1  5 23 15  0 19 22  4 18 20
  5  1 18 16 10 11  7]"
21400,342,1.0,7,3,169.2580211162567,5.043673515319824,11188,86624,911111,6861503,"[ 0  0  3  0  2  1  2  2  0  0  1  3  4  1  3  2  4  0  3  6  7  4  5  4
  1  5  4  5  5  0  1 12  3  5  8  2  3  6 10  1 10  2  3  4  7  2 14  3
  0 13 10  0 15  1  2 11 17  5  1  3  5  3 20  4  1 15  4 19  0  2 18 20
  1 14 22 16 10 11  7]"
21500,342,1.0,8,2,169.78300833702087,5.249872207641602,11240,87024,913650,6880523,"[ 0  0  3  0  2  1  2  2  0  0  1  3  2  1  3  3  5  3  3  6  7  4  5  4
  0  7  7  5  0  2  3 11  0  1  4 10  3  6  8  1  6 12  0  9  7  0 14  9
  4  1  2  0 15  9  1  2  1  0 15 12  0 16 22  3 17 15  5 17 23  1  1 20
  1 14 18 16 10 11  7]"
21600,342,1.0,8,2,170.39804863929749,6.150403022766113,11290,87424,916711,6904679,"[ 0  0  3  0  2  1  2  2  0  0  1  3  2  1  3  4  5  4  3  6  7  4  5  4
  4  5  8  3  4  1  4  9 11  0  2  2  3  6  8  1  6  2  0  6  9  0 13  0
  1  3  3  1 17 12  4 10 18  0 16 16  1 22 15  5 21 15  5 15 17  0  0 19
  3  3 19 16 10 11  7]"
21700,342,1.0,7,3,170.94671249389648,5.48663854598999,11344,87824,919430,6925213,"[ 0  0  3  0  2  1  2  2  0  0  1  3  0  1  3  1  5  4  3  6  7  4  5  4
  4  0  0  5  5  1  4  9  7  4  7 13  3  6 10  1  6  5  0  6  7  2  0 13
  5 16  3  1  0 11  4 10 14  1  9 11  1 23 16  5  3 15  5 18 18  3 23 19
  3  3 20 16 10 11  7]"
21800,342,1.0,7,3,171.44640636444092,4.996938705444336,11391,88224,921993,6942997,"[ 0  0  3  0  2  1  2  2  0  0  1  3  0  2  3  1  8  2  3  6  7  4  5  4
  5  2  0  3  5  7  3  9  7  4  8 13  3  6 10  5  5  0  5  6  7  2  0 14
  5 16  3  3  3 16  4 10 16  0  9  0  1 20 16  3  3 17  3  0 15  4 15 19
  4 16  1 16 10 11  7]"
21900,342,1.0,7,3,171.95310735702515,5.067009925842285,11440,88624,924603,6961136,"[ 0  0  3  0  2  1  2  2  0  0  1  3  0  0  2  4  8  0  3  6  7  4  5  4
  5  5  5  3  2  4  4  0 12  4  3 12  3  6 10  4  1  7  0  6  6  1  1  0
  1  9 17  3 13 15  0 10 16  4  1  0  3 22 20  3  3 18  4 22 17  3 23 16
  2  2 14 16 10 11  7]"
22000,342,1.0,7,3,172.43581366539001,4.827063083648682,11492,89024,927034,6977954,"[ 0  0  3  0  2  1  2  2  0  0  1  3  0  1  3  1  7  7  3  6  7  4  5  4
  2  2  5  4  6  0  1 11 13  4 11  3  5  6 10  1  3  3  2  8  2  5 11 17
  3  9 14  0 16 16  2  3  2  4 16  1  4  0  1  2 21 22  4 21 17  1 23 22
  1  2  1 16 10 11  7]"
22100,342,1.0,7,3,172.9110701084137,4.752564430236816,11544,89424,929421,6994543,"[ 0  0  3  0  2  1  2  2  0  0  1  3  5  1  3  1  5  3  3  6  7  4  5  4
  2  8  0  3  0  6  1 11  8  0  4  3  5  6 10  1  0  9  1  5  7  0  3 16
  0  9 13  5 14  9  5  0 16  5 10 14  0  0 14  3 20  3  0  0 19  2 15  0
  1  2 15 16 10 11  7]"
22200,342,1.0,7,3,173.39550614356995,4.8443603515625,11597,89824,931947,7012093,"[ 0  0  3  0  2  1  2  2  0  0  1  3  1  3  2  3  4  0  3  6  7  4  5  4
  4  6  0  0  0  2  5  3 12  4  2 12  3  6 10  1  0  6  0  3  1  0  2  1
  5 16  0  3 17  9  5  1 15  4 16  0  5  2 18  3  1  0  4  0 14  4 14 23
  1 16 18 16 10 11  7]"
22300,342,1.0,7,3,173.9010841846466,5.055780410766602,11646,90224,934405,7029108,"[ 0  0  3  0  2  1  2  2  0  0  1  3  1  2  2  4  7  7  3  6  7  4  5  4
  4  4  3  0  1  6  5  6  1  4 11  0  3  6 10  0 12  2  3  0  3  0  3 16
  5  1  9  4 12 12  4  1 12  3 16  3  3 20 17  1 21  2  3 17 19  3 20 17
  3  3 18 16 10 11  7]"
22400,342,1.0,7,3,174.4322292804718,5.311450958251953,11683,90624,937125,7048069,"[ 0  0  3  0  2  1  2  2  0  0  1  3  0  2  2  3  2  4  3  6  7  4  5  4
  1  7  8  4  0  6  5  6  5  4 12  0  3  6 10  5 12  2  0  6  8  0  2 15
  2 11  9  2 17 14  0  1  2  3 16 13  3 22  1  4  1  2  2 16 21  1 15 22
  3 17 23 16 10 11  7]"
22500,342,1.0,7,3,174.92347812652588,4.9124884605407715,11736,91024,939572,7064991,"[ 0  0  3  0  2  1  2  2  0  0  1  3  3  3  2  4  7  2  3  6  7  4  5  4
  1  7  7  2  2  8  3  0  5  5 10  0  5  6 10  0 12  4  0  6  4  0  1 16
  2  3  0  4 15 14  0  1  2  1 16 14  1 17 21  4 23 14  4  3  3  3 15 14
  2  2  0 16 10 11  7]"
22600,342,1.0,7,3,175.38593888282776,4.624607563018799,11794,91424,941982,7081593,"[ 0  0  3  0  2  1  2  2  0  0  1  3  0  0  0  0  7  2  3  6  7  4  5  4
  2  7  2  1  3  5  3 11  2  4  9  5  5  6 10  3 12  2  5  6  4  0  1  2
  3 12 18  4 15  1  3  9 14  1 18 18  0 17 21  4 16 18  5 15 14  2 23  3
  4 20 15 16 10 11  7]"
22700,342,1.0,7,3,175.87973642349243,4.9379754066467285,11842,91824,944509,7099155,"[ 0  0  3  0  2  1  2  2  0  0  1  3  0  0  2  0  7  4  3  6  7  4  5  4
  0  4  2  1  3  0  2 11  1  4  4  3  5  6 10  1 12  2  5  6  4  5  3  0
  1 14 12  0  1 17  0 14 14  1 18 18  0 16 21  0 21 14  2 16  0  0  1 22
  5  0 18 16 10 11  7]"
22800,342,1.0,7,3,176.37000608444214,4.90269660949707,11883,92224,947038,7116686,"[ 0  0  3  0  2  1  2  2  0  0  1  3  1  0  2  2  4  4  3  6  7  4  5  4
  0  5  6  2  8  6  2  2 11  4 10  4  3  6 10  2  9  0  1  6 10  5  1 12
  4 11 11  0 15 16  2 16 18  1 11  3  2 16  2  0 23 20  2 17  0  3 23  1
  5  1 20 16 10 11  7]"
22900,342,1.0,7,3,176.8591811656952,4.891750812530518,11926,92624,949519,7133852,"[ 0  0  3  0  2  1  2  2  0  0  1  3  5  3  2  2  4  4  3  6  7  4  5  4
  4  5  7  1  0  1  2 13  6  1 13  7  5  6 10  5  3  0  4  6 13  1  2  1
  4 11  1  3  9  0  5 11 16  3 15 17  4 20 19  0 15  0  4  0  0  3 15 23
  2  2 22 16 10 11  7]"
23000,342,1.0,7,3,177.3459815979004,4.868004322052002,11972,93024,952033,7151356,"[ 0  0  3  0  2  1  2  2  0  0  1  3  2  1  1  2  5  8  3  6  7  4  5  4
  1  3  3  1  1  1  4  9  6  5  0  1  3  6 10  0  7  6  1  6 12  1 14  1
  2 13 10  5  0  2  0 15 12  0  3  9  2 21 16  1 14  0  5 18  3  2 14 17
  2  2  1 16 10 11  7]"
23100,342,1.0,7,3,177.83015608787537,4.841744899749756,12020,93424,954486,7168391,"[ 0  0  3  0  2  1  2  2  0  0  1  3  2  3  0  2  5  8  3  6  7  4  5  4
  2  4  2  1  6  1  0  2  5  5  5  1  5  6 10  0  5 12  3  6  5  3  9  3
  3  1 12  1 14  2  2  1 16  1 10 12  5  3 14  4  3 21  0 17  3  2  0 18
  1 19 23 16 10 11  7]"
23200,342,1.0,7,3,178.3374629020691,5.073068141937256,12064,93824,957135,7186839,"[ 0  0  3  0  2  1  2  2  0  0  1  3  4  0  2  1  8  4  3  6  7  4  5  4
  2  4  7  0  3  3  2 13  0  4 11 11  5  6 10  2  0  7  0  3  0  1  3  0
  0  9 18  2 16  9  4  1  3  4 17 12  3 14 16  0  3 21  5 17 17  0 19 18
  2 19  3 16 10 11  7]"
23300,342,1.0,7,3,178.8139727115631,4.7650980949401855,12112,94224,959590,7203835,"[ 0  0  3  0  2  1  2  2  0  0  1  3  0  0  3  4  7  6  3  6  7  4  5  4
  0  4  0  5  1  8  0 12  0  2  6  1  5  6 10  3  9  5  5 12  0  1  9  0
  0  3 13  1 16 18  4  2 10  4  9 17  3  0 14  0 17 15  0 15 17  4 14 18
  2 22 14 16 10 11  7]"
23400,342,1.0,7,3,179.33731198310852,5.233392715454102,12156,94624,962327,7222859,"[ 4  0  3  0  2  1  2  2  0  0  1  3  0  0  3  0  7  1  3  6  7  4  5  8
  0  3  5  0  3  8  4 12 10  3  9  6  3  6 10  2  9  8  5 12  9  2  2 14
  4 15  9  3  1  9  4 11  1  2 15 17  4 17 18  1 16  3  0 14 21  2 17 22
  5 20 22 16 10 11  7]"
23500,342,1.0,7,3,179.83038854599,4.930765628814697,12205,95024,964885,7240539,"[ 5  3  1  0  2  1  2  2  0  0  1  3  0  0  3  1  0  1  3  6  7  4  5  8
  4  1  6  1  5  6  4 12  8  5  4  1  5  6 10  2 10  3  3  5  7  1  3  0
  2 13  1  3  9  9  5 16 16  5  1 17  5 17 18  1 16 16  2  1  3  1 17 23
  5 17 23 16 10 11  7]"
23600,342,1.0,7,3,180.33711981773376,5.067312717437744,12256,95424,967553,7259081,"[ 1  3  1  0  2  1  2  2  0  0  1  3  0  0  3  4  0  8  3  6  7  4  5  8
  2  3  0  4  1  5  5  5  1  5  1  1  3  6 10  2 12 12  4 11  4  1 12 13
  4 13  1  1 17 14  0 12  9  1 14 11  1 16 15  4  2 15  4 19 15  2 19 22
  3  2 23 16 10 11  7]"
23700,342,1.0,7,3,180.81205439567566,4.749345779418945,12309,95824,969957,7275775,"[ 3  3  2  0  2  1  2  2  0  0  1  3  0  0  3  1  6  7  3  6  7  4  5  8
  2  4  0  4  1  8  4  3  1  2  0  3  5  6 10  2  5 12  4 12  0  3 12 16
  0  2 13  4 15 17  0 12 15  1  0  1  5 15 15  3  2 21  2 17 22  0 21 19
  4 22 17 16 10 11  7]"
23800,342,1.0,7,3,181.29876327514648,4.867088794708252,12359,96224,972331,7292240,"[ 3  3  1  0  2  1  2  2  0  0  1  3  0  0  3  5  6  7  3  6  7  4  5  8
  4  5  5  3  2  2  0  3  8  2  3  0  5  6 10  1  4  6  1  6  2  1 14  0
  2 12 12  1  3 14  5  3 18  3 17  3  5 19 15  3 22 18  2 17 22  4  3 17
  0 18 18 16 10 11  7]"
23900,342,1.0,7,3,181.79862761497498,4.998643398284912,12406,96624,974924,7310196,"[ 0  1  1  0  2  1  2  2  0  0  1  3  0  0  3  3  1  8  3  6  7  4  5  8
  5  7  4  3  8  4  0 11  8  0 11  0  3  6 10  0  8  5  5  2  7  0 14 13
  4 10  3  2 12  0  3 13 18  4 14  3  3 14 22  5 23 20  1 15 15  1 23 21
  0 15 18 16 10 11  7]"
24000,342,1.0,7,3,182.285742521286,4.871149063110352,12448,97024,977442,7327686,"[ 0  1  3  0  2  1  2  2  0  0  1  3  0  0  3  5  3  1  3  6  7  4  5  8
  0  8  4  5  8  5  4 11  7  5 12 11  3  6 10  5  1  5  4 11  6  5 10  3
  2 17 15  0  3 15  4  1 18  5 16 17  5  0 21  1 21 21  5 19 15  5  1 21
  4  1 17 16 10 11  7]"
24100,342,1.0,7,3,182.73100066184998,4.452581405639648,12505,97424,979661,7343112,"[ 0  1  3  0  2  1  2  2  0  0  1  3  0  0  3  0  8  8  3  6  7  4  5  8
  2  8  0  5  2  2  4 11  1  5 12 10  5  6 10  5  8  7  4 11  4  3 16  3
  2 17 15  3 16 10  4 17 10  3 18 10  1 20  1  2 18 21  1 19 21  5 16 21
  4 22 17 16 10 11  7]"
24200,342,1.0,7,3,183.19753456115723,4.66533899307251,12552,97824,982031,7359514,"[ 0  1  2  3  3  1  2  2  0  0  1  3  0  0  3  0  8  8  3  6  7  4  4  8
  0  7  3  3  3  7  0  8 13  3  8 12  3  6 10  3  0 10  4  7  3  3  0 17
  4  9  9  5  3 17  1  2 12  4 13  0  1  1 23  0  1 18  3 20  3  5 14 14
  3 21 21 16 10 11  7]"
24300,342,1.0,7,3,183.68595123291016,4.884166717529297,12605,98224,984555,7376958,"[ 0  1  2  2  1  0  2  2  0  0  1  3  0  0  3  5  0  8  3  6  7  4  4  8
  0  5  7  4  3  7  2  6 13  3  5  2  3  6 10  5  6  5  5  6  3  0 16  3
  4 13 18  0 14 17  2 12 11  2  3 11  1 23  3  2  1 18  2 15 15  2 21 18
  5  2 14 16 10 11  7]"
24400,342,1.0,7,3,184.18896579742432,5.030145645141602,12657,98624,987115,7394767,"[ 0  1  2  0  3  0  2  2  0  0  1  3  0  0  3  2  0  1  3  6  7  4  4  8
  1  8  3  4  6  7  1  4 13  3  5  8  5  6 10  5  3  5  5 11 11  1 16 13
  5  0  0  4 14  3  4  9 11  4 10  2  2 22 20  2 15 23  0  3  0  2 21 22
  2  2 18 16 10 11  7]"
24500,342,1.0,7,3,184.69105887413025,5.020930767059326,12702,99024,989699,7412828,"[ 0  1  2  3  1  1  2  2  0  0  1  3  0  0  3  1  2  5  3  6  7  4  4  8
  0  4  0  1  7  1  4  5 13  0  7  5  3  6 10  2  1 10  5  1 12  3  2  3
  2 16  9  3 14 12  0 18 11  1  3 17  1  1 22  0 19  1  0  2  0  1  2 19
  5 19 20 16 10 11  7]"
24600,342,1.0,7,3,185.18251657485962,4.914577007293701,12748,99424,992186,7430187,"[ 0  1  2  4  1  3  2  2  0  0  1  3  0  0  3  0  3  5  3  6  7  4  4  8
  0  1  2  5  8  1  5  3 13  5 13  5  5  6 10  2  8  9  3  4 13  1 12  3
  1  1  9  3  2 18  0 18  3  4 13  0  4 18 22  0 20 21  1 16 21  5  1 21
  1 17  1 16 10 11  7]"
24700,342,1.0,7,3,185.68890118598938,5.063846111297607,12787,99824,994793,7448338,"[ 0  1  2  1  2  0  2  2  0  0  1  3  0  0  3  1  4  6  3  6  7  4  4  8
  5  6  7  3  0  8  3  4 13  5 13  4  3  6 10  2  6 12  5  4  2  5 14 17
  4  2 15  1 18  2  5  1  9  1 17  0  2 23  1  4 21 23  2 19 20  3  0  2
  5  2 22 16 10 11  7]"
24800,342,1.0,7,3,186.2170798778534,5.281786918640137,12825,100224,997501,7467102,"[ 0  1  2  1  0  0  2  2  0  0  1  3  0  0  3  1  5  2  3  6  7  4  4  8
  2  2  6  1  0  8  0  4  9  2  4  4  3  6 10  2 11 11  4  0 12  1 10 17
  2 16  9  0 13  1  3 14  3  5 16  0  1 20 23  1  1  2  5 18 19  0 22 16
  5 16 15 16 10 11  7]"
24900,342,1.0,7,3,186.71229910850525,4.952192306518555,12872,100624,1000030,7484613,"[ 0  1  2  3  1  1  2  2  0  0  1  3  0  0  3  2  3  1  3  6  7  4  4  8
  0  1  8  2  7  6  1  6  7  0  8 12  5  6 10  3  2  0  4  5  8  2 18 16
  2 10 13  0 11  1  2  0 18  2  2 18  5 15 18  1  0  2  0 22 21  2  0 17
  1 17  3 16 10 11  7]"
25000,342,1.0,7,3,187.22879362106323,5.164945125579834,12916,101024,1002681,7503042,"[ 0  1  2  0  1  3  2  2  0  0  1  3  0  0  3  2  2  5  3  6  7  4  4  8
  2  4  5  2  8  2  3 11 10  1  4  5  5  6 10  5  2  3  4  4  4  3 13  3
  4  2 16  0 11 10  2 15  1  2 18  3  1 19 14  1 21 21  5 15 21  1 23  3
  2 20  3 16 10 11  7]"
25100,342,1.0,7,3,187.71478247642517,4.859888553619385,12965,101424,1005171,7520434,"[ 0  1  2  3  2  2  2  2  0  0  1  3  0  0  3  1  8  0  3  6  7  4  4  8
  3  6  5  4  8  8  3  8 13  0 12  1  5  6 10  1 13  1  3  8  4  1 14 17
  0  3 17  4 12 16  3 15 15  0  2 13  2 22 20  1 21  3  2  1  0  2  2  3
  0 20 21 16 10 11  7]"
25200,342,1.0,7,3,188.24884152412415,5.340590476989746,13014,101824,1007622,7537517,"[ 0  1  2  0  1  2  2  2  0  0  1  3  0  0  3  0  1  6  3  6  7  4  4  8
  4  5  2  2  2  4  4  6  8  4 12  9  3  6 10  2  8  3  3 11 13  3 11 11
  4 13  9  1  2  0  3 13  0  0 11 17  2  0 18  5 15 14  1  2 15  2  2  0
  5  3 22 16 10 11  7]"
25300,342,1.0,7,3,188.75043439865112,5.015928745269775,13066,102224,1010181,7555244,"[ 0  1  2  5  2  0  2  2  0  0  1  3  0  0  3  3  6  8  3  6  7  4  4  8
  3  0  1  2  8  7  0  7  2  2 12 11  5  6 10  1  8  3  3 10  3  4 10 11
  0 10 16  3  2 15  3  1  0  0 12 16  5  3  0  0  0 17  3 23 14  2 14  2
  5 18 18 16 10 11  7]"
25400,342,1.0,7,3,189.2341239452362,4.83689546585083,13114,102624,1012649,7572310,"[ 0  1  2  1  2  1  2  2  0  0  1  3  0  0  3  5  8  4  3  6  7  4  4  8
  3  0  1  2  5  7  0  8 11  2 12  1  5  6 10  1  8 11  4  2  3  0 10 13
  2 10 11  3  2  3  4 15 13  0 13 16  2 16  0  0  0 23  4 20 15  1 17  2
  1 18 19 16 10 11  7]"
25500,342,1.0,7,3,189.69585537910461,4.617314338684082,13167,103024,1015012,7588769,"[ 0  1  2  0  0  2  2  2  0  0  1  3  0  0  3  3  6  4  3  6  7  4  4  8
  1  3  1  0  2  1  0  4  1  1 12  8  3  6 10  0  1  7  3 12  8  3 10 10
  0 17 11  2 10 14  5 12 13  0  1 13  0 14  0  0 19 17  4 23 22  2 20 17
  2  0 19 16 10 11  7]"
25600,342,1.0,7,3,190.2147512435913,5.188958644866943,13211,103424,1017721,7607566,"[ 0  1  2  4  2  1  2  2  0  0  1  3  0  0  3  2  5  2  3  6  7  4  4  8
  2  3  5  0  4  1  0  4  8  3  4  8  3  6 10  3 12  8  5  5  2  4 18 11
  0 18 10  2 10 10  1  1 13  5  2 12  1 16 22  3 16 18  4 23 15  5 20 17
  2 14 19 16 10 11  7]"
25700,342,1.0,7,3,190.74251794815063,5.277667045593262,13257,103824,1020198,7624788,"[ 0  1  2  4  1  1  2  2  0  0  1  3  0  0  3  2  5  2  3  6  7  4  4  8
  1  6  5  2  4  1  0  2  4  1  4 12  5  6 10  5  7  8  5 12  2  2 17 12
  2  2 10  2 10 10  3  3 14  2 16 12  5 19 18  3  0 18  4 20 20  4 20 20
  2 20  0 16 10 11  7]"
25800,342,1.0,7,3,191.2088406085968,4.66322660446167,13315,104224,1022509,7640757,"[ 0  1  2  3  0  3  2  2  0  0  1  3  0  0  3  3  1  3  3  6  7  4  4  8
  5  7  3  5  6  1  0 11  6  1  0 12  3  6 10  1 10 12  4  5  6  2 17 15
  5 17  1  2 10 12  2  9  2  2  1  0  2  0  3  3 19 18  4 23 20  4 20 22
  2  3 20 16 10 11  7]"
25900,342,1.0,7,3,191.68860983848572,4.79769229888916,13366,104624,1024880,7657234,"[ 0  1  2  4  3  2  2  2  0  0  1  3  0  0  3  5  3  1  3  6  7  4  4  8
  0  1  7  5  6  1  4  1 10  2  0 12  5  6 10  4  1  2  0  5  8  4 17 11
  0  0  2  0 18  9  0  9  9  0  9  1  3 21 14  0 17  0  4 18 23  3 17 22
  4 23 21 16 10 11  7]"
26000,342,1.0,8,2,192.19285035133362,5.042405128479004,13411,105024,1027542,7675920,"[ 0  1  2  2  1  3  2  2  0  0  1  3  0  0  3  3  8  6  3  6  7  4  4  8
  4  1  7  4  6  8  3  5 11  5 10 12  3  6  5  3  8 12  2  5  6  1  0 12
  4  1  1  3  2 17  0 14  2  0 12  0  1  2 14  0  3  0  4 22  3  3  3 23
  3 22 15 16 10 11  7]"
26100,342,1.0,8,2,192.7977340221405,6.048836708068848,13460,105424,1030562,7699567,"[ 0  1  2  2  1  3  2  2  0  0  1  3  0  0  3  4  5  6  3  6  7  4  4  8
  4  7  7  4  0  8  4 10  7  4  7 12  3  6  5  3  4 10  2  7  4  5  0 14
  4  2  1  3  1 14  4 14 14  1 12 16  0 14 18  4  3 16  4 22  3  4 18 18
  4 19 20 16 10 11  7]"
26200,342,1.0,8,2,193.3884732723236,5.907392501831055,13508,105824,1033531,7722817,"[ 0  1  2  2  1  3  2  2  0  0  1  3  0  0  3  0  5  6  3  6  7  4  4  8
  1  8  1  4  1  2  0  4  7  1 10 10  3  6  5  4  7 10  5  9 11  5 15 10
  4 17 17  3  0  9  2  2 14  0 18  3  0  2 18  3 19 14  1  1  0  1 14 16
  3 16 22 16 10 11  7]"
26300,342,1.0,7,3,193.96137285232544,5.7289958000183105,13549,106224,1036402,7744675,"[ 0  1  2  2  1  3  2  2  0  0  1  3  0  0  3  3  6  6  3  6  7  4  4  8
  2  6  4  1  5  1  5  1  7  3 10 12  3  6 10  3  6 11  0  2  4  5  2 11
  1 15 12  2 15  0  0  2 16  1 15  1  1 19 18  5 14 23  5 14  0  2 20  1
  3 14 14 16 10 11  7]"
26400,342,1.0,7,3,194.45858573913574,4.972128868103027,13594,106624,1039016,7762739,"[ 0  1  2  3  0  1  2  2  0  0  1  3  0  0  3  3  3  0  3  6  7  4  4  8
  5  6  6  0  8  4  3  7  1  5 10 12  5  6 10  1  3  8  5 12  1  4 15 18
  2 16 18  4  3 13  1  0 16  0  0  3  0 18  1  2 23 21  1 17  2  2  0 21
  2 20 14 16 10 11  7]"
26423,343,1.0,7,2,194.58034992218018,5.294094914975373,13605,106716,1039640,7767046,"[ 0  1  2  3  0  1  2  2  0  0  1  3  0  0  3  3  3  0  3  6  7  4  4  8
  0  6  6  0  8  4  3  7  1  5 10 12  5  6 10  3  3  8  5 12  9  3 15 18
  2  3 18  4  3 13  1 13 10  0  0  3  3 18  1  2 23 21  1  1 17  2 20 21
  2 20 14 13 10 11  7]"
