generation,fitness,functionality,active_nodes,longest_path,time,gen_time,nc_gens,fitness_evals,graph_evals,node_evals,genotype
0,230.0,0.65625,7,3,0.013129234313964844,13.129234313964844,0,0,0,0,"[ 3  3  1  5  2  3  5  0  2  4  2  1  3  0  3  1  1  0  1  2  2  3  0  0
  1  6  7  1  2  7  0  6  5  1  3  7  5  4 11  5  4  5  4  0  6  4 13  3
  3 13 16  0 16  1  5 16 12  1  9 13  2 20 14  4 16 15  3 18 16  0  3  0
  3 14 19 20 10  7  3]"
100,326.0,0.96875,10,4,28.002723932266235,279.8959469795227,0,12800,129171,1208148,"[ 5  1  0  1  0  0  3  0  2  2  0  3  0  2  1  2  3  8  2  5  2  3  0  3
  4  8  7  5  8  6  5 12  5  4  7  5  5  6  4  1  3  5  5  3  5  2 11 16
  3 12 10  3  3 14  1 14 13  2  3 14  2  1 15  4 14  0  0 14 20  5  3  0
  0  1  3 26 20 25 28]"
200,331.0,0.984375,10,4,54.95678925514221,269.54065322875977,0,25600,230919,2372306,"[ 3  1  2  3  1  0  0  0  2  2  0  3  0  2  1  1  8  5  2  0  2  3  6  3
  4  8  7  2  4  3  5 12  0  3  4  4  4  3  1  0  4  8  2  8  0  2  0 16
  3 14 10  1  2  9  5 12 17  2 18 18  1  1 14  4 14  0  0 14 23  5 17 16
  0  1  3 26  6 25 28]"
300,335.0,0.984375,7,3,76.15364360809326,211.9685435295105,0,38400,326124,3237096,"[ 2  1  2  2  2  1  0  0  2  2  0  3  0  2  1  3  8  0  4  0  1  5  8  8
  4  8  7  3  0  2  5 12 12  1  7 12  2  5  2  0 12  8  0  3  5  3 13 18
  2 12 12  2 11 16  1  9  0  3 15 15  2  3 20  4 14  0  3  2 19  1 22  2
  0  1  3 17  6 20 28]"
400,335.0,0.984375,7,3,93.9992778301239,178.4563422203064,0,51200,419243,3905774,"[ 0  2  1  5  3  1  0  0  2  2  0  3  0  2  1  5  7  7  3  6  2  3  6  1
  4  8  7  4  7  4  5  3  4  4 12  0  1  3  3  0 12  8  4  4  5  1 15  2
  2 12 12  4  2  3  3 15  9  5  3 11  3 21 19  5  2 17  5 15 16  1 20 19
  0  1  3 17  6 20 28]"
500,335.0,0.984375,7,3,111.44602060317993,174.4674277305603,0,64000,508477,4547887,"[ 1  0  3  3  3  0  0  0  2  2  0  3  0  2  1  4  8  8  3  3  1  0  5  6
  4  8  7  4  7  2  4  9 11  0  6 13  3 13  2  0 12  8  4 12 12  3 13  9
  2 12 12  0 11  9  5  0  9  5 15 12  0 15 17  5 19 21  3  3 21  1 17 16
  0  1  3 17  6 20 28]"
600,335.0,0.984375,7,3,129.07586121559143,176.298406124115,0,76800,599784,5203991,"[ 1  0  0  1  3  3  0  0  2  2  0  3  0  2  1  1  7  0  0  3  0  0  0  0
  4  8  7  4  4  2  5  3  6  1  7 11  4  4 10  0 12  8  3  5  1  0  0 15
  2 12 12  1 17 16  4 17  2  4  1 11  1 19 17  0 17 18  3 18 23  0 23  3
  0  1  3 17  6 20 28]"
700,335.0,0.984375,7,3,146.73466897010803,176.58807754516602,0,89600,691079,5862352,"[ 1  2  1  1  2  3  0  0  2  2  0  3  0  2  1  3  3  3  3  2  6  5  0  6
  4  8  7  5  0  6  1  3  2  1 11  6  2  2  5  0 12  8  2  8  9  2 12  9
  2 12 12  1  1 11  0 10 12  5  9 16  0 21 17  0 16 21  5 18 15  5  0  3
  0  1  3 17  6 20 28]"
800,335.0,0.984375,7,3,164.06028413772583,173.25615167617798,0,102400,780340,6504688,"[ 3  2  3  5  0  1  0  0  2  2  0  3  0  2  1  2  6  3  2  2  3  3  8  8
  4  8  7  4  1  5  1  7 13  2  1  1  3  3  4  0 12  8  3  5  5  1  2 10
  2 12 12  2  1  2  5  1 12  3 12 15  4 21  0  5 17  3  5  0 20  4  3  1
  0  1  3 17  6 20 28]"
900,335.0,0.984375,7,3,181.98512244224548,179.24838304519653,0,115200,870199,7152367,"[ 1  2  2  4  3  1  0  0  2  2  0  3  0  2  1  3  3  5  4  2  7  1  3  6
  4  8  7  5  3  1  1  3 12  1  4 10  2  5  5  0 12  8  1  4  4  2 15  1
  2 12 12  1 13 16  5 12 17  3  3  9  1 20 17  1 22 21  1 14 22  0 23  3
  0  1  3 17  6 20 28]"
1000,335.0,0.984375,7,3,199.3793544769287,173.94232034683228,0,128000,959997,7795976,"[ 0  1  1  1  2  2  0  0  2  2  0  3  0  2  1  5  4  0  5  8  3  4  7  6
  4  8  7  4  4  1  5  4  6  5  3  2  0  2  9  0 12  8  2  1 10  4 13  2
  2 12 12  1  0 15  0 18 14  4 17 16  1  1 22  5  0  3  1 18 16  0 16 21
  0  1  3 17  6 20 28]"
1008,339,1.0,9,4,200.74162197113037,170.28343677520752,0,129024,967149,7847350,"[ 1  0  3  1  2  1  0  0  2  2  0  3  0  2  1  0  4  0  5  8  3  4  7  6
  4  8  7  4  6  1  5 11  6  1  8  2  0  2  6  0 12  8  2  8 10  4 12 17
  2 12 12  1  0 15  0 18 14  4 17 16  1 21 19  5  0 18  2 18 16  4 16 23
  0  1  3 17 23 20 28]"
1100,340,1.0,8,4,214.51866626739502,149.75048148113748,0,140800,1027064,8328359,"[ 0  1  3  4  1  1  2  0  2  2  0  3  0  2  1  4  1  7  1  8  6  1  6  4
  4  8  7  5  6  8  1  7  3  2  2 10  0  2  0  0 12  8  5  3  9  1 12  9
  3 12 12  0 11 14  1 15 14  4 17 16  0  2 15  1 19 15  5  0 16  4 19  0
  0  1  3 17 23 20 28]"
1200,340,1.0,8,4,230.5942463874817,160.7558012008667,0,153600,1098279,8897687,"[ 0  1  3  3  3  2  3  1  0  2  0  3  0  2  1  3  0  8  2  4  0  1  8  3
  4  8  7  1  8  0  1  0  0  3  0  6  0  2  0  0 12  8  3  0  6  5 13 17
  3 12 12  4 13 17  4  2  2  4 17 16  4  0 15  0 22  3  5  0 22  1 19 17
  0 15 16 17 23 20  4]"
1300,340,1.0,8,4,246.42656540870667,158.32319021224976,0,166400,1168181,9456095,"[ 0  1  3  5  2  0  0  1  2  2  0  3  0  2  1  1  8  5  3  0  8  0  1  1
  4  8  7  4  5  5  1  3 11  0 11  2  0  2  0  0 12  8  0  5  1  0  0  3
  3 17 12  0  2  2  1 17 15  4 17 16  0 20 20  0 16  3  3 21 17  1 16 16
  1 21  0 17 23 20  4]"
1400,340,1.0,8,4,261.99488282203674,155.68317413330078,0,179200,1238558,10017798,"[ 0  1  3  2  3  0  3  3  3  4  3  3  0  2  1  2  3  1  2  6  7  5  2  5
  4  8  5  0  3  7  1 12  4  3  1  5  0  2  0  0 12  8  4  5  4  4  0  2
  2 12 12  3 16 16  4  1  2  4 17 16  1  0 19  2  2  3  5 14 15  2  1 16
  3  0 18 17 23 20  4]"
1500,340,1.0,8,4,277.61149406433105,156.16611242294312,0,192000,1307906,10572261,"[ 0  1  3  2  3  0  5  1  3  1  3  3  0  2  1  2  5  7  1  2  3  0  0  3
  4  8  5  4  8  4  4  7  4  3 11 13  0  2  0  0 12  8  4  1  5  4 12  2
  3 17 12  3 14 17  0  0 10  4 17 16  3 20 16  0  1 23  1  1 15  4 23 19
  4 17  2 17 23 20  4]"
1600,340,1.0,8,4,293.3291313648224,157.17637300491333,0,204800,1378080,11132844,"[ 0  1  3  2  3  0  5  1  2  0  3  3  0  2  1  1  7  7  5  8  0  5  3  8
  4  8  5  1  8  8  2  7 13  2  4  9  0  2  0  0 12  8  2  5  1  1 16  2
  3 17 12  5 17 17  4  9  3  4 17 16  4  3 22  0  1 14  0  2 17  2 15 17
  2 23 16 17 23 20  4]"
1700,340,1.0,8,4,309.25671553611755,159.27584171295166,0,217600,1447492,11687780,"[ 0  1  3  2  3  0  3  0  2  2  0  0  0  2  1  3  3  2  2  2  8  0  8  7
  4  8  5  3  0  0  3  7 11  3  2  9  0  2  0  0 12  8  2  9 10  0 17  0
  3 17 12  0 14 16  1 13  3  4 17 16  4 16  1  0 18  1  0 15 23  3 21 22
  0  2 20 17 23 20  4]"
1800,340,1.0,8,4,324.94041681289673,156.83701276779175,0,230400,1517007,12243515,"[ 0  1  3  2  3  0  3  0  3  2  0  2  0  2  1  4  0  1  3  6  2  2  6  6
  4  8  5  4  8  4  0 12  9  2 10  4  0  2  0  0 12  8  1 12  2  5 17  1
  3 12 12  3 17  0  3 10 17  4 17 16  5 21  1  2 19 15  0 18 19  1 19 14
  2 16 22 17 23 20  4]"
1900,341,1.0,8,3,340.7891983985901,158.4878158569336,0,243200,1589520,12822075,"[ 0  1  3  2  3  0  0  0  3  5  2  0  0  2  1  5  5  0  3  5  3  5  8  0
  2  5  3  5  8  5  1  8  6  4 10  2  0  2  0  0  6  8  1 11  1  1 12 13
  3 17 12  0 11 16  0 18  3  4 17 16  5 19 23  5 19  2  4 17 21  1  3  1
  1 15 18 17 23 13  4]"
2000,341,1.0,8,3,358.2637641429901,174.74565744400024,0,256000,1671622,13471409,"[ 0  1  3  2  3  0  0  0  3  0  1  3  0  2  1  4  4  1  1  5  8  1  4  8
  2  5  8  5  8  5  3  2 13  3  2  8  0  2  0  0  6  8  2 11  8  1  2  1
  4  0 15  0  9  9  0 16  0  4 17 16  3 16 15  4 19 14  4 21  0  5  0 21
  3  3 19 17 23 13  4]"
2100,341,1.0,8,3,376.135244846344,178.71480703353882,0,268800,1753882,14122512,"[ 0  1  3  2  3  0  0  0  3  2  0  1  0  2  1  3  1  6  5  0  5  4  2  3
  3  1  3  5  8  5  5  1  4  1  9  4  0  2  0  0  6  8  2  0 13  1 18 15
  4 13 12  4  0  3  4  2 15  4 17 16  1 15  0  3  3 18  0 23 17  3  1 23
  5  2 19 17 23 13  4]"
2200,341,1.0,8,3,393.12023425102234,169.84989404678345,0,281600,1835483,14768376,"[ 0  1  3  2  3  0  0  0  3  0  2  3  0  2  1  4  3  1  0  0  3  3  4  8
  5  6  3  5  8  5  3 10  9  5  1  0  0  2  0  0  6  8  3  5 13  2 18 18
  1 18 10  2  3  0  1 12  3  4 17 16  4  1 22  4 16 20  3 23 21  3 23  2
  0 22 14 17 23 13  4]"
2300,341,1.0,8,3,410.4269449710846,173.06710720062256,0,294400,1915379,15401276,"[ 0  1  3  2  3  0  0  0  3  3  2  2  0  2  1  4  5  4  5  6  6  2  6  3
  5  1  0  5  8  5  0  0  2  5  7  5  3  6  6  0  6  8  2 10  0  1  0 10
  2  1 12  4 10 12  1 16  0  4 17 14  1 16  0  4 17  3  2  0 17  1 19 20
  0  2 15 17 23 13  4]"
2400,341,1.0,8,3,427.7365915775299,173.09646606445312,0,307200,1996243,16041065,"[ 0  1  3  2  3  0  0  0  3  3  1  1  0  2  1  4  0  0  2  3  6  1  1  1
  4  6  7  5  8  5  0  0  2  1 10  0  0 12 11  0  6  8  3  9  2  0 16  9
  1  9 16  4 14 17  4 11 18  4 17 14  2 16 16  1 18 16  0 14 19  0 14  0
  3 14 20 17 23 13  4]"
2500,341,1.0,8,3,445.17945194244385,174.4286036491394,0,320000,2078400,16691450,"[ 0  1  3  2  3  0  0  0  3  3  0  1  0  2  1  1  7  8  1  8  1  3  7  2
  0  6  7  5  8  5  0  0  2  4  8  8  3 12  2  0  6  8  1  8  7  1  0  3
  4 17 13  5 12 11  3 17 15  4 17 14  4 18 15  4  0 17  3 19 20  0  2  3
  4  1 17 17 23 13  4]"
2600,342,1.0,7,3,461.905690908432,167.2623896598816,0,332800,2157276,17302671,"[ 0  1  3  2  3  0  0  0  3  5  0  3  0  2  1  1  7  5  2  4  0  4  6  8
  5  0  0  4  0  6  0  0  2  4 10 10  2  7  4  0  6  8  2 13  9  0 15 18
  0 16 17  2 13 14  5 11 12  4 17 14  3 18  3  4 23 23  3 21  3  2 14 14
  1  0  1 17 23 11  4]"
2700,342,1.0,7,3,477.0934250354767,151.87734127044678,0,345600,2231274,17818952,"[ 0  1  3  3  0  0  0  0  3  0  2  2  0  2  1  2  5  3  2  0  6  4  6  8
  1  0  7  1  7  6  0  0  2  0 10 12  2 13  6  0  6  8  4  0 11  4 16  2
  1  3 15  1 13 16  3  1  0  4 17 14  4 22 23  3 23 15  1 21 17  5  1  3
  2 22  1 17 23 11  4]"
2800,342,1.0,7,3,492.1205871105194,150.27162075042725,0,358400,2303963,18325102,"[ 0  1  3  3  0  0  0  0  3  5  1  1  0  2  1  1  3  2  2  3  8  4  6  8
  5  3  6  0  4  2  0  0  2  1  3  0  4 11 10  0  6  8  4  7  8  5 15  2
  5  9 17  0 10  2  1  9 17  4 17 14  3 15 19  4 20 17  5  0 17  5  1 23
  0  1 20 17 23 11  4]"
2900,342,1.0,7,3,506.9590153694153,148.38428258895874,0,371200,2377090,18834454,"[ 0  1  3  5  3  0  0  0  3  0  0  1  0  2  1  4  3  5  1  7  7  4  6  8
  1  3  4  0  8  4  0  0  2  4  3 10  3  4 13  0  6  8  1  1 12  2  3 12
  3 14 11  3 10 12  3  9 11  4 17 14  3  0 17  3  1  3  2 14 16  3 16 20
  2 15 21 17 23 11  4]"
3000,342,1.0,7,3,521.7065532207489,147.47537851333618,0,384000,2449919,19342470,"[ 0  1  3  4  2  0  0  0  3  0  3  3  0  2  1  0  5  8  3  7  2  4  6  8
  4  3  4  0  0  3  0  0  2  4  8  5  3  8  1  0  6  8  1  9  2  3 18 15
  1 17 11  4 12 15  0 13 17  4 17 14  2 22  3  3 18 20  3  1  0  4  3 19
  3 22 19 17 23 11  4]"
3100,342,1.0,7,3,536.6202368736267,149.13683652877808,0,396800,2524094,19859175,"[ 0  1  3  5  1  3  0  0  3  0  3  0  0  2  1  3  8  5  5  5  2  4  6  8
  2  0  5  1  4  3  0  0  2  1  6  9  3  6  0  0  6  8  0  4 11  1 16 14
  2  1 11  0 14 16  4 10  0  4 17 14  2 22  2  5  1 22  1  0  0  4 15 23
  1 16 23 17 23 11  4]"
3200,342,1.0,7,3,551.7454690933228,151.25232219696045,0,409600,2598356,20376238,"[ 0  1  3  2  0  2  0  0  3  1  2  2  0  2  1  5  8  8  4  0  0  4  6  8
  4  4  5  4  7  8  0  0  2  3  0 10  0  5  0  0  6  8  0  1  6  2 17  9
  3  9 14  4 12  9  5 12  0  4 17 14  0 16  1  3 20 14  0  0 23  5 20  0
  0 20 16 17 23 11  4]"
3300,342,1.0,7,3,566.8000600337982,150.54590940475464,0,422400,2672934,20896365,"[ 0  1  3  1  3  1  0  0  3  5  1  2  0  2  1  1  4  7  4  0  2  4  6  8
  1  5  1  1  6  5  0  0  2  3  8  5  5  9 12  0  6  8  2  3  0  5 13 15
  5 12  2  1 17 13  2 12 14  4 17 14  0 15  1  2  3  0  0  2 19  1 20 17
  0 20  2 17 23 11  4]"
3400,342,1.0,7,3,581.8541960716248,150.54136037826538,0,435200,2747905,21419644,"[ 0  1  3  5  2  1  0  0  3  3  3  3  0  2  1  2  4  7  1  4  7  4  6  8
  0  4  5  5  5  4  0  0  2  4  6  0  2  0  5  0  6  8  3  5  8  3  1  1
  0  0 18  5  0  3  0 11  0  4 17 14  1 19 16  3 17 16  5 18 22  2  2 23
  5 22  3 17 23 11  4]"
3500,342,1.0,7,3,596.6841464042664,148.29950332641602,0,448000,2821749,21933857,"[ 0  1  3  5  3  1  0  0  3  3  2  3  0  2  1  5  0  1  4  8  7  4  6  8
  0  6  1  1  0  8  0  0  2  4  9 11  5  6  1  0  6  8  4  8  5  4 13 13
  4  3 16  4 16 16  0  0 15  4 17 14  0 14 18  4 19  1  5  1 15  4 20 14
  1 16 16 17 23 11  4]"
3600,342,1.0,7,3,611.6423432826996,149.58196878433228,0,460800,2894970,22444212,"[ 0  1  3  1  1  0  0  0  3  1  3  2  0  2  1  2  7  2  2  3  1  4  6  8
  0  8  1  5  7  6  0  0  2  2  6  8  2 13  0  0  6  8  3  1  4  5  2  2
  0 18  9  4 15 10  1  9 10  4 17 14  2 18 18  1 22 14  1  2 17  3 14 22
  2 23 19 17 23 11  4]"
3700,342,1.0,7,3,626.1818161010742,145.39472818374634,0,473600,2968449,22955908,"[ 0  1  3  2  3  0  0  0  3  1  0  2  0  2  1  2  4  1  4  2  0  4  6  8
  2  4  1  0  8  4  0  0  2  4  0 11  1  6  6  0  6  8  4  3  6  0 18  9
  5  9 16  2 16 14  2  3  0  4 17 14  5 16 14  4 16  0  2 18 23  5 15 22
  3  0 21 17 23 11  4]"
3800,342,1.0,7,3,641.2111549377441,150.29338836669922,0,486400,3042508,23470842,"[ 0  1  3  5  2  1  0  0  3  5  2  1  0  2  1  0  1  1  3  3  7  4  6  8
  4  0  3  5  6  4  0  0  2  4 11  6  5  7  9  0  6  8  0 13 10  3  3 15
  0  9 12  2 11 10  2 15 18  4 17 14  2 14 20  1 14 16  3 20 23  5 16 23
  4  3 19 17 23 11  4]"
3900,342,1.0,7,3,656.1998455524445,149.88690614700317,0,499200,3116018,23983509,"[ 0  1  3  4  2  1  0  0  3  0  1  3  0  2  1  1  7  2  4  3  5  4  6  8
  1  2  5  5  1  3  0  0  2  1  4  9  4  1 13  0  6  8  3 10  4  1 15 15
  2 17  3  1  9 10  5 15  1  4 17 14  5  0 22  5 19 14  4  0  0  4 17 21
  0  3  3 17 23 11  4]"
4000,342,1.0,7,3,671.1090414524078,149.0919589996338,0,512000,3190020,24499290,"[ 0  1  3  2  2  1  0  0  3  1  2  2  0  2  1  1  1  8  0  5  2  4  6  8
  3  4  8  4  8  6  0  0  2  4  7  4  0  2 12  0  6  8  3  1  3  0 14 17
  0 11 10  4  9 16  2 12  3  4 17 14  3 18 22  1 21  2  5  0 15  3 21  3
  3 22 17 17 23 11  4]"
4100,342,1.0,7,3,685.9721314907074,148.6309003829956,0,524800,3264013,25014568,"[ 0  1  3  0  1  0  0  0  3  1  0  0  0  2  1  2  4  1  1  5  4  4  6  8
  3  1  4  0  7  3  0  0  2  4  6 11  2  3 10  0  6  8  3  8  1  5 17 17
  4  9  3  1 18 16  2  0 17  4 17 14  3  1  3  2 19  1  5 15 14  2 20 22
  1 17  2 17 23 11  4]"
4200,342,1.0,7,3,700.645471572876,146.7334008216858,0,537600,3336513,25519840,"[ 0  1  3  2  3  1  0  0  3  4  0  0  0  2  1  4  3  6  5  6  1  4  6  8
  2  1  3  3  0  5  0  0  2  5 11  1  2  7  5  0  6  8  3  9  9  4 17 16
  2 16  9  5 10 16  2  0 12  4 17 14  2 15  2  3  0  2  5 22  3  2  1 22
  2 19 18 17 23 11  4]"
4300,342,1.0,7,3,715.3393199443817,146.93848371505737,0,550400,3410048,26032079,"[ 0  1  3  1  2  1  0  0  3  0  3  3  0  2  1  2  6  0  0  2  3  4  6  8
  3  8  6  2  7  8  0  0  2  1 10 12  5  7  9  0  6  8  0  7  6  5  3  0
  3 18  1  2 16 17  2  9 17  4 17 14  3 15  2  2 19  2  4  1 16  4  1 21
  1  1 23 17 23 11  4]"
4400,342,1.0,7,3,730.2546319961548,149.1531205177307,0,563200,3484055,26548018,"[ 0  1  3  1  0  0  0  0  3  0  2  2  0  2  1  0  0  3  5  8  1  4  6  8
  5  8  0  2  8  6  0  0  2  5 11 10  5 11 11  0  6  8  5 13  5  5 12 16
  0  0 14  2 16 11  5 11 12  4 17 14  5 23 23  2  1  3  5 19 20  0  3  2
  3 20 19 17 23 11  4]"
4500,342,1.0,7,3,744.989636182785,147.3500418663025,0,576000,3556207,27050263,"[ 0  1  3  0  0  2  0  0  3  5  1  2  0  2  1  3  5  0  3  3  8  4  6  8
  5  4  3  2  2  6  0  0  2  1  6 13  2  3  1  0  6  8  0  3  7  1 10  3
  4 14  1  4  3 16  5 14 18  4 17 14  2 23  3  4  2 17  2 17 14  2 18 21
  2 17 16 17 23 11  4]"
4600,342,1.0,7,3,759.758246421814,147.6861023902893,0,588800,3630898,27570489,"[ 0  1  3  2  0  2  0  0  3  4  0  1  0  2  1  1  5  5  1  0  5  4  6  8
  5  3  1  5  0  1  0  0  2  1  5  9  3  8  2  0  6  8  2 12  8  1 16  3
  3 10  2  5 18 17  3 18 17  4 17 14  2  3 23  3  0 16  1 15 18  2 16 14
  3 21 16 17 23 11  4]"
4700,342,1.0,7,3,774.9599206447601,152.01674222946167,0,601600,3704852,28085733,"[ 0  1  3  5  0  0  0  0  3  0  0  0  0  2  1  4  8  2  2  6  4  4  6  8
  0  7  8  1  6  8  0  0  2  3  1  5  2  0  4  0  6  8  1  3  3  5 16  2
  3  1  2  0 15  3  3 13 14  4 17 14  3 16  1  3 16 23  2 21 23  4 17 19
  4 15 19 17 23 11  4]"
4800,342,1.0,7,3,790.213746547699,152.53825902938843,0,614400,3779550,28605397,"[ 0  1  3  1  3  2  0  0  3  4  0  3  0  2  1  3  6  0  1  6  5  4  6  8
  1  2  4  2  7  5  0  0  2  5  4  1  1 13 10  0  6  8  1  4 10  0  3  9
  3 13  2  1 11  2  5 14 11  4 17 14  4 18  3  3 14  1  3  0 17  5  0 22
  3  0 19 17 23 11  4]"
4900,342,1.0,7,3,804.184490442276,139.70743894577026,0,627200,3847958,29083306,"[ 0  0  2  0  3  3  0  0  3  4  3  2  0  2  1  5  6  4  5  8  0  4  6  8
  2  6  4  3  2  3  0  0  2  4  7  9  1  3  7  0  6  8  5 13  0  0  3  1
  0 14 17  0 17 16  0  0  3  4 17 14  5  3 15  2  3  0  2 14 14  5 23  3
  4 21  0 17 23 11 19]"
5000,342,1.0,7,3,818.649252653122,144.64762210845947,0,640000,3916339,29560261,"[ 5  0  1  3  0  3  0  0  3  3  2  3  0  2  1  0  0  0  1  8  8  5  6  5
  4  6  8  5  4  7  0  0  2  4  9  9  2  7 12  0  6  8  0  3  8  0  3  1
  0 12 13  3 10  2  5 18 12  4 17 14  4 21 16  2 19  1  2 23  3  4 17 14
  2 14  0 17 27 12 19]"
5100,342,1.0,7,3,833.1094603538513,144.6020770072937,0,652800,3984070,30034837,"[ 5  0  1  1  2  2  0  0  3  5  1  0  0  2  1  2  0  7  2  4  6  2  0  7
  4  6  8  5  2  6  0  0  2  3 12 11  3  8 11  0  6  8  5 10 13  0  3  1
  3  9  1  0 10 16  0 15 15  1 18  0  1  3 20  4 17 23  5 14 22  4 17 14
  5 16 19 17 27 12 19]"
5200,342,1.0,7,3,847.7425484657288,146.3308811187744,0,665600,4051692,30508946,"[ 2  3  3  0  1  1  0  0  3  2  0  0  0  2  1  3  8  3  2  8  6  4  8  8
  4  6  8  3  5  6  0  0  2  1 11  7  4  9 11  0  6  8  5  3 12  0  3  1
  2 18 18  2 14  1  2 15 15  1 15 16  3  3  3  0 19 16  1  1 22  4 17 14
  2 22  1 17 27 12 19]"
5300,342,1.0,7,3,862.2772846221924,145.34736156463623,0,678400,4120049,30987394,"[ 0  3  1  2  3  1  0  0  3  4  1  0  0  2  1  3  3  0  2  8  6  0  4  7
  4  6  8  0  4  0  0  0  2  3 12 12  0  1  0  0  6  8  1 13  5  0  3  1
  5  9 18  0 16 14  2  2 18  2 15 11  2 17 23  1 17 18  1 23 17  4 17 14
  5 19 18 17 27 12 19]"
5400,342,1.0,7,3,876.7112505435944,144.33965921401978,0,691200,4192135,31491125,"[ 0  3  1  1  2  1  0  0  3  3  1  0  0  2  1  4  5  1  1  4  6  3  8  4
  4  6  8  5  8  4  0  0  2  5  7  7  3  0  1  0  6  8  5  1  7  3 14 18
  5  2  2  2  0  0  2 18 13  2 10 11  5  1 23  2 17  3  5 17 22  4 17 14
  5  0 18 17 27 12  4]"
5500,342,1.0,7,3,891.9322187900543,152.2096824645996,0,704000,4266327,32009264,"[ 0  3  1  1  2  3  0  0  3  2  1  3  0  2  1  4  2  6  5  1  5  3  3  7
  4  6  8  5  7  0  0  0  2  3 13  2  5  8 13  0  6  8  0 10 13  0  2  2
  2  0 13  5 16  9  1 10 14  5 18  9  3  1 17  4  3 19  5 14 17  4 17 14
  1  1 20 17 27 12  4]"
5600,342,1.0,7,3,906.6402187347412,147.0799994468689,0,716800,4338071,32509951,"[ 0  3  1  1  3  1  0  0  3  1  3  1  0  2  1  5  0  4  4  4  4  1  1  8
  4  6  8  5  3  4  5  9  3  5  7  1  0  2  3  0  6  8  1  5  0  0  0  2
  4  2 13  5 14 13  4 12 13  2 13 14  3  0  2  2 19 19  5 18  2  4 17 19
  5  0 20 17 27 12  4]"
5700,342,1.0,7,3,921.1141309738159,144.73912239074707,0,729600,4408492,33002593,"[ 0  3  1  5  3  2  0  0  3  2  3  3  0  2  1  2  2  3  2  8  7  5  3  0
  4  6  8  2  4  7  3  7  1  5  7  4  5 12  0  0  6  8  0  5 13  0  0  2
  5 16  3  1  2  3  5 10  0  5  2 15  2 20 17  2 19 18  3 22 18  4 17 19
  2 23 15 17 27 12  4]"
5800,342,1.0,7,3,935.5746920108795,144.605610370636,0,742400,4478710,33493464,"[ 0  3  1  5  3  2  0  0  3  2  2  3  0  2  1  4  6  1  1  5  6  5  6  0
  4  6  8  3  5  2  1  9  3  5  0 13  2  6  2  0  6  8  5  2  6  0  0  2
  5 15  0  2 10 13  3 10 18  4 13 15  2 16 20  3 18 20  2 20  2  4 17 19
  3  2  0 17 27 12  4]"
5900,342,1.0,7,3,950.772451877594,151.97759866714478,0,755200,4550145,33992638,"[ 0  3  1  3  2  2  0  0  3  0  2  2  0  2  1  0  2  1  3  5  7  3  5  0
  4  6  8  3  0  0  0 13  5  3 10  6  4 13  0  0  6  8  5 13  6  0  0  2
  4  0  1  4  9 16  3 10  0  2 18 11  1 18 19  4 17  2  1  0  0  4 17 19
  3 16 21 17 27 12  4]"
6000,342,1.0,7,3,965.565819978714,147.93368101119995,0,768000,4621214,34489294,"[ 0  3  1  2  1  2  0  0  3  2  3  0  0  2  1  2  7  5  0  4  1  2  1  0
  4  6  8  5  0  3  4  0  6  5  5  4  2  3 12  0  6  8  1  8  0  0  0  2
  0  1  1  0  9 11  0 11 17  5  9 13  4 20 17  0  0  2  1 15 14  4 17 19
  5  3 20 17 27 12  4]"
6100,342,1.0,7,3,980.2678685188293,147.02048540115356,0,780800,4692143,34984640,"[ 0  3  1  4  1  2  0  0  3  5  0  3  0  2  1  3  0  1  3  6  2  0  8  4
  4  6  8  2  1  3  2  9  7  1  8  7  2 10  9  0  6  8  0  9 10  0  0  2
  0  9  9  1  9  2  3 17  1  4  3 18  2  1 17  0 15 23  5 21  0  4 17 19
  5 16 18 17 27 12  4]"
6200,342,1.0,7,3,994.7977452278137,145.29876708984375,0,793600,4763017,35479671,"[ 0  3  1  1  2  2  0  0  3  3  0  1  0  2  1  2  1  0  3  2  8  2  4  0
  4  6  8  1  7  6  0  9  2  3  4  8  1  5  6  0  6  8  1  5  2  0  0  2
  4  9  1  3  0  2  0  1 17  2 12 13  2 20 17  1 15 17  4 18 22  4 17 19
  5  0  0 17 27 12  4]"
6300,342,1.0,7,3,1009.5200278759003,147.22282648086548,0,806400,4833751,35973897,"[ 0  3  1  3  3  3  0  0  3  0  0  3  0  2  1  2  6  3  5  8  6  0  7  4
  4  6  8  0  7  0  2  8  2  3  6  5  2 10  4  0  6  8  5  2  4  0  0  2
  4 15 12  4 11  0  3 15  2  0 10 17  0 18 19  3 19 19  5 16 23  4 17 19
  0  0 23 17 27 12  4]"
6400,342,1.0,7,3,1024.0965235233307,145.7649564743042,0,819200,4905827,36476826,"[ 0  3  1  4  3  0  0  0  3  4  3  0  0  2  1  1  0  8  3  8  3  3  8  6
  4  6  8  1  6  8  2 11  7  1  3  6  2  7  4  0  6  8  1  8  0  0  0  2
  0 10 15  4 13 10  1 12  0  2 15 13  2 18 16  0  0 15  1 16  0  4 17 19
  4 15 17 17 27 12  4]"
6500,342,1.0,7,3,1038.454760313034,143.5823678970337,0,832000,4976552,36971002,"[ 0  3  1  3  3  1  0  0  3  4  1  2  0  2  1  2  7  7  2  1  2  1  8  2
  4  6  8  0  4  5  5 12 10  2  3  8  0  0 12  0  6  8  4  7  9  0  0  2
  4 10 10  1  2 17  0 15 14  2  3  9  3  0 18  3 23 22  4  3  1  4 17 19
  5  0  1 17 27 12  4]"
6600,342,1.0,7,3,1052.9062733650208,144.51513051986694,0,844800,5047187,37463562,"[ 0  3  1  5  2  3  0  0  3  5  0  0  0  2  1  5  1  2  1  4  7  1  6  8
  4  6  8  3  7  2  2  0  4  2  6  3  2 11  8  0  6  8  4  2  1  0  0  2
  5  0 10  5  0  0  3 11 10  0 11 15  3  0 17  5 14 20  4 23  1  4 17 19
  2 19  0 17 27 12  4]"
6700,342,1.0,7,3,1067.5428700447083,146.365966796875,0,857600,5118070,37958408,"[ 0  3  1  3  0  3  0  0  3  0  0  2  0  2  1  2  6  2  3  6  7  5  6  0
  4  6  8  5  3  5  3  8 13  4  2 10  2  0  8  0  6  8  1  2  5  0  0  2
  2  1 17  0 16 17  4  2  1  0  3 17  5 19  3  5 14  2  1 16  2  4 17 19
  0 21 18 17 27 12  4]"
6800,342,1.0,7,3,1082.2780928611755,147.35222816467285,0,870400,5189257,38454812,"[ 0  3  1  2  1  2  0  0  3  2  1  2  0  2  1  5  3  2  1  4  6  3  1  5
  4  6  8  4  7  6  1  6 10  0  0  8  0  6  2  0  6  8  2  8  6  0  0  2
  5 14 18  0 13 15  4  0 17  3 10 16  5 18 16  4 17 19  4 19 16  4 17 19
  3  2 23 17 27 12  4]"
6900,342,1.0,7,3,1096.9984033107758,147.2031044960022,0,883200,5261149,38956826,"[ 0  3  1  4  3  2  0  0  3  5  2  2  0  2  1  3  6  6  3  1  2  5  7  3
  4  6  8  4  8  5  3  6  0  0  8 13  5  5 11  0  6  8  0 11  5  0  0  2
  3 12 13  4  1 16  3  3 11  4  0 11  0  0  2  5 14 21  2 23  1  4 17 19
  3  2 16 17 27 12  4]"
7000,342,1.0,7,3,1111.5159649848938,145.17561674118042,0,896000,5332798,39456601,"[ 0  3  1  2  2  2  0  0  3  3  0  3  0  2  1  2  8  2  5  6  6  3  3  0
  4  6  8  0  8  5  5  1  3  0  5  5  1 13  8  0  6  8  3  9  0  0  0  2
  1 11 17  0 18 18  5 11 16  3 12 11  2  1  3  5 17 21  2  3 22  4 17 19
  5  2 19 17 27 12  4]"
7100,342,1.0,7,3,1126.495515346527,149.795503616333,0,908800,5405175,39962300,"[ 0  3  1  3  3  0  0  0  3  3  1  0  0  2  1  0  6  4  1  7  0  3  8  2
  4  6  8  0  4  1  2  9 13  0 12  1  3 13  8  0  6  8  2 11  0  0  0  2
  5  1  2  2 13 11  1 17  9  5 11  1  4 22  3  3  1 19  2  3 23  4 17 19
  5 18 14 17 27 12  4]"
7200,342,1.0,7,3,1141.2010383605957,147.05523014068604,0,921600,5476428,40459323,"[ 0  3  1  4  3  3  0  0  3  2  3  2  0  2  1  5  5  5  0  6  4  2  5  8
  4  6  8  0  6  4  0  1 13  4  2  0  0  8 13  0  6  8  2  4  2  0  0  2
  3 11 13  0 18 15  2 15 17  2 16  1  1 17 16  5  0  0  0  3 22  4 17 19
  0 22  1 17 27 12  4]"
7300,342,1.0,7,3,1155.9819738864899,147.80935525894165,0,934400,5547497,40955141,"[ 0  3  1  4  3  0  0  0  3  3  2  2  0  2  1  1  3  4  4  8  5  3  8  3
  4  6  8  3  1  7  5 12  1  0  0  0  4  6 13  0  6  8  2  3  5  0  0  2
  4 15 15  5  0  9  0  9  9  1  1 10  1 22 18  1 23 20  2 16 23  4 17 19
  5 15  3 17 27 12  4]"
7400,342,1.0,7,3,1170.2225546836853,142.40580797195435,0,947200,5616741,41438773,"[ 0  3  1  2  2  3  0  0  3  3  1  0  0  2  1  2  6  4  0  5  8  1  3  0
  4  6  8  2  8  5  3  9  3  0  9  9  2  1  8  0  6  8  4 12 13  0  0  2
  4 14  0  1 12 11  0 13  2  4  1 18  5 16 19  3 22 15  2  1  0  4 17 19
  2  1  3 17 27 12  4]"
7500,342,1.0,7,3,1185.1458058357239,149.23251152038574,0,960000,5688661,41941731,"[ 0  3  1  5  3  2  0  0  3  1  1  3  0  2  1  4  5  0  5  5  0  0  3  1
  4  6  8  5  2  6  4  6  4  0  9 11  3  5  4  0  6  8  1  4  8  0  0  2
  5  2  9  2 12 18  0 15 13  1  1  9  5 23  3  5  0 15  2 22 22  4 17 19
  2 20 17 17 27 12  4]"
7600,342,1.0,7,3,1199.7186317443848,145.7282590866089,0,972800,5760435,42442243,"[ 0  3  1  1  1  1  0  0  3  3  0  3  0  2  1  1  7  4  3  4  1  3  3  3
  4  6  8  2  5  3  5  8  2  1  7 13  2 13  4  0  6  8  0  0  6  0  0  2
  2  1 10  1 16  1  3  1 14  2  0 18  3  2 18  3  2  3  5 23  0  4 17 19
  2  2 16 17 27 12  4]"
7700,342,1.0,7,3,1214.2389118671417,145.20280122756958,0,985600,5832365,42944091,"[ 0  3  1  4  1  3  0  0  3  0  2  0  0  2  1  5  1  6  2  8  6  0  7  3
  4  6  8  1  6  7  3  3  9  1  5  9  5  6  6  0  6  8  0  7  1  0  0  2
  2 13 15  3  9  2  2  1 12  3 15 18  4  1  1  4  2 19  2  3  3  4 17 19
  2  2 21 17 27 12  4]"
7800,342,1.0,7,3,1228.8147304058075,145.75818538665771,0,998400,5903602,43441900,"[ 0  3  1  4  1  0  0  0  3  3  0  2  0  2  1  1  1  7  2  0  7  1  6  7
  4  6  8  3  8  6  2  6  6  4  8  9  4  8  1  0  6  8  3 12  3  0  0  2
  0 10 12  0  9  3  4 16 17  0 13 11  3 15 21  2 18 22  0  1 20  4 17 19
  5  0 18 17 27 12  4]"
7900,342,1.0,7,3,1243.6323635578156,148.17633152008057,0,1011200,5974280,43935489,"[ 0  3  1  2  1  3  0  0  3  5  1  0  0  2  1  2  1  4  5  2  1  5  2  6
  4  6  8  2  4  5  0  4  8  3  3  9  5  5  1  0  6  8  2  5  0  0  0  2
  0 10 13  3 11 13  0 17 16  3 15 14  0 23  1  3  2 14  1 23 19  4 17 19
  5 21 23 17 27 12  4]"
8000,342,1.0,7,3,1258.8862013816833,152.53837823867798,0,1024000,6044347,44424750,"[ 0  3  1  2  3  1  0  0  3  1  1  0  0  2  1  2  5  4  4  3  4  2  3  7
  4  6  8  3  6  6  4  6 13  0 12 13  4  5  9  0  6  8  5 10  9  0  0  2
  2  1  1  3  0 12  5 16 13  1  9 17  2 17  3  0  0 18  3  1 21  4 17 19
  1 18 19 17 27 12  4]"
8100,342,1.0,7,3,1274.9215512275696,160.3534984588623,0,1036800,6115994,44925249,"[ 0  3  1  0  1  3  0  0  3  5  2  1  0  2  1  2  7  5  3  3  3  2  8  5
  4  6  8  1  4  4  2 13 10  4  5 10  3  3 12  0  6  8  3 10 12  0  0  2
  4  3 11  5 18  0  3 16  1  5 11 18  3 21 19  3  2  1  2 19 16  4 17 19
  1 22  3 17 27 12  4]"
8200,342,1.0,7,3,1290.0482232570648,151.2667202949524,0,1049600,6186932,45421843,"[ 0  3  1  1  0  2  0  0  3  5  1  1  0  2  1  1  5  3  0  2  1  5  5  3
  4  6  8  4  1  2  0 13 12  5 11 13  2  2  8  0  6  8  0 11 13  0  0  2
  4  1  3  3 10 15  0 13  2  1 11 18  0 21 19  1 20 21  1  2 20  4 17 19
  1 14 18 17 27 12  4]"
8300,342,1.0,7,3,1304.8638293743134,148.15606117248535,0,1062400,6258733,45924555,"[ 0  3  1  4  3  1  0  0  3  2  0  2  0  2  1  2  7  1  2  4  7  3  0  1
  4  6  8  1  5  4  4  7 10  2  9 10  1 10 10  0  6  8  2  0  5  0  0  2
  1 12 18  3 12 11  5  0 12  1 10  1  3  0  2  5 23 15  2  2 20  4 17 19
  2  2  0 17 27 12  4]"
8400,342,1.0,7,3,1319.2138392925262,143.5000991821289,0,1075200,6329794,46421365,"[ 0  3  1  0  3  0  0  0  3  1  0  3  0  2  1  3  7  6  5  2  7  2  5  6
  4  6  8  1  8  1  5  6  4  2 10 11  0  7 10  0  6  8  0 13  6  0  0  2
  0  2  2  0 11 15  5  9 16  1 18 12  1 18 19  2  0  1  2 15  2  4 17 19
  3  1 20 17 27 12  4]"
8500,342,1.0,7,3,1333.6498982906342,144.3605899810791,0,1088000,6400777,46917224,"[ 0  3  1  2  2  2  0  0  3  5  0  2  0  2  1  3  8  0  5  6  6  4  0  5
  4  6  8  0  5  0  0 10  5  4  2 10  0  3 12  0  6  8  2  4  8  0  0  2
  0 18 18  3 18 18  4 10  9  3 13 12  5 22 21  0  1 22  3 14 14  4 17 19
  1  2 22 17 27 12  4]"
8600,342,1.0,7,3,1348.0130710601807,143.6317276954651,0,1100800,6471277,47410752,"[ 0  3  1  2  0  2  0  0  3  4  3  3  0  2  1  0  4  2  0  4  2  4  8  7
  4  6  8  1  4  5  0  3  0  2  2  5  2 10  6  0  6  8  1  4  0  0  0  2
  5 14  1  4  1  9  2 16 14  3  2 13  3 17  0  4 22 15  1 22 15  4 17 19
  2 16 17 17 27 12  4]"
8700,342,1.0,7,3,1362.6307425498962,146.17671489715576,0,1113600,6542768,47910144,"[ 0  3  1  4  0  2  0  0  3  1  2  0  0  2  1  3  1  5  5  2  7  1  1  8
  0  6  8  3  5  6  4  8  6  2  0  6  4  1 12  0  6  8  0  4 10  0  0  2
  4  1 11  2  1 16  4 13 15  0  0  3  4 19  1  3 16 21  4  3 15  4 17 19
  4  2 18 17 27 14  4]"
8800,342,1.0,7,3,1376.8742718696594,142.43529319763184,0,1126400,6613115,48401050,"[ 0  3  1  4  0  2  0  0  3  3  2  2  0  2  1  3  6  0  5  2  7  1  7  1
  4  3  5  5  0  2  4  8  6  0  3  3  5  1  8  0  6  8  0  5 11  0  0  2
  3  2 11  1  9  0  0 11 10  3 13  2  4 22 21  2 14  3  5 16  0  4 17 19
  5  2 23 17 27 14  4]"
8900,342,1.0,7,3,1391.2357578277588,143.61485958099365,0,1139200,6683401,48892401,"[ 0  3  1  2  2  0  0  0  3  4  0  2  0  2  1  0  5  5  3  7  8  1  0  2
  4  3  4  2  0  5  4  8  6  2  2  7  0 10  0  0  6  8  1  8 10  0  0  2
  3  0 14  2 18 12  2  3 18  1  1  2  2 14  2  3 23 17  1 19 15  4 17 19
  1  3 18 17 27 14  4]"
8909,343,1.0,7,2,1392.485678434372,138.88006740146213,0,1140352,6689639,48936051,"[ 0  3  1  2  2  0  0  0  3  4  0  2  0  2  1  0  5  6  0  7  8  2  3  2
  4  4  4  3  4  5  4  8  6  2  2  7  0 10  0  0  6  8  1  8 10  0  0  2
  5  0  9  5 18 12  0  3 18  1  1  2  2 14 14  2 23 16  1 19 15  4 17 19
  1 19 18 17 13 14  4]"
