generation,fitness,functionality,active_nodes,longest_path,time,gen_time,nc_gens,fitness_evals,graph_evals,node_evals,genotype
0,235.0,0.65625,3,2,0.005278110504150391,5.278110504150391,0,0,0,0,"[ 1  1  0  4  1  3  3  0  0  3  0  3  5  3  2  5  3  1  0  2  8  1  6  2
  5  0  4  3  0  3  2  0  1  1  0 11  2  7 11  3 10  6  5  9 10  5 15 15
  0 15 11  0 11 18  2 18 16  4  1  1  3 22 22  4 18 19  2 19  2  4 23  1
  4  1 23  9  2  2 27]"
100,334.0,0.984375,8,3,26.848586082458496,268.43307971954346,0,12800,138030,1052194,"[ 3  1  0  3  1  2  2  0  3  2  0  0  3  0  1  0  3  1  2  0  2  1  3  6
  5  7  2  0  1  1  0  4 12  2  6  6  2  2  1  3 10  9  0 11 10  1 14 14
  5 16 15  0 11 10  3 10 10  4  1  1  5 20 21  5 21 21  3  3 22  4  1 23
  1 20 19 23 17 20  9]"
108,341,1.0,8,3,28.398906707763672,193.79007816314697,0,13824,144848,1106949,"[ 2  1  0  3  1  2  2  0  3  2  2  0  3  0  1  0  3  1  2  0  2  1  3  6
  5  7  6  0  0  1  5  4 12  2  6  6  2  2  1  3 10  9  0 11 10  1 14 14
  5 16 15  0 11 10  3 17 10  4  1  1  4 20 21  5 21 21  3  3 22  4  1 23
  1 20 19 22 17 20  9]"
200,341,1.0,8,3,42.79145312309265,156.4407219057498,0,25600,202445,1565633,"[ 3  1  1  2  0  3  2  0  3  3  1  0  2  0  2  0  3  1  2  0  2  0  6  1
  2  6  6  0  6  1  3  7  8  5  7 11  2  2  1  3 10  9  1  8  6  4  9 14
  5 16 12  1 17 18  5 17 10  4 18 12  2  3  3  2 16 19  1  3 23  0 16 23
  1 17  3 22 17 20  9]"
300,341,1.0,8,3,58.023362159729004,152.31909036636353,0,38400,263921,2054304,"[ 5  3  0  2  3  0  2  0  3  5  1  0  0  3  3  0  3  1  2  0  2  1  7  3
  2  6  6  0  7  6  4  3  1  2 12 11  2  2  1  3 10  9  0  1  2  5 10  2
  5 16 12  0  3 18  3 17 10  1 17  9  1 21 23  1  0 14  0 19  3  0  0 21
  2  1 21 22 17 20  9]"
400,341,1.0,8,3,72.95834684371948,149.34984683990479,0,51200,326749,2553437,"[ 3  2  2  5  2  0  2  0  3  3  2  0  4  3  2  0  3  1  2  0  2  4  0  4
  3  6  6  5  0  5  5  2  8  4  2  4  2  2  1  3 10  9  0 10  3  1 10  3
  5 16 12  4  9 13  3 17 10  5 15  2  5  2 23  3 15 14  5  3 15  0 20  1
  5  2 23 22 17 20  9]"
500,342,1.0,7,3,85.57353687286377,126.15190029144289,0,64000,382011,2953557,"[ 1  0  2  2  1  1  2  2  0  0  0  3  5  2  3  0  3  1  2  0  2  0  0  3
  2  7  4  3  5  8  5 13  6  1  8 10  2  2  1  3 10  9  2 13  4  2  1 15
  5 16 11  0  2 18  5 17 10  5 13 11  0 22 20  0  2 14  2  3  3  3 17 17
  1 20 23 22 17 20  9]"
600,342,1.0,7,3,97.96115708351135,123.87620210647583,0,76800,437963,3346463,"[ 1  0  0  2  3  0  0  1  1  1  2  3  3  1  0  0  3  1  2  0  2  0  0  3
  2  4  6  3  5  5  0  3  3  1  7  5  2  2  1  3 10  9  5  0  6  0  1 15
  5 16 11  3 16  2  3 17 10  0 11 11  1 23 15  2 23 14  1 17 21  3 18  1
  2 23 23 22 17 20  9]"
700,342,1.0,7,3,110.41641473770142,124.55257654190063,0,89600,494409,3740891,"[ 2  0  2  1  3  3  5  1  0  4  1  1  4  1  0  0  3  1  2  0  2  0  0  3
  0  3  6  5  5  0  4 11  2  5 11  2  2  2  1  3 10  9  5  5  0  0 18 16
  5 16 11  2  2  1  3 17 10  3  3 16  2 22 20  0 17 20  2  0 22  3 20 21
  3 14  2 22 17 20  9]"
800,342,1.0,7,3,123.20225954055786,127.85844802856444,0,102400,550455,4132971,"[ 2  3  2  2  2  0  1  2  0  2  3  3  2  3  1  0  3  1  2  0  2  0  0  3
  0  4  8  5  7  3  3  2  5  2  4  7  2  2  1  3 10  9  3  0  0  0 18 13
  5 16 11  5 12 15  3 17 10  3 12 18  5  1  0  1 23  0  0 16  0  0 17  2
  5  0 15 22 17 20  9]"
900,342,1.0,7,3,136.30070281028748,130.98443269729614,0,115200,606661,4526503,"[ 2  3  0  1  1  1  5  0  2  2  3  2  3  0  1  0  3  1  2  0  2  0  0  3
  5  2  4  5  4  0  4  7  3  1  9 13  2  2  1  3 10  9  3  3 13  4 18 13
  5 16 11  4 12  0  3 17 10  4  3 10  4 20 23  0  1 16  1 17 22  5  2 14
  1 22 22 22 17 20  9]"
1000,342,1.0,7,3,150.45557951927185,141.54876708984375,0,128000,662374,4917289,"[ 2  1  0  0  2  1  1  2  1  0  1  1  4  0  1  0  3  1  2  0  2  0  0  3
  4  8  4  2  0  6  2 12 12  3  8  6  2  2  1  3 10  9  5 11  8  2 17 15
  5 16 11  4 17 12  5 17 10  3 15  0  2  1 19  0 23 16  4  1 14  5 23 14
  1 19 20 22 17 20  9]"
1100,342,1.0,7,3,163.65416145324707,131.9858193397522,0,140800,718585,5310808,"[ 5  1  1  4  1  2  3  1  3  0  0  1  4  2  2  0  3  1  2  0  2  0  0  3
  5  1  5  5  8  0  0 10  1  3  1  9  2  2  1  3 10  9  5 12  3  0  3 14
  5 16 11  3 17 16  3 17 10  0 17 15  0  2 20  5 23 16  5  2  3  1  2 22
  4 19  0 22 17 20  9]"
1200,342,1.0,7,3,177.43291759490967,137.78756141662598,0,153600,775813,5711671,"[ 1  2  3  5  1  0  0  0  0  1  2  0  1  3  1  0  3  1  2  0  2  0  0  3
  3  0  0  2  1  2  1  1  8  2  8  4  3  2  6  3 10  9  5 11  5  0  2 17
  5 13 11  3 16  9  5 17 10  1 15  3  3 17 15  4 14 17  1 17  0  2 21  2
  4 22 18 22 17 20  9]"
1300,342,1.0,7,3,191.948744058609,145.1582646369934,0,166400,830924,6097378,"[ 1  3  0  2  1  1  5  1  1  5  2  3  5  1  0  0  3  1  2  0  2  0  0  3
  5  1  7  2  1  2  0  7  7  5  6 11  0 12  7  3 10  9  0  0  4  0  9 17
  5 13 11  2  2  2  3 17 10  0 13  9  4 18 18  0 23 17  5 18  3  3 15  1
  3  3 20 22 17 20  9]"
1400,342,1.0,7,3,206.02343702316284,140.74692964553833,0,179200,890382,6512754,"[ 2  2  3  2  1  2  3  1  2  1  0  2  4  0  0  0  3  1  2  0  2  0  0  3
  3  7  6  4  1  5  0  3  8  5  5 11  3 11  3  3 10  9  2  8 11  4 18 14
  1 18 16  1 17 17  3 17 10  2  9  3  0  2 15  4 21 14  4  2 15  0 23  3
  2 19  2 22 17 15  9]"
1500,342,1.0,7,3,220.15502166748047,141.31584644317627,0,192000,951883,6942947,"[ 4  2  1  5  0  1  2  1  2  1  2  0  0  2  3  0  3  1  2  0  2  4  6  2
  0  3  0  2  0  5  3  4  7  5  6 12  3 11  5  3 10  9  4  6  4  0 15 16
  5 17 10  3  2 15  5 17 10  2  9 12  3  2  3  5 22  0  3 21 23  1 16  0
  1 23 15 22 17 15  9]"
1600,342,1.0,7,3,233.63629484176636,134.8127317428589,0,204800,1012048,7363354,"[ 2  3  1  5  3  0  2  1  2  5  3  2  5  3  2  0  3  1  2  0  2  4  4  2
  0  3  0  0  7  1  5  9 11  5  6 12  3  0 11  3 10  9  4  8  8  4 15 14
  3  0 13  4  1 17  5 17 10  5 17 17  0 14  1  4 15 15  1  2 22  4 22 20
  0 22 15 22 17 15  9]"
1700,342,1.0,7,3,248.7885501384735,151.52255296707153,0,217600,1073517,7793618,"[ 0  0  3  3  0  2  1  0  2  2  1  2  4  0  3  0  3  1  2  0  2  1  0  4
  0  3  0  1  3  1  2 11 10  5  7 12  5 12  9  3 10  9  5  5  1  4 15 12
  4  2 16  4 18  0  5 17 10  2  2 11  0 16 18  0  3  0  2 23 14  3 15  0
  4 16 15 22 17 15  9]"
1800,342,1.0,7,3,266.42651653289795,176.37966394424438,0,230400,1133667,8213906,"[ 5  1  2  3  3  3  4  2  2  2  1  2  4  2  1  0  3  1  2  0  2  2  5  8
  0  3  0  4  4  5  4  9  4  5  7 12  3 10  2  3 10  9  0  3  6  5  3  2
  4  0 16  4 18 12  3 17 10  3  9  3  1 20 20  5 23 18  3 18 18  0 21  2
  1 18 14 22 17 15  9]"
1900,342,1.0,7,3,282.5122547149658,160.8573818206787,0,243200,1193897,8634970,"[ 0  3  0  5  0  0  2  2  0  2  1  2  1  2  3  0  3  1  2  0  2  3  8  3
  0  5  0  2  4  3  4  3  0  5  7  4  1  2  9  3 10  9  3 11 13  3 14 18
  0  0  2  2 12 18  5 17 10  5  9  2  5 17 22  2 17 15  3 18  3  2 20 19
  3 18 22 22 17 15  9]"
2000,342,1.0,8,2,300.62052869796753,181.0827398300171,0,256000,1260182,9119942,"[ 0  3  0  4  0  3  0  0  3  2  1  2  1  2  0  0  3  1  2  0  2  2  0  8
  2  0  7  2  1  3  3 12  1  5  7  6  0  1  5  3 10  9  3  6  5  5  0  1
  1  9 15  2  1 16  3 13 10  1 15  0  1 23  3  1 22 22  4 18  3  1 22 23
  2  0 17 22 17 15  9]"
2100,342,1.0,7,3,320.3811137676239,197.60585069656372,0,268800,1327979,9613801,"[ 0  3  2  5  1  0  0  0  3  2  1  2  3  3  0  0  3  1  2  0  2  2  0  3
  0  3  7  1  8  6  3 11  6  5  7  6  5  2  1  3 10  9  0 12  3  4  0  9
  0  1 18  0 15  2  5 17 10  5 12 17  3 16 17  2 20 18  4 21 23  4 17  1
  0  1 15 22 17 15  9]"
2200,342,1.0,7,3,334.75140857696533,143.7029480934143,0,281600,1391686,10059670,"[ 1  2  0  4  0  0  0  1  1  2  1  2  3  0  1  0  3  1  2  0  2  5  1  6
  0  3  0  3  7  2  1  8 10  5  7 12  4  1 13  3 10  9  2  5  6  3  2  3
  0 13 17  0 14  3  3 17 10  0  2 16  0 20 21  1 17  1  3 21  1  3 14  3
  3 19 21 22 17 15  9]"
2300,342,1.0,7,3,348.72589778900146,139.74489212036133,0,294400,1453265,10490033,"[ 1  2  1  1  0  2  0  2  0  2  1  2  4  3  0  0  3  1  2  0  2  2  2  0
  0  3  0  5  3  3  1  7  3  5  7 12  2  1 11  3 10  9  1  7  2  1 11 16
  2 18 18  5 17  3  5 17 10  0  9 11  0 16  0  0  1 19  3 22  1  5 23 16
  1 21 16 22 17 15  9]"
2400,342,1.0,7,3,363.2799870967865,145.54089307785034,0,307200,1514248,10916291,"[ 5  3  0  2  0  0  0  1  1  2  1  2  0  0  2  0  3  1  2  0  2  0  0  1
  0  3  0  3  7  0  1  7  9  5  7 12  4 10 11  3 10  9  4  6  8  4 12  0
  4 14 13  4  9  1  3 17 10  2 10 10  0  1 16  4 19 14  5 21  1  4 15 14
  4 14 18 22 17 15  9]"
2500,342,1.0,7,3,377.3335769176483,140.53589820861816,0,320000,1574864,11339403,"[ 4  1  0  3  0  2  1  1  1  2  1  2  2  2  1  0  3  1  2  0  2  4  4  3
  0  3  0  0  5  7  0 13 13  5  8 12  5 12 13  3 10  9  0  3  2  3 12 11
  0 13 15  1 10 11  5 17 10  1 18  2  4 14 16  0 20  0  4 21 15  0  3 22
  0 14 20 22 17 15  9]"
2600,342,1.0,7,3,390.2782986164093,129.44721698760986,0,332800,1637187,11774453,"[ 1  3  1  3  1  0  3  3  2  4  3  1  2  2  1  0  3  1  2  0  2  0  7  2
  0  3  0  4  3  4  5  0 10  5  8 12  4  1  5  3 10  9  5  9 12  3 17  3
  3  9 18  0  3  2  3 17 10  3 18 11  0 18 17  4  2 21  2  2  0  2 19  2
  4 17 20 22 17 15  9]"
2700,342,1.0,7,3,403.01848340034485,127.40184783935545,0,345600,1697751,12198172,"[ 4  2  3  5  3  0  1  3  3  3  1  3  2  2  1  0  3  1  2  0  2  3  7  3
  0  3  0  5  1  7  2  0  9  5  8 12  5  8 11  3 10  9  5  9  9  2 17 16
  1 16 17  3  0 10  3 17 10  1 17  9  5 16 20  2 20 19  5  2 16  4 17  0
  5  0 18 22 17 15  9]"
2800,342,1.0,7,3,416.37215185165405,133.53668451309204,0,358400,1758404,12622403,"[ 4  2  2  4  1  2  1  2  1  5  1  2  2  2  1  0  3  1  2  0  2  5  7  8
  0  3  0  3  6  3  4  5 10  5  8 12  5  3  5  3 10  9  1 12  7  0  0  9
  3 16 15  0  0  2  3 17 10  3  2 11  4 23 15  1 16  2  0 17 15  4  1 22
  0  0 18 22 17 15  9]"
2900,342,1.0,7,3,429.1494116783142,127.77259826660156,0,371200,1820194,13054070,"[ 3  1  3  5  3  0  4  1  2  2  0  2  2  2  1  0  3  1  2  0  2  4  5  4
  0  3  0  2  4  8  0  3  8  5  8 12  2 10  8  3 10  9  5 11 10  1 15  1
  5 13  1  3  9 18  3 17 10  4 12  2  5 23 23  1 18  2  0 21 23  0  0  0
  1 22 14 22 17 15  9]"
3000,342,1.0,7,3,444.2432086467743,150.93796968460083,0,384000,1881608,13483435,"[ 4  3  3  4  2  2  5  3  1  3  2  2  2  2  1  0  3  1  2  0  2  1  7  7
  0  3  0  3  6  1  0  1  5  5  8 12  4  8  5  3 10  9  1  5 12  3 12 16
  5  0 13  1 12 11  5 17 10  2 14 16  3 18 14  3 20 18  5  1 19  1 20  1
  1 14 15 22 17 15  9]"
3100,342,1.0,7,3,457.346684217453,131.0347557067871,0,396800,1942571,13910125,"[ 1  0  1  4  0  0  0  1  1  3  3  1  2  2  1  0  3  1  2  0  2  4  4  3
  0  3  0  3  4  2  4  9  5  5  8 12  2  7  8  3 10  9  3  7  4  0  3 15
  1  3 11  3 10  9  3 17 10  4 13 16  0 14 15  5 19 17  2  3 15  5  1 20
  1 14 16 22 17 15  9]"
3200,342,1.0,7,3,470.7478229999542,134.0113878250122,0,409600,2002971,14332012,"[ 0  1  3  5  0  0  5  0  3  4  2  3  2  2  1  0  3  1  2  0  2  2  7  5
  0  3  0  0  4  5  3  2  5  5  8 12  3  4  7  3 10  9  2  2 13  0  2  1
  2  0 10  0 10  9  3 17 10  0 13  1  2  1 17  4 18 16  5 20 23  3 19 17
  5 17 18 22 17 15  9]"
3300,342,1.0,7,3,484.78509998321533,140.37276983261108,0,422400,2064303,14761103,"[ 2  0  0  2  3  0  4  1  1  5  2  0  2  2  1  0  3  1  2  0  2  0  8  7
  0  3  0  4  8  5  2  1  6  5  8 12  0  9  7  3 10  9  2  3 13  1  3 14
  0 15 11  5 18  3  3 17 10  0 15  1  0 15 21  1 21  2  4 21 14  4 23 19
  0 19  3 22 17 15  9]"
3400,342,1.0,7,3,500.5892713069916,158.04171323776245,0,435200,2125146,15186504,"[ 3  3  0  4  0  3  5  1  1  0  0  3  2  2  1  0  3  1  2  0  2  1  8  8
  0  3  0  2  6  0  1 10 11  5  8 12  1  4  8  3 10  9  2 12  5  2  3 16
  0 15 15  1 14  2  3 17 10  0  0  0  1 14  0  2  0  3  3 18  0  5 16 22
  0 20  1 22 17 15  9]"
3500,342,1.0,7,3,513.6987810134888,131.09509706497192,0,448000,2189312,15634207,"[ 4  3  2  5  0  0  5  1  1  0  0  3  2  2  1  0  3  1  2  0  2  4  7  7
  4  0  2  2  0  6  4  1  5  5  8  7  1  5  8  3 10  9  0  1  2  1 17  3
  0  1 16  2 13 16  5 17 10  1 10 18  5 17  2  4  1 15  3 14 17  4 19 16
  0 19 21 22 17 15  9]"
3600,342,1.0,7,3,528.7265589237213,150.27777910232544,0,460800,2254674,16090980,"[ 5  3  3  4  3  0  3  1  3  0  0  3  2  2  1  0  3  1  2  0  2  2  5  4
  5  7  2  4  2  1  5  8 13  5  8  7  5  4  4  3 10  9  3  2  2  1 11 14
  3 10  2  1 18 14  3 17 10  0 18  1  3 15 16  0  3 16  4 20  2  4 22  2
  5  3 14 22 17 15  9]"
3700,342,1.0,7,3,542.9661507606506,142.3959183692932,0,473600,2319334,16543240,"[ 1  3  2  2  0  3  1  3  2  0  0  3  2  2  1  0  3  1  2  0  2  5  4  4
  5  4  6  3  0  0  4  0 13  5  8  7  2  2 12  3 10  9  2  4 10  5  9  1
  0 18  9  5 17 18  5 17 10  4 17  0  0 19 15  5 17 15  5 16 16  0  2 20
  5 19 22 22 17 15  9]"
3800,342,1.0,7,3,558.6795160770416,157.1336531639099,0,486400,2384366,16998942,"[ 0  3  0  0  0  0  5  1  0  0  3  3  2  2  1  0  3  1  2  0  2  2  4  3
  5  6  0  1  2  0  2 11 11  5  8  4  3  3 12  3 10  9  5  9  4  0  3 15
  1 10  2  1  0  1  3 17 10  0 11  0  5 22  3  0  2  3  3 20  2  0 23 16
  5 21 19 22 17 15  9]"
3900,342,1.0,7,3,573.5888438224792,149.09327745437622,0,499200,2448696,17448119,"[ 0  3  0  4  2  2  5  1  1  3  0  3  2  2  1  0  3  1  2  0  2  1  4  7
  5  3  4  4  3  4  5 13 10  5  8  4  2  2 13  3 10  9  3 11  5  4 12  1
  4 15 15  5 10 10  3 17 10  3 18 13  0  0 20  5 22  2  2  2 23  1  2 18
  0 14 18 22 17 15  9]"
4000,342,1.0,7,3,586.6786110401154,130.89767217636108,0,512000,2512261,17893193,"[ 0  3  0  5  1  1  3  3  2  2  0  3  2  2  1  0  3  1  2  0  2  1  3  5
  5  3  4  5  0  8  0  6  6  5  8  4  2  0  6  3 10  9  3 11  9  3 18  9
  2 18  1  0 15  3  3 17 10  4 13 18  2 15 20  4  2 19  3 22 23  1  3 20
  1 16 19 22 17 15  9]"
4100,342,1.0,7,3,600.0454723834991,133.6686134338379,0,524800,2575903,18337586,"[ 0  3  0  5  1  0  2  2  2  1  3  0  2  2  1  0  3  1  2  0  2  5  6  4
  0  1  3  5  8  8  5  6 11  5  8  4  5  5  4  3 10  9  0  3  1  4  9  9
  5  9 13  5 14 14  3 17 10  2 18 15  5 21  0  4 19 16  3 19 15  4  0 14
  5 14 20 22 17 15  9]"
4200,342,1.0,7,3,613.3654346466064,133.199622631073,0,537600,2640997,18792309,"[ 0  3  0  1  0  1  3  3  0  4  0  3  2  2  1  0  3  1  2  0  2  4  4  4
  4  0  7  2  6  1  0  1  4  5  8  4  0 13  2  3 10  9  3 10 12  3 18 17
  2  9  2  4 15 16  5 17 10  5  0 16  2 19  3  1 20 16  3 17  2  0 21  0
  3 23  0 22 17 15  9]"
4300,342,1.0,7,3,626.88347864151,135.18043994903564,0,550400,2707177,19259651,"[ 0  3  0  2  2  0  5  3  0  5  2  1  2  2  1  0  3  1  2  0  2  2  1  5
  1  4  5  3  6  8  5  6  5  5  8  4  2  5  3  3 10  9  2  1  2  4 12 13
  2 17 18  4 13 17  5 17 10  2  0  1  5 21 20  5 14 17  5  1 19  3  2 15
  4 21 21 22 17 15  9]"
4400,342,1.0,7,3,640.1582386493683,132.74760007858276,0,563200,2771213,19707292,"[ 0  3  0  3  0  2  3  3  1  2  0  3  2  2  1  0  3  1  2  0  2  5  5  6
  0  2  6  1  3  4  1  4  5  5  8  4  2  7  7  3 10  9  0 10  7  1 15 14
  3  2 11  4 10 15  5 17 10  2 12  1  5 16  1  0 19 22  0 14 17  1 22 20
  5 18  1 22 17 15  9]"
4500,342,1.0,8,2,655.5660364627838,154.07797813415527,0,576000,2835588,20163585,"[ 0  3  0  0  0  1  4  2  3  3  1  0  2  2  1  0  3  1  2  0  2  2  1  3
  1  6  4  3  3  0  0  1  2  5  8  4  2 13  7  3 10  9  2  4  7  5 14 17
  2 18 18  1  0 14  3 11 10  3  9 15  3 17 20  4 20 22  5 21 15  2 22  1
  4  1 15 22 17 15  9]"
4600,342,1.0,8,2,672.0578696727753,164.91833209991455,0,588800,2908099,20734130,"[ 0  3  0  5  1  3  4  3  0  5  3  3  2  2  1  0  3  1  2  0  2  2  1  3
  4  6  6  2  5  7  5  9  9  5  8  4  4 10  0  3 10  9  1  5 10  1 12  3
  0 18  9  0 14 14  3 11 10  5 15  3  2  0 16  0  2  0  4 20  2  5 18 19
  4  0 22 22 17 15  9]"
4700,342,1.0,7,3,688.6204817295074,165.62612056732178,0,601600,2975866,21237879,"[ 0  3  0  0  1  2  2  2  2  5  3  0  2  2  1  0  3  1  2  0  2  2  5  5
  1  6  1  5  1  6  1  0  3  5  8  4  1  2  3  3 10  9  4  0  2  4  9 18
  3 17 13  5  1 15  5 17 10  0 10  3  1  0 17  4  3 16  4 17 16  4 19 14
  1 23 18 22 17 15  9]"
4800,342,1.0,7,3,702.570249080658,139.49767351150513,0,614400,3040291,21688217,"[ 0  3  0  2  2  1  5  1  1  2  1  3  2  2  1  0  3  1  2  0  2  2  1  1
  4  0  2  0  3  0  0 12  3  5  8  4  0  7  8  3 10  9  3 12  7  5 16  0
  0  1 10  3  3  0  5 17 10  2 15 12  4 16 23  2  2 18  4  1  2  1 16 14
  1 16 23 22 17 15  9]"
4900,342,1.0,7,3,716.7858462333679,142.1559715270996,0,627200,3103815,22131270,"[ 0  3  0  4  0  3  0  2  1  5  3  1  2  2  1  0  3  1  2  0  2  0  0  8
  2  0  6  1  8  1  4 10  3  5  8  4  0  7  5  3 10  9  1  1  4  5 11 13
  3  0 10  0 13 11  3 17 10  3 13  3  2 19  0  5 14 21  0  1 21  4  3 19
  1 17 21 22 17 15  9]"
5000,342,1.0,7,3,730.51828789711,137.32441663742065,0,640000,3169047,22586587,"[ 0  3  0  4  0  3  0  0  1  0  2  1  2  2  1  0  3  1  2  0  2  1  3  1
  5  6  8  1  7  5  3  4  7  5  8  4  5  0  1  3 10  9  0 11  2  2 11  3
  2 10  3  4 14 18  3 17 10  3  9  3  5 16  0  0  0  0  4 17 21  1 22 21
  0 21  2 22 17 15  9]"
5100,342,1.0,7,3,744.9799561500549,144.61668252944946,0,652800,3233398,23036995,"[ 0  3  0  4  0  2  1  1  1  3  3  3  2  2  1  0  3  1  2  0  2  5  3  5
  3  6  0  1  7  0  2  0  8  5  8  4  4  2  3  3 10  9  5  4 11  2 16 10
  4 18  1  1 11  0  3 17 10  5 10 16  3  1  0  5  2 22  2 23 14  2 16 22
  1 18  2 22 17 15  9]"
5200,342,1.0,7,3,759.0901265144348,141.10170364379883,0,665600,3298019,23488685,"[ 0  3  0  0  0  0  2  2  1  4  3  0  2  0  1  0  3  1  2  0  2  0  7  1
  2  2  3  2  0  6  2  8  6  5  6  4  2 12  6  3 10  9  0  7  8  1  1  3
  3  9  9  4 14  1  5 17 10  0 13 18  5  2  3  0 20 22  3  0 23  4  1 14
  2 16 21 22 17 15  9]"
5300,342,1.0,7,3,772.8963460922241,138.06219577789307,0,678400,3361413,23931836,"[ 0  3  0  4  2  0  2  2  1  3  1  2  5  3  1  0  3  1  2  0  2  1  3  5
  1  0  3  2  7  7  2  9  8  5  6  4  1  8 12  3 10  9  4  2 10  5 13  0
  0  0  2  2 10  0  5 17 10  1 13 10  2  1 19  4 20 23  5  0  0  0 22 19
  5 19 20 22 17 15  9]"
5400,342,1.0,7,3,786.6113736629486,137.15027570724487,0,691200,3425102,24376977,"[ 0  3  0  3  3  0  2  2  1  4  0  2  2  2  1  0  3  1  2  0  2  1  4  7
  4  3  7  5  8  6  3  3  0  5  6  4  4  9  9  3 10  9  1  1  1  5  9  0
  4  1 17  1  3 12  5 17 10  5  0 18  2 18  0  5 18  0  3 15 17  5  3 15
  3  0  2 22 17 15  9]"
5500,342,1.0,7,3,801.4915013313293,148.80127668380737,0,704000,3490004,24830004,"[ 0  3  0  5  1  3  2  2  1  1  1  3  0  0  3  0  3  1  2  0  2  2  2  8
  4  3  7  1  5  4  2  8 13  5  6  4  4  2  6  3 10  9  3 12  2  3 18 14
  4  0 10  1 17 12  5 17 10  3 10 18  1  1 14  5 16 17  2 17 21  1 21  2
  3 17  3 22 17 15  9]"
5600,342,1.0,7,3,815.7505612373352,142.5905990600586,0,716800,3555265,25285946,"[ 0  3  0  0  0  2  2  2  1  0  0  1  2  1  3  0  3  1  2  0  2  1  2  2
  3  6  3  0  7  6  3  4  1  5  6  4  2  7  2  3 10  9  0  9 11  5 10 18
  2 13 17  1 10  1  3 17 10  5  1  1  5  1 20  1 19 17  1  1  2  0 17 21
  4 23 22 22 17 15  9]"
5700,342,1.0,7,3,829.2643773555756,135.13816118240356,0,729600,3620798,25743980,"[ 0  3  0  5  2  0  2  2  1  1  2  1  4  3  1  0  3  1  2  0  2  5  8  3
  2  6  0  2  8  3  2  1  0  5  6  4  2  2 13  3 10  9  4 10 11  1  1  1
  2 12 11  2 10 14  5 17 10  0 14 13  4 15  1  3 21 21  1 15 22  1  0 17
  3 23 15 22 17 15  9]"
5800,342,1.0,7,3,843.1582736968994,138.93896341323853,0,742400,3686127,26199756,"[ 0  3  0  1  3  3  2  2  1  4  2  1  4  3  1  0  3  1  2  0  2  0  3  4
  2  8  6  4  0  2  3  1  4  5  6  4  2  4  9  3 10  9  3  2 12  3  1 13
  5  3  0  4 15  9  3 17 10  0 12 17  2 18 23  4 22 14  3 21 19  2  3 20
  1 20 17 22 17 15  9]"
5900,342,1.0,7,3,857.8517782688141,146.93504571914673,0,755200,3750248,26647953,"[ 0  3  0  0  3  1  2  2  1  0  1  2  1  3  0  0  3  1  2  0  2  3  4  2
  0  4  3  4  2  1  0  7 10  5  6  4  2  8  1  3 10  9  1 12  2  1 16  9
  4  3 14  1  0 11  3 17 10  4  2 18  5 23 14  5 16 19  2 22 16  4  1  0
  4 23 21 22 17 15  9]"
6000,342,1.0,7,3,871.4900119304657,136.3823366165161,0,768000,3815721,27104889,"[ 0  2  0  0  0  3  2  2  1  5  3  1  0  3  0  0  3  1  2  0  2  4  4  7
  1  2  3  2  1  1  1 13  8  5  6  5  5  9  5  3 10  9  0  1  0  3  0 12
  4 18 12  2 10  2  3 17 10  2 17 18  0  1  1  3  2 22  2 17 20  3 23 21
  5  3 23 22 17 15  9]"
6100,342,1.0,7,3,885.350358247757,138.6034631729126,0,780800,3880988,27561032,"[ 0  3  0  2  1  3  2  2  1  3  0  0  3  2  1  0  3  1  2  0  2  5  8  3
  4  4  3  0  4  2  1 11 11  5  6  4  0 11  9  3 10  9  3  6  7  0  2  1
  4 13 15  3  9 10  3 17 10  2  9 15  3 22 21  1 20  0  5 16 15  5 22  1
  5 20 17 22 17 15  9]"
6200,342,1.0,7,3,900.9778826236725,156.27524375915527,0,793600,3945515,28011569,"[ 0  3  0  2  1  1  2  2  1  0  0  0  0  3  2  0  3  1  2  0  2  2  0  2
  2  1  0  4  5  6  3  1 11  5  6  4  3  2  3  3 10  9  0  6  7  0 15 13
  1 13  9  2 14 17  5 17 10  0 12  0  0 21  0  3 16  2  3 14 20  3 21  2
  1 18 22 22 17 15  9]"
6300,342,1.0,7,3,914.4803383350372,135.02455711364746,0,806400,4010928,28468575,"[ 0  3  0  2  1  2  3  2  3  1  3  1  1  0  1  0  3  1  2  0  2  2  1  3
  2  7  0  1  8  6  3  2  3  5  5  4  1  1  4  3 10  9  5  6  9  3 12  0
  2 17  9  5  9 10  3 17 10  5 15 16  0  1  0  4  1  2  5 14  2  2 17 16
  2  2 22 22 17 15  9]"
6400,342,1.0,7,3,929.1221859455109,146.41847610473633,0,819200,4075324,28918830,"[ 0  3  0  2  1  2  0  1  3  2  0  1  2  3  0  0  3  1  2  0  2  1  5  8
  3  7  6  4  7  4  0 13 13  5  5  4  5 13 10  3 10  9  3  2 12  5 16 18
  0 10 18  2 13 17  5 17 10  5  1  9  3  0 17  3 14 16  4 19  1  5 17 17
  2 19 18 22 17 15  9]"
6500,342,1.0,7,3,944.4912056922913,153.69019746780396,0,832000,4138968,29363748,"[ 0  3  0  2  1  2  4  1  3  0  0  0  4  0  3  0  3  1  2  0  2  3  4  0
  5  8  8  3  5  7  1 13  7  5  5  4  2  8  2  3 10  9  4 13  5  2 16 14
  3  3  3  5 13 11  5 17 10  2  0 17  5 16 21  5 19 23  3 19 18  3 21 17
  0  1 22 22 17 15  9]"
6600,342,1.0,7,3,961.4734628200531,169.8225712776184,0,844800,4203504,29814928,"[ 0  3  0  2  1  2  4  0  2  0  3  1  5  1  1  0  3  1  2  0  2  0  3  6
  2  2  8  1  6  2  2 13  2  5  5  4  0 12  4  3 10  9  2  3  4  3 12  3
  4  2  3  0 10 10  5 17 10  1  1 13  2 15 21  0 18 16  1  0 21  5 23 20
  2 22 18 22 17 15  9]"
6700,342,1.0,7,3,978.273859500885,168.0039668083191,0,857600,4267707,30263474,"[ 0  3  0  2  1  2  3  0  1  4  3  0  5  0  3  0  3  1  2  0  2  3  0  6
  2  0  8  3  1  7  3  0  7  5  5  4  4  1  8  3 10  9  2  9  7  1 14 10
  2 12 15  5 16 14  3 17 10  0 18  2  0  2  3  1 21  0  5 19  3  3 17  1
  2 23 16 22 17 15  9]"
6800,342,1.0,7,3,993.5310146808624,152.57155179977417,0,870400,4330829,30705087,"[ 0  3  3  2  1  2  1  2  3  4  2  0  2  3  3  0  3  1  2  0  2  0  0  3
  1  3  8  2  3  7  3  3  3  5  5 11  3 10  9  3 10  9  1  4  7  2  1  3
  4 16 12  3 13 18  5 17 10  5 18 12  0 14  3  5 21 23  5 15 20  2 23 23
  4  1 17 22 17 15  9]"
6900,342,1.0,7,3,1009.1120707988739,155.81056118011475,0,883200,4391388,31127884,"[ 5  2  1  2  1  2  4  1  0  3  1  3  5  1  2  0  3  1  2  0  2  0  0  3
  2  6  0  3  3  3  3 13  8  5  5 11  2 10 10  3 10  9  2  8 11  0  0 15
  2  3 15  3 11 15  5 17 10  3 18 11  4 23 18  0  0 22  3 22 19  0  2 14
  4  2 22 22 17 15  9]"
7000,342,1.0,7,3,1025.0715701580048,159.5949935913086,0,896000,4452616,31555997,"[ 0  1  0  2  1  2  5  2  2  0  3  3  2  3  1  0  3  1  2  0  2  0  0  3
  0  6  4  3  5  2  4  5 13  5  5 11  1  5 11  3 10  9  5  1  1  0 17  9
  5 11 15  4 17 15  5 17 10  4 17 11  0 20  2  3 22  2  3 14  0  0 18 20
  4 23 23 22 17 15  9]"
7100,342,1.0,7,3,1037.7021639347076,126.30593776702881,0,908800,4513469,31980722,"[ 4  3  0  2  1  2  0  0  1  0  0  0  5  2  0  0  3  1  2  0  2  1  2  3
  0  3  0  1  8  5  0  2 12  5  5 12  0  4  9  3 10  9  0  3 13  4  1  0
  5 12 10  1 12  3  3 17 10  4 11 16  0 21  2  3 22  3  5  3 17  1  3 15
  2 20 23 22 17 15  9]"
7200,342,1.0,7,3,1052.659487247467,149.573233127594,0,921600,4574851,32409657,"[ 2  2  3  2  1  2  0  3  1  0  2  3  2  0  3  0  3  1  2  0  2  2  5  6
  0  3  0  2  4  8  1  1  3  5  5 12  1 13 12  3 10  9  3  8  7  0 14 16
  5 10  0  2 17 12  3 17 10  5  2  9  2 21 18  5  2 18  0 23 14  4  1 18
  4 20 21 22 17 15  9]"
7300,342,1.0,7,3,1067.2152345180511,145.55747270584106,0,934400,4639225,32860162,"[ 0  0  0  2  1  2  1  3  1  0  0  3  2  1  1  0  3  1  2  0  2  4  7  5
  4  3  6  2  0  2  4 11  4  5  5  7  3  5 11  3 10  9  5  5  3  3  1 18
  0 10  0  1 16 12  3 17 10  3 17  9  5 21 18  0 17  1  5  0  1  0  0 16
  5 16 19 22 17 15  9]"
7400,342,1.0,7,3,1082.5948648452759,153.79630327224731,0,947200,4703131,33307371,"[ 2  0  3  2  1  2  4  2  3  0  0  3  4  2  1  0  3  1  2  0  2  2  2  6
  0  2  8  2  1  8  4 11 12  5  5  7  2  2  4  3 10  9  4  3 12  0 17  3
  5  9 16  5  9 12  5 17 10  3 10 11  1 14 19  4 15 19  3  3  3  2 15 14
  2 15 18 22 17 15  9]"
7500,342,1.0,7,3,1098.9580957889557,163.6323094367981,0,960000,4767349,33756549,"[ 5  1  0  2  1  2  2  1  2  0  0  3  0  2  3  0  3  1  2  0  2  2  5  7
  0  4  6  1  2  5  2  1 13  5  5  7  4 13  0  3 10  9  4 13  4  1 11 16
  3 14 12  1 16 12  5 17 10  0 17  9  3  3  0  1 22 23  3  2 17  4  0  2
  1 20  2 22 17 15  9]"
7600,342,1.0,7,3,1114.7068707942963,157.48775005340576,0,972800,4832136,34210158,"[ 3  3  3  2  0  3  2  1  2  0  0  3  5  3  2  0  3  1  2  0  2  2  0  6
  2  4  7  5  4  7  5  3 11  5  6  7  4  2 10  3 10  9  3  2  5  3 13 11
  5 10 10  4 14 13  5 17 10  3 18 14  4 22 15  1 23 17  0  2  3  1 21  1
  1 20 16 22 17 15  9]"
7700,342,1.0,7,3,1129.1917724609375,144.84901666641235,0,985600,4896637,34662234,"[ 4  1  2  1  3  0  2  1  2  0  0  3  2  2  0  0  3  1  2  0  2  4  1  5
  4  0  8  5  5  8  2 12  0  5  6  7  2  6  4  3 10  9  4  4 13  1  3  2
  1  9 13  0 13  1  3 17 10  0  0 11  3 14  3  0  3 22  3  0 20  2 15  3
  1  2 23 22 17 15  9]"
7800,342,1.0,7,3,1142.8939776420593,137.02205181121826,0,998400,4962077,35119932,"[ 0  3  0  2  1  2  3  1  3  0  1  2  2  2  3  0  3  1  2  0  2  5  8  6
  2  6  3  2  7  6  1 12  9  5  5  4  4  7  8  3 10  9  1  0  9  1 17 10
  3  9  2  1 16 12  3 17 10  2  1 16  1 15  1  0 15  3  5 15 14  5 17  3
  0 22 21 22 17 15  9]"
7900,342,1.0,7,3,1158.077428817749,151.83451175689697,0,1011200,5028762,35585494,"[ 0  3  0  2  1  2  4  3  3  5  0  3  2  0  2  0  3  1  2  0  2  5  6  1
  0  5  0  0  3  5  4 10 13  5  5  4  0  6  1  3 10  9  5  3 11  5  1 18
  2 17  2  5 12 17  3 17 10  2  0 14  4  2 22  2 22 23  2 15  1  5  0 20
  2 22 19 22 17 15  9]"
8000,342,1.0,7,3,1171.8555648326874,137.78136014938354,0,1024000,5094197,36042867,"[ 0  3  0  2  1  2  2  2  3  5  3  3  1  3  3  0  3  1  2  0  2  3  4  7
  0  7  0  4  4  6  5 13 13  5  5  4  0  1 12  3 10  9  5  0 10  3 13 18
  0 14 13  3 16  1  3 17 10  4  1 16  2 22  0  5 21 17  0 15  1  4 22 22
  2 14  2 22 17 15  9]"
8100,342,1.0,7,3,1185.1493237018585,132.93758869171143,0,1036800,5159625,36500304,"[ 0  3  0  2  1  2  2  1  0  3  3  3  2  0  1  0  3  1  2  0  2  0  5  1
  5  5  4  2  3  5  3  9 10  5  5 11  4  1  9  3 10  9  5 11  9  5  1  3
  2 14  9  4 15 13  3 17 10  0 18 16  4 19 23  4 14 19  1 15 16  3 21  2
  0 22 16 22 17 12  9]"
8200,342,1.0,7,3,1198.5521879196167,134.0286421775818,0,1049600,5226592,36967371,"[ 0  3  0  2  1  2  5  1  3  3  2  3  1  3  2  0  3  1  2  0  2  4  6  3
  5  5  4  0  3  1  3 12  5  4  3 11  1  5  2  3 10  9  2  7 10  0 14 11
  3  0  3  1 11 18  5 17 10  0 10  2  4  1 15  1 17  0  3 23 16  4 18  3
  2 15 20 14 17 12  9]"
8300,342,1.0,7,3,1212.3443479537964,137.92160034179688,0,1062400,5295184,37447343,"[ 0  3  0  2  1  2  2  1  1  5  0  1  1  0  1  0  3  1  2  0  2  0  1  2
  5  5  4  5  2  0  3 12  5  3  5 11  1 13  4  3 10  9  3  1 12  5 17 17
  4 16  2  2 17 18  2 13 12  0 14  0  3  2  2  0 16 19  0  3 21  0 18 14
  3 21 18 14 17 12  9]"
8400,342,1.0,7,3,1226.1007113456726,137.5636339187622,0,1075200,5365276,37937240,"[ 2  2  2  2  1  2  0  0  3  1  2  3  3  1  1  0  3  1  2  0  2  5  7  4
  5  5  6  3  7  4  3 12  5  1  5 11  4  9  6  3 10  9  0  3  6  4 15  0
  4  1 18  2 11  1  1  3 14  4 14  2  5 14 23  2 14 14  4 14 22  2 22 14
  2 22 15 14 17 12  9]"
8500,342,1.0,7,3,1241.39515042305,152.9443907737732,0,1088000,5435947,38432388,"[ 2  0  2  2  1  2  0  0  3  4  3  2  5  0  2  0  3  1  2  1  3  2  2  5
  5  5  6  5  0  3  3 12  5  4  2  6  2  2  4  3  4  9  2  7 10  4  0 14
  0 10 11  2  2 15  3 13  9  4 11  9  0 22  1  4 20 15  5 15  3  5 17 15
  3 19 17 14 17 12  9]"
8600,342,1.0,7,3,1256.9421339035034,155.4698348045349,0,1100800,5509515,38946961,"[ 2  0  2  2  1  2  0  0  3  0  3  1  3  2  2  0  3  1  3  2  0  4  6  2
  5  5  6  0  4  7  3 12  5  5 12  8  1  2  5  3  4  9  0 11  9  1 14 15
  1  1 18  5  0 18  2 10 10  0 18  1  4  1 22  0  0 23  1  3 18  3  1  1
  1  3  1 14 17 12  9]"
8700,342,1.0,8,2,1272.683377981186,157.41244077682495,0,1113600,5583383,39465030,"[ 2  0  2  2  1  2  0  0  3  0  3  1  0  3  2  0  3  1  2  3  0  3  8  0
  5  5  6  0  7  1  3 10  5  3 12  7  1  9  1  3  4  9  2  2  4  2  2 16
  3 13 15  1 12  2  2 15 10  1 17 11  2  1 22  5 21 20  3  0 18  5 14 21
  2 21 14 14 17 12  9]"
8800,342,1.0,7,3,1287.3440811634064,146.6070318222046,0,1126400,5657561,40007965,"[ 2  0  2  2  1  2  0  0  3  1  0  2  5  3  2  0  3  1  2  6  4  1  3  4
  5  5  6  1  2  2  3 12  5  2  0  8  1  4  4  3  4  9  5  8  5  0  9 14
  4 18 12  0  3 16  0  1 16  4  9 10  4 14 22  3 21 16  5 20  1  3  0  1
  1 23 22 14 17 12  9]"
8900,342,1.0,7,3,1303.0339710712433,156.89889907836914,0,1139200,5729766,40512406,"[ 2  0  2  2  1  2  0  0  3  5  0  2  3  0  1  0  3  1  3  5  1  2  4  6
  5  5  6  2  7  7  3 12  5  2  3  5  0  3  2  3  4  9  2  1 12  0 18  9
  5  2 11  5 17  3  1 16 15  0 12 13  1 21  0  2  2 14  2 15 21  2  0 18
  5 18 17 14 17 12  9]"
9000,342,1.0,7,3,1318.4094667434692,153.75495672225952,0,1152000,5801415,41013065,"[ 2  0  2  2  1  2  0  0  3  0  3  2  5  3  0  0  3  1  5  3  4  1  8  6
  5  5  6  5  5  3  3 12  5  1  8  7  0  9 12  3  4  9  3 12 13  0 18 11
  4 13 16  2 16  9  5 16  3  0  1 10  5 21 17  1 16  0  2 18  2  5  3 21
  4 18 14 14 17 12  9]"
9100,342,1.0,7,3,1334.8569293022156,164.47462558746338,0,1164800,5875190,41528171,"[ 2  0  2  2  1  2  0  0  3  4  0  3  4  3  0  0  3  1  1  3  7  5  7  3
  5  5  6  0  1  6  3 12  5  5  1 11  2 12  9  3  4  9  1  9  1  2 14 11
  5 17  3  4 11  1  0  1 13  3 12  0  5 21  3  5 17 16  5 16  3  5 17  3
  0 16 22 14 17 12  9]"
9200,342,1.0,7,3,1349.9668841362,151.09954833984375,0,1177600,5948290,42039468,"[ 2  0  2  2  1  2  0  0  3  0  1  1  5  1  3  0  3  1  2  5  6  3  7  3
  5  5  6  0  0  0  3 12  5  4  4  5  2  6  4  3  4  9  1  7  4  0 10 15
  2  1  9  1 13  9  5 16 10  4 13 18  3 15  1  4 16 15  2 21 15  3 21 19
  0  0 15 14 17 12  9]"
9300,342,1.0,7,3,1364.3400313854218,143.73147249221802,0,1190400,6021214,42548702,"[ 2  0  2  2  1  2  0  0  3  0  1  0  3  3  2  0  3  1  4  5  4  3  6  4
  5  5  6  3  3  1  3 12  5  3 11 11  5 11  7  3  4  9  4  6  4  4 14 13
  2  3  1  3  9  0  4 13  9  5 13  0  5 19 20  2  2 21  3 21 17  1 20 22
  0 18  0 14 17 12  9]"
9400,342,1.0,7,3,1379.3005855083466,149.60554122924805,0,1203200,6093807,43055925,"[ 2  0  2  2  1  2  0  0  3  1  1  1  3  0  2  0  3  1  3  0  0  1  3  2
  5  5  6  3  4  6  3 12  5  4 10 12  4  1 10  3  4  9  2  6  3  2 14 16
  0 11 17  1 10 10  0  9 11  2  3  3  3  1  2  3  2 18  4 22 18  4 16  3
  0  2 16 14 17 12  9]"
9500,342,1.0,7,3,1393.9278769493103,146.27291440963745,0,1216000,6166245,43562370,"[ 2  0  2  2  1  2  0  0  3  0  3  2  3  1  2  0  3  1  5  4  7  1  0  4
  5  5  6  3  1  3  3 12  5  1  8 13  5  7  3  3  4  9  2 13  6  5  0  9
  2  2 11  3 14 18  3 15 16  5 12  3  5 17  3  3 23 22  5 21  0  5  1 18
  1 18  0 14 17 12  9]"
9600,342,1.0,7,3,1409.2484498023987,153.2057285308838,0,1228800,6238338,44065812,"[ 2  0  2  2  1  2  0  0  3  5  0  0  1  2  2  0  3  1  3  1  2  1  1  7
  5  5  6  3  4  3  3 12  5  2  7 10  2  6  8  3  4  9  2  6  6  4 10  9
  5 13  1  3  0 14  2  2 10  3  2  2  2 20 17  2 20 21  4  2 17  1  3 17
  4  0 17 14 17 12  9]"
9700,342,1.0,7,3,1424.6541922092438,154.05742406845093,0,1241600,6311766,44579261,"[ 2  0  2  2  1  2  0  0  3  1  0  2  5  3  3  0  3  1  4  4  8  3  0  5
  5  5  6  4  5  1  3 12  5  0  4  3  5  2 13  3  4  9  0  6  3  5 12 10
  3 15 10  5 12  9  2  1 10  3 17  0  4 19  3  1 20 22  0 21  0  0 16 19
  4 15  3 14 17 12  9]"
9800,342,1.0,7,3,1439.0357851982117,143.81592988967896,0,1254400,6384752,45089074,"[ 2  0  2  2  1  2  0  0  3  5  2  1  3  2  0  0  3  1  5  2  2  0  8  1
  5  5  6  4  2  2  3 12  5  4  4  5  4  7  7  3  4  9  5 10  0  3  0 16
  0 17 15  3 11  3  5 18 17  2 14 14  5  3 20  2 19 16  5  0 22  5  2  0
  2  1 23 14 17 12  9]"
9900,342,1.0,7,3,1453.834287405014,147.98502206802368,0,1267200,6458406,45604070,"[ 2  0  2  2  1  2  0  0  3  5  1  0  3  1  1  0  3  1  0  1  6  4  2  6
  5  5  6  0  7  1  3 12  5  1  3  5  3  0  2  3  4  9  5  6  1  2 10 15
  1 12 10  5  3  9  2  1 12  2 13  1  3 16  2  3 18 20  5 22 16  0 20 19
  1  3 16 14 17 12  9]"
10000,342,1.0,7,3,1469.7813398838043,159.47052478790283,0,1280000,6530784,46110276,"[ 2  0  2  2  1  2  0  0  3  3  3  1  4  0  2  0  3  1  1  4  6  4  2  3
  5  5  6  2  5  2  3 12  5  0  4  0  5  4  4  3  4  9  1 12  7  4  9 17
  5 10  9  5 18  1  0  1 10  1 18 18  5  3  2  0  2 20  2 23 14  3 21 23
  5 22 23 14 17 12  9]"
10100,342,1.0,7,3,1488.0396828651428,182.583429813385,0,1292800,6603894,46620405,"[ 2  0  2  2  1  2  0  0  3  2  1  1  0  0  0  0  3  1  0  4  4  0  7  7
  5  5  6  3  1  6  3 12  5  4 12  5  0  1  7  3  4  9  5 10  2  1 10 15
  2  9 14  4  3  9  4  2 17  0 14  3  0  1 17  0  1 23  2 17  1  1 14  0
  2 20  1 14 17 12  9]"
10200,342,1.0,7,3,1505.5628173351288,175.23134469985962,0,1305600,6676581,47127691,"[ 2  0  2  2  1  2  3  0  3  0  0  3  0  2  3  0  3  1  4  2  5  3  5  0
  5  5  7  3  7  2  3 12  5  5 13  7  1  9 12  3  4  9  1  3  9  3  1  3
  5  2 15  5 17 13  0 11  2  1 14  3  3  2  2  4  3 17  5 17 15  4  3 20
  1 15  1 14 17 12  9]"
10300,342,1.0,7,3,1524.9299771785736,193.67159843444824,0,1318400,6749677,47638205,"[ 2  0  2  2  1  2  0  1  0  0  0  3  2  0  2  0  3  1  5  5  8  3  3  2
  5  5  7  2  8  4  3 12  5  3  7 12  4  7  5  3  4  9  4 12  7  3 10 11
  0 17 15  2 14 15  3 13 13  3  9 14  4 17 21  2  3 23  3 14 19  1 15 18
  3  1 22 14 17 12  9]"
10400,342,1.0,7,3,1540.3815414905548,154.515643119812,0,1331200,6824076,48158031,"[ 1  0  2  2  1  2  3  2  1  0  0  3  2  0  2  0  3  1  2  7  8  2  1  6
  5  5  7  0  5  3  3 12  5  4  9  0  2  6  2  3  8  9  4  7 11  2 11  3
  3  3 18  3 16 14  3 15 13  0  9 14  4 17 20  1 23 16  4  1  1  0 17 15
  3  2 22 14 17 12  9]"
10500,342,1.0,7,3,1554.6023766994476,142.20835208892822,0,1344000,6896924,48666996,"[ 3  3  2  2  1  2  1  0  0  0  0  3  2  0  2  0  3  1  5  0  5  3  8  4
  5  5  7  5  1  4  3 12  5  4 12 10  0  2  1  3  8  9  0  1  8  0 11 13
  2 14 14  0 12 15  0 15  9  4  0 16  0 18 15  2 19 16  2 14 22  1 21  3
  1  3 19 14 17 12  9]"
10600,342,1.0,7,3,1570.210916519165,156.08539819717407,0,1356800,6969872,49177270,"[ 2  2  0  2  1  2  0  3  3  0  0  3  2  0  2  0  3  1  4  3  1  4  2  4
  5  5  7  4  6  0  3 12  5  2 10  7  2  8  4  3  8  9  0 13  5  2 13 12
  4 10  0  3 17  1  5  3 16  3 15 10  2 18 17  0 19  2  4 17  0  3 15 22
  1 17 20 14 17 12  9]"
10700,342,1.0,7,3,1584.5325591564178,143.21642637252808,0,1369600,7042472,49684857,"[ 3  1  2  2  1  2  2  2  1  0  0  3  2  0  2  0  3  1  0  5  1  5  7  3
  5  5  7  4  0  0  3 12  5  4  0  6  0 13 10  3  8  9  2  8  0  4 15 18
  1  2  3  0  9 17  4  9 17  0  0  2  0  3 14  4  2 14  2 22 23  3  0  3
  0 15 15 14 17 12  9]"
10800,342,1.0,7,3,1600.652589559555,161.20030403137207,0,1382400,7115042,50190535,"[ 4  1  1  2  1  2  5  2  0  0  0  3  2  0  2  0  3  1  4  7  5  2  5  7
  5  5  7  2  8  1  3 12  5  3  5  6  2 12  2  3  8  9  5  7 11  4 12 18
  0 17  3  2  9  0  2  9 11  5  1 11  1  0  0  3 18 16  2 18 18  3 23 18
  0 15 23 14 17 12  9]"
10900,342,1.0,7,3,1616.2052817344666,155.526921749115,0,1395200,7187664,50697567,"[ 3  0  3  2  1  2  2  1  1  0  0  3  2  0  2  0  3  1  1  8  2  4  5  6
  5  5  7  0  7  6  3 12  5  0  0  2  1  8 11  3  8  9  1  9  9  5 17  0
  2  3 11  3 16 12  1 16  2  4 18 15  4 18 22  1  0 14  2 21  3  3  2 19
  4  3  1 14 17 12  9]"
11000,342,1.0,7,3,1631.9489130973816,157.4363136291504,0,1408000,7262446,51228911,"[ 5  3  1  2  1  2  2  0  0  0  0  3  2  0  2  0  3  1  1  2  6  0  1  5
  5  5  7  2  1  8  3 12  5  4 13  2  3  0  9  3  8  9  2 11 10  1  1 10
  5 14  0  0 11 11  5  2 18  0 18  2  2 17 19  0 19 20  4  2  0  2  1 20
  4 17 19 14 17 12  9]"
11100,342,1.0,7,3,1646.3421103954315,143.93197298049927,0,1420800,7334765,51734010,"[ 4  3  3  2  1  2  0  1  0  0  0  3  2  0  2  0  3  1  3  3  3  5  2  0
  5  5  7  3  1  2  3 12  5  4  3 13  0 13  2  3  8  9  1  1  4  2 16  0
  4  2 12  2  0 17  5  0 11  3  1 15  0 19 18  3 17 14  4  0 15  3  0 22
  0 23  3 14 17 12  9]"
11200,342,1.0,7,3,1660.6703824996948,143.28272104263306,0,1433600,7407818,52244086,"[ 0  2  0  2  1  2  3  0  2  0  0  3  2  0  2  0  3  1  3  8  7  2  6  7
  5  5  7  3  6  8  3 12  5  0  1 13  1  0 11  3  8  9  0  3  1  5 14 17
  2 15  2  0 13  2  5 10 14  4 16  9  5  3  2  3 18 18  5 19 20  3 17  3
  3 16 20 14 17 12  9]"
11300,342,1.0,7,3,1675.3314714431763,146.61088943481445,0,1446400,7480889,52754519,"[ 4  3  0  2  1  2  2  2  2  0  0  3  2  0  2  0  3  1  4  3  2  2  8  1
  5  5  7  3  1  8  3 12  5  5  1 13  3 12 10  3  8  9  0  5  4  0 14  1
  3 12 18  1 10  9  4 16  0  0 12 18  3 17  3  1 22 14  4 18 17  5 23 16
  0 14 21 14 17 12  9]"
11400,342,1.0,7,3,1690.3479897975922,150.16518354415894,0,1459200,7554276,53267735,"[ 1  3  2  2  1  2  0  3  0  0  0  3  2  0  2  0  3  1  0  5  2  0  2  7
  5  5  6  2  8  2  3 12  5  5  0  7  3 11 10  3  8  9  3  0 11  5 16  1
  4  9 15  2  3 17  3 15 11  0 15 18  0 22 14  3 16  3  1 21  1  0 23  0
  4 20 19 14 17 12  9]"
11500,342,1.0,7,3,1704.591803073883,142.43813276290894,0,1472000,7626793,53775222,"[ 1  3  3  2  1  2  0  3  0  1  0  1  2  0  2  0  3  1  2  3  6  3  8  7
  5  5  6  5  6  1  3 12  5  1 13  6  1  8  5  3  8  9  0  7  6  2  9  1
  1 12 16  2  0 15  5  3  0  2  1  1  3  3 19  5 22 22  3 18 14  0 22 23
  4 22 16 14 17 12  9]"
11600,342,1.0,7,3,1719.0238099098206,144.320068359375,0,1484800,7700654,54292624,"[ 1  0  0  2  1  2  0  3  0  1  3  1  2  0  2  0  3  1  5  8  8  5  3  1
  5  5  6  5  2  8  3 12  5  4  4  9  0 13  5  3  8  9  1 11  0  0 16 18
  4 12 15  2 13 10  5 16 14  0  3 16  4 22  2  5 17 19  4  0 20  0 21 21
  0 21  2 14 17 12  9]"
11700,342,1.0,7,3,1733.460857629776,144.37047719955444,0,1497600,7773236,54800323,"[ 4  1  2  2  1  2  0  3  0  5  2  1  2  0  2  0  3  1  4  2  5  5  7  1
  5  5  6  1  1  6  3 12  5  3 11  6  3 11 12  3  8  9  3  4  4  0 13  9
  5 14 18  2 14  0  2 16 18  2 14 13  3 23  2  5 18  1  1  1  3  2  3 22
  4 23  0 14 17 12  9]"
11800,342,1.0,7,3,1747.6352894306183,141.74431800842285,0,1510400,7845971,55308575,"[ 4  0  0  2  1  2  0  3  0  5  2  1  2  0  2  0  3  1  4  1  5  1  4  1
  5  5  6  1  2  4  3 12  5  2  6 11  0  6 11  3  8  9  4  3  9  4 18 14
  5  9 17  3  0  3  4 16  0  5 13  1  1 23 22  3 22  0  4 22 16  5  0 21
  1 18 23 14 17 12  9]"
11900,342,1.0,7,3,1761.7665646076202,141.31275177001953,0,1523200,7918421,55815486,"[ 1  1  2  2  1  2  0  3  0  5  0  1  2  0  2  0  3  1  1  3  8  2  7  2
  5  5  6  3  8  2  3 12  5  1  9  2  4  5  9  3  8  9  1  4  5  5 14 17
  0 11  3  2  1 18  2  1  2  2  3 12  4 21 15  4 22 21  2 17 23  4  0 19
  2  2 19 14 17 12  9]"
12000,342,1.0,7,3,1775.9819011688232,142.15336561203003,0,1536000,7991112,56323170,"[ 5  1  3  2  1  2  0  3  0  2  3  0  2  0  2  0  3  1  4  5  4  3  3  7
  5  5  6  0  2  3  3 12  5  3 11 11  0  2 12  3  8  9  4  8 13  0 15  9
  5 17 13  3 12 14  4 18  1  2 10 16  0 22 15  4 20 20  1 15 18  4 23 22
  0 21 23 14 17 12  9]"
12100,342,1.0,7,3,1790.3314712047577,143.49570035934448,0,1548800,8064932,56838956,"[ 3  3  1  2  1  2  0  3  0  5  2  0  2  0  2  0  3  1  5  1  7  2  6  3
  5  5  6  2  3  7  3 12  5  1  4 11  0  5  3  3  8  9  1 12  9  4 16  1
  3 16  0  5  1  0  5 16  0  4  2 16  1 15 20  4 22 15  2 18 20  2 22  1
  3  2 15 14 17 12  9]"
12200,342,1.0,7,3,1804.7320201396942,144.00548934936523,0,1561600,8137390,57344514,"[ 5  3  2  2  1  2  0  3  0  2  2  3  2  0  2  0  3  1  1  6  8  1  0  3
  5  5  6  0  1  5  3 12  5  4 10  0  1  0  8  3  8  9  5  2  8  4 13 14
  4 16  0  3  0 17  2  3 16  4 14  1  4 17 19  4  0 15  2 22 16  4  3 21
  0  3 17 14 17 12  9]"
12300,342,1.0,7,3,1818.8990399837494,141.67019844055176,0,1574400,8209885,57851155,"[ 4  3  0  2  1  2  0  3  0  2  1  2  2  0  2  0  3  1  0  6  5  3  8  7
  5  5  6  0  6  2  3 12  5  0  6  1  0 11  8  3  8  9  5  5  8  5  2  0
  5  2  2  2 16 13  1  3  1  2 15  9  4  1  0  1 23 17  4 21  1  0 20 20
  4 19 23 14 17 12  9]"
12400,342,1.0,7,3,1833.1416788101196,142.4263882637024,0,1587200,8283037,58361535,"[ 1  3  3  2  1  2  0  3  0  3  0  0  2  0  2  0  3  1  0  4  1  4  8  0
  5  5  6  2  8  5  3 12  5  2  6  9  0  9  6  3  8  9  0  5  2  2  2  9
  4 17  3  0 11 14  5 16  9  3 15 15  4  0  2  0  3 22  4 22 18  2 18 19
  0 17  1 14 17 12  9]"
12500,342,1.0,7,3,1848.2692790031433,151.27600193023682,0,1600000,8354589,58861314,"[ 4  1  2  2  1  2  0  3  0  5  1  0  2  0  2  0  3  1  1  2  4  3  6  5
  5  5  6  1  6  5  3 12  5  2  9 12  1  1  8  3  8  9  5  6  8  1 17 13
  2  1 18  0  9 15  2 12 14  0 14 11  1 15  1  3 16 19  5 20  0  3 18 18
  5 21 15 14 17 12  9]"
12600,342,1.0,7,3,1863.1745805740356,149.05301570892334,0,1612800,8427861,59373188,"[ 1  2  3  2  1  2  0  3  0  3  3  0  2  0  2  0  3  1  2  1  0  2  5  8
  5  5  6  2  7  3  3 12  5  4  4 12  2  8  0  3  8  9  1 12  5  0 10 13
  2  1 13  0 16  9  3 14 13  5 14 12  2  0 15  0  1 23  4 23 15  0 15 15
  0 23 20 14 17 12  9]"
12700,342,1.0,7,3,1877.785361289978,146.10780715942383,0,1625600,8500708,59882515,"[ 4  0  0  2  1  2  0  3  0  1  0  1  2  0  2  0  3  1  1  8  7  5  4  7
  5  5  6  0  1  1  3 12  5  4 13  8  2  6 10  3  8  9  4 12 11  0 14  1
  4 14 17  0 18 15  5 11  1  5 13 18  2  1  0  3  1 19  5 18 16  5 19  3
  4 17 15 14 17 12  9]"
12800,342,1.0,7,3,1892.2222929000854,144.36931610107422,0,1638400,8573180,60389496,"[ 0  0  3  2  1  2  0  3  0  1  0  0  2  0  2  0  3  1  3  1  8  2  3  3
  5  5  6  1  3  3  3 12  5  1  7 12  4  9 10  3  8  9  1  9  8  5 16 17
  0 12 18  5 15  1  1 15 14  3  1  1  1  3 14  2 19 18  0 23  3  0 19 21
  5  1  2 14 17 12  9]"
12900,342,1.0,7,3,1906.7195417881012,144.97248888015747,0,1651200,8646085,60899036,"[ 0  0  3  2  1  2  5  1  3  1  1  0  2  0  2  0  3  1  4  0  2  2  3  7
  5  5  4  0  8  6  3 12  5  3  2  8  3  7 10  3  8  9  5  9  4  4  3  9
  5 13 16  0 12 15  2 10 12  1 18 12  0  0 14  4  3  0  4  1 21  0 18 23
  3  0 20 14 17 12  9]"
13000,342,1.0,7,3,1920.8521859645844,141.32644176483154,0,1664000,8717783,61399817,"[ 0  0  3  2  1  2  0  3  2  3  1  2  2  0  2  0  3  1  4  4  3  3  7  4
  5  5  4  0  5  1  3 12  5  0 13 13  3  7  7  3  8  9  2 12  1  4 11 16
  3 14 14  5  0 17  0 11 16  2  0  9  4 18 16  0  2  2  5 17 22  5 20 19
  0 21 21 14 17 12  9]"
13100,342,1.0,7,3,1935.192512512207,143.4032654762268,0,1676800,8791685,61917063,"[ 0  0  3  2  1  2  3  0  2  1  2  0  2  0  2  0  3  1  4  4  0  5  5  1
  5  5  4  1  1  2  3 12  5  5 10  1  2  0  8  3  8  9  4 10  5  1  9 11
  3 12 17  3 10  3  2 12  1  1 11 17  2 18 23  3 16 14  2  0 18  0 15 20
  3 19 20 14 17 12  9]"
13200,342,1.0,7,3,1949.4554104804993,142.62897968292236,0,1689600,8865126,62430017,"[ 0  0  3  2  1  2  2  3  0  3  2  3  2  0  2  0  3  1  0  0  1  2  7  6
  5  5  4  3  1  8  3 12  5  4 10 13  3  7 12  3  8  9  1 13  6  0  1 13
  3 11 17  2  0  2  1 15  1  3 12 17  2  2 21  0 17 18  5 21  1  0  3 15
  5  0 16 14 17 12  9]"
13300,342,1.0,7,3,1963.7013947963715,142.45984315872192,0,1702400,8937955,62940131,"[ 0  0  3  2  1  2  0  0  3  3  2  0  2  0  2  0  3  1  2  1  7  4  0  0
  5  5  4  1  7  8  3 12  5  2 12  3  2 13 12  3  8  9  0 11  8  5 11 18
  3 12 17  0 18  0  1 14 12  0  1 13  3 16  1  4 19 19  5 18 22  3 15 19
  4 17 22 14 17 12  9]"
13400,342,1.0,7,3,1977.8918130397797,141.90418243408203,0,1715200,9009811,63442231,"[ 0  0  3  2  1  2  3  3  3  3  2  1  2  0  2  0  3  1  4  1  7  0  4  1
  5  5  4  3  1  5  3 12  5  2 10  8  3 11  6  3  8  9  2  5  2  1 15 11
  0  1  1  4 18 12  2 14  3  3  2  1  3 18 19  1 15 20  2  0 17  2 23 21
  2 18  1 14 17 12  9]"
13500,342,1.0,7,3,1992.012567281723,141.2075424194336,0,1728000,9082336,63949198,"[ 0  0  1  2  1  2  0  3  0  1  1  1  2  0  2  0  3  1  4  6  3  4  3  1
  5  5  6  2  8  7  3 12  5  5 11 10  5  1  2  3  8  9  4 13  0  2 14  2
  0 15  2  1 10 18  1 11  1  5 11 17  3 16 22  3 21 14  5 21 14  0 20 17
  2 15 14 14 17 12  9]"
13600,342,1.0,7,3,2006.0737104415894,140.61143159866333,0,1740800,9154874,64456428,"[ 1  1  2  2  1  2  0  3  0  4  3  1  2  0  2  0  3  1  0  3  0  1  4  0
  5  5  6  0  5  4  3 12  5  3  9  5  4  4  2  3  8  9  5  6  7  0 10 17
  4 14  0  3 16  3  3 13 16  1 12  0  3 18 22  5 14  0  5 18 17  2  1 19
  4 22 21 14 17 12  9]"
13700,342,1.0,7,3,2020.2773315906525,142.0362114906311,0,1753600,9227754,64966437,"[ 2  1  1  2  1  2  0  3  0  1  3  2  2  0  2  0  3  1  5  2  0  3  0  0
  5  5  6  0  1  2  3 12  5  3 10 11  1  3 13  3  8  9  3  8  3  0 18  0
  3  0 13  5  2  9  4 11 15  2 16 15  0  3 22  4 21 18  4 23 20  3 17 15
  3 17 18 14 17 12  9]"
13800,342,1.0,7,3,2034.3593096733093,140.8197808265686,0,1766400,9299784,65470179,"[ 2  2  0  2  1  2  0  3  0  5  3  2  3  0  0  0  3  1  5  6  0  1  4  2
  5  5  6  4  2  1  3 12  5  5 13  4  3 13  6  3  4  9  2  6  1  2 11  2
  4 11 12  5 11 12  5 11 12  3  0 13  4 15 23  4 16 14  4 19 23  2 23 15
  3 22 18 14 17 12  9]"
13900,342,1.0,7,3,2048.5982909202576,142.38981246948242,0,1779200,9373183,65982873,"[ 2  2  0  2  1  2  0  3  0  2  2  0  3  1  3  0  3  1  1  1  8  4  1  7
  5  5  6  3  7  1  3 12  5  2  0 13  0  3  6  3  4  9  0  4  7  3  3 11
  1  1  0  4 12 10  0 15  1  3 14 15  1  1 18  1 23  0  3 20  3  3 15  3
  0 17 18 14 17 12  9]"
14000,342,1.0,7,3,2063.890981912613,152.92690992355347,0,1792000,9444448,66480791,"[ 2  2  0  2  1  2  0  3  0  0  1  2  5  0  1  0  3  1  2  4  1  0  8  5
  5  5  6  3  0  1  3 12  5  3 12  2  3  9  9  3  4  9  2 11  7  4  1 13
  5 10  9  5 16  1  2 14  1  1 18  3  2  3  2  3 23 22  0 15  2  4 18 19
  1 17 15 14 17 12  9]"
14100,342,1.0,7,3,2078.862536907196,149.7155499458313,0,1804800,9517656,66993044,"[ 2  2  0  2  1  2  0  3  0  5  0  2  1  2  1  0  3  1  4  5  3  2  3  8
  5  5  6  1  2  6  3 12  5  3  7  2  3  9  4  3  4  9  5 13  7  3 16  9
  1 14 18  5 15  2  5  1 15  3 15 16  1 21 14  5  1 16  3 18 16  5 17 18
  5  2 20 14 17 12  9]"
14200,342,1.0,7,3,2093.8206267356873,149.5808982849121,0,1817600,9590010,67499161,"[ 2  2  0  2  1  2  0  3  0  5  2  2  0  3  0  0  3  1  3  7  4  5  2  1
  5  5  6  3  1  6  3 12  5  3 11  9  1 10 12  3  4  9  0  8  3  5  1 16
  5  2  9  4  2 11  5 15 12  2 16 14  5  3 19  2 19 16  5  1  1  5 23 21
  4  2 20 14 17 12  9]"
14300,342,1.0,7,3,2109.6959779262543,158.75351190567017,0,1830400,9661571,67999722,"[ 2  2  0  2  1  2  0  3  0  4  1  0  1  2  3  0  3  1  1  8  0  1  6  4
  5  5  6  0  7  7  3 12  5  4  4 12  5  3  1  3  4  9  0  4  0  3 10 16
  3  0 13  1  1  3  5 16  0  1  9 18  5  3 18  4 18  0  0 16 16  0  2  2
  3 16 23 14 17 12  9]"
14400,342,1.0,7,3,2127.2086234092712,175.12645483016968,0,1843200,9734766,68510833,"[ 2  2  0  2  1  2  0  3  0  2  2  1  0  0  0  0  3  1  3  6  5  4  5  0
  5  5  6  1  0  1  3 12  5  5 11  6  1  2  3  3  4  9  4 11  4  4 11  3
  0  9  3  5 15 11  5 10 14  1 16 13  1  3 20  3  0  2  1 20 20  1  3 15
  0 19 16 14 17 12  9]"
14500,342,1.0,8,2,2143.503056526184,162.94433116912842,0,1856000,9808463,69035399,"[ 2  2  0  2  1  2  0  3  0  4  2  2  0  0  3  0  3  1  5  6  7  2  0  3
  5  5  8  3  5  3  3 11  5  3  3  4  2  1 11  3  4  9  0  4  9  3 16  0
  5  9 18  5  9 11  1 13  2  3 18 12  1  2 21  5  0  1  3 20  1  4 21  1
  3 15 20 14 17 12  9]"
14600,342,1.0,7,3,2158.8814446926117,153.78388166427612,0,1868800,9882744,69571730,"[ 2  2  0  2  1  2  0  3  0  1  1  0  4  2  2  0  3  1  3  2  3  1  4  8
  5  5  6  2  3  3  3 12  5  5  3  3  3 10  7  3  4  9  3  2  0  2 14  1
  0 11 12  3 11 12  4  9 16  3 14 12  5 22 19  2 18 17  0 19  3  0 19  3
  0 21 20 14 17 12  9]"
14700,342,1.0,7,3,2173.6494681835175,147.68023490905762,0,1881600,9954799,70074910,"[ 2  2  0  2  1  2  0  3  0  1  0  0  5  1  1  0  3  1  4  4  8  5  0  7
  5  5  6  1  8  8  3 12  5  3  6  3  4  9  3  3  4  9  1 11 10  0 14 12
  2 12 12  2 18  2  1 13 18  5  1  1  2  3 17  5 23  1  1  1  1  1  0 20
  3 23 21 14 17 12  9]"
14800,342,1.0,7,3,2189.7866127490997,161.37144565582275,0,1894400,10029189,70607155,"[ 2  2  0  2  1  2  0  3  0  3  0  0  5  2  3  0  3  1  4  7  2  1  8  4
  5  5  6  1  5  7  3 12  5  4  2 12  3  1 11  3  4  9  5 10  6  3  3  9
  2  3 12  1 17 16  1 14 12  3 15  0  3 21  0  2 21 18  2 21  2  3 15 21
  3 20 16 14 17 12  9]"
14900,342,1.0,7,3,2210.389111995697,206.0249924659729,0,1907200,10100979,71108653,"[ 2  2  0  2  1  2  0  3  0  2  3  1  4  1  2  0  3  1  0  3  2  0  3  8
  5  5  6  3  0  7  3 12  5  3 12 12  3 10  3  3  4  9  0 13  0  1 15  3
  2  0  0  2  1  1  3 16 15  4 17 16  1  1 23  5 14 21  5 15 19  4 16 18
  2 18  0 14 17 12  9]"
15000,342,1.0,7,3,2227.4697239398956,170.80611944198608,0,1920000,10173259,71614398,"[ 2  2  0  2  1  2  0  3  0  5  1  2  5  3  1  0  3  1  4  3  3  3  0  1
  5  5  6  2  4  6  3 12  5  4  0 11  4  4  7  3  4  9  3  3  4  0 15  1
  1 12 18  1 15 13  0  0  3  5 10 11  5 16 16  0 22 22  4 19  1  5 17 21
  5 21  0 14 17 12  9]"
15100,342,1.0,7,3,2244.426202774048,169.56478834152222,0,1932800,10246061,72123245,"[ 2  2  0  2  1  2  0  3  0  4  0  3  2  0  0  0  3  1  0  0  0  0  3  3
  5  5  6  1  6  8  3 12  5  1  2  2  2  7  3  3  4  9  4  4  1  4 16 10
  2 10  2  3 17  3  4  3  3  4 15 13  4 16 16  3 23 17  3 16 16  2  1  3
  2 17 18 14 17 12  9]"
15200,342,1.0,7,3,2259.216408252716,147.90205478668213,0,1945600,10319470,72636084,"[ 2  2  0  2  1  2  0  3  0  5  2  0  2  3  2  0  3  1  0  7  8  4  5  5
  5  5  6  2  0  0  3 12  5  2  4  7  2  2  5  3  4  9  2  2  2  4  2  1
  4 16 15  1  9 18  0 10  9  4 10 13  5 23  0  1 23  1  5 20 18  4 15 17
  5  1  2 14 17 12  9]"
15300,342,1.0,7,3,2273.5419454574585,143.25537204742432,0,1958400,10391802,73140913,"[ 2  2  0  2  1  2  0  3  0  2  0  1  2  1  1  0  3  1  3  1  8  0  3  3
  5  5  6  1  3  5  3 12  5  2  2  4  5  0 11  3  4  9  4  9  2  3  2  0
  0 11 15  1 12 11  2 13 16  5 15 10  1 15 20  1 19 21  0 22 16  4 22 17
  2 15  2 14 17 12  9]"
15400,342,1.0,7,3,2287.82901930809,142.87073850631714,0,1971200,10464947,73651902,"[ 2  2  0  2  1  2  0  3  3  0  3  0  3  2  0  0  3  1  4  6  2  1  5  1
  5  5  7  0  6  8  3 12  5  3  1  5  1  3  2  3  4  9  5  2  1  5 15  2
  3  1 13  3  0 14  0 18 13  3 13 15  2  3 23  0  3  0  0 23  3  4 14 17
  0 23 21 14 17 12  9]"
15500,342,1.0,8,2,2303.960471391678,161.31452083587646,0,1984000,10541192,74214308,"[ 2  2  0  2  1  2  2  0  3  0  3  0  0  3  3  0  3  1  1  0  2  1  5  2
  5  5  7  0  0  1  3  6  5  0  2  0  2 12 13  3  4  9  3 11 10  2  2 15
  5 16 11  5 18 13  4 18 12  1  3  0  0 14 17  1  3 20  0  2 19  3 16  1
  0  3 20 14 17 12  9]"
15599,343,1.0,7,2,2319.9085352420807,161.09155404447307,0,1996672,10616705,74766557,"[ 2  2  0  2  1  2  4  1  0  0  3  0  2  3  0  0  3  1  4  5  8  5  1  2
  5  5  7  4  0  6  3  8  5  0  8 12  5 10  5  3  4  9  2  3  2  4  1  3
  2 16  1  5 16 17  1 15 18  1  1 16  3 20 20  2 19  2  0 14  1  4 18 21
  5 19  3 14 17 10  9]"
