generation,fitness,functionality,active_nodes,longest_path,time,gen_time,nc_gens,fitness_evals,graph_evals,node_evals,genotype
0,166.0,0.46875,11,3,0.014346837997436523,14.342308044433594,0,0,0,0,"[ 4  3  1  3  0  2  0  2  0  0  0  2  4  2  3  5  6  8  3  7  0  2  4  4
  3  4  6  0  3  8  0 13  2  5  7  4  2  1  8  3  6  2  1 10  2  2 11 12
  0 11 14  3 15  9  0  0 16  5 15 12  4 21  1  5  1 19  4 20  1  2 18 15
  2 15 21  5 21 16 18]"
100,335.0,0.984375,7,3,23.681486129760742,236.6713571548462,0,25600,297536,1918776,"[ 2  3  3  4  2  1  0  2  0  1  3  2  0  3  1  0  2  6  1  8  0  0  7  2
  5  5  6  0  1  2  0  1  6  0  0  3  5  0  4  0  1  6  3 13  2  4 13 15
  0  3 14  1 13 13  3 18  3  1 10  0  0 16  3  1 15 17  5 19 23  3 18 22
  0 17  0 20  6 19  8]"
200,337.0,0.984375,6,2,40.529428243637085,168.47938537597656,0,51200,492270,3141694,"[ 3  1  0  3  0  0  0  2  0  1  0  1  0  3  1  3  8  6  5  3  3  4  7  7
  0  1  2  0  1  7  0  8  6  0  0  3  4 10 10  4  3  0  2  7  0  4 12 15
  4  3 14  0 12  1  2  1 12  3 11 17  0  2 21  1 20  2  4  1  0  2 23  1
  4 15 23 14  6 19  8]"
300,337.0,0.984375,6,2,57.118592262268066,165.89160919189453,0,76800,684216,4331057,"[ 4  1  1  1  1  0  0  2  0  0  3  0  0  3  1  3  2  2  0  7  8  0  1  1
  0  1  2  2  4  8  0  8  6  0  0  3  4 13  2  2  7 12  2  0 11  4 12 15
  1 10 18  4  2 14  2 12 15  3 16 14  0 23 23  4 19 18  5 16 17  3 16 18
  1  1  1 14  6 19  8]"
400,337.0,0.984375,6,2,73.48198127746582,163.63385438919067,0,102400,873601,5499557,"[ 0  0  3  3  2  2  0  2  0  3  0  3  0  3  1  5  4  7  4  5  0  1  5  3
  0  1  2  0  1  4  0  8  6  0  0  3  5  3  8  2  2  6  5  7  0  4 12 15
  4 12 18  2  9 16  1  3  0  3  3  0  1 19 14  4  3 22  3  2 19  1 23  2
  2  0  1 14  6 19  8]"
500,337.0,0.984375,6,2,89.94072270393372,164.58738327026367,0,128000,1063953,6679650,"[ 2  1  1  3  3  0  0  2  0  4  1  0  0  3  1  3  5  8  0  4  0  5  3  2
  0  1  2  1  7  1  0  8  6  0  0  3  1  1  9  0  5  3  2  7  1  4 12 15
  0 13 15  2 12 17  4 18  2  2  2 11  3  1  0  0  2  2  4  3 14  1 22 15
  0 16  1 14  6 19  8]"
600,337.0,0.984375,6,2,106.57589221000671,166.3516616821289,0,153600,1258125,7876149,"[ 3  3  1  3  1  0  0  2  0  4  0  3  0  3  1  0  6  0  1  0  8  0  3  0
  0  1  2  3  4  2  0  8  6  2  0  0  3  5  9  2 13  5  2  1  1  4 12 11
  5  0 10  1 16 17  0 18 12  5 12 18  1 18 18  5  2  0  1 15 18  1 17  0
  1 20  0 14  6 19  8]"
700,337.0,0.984375,6,2,123.05856704711914,164.82671737670898,0,179200,1450812,9054180,"[ 1  2  2  4  3  1  0  2  0  3  3  1  0  3  1  4  1  1  1  8  4  0  3  0
  0  1  2  3  1  8  0  8  6  4  1 10  3  8  2  0  6  3  5  5 11  4 12 11
  1  3 16  2  0 12  4  2  2  2 17 11  5  3 14  1 14  0  0 21  0  1 19 16
  3  1 23 14  6 19  8]"
800,337.0,0.984375,6,2,139.40633821487427,163.47767114639282,0,204800,1641763,10220123,"[ 3  2  2  1  3  0  0  2  0  2  1  0  0  3  1  4  0  3  3  4  5  0  3  0
  0  1  2  0  7  3  0  8  6  1  3  6  1  8 12  4 11  2  1  8  5  4 12 11
  4 12 13  3 11 14  0  2  3  1  2  0  5  2  1  4  0 20  3  2 14  3 21 15
  0  2 14 14  6 19  8]"
804,340,1.0,8,4,140.06625056266785,164.97725248336792,0,205824,1649499,10267276,"[ 4  0  2  1  0  0  0  2  0  4  1  1  0  3  1  4  0  3  3  4  5  0  3  0
  0  1  2  0  7  3  0  8  6  1 13  6  1  8 12  0 11  2  1  8 11  4 12 11
  4  2 14  3 11 14  0  2 15  1  2  0  5  2  1  0  0 20  3  2 14  3 21 15
  0 23 14 14 25 19  8]"
900,340,1.0,8,4,156.4860062599182,171.039084593455,0,230400,1806567,11508372,"[ 0  3  2  5  1  1  0  3  0  2  3  1  0  3  1  0  2  1  2  1  2  0  3  0
  0  0  2  4  1  1  0  8 12  3  3  2  0  5 10  4  6  9  3  7  4  4  9 11
  4  2 14  0  3 13  2 17 17  4 11 15  3  0 19  0  0 20  4  1 20  1 21  3
  4  3 23 14 25 17  8]"
1000,342,1.0,7,3,172.40133810043335,159.1532826423645,0,256000,1959001,12648804,"[ 4  3  3  1  3  3  0  3  0  3  2  1  0  3  1  0  2  1  4  8  7  2  5  4
  0  0  2  0  7  8  0  8 12  0  9  9  5  5  3  4  6  9  1  9  7  4  0 10
  4 12 14  0 15 12  3  9 13  4  3 13  1  1  2  5  0 21  4 20  0  5 20 21
  2 16  3 14 20 17  8]"
1100,342,1.0,7,3,186.75729036331177,143.5594892501831,0,281600,2098461,13618491,"[ 4  2  3  4  1  0  0  3  0  0  1  2  0  3  1  0  2  1  1  2  2  2  2  6
  0  0  2  3  5  8  0  8 12  4  7  4  2  1  7  4  6  9  4  6  8  0 12  9
  4 12 14  1  2 12  2 17  2  0 15 15  3 17 22  5 18  0  3  1 21  1 19 23
  0  0 15 14 20 17  8]"
1200,342,1.0,7,3,201.35429191589355,145.96997737884521,0,307200,2242424,14621080,"[ 1  3  2  5  3  1  0  3  0  2  1  2  0  3  1  2  7  1  5  6  7  1  1  8
  0  0  2  3  0  6  0  8 12  5  6 11  5  1 10  2 10  6  3 12 11  2  1 18
  4 12 14  4  2 16  0 10 12  3  1 18  1 20 18  2 20  2  0  2  2  2  3 16
  4 17  2 14 20 10  8]"
1300,342,1.0,7,3,215.73974418640137,143.85449171066284,0,332800,2383376,15601232,"[ 5  2  2  3  2  0  0  3  0  2  1  2  0  3  1  4  5  5  5  6  7  1  0  6
  0  0  2  5  4  8  0  8 12  1 11  6  3 12  2  5  6  1  3  5  3  3 14  3
  4 12 14  4  1 10  2 14 12  0 17 14  2  3 22  3 17  2  2  3 17  1 14 20
  0 14 22 14 20 10  8]"
1400,342,1.0,7,3,230.11725068092346,143.7750220298767,0,358400,2523679,16577600,"[ 4  0  2  5  0  2  0  3  0  2  1  2  0  3  1  4  6  1  5  6  7  2  7  4
  0  0  2  0  3  2  0  8 12  4  3  0  3  1 10  0  7  0  5  2  2  2  1 15
  4 12 14  3 11 12  0 11  2  3 15  0  5 22 16  3  2 19  2  1  3  5 16 21
  2  1  2 14 20 10  8]"
1500,342,1.0,7,3,244.46668434143066,143.49430084228516,0,384000,2664294,17555921,"[ 4  3  0  4  1  1  0  3  0  2  1  2  0  3  1  5  2  4  5  6  7  1  0  7
  0  0  2  2  7  2  0  8 12  3 11  6  3  1  6  4 12 12  2  1 12  3 15 15
  4 12 14  5  3 15  0 13  2  5 12 15  4 19 18  1 18 19  3 21 16  2 20 19
  4 16  0 14 20 10  8]"
1600,342,1.0,7,3,258.9378900527954,144.7120213508606,0,409600,2806463,18546308,"[ 0  0  3  4  1  0  0  3  0  2  1  2  0  3  1  1  4  8  5  4  7  2  1  7
  0  0  2  5  2  6  0  8 12  2  3  1  0  2  7  1  5  1  4  7 10  1 18  1
  4 12 14  0 18 14  2  1 13  1 11  0  4 18 14  1 21  1  0  1 15  0  0 14
  1 16 23 14 20 10  8]"
1700,342,1.0,7,3,273.4524369239807,145.14543771743774,0,435200,2947023,19524662,"[ 0  0  3  3  0  1  2  1  2  2  1  2  0  3  1  3  1  1  5  4  6  3  7  0
  0  0  2  5  5  0  0  8 12  3 10 12  5 12  1  1  3  6  1 10 11  4  1 14
  4 12 14  3 11  1  3 15 18  5  3 15  4  3 21  4 18 21  2 20  1  1  1 17
  2 16 16 14 20 10  8]"
1800,342,1.0,7,3,287.9749758243561,145.225350856781,0,460800,3089452,20516157,"[ 0  0  3  4  2  1  1  1  1  2  1  2  0  3  1  2  6  4  5  4  7  0  8  4
  0  0  2  4  5  6  0  8 12  2  2  2  4  4 11  4  8 12  4  4 11  1  1  2
  4 12 14  0 12 10  0  3  2  3 18 14  2 15  3  5 14 16  4  0 19  5 14 22
  0 14 15 14 20 10  8]"
1900,342,1.0,7,3,302.50842690467834,145.3344702720642,0,486400,3232279,21509094,"[ 0  0  3  4  0  1  1  0  0  2  1  2  0  3  1  4  6  6  5  4  7  1  8  2
  0  0  2  3  3  5  0  8 12  2  4  2  3  0  5  1 10  7  5 10  6  3  3 17
  4 12 14  5 13 18  2 11 18  5 17 13  5 23  3  3  3 23  0  2 20  3  3 22
  0 21  0 14 20 10  8]"
2000,342,1.0,7,3,316.9037461280823,143.95315885543823,0,512000,3373074,22490699,"[ 0  0  3  0  0  1  3  0  2  2  1  2  0  3  1  0  2  8  5  4  7  0  4  0
  0  0  2  5  3  6  0  8 12  1  8  2  0  0  1  0  9  5  2  4 12  1  1 15
  4 12 14  1  1 11  5 12 18  2 11 11  0 19  2  1 19 15  0 15  1  4 17 21
  0 14 18 14 20 10  8]"
2100,342,1.0,7,3,331.2547171115875,143.5096788406372,0,537600,3513664,23468726,"[ 0  0  3  4  3  3  4  2  3  2  1  2  0  3  1  2  8  7  5  4  7  0  2  0
  0  0  2  5  6  5  0  8 12  0  8  5  4 10  3  3  7  2  4  1  2  0 13 13
  4 12 14  4 13  9  3  1 13  4 12 17  4 16  3  5 17  2  1 21  0  1 17 15
  0 16 21 14 20 10  8]"
2200,342,1.0,7,3,345.704062461853,144.49342012405396,0,563200,3655501,24456038,"[ 0  0  3  4  0  3  5  0  0  2  1  2  0  3  1  3  4  5  5  4  7  0  0  5
  0  0  2  0  8  2  0  8 12  3  1  5  1  3  8  2  6  4  0  0 11  2  2 14
  4 12 14  2 17  3  0 13 17  2 16 14  1 18 22  1 20 23  2  3 23  0 14 22
  2 16 15 14 20 10  8]"
2300,342,1.0,7,3,360.1589012145996,144.54835653305054,0,588800,3797096,25442224,"[ 0  0  3  4  0  2  2  0  3  2  1  2  0  3  1  3  0  1  5  4  7  2  0  4
  0  0  2  0  4  2  0  8 12  0  5  2  0  3  8  0  2  9  2  6  2  1 11  3
  4 12 14  5 13 11  0  1 11  5 10  0  4  3 21  1  2 22  5 19 20  2  0 18
  0 17 15 14 20 10  8]"
2400,342,1.0,7,3,374.6922969818115,145.3339171409607,0,614400,3940060,26437894,"[ 0  0  3  2  0  0  5  3  3  2  1  2  0  3  1  5  4  7  5  4  7  2  5  4
  0  0  2  4  4  4  0  8 12  2  2  6  0  4  2  1  6 13  1  1  5  4 17  1
  4 12 14  0  1 17  4 13 14  4  3 13  5 17  2  2  2 18  5  3 20  3  0 19
  2 23 19 14 20 10  8]"
2500,342,1.0,7,3,389.16749715805054,144.75197076797485,0,640000,4082730,27430655,"[ 0  0  3  4  1  2  5  0  0  2  1  2  0  3  1  4  5  2  5  4  7  1  2  0
  0  0  2  4  8  4  0  8 12  5  8  1  4  0 11  5  9  7  3  0 10  3  1  0
  4 12 14  1  3 15  5 15  1  3 14 12  3 17 15  0  3  2  0 18  2  1 20  1
  0  1 21 14 20 10  8]"
2600,342,1.0,7,3,403.76659393310547,145.99092960357666,0,665600,4227231,28434933,"[ 0  0  3  1  2  3  4  3  2  2  1  2  0  3  1  4  6  3  5  4  7  5  7  5
  0  0  2  4  7  4  0  8 12  2  0  5  4  0  7  5 12  7  1  7 12  0  2 18
  4 12 14  5 16  1  0 13 10  5 11 13  3 15 15  5  2 16  1  0 14  3 21 20
  2 19 17 14 20 10  8]"
2700,342,1.0,7,3,418.3317987918854,145.652015209198,0,691200,4370791,29433762,"[ 0  0  3  3  3  0  2  3  3  2  1  2  0  3  1  3  4  7  5  4  7  0  4  8
  0  0  2  0  6  1  0  8 12  3  3  9  1  9  3  3  2  2  3  0  8  4 13 16
  4 12 14  4 11 11  5  2 12  0  0  1  0 21 20  4 22 19  3 19 17  4  0 20
  1 19 17 14 20 10  8]"
2800,342,1.0,7,3,432.71391248703003,143.82109880447388,0,716800,4511136,30412904,"[ 0  0  3  3  1  2  1  1  3  2  1  2  0  3  1  1  2  3  5  4  7  0  5  2
  0  0  2  5  3  6  0  8 12  0 13  5  0  1  7  2 10 11  3  8 13  1 14 16
  4 12 14  0  3 10  5  2 11  3 16 15  5 21 19  0 23  2  5 14 18  1  2 20
  3 23 14 14 20 10  8]"
2900,342,1.0,7,3,447.2179811000824,145.0406551361084,0,742400,4653667,31405757,"[ 0  0  3  2  1  0  1  2  3  2  1  2  0  3  1  5  1  4  5  4  7  3  2  4
  0  0  2  2  3  3  0  8 12  3  7  4  3  4  7  5  2 13  0  8  2  4 13 12
  4 12 14  3 10  1  4 14  1  5 12 18  4 19 15  4  3 17  2 16 19  0  0  2
  5 20 21 14 20 10  8]"
3000,342,1.0,7,3,461.7647407054901,145.46756267547607,0,768000,4796888,32403261,"[ 0  0  3  3  3  1  1  2  2  2  1  2  0  3  1  1  2  2  5  4  7  1  2  2
  0  0  2  2  5  6  0  8 12  1  7 11  1  0  6  3  4  3  3  4  0  0 18 13
  4 12 14  5 11 14  0  9  1  2 11  0  1 22  3  4 16 23  4 22 19  4 17 14
  2  2  0 14 20 10  8]"
3100,342,1.0,7,3,476.28173446655273,145.16990423202515,0,793600,4939237,33394887,"[ 0  3  2  3  0  1  0  0  3  2  1  2  0  3  1  3  2  1  5  6  7  2  1  3
  0  0  2  2  3  8  0  8 12  5 10 13  1 13 12  3  0  8  2 12  7  2 12 12
  4 12 14  5 18 15  4 15 16  5 13 18  0 14 19  2 16 18  4 15 20  2  1 14
  2 16 16 14 20 10  8]"
3200,342,1.0,7,3,490.73972845077515,144.57990407943726,0,819200,5080932,34380989,"[ 5  3  2  1  0  1  0  0  3  2  1  2  0  3  1  1  1  3  5  6  7  4  2  6
  0  0  2  3  2  4  0  8 12  3 10  0  5  3  6  4  6 12  5 10  6  4 14 12
  4 12 14  3 12 18  5  3 16  2 16 16  5 21  0  4 14 20  4 19 21  2 20 19
  3 22  3 14 20 10  8]"
3300,342,1.0,7,3,505.27381014823914,145.34076929092407,0,844800,5224297,35377746,"[ 3  2  2  2  2  3  0  0  3  2  1  2  0  3  1  3  8  3  5  6  7  4  4  0
  0  0  2  4  8  6  0  8 12  4  1  4  0  6 12  2  9  0  1  7  3  4 10 12
  4 12 14  5 12 18  0 14 17  3 15 16  5  1  3  2 20 18  5 21  1  0 17  1
  4  3 17 14 20 10  8]"
3400,342,1.0,7,3,519.7307388782501,144.56925868988037,0,870400,5366032,36364171,"[ 0  0  1  3  0  2  0  0  3  2  1  2  0  3  1  4  8  3  5  6  7  4  6  8
  0  0  2  2  3  7  0  8 12  1  1  1  0  8  5  1  7  7  1  8  7  4 11 16
  4 12 14  5  3 13  4 15 10  3 12  0  4 14 21  4 14 22  2 23 20  0 23 19
  0 20 18 14 20 10  8]"
3500,342,1.0,7,3,534.1830594539642,144.52316999435425,0,896000,5507830,37351145,"[ 5  1  1  4  1  1  0  0  3  2  1  2  0  3  1  0  5  3  5  6  7  0  2  2
  0  0  2  3  2  7  0  8 12  2 10  3  5 10 12  1  0  7  5  3  5  3 10  1
  4 12 14  2 16 11  3 10 13  0 18 13  2 20  1  4  2 19  0 17  2  2 20 17
  2  1  0 14 20 10  8]"
3600,342,1.0,7,3,548.6455264091492,144.6246361732483,0,921600,5649612,38338220,"[ 3  0  1  5  0  3  0  0  3  2  1  2  0  3  1  4  7  8  5  6  7  5  1  5
  0  0  2  2  3  7  0  8 12  0 13 11  3  8 13  2  7  2  3  0  8  0 14 11
  4 12 14  5  0 12  5  9  1  0 14 17  0 15 20  4 17 19  1 19 16  5 19 18
  3  3 14 14 20 10  8]"
3700,342,1.0,7,3,563.1302380561829,144.84707593917847,0,947200,5791990,39329691,"[ 1  2  1  3  1  3  0  0  3  2  1  2  0  3  1  4  6  1  5  6  7  4  6  7
  0  0  2  3  8  8  0  8 12  2  5  6  0 12 13  5  1  3  5  8  2  3 17 12
  4 12 14  3  1 14  2 11  0  0 11 15  3 15 17  5  0 17  1  3 20  5  3  0
  0 20 20 14 20 10  8]"
3800,342,1.0,7,3,577.5461647510529,144.15923595428467,0,972800,5932505,40310855,"[ 2  2  1  1  0  0  0  0  3  1  0  2  0  3  1  4  5  7  3  7  7  0  7  7
  0  0  2  1  7  3  0  8 12  3 13 10  2  9 13  5  6  4  3 10  6  1 17  1
  4 12 14  1 14  1  0 18  9  5  1  9  0 22  0  3 20  0  5  2 23  4  3 23
  4 18  0 14 20 17  8]"
3900,342,1.0,7,3,592.0247514247894,144.78583335876465,0,998400,6074566,41301636,"[ 2  2  1  2  3  3  0  0  3  4  2  1  0  3  1  1  8  6  5  8  1  2  3  6
  0  0  2  2  7  0  0  8 12  1  6  0  5  9  9  5  6  4  4  9  7  1 10  9
  4 12 14  1  0 17  0  9 17  5  1  2  3 23 19  0 18  1  3  3  2  0 21 23
  5 21  2 14 20 17  8]"
4000,342,1.0,7,3,606.2945325374603,142.69777297973633,0,1024000,6213369,42269607,"[ 2  2  1  1  0  0  0  0  3  1  3  1  0  3  1  3  3  2  1  5  7  1  8  1
  0  0  2  3  5  6  0  8 12  3  2  1  1  3  6  5  6  4  4 12  9  3 16 15
  4 12 14  5  2  9  3  3  0  2 13 10  5 18 17  5 22 22  3 21 21  2 15  3
  5  1 17 14 20 17  8]"
4100,342,1.0,7,3,620.8068251609802,145.1228928565979,0,1049600,6355934,43262809,"[ 2  2  1  5  1  3  0  0  3  5  1  0  0  3  1  3  6  4  1  6  0  4  8  7
  0  0  2  0  7  1  0  8 12  5 12  1  5  9  9  5  6  4  1  6  7  4  1 11
  4 12 14  2 12 15  0 15 17  3 17 12  3  2 15  1 17  0  1 19 20  1  0 18
  3 14  2 14 20 17  8]"
4200,342,1.0,7,3,638.9943480491638,181.87403678894043,0,1075200,6499614,44263175,"[ 2  2  1  0  1  0  0  0  3  1  0  0  0  3  1  5  5  1  2  6  0  5  3  2
  0  0  2  1  2  4  0  8 12  2  5  4  0 12 11  5  6  4  0  9  9  2 16 10
  4 12 14  2  3  0  4 12 17  1 13  2  4 14 19  2  1 18  0  2 20  2 15  2
  3 21 19 14 20 17  8]"
4300,342,1.0,7,3,653.493408203125,144.99056577682495,0,1100800,6640242,45244332,"[ 2  2  1  2  2  0  0  0  3  2  0  2  0  3  1  3  6  0  4  5  7  4  6  8
  0  0  2  0  7  7  0  8 12  1  7 10  1  1 12  5  6  4  0  0 13  1 17  2
  4 12 14  2 10 13  5  1  1  3 18 15  5  1  1  2 14 18  4 21 19  1  1 16
  5  1 14 14 20 17  8]"
4400,342,1.0,7,3,667.8856115341187,143.92199277877808,0,1126400,6780852,46224785,"[ 2  2  1  3  3  0  0  0  3  3  1  0  0  3  1  3  4  1  5  4  7  4  8  1
  0  0  2  5  1  3  0  8 12  5  3  1  3  1 12  5  6  4  4 13  6  2 11 17
  4 12 14  1  1 13  1  1  3  1 17  9  0 19 15  0 19 19  0  0 15  5 23 21
  2 18  3 14 20 17  8]"
4500,342,1.0,7,3,682.1816341876984,142.96019315719604,0,1152000,6920478,47197448,"[ 2  2  1  5  1  0  0  0  3  0  2  3  0  3  1  5  1  4  1  4  4  4  2  5
  0  0  2  5  3  4  0  8 12  1  9  2  2 10  3  5  6  4  0 12  6  1 18 18
  4 12 14  3 16 10  5 14 10  1 18 15  1  2 18  0 15  0  5 22  3  1 19 18
  5 18  2 14 20 17  8]"
4600,342,1.0,7,3,696.5499126911163,143.6827516555786,0,1177600,7060721,48175967,"[ 2  2  1  3  0  0  0  0  3  3  1  1  0  3  1  2  7  4  0  1  7  4  1  4
  0  0  2  2  1  6  0  8 12  0  4  7  4  5 12  5  6  4  0 11 11  5  2 16
  4 12 14  2  3 17  2  9 14  5  1 16  4 15 21  1 18 17  3 18 18  1 18 20
  4 15 19 14 20 17  8]"
4700,342,1.0,7,3,710.9352307319641,143.8531494140625,0,1203200,7200707,49153900,"[ 2  2  1  1  1  0  0  0  3  4  0  0  0  3  1  2  7  7  2  8  0  5  7  8
  0  0  2  0  5  4  0  8 12  2 10  4  3  1 13  5  6  4  2  4  6  2 10 18
  4 12 14  1  3 17  4 15  3  0 13 15  5  2  1  1 18 22  1 15 20  4 15  0
  5 18 20 14 20 17  8]"
4800,342,1.0,7,3,725.4200892448425,144.84854936599731,0,1228800,7341914,50140746,"[ 2  2  1  0  1  3  0  0  3  0  3  2  0  3  1  5  5  8  0  1  4  5  5  1
  0  0  2  0  3  1  0  8 12  3  4 11  3  6  3  5  6  4  1  9  9  2 15 12
  4 12 14  0  9 16  2 16 16  1 14 15  5  2 23  1 18 20  4 20 23  0 23 18
  2  2 18 14 20 17  8]"
4900,342,1.0,7,3,739.7829778194427,143.62885236740112,0,1254400,7482296,51119441,"[ 3  2  0  5  2  2  0  0  3  2  1  2  0  3  1  0  2  6  3  0  5  1  5  3
  0  0  2  2  0  5  0  8 12  2  4 13  1  2  5  5  6  7  4  9  1  2  3 13
  4 12 14  3  2  9  3 13 10  5  9  2  4  1 23  3 21 18  0 15  3  2 16 23
  2  3 22 14 20 17  8]"
5000,342,1.0,7,3,754.1298310756683,143.46850395202637,0,1280000,7622260,52095402,"[ 3  3  1  2  3  2  0  0  3  2  1  2  0  3  1  4  3  3  3  7  6  2  3  8
  0  0  2  2  7  8  0  8 12  0 13  0  4  8  5  5  6  7  2  5  5  4  3 10
  4 12 14  1  0 10  1  2 16  3 14  9  1 20  2  0 20 16  0 23  0  3 21  0
  1  2 15 14 20 17  8]"
5100,342,1.0,7,3,768.4735372066498,143.4370255470276,0,1305600,7762619,53072385,"[ 5  0  3  1  1  3  0  0  3  2  1  2  0  3  1  4  0  0  4  6  1  5  5  3
  0  0  2  4  7  8  0  8 12  3 13  6  4  7  7  5  6  7  3  1  3  4  1 12
  4 12 14  1 17 14  3  1 18  3  3  0  3 17 18  1 18 22  3  2 23  2  3 23
  1  1 16 14 20 17  8]"
5200,342,1.0,7,3,782.9521572589874,144.78616952896118,0,1331200,7904608,54061439,"[ 5  0  2  0  2  2  0  0  3  2  1  2  0  3  1  2  3  6  4  2  4  4  5  5
  0  0  2  1  8  2  0  8 12  1  8  6  0  7 11  5  6  7  5  3  0  2 10 18
  4 12 14  4  0 11  0  1 10  1  2  3  0 14 17  2 18 20  3 20 17  5  2  3
  0 16  1 14 20 17  8]"
5300,342,1.0,7,3,797.3649768829346,144.12816286087036,0,1356800,8045468,55044787,"[ 2  0  1  5  3  3  0  0  3  2  1  2  0  3  1  4  5  1  3  5  6  5  5  5
  0  0  2  3  0  1  0  8 12  0 12 13  1  8  4  5  6  7  0  9 13  1 13  9
  4 12 14  1  0 15  4 11 12  5 14  2  2 18 22  1 14 19  4 17 15  0 21 18
  5 20 18 14 20 17  8]"
5400,342,1.0,7,3,811.8226113319397,144.5763111114502,0,1382400,8184645,56015211,"[ 2  2  1  3  3  3  0  0  3  1  1  1  0  3  1  4  8  0  4  3  3  4  2  4
  0  0  2  2  1  3  0  8 12  5  5  6  2  0 12  5  6  4  0 10  0  2  0 18
  4 12 14  1 16  2  1  3  0  0  1 10  5  3 22  5 23 20  3  0 14  1 14 18
  3 20 16 14 20 17  8]"
5500,342,1.0,7,3,826.3502206802368,145.27606010437012,0,1408000,8327344,57009544,"[ 2  2  1  2  2  2  0  0  3  2  0  0  0  3  1  4  6  6  2  0  3  1  3  7
  0  0  2  3  1  2  0  8 12  3  4 12  2  7 13  5  6  4  4  0  6  5 16 13
  4 12 14  2 11  3  5 13  9  5 13 17  3 15 21  1 15 14  2 16 22  2 15 23
  4  2 20 14 20 17  8]"
5600,342,1.0,7,3,840.6606476306915,143.10422897338867,0,1433600,8466920,57983039,"[ 2  2  1  4  2  3  0  0  3  2  1  1  0  3  1  4  5  0  0  4  6  0  4  7
  0  0  2  2  0  2  0  8 12  2  8  9  1  8  4  5  6  4  4  6  3  0 18 11
  4 12 14  3  3 10  3 13  0  3 11 10  1 14  2  1 22  2  4 16  0  3 16 17
  0 18 20 14 20 17  8]"
5700,342,1.0,7,3,855.0145297050476,143.53878736495972,0,1459200,8607432,58962512,"[ 2  2  1  2  1  3  0  0  3  3  0  3  0  3  1  2  1  3  4  5  2  2  5  2
  0  0  2  0  3  4  0  8 12  1  2  1  3  0 10  5  6  4  2  5  8  5 16 11
  4 12 14  0 17  3  1 18 14  3 17 17  4  1 21  0 19 21  3 20 14  1 22  3
  3 15 22 14 20 17  8]"
5800,342,1.0,7,3,869.4126019477844,143.9806890487671,0,1484800,8748427,59945497,"[ 2  2  1  0  0  2  0  0  3  4  2  3  0  3  1  5  8  1  3  2  8  2  1  7
  0  0  2  1  1  2  0  8 12  2 12  9  4  2 13  5  6  4  2  3  0  4 10 12
  4 12 14  2 15 15  0 18 16  4 12 18  4  2  1  0 22 22  2 15  2  1 15  1
  1 19 21 14 20 17  8]"
5900,342,1.0,7,3,883.8095960617065,143.9699101448059,0,1510400,8888716,60924137,"[ 2  2  1  2  2  2  0  0  3  2  2  2  0  3  1  5  5  4  4  1  4  3  4  2
  0  0  2  4  5  3  0  8 12  1  2 13  5  6  3  5  6  4  5  5  1  5  2  1
  4 12 14  4  9 16  0  3 10  5 13  3  0 23 17  2  2 16  2 22  3  3  0  1
  0 23 18 14 20 17  8]"
6000,342,1.0,7,3,898.1453561782837,143.35756540298462,0,1536000,9028626,61899048,"[ 2  2  1  0  0  2  0  0  3  4  1  3  0  3  1  4  0  8  5  7  6  1  4  2
  0  0  2  0  0  8  0  8 12  2  5 12  5  7 11  5  6  4  1  9  6  4 16  2
  4 12 14  0  2  9  1 12 18  1  2  9  0  1 19  2 16 14  5  1 14  2 17 21
  3  0 14 14 20 17  8]"
6100,342,1.0,7,3,912.419511795044,142.74152278900146,0,1561600,9167783,62869221,"[ 2  2  1  3  0  3  0  0  3  0  1  1  0  3  1  2  5  3  0  5  2  5  3  6
  0  0  2  3  5  7  0  8 12  5 13  8  4 12  3  5  6  4  1  3  0  2 14 15
  4 12 14  4  3 12  1 13 12  2 13  3  0  2  1  0 19 16  4 15 19  5 21 17
  2  2 23 14 20 17  8]"
6200,342,1.0,7,3,926.9265077114105,145.0699257850647,0,1587200,9310346,63862873,"[ 2  2  1  2  3  2  2  0  3  0  0  3  0  3  1  4  0  7  3  8  7  4  8  4
  0  0  2  1  1  7  0  8 12  0  8 11  4  3  1  5  7  4  1  9  1  1  9 10
  4 12 14  1 12 17  4  1  9  3  1  0  3 14 19  5  2 23  5 15 14  1 15 21
  1  3  1 14 20 17  8]"
6300,342,1.0,7,3,941.2831792831421,143.56667518615723,0,1612800,9450742,64839146,"[ 2  2  1  3  2  1  2  1  2  0  0  3  0  3  1  1  8  1  0  3  4  1  8  1
  0  0  2  1  3  0  0  8 12  1  4 11  1  2  2  5  7  4  2  4  1  2  2  0
  4 12 14  1 15 15  5 17 17  2 11 18  3 15 14  0  0 18  5  0 22  1 20 22
  1 23  2 14 20 17  8]"
6400,342,1.0,7,3,955.614860534668,143.31677675247192,0,1638400,9591140,65816624,"[ 2  2  1  0  2  3  5  1  1  1  2  3  0  3  1  0  0  3  3  3  8  2  1  6
  0  0  2  1  0  3  0  8 12  4  6  7  4  8 12  5  9  4  2  5  1  0 15 15
  4 12 14  2 10 18  2  3  0  2  3  1  0 22 20  2 23 21  1 17  0  3 14 21
  5 22 18 14 20 17  8]"
6500,342,1.0,7,3,969.6408264636993,140.25962114334106,0,1664000,9725986,66758805,"[ 2  2  1  1  3  2  0  3  2  3  0  0  0  3  1  0  0  3  2  5  4  5  0  7
  0  0  2  4  3  7  0  8 12  5  6  0  5  1 11  5  9  4  3 10  7  0  3 10
  4 12 14  5 11  1  1 13 16  4 15  9  4  1 17  2 23 20  2 14  1  1 17 18
  2 21 16 14 20 17  8]"
6600,342,1.0,7,3,983.8473389148712,142.06509113311768,0,1689600,9863767,67720051,"[ 0  0  0  2  2  1  0  0  3  0  2  3  0  3  1  5  3  3  0  8  4  1  1  5
  0  0  2  4  3  7  0  8 12  3  9  1  5  8 13  5  6  5  1 13 11  3  2 15
  4 12 14  4  9 14  3 15 11  5 14  2  1 18 17  4  0 21  5 17  1  0 20  2
  3 14 21 14 20 17  8]"
6700,342,1.0,7,3,998.2630453109741,144.15703058242798,0,1715200,10004755,68703010,"[ 1  3  1  2  2  1  0  0  3  3  2  0  0  3  1  0  5  5  0  6  5  5  2  2
  0  0  2  1  6  1  0  8 12  5  8 13  2 10  5  5  6  5  4 10  0  5 15 17
  4 12 14  1 13  1  5 13  9  3 13 12  5 18 20  4  0  3  3 18 19  2  1  0
  2  2 18 14 20 17  8]"
6800,342,1.0,7,3,1012.6208078861237,143.57759475708008,0,1740800,10144659,69679425,"[ 2  3  3  2  2  1  0  0  3  5  0  1  0  3  1  2  4  1  3  1  5  5  2  4
  0  0  2  3  6  6  0  8 12  4  4  2  1  3  9  5  6  5  5 12  0  5 18  2
  4 12 14  3 12 14  0  1 13  4 17 16  4  1  3  0 16 20  4 18 14  2 23 14
  5  1 18 14 20 17  8]"
6900,342,1.0,7,3,1026.9973282814026,143.76517057418823,0,1766400,10285050,70659240,"[ 1  2  0  2  2  1  0  0  3  3  0  1  0  3  1  2  0  0  4  7  2  3  2  3
  0  0  2  5  0  5  0  8 12  1 10  1  1  8 10  5  6  5  4 12  4  5  3 11
  4 12 14  2 15 16  1 16 13  4  3  2  4 14 20  1  1 16  0  0 21  0 14 18
  5 23  1 14 20 17  8]"
7000,342,1.0,7,3,1041.3642075061798,143.66875648498535,0,1792000,10425392,71638019,"[ 5  1  2  2  2  1  0  0  3  5  1  2  0  3  1  1  6  4  2  0  6  3  0  5
  0  0  2  5  5  1  0  8 12  3 13 11  5  6  8  5  6  5  0 12 13  2 15 15
  4 12 14  2 10 15  1 13  3  2 15 16  0 15 17  1  3 14  0 16 23  1 15 18
  5 23 15 14 20 17  8]"
7100,342,1.0,7,3,1055.7690596580505,144.0484857559204,0,1817600,10566066,72619120,"[ 4  3  3  2  2  1  0  0  3  2  2  1  0  3  1  0  4  8  0  3  8  3  7  1
  0  0  2  2  3  8  0  8 12  5  5  5  3  9  7  5  6  7  5  5 10  4  9  2
  4 12 14  4 15 18  3  0 10  5 15  3  4 14 18  1  2 19  0  0 19  3 17 23
  5 23 18 14 20 17  8]"
7200,342,1.0,7,3,1070.1759688854218,144.0690565109253,0,1843200,10706147,73597562,"[ 5  2  0  0  2  3  0  0  3  2  2  1  0  3  1  0  3  7  0  8  2  0  5  3
  0  0  2  4  8  0  0  8 12  4  3  2  1 13  6  5  6  7  4  1  9  2  2 18
  4 12 14  5 13  2  3 10 14  4 14 13  4  2 19  5 18 22  0 21 14  3 17 15
  4  0  3 14 20 17  8]"
7300,342,1.0,7,3,1084.641511440277,144.65539455413818,0,1868800,10848196,74586888,"[ 2  3  3  0  1  2  0  0  3  2  2  1  0  3  1  0  5  4  3  4  7  1  4  8
  0  0  2  1  1  0  0  8 12  5 13  6  0 10  5  5  6  7  2  5  4  3  0 12
  4 12 14  4 14 15  5 18 18  4 17  0  1 16 16  2 18 17  4 21 19  5 22  1
  4 18 19 14 20 17  8]"
7400,342,1.0,7,3,1099.025668144226,143.84153604507446,0,1894400,10988403,75565646,"[ 5  3  3  0  3  2  0  0  3  2  2  1  0  3  1  3  2  1  0  4  7  1  8  1
  0  0  2  3  4  4  0  8 12  4  6 12  0  9 13  5  6  7  0  3 10  1 11 17
  0 13  9  4 14 12  2 17  3  0 13  0  5 22 18  0 14  1  2 15 19  3 17 14
  0 17  0 14 21 17  8]"
7500,342,1.0,7,3,1113.4051749706268,143.7950325012207,0,1920000,11128786,76544164,"[ 3  1  1  3  0  0  0  0  3  2  2  1  0  3  1  2  7  5  5  1  4  5  2  5
  0  0  2  3  7  3  0  8 12  2  5  8  4  2  6  5  6  7  3  6 12  1  1 12
  4 17 12  4 14 12  1  3 18  0 13  9  0 18 19  3  2 22  0 23 21  3 15 20
  4 22 15 14 21 17  8]"
7600,342,1.0,7,3,1127.9444115161896,145.39233207702637,0,1945600,11271072,77536449,"[ 2  2  1  1  0  3  0  0  3  2  2  1  0  3  1  4  4  0  2  3  2  5  6  3
  0  0  2  4  2  1  0  8 12  0  7  6  1  7 12  5  6  7  5  8  7  4  3  9
  5  9  2  4 14 12  3  2 12  5  3 11  0 23 16  3 16 19  4 23 18  1  2 14
  5 23 19 14 21 17  8]"
7700,342,1.0,7,3,1142.3341007232666,143.89686107635498,0,1971200,11411863,78517886,"[ 2  2  1  2  3  2  0  0  3  2  2  1  0  3  1  4  3  4  4  6  3  2  7  0
  0  0  2  0  2  1  0  8 12  1  0 10  1  3  1  5  6  7  2  8  9  2  2 17
  1  2  9  4 14 12  3 17 11  0 18 16  5  2 15  5 18 21  1  1 23  5 17  1
  2  2  3 14 21 17  8]"
7800,342,1.0,7,3,1156.6106185913086,142.76514530181885,0,1996800,11550963,79486662,"[ 1  2  0  1  1  1  0  0  3  2  2  1  0  3  1  5  7  1  3  1  6  0  3  7
  0  0  2  3  6  5  0  8 12  2 13  7  5  0 12  5  6  7  5  8  2  5 14 14
  1  9  2  4 14 12  4 14  3  3 17 16  2 22 19  4  0 14  2 14 20  0 19 23
  1 21 20 14 21 17  8]"
7900,342,1.0,7,3,1171.1196439266205,145.09021997451782,0,2022400,11693467,80479764,"[ 0  3  0  5  1  1  1  3  0  2  2  1  0  3  1  2  1  8  4  8  4  3  3  8
  0  0  2  2  3  6  0  8 12  2 11  4  1  6  8  5  4  7  2  5 12  5 13  2
  2 17 13  4 14 12  1  1  1  3 10 16  3 14 15  4  3  0  1  2  2  3 18  2
  5 14 18 14 21 17  8]"
8000,342,1.0,7,3,1185.4929368495941,143.73289346694946,0,2048000,11833837,81458542,"[ 0  3  0  5  1  3  4  1  0  2  2  1  0  3  1  1  3  1  3  2  4  3  5  8
  0  0  2  5  5  4  0  8 12  3  1  4  2  5  4  5  4  7  4  0  2  2 10  0
  1  0 11  4 14 12  1  1  3  2 13  3  2  1 23  1 18 18  5  0 19  1 21  1
  5 16 17 14 21 17  8]"
8100,342,1.0,7,3,1199.9067928791046,144.1385269165039,0,2073600,11974725,82440645,"[ 0  3  0  4  2  2  3  1  2  2  2  1  0  3  1  4  8  3  0  8  4  5  5  7
  0  0  2  1  2  3  0  8 12  4  3  0  0  0 12  5  4  7  2  1 11  2  3 16
  0  0  2  4 14 12  2  1 11  4  2  0  0  0  0  3 16 17  4 14 16  5 22  3
  4 19  2 14 21 17  8]"
8200,342,1.0,7,3,1214.345393896103,144.38597917556763,0,2099200,12116779,83429285,"[ 0  3  0  3  0  1  3  2  2  2  2  1  0  3  1  5  6  0  4  2  6  5  8  3
  0  0  2  3  7  2  0  8 12  5  1 12  2  7  2  5  4  7  3  7  2  2  9 14
  2 17 12  4 14 12  2  1  9  2 11  0  4  0  2  1 23 15  0 18 14  2 16 21
  2  3 16 14 21 17  8]"
8300,342,1.0,7,3,1228.9728260040283,146.27428770065308,0,2124800,12259224,84423402,"[ 0  3  0  4  1  3  1  1  1  2  2  1  0  3  1  3  8  7  5  3  3  5  5  4
  0  0  2  5  4  7  0  8 12  1  8 10  2  7  2  5  4  7  2  5  1  4  1  2
  1 14 18  4 14 12  2 12  0  0  3 17  4 21 15  3 17 19  0  2  0  0 14  3
  5 16 16 14 21 17  8]"
8400,342,1.0,7,3,1243.4998054504395,145.26975870132446,0,2150400,12400801,85408923,"[ 0  3  0  1  1  1  5  2  1  2  2  1  0  3  1  2  6  7  1  6  6  1  2  7
  0  0  2  1  4  8  0  8 12  4  9  4  3  1 10  5  4  7  1 11  6  2 18  0
  0  2  3  4 14 12  3  0  2  1 17  0  1 22 16  1 21 15  1 22 18  0 18  2
  4  0 22 14 21 17  8]"
8500,342,1.0,7,3,1257.8804018497467,143.80593061447144,0,2176000,12541624,86391130,"[ 0  3  0  5  1  3  2  2  1  4  2  1  0  3  1  0  1  0  0  1  1  5  8  0
  0  0  2  5  0  2  0  8 12  0  9  9  5  3 12  5  4  6  1 10  6  3 14 15
  3 14  0  4 14 12  4 18 15  1 14 10  1  1  0  3 21 14  3 18  3  3 21 23
  4  1  3 14 21 17  8]"
8600,342,1.0,7,3,1272.306491613388,144.2608666419983,0,2201600,12683060,87376886,"[ 0  3  0  5  2  2  2  2  1  5  3  3  0  3  1  4  8  8  5  0  6  4  2  7
  0  0  2  0  7  4  0  8 12  1  5 10  4  4 13  5  4  6  3  5 12  2  9  2
  1  1  3  4 14 12  1 11 14  4 16  3  0 22  1  2  3 16  5  1 18  2 14 19
  0 18 14 14 21 17  8]"
8700,342,1.0,7,3,1286.6770243644714,143.70528936386108,0,2227200,12823316,88355072,"[ 0  3  0  3  1  2  2  2  1  0  2  2  0  3  1  3  1  1  1  3  8  3  5  5
  0  0  2  1  6  2  0  8 12  4  6 13  4  2 13  5  4  6  5  2  0  4 12 17
  3 11  0  4 14 12  2 18 15  0 17 16  1 20 19  4 18  3  1  0  1  3 17  0
  3 20  3 14 21 17  8]"
8800,342,1.0,7,3,1301.1330797672272,144.5605182647705,0,2252800,12964724,89341928,"[ 0  3  0  2  3  3  2  2  1  3  0  1  0  3  1  3  4  1  0  0  5  5  7  7
  0  0  2  0  1  8  0  8 12  4  8  5  1  4  1  5  4  6  1  7 11  0 15  1
  2 13  9  4 14 12  5 18  3  0  0 17  2 23  0  3  0  2  3 18 14  5 18 21
  3 15 15 14 21 17  8]"
8900,342,1.0,7,3,1315.5039052963257,143.70821475982666,0,2278400,13105202,90321770,"[ 0  3  0  3  0  0  2  2  1  2  1  1  0  3  1  3  2  5  5  2  6  4  0  8
  0  0  2  5  7  1  0  8 12  5 13  5  2  7  4  5  4  6  4  2  5  2 14 14
  5 18  1  4 14 12  1 11 10  2 12 14  2  1 15  3  1 14  5 19  3  5 23 17
  0 17 14 14 21 17  8]"
9000,342,1.0,7,3,1329.8774445056915,143.73535871505737,0,2304000,13246229,91304442,"[ 0  3  0  4  1  0  2  2  1  3  1  1  0  3  1  0  0  6  3  5  1  5  6  0
  0  0  2  2  7  5  0  8 12  2  1  8  3  7  7  5  4  6  2  1  4  5 16 18
  1 16  0  4 14 12  0 11 12  2  9 15  3  2  3  2 16 16  5 23 17  4 16 16
  2 17  1 14 21 17  8]"
9100,342,1.0,7,3,1344.2819921970367,144.04544591903687,0,2329600,13387195,92288091,"[ 0  3  0  5  0  0  2  2  1  2  3  1  0  3  1  0  6  7  3  7  3  1  3  8
  0  0  2  1  3  5  0  8 12  2  2  5  0  5 13  5  4  6  3  5  6  5 17  9
  0 16  0  4 14 12  3 18  2  4  0 17  1  3 19  1 14 18  3 16 15  1 14  1
  3 21 21 14 21 17  8]"
9200,342,1.0,7,3,1358.6672348976135,143.85239124298096,0,2355200,13527359,93264626,"[ 0  3  0  5  3  3  2  2  1  4  3  0  0  3  1  4  5  1  3  1  0  2  3  0
  0  0  2  0  2  6  0  8 12  3  9  5  0  3  6  5  4  6  0 10  7  1 10  1
  0  1  0  4 14 12  4 18 16  2  2 10  4  3 17  1 20 20  3 18 23  0  0 15
  3 14 19 14 21 17  8]"
9300,342,1.0,7,3,1373.0209362506866,143.53698015213013,0,2380800,13665984,94233367,"[ 0  3  0  1  0  0  2  2  1  4  2  0  0  3  1  3  5  5  3  1  0  0  3  3
  0  0  2  1  6  5  0  8 12  0  5  6  1 11  7  5  4  6  1  9  5  4  9 16
  0 13 16  4 14 12  5  1 15  0 10 11  1 15 22  5 17  0  3  1 16  3 21  0
  0 22 16 14 21 17  8]"
9400,342,1.0,7,3,1388.258487701416,152.37547874450684,0,2406400,13805040,95203857,"[ 4  0  2  5  3  3  2  2  1  3  2  1  0  3  1  2  1  1  5  8  4  0  3  0
  0  0  2  2  6  1  0  8 12  3  6 12  5  8 11  5 11  6  1  5 11  2 18 16
  4  9  3  4 14 12  0 13 13  1 16 13  1 23 23  1 19 22  2 16 18  3 14 17
  0 22  1 14 21 17  8]"
9500,342,1.0,7,3,1403.7983014583588,155.39810419082642,0,2432000,13939283,96139663,"[ 0  3  1  0  1  0  2  2  1  3  3  0  0  3  1  3  7  5  2  3  1  0  3  0
  0  0  2  4  8  6  0  8 12  0 11  4  1 12 10  5 11  6  5  1  6  3  0 17
  5  0  3  4 14 12  0 14  9  0  3 15  0 21  3  4  2 17  1 20 14  1 23 23
  1 18  0 14 21 17  8]"
9600,342,1.0,7,3,1419.4178969860077,156.19591236114502,0,2457600,14075020,97084363,"[ 5  3  2  0  3  1  2  2  1  5  3  1  0  3  1  2  6  2  4  7  0  0  3  0
  0  0  2  4  7  6  0  8 12  5  5  8  0  4  0  5 11  6  5  7  3  5 10  3
  5 13 18  4 14 12  1 14  0  3 16  1  0  3  0  3 18 23  2 20  0  0 23 20
  1 20 20 14 21 17  8]"
9700,342,1.0,7,3,1434.9348318576813,155.16931295394897,0,2483200,14208857,98018380,"[ 1  1  0  3  0  2  5  0  3  0  2  2  0  3  1  2  1  2  4  4  8  0  3  0
  0  0  2  3  0  7  0  8 12  1 13  7  2  0 12  5 11  9  0  0  6  5 14 10
  1 16  9  4 14 12  4  3  0  5 11  1  0 20 19  2 14 23  5 14  0  2 17  1
  5  1 20 14 21 17  8]"
9800,342,1.0,7,3,1449.9784526824951,150.43617248535156,0,2508800,14336884,98910647,"[ 3  0  1  4  3  2  5  0  2  2  1  1  0  3  1  2  1  2  3  4  2  0  3  0
  0  0  2  1  8  7  0  8 12  0 12 11  1 10  2  5 11  9  5 11  0  0  9 16
  0 13 18  4 14 12  2  9 17  2 18 15  5  1  1  5 18  1  3 23  0  2  1 15
  5 16 15 14 21 17  8]"
9900,342,1.0,7,3,1465.0415089130402,150.63052415847778,0,2534400,14463848,99798272,"[ 2  0  3  3  3  1  1  3  0  0  2  3  0  3  1  2  1  2  4  1  7  0  3  0
  0  0  2  1  4  1  0  8 12  5 13  0  3 12  0  5 11  9  2  7  0  0 17 13
  1 17  3  4 14 12  4 10  1  0  3 17  5 23 19  0 18 14  4  2 22  3 18 17
  2 22 22 14 21 17  8]"
10000,342,1.0,7,3,1480.110170841217,150.68658590316772,0,2560000,14591491,100689381,"[ 1  2  2  4  2  3  3  3  3  3  0  1  0  3  1  2  1  2  5  1  7  0  3  0
  0  0  2  1  0  5  0  8 12  2  7 12  3  4  5  5 11  9  5  9  0  0  2 17
  2 17  2  4 14 12  2 12 14  0 10 12  2 15 22  2 16 19  2 19 16  0 22  3
  2 22 16 14 21 17  8]"
10100,342,1.0,7,3,1495.1383810043335,150.2820587158203,0,2585600,14718834,101577664,"[ 3  2  2  0  1  0  2  1  0  4  1  0  0  3  1  2  1  2  3  6  4  0  3  0
  0  0  2  3  1  3  0  8 12  1  0  5  4  4  7  5 11  9  4  9  1  4 10  9
  2 17  3  4 14 12  3 15  1  3  1 12  4 15  3  4 18 17  5 17  3  2 20 21
  0 21 22 14 21 17  8]"
10200,342,1.0,7,3,1510.2704484462738,151.320641040802,0,2611200,14847865,102477908,"[ 2  3  0  1  1  3  0  1  1  4  1  3  0  3  1  2  1  2  1  5  1  0  3  0
  0  0  2  2  0  0  0  8 12  0  9  5  4  9  0  5 11  9  3  5  0  4 10  3
  0 18 15  4 14 12  3  0 12  1 17  0  2  1 23  3 23 18  1  2 23  0 22  1
  0  3 19 14 21 17  8]"
10300,342,1.0,7,3,1525.3198158740997,150.4936408996582,0,2636800,14975258,103367706,"[ 3  2  0  0  3  3  4  0  1  3  0  1  0  3  1  2  1  2  5  3  8  0  3  0
  0  0  2  2  5  3  0  8 12  4  1  8  3  9  9  5 11  9  4 11 13  1 18  9
  5 18 15  4 14 12  3 10 10  5 17  0  1  0  1  1 23 16  4 22  2  1 18 23
  1  2 18 14 21 17  8]"
10400,342,1.0,7,3,1540.429675102234,151.0985517501831,0,2662400,15103208,104261885,"[ 4  2  3  0  0  0  3  2  0  3  3  3  0  3  1  2  1  2  5  2  4  0  3  0
  0  0  2  2  5  5  0  8 12  2  1  6  1  5  9  5 11  9  4  6  7  0 10 17
  0  1 16  4 14 12  4 12  1  3 17  2  2 23  3  2  1 19  4 14 15  5 18 22
  0  3 19 14 21 17  8]"
10500,342,1.0,7,3,1555.529644727707,150.99966049194336,0,2688000,15231481,105156628,"[ 1  2  0  1  3  0  1  2  1  0  0  3  0  3  1  2  1  2  2  7  1  0  3  0
  0  0  2  4  8  4  0  8 12  0  3 12  0 13  2  5 11  9  2  8  2  0 17  3
  0  9 16  4 14 12  3  2 14  3 17  9  2 21 17  3  0  3  4 15  3  4 16 17
  0 16  1 14 21 17  8]"
10600,342,1.0,7,3,1571.051747560501,155.22099256515503,0,2713600,15365697,106092589,"[ 2  3  3  0  3  0  4  1  2  4  0  0  0  3  1  2  1  2  3  2  2  0  0  2
  0  0  2  5  5  3  0  8 12  1  6 11  5  7  9  5  5  9  4 12 13  5 15 14
  3 11  1  4 14 12  0 10 17  2  2 10  2 23 17  5 16 16  3 16 16  3 23  0
  3 14  2 14 21 17  8]"
10700,342,1.0,7,3,1586.7053399085999,156.53589010238647,0,2739200,15501763,107040584,"[ 1  0  2  0  3  0  2  2  2  4  1  2  0  3  1  2  1  2  1  0  2  3  4  4
  0  0  2  3  0  5  0  8 12  1 11 10  1  0  8  5  5  9  1 11  1  2  1 17
  4 16 18  4 14 12  4 13 18  3 10 13  2 21 16  0 16  0  1 20 19  1 19 23
  0 22 15 14 21 17  8]"
10800,342,1.0,7,3,1602.2669532299042,155.61609268188477,0,2764800,15635378,107975593,"[ 5  1  2  0  3  0  4  0  3  2  1  0  0  3  1  2  1  2  5  1  1  1  3  3
  0  0  2  2  0  6  0  8 12  0 10  8  1  7  9  5  5  9  2 10  5  0  2  3
  4  1 15  4 14 12  4 11 18  5 15 16  4 20 18  5 21  0  2 14 14  3 23  3
  3  0 22 14 21 17  8]"
10900,342,1.0,7,3,1617.9696881771088,157.02731132507324,0,2790400,15772222,108929599,"[ 2  2  0  2  1  0  0  3  0  5  2  1  0  3  1  2  1  2  5  1  5  2  2  8
  0  0  2  0  6  0  0  8 12  2  4  3  5  8  7  5  6  9  5  2  5  0 18 14
  2 18  2  4 14 12  3 17 18  5 13  2  4 20  3  0 18 17  3 16 15  0 23 18
  3 14 15 14 21 17  8]"
11000,342,1.0,7,3,1633.9493424892426,159.79650497436523,0,2816000,15913432,109913327,"[ 5  3  0  2  2  1  0  3  0  2  1  0  0  3  1  0  1  1  2  0  7  3  2  5
  0  0  2  1  3  5  0  8 12  0  9  7  0  0  3  5  6  5  1  2  3  1  3 12
  4 14 10  4 14 12  0 12 11  3 11 14  0 22 18  5  2  2  0 23 21  2  0 15
  1  1 23 14 21 17  8]"
11100,342,1.0,7,3,1650.0110261440277,160.6168007850647,0,2841600,16055452,110902778,"[ 0  3  1  2  2  1  0  3  0  1  3  3  0  3  1  2  1  6  0  8  0  4  4  8
  0  0  2  1  1  7  0  8 12  4  1  5  2  9 13  5  6  5  0  8  6  0 13 17
  3  1 18  4 14 12  2 12 15  3 15 10  4 14 18  1  2 19  1 16 20  3 23 22
  3 14 19 14 21 17  8]"
11200,342,1.0,7,3,1666.1520881652832,161.41058444976807,0,2867200,16198413,111898962,"[ 4  2  1  2  2  1  0  3  0  3  3  0  0  3  1  3  5  6  4  3  5  1  5  1
  0  0  2  1  4  1  0  8 12  1  2  1  2  8  5  5  6  5  0 13  8  2 11 11
  1 12 11  4 14 12  0 12 14  5 16 18  5 22  0  3  3 18  3 16 14  4 21 16
  4  3  1 14 21 17  8]"
11300,342,1.0,7,3,1682.081873178482,159.29781913757324,0,2892800,16338803,112877156,"[ 5  1  2  2  2  1  0  3  0  4  3  0  0  3  1  5  3  0  1  4  7  5  7  4
  0  0  2  0  7  1  0  8 12  2  5  2  2  6 11  5  6  5  2  9  4  2  9 10
  1 10 17  4 14 12  4 12  1  5  1 12  0 18  2  3  0 19  3 22 21  3 18  2
  3  3 16 14 21 17  8]"
11400,342,1.0,7,3,1697.937602519989,158.5572624206543,0,2918400,16477870,113847681,"[ 2  3  0  2  2  3  0  3  0  1  0  0  0  3  1  2  3  6  3  7  3  1  3  1
  0  0  2  2  1  2  0  8 12  1 10  7  4  0  3  5  6 13  5 10  3  3 15 14
  0 11  9  4 14 12  0 15 10  3 13 11  3 14 16  0  1 16  0 14 17  1 22 18
  4 18  1 14 21 17  8]"
11500,342,1.0,7,3,1713.5495209693909,156.1191487312317,0,2944000,16613124,114790993,"[ 1  1  1  3  2  0  0  3  0  0  2  3  0  3  1  2  4  3  4  1  4  0  7  0
  0  0  2  2  1  2  0  8 12  2  1  8  2  4  0  5  6 13  4  3  7  0 14 14
  2 15 16  4 14 12  1 11 12  1 14  0  0 17  2  3  1  3  2  3 20  2 18 19
  0  1 23 14 21 17  8]"
11600,342,1.0,7,3,1729.1657140254974,156.16188764572144,0,2969600,16748504,115735068,"[ 1  0  1  0  2  3  0  3  0  3  3  0  0  3  1  3  2  8  3  6  4  3  6  5
  0  0  2  2  1  2  0  8 12  0  3  0  3  6  6  5  6 13  1 12  3  1 10 11
  4 13 13  4 14 12  2  3 10  1 18  0  3  1 17  3 22  1  2  2  0  5 14  3
  5 21 14 14 21 17  8]"
11700,342,1.0,7,3,1744.8720619678497,157.06344366073608,0,2995200,16885615,116690388,"[ 3  0  0  5  0  3  0  3  0  4  2  2  0  3  1  3  6  1  3  6  6  0  2  4
  0  0  2  2  1  2  0  8 12  3  8  7  1  5  4  5  6 13  1  9 10  3 17 16
  5 11  0  4 14 12  2 16  3  4  2  3  3  2 21  3  2  2  0 18 20  4  3  3
  3 15 14 14 21 17  8]"
11800,342,1.0,7,3,1760.4790585041046,156.06993198394775,0,3020800,17021090,117636140,"[ 1  2  1  4  2  3  0  3  0  4  0  2  0  3  1  3  1  0  2  0  0  2  4  4
  0  0  2  2  1  2  0  8 12  5 11  4  3 11  5  5  6 13  4 10  5  1  9 10
  3 18 13  4 14 12  3 15 10  1 14 12  0 22 14  5 22  0  2 18  3  5 23 18
  0 17  2 14 21 17  8]"
11900,342,1.0,7,3,1775.976196050644,154.971342086792,0,3046400,17154868,118569274,"[ 4  2  3  2  3  3  0  3  0  4  3  3  0  3  1  3  1  4  4  8  8  4  3  2
  0  0  2  2  1  2  0  8 12  1 10  1  2  5 11  5  6 13  5  7  5  4 17 16
  3 11 13  4 14 12  3  3  0  0 14 12  5 23 18  0 21 18  3 16  1  1 21 16
  1  2 22 14 21 17  8]"
12000,342,1.0,7,3,1791.6066675186157,156.30467891693115,0,3072000,17290917,119517587,"[ 0  0  3  0  2  1  2  2  3  0  3  0  0  3  1  4  1  7  5  8  0  4  6  3
  0  0  2  2  1  2  0  8 12  5 11  4  4  2  3  5  7 13  5  4  9  2 12  1
  5 10  2  4 14 12  3  3  2  3 10  0  4 14 22  2 21 17  3 14 15  0 16  0
  0 16 20 14 21 17  8]"
12100,342,1.0,7,3,1807.1918530464172,155.85181713104248,0,3097600,17426552,120462739,"[ 4  2  0  1  0  1  0  3  0  0  3  0  0  3  1  4  7  5  5  1  6  5  8  3
  0  0  2  2  1  2  0  8 12  2  9  4  3  9  3  5  7 13  5  9  1  3 17 12
  1 10  9  4 14 12  1 10 13  4  0  9  2 15  2  3  0  3  5 18 19  2 19 21
  3  1 14 14 21 17  8]"
12200,342,1.0,7,3,1823.0309538841248,158.39097499847412,0,3123200,17565254,121430457,"[ 3  3  2  4  0  0  5  3  1  0  3  0  0  3  1  5  1  5  0  0  8  2  3  4
  0  0  2  2  1  2  0  8 12  4  5  5  2 13  7  5  7 13  5  0  6  3  2 12
  5 11 15  4 14 12  4 10  0  5  2 14  0 14 15  1 16 15  0  1 17  5  2 22
  5  1 18 14 21 17  8]"
12300,342,1.0,7,3,1838.6588335037231,156.27875804901123,0,3148800,17701506,122380099,"[ 3  1  1  5  0  1  4  2  0  0  3  0  0  3  1  3  4  6  1  8  0  5  8  7
  0  0  2  2  1  2  0  8 12  5  1  0  2  9  3  5  7 13  0  4  6  3 15  0
  5  3  1  4 14 12  2 14 15  0  2 14  5  0 19  0 16 18  2  1 14  0 18 22
  3  0  3 14 21 17  8]"
12400,342,1.0,7,3,1854.3869800567627,157.28143215179443,0,3174400,17838769,123335959,"[ 1  3  1  5  1  3  4  2  1  0  3  0  0  3  1  5  3  8  4  8  8  5  7  3
  0  0  2  2  1  2  0  8 12  5  8 11  3  9  7  5  7 13  2  7  1  1  3 15
  5  3 10  4 14 12  2  2  0  4 18  1  5 23 14  2  2 14  5 15 18  1 14  3
  1 15 17 14 21 17  8]"
12500,342,1.0,7,3,1869.999261856079,156.122784614563,0,3200000,17974859,124284589,"[ 3  2  1  0  3  1  1  2  0  0  3  0  0  3  1  5  5  1  5  3  4  1  7  0
  0  0  2  2  1  2  0  8 12  3  2  7  3  4 13  5  7 13  2 13 11  1 11  3
  2 10 18  4 14 12  5  9 17  3  2 14  2  0 15  5  0 18  1 17 17  0  1  1
  0  3 16 14 21 17  8]"
12600,342,1.0,7,3,1885.6549229621887,156.55657768249512,0,3225600,18111224,125236078,"[ 0  2  3  3  3  1  4  0  0  0  3  0  0  3  1  0  6  0  0  4  1  2  5  5
  0  0  2  2  1  2  0  8 12  5  0  8  1 12  4  5  7 13  0  3  1  4 17 15
  0 17  2  4 14 12  1  3 14  4  2  9  2 15 14  4 16 18  1 23  0  1 23  1
  1 22 16 14 21 17  8]"
12700,342,1.0,7,3,1901.3663427829742,157.11416244506836,0,3251200,18248596,126193160,"[ 2  3  1  0  0  1  3  0  2  0  3  0  0  3  1  3  6  6  2  6  3  1  8  0
  0  0  2  2  1  2  0  8 12  5  9  2  3  3  1  5  7 13  4 10  2  5 13 17
  0 14 14  4 14 12  1  0  2  0  0 12  0 17 15  4 20 17  3 23 23  0  2  1
  5 16  0 14 21 17  8]"
12800,342,1.0,7,3,1916.9447691440582,155.78423023223877,0,3276800,18384046,127136623,"[ 4  0  3  2  1  3  1  3  2  0  3  0  0  3  1  3  8  6  4  5  8  4  8  8
  0  0  2  2  1  2  0  8 12  5  8  1  0  8 11  5  7 13  5 10  9  3 13  0
  4  0 13  4 14 12  2 14  0  4  0 15  0 22 15  5 21 20  0 22  0  2  0 16
  5 23 14 14 21 17  8]"
12900,342,1.0,7,3,1932.6447701454163,156.99997186660767,0,3302400,18520965,128091628,"[ 4  0  1  5  2  1  2  3  1  0  3  0  0  3  1  2  7  3  3  1  3  2  7  2
  0  0  2  2  1  2  0  8 12  0 13 13  2 12  3  5  7 13  4  9  9  4 10  2
  4 15 16  4 14 12  5  1 11  2  0 13  1 18  2  5 19 15  2  1  1  1  0 17
  4 18 17 14 21 17  8]"
13000,342,1.0,7,3,1948.2663803100586,156.21606826782227,0,3328000,18657294,129040017,"[ 5  2  1  1  3  2  3  2  3  0  3  0  0  3  1  2  5  1  2  1  1  5  6  6
  0  0  2  2  1  2  0  8 12  4  4  0  5 13  5  5  7 13  5  0  8  0 15 15
  0 11  3  4 14 12  5  3 16  5  0 14  0  0 21  4 16 18  5 17  3  0 23 14
  2 14 23 14 21 17  8]"
13100,342,1.0,7,3,1963.8492939472198,155.82910299301147,0,3353600,18792662,129983571,"[ 0  0  3  1  3  1  3  3  2  3  0  0  0  3  1  3  8  1  3  1  4  3  1  2
  0  0  2  2  1  2  0  8 12  4  3  8  5  7  2  5  4 13  3  9 12  2 15  1
  1 10 11  4 14 12  2 14 18  5 15 13  1 17 15  2 14 21  5 22 17  2 23 15
  1 18 15 14 21 17  8]"
13200,342,1.0,7,3,1979.4826266765594,156.33329153060913,0,3379200,18928552,130930272,"[ 0  0  3  0  0  2  3  2  2  2  1  1  0  3  1  0  6  4  1  1  1  5  5  0
  0  0  2  2  1  2  0  8 12  4  5 12  3 12 12  5  4 13  5  1  4  1  0 17
  2 13  1  4 14 12  2  1  2  4 11  1  1  0  1  4 21 23  1 23 20  1 21 22
  0 22 22 14 21 17  8]"
13300,342,1.0,7,3,1995.1610224246979,156.7839217185974,0,3404800,19065219,131882025,"[ 0  0  3  4  2  0  3  0  2  0  2  1  0  3  1  0  1  0  3  5  3  4  8  8
  0  0  2  2  1  2  0  8 12  3  7  2  0 12 13  5  4 13  4  9  8  5 14 11
  3  1 15  4 14 12  2  1  1  2 17 18  0 21 16  1 19 19  4  1  0  1 21 23
  4 22  3 14 21 17  8]"
13400,342,1.0,7,3,2010.8080270290375,156.47001028060913,0,3430400,19201570,132830993,"[ 0  0  3  2  2  1  1  2  0  5  3  2  0  3  1  1  0  4  1  8  6  0  5  0
  0  0  2  2  1  2  0  8 12  1  7  6  0  9  6  5  4 13  4  8  5  3 14 14
  2 12 17  4 14 12  0  0 12  4 13 14  2 22 23  2 23  2  5  0 23  2 22 21
  2 20  2 14 21 17  8]"
13500,342,1.0,7,3,2026.52197265625,157.13942050933838,0,3456000,19338428,133786446,"[ 0  0  3  1  0  3  4  3  0  5  0  3  0  3  1  5  7  7  0  7  5  4  0  3
  0  0  2  2  1  2  0  8 12  3 10  4  2  1 10  5  4 13  4  6  2  4  2 12
  3 13  2  4 14 12  5  3 17  0  2 12  5 17  3  0 14 19  5 17 23  2 22 18
  0 17 21 14 21 17  8]"
13600,342,1.0,7,3,2042.0557165145874,155.33740282058716,0,3481600,19473007,134724273,"[ 0  0  3  1  0  0  5  1  3  0  3  0  0  3  1  0  1  5  2  6  1  2  8  8
  0  0  2  2  1  2  0  8 12  3 13  2  1  9  7  5  4 13  0  2  5  2 17 12
  3 15 13  4 14 12  0 18  1  5  3 16  1 21 23  1  0  3  1 18 22  4 18 15
  3 20  3 14 21 17  8]"
13700,342,1.0,7,3,2057.865134239197,158.09414148330688,0,3507200,19611265,135689961,"[ 0  0  3  2  1  2  5  0  1  0  0  1  0  3  1  3  7  5  5  6  6  0  1  3
  0  0  2  2  4  4  0  8 12  2  3 10  1 13 10  5  4  5  0  6 11  1  3 17
  4  0  2  4 14 12  3  0 11  3 15 16  4 18 23  4  0  2  5  3 19  1  1 18
  0  3 17 14 21 17  8]"
13800,342,1.0,7,3,2073.816775083542,159.51637744903564,0,3532800,19752055,136671348,"[ 0  0  3  2  1  2  1  2  0  5  3  3  0  3  1  1  8  8  1  6  1  1  8  4
  0  0  2  2  1  5  0  8 12  3  1  9  0  4 13  5  4  5  0  8  0  2 15 14
  5  0  3  4 14 12  0 12  2  3 13 15  5 15 22  3  3 17  5  1 20  4 22 20
  5 21  3 14 21 17  8]"
13900,342,1.0,7,3,2089.8495483398438,160.32769680023193,0,3558400,19892831,137652347,"[ 0  0  3  2  1  2  4  0  0  1  3  1  0  3  1  3  5  3  1  3  8  4  2  5
  0  0  2  3  1  2  0  8 12  3 10  4  2  9 10  5  4  5  1  9 12  2  3 18
  0 18 14  4 14 12  2  1 17  3 12  2  5 18 17  0 23 23  3 17 22  0 20 18
  4 22 23 14 21 17  8]"
14000,342,1.0,7,3,2105.7801861763,159.3063449859619,0,3584000,20032654,138626691,"[ 0  0  3  2  1  2  0  2  2  3  3  0  0  3  1  0  5  0  1  4  5  5  2  0
  0  0  2  1  7  1  0  8 12  0  6  8  3  6  0  5  4  5  4  0  1  2 14  2
  4 14 17  4 14 12  2  1  3  4 15 15  5  3 23  2 23 23  0 23 22  0 18  0
  1  3 18 14 21 17  8]"
14100,342,1.0,7,3,2121.7683663368225,159.88176345825195,0,3609600,20173746,139610367,"[ 0  0  3  2  1  2  0  2  1  4  0  1  0  3  1  2  0  0  0  1  1  5  8  0
  0  0  2  0  8  6  0  8 12  2  5 12  4  2  4  5  4  5  0 10 12  3 14  2
  2  3  2  4 14 12  1 17  9  2 13 17  4 18  3  4  3 17  0 16 17  1 20  0
  4 20 20 14 21 17  8]"
14200,342,1.0,7,3,2137.729250192642,159.60880279541016,0,3635200,20314621,140591755,"[ 2  3  0  2  1  2  0  3  0  0  3  0  0  3  1  0  3  2  5  7  4  5  6  1
  0  0  2  5  3  2  0  8 12  1  8  0  1  1  2  5  6  5  0  0  3  2  3  2
  2 13  0  4 14 12  2 16 10  0 15 18  2  3 23  3 16 18  3 23 14  0  1 23
  2 15  0 14 21 17  8]"
14300,342,1.0,7,3,2153.777412414551,160.48158884048462,0,3660800,20456612,141581323,"[ 4  0  2  2  1  2  0  3  0  5  3  0  0  3  1  1  0  2  1  0  1  1  3  0
  0  0  2  5  5  1  0  8 12  1  4  6  2  9  1  5  6  5  5  6  3  1 17 11
  2 13  9  4 14 12  2 17  3  0 16 11  0 15  1  3 15  1  5 17 19  3 15 15
  0 16 15 14 21 17  8]"
14400,342,1.0,7,3,2169.7062814235687,159.28865432739258,0,3686400,20597006,142559895,"[ 1  0  0  2  1  2  0  3  0  0  1  2  0  3  1  1  7  0  0  1  3  1  8  4
  0  0  2  3  1  5  0  8 12  5 12  7  2  3  4  5  6  5  3  1 13  4  1  9
  5 10 15  4 14 12  2 10 12  0 18  0  2  2 22  4 21  3  4  1  1  4  0  2
  3 15 21 14 21 17  8]"
14500,342,1.0,7,3,2185.7876682281494,160.81382989883423,0,3712000,20739551,143551754,"[ 0  1  0  2  1  2  0  3  0  1  0  0  0  3  1  0  7  5  1  4  4  3  5  1
  0  0  2  1  2  5  0  8 12  4 11  5  0  5  8  5  6  5  3  8 13  5  1 14
  4  9  3  4 14 12  0  0  1  3 15 10  5  2 20  4 23  2  1  2 23  3 22  0
  3 23  2 14 21 17  8]"
14600,342,1.0,7,3,2201.7380418777466,159.50369596481323,0,3737600,20880048,144531243,"[ 5  2  2  2  1  2  0  3  0  5  1  0  0  3  1  5  7  0  2  8  7  3  1  1
  0  0  2  3  4  7  0  8 12  4  4 13  4  4 10  5  6  5  0  6 10  2 14  1
  3  9 10  4 14 12  5  1 14  2 16 13  0 23 14  4 19  2  0 16  2  5 18  2
  4 18  2 14 21 17  8]"
14700,342,1.0,7,3,2217.754620075226,160.1657485961914,0,3763200,21021064,145515689,"[ 5  3  0  2  1  2  0  3  0  0  2  1  0  3  1  1  4  6  3  6  6  0  0  4
  0  0  2  4  1  6  0  8 12  5  4  8  3  5  5  5  6  5  2  7  2  2  2 16
  0  3 13  4 14 12  4 15 17  4 13 16  5 18 17  4 22 18  1 14 14  5 22 19
  2  3 17 14 21 17  8]"
14800,342,1.0,7,3,2233.7665338516235,160.11910676956177,0,3788800,21162765,146501703,"[ 2  0  2  2  1  1  0  3  0  2  2  1  0  3  1  2  1  5  4  0  6  4  6  0
  0  0  2  4  0  2  0  8 12  1  1  1  2  5 10  5  6  7  0  0  4  0 12 17
  0  2  9  4 14 12  3  0 14  2 13 14  1  2  0  5 16  0  0  0 16  0  0 17
  4 16  0 14 21 17  8]"
14900,342,1.0,7,3,2249.7652728557587,159.98735189437866,0,3814400,21304016,147486350,"[ 0  1  3  5  1  0  0  3  0  2  2  1  0  3  1  1  4  4  2  0  8  4  0  5
  0  0  2  2  8  8  0  8 12  2  8  3  2 13  5  5  6  7  5 13  8  0 15 15
  1 10  2  4 14 12  3 13 10  0 12 15  1 23 15  0  1 18  1 17  3  0 23 17
  0 14  1 14 21 17  8]"
15000,342,1.0,7,3,2265.7209932804108,159.55717086791992,0,3840000,21444186,148465044,"[ 2  1  2  0  1  3  0  3  0  2  2  1  0  3  1  3  5  1  2  6  1  5  2  3
  0  0  2  3  1  6  0  8 12  2  2  4  5 12  3  5  6  7  5  4  5  1  2  1
  3 15 18  4 14 12  3 16 14  2 11 16  3 15 17  2  1 22  5 18 15  1 19  0
  2  2 18 14 21 17  8]"
15100,342,1.0,7,3,2281.720083475113,159.9908685684204,0,3865600,21585266,149448503,"[ 4  3  1  0  3  1  0  3  0  2  2  1  0  3  1  4  8  2  3  7  4  2  0  4
  0  0  2  0  5  6  0  8 12  2  2  7  1  6  4  5  6  7  4 10  9  3 17 11
  3 10  9  4 14 12  5 18 11  4 12 11  0  2 19  4  0 15  3 16 19  4 16 23
  3  2 20 14 21 17  8]"
15200,342,1.0,7,3,2297.7587339878082,160.38646936416626,0,3891200,21726418,150433328,"[ 5  2  1  0  2  3  0  3  0  2  2  1  0  3  1  0  0  6  3  4  4  2  1  2
  0  0  2  2  3  8  0  8 12  3  7  2  4 10  7  5  6 11  3 11  6  0 14 16
  4 16 11  4 14 12  2  9 12  2 10  0  4 22 22  1 14  2  3 19 23  4 22 23
  1  2 16 14 21 17  8]"
15300,342,1.0,7,3,2313.5148496627808,157.56112337112427,0,3916800,21862204,151381375,"[ 5  0  0  4  0  2  0  3  0  1  2  3  0  3  1  5  2  1  0  8  6  2  1  2
  0  0  2  4  6  6  0  8 12  5 10  1  1 13  9  5  6 11  1 11  3  1 18 11
  5 10 12  4 14 12  4 15 11  3  2 10  1  3  3  5 20 19  1  1 16  1  0 17
  2 16 23 14 21 17  8]"
15400,342,1.0,7,3,2329.08829665184,155.7344365119934,0,3942400,21997639,152324726,"[ 3  2  0  1  3  3  0  3  0  4  0  0  0  3  1  3  1  4  4  1  0  2  1  2
  0  0  2  5  1  1  0  8 12  3  4 13  5  0 10  5  6 11  0 13 12  5  0 11
  3 15 12  4 14 12  2 11  0  3 16 17  3 14 16  3 19  2  4 19 15  5 16 19
  2  2  0 14 21 17  8]"
15500,342,1.0,7,3,2344.78711271286,156.98811531066895,0,3968000,22134788,153279825,"[ 1  1  0  0  0  0  0  3  0  3  2  0  0  3  1  5  1  3  1  8  0  2  1  2
  0  0  2  3  6  2  0  8 12  2 10 11  3  2  4  5  6 11  0  0  6  3 12 16
  5 13 16  4 14 12  4  2 13  5  1 12  2 18 22  3 23 16  1 18  2  4 19 16
  0 17  0 14 21 17  8]"
15600,342,1.0,7,3,2360.4088439941406,156.2172770500183,0,3993600,22270659,154226873,"[ 4  1  0  2  3  0  0  3  0  3  2  0  0  3  1  1  0  3  0  5  4  2  1  2
  0  0  2  1  8  4  0  8 12  4  1 12  3 12 10  5  6 11  3  8 10  5  1  1
  2 18 18  4 14 12  2  0 10  2 13 10  0 23 20  0  1  3  4 18 22  0  0  3
  3 14  2 14 21 17  8]"
15700,342,1.0,7,3,2376.079535007477,156.70687437057495,0,4019200,22407057,155177486,"[ 5  3  2  2  3  2  0  3  0  2  1  2  0  3  1  3  1  3  2  6  7  1  8  2
  0  0  2  4  8  8  0  8 12  0  0 11  3 12  5  5  6  7  3  2  6  4 17  9
  1 11 13  4 14 12  5 13  2  4  0 14  1  1  0  5  1 14  2 18 22  3  1  0
  3 15 18 14 21 17  8]"
15800,342,1.0,7,3,2391.996834039688,159.17295455932617,0,4044800,22547267,156153367,"[ 1  3  1  3  2  1  0  3  0  2  1  2  0  3  1  4  6  3  4  0  3  5  4  5
  0  0  2  1  1  8  0  8 12  0  7  6  2  2 12  5  6  7  0  5 10  2 12  9
  0  2 10  4 14 12  1 12  1  0  9 11  2 15 22  5  1 14  2 18  3  3  0 22
  3  2  3 14 21 17  8]"
15900,342,1.0,7,3,2407.90061044693,159.03773069381714,0,4070400,22687134,157128158,"[ 3  3  3  1  0  0  0  3  0  2  1  2  0  3  1  5  4  0  3  5  1  4  4  0
  0  0  2  2  1  4  0  8 12  2  0  1  3 13  2  5  6  7  2 12  7  3 18 18
  4 12  1  4 14 12  3 11 17  1 15  0  0  3  1  2 15 16  1  0 23  2 17 14
  4 16 15 14 21 17  8]"
16000,342,1.0,7,3,2423.9457507133484,160.4513669013977,0,4096000,22829320,158118258,"[ 0  1  1  4  1  0  0  3  0  2  1  2  0  3  1  0  8  5  3  0  4  1  2  1
  0  0  2  1  7  4  0  8 12  2 12  0  0  6  3  5  6  7  1  8  7  5 12 15
  1  9  1  4 14 12  5 15 17  2 12 16  0 21 22  1 22 16  3  0 22  3  3 17
  1 23 18 14 21 17  8]"
16100,342,1.0,7,3,2439.945528268814,159.99773979187012,0,4121600,22970580,159102956,"[ 2  2  1  2  1  1  0  3  0  0  1  2  0  3  1  3  8  2  3  7  3  3  3  8
  0  0  2  2  7  0  0  8 12  3  3 13  0  9 11  5  6  4  5  3 11  4 10 16
  5 16  2  4 14 12  4 12 13  0 11 15  2  0 14  3 16 20  4 18 23  3 17  2
  5  0  3 14 21 17  8]"
16200,342,1.0,7,3,7862.967517375946,54230.21866798401,0,4147200,23109842,160076189,"[ 2  2  0  2  1  2  0  3  0  5  2  0  0  3  1  5  2  5  3  1  5  3  0  0
  0  0  2  4  7  6  0  8 12  5  0 12  2 13  7  5  6  5  1  6 11  0 11 10
  4 16 16  4 14 12  3 12  1  4 17 12  5 20 22  2 20 16  1 15 20  2  3 23
  2  2 17 14 21 17  8]"
16300,342,1.0,7,3,7884.529520273209,215.61999082565308,0,4172800,23250863,161059115,"[ 5  3  2  2  1  2  0  3  0  4  3  1  0  3  1  3  2  6  1  3  7  2  0  2
  0  0  2  3  0  4  0  8 12  5  1  2  3  7 11  5  6  5  1  6  3  1 14 13
  3  2 18  4 14 12  3  0  2  3 10  3  2 19 17  5 22 20  3 14 18  0  3 23
  4 22 19 14 21 17  8]"
16400,342,1.0,7,3,7907.097411155701,225.67748308181763,0,4198400,23393499,162052679,"[ 1  3  1  2  1  2  0  3  0  0  0  3  0  3  1  3  8  1  4  4  0  0  3  0
  0  0  2  2  3  4  0  8 12  5 10  4  2 10  4  5 11  5  0  3  5  1  1  3
  5  9 14  4 14 12  5 10  3  0 18 13  3 15 17  4 16 17  3  1 15  2 17 20
  4  3 18 14 21 17  8]"
16500,342,1.0,7,3,7934.688694000244,275.9110188484192,0,4224000,23529490,163000401,"[ 0  0  1  2  1  2  3  2  0  4  1  3  0  3  1  2  0  5  4  3  0  0  3  0
  0  0  2  5  1  6  0  8 12  5  6  2  2 10  3  5 11  5  2  8 12  2  2 17
  1  9  0  4 14 12  0  2 11  4  9 14  5  2 20  2 16  0  1 19 14  5 16 22
  5 14  3 14 21 17  8]"
16600,342,1.0,7,3,7972.603765249252,379.1497755050659,0,4249600,23665745,163949948,"[ 4  1  0  2  1  2  3  0  1  1  1  3  0  3  1  3  1  2  4  6  8  0  3  0
  0  0  2  0  7  4  0  8 12  1  9 13  2  1  4  5 11  5  2  9  3  0  1 13
  5 13 14  4 14 12  4 11 16  4 16  2  1 18 21  0 21 18  2  1 18  4 16  3
  4 18 14 14 21 17  8]"
16700,342,1.0,7,3,8000.259798288345,276.55885457992554,0,4275200,23801903,164898474,"[ 3  0  0  2  1  2  5  2  0  0  0  2  0  3  1  4  2  2  3  8  0  0  3  0
  0  0  2  2  8  3  0  8 12  3  4  0  1 11  1  5 11  5  2  8  1  3 15 18
  5 17 10  4 14 12  1 17 16  0  0 14  5 21 21  2 17 21  1 20  0  3 17 20
  5  3 17 14 21 17  8]"
16800,342,1.0,7,3,8018.147123575211,178.8732147216797,0,4300800,23936485,165835487,"[ 4  3  1  2  1  2  3  3  0  1  2  0  0  3  1  5  5  0  5  5  4  0  3  0
  0  0  2  4  6  5  0  8 12  3  9 10  5  2  3  5 11  5  4  9  2  2 12 15
  2 13 11  4 14 12  0 12  0  1 10  9  3  3  2  1 15 14  3 20 15  2  3  3
  4 21  1 14 21 17  8]"
16900,342,1.0,7,3,8034.898738145828,167.5161099433899,0,4326400,24070941,166773115,"[ 5  3  1  2  1  2  1  1  3  4  3  0  0  3  1  2  7  2  5  6  4  0  3  0
  0  0  2  0  1  0  0  8 12  4 11  0  3 10  8  5 11  5  0  3  4  4 13 13
  5  0 11  4 14 12  0 11  2  3  3 16  1  3  3  4  0 14  1 23  0  2 14 17
  2 16 17 14 21 17  8]"
17000,342,1.0,7,3,8049.334632635117,144.35890436172485,0,4352000,24206235,167717314,"[ 2  3  2  2  1  2  0  3  1  2  2  3  0  3  1  2  4  1  3  3  4  0  3  0
  0  0  2  1  0  3  0  8 12  3  8  4  3  9  2  5 11  5  3  6  8  4 10 13
  4  1 15  4 14 12  0 18  1  0 12 10  2 23  3  4  2  1  5  0 20  1  3 21
  0 18  1 14 21 17  8]"
17100,342,1.0,7,3,8063.529978752136,141.95343017578125,0,4377600,24344165,168678475,"[ 0  2  3  2  1  2  3  2  2  5  1  0  0  3  1  4  0  2  3  1  3  0  3  0
  0  0  2  1  0  0  0  8 12  2  0  2  5  6 11  5 11  5  3  6  6  3 10  0
  5 16  1  4 14 12  2 16 15  4  0  0  1  0 22  2 20 21  0 21 18  2 20  3
  0  0 18 14 21 17  8]"
17200,342,1.0,7,3,8077.625690698624,140.9570837020874,0,4403200,24480509,169629710,"[ 3  2  1  2  1  2  0  1  1  0  1  2  0  3  1  2  5  8  5  7  4  0  3  0
  0  0  2  2  6  3  0  8 12  5  4  3  2  6  9  5 11  5  5  8  2  2 11  0
  4 16 13  4 14 12  1 16 14  0 13 11  4 18 18  2  2 14  5  3  1  4  0 23
  4 15 22 14 21 17  8]"
17300,342,1.0,7,3,8091.56162405014,139.35930252075195,0,4428800,24615011,170566332,"[ 4  0  2  2  1  2  4  0  2  1  0  3  0  3  1  2  8  8  5  3  6  0  3  0
  0  0  2  4  3  8  0  8 12  5  7 13  5  0 12  5 11  5  5  3  3  2  3  1
  4  3 11  4 14 12  1 13 13  5 18 10  2  2  0  5 20 23  2 20 21  4 19  3
  5  0 20 14 21 17  8]"
17400,342,1.0,7,3,8105.888293504715,143.26665878295898,0,4454400,24750207,171507583,"[ 5  3  0  2  1  2  0  2  3  3  2  2  0  3  1  1  7  8  2  6  1  0  3  0
  0  0  2  3  6  4  0  8 12  4 10  8  4  3  2  5 11  5  5  3  2  4  3  3
  1  0  9  4 14 12  0  0 11  4  1 12  4 18 23  1 19  2  5 14 21  2 17  2
  5  1 14 14 21 17  8]"
17500,342,1.0,7,3,8121.37775015831,154.89453315734863,0,4480000,24886099,172455975,"[ 3  2  1  2  1  2  5  2  1  4  0  3  0  3  1  2  2  5  0  4  8  0  3  0
  0  0  2  3  2  0  0  8 12  0  2  1  2  5 12  5 11  5  4  8 12  0 14 14
  0 17  1  4 14 12  1  0 18  3 15  1  1  0 21  4 23 17  4 15 15  4 22  2
  3  2 14 14 21 17  8]"
17600,342,1.0,7,3,8135.6075694561005,142.2981572151184,0,4505600,25021861,173404940,"[ 1  0  1  2  1  2  5  0  3  1  2  3  0  3  1  1  0  5  3  3  4  0  3  0
  0  0  2  3  3  7  0  8 12  5  1  7  2  1  9  5 11  5  2  6 13  2 15 18
  4 15 17  4 14 12  0 14 18  0 14 18  5 18 23  5 23  1  4 14 20  4 21 16
  5 22 17 14 21 17  8]"
17700,342,1.0,7,3,8149.698865652084,140.912926197052,0,4531200,25157408,174350153,"[ 5  2  0  2  1  2  4  3  2  3  0  2  0  3  1  5  3  3  0  6  0  0  3  0
  0  0  2  3  6  0  0  8 12  1  8 12  0 12  0  5 11  5  4 12  3  1 16 14
  3  3 14  4 14 12  1  3 13  0 18  3  2  1  3  4 17 17  1  2  3  1 16 16
  5 15  3 14 21 17  8]"
17800,342,1.0,7,3,8163.911192178726,142.12323427200317,0,4556800,25294600,175307132,"[ 4  2  2  2  1  2  4  2  1  5  0  1  0  3  1  1  6  7  0  3  3  0  3  0
  0  0  2  0  7  2  0  8 12  5 12  4  3  5 10  5 11  5  1 13  4  5 18  9
  0 12  3  4 14 12  4 10  9  1 13  9  0  2 16  2 22 18  3  0  0  5 21 14
  4 20 14 14 21 17  8]"
17900,342,1.0,7,3,8177.990525722504,140.7932949066162,0,4582400,25430756,176256856,"[ 2  1  3  2  1  2  1  0  1  0  2  0  0  3  1  2  5  2  0  7  8  0  3  0
  0  0  2  5  0  6  0  8 12  3 11  8  3  4 12  5 11  5  5 13  4  5 18 14
  0 16  2  4 14 12  5  9 18  4 13 13  1 15 14  0  0 19  0  0 15  5 23  0
  4  1  3 14 21 17  8]"
18000,342,1.0,7,3,8192.078748464584,140.8821964263916,0,4608000,25567002,177206893,"[ 3  1  0  2  1  2  5  2  2  0  3  3  0  3  1  1  2  7  5  8  3  0  3  0
  0  0  2  0  8  5  0  8 12  0  8  6  0  3  1  5 11  5  2  1  2  5  3 13
  1 14 17  4 14 12  5 13  3  4 18  9  3 23 19  0 19 19  0 18  3  4  3 17
  1 18 21 14 21 17  8]"
18100,342,1.0,7,3,8206.128747701645,140.4999566078186,0,4633600,25702904,178153404,"[ 2  2  1  5  0  1  2  2  2  0  0  0  0  3  1  4  1  6  2  8  1  0  3  0
  0  0  2  3  7  7  0  8 12  2  0  3  5  6  9  5 11  4  5  2  1  4 12 17
  4  9  0  4 14 12  5  9 18  2 11 12  2  3  0  5 22 14  3 14 20  2  3  2
  4 19 18 14 21 17  8]"
18200,342,1.0,7,3,8220.327937602997,141.9918656349182,0,4659200,25840422,179110581,"[ 2  2  1  3  0  0  3  3  0  2  1  2  0  3  1  0  3  3  2  1  2  0  3  0
  0  0  2  1  4  6  0  8 12  3 12  7  1  2  2  5 11  4  5  9  0  0  9  9
  4  0 13  4 14 12  5  3  9  5 11 11  2 15 23  1 15 23  2 23 17  4 16 16
  4 21 19 14 21 17  8]"
18300,342,1.0,7,3,8234.459842920303,141.31901502609253,0,4684800,25976044,180055826,"[ 2  2  1  1  0  2  1  3  1  3  1  3  0  3  1  2  5  0  0  7  1  0  3  0
  0  0  2  3  3  0  0  8 12  0  4  3  4  7  7  5 11  4  3  8 12  3 18  9
  0 10 10  4 14 12  4 17  0  0  1 10  4  2  2  1 16 19  5 21 20  1  0 15
  1 15 20 14 21 17  8]"
18400,342,1.0,7,3,8248.61316871643,141.5332269668579,0,4710400,26113739,181015254,"[ 5  3  0  4  0  3  4  3  3  2  2  1  0  3  1  0  4  5  3  2  4  0  3  0
  0  0  2  5  2  3  0  8 12  2 12 11  0  7  6  5 11  7  5  7 11  0  3  9
  4 18 17  4 14 12  1  3  2  2  1 11  5  1 16  1  1 21  1 19 14  1  1  0
  0  3 18 14 21 17  8]"
18500,342,1.0,7,3,8262.722946882248,141.09774827957153,0,4736000,26250491,181968368,"[ 2  3  3  3  2  0  0  1  1  2  2  1  0  3  1  2  4  6  3  7  8  0  3  0
  0  0  2  5  8  5  0  8 12  2 12  1  4  7  5  3  2  0  5  7 11  1 12  9
  3 18  0  4 14 12  3  2 14  2  3 13  3 14 20  0 22 19  3 16  1  3 17 19
  5  1 17 14 21 18  8]"
18600,342,1.0,7,3,8276.66488814354,139.41938161849976,0,4761600,26385550,182907836,"[ 2  0  0  4  3  0  1  2  3  2  2  1  0  3  1  5  4  4  2  7  1  0  3  0
  0  0  2  3  8  1  0  8 12  2 13  9  0 12 12  5  6  6  5  7 11  2  3 18
  0 12 14  4 14 12  0  1  2  2 12  1  4 15  1  2 20 19  3  1  2  4 20 20
  2  0  0 14 21 18  8]"
18700,342,1.0,7,3,8290.756316661835,140.91424942016602,0,4787200,26521603,183857748,"[ 1  0  3  4  2  3  0  1  3  2  2  1  0  3  1  4  5  4  2  5  7  0  3  0
  0  0  2  5  7  5  0  8 12  3  4  5  4  3 11  2  5  0  5  7 11  0 18  9
  0 10  2  4 14 12  3 15  9  4  0  2  2  2 22  5 17 19  4 14  1  4 21  1
  3  1  2 14 21 18  8]"
18800,342,1.0,7,3,8305.052646636963,142.96326160430908,0,4812800,26660769,184827415,"[ 3  3  2  3  0  2  0  3  0  2  2  1  0  3  1  4  2  6  2  3  3  1  0  2
  0  0  2  0  1  0  0  8 12  3  4  2  0  4  0  3  8 13  5  7  6  0 13 11
  2 16 11  4 14 12  2  1 17  3 14 13  4 20  3  5 15 22  2 22 18  4 23 20
  4  1 18 14 21 18  8]"
18900,342,1.0,7,3,8319.47043633461,144.17786121368408,0,4838400,26801584,185811434,"[ 5  0  2  1  3  1  0  3  0  2  2  1  0  3  1  0  5  0  0  7  4  2  4  4
  0  0  2  5  4  0  0  8 12  5  4  0  3  5  7  3  9 13  5  7  6  5 10  1
  1 17 17  4 14 12  3  3 10  5 13 15  2 23 23  3 22 19  1  3 23  5 14 19
  3 21 17 14 21 18  8]"
19000,342,1.0,7,3,8333.981361150742,145.10921239852905,0,4864000,26942685,186795238,"[ 5  2  3  5  1  1  0  3  0  2  2  1  0  3  1  3  5  4  4  2  3  2  3  3
  0  0  2  0  1  2  0  8 12  5  3  5  1  6 12  3  0 11  5  7  6  2 10  0
  4  2 13  4 14 12  3  3 17  4 17  0  1  0  1  5  2  0  5 23  3  0  2 14
  5  0 18 14 21 18  8]"
19100,342,1.0,7,3,8348.427891731262,144.46527242660522,0,4889600,27084621,187783915,"[ 2  1  1  1  0  0  0  3  0  2  2  1  0  3  1  3  3  5  0  8  8  4  7  1
  0  0  2  3  4  2  0  8 12  5  1  3  1  6  2  4  0  5  5  7  6  0  1 17
  0  2 12  4 14 12  2 17  3  0 15 17  2 14  2  1  0 20  5 15  3  3 18 19
  3 22 22 14 21 18  8]"
19200,342,1.0,7,3,8362.811361789703,143.83466482162476,0,4915200,27225643,188766910,"[ 0  3  0  2  1  3  0  3  3  2  2  1  0  3  1  0  5  2  1  5  7  2  2  3
  0  0  2  5  3  7  0  8 12  3  1  3  2 13  9  1  1 11  5  7  4  3  3  0
  2  1  9  4 14 12  4  0 12  2  9 18  4  3 19  5 14 15  4 17 20  1 18 21
  2 22 14 14 21 18  8]"
19300,342,1.0,7,3,8377.282015562057,144.7064971923828,0,4940800,27367852,189759550,"[ 0  3  0  2  0  1  0  0  1  2  2  1  0  3  1  0  4  0  4  6  8  4  1  7
  0  0  2  2  5  6  0  8 12  5  3 13  0  4 13  0  3  9  5  7  4  1  9 11
  1 18 13  4 14 12  4  9  9  5 16 15  1  1 17  0 19 14  2  0 23  0 17 16
  4 19 21 14 21 18  8]"
19400,342,1.0,7,3,8403.661665678024,263.7955641746521,0,4966400,27510316,190752492,"[ 0  3  0  2  2  2  5  1  1  2  2  1  0  3  1  2  0  6  1  7  1  3  1  1
  0  0  2  1  3  4  0  8 12  0  8  5  0  5  0  3  5  6  5  7  4  3 17 11
  4 18 11  4 14 12  5 14 18  2  2  2  1  1  1  0  2 23  1 14 22  5 19 14
  5 19 15 14 21 18  8]"
19500,342,1.0,7,3,8418.311059951782,146.49390697479248,0,4992000,27652645,191743553,"[ 0  3  0  0  1  2  5  3  0  2  2  1  0  3  1  5  1  8  3  0  0  2  0  4
  0  0  2  5  7  0  0  8 12  0  5 12  4  1  1  2 12  2  5  7  4  2 11  2
  5  2  3  4 14 12  4 15  9  0 10 10  4 21  2  3 19 19  3  0  3  0 22  2
  0 22 18 14 21 18  8]"
19600,342,1.0,7,3,8432.946304321289,146.35241031646729,0,5017600,27794528,192731789,"[ 0  3  0  1  3  2  5  1  1  2  2  1  0  3  1  2  2  6  4  7  6  5  7  0
  0  0  2  2  0  0  0  8 12  1  0  5  4  3  4  3  1 13  5  7  4  4  9 13
  0  0  9  4 14 12  3 17  2  0 18  3  4 19 18  3  0  1  4 17 20  2 16 19
  5  1 21 14 21 18  8]"
19700,342,1.0,7,3,8447.382005691528,144.3569803237915,0,5043200,27935760,193718006,"[ 0  3  0  5  1  0  2  3  1  2  2  1  0  3  1  3  2  6  2  1  3  5  4  6
  0  0  2  5  4  0  0  8 12  2  2  5  2 10 10  1  5  7  5  7  4  0  9 10
  3 10 12  4 14 12  0  9  0  0 17 16  2 23  0  5 21 20  3  3 14  1  3 21
  2  2 17 14 21 18  8]"
19800,342,1.0,7,3,8461.860097646713,144.78088855743408,0,5068800,28078277,194710718,"[ 1  3  3  2  1  2  0  3  0  2  2  1  0  3  1  5  7  3  2  2  5  3  3  4
  0  0  2  0  4  7  0  8 12  4  7 13  3  0  2  5 10  1  5  7  6  0 14 10
  2 15 13  4 14 12  3 11 11  3 15 15  1 23 23  2  3 18  3 22 23  2 19 15
  2 19  0 14 21 18  8]"
19900,342,1.0,7,3,8476.161178588867,143.01077604293823,0,5094400,28217882,195684298,"[ 5  0  3  2  1  2  0  3  0  2  2  3  0  3  1  5  0  4  3  0  5  4  3  5
  0  0  2  0  1  3  0  8 12  0  6  2  0 11  8  5  6  5  5  5  6  2 15 17
  1  2 10  4 14 12  4 14 10  0  3 18  2 20 15  3 16 17  0 14  1  5 23  1
  5  1 16 14 21 18  8]"
20000,342,1.0,7,3,8490.594051837921,144.32870149612427,0,5120000,28360164,196674363,"[ 2  0  2  2  1  2  0  3  0  3  2  2  0  3  1  3  3  3  1  3  2  1  6  6
  0  0  2  5  6  3  0  8 12  4  3 12  4 13 10  5 13 13  5  5  6  0 18 14
  1 12 11  4 14 12  1 14  1  5 15 18  2  2 22  2  1  2  1 22 16  2  2  2
  5 22  3 14 21 18  8]"
