generation,fitness,functionality,active_nodes,longest_path,time,gen_time,nc_gens,fitness_evals,graph_evals,node_evals,genotype
0,36,0.5625,5,2,0.013720035552978516,13.715267181396484,0,0,0,0,"[ 5  2  2  4  3  2  4  1  1  1  2  3  3  2  1  1  1  0  5  1  6  0  5  8
  5  1  3  5  1  8  5 11  3  4  5  6  4  4  4  1  9 11  1 12  8  2 15 14
  4  0  0  2 10 16  0 11 18  5 15  2  5 23 20  3 19  0  1 16 19  2  3  1
  1 19 17 11  9 13  0]"
100,57,0.890625,12,4,1.4715728759765625,14.578475952148438,20,400,5531,58359,"[ 2  0  1  2  2  0  5  1  1  0  2  0  4  2  0  4  2  0  0  6  1  0  5  7
  0  1  3  3  5  5  4 10  8  5  6  9  2  0 12  4  5  5  3 11 11  2 16  2
  1  0  9  3 10  3  1 11 12  5 17 14  5 23  0  3 17 14  3 15 19  2 19 23
  5 17 21 11 26 17 22]"
200,57,0.890625,14,4,3.015526294708252,15.43949842453003,49,800,10701,123291,"[ 5  2  0  2  2  0  2  3  1  0  0  0  2  3  2  4  7  0  1  3  1  0  4  7
  0  1  3  2  5  6  2 11 13  5  6  9  2 12  4  4  5  5  1  0 11  4 16 13
  2 18  2  4 12  3  1 15 12  5 17  9  2 23 23  1  3 14  3 15 19  2 19 23
  5 17 20 17 26 11 22]"
300,59,0.921875,12,4,4.521969795227051,15.064399242401123,71,1200,15714,183276,"[ 0  1  2  2  2  0  2  3  1  3  0  0  4  3  2  5  2  6  5  2  7  4  4  0
  0  6  5  4  5  6  5 11  3  5  6 12  4 12  4  4  5  5  5  7 13  2 17 13
  2 17 10  4 12 14  4 15 12  5 17 15  5 15 20  3  3 20  3 15 18  2 17 17
  5 18 20 17 26 11 22]"
400,59,0.921875,10,4,6.0011913776397705,14.792180061340332,104,1600,20566,237777,"[ 0  1  2  2  2  0  2  3  1  1  1  3  0  3  0  1  6  6  1  6  8  1  4  0
  0  6  5  4  7  6  2  8  7  5  9 12  4  1  5  4  5  5  2 11  6  3 17 13
  0  1 14  4  3 13  4 15 12  1 17  2  5 15 18  5  0  1  3 15 17  0 19 14
  5 14 20 17 26 11 22]"
500,59,0.921875,12,5,7.351855516433716,13.506603240966797,139,2000,25429,290803,"[ 0  1  2  4  2  0  2  3  1  0  1  1  2  3  3  1  4  0  0  0  8  2  7  6
  0  6  5  2  6  8  3  0 13  5  6 12  1  1 11  4  5  5  5 11  5  4 16 10
  4 11 14  4 14  0  4 15 12  2  0 16  0 22 18  5 23 21  3 15 23  0 22  2
  3 16 22 17 26  4 22]"
600,60,0.9375,18,5,8.926874876022339,15.750148296356201,169,2400,30704,352051,"[ 0  2  2  2  2  0  2  3  1  0  0  1  4  3  3  1  8  3  1  8  0  4  1  6
  3  6  4  5  0  5  3 13  6  5  6 12  2 10  5  3  6  3  5 11  9  4 16 10
  2  1 16  4 14  9  4 15 12  2 10 18  0  2  2  5 23 14  3 15 19  0 22 18
  5 23 19  8 26 25 22]"
700,60,0.9375,16,5,10.606464862823486,16.79586172103882,204,2800,35327,428839,"[ 5  2  1  2  2  0  2  3  1  4  1  1  4  3  3  1  8  3  0  0  2  2  1  8
  3  6  3  3  8  5  3  5  6  3  6 12  2 10  5  3 13  6  5 11  9  4 16 10
  3 11 14  4 13  9  4 15 12  2  0 18  4  2  1  5 23 14  3 14 19  2 15 18
  5 21 19  8 26 25 22]"
800,61,0.953125,12,4,12.08722186088562,14.807507991790771,227,3200,39826,497350,"[ 2  0  1  2  0  2  2  3  1  4  1  1  5  3  0  5  4  7  0  0  2  2  7  8
  3  6  3  0  3  2  3  5  6  3  8 12  1 10  8  2 11  6  3  8  8  4 11 10
  2  9 17  1 17 18  0 18  9  2  0  3  0 16 15  5 23 14  5 14 19  2  1 19
  2  3 16 14 26 25 17]"
900,61,0.953125,11,4,13.11580777168274,10.285818576812744,268,3600,43818,543728,"[ 2  2  0  2  0  2  2  3  1  4  1  1  2  1  1  3  4  2  0  0  2  2  7  0
  0  6  3  5  3  2  3  5  6  0  0  3  5  8  2  2 11  6  5  1  0  4 11 10
  2 17 14  1 18 18  4 18  2  2  0  3  0 17  3  3 23 14  3 14 19  3 21 17
  0 14 16 14 26 25 17]"
1000,61,0.953125,12,3,14.245105266571045,11.292939186096191,306,4000,47880,592059,"[ 5  3  0  2  0  2  2  3  1  4  1  1  2  3  1  3  7  2  0  0  2  2  8  7
  2  8  3  3  0  7  3  5  8  0  1 10  5  8 10  2 11  6  2  0  0  2  2 10
  4 11 16  3 18 17  5 17  9  2  0  3  5  2  3  3 23 14  3 14 19  1 18  3
  1  0 16 14 26 25 17]"
1100,61,0.953125,9,3,15.375406980514526,11.302974224090576,344,4400,52118,636684,"[ 5  0  0  2  2  1  2  3  1  4  3  2  1  2  1  5  7  3  0  0  6  2  0  0
  3  8  3  3  1  1  3  5  7  2  1 12  4 13 13  3  6  6  0  4  7  2  2  0
  0  1  1  3 15 16  4  2 10  2  0  3  5 14 14  5 23 14  3 14 19  0 15  1
  3  0  0 14 26 25 17]"
1198,66.0,1.0,16,4,16.743572473526,13.960828586500519,373,4792,56159,694225,"[ 3  0  0  2  2  1  2  1  3  3  1  2  5  1  1  1  4  2  0  8  6  0  0  5
  0  7  7  5  3  7  3  5  7  0  2 12  4  5  4  3 13 10  2 13  8  2  2  0
  2  1 13  0 17 16  3 10 16  2  0  3  3 18  2  5 23 14  3 17 19  0  2 22
  5  0  0 27 26 25 17]"
1200,66.0,1.0,16,4,16.76727533340454,11.849284172058105,373,4800,56236,695422,"[ 3  0  0  2  2  1  2  1  3  3  3  2  5  1  1  1  4  2  0  8  6  0  0  5
  0  7  7  0  3  7  3  5  7  0  2 12  4  5  4  3 13 10  2 13  9  2  2  0
  2  1 13  5 17 16  3 10 16  2  0  3  3 18  2  5 23 14  3 17 19  0  2 22
  5  0  0 27 26 25 17]"
1300,66.4,1.0,14,4,17.672269344329834,9.049901962280273,425,5200,58788,731536,"[ 2  3  0  2  2  1  2  1  3  5  0  2  5  1  1  2  6  2  0  8  6  5  0  5
  0  7  0  0  5  7  3  5  5  1  0  1  4  6  4  3 10 10  3 13  9  2  2  0
  0  3  9  5 17 14  3 10 16  2  0  3  3 22  2  5 23 14  3 17 19  0  2 22
  2 23  2 27 26 25 17]"
1400,66.8,1.0,12,4,18.518548011779785,8.462746143341064,473,5600,61275,762466,"[ 2  3  0  2  2  1  2  1  3  5  0  0  5  1  1  5  6  2  0  6  6  3  2  3
  2  2  0  1  5  6  3  5  5  3 12  1  4  0  0  3 10 10  4 13  7  2  2  0
  3  3  9  5  0 12  3 10 12  2  0  3  3 22 23  5 23 14  3 17 19  0  3 22
  3 23 15 27 26 25 17]"
1500,67.0,1.0,11,4,19.341449975967407,8.228983879089355,526,6000,63809,792100,"[ 4  0  3  2  2  1  2  1  3  5  0  0  0  2  1  1  6  3  0  2  6  1  2  6
  2  2  0  0  5  8  2  5  5  1 12 13  2  0  5  3 10  6  4  7  7  2  2  0
  1 17  9  3  2 12  3 10 12  2  0  3  3  1 23  5 23 14  3 17 19  0 22  1
  0  1 21 22 26 25 17]"
1600,67.0,1.0,11,4,20.029871225357056,6.8841552734375,581,6400,66131,817545,"[ 5  2  1  2  2  1  2  1  3  0  2  3  3  2  2  3  5  3  0  0  6  1  4  0
  2  2  0  4  5  8  3  5  5  5  8  5  1  0  0  3 10  6  3  7  7  2  2  0
  1 12  2  4  2 12  3 10 12  2  0  3  3 16 23  5 23 14  3 22 19  0 21  1
  0 15 16 22 26 25 17]"
1700,67.0,1.0,11,4,20.676738739013672,6.468639373779297,639,6800,68311,841326,"[ 4  2  1  2  2  1  2  1  3  4  2  2  1  3  3  4  8  2  0  0  6  1  0  8
  2  2  0  0  1  0  3  5  5  3 10  5  2 10  5  3 10  6  1 11  6  2  2 10
  1 14  2  4  0 14  3 10 12  2  0  3  4  0 16  5 23 14  2 19 19  0 21  1
  0 15  1 22 26 25 17]"
1800,67.0,1.0,11,4,21.453033685684204,7.762913703918457,689,7200,70760,868113,"[ 4  0  1  2  2  1  2  1  3  1  0  0  1  3  1  4  1  0  0  0  6  2  5  5
  2  2  0  1  7  2  3  5  5  3 13  0  0 10  5  3 10  6  3  5  7  2  2  0
  4 13  2  0  0 10  3 10 12  2  0  3  0  0 14  5 23 14  3 17 19  0 19  1
  5  3 23 22 26 25 17]"
1900,67.2,1.0,11,3,22.2176456451416,7.646059989929199,742,7600,73076,893338,"[ 4  2  1  2  2  1  2  1  3  0  3  1  4  2  0  0  7  1  5  2  6  3  7  6
  2  2  0  2  3  2  2  5  5  0 13  0  3  9  5  3  6  6  4 10 10  2  2  0
  4 13  2  1  0 12  3 10 12  2  0  3  0 15 14  5 23 14  3 17 19  4 19  3
  2  3 20 22 26 25 17]"
2000,67.2,1.0,11,3,22.90712070465088,6.894710063934326,796,8000,75350,918125,"[ 4  2  0  2  2  1  2  1  3  0  2  1  3  2  0  2  6  6  5  0  6  3  2  6
  2  2  0  0  7  2  2  5  5  5  8  0  3  3  5  3  6  6  5 10 10  2  2  0
  4 12  2  1  9 12  3 10 12  2  0  3  0 23  1  5 23 14  3 17 19  1 17 17
  2  3 17 22 26 25 17]"
2100,67.2,1.0,11,3,23.62730073928833,7.201716899871826,845,8400,77583,942424,"[ 4  2  2  2  2  1  2  1  3  0  2  3  5  0  0  2  5  6  0  0  6  0  1  6
  2  2  0  0  1  6  3  5  5  0  8 12  3 13  5  2  6  6  1  8 10  2  2  0
  5  2  2  4 17 16  3 10 12  2  0  3  2 23  0  5 23 14  3 17 19  1 16 17
  5 17  2 22 26 25 17]"
2200,67.2,1.0,11,3,24.390580892562866,7.632746696472168,901,8800,79948,968143,"[ 4  0  1  2  2  1  2  1  3  0  0  3  0  0  3  2  5  6  5  2  6  0  5  7
  2  2  0  0  1  4  3  5  5  5  2 12  3 10  5  3  6  6  0  1  5  2  2  0
  5 17  1  4  9 13  3 10 12  2  0  3  1 23 18  5 23 14  3 17 19  4 22  3
  3 17 18 22 26 25 17]"
2300,67.2,1.0,11,3,25.214986085891724,8.24399709701538,954,9200,82255,993148,"[ 5  0  3  2  2  1  2  1  3  4  1  1  0  0  3  2  7  7  0  0  6  2  7  7
  2  2  0  0  5  4  2  5  5  5  2 12  5 10 11  2  6  6  0  2  5  2  2  0
  3 17 14  4  0 16  3 10 12  2  0  3  1 20  3  5 23 14  3 17 19  4 18 15
  3 14  0 22 26 25 17]"
2400,67.2,1.0,11,3,26.057414293289185,8.424229621887207,1013,9600,84428,1016795,"[ 5  0  3  2  2  1  2  1  3  2  3  2  1  1  3  2  7  0  1  6  6  2  5  8
  2  2  0  3  5  0  2  5  5  3  9  3  5 10  0  3  6  6  0 12  9  2  2  0
  3  9 12  1 14 18  3 10 12  2  0  3  5 23  3  5 23 14  3 17 19  4 18 15
  3  3  3 22 26 25 17]"
2500,67.2,1.0,11,3,26.95229458808899,8.948745727539062,1061,10000,86924,1043908,"[ 5  0  2  2  2  1  2  1  3  4  1  2  1  0  3  1  0  6  1  5  6  2  5  2
  2  0  0  3  0  5  3  5  5  4  9 12  2 10  7  3  6  6  5  8  4  2  2  0
  1 15 12  4 14 18  3 10 12  2  0  3  5 22  3  5 23 14  3 17 19  5 14 16
  1 19 23 22 26 25 17]"
2600,67.2,1.0,11,3,27.917767763137817,9.654679298400879,1119,10400,89227,1068939,"[ 4  3  0  2  2  1  2  1  3  5  3  2  1  1  3  4  4  6  1  5  6  0  6  5
  4  0  2  4  0  5  3  5  5  2  1  1  4 10  8  3  6  6  5  7  4  2  2  0
  1 15 16  4 14  0  3 10 12  2  0  3  5 22  3  5 23 14  3 17 19  5  0 16
  2 16 23 22 26 25 17]"
2700,67.2,1.0,11,3,28.79906153678894,8.812901973724365,1166,10800,91889,1097932,"[ 3  0  1  2  2  1  2  1  3  5  3  2  4  0  3  4  7  6  1  5  6  0  5  5
  3  0  0  1  0  6  2  5  5  3  5  6  1  9 12  2  6  6  5 12 10  2  2  0
  1 14 10  4  2 16  3 10 12  2  0  3  5 14  1  5 23 14  3 17 19  2  0 16
  2 16 14 22 26 25 17]"
2800,67.2,1.0,11,3,30.023606777191162,12.245407104492188,1215,11200,94180,1122802,"[ 4  0  1  2  2  1  2  1  3  4  3  1  4  0  3  3  0  6  1  5  6  4  3  0
  3  0  0  5  0  2  2  5  5  3  5  6  1  9 12  3  6  6  3  0  1  2  2  0
  1  9  0  3 12  2  3 10  9  2  0  3  4 20 16  5 23 14  3 17 19  1  0  3
  4 16 14 22 26 25 17]"
2900,67.2,1.0,11,3,30.768340826034546,7.4472761154174805,1274,11600,96445,1147447,"[ 5  1  0  2  2  1  2  1  3  1  3  1  4  1  3  5  0  6  1  5  6  5  5  0
  1  3  7  1  6  6  3  5  5  5 13  1  5  9 12  3  6  6  5  0  5  2  2  0
  4  2 12  1 10  2  3 10 18  2  0  3  3 18 16  5 23 14  3 17 19  4  0 22
  5 22 17 22 26 25 17]"
3000,67.2,1.0,11,3,31.523176193237305,7.548313140869141,1323,12000,98698,1171956,"[ 4  1  2  2  2  1  2  1  3  5  1  1  4  1  3  5  0  6  1  5  6  5  5  0
  1  7  0  1  0  0  2  5  5  3 13  5  5  9  0  3  6  6  5  4  4  2  2  0
  0  2 12  1 18 14  3 10 11  2  0  3  3 18 16  5 23 14  3 17 19  0  2 18
  5 20 17 22 26 25 17]"
3100,67.2,1.0,11,3,32.31474304199219,7.915608882904053,1374,12400,100856,1195588,"[ 4  1  2  2  2  1  2  1  3  5  1  1  4  1  3  5  0  2  1  5  6  3  0  6
  1  7  0  0  0  0  3  5  5  3 13  5  4 12 13  3  6  6  5  4  8  2  2  0
  4  2 11  1 16 14  3 10 11  2  0  3  3  0 16  5 23 14  3 17 19  0 22  0
  5  0 17 22 26 25 17]"
3200,67.2,1.0,11,3,33.132922410964966,8.181755542755127,1426,12800,103291,1221979,"[ 4  2  2  2  2  1  2  1  3  3  2  1  5  3  0  5  7  2  1  5  6  3  0  6
  3  7  0  1  4  0  3  5  5  5 13  5  1 13  4  3  6  6  1  4  9  2  2  0
  2  2 15  0  2 14  3 10 11  2  0  3  3 23 16  5 23 14  3 17 19  0 22 15
  5  0  3 22 26 25 17]"
3300,67.2,1.0,11,3,33.8438196182251,7.108919620513916,1487,13200,105518,1246375,"[ 3  2  2  2  2  1  2  1  3  5  2  3  4  0  0  4  7  1  1  5  6  2  1  0
  2  7  0  5  4  0  2  5  5  1 13 10  1 13  6  3  6  6  1  5  3  2  2  0
  4  0 15  4  1  1  3 10 11  2  0  3  2  0  0  5 23 14  3 17 19  4 18  2
  5 21 21 22 26 25 17]"
3400,67.2,1.0,11,3,34.6336932182312,7.898681163787842,1538,13600,107956,1272877,"[ 3  3  2  2  2  1  2  1  3  2  3  3  4  0  0  4  1  3  1  5  6  4  2  0
  1  3  1  5  0  0  3  5  5  2 13 10  1  2  3  3  6  6  1 13  3  2  2  0
  2 13 15  3 15 18  3 10 11  2  0  3  4 14 16  5 23 14  3 17 19  2 20 18
  5 21 17 22 26 25 17]"
3500,67.2,1.0,11,3,35.482736349105835,8.49039077758789,1586,14000,110317,1298559,"[ 3  3  1  2  2  1  2  1  3  2  0  1  1  0  1  4  8  7  1  5  6  2  0  1
  1  3  1  5  8  4  2  5  5  2  0 11  3  1  8  3  6  6  0  2  5  2  2  0
  3 17  3  3  9 16  3 10 11  2  0  3  5 16 16  5 23 14  3 17 19  2 20 18
  2 21 16 22 26 25 17]"
3600,67.2,1.0,11,3,36.30324459075928,8.205044269561768,1636,14400,112710,1324749,"[ 3  3  1  2  2  1  2  1  3  2  0  3  4  3  1  5  3  3  1  5  6  2  0  0
  5  6  1  1  8  8  3  5  5  4  1  2  1  2  6  3  6  6  1  8  9  2  2  0
  4  0  3  0 14 10  3 10 11  2  0  3  3 16 21  5 23 14  3 17 19  2 20  0
  0  3 20 22 26 25 17]"
3700,67.2,1.0,11,3,37.15053367614746,8.472845554351807,1678,14800,115183,1351540,"[ 1  1  3  2  2  1  2  1  3  0  2  3  4  1  0  5  5  3  1  5  6  2  0  0
  2  4  6  1  7  6  2  5  5  3  1  5  5 12 10  3  6  6  1  5  7  2  2  0
  4  0  3  0  1  1  3 10 11  2  0  3  3 16  2  5 23 14  3 17 19  1 20  0
  4  3 22 22 26 25 17]"
3800,67.2,1.0,11,3,37.94909977912903,7.985613346099853,1723,15200,117775,1379776,"[ 5  1  1  2  2  1  2  1  3  2  2  0  2  0  1  3  7  8  1  5  6  2  0  3
  1  1  1  1  8  7  2  5  5  0  1 12  5  1 10  3  6  6  3  7  7  2  2  0
  5 14  0  0 15 16  3 10 11  2  0  3  1 16 23  5 23 14  3 17 19  5 21 15
  4  1 19 22 26 25 17]"
3900,67.2,1.0,11,3,38.6580023765564,7.088973522186279,1782,15600,120163,1405822,"[ 5  0  1  2  2  1  2  1  3  4  2  1  3  1  3  3  5  8  1  5  6  3  0  5
  2  1  5  4  6  6  3  5  5  0  2 12  5 13 10  3  6  6  5  5  7  2  2  0
  5 12  0  2 17 16  3 10 11  2  0  3  1 22 21  5 23 14  3 17 19  2  1 16
  0  1 20 22 26 25 17]"
4000,67.2,1.0,11,3,39.30370783805847,6.457014083862305,1838,16000,122245,1428513,"[ 5  2  1  2  2  1  2  1  3  5  3  1  5  1  0  3  5  8  1  5  6  5  0  6
  2  1  5  4  5  6  2  5  5  0  2 10  5  9  7  3  6  6  5 12  7  2  2  0
  4 11  0  1 14 17  3 10 11  2  0  3  2 16 21  5 23 14  3 17 19  2 17 14
  0  3  0 22 26 25 17]"
4100,67.2,1.0,11,3,39.91240048408508,6.086888313293457,1901,16400,124245,1450358,"[ 5  2  0  2  2  1  2  1  3  2  2  2  1  1  0  3  4  1  1  5  6  3  0  5
  0  7  6  0  1  7  2  5  5  0  6  4  4  9 10  3  6  6  5 12  6  2  2  0
  2 13  0  3 11 17  3 10 11  2  0  3  2 16 19  5 23 14  3 17 19  5 15 14
  0  1 23 22 26 25 17]"
4200,67.2,1.0,11,3,40.606061935424805,6.936578750610352,1958,16800,126486,1474660,"[ 1  2  0  2  2  1  2  1  3  4  3  2  1  0  1  3  2  6  1  5  6  3  6  0
  0  4  0  0  5  5  2  5  5  0  8 11  1  4  9  2  6  6  0  1 12  2  2  0
  2 13 12  5  2 17  3 10 11  2  0  3  4 16  1  5 23 14  3 17 19  3 16 14
  5  1 15 22 26 25 17]"
4300,67.2,1.0,11,3,41.24188017845154,6.358132362365723,2011,17200,128710,1498823,"[ 1  1  3  2  2  1  2  1  3  4  1  2  0  0  1  4  4  6  1  5  6  3  5  0
  0  4  2  0  4  5  2  5  5  0  8 11  3  9  9  2  6  6  3 10  5  2  2  0
  4 12 17  0 15 12  3 10 11  2  0  3  5 16 22  5 23 14  3 17 19  4 16  2
  4  2  2 22 26 25 17]"
4400,67.2,1.0,11,3,41.93638730049133,6.945016384124756,2071,17600,130760,1521157,"[ 2  0  3  2  2  1  2  1  3  5  1  2  0  0  1  3  1  6  1  5  6  5  5  0
  0  4  8  4  4  3  2  5  5  0  1 10  3 13  1  2  6  6  3 10  5  2  2  0
  0 10 17  1 15  1  3 10 11  2  0  3  3  3  2  5 23 14  3 17 19  4 16 15
  4  2  1 22 26 25 17]"
4500,67.2,1.0,11,3,42.66761875152588,7.312252521514893,2137,18000,132774,1543023,"[ 5  0  1  2  2  1  2  1  3  5  0  2  0  1  0  3  1  0  1  5  6  5  5  0
  0  3  8  1  5  4  2  5  5  4 12  9  3 12 13  3  6  6  3 11  2  2  2  0
  0 12  9  5 10 13  3 10 11  2  0  3  1 14  2  5 23 14  3 17 19  2 23 22
  4 23 23 22 26 25 17]"
4600,67.2,1.0,11,3,43.36639618873596,6.98772668838501,2193,18400,135130,1568810,"[ 0  0  2  2  2  1  2  1  3  0  0  2  0  1  2  3  2  6  1  5  6  3  0  0
  0  3  4  1  5  4  2  5  5  0  7  6  3 12 10  3  6  6  2 11  9  2  2  0
  3 12 15  0 13  2  3 10 11  2  0  3  2  1  2  5 23 14  3 17 19  4 23  0
  4 14 23 22 26 25 17]"
4700,67.2,1.0,11,3,44.05720090866089,6.908011436462402,2252,18800,137533,1595017,"[ 0  0  3  2  2  1  2  1  3  4  2  2  5  2  1  3  8  3  1  5  6  3  0  5
  3  3  2  3  5  4  3  5  5  0 10  5  3 13 10  3  6  6  2  7  9  2  2  0
  3 12 10  2 13 10  3 10 11  2  0  3  1 22  2  5 23 14  3 17 19  1 19  0
  3 17 22 22 26 25 17]"
4800,67.2,1.0,11,3,44.84469199180603,7.874858379364015,2299,19200,139900,1620839,"[ 4  1  3  2  2  1  2  1  3  1  0  0  2  0  3  3  8  0  1  5  6  5  5  0
  5  5  7  3  0  3  2  5  5  4 11  2  5 13 12  3  6  6  2  7  1  2  2  0
  1 10 10  4 10 10  3 10 11  2  0  3  3 22  1  5 23 14  3 17 19  2 18 19
  5 14 22 22 26 25 17]"
4900,67.2,1.0,11,3,45.5894980430603,7.44802713394165,2359,19600,142019,1643904,"[ 4  1  1  2  2  1  2  1  3  5  2  0  2  2  2  3  8  1  1  5  6  3  5  0
  4  0  7  3  0  5  2  5  5  4 11  4  0 13 12  2  6  6  4  1  1  2  2  0
  4  3 10  4 17 10  3 10 13  2  0  3  2 20  1  5 23 14  3 17 19  2  2 19
  5 21 22 22 26 25 17]"
5000,67.2,1.0,11,3,46.25574994087219,6.662454605102539,2415,20000,144274,1668448,"[ 4  2  1  2  2  1  2  1  3  3  1  0  1  1  2  2  1  1  1  5  6  0  2  0
  1  2  7  5  0  5  3  5  5  0 11  9  3  0 12  3  6  6  2 10  1  2  2  0
  4  3 17  0 14  2  3 10 13  2  0  3  5 20 20  5 23 14  3 17 19  3  1  0
  4 15 19 22 26 25 17]"
5100,67.2,1.0,11,3,46.94170355796814,6.859495639801025,2475,20400,146447,1691983,"[ 4  2  3  2  2  1  2  1  3  3  0  1  1  1  1  4  1  1  1  5  6  4  6  6
  2  2  7  5  0  6  3  5  5  0  5 10  3 10  0  3  6  6  2  2  7  2  2  0
  0  3 11  0  3  3  3 10 13  2  0  3  2 19 20  5 23 14  3 17 19  3 21 22
  5 15 22 22 26 25 17]"
5200,67.2,1.0,11,3,47.67198348045349,7.302761077880859,2532,20800,148879,1718428,"[ 2  2  0  2  2  1  2  1  3  3  1  1  2  1  0  2  6  2  1  5  6  2  6  1
  1  2  7  2  0  3  2  5  5  5  9 10  2  5  0  3  6  6  0 12  7  2  2  0
  2  3 17  4  3  3  3 10 13  2  0  3  4  3 19  5 23 14  3 17 19  3  3 22
  5 23 15 22 26 25 17]"
5300,67.2,1.0,11,3,48.383809089660645,7.118220329284668,2579,21200,151181,1743487,"[ 3  2  3  2  2  1  2  1  3  1  1  1  1  2  3  0  6  2  5  3  5  2  4  6
  1  2  7  2  0  3  3  5  5  4  6  6  0 12  2  2  6  6  1  0 10  2  2  0
  5 17 17  4  3  0  3 10 13  2  0  3  0  3 14  5 23 14  3 17 19  3  2 18
  5 19 22 22 26 25 17]"
5400,67.2,1.0,11,3,49.05747127532959,6.736578941345215,2629,21600,153463,1768282,"[ 0  2  3  2  2  1  2  1  3  2  3  0  4  3  3  0  5  3  5  0  5  4  8  7
  1  2  1  2  0  3  2  5  5  4  4  1  0 11  3  2  6  6  3 13 10  2  2  0
  4  1 16  5 13 11  3 10 13  2  0  3  2 14  2  5 23 14  3 17 19  1  2 23
  0 19 22 22 26 25 17]"
5500,67.2,1.0,11,3,49.7794291973114,7.219521999359131,2683,22000,155761,1793323,"[ 3  2  3  2  2  1  2  1  3  4  3  0  4  0  1  5  5  3  4  4  5  4  5  5
  2  2  2  2  0  3  2  5  5  4  4 10  2 11  5  3  6  6  0  8 12  2  2  0
  0 14 16  5  0 11  3  9 13  2  0  3  3 14 14  5 23 14  3 17 19  1 21 23
  2 19 21 22 26 25 17]"
5600,67.2,1.0,11,3,50.61071252822876,8.312790393829346,2735,22400,158099,1818816,"[ 2  1  3  2  2  1  2  1  3  1  3  3  1  0  1  0  5  5  1  6  1  4  2  5
  3  3  2  2  0  3  3  5  5  1  4 13  0  0 11  3  6  6  3  2  0  2  2  0
  3  9 16  4 15 18  3  9 13  2  0  3  2  2 17  5 23 14  3 17 19  1 21 23
  3  3 21 22 26 25 17]"
5700,67.2,1.0,11,3,51.2969765663147,6.862602233886719,2794,22800,160354,1843409,"[ 2  2  3  2  2  1  2  1  3  3  0  3  3  2  1  5  5  3  1  6  6  5  2  6
  4  3  2  2  0  3  3  5  5  5 11  7  2  9 11  2  6  6  4  9  1  2  2  0
  0 12  1  2  1 18  3  9 13  2  0  3  4 14  1  5 23 14  3 17 19  0 21 23
  0  3 21 22 26 25 17]"
5800,67.2,1.0,11,3,52.00842595100403,7.114460468292236,2855,23200,162446,1866318,"[ 5  0  3  2  2  1  2  1  3  3  0  3  4  1  1  0  5  3  1  6  6  1  3  4
  4  3  1  2  0  3  2  5  5  5  5  7  2  4  2  3  6  6  4 10  1  2  2  0
  0 18  1  2  1  0  3  9 13  2  0  3  4 14 20  5 23 14  3 17 19  0 21 18
  0 22 21 22 26 25 17]"
5900,67.2,1.0,11,3,52.85292339324951,8.444929122924805,2904,23600,164955,1893639,"[ 1  1  0  2  2  1  2  1  3  5  2  0  0  1  3  1  5  5  0  3  6  1  2  1
  4  5  5  2  0  3  2  5  5  5  5 11  5  8 12  2  6  6  1 11 12  2  2  0
  2  1 11  0  1  9  3  9 13  2  0  3  0  1 20  5 23 14  3 17 19  3  1  3
  5 17 18 22 26 25 17]"
6000,67.2,1.0,11,3,53.57465434074402,7.217264175415039,2954,24000,167397,1920199,"[ 0  3  1  2  2  1  2  1  3  5  3  2  1  3  3  1  6  5  4  1  5  5  8  6
  5  7  5  2  0  2  2  5  5  1  2  3  4  8 12  2  6  6  4  0 12  2  2  0
  4  1 17  3 18  0  3  9 13  2  0  3  0 19 22  5 23 14  3 17 19  1 23  2
  4  3 23 22 26 25 17]"
6100,67.2,1.0,11,3,54.32330894470215,7.4865007400512695,3010,24400,169685,1945121,"[ 0  3  0  2  2  1  2  1  3  2  3  2  1  3  2  1  6  5  2  3  3  5  1  6
  5  6  0  3  0  5  3  5  5  4  2  3  4  8  6  2  6  6  4  0  0  2  2  0
  4  1 15  0 16 11  3  9 13  2  0  3  0 19  2  5 23 14  3 17 19  5 23 21
  1 20  1 22 26 25 17]"
6200,67.2,1.0,11,3,55.133267402648926,8.099548816680908,3066,24800,171920,1969458,"[ 0  1  1  2  2  1  2  1  3  5  3  0  2  0  3  1  6  5  2  7  3  5  1  6
  5  5  0  3  0  5  2  5  5  0  2 12  4  8  8  3  6  6  0 10  0  2  2  0
  5  1  9  5 13 16  3  9 12  2  0  3  0 16 14  5 23 14  3 17 19  5 14 21
  2 20  1 22 26 25 17]"
6300,67.2,1.0,11,3,55.86728072166443,7.340092658996582,3119,25200,174184,1994231,"[ 0  1  1  2  2  1  2  1  3  3  3  2  0  2  1  1  6  5  2  8  2  5  4  2
  3  0  5  5  0  1  2  5  5  5 13  8  5  8  8  2  6  6  4 10  7  2  2  0
  5 12  9  2 13 14  3  9 12  2  0  3  5 20 14  5 23 14  3 17 19  5 15  1
  2 20 19 22 26 25 17]"
6400,67.2,1.0,11,3,56.621476888656616,7.541921138763428,3168,25600,176341,2017712,"[ 0  2  3  2  2  1  2  1  3  2  3  3  3  0  1  1  6  5  4  4  5  1  4  0
  5  0  5  4  0  1  2  5  5  5 13  0  4 13  8  2  6  6  2  4  7  2  2  0
  5 13 17  4 14 16  3  9 12  2  0  3  1 17 14  5 23 14  3 17 19  0  1 15
  2  2 16 22 26 25 17]"
6500,67.2,1.0,11,3,57.44225287437439,8.207700252532959,3214,26000,178624,2042625,"[ 0  2  1  2  2  1  2  1  3  5  1  2  3  0  3  1  6  5  0  4  5  4  1  0
  5  0  6  4  7  3  2  5  5  3 11  8  4  1  1  2  6  6  2  4  7  2  2  0
  1 15 11  3  3 16  3  9 12  2  0  3  5 15 14  5 23 14  3 17 19  0 20 15
  5 20 16 22 26 25 17]"
6600,67.2,1.0,11,3,58.24253726005554,8.00278902053833,3277,26400,180748,2065927,"[ 1  2  0  2  2  1  2  1  3  5  1  1  4  0  2  1  6  5  2  4  5  4  6  1
  3  0  6  2  6  6  2  5  5  3 13 10  4  5  1  3  6  6  4  4  2  2  2  0
  2 15 11  4  3 13  3  9 12  2  0  3  5 23 16  5 23 14  3 17 19  0 19  3
  4 17 20 22 26 25 17]"
6700,67.2,1.0,11,3,59.01081442832947,7.6827168464660645,3339,26800,182949,2089855,"[ 0  3  0  2  2  1  2  1  3  4  2  3  4  0  2  1  6  5  2  0  6  4  5  1
  4  0  3  2  7  6  3  5  5  3  2 10  5  9  1  2  6  6  4  4  2  2  2  0
  4 16  0  1  3 14  3  9 12  2  0  3  3 23 15  5 23 14  3 17 19  0 20  1
  0  3 14 22 26 25 17]"
6800,67.2,1.0,11,3,59.648465394973755,6.376445293426514,3395,27200,185063,2112937,"[ 3  3  2  2  2  1  2  1  3  4  1  3  4  0  3  1  6  5  5  0  8  4  5  6
  4  0  2  2  7  3  2  5  5  5  2 10  4  5  1  2  6  6  1  8  5  2  2  0
  0  2 11  2  3 14  3  9 12  2  0  3  3 23 18  5 23 14  3 17 19  4 22  1
  1 23 19 22 26 25 17]"
6900,67.2,1.0,11,3,60.415010929107666,7.665376663208008,3445,27600,187546,2139869,"[ 3  0  2  2  2  1  2  1  3  3  1  1  1  0  2  1  6  5  0  2  2  2  2  0
  4  1  5  2  7  8  2  5  5  1 13 11  2  5  4  3  6  6  1  6 10  2  2  0
  3  2 12  4  3 18  3  9 11  2  0  3  2 17 21  5 23 14  3 17 19  3 18  2
  5 14  3 22 26 25 17]"
7000,67.2,1.0,11,3,61.1949737071991,7.799582481384277,3494,28000,190086,2167671,"[ 3  1  2  2  2  1  2  1  3  3  1  1  4  0  2  1  5  6  0  2  0  2  2  0
  0  1  5  4  1  6  3  5  5  1  8 13  2 12  4  2  6  6  1  6 10  2  2  0
  2 13 12  1 13 11  3  9 11  2  0  3  1 22 16  5 23 14  3 17 19  3 15 19
  1  1 16 22 26 25 17]"
7100,67.2,1.0,11,3,61.928741693496704,7.337646484375,3544,28400,192532,2194291,"[ 1  2  1  2  2  1  2  1  3  3  0  1  4  3  2  0  3  5  0  2  3  2  3  0
  2  8  5  4  4  1  2  5  5  0  9 13  4 11  4  2  6  6  5  5  1  2  2  0
  2 13 12  3 11 18  3  9 11  2  0  3  1 22 16  5 23 14  3 17 19  0 19 22
  2  1 16 22 26 25 17]"
7200,67.2,1.0,11,3,62.61919450759888,6.904497146606445,3601,28800,194773,2218678,"[ 1  2  3  2  2  1  2  1  3  3  0  0  4  1  2  0  3  5  1  8  3  2  3  0
  2  5  5  4  3  4  2  5  5  0 10  6  4  0  7  3  6  6  5  4  1  2  2  0
  2 13  1  3  1 18  3  9 11  2  0  3  4 18 16  5 23 14  3 17 19  0 19 19
  2  1 16 22 26 25 17]"
7300,67.2,1.0,11,3,63.271090507507324,6.518919467926025,3658,29200,197097,2244052,"[ 0  2  2  2  2  1  2  1  3  2  0  2  3  1  1  0  5  5  4  8  8  2  3  0
  4  4  6  1  1  7  2  5  5  0 10  1  2 12 12  3  6  6  5  4 12  2  2  0
  1  2  0  1 14 15  3  9 11  2  0  3  2 15  1  5 23 14  3 17 19  3  2 16
  3 20  1 22 26 25 17]"
7400,67.2,1.0,11,3,63.944753885269165,6.736600399017334,3714,29600,199278,2267787,"[ 5  2  2  2  2  1  2  1  3  2  0  0  1  0  0  5  0  5  3  6  3  2  3  0
  4  4  5  1  4  2  2  5  5  4  5 13  2  3 11  3  6  6  1  2  8  2  2  0
  3  2  3  1  9 17  3  9 11  2  0  3  1 20 19  5 23 14  3 17 19  0  1 14
  1 15  1 22 26 25 17]"
7500,67.2,1.0,11,3,64.5741617679596,6.294009685516357,3771,30000,201485,2291888,"[ 1  3  3  2  2  1  2  1  3  2  1  1  5  1  0  0  0  5  3  7  3  2  3  0
  1  3  5  1  4  2  2  5  5  3 10  5  4  3  3  2  6  6  1  2  8  2  2  0
  3  1 12  2  0 14  3  9 11  2  0  3  3  1 19  5 23 14  3 17 19  2 22 14
  3 15  1 22 26 25 17]"
7600,67.2,1.0,11,3,65.31585645675659,7.4169111251831055,3818,30400,203815,2317147,"[ 0  1  2  2  2  1  2  1  3  0  1  0  5  2  3  5  0  5  2  3  4  2  3  0
  4  3  5  0  1  1  2  5  5  5 10  3  5  0  3  2  6  6  0 13  8  2  2  0
  3 15 14  3 15  3  3  9 11  2  0  3  0 14 21  5 23 14  3 17 19  0  3 14
  5 15 22 22 26 25 17]"
7700,67.2,1.0,11,3,66.08519220352173,7.693324089050293,3866,30800,206061,2341657,"[ 3  0  3  2  2  1  2  1  3  0  1  0  2  2  3  0  5  0  2  4  5  2  3  0
  2  4  3  3  0  5  2  5  5  5  4  3  1  0  3  3  6  6  0  9  4  2  2  0
  3  3 15  1 15 18  3  9 11  2  0  3  0 22  1  5 23 14  3 17 19  0 14  2
  0 20 17 22 26 25 17]"
7800,67.2,1.0,11,3,66.66644430160522,5.812482833862305,3918,31200,208265,2365702,"[ 3  1  3  2  2  1  2  1  3  0  2  0  2  2  3  5  5  3  3  2  3  2  3  0
  0  4  2  0  4  5  3  5  5  5 12  1  4 11  3  3  6  6  2 12  4  2  2  0
  3  9 11  1 17 18  3  9 11  2  0  3  2 22 19  5 23 14  3 17 19  0 18  3
  0  2 21 22 26 25 17]"
7900,67.2,1.0,11,3,67.54975008964539,8.832995891571045,3978,31600,210594,2391224,"[ 0  2  1  2  2  1  2  1  3  5  2  0  5  1  3  5  5  3  3  6  7  2  3  0
  0  6  2  0  4  6  3  5  5  2  0  6  2 11  4  3  6  6  3 12  4  2  2  0
  5 15 11  1 17 18  3  9 11  2  0  3  3 22 15  5 23 14  3 17 19  0 22  3
  0 17 16 22 26 25 17]"
8000,67.2,1.0,11,3,68.33243942260742,7.826840877532959,4031,32000,212804,2415355,"[ 0  0  2  2  2  1  2  1  3  4  0  2  5  0  1  0  0  5  0  8  1  2  3  0
  4  6  2  1  4  6  3  5  5  3  3 10  2  6  0  3  6  6  4  0  4  2  2  0
  2 10 13  3 16 13  3  9 11  2  0  3  3 22 14  5 23 14  3 17 19  0 22 22
  1 15  0 22 26 25 17]"
8100,67.2,1.0,11,3,68.92994928359985,5.97506046295166,4089,32400,215062,2439878,"[ 1  2  2  2  2  1  2  1  3  3  0  3  5  3  2  0  0  5  4  7  1  2  3  0
  4  1  3  0  4  4  3  5  5  2  2 10  5  6  8  2  6  6  2  7 12  2  2  0
  5 10 12  3 14 12  3  9 11  2  0  3  1 22  2  5 23 14  3 17 19  3 22  1
  1 22  0 22 26 25 17]"
8200,67.2,1.0,11,3,69.44651532173157,5.165624618530273,4147,32800,217043,2461456,"[ 1  2  3  2  2  1  2  1  3  4  0  3  5  3  2  5  3  5  3  7  3  2  3  0
  5  1  7  1  3  4  2  5  5  2  7 10  5  0 13  3  6  6  2  3  1  2  2  0
  5  1 15  3 14 12  3  9 11  2  0  3  1 22  2  5 23 14  3 17 19  3 22 21
  1  1  0 22 26 25 17]"
8300,67.2,1.0,11,3,70.03540229797363,5.888833999633789,4195,33200,219183,2484778,"[ 5  0  1  2  2  1  2  1  3  3  3  1  1  0  2  5  3  5  0  5  2  2  3  0
  5  1  7  0  1  4  2  5  5  1 10 10  2  0 13  3  6  6  2  8  1  2  2  0
  0  1  3  2  3  0  3  9 11  2  0  3  3 22  2  5 21 14  3 17 19  5 17 14
  2  1 17 22 26 25 17]"
8400,67.2,1.0,11,3,70.61839723587036,5.829908847808838,4251,33600,221401,2508896,"[ 2  2  3  2  2  1  2  1  3  3  0  3  0  0  0  5  3  5  4  5  7  2  3  0
  1  5  1  4  6  0  2  5  5  4  0 13  2  1  4  3  6  6  4  4  7  2  2  0
  0 11  3  2  3  0  3  9 11  3 14 15  5 22  2  5 21 14  3 17 19  4 19 19
  3  1  3 22 26 25 17]"
8500,67.2,1.0,11,3,71.3216118812561,7.032098770141602,4301,34000,223625,2533171,"[ 4  0  3  2  2  1  2  1  3  4  1  1  4  0  2  0  3  5  0  1  5  2  3  0
  1  8  5  4  6  0  3  5  5  4  0 12  2 10 12  3  6  6  4  6 13  2  2  0
  4  1  3  2  3  0  3  9 11  0 16  3  5 22 17  5 21 14  3 17 19  1 18 19
  2 19  3 22 26 25 17]"
8600,67.2,1.0,11,3,71.96028447151184,6.38667106628418,4357,34400,225883,2557890,"[ 2  3  2  2  2  1  2  1  3  4  2  0  2  0  2  5  0  5  5  7  3  2  3  0
  1  6  7  2  1  0  3  5  5  4  3  3  4 10  9  3  6  6  3  9  3  2  2  0
  4  1 14  2  3  0  3  9 11  1  9 12  5 16 21  5 21 14  3 17 19  1  3 16
  2 16 19 22 26 25 17]"
8700,67.2,1.0,11,3,72.58850312232971,6.282153129577637,4413,34800,228127,2582491,"[ 3  3  2  2  2  1  2  1  3  2  3  2  2  0  0  5  0  5  2  1  1  2  3  0
  1  1  8  5  1  0  3  5  5  3  3  4  4 10  2  3  6  6  5  9  2  2  2  0
  3 15  2  2  3  0  3  9 11  4  9 12  0 23 21  5 21 14  3 17 19  4  3 16
  2 14 19 22 26 25 17]"
8800,67.2,1.0,11,3,73.10580658912659,5.172994136810303,4474,35200,230174,2604594,"[ 4  3  1  2  2  1  2  1  3  4  1  2  2  0  3  5  0  5  2  1  1  2  3  0
  0  2  5  4  1  0  2  5  5  4  3  9  5 10  2  3  6  6  5  2  6  2  2  0
  3 18  2  2  3  0  3  9 11  4 14 12  0  2 21  5 21 14  3 17 19  0  3 16
  1 14 19 22 26 25 17]"
8900,67.2,1.0,11,3,73.70180678367615,5.959954261779785,4534,35600,232333,2628119,"[ 4  3  0  2  2  1  2  1  3  4  0  2  2  3  3  5  5  3  1  1  6  2  3  0
  4  8  7  1  1  0  2  5  5  4  3 11  3  6 13  3  6  6  5  2 13  2  2  0
  1 18  3  2  3  0  3  9 11  4 16  1  2  3  0  5 21 14  3 17 19  0 14 21
  0 22 19 22 26 25 17]"
9000,67.2,1.0,11,3,74.3486716747284,6.468613147735596,4596,36000,234489,2651573,"[ 5  1  3  2  2  1  2  1  3  0  0  3  5  0  3  5  5  0  5  4  8  2  3  0
  4  8  5  3  4  0  2  5  5  1  9  1  2 10  1  3  6  6  2  5  5  2  2  0
  3  2 16  2  3  0  3  9 11  3 16 14  5  3 15  5 21 14  3 17 19  0 14 21
  2 16 21 22 26 25 17]"
9100,67.2,1.0,11,3,74.96634006500244,6.176648139953613,4654,36400,236588,2674378,"[ 5  1  3  2  2  1  2  1  3  0  0  0  5  0  3  0  5  3  5  4  8  2  3  0
  4  5  2  2  4  2  2  5  5  0  9  1  4 10  4  3  6  6  3  7  5  2  2  0
  3  2 10  2  3  0  3  9 11  4 16 14  5 15  1  5 21 14  3 17 19  5  0 21
  2 18 15 22 26 25 17]"
9200,67.2,1.0,11,3,75.57190346717834,6.055586338043213,4708,36800,238760,2698056,"[ 3  0  3  2  2  1  2  1  3  1  3  0  5  0  3  0  5  3  4  0  5  2  3  0
  4  2  8  3  4  6  3  5  5  2  4 10  4 12  1  3  6  6  1 12  5  2  2  0
  5 15 10  2  3  0  3  9 11  4 16 14  5 15  1  5 21 14  3 17 19  5 21 17
  0 15 22 22 26 25 17]"
9300,67.2,1.0,11,3,76.16278529167175,5.908782482147217,4762,37200,240955,2721992,"[ 0  2  3  2  2  1  2  1  3  5  3  1  1  3  0  0  5  5  5  7  8  2  3  0
  5  8  8  5  0  6  3  5  5  5 13 12  1  8  0  2  6  6  5  2  0  2  2  0
  0 18 12  2  3  0  3  9 11  4 14  9  5  2 19  5 21 14  3 17 19  5 19 18
  1 15 22 22 26 25 17]"
9400,67.2,1.0,11,3,76.76745939254761,6.046702861785889,4814,37600,243169,2746117,"[ 1  0  0  2  2  1  2  1  3  0  3  1  0  3  1  5  5  0  5  7  8  2  3  0
  4  8  1  5  0  6  3  5  5  1  9  1  1  8  3  2  6  6  0  1  1  2  2  0
  0 16 14  2  3  0  3  9 11  3 14 15  5 20 19  5 21 14  3 17 19  1 15 19
  2 15 22 22 26 25 17]"
9500,67.2,1.0,11,3,77.45209789276123,6.846349239349365,4860,38000,245539,2771991,"[ 1  2  2  2  2  1  2  1  3  2  1  1  1  3  2  1  5  5  2  1  0  2  3  0
  1  3  0  3  3  7  3  5  5  3  6 10  5  7  1  2  6  6  1  5  7  2  2  0
  2 16 16  2  3  0  3  9 11  3 13 10  4 21 19  5 21 14  3 17 19  1 15 19
  2 15  1 22 26 25 17]"
9600,67.2,1.0,11,3,78.09172987937927,6.396279335021973,4911,38400,248048,2799242,"[ 4  2  0  2  2  1  2  1  3  1  0  2  3  1  3  1  5  6  2  0  3  4  8  1
  1  3  5  3  7  6  2  5  5  3  3 10  1 11 11  2  6  6  1  5  0  2  2  0
  2 15 13  2  3  0  3  9 10  5 12  0  4 16 19  5 21 14  3 17 19  1 17 19
  2 17  1 22 26 25 17]"
9700,67.2,1.0,11,3,78.70406174659729,6.12313985824585,4964,38800,250344,2824330,"[ 3  2  1  2  2  1  2  1  3  5  2  2  2  1  1  1  5  6  5  0  5  1  8  7
  1  3  3  3  2  0  2  5  5  1  3  3  3  4  6  2  6  6  0  7  8  2  2  0
  4 13 11  2  3  0  3  9 10  3 16 10  0 15  0  5 21 14  3 17 19  1 19 19
  1  2 18 22 26 25 17]"
9800,67.2,1.0,11,3,79.27007055282593,5.660037994384766,5016,39200,252540,2848250,"[ 3  2  2  2  2  1  2  1  3  4  2  0  2  1  0  1  5  6  5  0  6  2  6  5
  2  4  3  3  6  6  3  5  5  3  4  3  5  4  6  2  6  6  0  8  8  2  2  0
  4  9 11  2  3  0  3  9 10  2  1 14  5 20 23  5 21 14  3 17 19  2 19  2
  1  2 15 22 26 25 17]"
9900,67.2,1.0,11,3,79.86868524551392,5.986111164093018,5077,39600,254637,2871105,"[ 0  2  3  2  2  1  2  1  3  4  2  3  2  1  0  1  5  6  3  0  5  0  5  5
  0  4  7  3  4  8  2  5  5  5  5  7  1  1  5  2  6  6  5 13 10  2  2  0
  4 12 16  2  3  0  3  9 10  4  1  2  5 20 21  5 21 14  3 17 19  5 19  2
  1 18 14 22 26 25 17]"
10000,67.2,1.0,11,3,80.45151424407959,5.828254222869873,5128,40000,256843,2895127,"[ 0  3  1  2  2  1  2  1  3  1  3  0  1  3  0  1  5  6  3  5  0  1  8  5
  1  5  3  4  4  8  3  5  5  5  5  6  4  1  5  2  6  6  1 13  7  2  2  0
  2 11  9  2  3  0  3  9 10  2  1  2  0 18 15  5 21 14  3 17 19  5 22  2
  5 18 14 22 26 25 17]"
10100,67.2,1.0,11,3,81.11758804321289,6.66067361831665,5182,40400,259041,2919236,"[ 5  2  1  2  2  1  2  1  3  4  3  3  1  0  1  1  5  6  3  5  0  3  8  4
  4  5  3  4  2  3  2  5  5  4  7  4  2  8  5  3  6  6  0  4  7  2  2  0
  3 11  9  2  3  0  3  9 10  2  1  2  0 18 14  5 21 14  3 17 19  3 21  2
  3 23 22 22 26 25 17]"
10200,67.2,1.0,11,3,81.77529072761536,6.576974391937256,5243,40800,261198,2942644,"[ 4  2  0  2  2  1  2  1  3  4  3  1  1  2  0  1  5  6  3  0  6  5  8  7
  4  4  7  0  3  3  3  5  5  0 11  5  1  7  8  3  6  6  3  8  9  2  2  0
  3  1 11  2  3  0  3  9 10  2  1 11  1 18  0  5 21 14  3 17 19  4 18  2
  5 14 20 22 26 25 17]"
10300,67.2,1.0,11,3,82.55542063713074,7.801263332366943,5294,41200,263789,2970919,"[ 1  3  3  2  2  1  2  1  3  4  3  3  2  2  2  1  5  6  2  1  0  3  8  7
  2  5  8  2  3  3  3  5  5  0  7 13  1  9 12  3  6  6  3 13 13  2  2  0
  3 18 17  2  3  0  3  9 10  1 18 11  3 20  0  5 21 14  3 17 19  3 18  2
  0 23 20 22 26 25 17]"
10400,67.2,1.0,11,3,83.24337935447693,6.879527568817139,5347,41600,266358,2998802,"[ 1  3  2  2  2  1  2  1  3  4  1  3  1  0  3  1  5  6  4  1  0  3  7  5
  5  5  3  0  3  8  2  5  5  4  8 13  1  1  2  2  6  6  2  5  3  2  2  0
  3 12  2  2  3  0  3  9 10  1 16 15  3 20 17  5 21 14  3 17 19  4 18 20
  3 19 21 22 26 25 17]"
10500,67.2,1.0,11,3,83.95461821556091,7.112326622009277,5398,42000,268873,3026050,"[ 2  3  3  2  2  1  2  1  3  3  1  3  3  0  3  0  6  6  2  2  0  2  7  0
  2  5  3  4  8  8  3  5  5  4 11 13  1 12  5  2  6  6  5 11  3  2  2  0
  5  0 11  2  3  0  3  9 10  1  2 14  3  2 22  5 21 14  3 17 19  2 18 19
  3 22 16 22 26 25 17]"
10600,67.2,1.0,11,3,84.59429407119751,6.3967156410217285,5462,42400,271033,3049549,"[ 1  3  3  2  2  1  2  1  3  2  3  3  3  3  3  0  6  0  2  2  0  5  7  0
  2  5  3  1  6  5  2  5  5  5 12 13  1 12  1  2  6  6  1 11  3  2  2  0
  5  0 16  2  3  0  3 13 10  2 11 14  3  2 22  5 21 14  3 17 19  2 16 19
  3 21 16 22 26 25 17]"
10700,67.2,1.0,11,3,85.32183623313904,7.275381088256836,5514,42800,273397,3075349,"[ 1  0  3  2  2  1  2  1  3  5  3  0  3  3  2  4  2  3  2  2  0  5  1  4
  3  0  3  1  6  5  2  5  5  5  6 13  1 12  4  2  6  6  5 11 10  2  2  0
  1 11 13  2  3  0  3 13 10  4 11  0  3  2 22  5 21 14  3 17 19  3 16 17
  3 21 15 22 26 25 17]"
10800,67.2,1.0,11,3,85.93648314476013,6.14642858505249,5570,43200,275638,3099799,"[ 1  3  3  2  2  1  2  1  3  5  3  3  3  1  1  0  2  7  2  2  0  0  4  4
  5  5  8  1  6  5  3  5  5  4  6 13  1 12  8  2  6  6  2 11  5  2  2  0
  1 11 18  2  3  0  3 13 10  4 14 11  1  2 22  5 21 14  3 17 19  5 21 18
  5  0 21 22 26 25 17]"
10900,67.2,1.0,11,3,86.63678407669067,7.0029497146606445,5625,43600,277780,3123331,"[ 1  1  2  2  2  1  2  1  3  1  0  3  3  3  2  5  6  6  4  1  0  4  8  3
  5  5  0  1  6  5  2  5  5  5  6  9  1 12  8  2  6  6  2 11  9  2  2  0
  5 18 18  2  3  0  3 13 10  2  1 11  1 23 16  5 21 14  3 17 19  5 21  0
  5 14 21 22 26 25 17]"
11000,67.2,1.0,11,3,87.55020546913147,9.134182929992676,5676,44000,280245,3150226,"[ 3  1  0  2  2  1  2  1  3  1  0  2  3  0  1  4  6  5  2  3  0  0  5  3
  2  5  1  1  5  5  2  5  5  5  5  9  3  1  8  2  6  6  4  3  6  2  2  0
  0 17  9  2  3  0  3 13 10  4 18  2  5 15 14  5 21 14  3 17 19  2 14 18
  3 23  0 22 26 25 17]"
11100,67.2,1.0,11,3,88.2568769454956,7.066657543182373,5729,44400,282586,3175808,"[ 5  1  3  2  2  1  2  1  3  1  0  3  2  0  1  1  6  6  4  1  0  0  5  4
  2  8  1  1  6  5  2  5  5  1  5 13  2  6  9  2  6  6  0  5  6  2  2  0
  0 13  2  2  3  0  3 13 10  0 18  2  2 17 14  5 21 14  3 17 19  2 14  0
  1 23  0 22 26 25 17]"
11200,67.4,1.0,10,3,89.05518746376038,7.98306703567505,5782,44800,285021,3202284,"[ 2  3  3  2  2  1  2  1  3  2  0  3  2  1  1  4  7  5  4  1  0  3  7  4
  0  7  1  1  6  5  2  5  5  1 13  5  5  4 11  2  6  6  3 12  4  2  2  0
  0 15 12  2  3  0  3 13 10  1 18 12  1 17 14  5 21 14  3 17 19  1 14 14
  1  2 23 22 26  9 17]"
11300,67.60000000000001,1.0,9,3,89.63007473945618,5.748834609985352,5830,45200,287333,3224740,"[ 3  3  1  2  2  1  2  1  3  2  0  3  2  3  1  4  7  5  4  3  0  5  4  4
  0  2  4  1  6  5  4  1  4  1  1 10  1  4 11  3  6  6  1 12  0  2  2  0
  0 11 12  4 13 17  3 13  9  5 17  0  1 14 23  2 15 22  3 17 19  1 14 14
  2  0 23 22 26  9 17]"
11400,67.60000000000001,1.0,9,3,90.17782330513,5.477423667907715,5887,45600,289510,3244214,"[ 3  3  1  2  2  1  2  1  3  2  0  3  1  1  1  4  7  5  2  3  0  5  0  4
  0  4  3  1  5  6  2  5  5  4  3 10  3  4 11  3  6  6  5  8  8  2  2  0
  0 11 12  4 13 17  3 13  9  5  1  0  4  2 23  2 15 22  3 17 19  2 14 14
  5  0 23 22 26  9 17]"
11500,67.60000000000001,1.0,9,3,90.7959930896759,6.181652545928955,5938,46000,291592,3262951,"[ 4  2  1  2  2  1  2  1  3  2  0  3  3  3  1  4  7  5  4  1  2  5  0  7
  2  5  4  0  5  5  5  1 12  5  3  6  3  4  9  2  6  6  3 10  6  2  2  0
  0  9 12  5  1  9  3 13  9  5 16  9  4  2 19  2 21  0  3 17 19  2 18 19
  1 15 16 22 26  9 17]"
11600,67.60000000000001,1.0,9,3,91.46735787391663,6.713604927062988,5993,46400,293879,3283464,"[ 4  1  0  2  2  1  2  1  3  2  0  3  2  0  3  4  8  5  1  1  1  5  7  7
  2  7  7  1  5  6  3  1 12  3  1  4  1  5  9  2  6  6  3  2 13  2  2  0
  5 14 12  5  9 16  3 13  9  3 11 13  4 21 18  2 15  3  3 17 19  1 21 23
  1  2 22 22 26  9 17]"
11700,67.60000000000001,1.0,9,3,92.00171375274658,5.343501567840576,6036,46800,296143,3303851,"[ 0  1  0  2  2  1  2  1  3  1  1  2  2  0  3  4  8  5  4  8  2  5  4  2
  2  6  2  0  8  5  4  9 13  3 11 10  2  5  1  3  6  6  5  2  7  2  2  0
  3  1 12  5  9 16  5 13  9  3 14 15  4  0 17  2 22  3  3 17 19  1 21  3
  4 22 22 22 26  9 17]"
11800,67.60000000000001,1.0,9,3,92.50597190856934,5.042548179626465,6089,47200,298161,3322048,"[ 0  0  0  2  2  1  2  1  3  2  3  3  2  0  3  4  8  5  4  3  8  1  6  2
  2  7  8  0  8  5  2  2 12  1  1 12  0  0  0  2  6  6  5  8  5  2  2  0
  1  2  3  5  9 12  5 13  9  3  1 12  3  0 16  0  1  3  3 17 19  5 15  3
  4 22 20 22 26  9 17]"
11900,67.60000000000001,1.0,9,3,93.13444805145264,6.284725666046143,6134,47600,300388,3342064,"[ 0  3  1  2  2  1  2  1  3  1  0  3  2  0  3  4  8  5  3  3  4  5  7  1
  2  0  4  0  8  5  2  8  0  0 11  3  2 13  6  3  6  6  5 13  5  2  2  0
  5  1 11  3 12  0  5 13  9  2  2 12  3 16 14  0  1  3  3 17 19  5  1  3
  1 23 14 22 26  9 17]"
12000,67.60000000000001,1.0,9,3,93.79659104347229,6.62137508392334,6178,48000,302700,3362932,"[ 0  2  1  2  2  1  2  1  3  3  0  3  2  0  3  4  8  5  5  3  4  3  7  3
  1  8  4  0  8  5  1  1 12  3  6  3  4  0  1  2  6  6  5  5  6  2  2  0
  4  9 14  4 18  2  5 13  9  5  1 12  0 21 14  0  2 20  3 17 19  3 18 22
  1 22 14 22 26  9 17]"
12100,67.60000000000001,1.0,9,3,94.32558178901672,5.289857387542725,6237,48400,304629,3380251,"[ 0  2  1  2  2  1  2  1  3  4  2  3  2  0  3  4  8  5  0  4  4  3  1  3
  1  8  4  0  8  8  0 12  9  4  5  3  5 10  3  3  6  6  5 12 10  2  2  0
  4 14  9  1 17  2  3 13  9  5 15  1  3 23  0  0  2 17  3 17 19  5 19 22
  4 18  2 22 26  9 17]"
12200,67.60000000000001,1.0,9,3,94.88654470443726,5.609595775604248,6287,48800,306900,3400681,"[ 0  2  3  2  2  1  2  1  3  3  1  2  2  0  3  4  8  5  5  5  6  3  4  5
  2  0  8  1  5  5  5  4  4  1  5  3  3 10 12  2  6  6  2 13  1  2  2  0
  4 14 16  3 15 11  3 13  9  0  0  2  4 23 18  5 14 19  3 17 19  5 16 22
  0 17 17 22 26  9 17]"
12300,67.60000000000001,1.0,9,3,95.42469716072083,5.3814005851745605,6337,49200,308910,3418721,"[ 4  3  3  2  2  1  2  1  3  3  1  2  2  0  3  4  8  5  2  5  1  3  4  7
  2  0  8  0  5  5  5  3  1  4  8  0  3 10  5  2  6  6  0  8  2  2  2  0
  2 18  3  3  3  3  3 13  9  4 13 12  4 19 17  5 16 14  3 17 19  1 23 22
  0 17  3 22 26  9 17]"
12400,67.60000000000001,1.0,9,3,96.028475522995,6.037721633911133,6379,49600,311245,3439757,"[ 3  2  2  2  2  1  2  1  3  3  3  0  2  0  3  4  8  5  4  0  1  3  2  1
  5  3  3  1  6  5  5 10 11  5  8  1  2  7 10  2  6  6  0  7  3  2  2  0
  4  2  3  3  3 11  3 13  9  3 10 12  1 21 18  5 16 20  3 17 19  0 23 14
  0 21 23 22 26  9 17]"
12500,67.60000000000001,1.0,9,3,96.6952543258667,6.667730808258057,6432,50000,313343,3458660,"[ 1  1  2  2  2  1  2  1  3  2  3  3  2  0  3  4  8  5  3  0  7  5  6  1
  5  4  4  0  8  5  5  9 11  5  1  1  2  9  2  3  6  6  5  2  7  2  2  0
  5 17 10  3 17 14  3 13  9  2 10  9  1 17  3  4  1 14  3 17 19  0 23 14
  1 21 23 22 26  9 17]"
12600,67.60000000000001,1.0,9,3,97.4266586303711,7.314002513885498,6478,50400,315745,3480319,"[ 1  3  3  2  2  1  2  1  3  3  1  0  2  0  3  4  8  5  4  0  7  1  6  5
  3  4  7  1  6  2  0 12  1  3 13  4  5  8  2  3  6  6  5  8 12  2  2  0
  1  3 10  3 13  9  3 11  9  2 10  9  3 17 22  0  3 14  3 17 19  0 16 14
  1 20  3 22 26  9 17]"
12700,67.60000000000001,1.0,9,3,97.92227983474731,4.956159591674805,6538,50800,317648,3497453,"[ 1  3  0  2  2  1  2  1  3  2  3  1  2  0  3  4  8  5  5  2  4  1  6  5
  0  8  7  5  2  4  5 11  1  5  4 11  5 10  3  2  6  6  2 11  9  2  2  0
  4 13 10  0 13  1  3 11  9  2 12  9  3 17  1  5 14 14  3 17 19  5  0 18
  1 20  3 22 26  9 17]"
12800,67.60000000000001,1.0,9,3,98.4972288608551,5.74941873550415,6584,51200,319881,3517484,"[ 0  3  0  2  2  1  2  1  3  2  3  0  2  0  3  4  8  5  3  2  5  1  5  6
  0  2  3  3  2  7  5  1  6  3  4  5  3  7  4  2  6  6  2  4 10  2  2  0
  3  2 10  4 11 13  3 11  9  3 17 17  3 21 23  0 23  1  3 17 19  1  0 23
  3  3  1 22 26  9 17]"
12900,67.60000000000001,1.0,9,3,99.26135349273682,7.641193866729736,6632,51600,322182,3538193,"[ 1  1  0  2  2  1  2  1  3  0  3  3  2  0  3  4  8  5  4  3  8  0  8  5
  2  7  8  3  2  6  5  1  5  2 10 13  0  5  4  2  6  6  4  4 10  2  2  0
  3 13 14  2  9 13  3 11  9  3 12 10  5 21 23  1 23  1  3 17 19  1 21 15
  4 21  1 22 26  9 17]"
13000,67.60000000000001,1.0,9,3,100.1294732093811,8.681154251098633,6678,52000,324603,3559965,"[ 1  1  0  2  2  1  2  1  3  4  0  3  2  0  3  4  8  5  1  8  7  0  5  1
  5  5  1  0  8  8  2 10  4  2 10  1  0 11  5  3  6  6  5 12  8  2  2  0
  4 12  9  0 13 13  3 13  9  4 12 15  3 21 19  1 22  1  3 17 19  4 21 22
  4 22 18 22 26  9 17]"
13100,67.60000000000001,1.0,9,3,100.66279458999634,5.333163738250732,6731,52400,326565,3577596,"[ 5  3  0  2  2  1  2  1  3  3  0  0  2  0  3  4  8  5  1  4  8  5  0  1
  5  5  1  0  5  8  3  9  6  3 13  1  4  4  5  3  6  6  4 10 12  2  2  0
  4 15 15  0  3  0  3 13  9  5 12  0  1 15 19  1 15 15  3 17 19  0 21 22
  5 20 15 22 26  9 17]"
13200,67.60000000000001,1.0,9,3,101.24904251098633,5.862441062927246,6775,52800,328856,3598182,"[ 5  3  0  2  2  1  2  1  3  1  3  0  2  0  3  4  8  5  2  4  0  5  0  0
  5  2  1  0  8  5  5 12  1  3  2  0  4  4  8  2  6  6  5 10  7  2  2  0
  4 17  3  1  9 16  3 13  9  1 12  0  3  3 19  2  1 15  3 17 19  3  2 18
  2 22  1 22 26  9 17]"
13300,67.60000000000001,1.0,9,3,101.8820652961731,6.3301920890808105,6825,53200,331000,3617510,"[ 0  3  1  2  2  1  2  1  3  2  2  0  2  0  3  4  8  5  2  3  4  3  4  0
  2  0  3  1  6  5  1 12  8  3  6 12  5  4  8  2  6  6  5  1  3  2  2  0
  5 18  2  2 14 16  3 13  9  4 10 13  3 18  2  1 14  0  3 17 19  1 21 17
  4 19  1 22 26  9 17]"
13400,67.60000000000001,1.0,9,3,102.52775573730469,6.456868648529053,6870,53600,333340,3638527,"[ 5  3  1  2  2  1  2  1  3  5  2  0  2  0  3  4  8  5  4  6  6  2  4  7
  4  7  1  0  8  5  4  1  4  1  8  0  2 12  8  2  6  6  5  1  3  2  2  0
  4 16  2  2 14 16  3 13  9  2  9 13  0 18 14  5  1  0  3 17 19  3 21 23
  4 16  1 22 26  9 17]"
13500,67.60000000000001,1.0,9,3,103.156662940979,6.289029121398926,6926,54000,335435,3657368,"[ 5  1  1  2  2  1  2  1  3  5  2  0  2  0  3  4  8  5  1  7  6  2  0  4
  2  5  7  0  8  5  3 12  6  2  1  8  1  2 11  3  6  6  0  8 10  2  2  0
  4 17 16  2  1 16  5 13  9  2  1 10  3 15 16  1 21  1  3 17 19  0 17  2
  2  3 19 22 26  9 17]"
13600,67.60000000000001,1.0,9,3,103.67948937416077,5.228209495544434,6974,54400,337558,3676481,"[ 5  2  0  2  2  1  2  1  3  0  0  2  2  0  3  4  8  5  1  3  2  2  3  8
  4  1  3  1  6  5  1 12  2  0  1  5  4  2  8  2  6  6  0 11 10  2  2  0
  4 17 12  3 12 13  3 13  9  2  1  9  3 14 17  1  1 23  3 17 19  5 23  2
  5 15 15 22 26  9 17]"
13700,67.60000000000001,1.0,9,3,104.24303030967712,5.635344982147217,7031,54800,339729,3695939,"[ 1  1  0  2  2  1  2  1  3  0  0  0  2  0  3  4  8  5  2  5  0  2  1  0
  4  8  3  0  8  5  1  4  6  0  3  5  4  2 10  3  6  6  4  6 13  2  2  0
  1 17 13  3  3  2  3 13  9  2  1 18  2 21 17  3  0  2  3 17 19  1 16  2
  5 18 15 22 26  9 17]"
13800,67.60000000000001,1.0,9,3,104.84447979927063,6.014449596405029,7087,55200,341847,3714926,"[ 3  2  2  2  2  1  2  1  3  3  1  3  2  0  3  4  8  5  1  8  0  2  3  3
  4  3  5  0  8  8  3  4  9  5  0  5  1  4  0  3  6  6  0  6 11  2  2  0
  5 13 17  2  9  2  3 13  9  4  3  1  2 16  1  1 22 20  3 17 19  1  1 15
  0 18 19 22 26  9 17]"
13900,67.60000000000001,1.0,9,3,105.4508466720581,6.063625812530518,7143,55600,343898,3733374,"[ 1  2  3  2  2  1  2  1  3  1  0  3  2  0  3  4  8  5  3  4  6  0  3  3
  4  8  5  2  5  8  3  5  9  0  8  5  5 12  1  2  6  6  5  0 13  2  2  0
  4  2  0  0 14 10  5 15  9  0 11 11  1 16 18  3  3 19  3 17 19  1  0 23
  5  2 17 22 26  9 17]"
14000,67.80000000000001,1.0,8,3,105.941978931427,4.9112749099731445,7195,56000,345892,3749534,"[ 2  2  2  2  2  1  2  1  3  5  1  2  2  0  3  4  8  5  3  2  0  0  3  4
  0  4  4  1  6  4  3  8  9  2 13  4  5 10 12  2  6  6  1  7 12  2  2  0
  0  1  0  3 14  2  0 15  9  0 15 11  5 17 21  1 18 17  3 17 19  1 17 15
  3 22 17 14 26  9 17]"
14100,67.80000000000001,1.0,8,3,106.51867747306824,5.766937732696533,7239,56400,348061,3766929,"[ 1  1  1  2  2  1  2  1  3  0  3  0  2  0  3  4  8  5  3  7  2  5  2  6
  1  4  2  0  3  4  3  8  5  3  4  1  0  5  2  3  6  6  1 13  3  2  2  0
  2  1  1  3  1  0  3 12  0  2 15  2  1  0 18  1 17  2  3 14 19  5 23 22
  5 14  2 14 26  9 17]"
14200,67.80000000000001,1.0,8,3,107.07702207565308,5.583395957946777,7285,56800,350439,3785918,"[ 3  2  1  2  2  1  2  1  3  4  3  2  2  0  3  4  8  5  5  2  2  2  6  1
  5  8  3  4  5  5  3  8  5  3  4 11  3  9 11  3  6  6  1  3  3  2  2  0
  0  1 17  3 17 15  5 12 17  2 17  2  1  2  1  5  1 22  3 17 19  4 21 17
  2  0  0 14 26  9 17]"
14300,67.80000000000001,1.0,8,3,107.50380802154541,4.267778396606445,7342,57200,352349,3801209,"[ 3  2  1  2  2  1  2  1  3  5  3  3  2  0  3  4  8  5  5  1  7  1  6  5
  4  6  6  3  2  4  3  9  5  3  3  8  4 13 11  2  6  6  1  4  3  2  2  0
  2 11 12  4 15 13  5  2 17  3  0  2  3  1 18  1  3 16  3 17 19  1  3  3
  2  1 15 14 26  9 17]"
14400,67.80000000000001,1.0,8,3,107.9468674659729,4.430544376373291,7399,57600,354382,3817486,"[ 1  1  2  2  2  1  2  1  3  4  2  2  2  0  3  4  8  5  0  1  3  2  6  2
  1  0  1  4  3  8  3  9  5  4  3  4  0  2  2  2  6  6  4 10  6  2  2  0
  3 11 17  2 12  1  1 14  0  0 15  2  0 15 17  2  0 20  3 17 19  3 14 15
  2 16  3 14 26  9 17]"
14500,67.80000000000001,1.0,8,3,108.42266249656677,4.7579145431518555,7447,58000,356597,3835247,"[ 4  1  2  2  2  1  2  1  3  4  0  1  2  0  3  4  8  5  2  1  2  2  2  2
  4  2  1  4  8  7  3  8  5  3  3 12  5  2  3  2  6  6  1  6  8  2  2  0
  3  2 11  2 10  2  3  3 10  1 15 11  0 21 14  0  0  0  3 14 19  2 23  2
  4  2  3 14 26  9 17]"
14600,67.80000000000001,1.0,8,3,108.94471311569214,5.220439434051514,7500,58400,358713,3852234,"[ 4  1  1  2  2  1  2  1  3  4  1  0  2  0  3  4  8  5  3  7  8  2  5  3
  1  6  3  4  6  1  3  8  5  2 11  5  5  0  7  3  6  6  3 13 11  2  2  0
  5 15  9  2 15 10  1  1 14  2  9 11  3 15  0  2 15  3  3 14 19  2 14 14
  1 16  1 14 26  9 17]"
14700,67.80000000000001,1.0,8,3,109.59537982940674,6.506631374359131,7552,58800,361018,3870693,"[ 5  2  3  2  2  1  2  1  3  0  0  0  2  0  3  4  8  5  1  4  8  0  5  8
  1  4  8  1  4  5  3  8  5  2  6  7  0  5 10  3  6  6  5 13  1  2  2  0
  3 16 13  4 11  2  5  0  1  5  9  0  4 17 21  3  2  2  5 14 19  5 14 17
  2 22 22 14 26  9 17]"
14800,67.80000000000001,1.0,8,3,110.16661787033081,5.712339878082275,7598,59200,363174,3887877,"[ 3  2  3  2  2  1  2  1  3  0  2  1  2  0  3  4  8  5  2  3  4  2  3  2
  5  6  8  0  8  4  3  8  5  2  5  6  0  5  9  3  6  6  5  6  3  2  2  0
  2 16  3  3 11 17  0 11  1  4  0 10  3 15 20  3  2 23  5 14 19  2 14 19
  4 21  0 14 26  9 17]"
14900,67.80000000000001,1.0,8,3,110.67956018447876,5.129384994506836,7656,59600,365261,3904587,"[ 3  1  0  2  2  1  2  1  3  0  2  0  2  0  3  4  8  5  1  0  3  0  3  4
  4  6  3  0  6  1  3  8  5  4 12 11  1  5  8  2  6  6  0  1 10  2  2  0
  2 18  3  4 10 14  0 15 11  4 12 13  2 23  1  2 23 19  5 14 19  2 18 19
  5  0  3 14 26  9 17]"
15000,67.80000000000001,1.0,8,3,111.30000185966492,6.204376220703125,7700,60000,367551,3922890,"[ 2  2  0  2  2  1  2  1  3  4  3  0  2  0  3  4  8  5  0  6  1  4  5  5
  2  8  3  0  2  8  3  8  5  1 12 13  3  9  5  2  6  6  3  0  8  2  2  0
  0 14  2  5 16 14  1 15  1  5 12 13  5  2  1  3 22 19  3 14 19  2 23 19
  1  2 21 14 26  9 17]"
15100,67.80000000000001,1.0,8,3,111.99266743659973,6.926617622375488,7746,60400,369901,3941675,"[ 2  3  1  2  2  1  2  1  3  5  2  2  2  0  3  4  8  5  5  6  6  0  5  5
  3  6  3  4  1  7  3  8  5  1  6  8  3  2  5  3  6  6  0  0  1  2  2  0
  3  1  0  5 12 14  1 15  3  3 12 13  0  0 16  3 21  1  3 17 19  2 23 19
  4 14  2 14 26  9 17]"
15200,67.80000000000001,1.0,8,3,112.55493330955505,5.622601509094238,7805,60800,371859,3957321,"[ 0  2  2  2  2  1  2  1  3  5  3  2  2  0  3  4  8  5  3  8  7  0  7  6
  4  2  2  2  5  7  3  9  5  1  2  1  5  2 12  3  6  6  0  4  3  2  2  0
  0  3  0  5 17 14  1  2  0  4  3 10  3  0 16  0 15 19  3 17 19  5 23 19
  4 14  2 14 26  9 17]"
15300,67.80000000000001,1.0,8,3,113.23789882659912,6.8296003341674805,7862,61200,373945,3973950,"[ 4  0  0  2  2  1  2  1  3  3  1  2  2  0  3  4  8  5  5  4  4  0  7  6
  4  7  1  3  8  0  3  9  5  0  9  1  0 12 12  2  6  6  5  8 12  2  2  0
  1  3  2  5 17  9  1 14 16  4  2 12  3 14  0  0 15 19  3 17 19  4 23  3
  4 18  2 14 26  9 17]"
15400,67.80000000000001,1.0,8,3,113.93686318397522,6.989600658416748,7919,61600,375959,3990048,"[ 4  0  1  2  2  1  2  1  3  1  2  2  2  0  3  4  8  5  5  0  4  4  3  4
  5  7  0  3  0  6  3  8  5  3  2  4  3 10  2  3  6  6  5  3 13  2  2  0
  1 13  9  3 17 13  3  3 10  4 10  3  0 14  0  1 15 19  3 17 19  4 14  2
  5  3 14 14 26  9 17]"
15500,67.80000000000001,1.0,8,3,114.40096306800842,4.640960693359375,7984,62000,377817,4004952,"[ 0  2  1  2  2  1  2  1  3  1  2  2  2  0  3  4  8  5  2  0  4  4  7  4
  5  7  8  0  8  7  3  8  5  3  2  4  0 10  4  2  6  6  5  3 13  2  2  0
  1 17  2  3  9 11  0 13  3  4 10 14  4 14 18  1 15 19  3 17 19  3  1 20
  5  2 14 14 26  9 17]"
15600,67.80000000000001,1.0,8,3,114.91348671913147,5.125181674957275,8041,62400,379797,4020900,"[ 1  2  1  2  2  1  2  1  3  3  0  0  2  0  3  4  8  5  5  5  7  4  4  8
  0  7  7  5  4  7  3  8  5  1  2  1  0 12  0  2  6  6  5  0  4  2  2  0
  1 17 10  0  9 11  0 13  9  0 10 14  4 20 18  0  2  3  3 14 19  0  1  3
  2 15 14 14 26  9 17]"
15700,67.80000000000001,1.0,8,3,115.47800850868225,5.64516544342041,8092,62800,381829,4037199,"[ 1  2  2  2  2  1  2  1  3  3  1  0  2  0  3  4  8  5  3  3  7  2  4  0
  4  7  4  1  3  6  3  8  5  4 13  3  4  5  9  3  6  6  1  0 13  2  2  0
  0 17 18  0  9 11  4 13  9  5 11  3  1 22 16  0  2  3  3 17 19  0  1  3
  2 21 20 14 26  9 17]"
15800,67.80000000000001,1.0,8,3,116.02261185646057,5.445992946624756,8144,63200,383962,4054250,"[ 3  0  0  2  2  1  2  1  3  3  1  3  2  0  3  4  8  5  2  8  1  4  4  4
  4  7  1  3  0  0  3  8  5  4  2  3  0  4  9  2  6  6  1  0 12  2  2  0
  1 16  0  0  9 17  2  3  1  5 13  3  5 22 15  1  3 19  5 14 19  2  0 17
  4 14 22 14 26  9 17]"
15900,67.80000000000001,1.0,8,3,116.54232501983643,5.197086334228516,8191,63600,386123,4071540,"[ 4  3  1  2  2  1  2  1  3  3  0  1  2  0  3  4  8  5  4  8  7  4  4  3
  4  7  6  1  0  3  3  8  5  3  3 12  0  2  0  2  6  6  1  3  1  2  2  0
  3 17 12  5  3  2  4 15 14  1 13 13  4 16 18  4  3 18  5 14 19  2 17  0
  5  0  0 14 26  9 17]"
16000,67.80000000000001,1.0,8,3,117.13165545463562,5.893242359161377,8246,64000,388386,4089687,"[ 5  3  1  2  2  1  2  1  3  3  0  2  2  0  3  4  8  5  4  8  4  0  2  2
  4  7  1  5  0  6  3  8  5  1  2 12  4 11  0  3  6  6  1  8 13  2  2  0
  3 11  2  2  2 17  3 18 14  1  1 13  5 17 18  4  3  0  5 14 19  0 17 17
  1 19  0 14 26  9 17]"
16100,67.80000000000001,1.0,8,3,117.7316792011261,6.000199317932129,8292,64400,390635,4107641,"[ 5  2  0  2  2  1  2  1  3  4  0  0  2  0  3  4  8  5  4  2  4  1  2  5
  4  4  7  5  0  6  3  8  5  1  1 12  0 11  5  2  6  6  4  8  1  2  2  0
  3 11  2  2  2 17  3 13 17  0  1 15  4 14 21  0  0  0  3 14 19  3 14 20
  4  3  0 14 26  9 17]"
16200,67.80000000000001,1.0,8,3,118.29086589813232,5.5918288230896,8343,64800,392797,4124890,"[ 5  2  3  2  2  1  2  1  3  4  2  0  2  0  3  4  8  5  5  4  6  0  2  5
  3  4  8  3  2  7  3  8  5  5  3 12  0  7  5  2  6  6  4 11  8  2  2  0
  5 15  3  2 12 12  3 16  3  0  0 14  0 19 22  5 22  0  3 14 19  0 20  3
  3 20  0 14 26  9 17]"
16300,67.80000000000001,1.0,8,3,118.82253503799438,5.316643714904785,8399,65200,394906,4141759,"[ 1  0  2  2  2  1  2  1  3  1  2  0  2  0  3  4  8  5  2  1  6  0  2  5
  0  3  8  0  5  1  3  8  5  5  7  4  1  8  4  2  6  6  4  9  5  2  2  0
  4  2 17  2 17 12  3 14 13  3  0  2  0 19 16  2  3 21  5 14 19  3 20 14
  0  2  0 14 26  9 17]"
16400,67.80000000000001,1.0,8,3,119.42783188819885,6.0529255867004395,8453,65600,396991,4158401,"[ 5  0  3  2  2  1  2  1  3  0  1  1  2  0  3  4  8  5  4  3  8  2  2  5
  0  5  8  1  6  2  3  8  5  5  9  2  1  8  4  3  6  6  0  3  8  2  2  0
  3  2 18  3 13  3  2  1  1  3  0  2  3 15 22  3 17 21  5 14 19  2 20 20
  1 19 18 14 26  9 17]"
16500,67.80000000000001,1.0,8,3,119.92798709869385,5.00150203704834,8510,66000,398913,4173734,"[ 0  2  3  2  2  1  2  1  3  5  1  1  2  0  3  4  8  5  1  3  1  2  7  0
  4  0  7  1  6  8  3  8  5  3  7 10  1 10  5  2  6  6  0  0  5  2  2  0
  1  0 12  0  0 12  3  1  1  3  0 12  0 21 15  0 18  1  5 14 19  2 14 23
  2 14 23 14 26  9 17]"
16600,67.80000000000001,1.0,8,3,120.3953070640564,4.67315673828125,8564,66400,400987,4190336,"[ 4  2  0  2  2  1  2  1  3  2  3  3  2  0  3  4  8  5  3  0  2  3  5  1
  5  6  7  1  2  6  3  8  5  5 12  4  5  6  4  3  6  6  5  0  4  2  2  0
  2 11  3  5 16 13  1 12  3  4 14  0  2  0 15  2  0 20  3 14 19  0  3 16
  3 18 15 14 26  9 17]"
16700,67.80000000000001,1.0,8,3,120.87690901756287,4.81597900390625,8618,66800,403101,4207243,"[ 3  2  0  2  2  1  2  1  3  3  2  2  2  0  3  4  8  5  1  3  0  3  0  7
  5  8  7  1  2  6  3  8  9  1 13  8  0  6  4  2  6  6  5  9 10  2  2  0
  2  3 13  5  0 11  3  0  3  5 18  2  0 19  0  5 22 18  3 17 19  0  1 21
  2 21 18 14 26  9 17]"
16800,67.80000000000001,1.0,8,3,121.41138434410095,5.344674587249756,8662,67200,405303,4224875,"[ 4  2  1  2  2  1  2  1  3  1  2  2  2  0  3  4  8  5  4  3  4  2  3  1
  3  5  8  1  7  5  3  8  9  1  2 12  5  5  4  2  6  6  0  9  7  2  2  0
  0  3 13  5  3  2  1 12  9  2 17 15  0 14  3  1 14 23  3 17 19  3 18 14
  2 21  3 14 26  9 17]"
16900,67.80000000000001,1.0,8,3,121.88498044013977,4.735901355743408,8721,67600,407362,4241360,"[ 3  2  1  2  2  1  2  1  3  5  1  2  2  0  3  4  8  5  5  3  6  4  6  3
  4  7  3  2  6  8  3  8  5  2  9  5  3  5 11  2  6  6  3 11 12  2  2  0
  0 15 18  5  3  1  1 17 13  1  1  0  3 17 23  5 22 15  3 14 19  2 18 23
  3 23  3 14 26  9 17]"
17000,67.80000000000001,1.0,8,3,122.39067959785461,5.056946277618408,8768,68000,409503,4258454,"[ 3  2  2  2  2  1  2  1  3  2  3  0  2  0  3  4  8  5  5  7  6  4  6  6
  0  5  3  4  6  8  3  8  5  2  3 10  1 11  4  2  6  6  1 11 12  2  2  0
  0 18 15  5  3  1  1 17  1  1 17 12  5 21 20  5 14 23  5 14 19  2  1 23
  3 21 23 14 26  9 17]"
17100,67.80000000000001,1.0,8,3,122.84754252433777,4.568583965301514,8822,68400,411520,4274647,"[ 5  1  0  2  2  1  2  1  3  2  1  0  2  0  3  4  8  5  1  7  1  5  2  0
  3  3  1  2  4  3  3  8  5  0  3  5  1  5  6  3  6  6  0  7 10  2  2  0
  2 18 12  5  3 12  0 10  3  0  1  2  1 21  0  5 19 21  5 14 19  3  2 14
  5  2 23 14 26  9 17]"
17200,67.80000000000001,1.0,8,3,123.42052578926086,5.729763507843018,8872,68800,413834,4293119,"[ 5  0  0  2  2  1  2  1  3  5  2  1  2  0  3  4  8  5  2  2  8  5  2  8
  5  0  8  3  5  3  3  8  5  0  3 10  3  5  1  3  6  6  0  5 10  2  2  0
  2 18  0  5  1 12  0 16  3  1 18  3  5 21  0  5 22 22  5 14 19  4  3 15
  0  1 23 14 26  9 17]"
17300,67.80000000000001,1.0,8,3,123.90765976905823,4.8712992668151855,8924,69200,415845,4309211,"[ 4  1  0  2  2  1  2  1  3  5  1  1  2  0  3  4  8  5  3  2  7  1  1  8
  2  4  8  2  2  6  3  8  5  1 13  8  3  9 13  3  6  6  3  8  5  2  2  0
  5  3 14  5 12 10  2 16  3  1  2 14  3 22  0  5 22 17  3 14 19  4 16 17
  1  1 20 14 26  9 17]"
17400,67.80000000000001,1.0,8,3,124.44984722137451,5.421814918518066,8976,69600,417921,4325809,"[ 5  1  1  2  2  1  2  1  3  5  1  0  2  0  3  4  8  5  3  6  6  4  5  0
  4  4  8  1  8  6  3  8  5  1  1 11  0  3 11  3  6  6  4  6  5  2  2  0
  5  3 14  3 12 10  2 17  3  5 16  2  1  3 16  4 23 17  5 14 19  1 23 19
  3 22 23 14 26  9 17]"
17500,67.80000000000001,1.0,8,3,125.01894450187683,5.690932273864746,9025,70000,420100,4343278,"[ 0  1  3  2  2  1  2  1  3  3  2  0  2  0  3  4  8  5  2  6  6  5  5  8
  4  4  5  3  0  2  3  8  5  3  1  9  0  4  9  3  7  0  5  9  6  2  2  0
  5 11 12  3 18 11  0 17 17  3  3  1  2  3 19  0 18 15  5 14 19  5 23 22
  5  3 23 14 26  9 10]"
17600,67.80000000000001,1.0,8,3,125.58387494087219,5.649268627166748,9079,70400,422273,4360574,"[ 0  2  3  2  2  1  2  1  3  2  2  3  2  0  3  4  8  5  3  6  6  3  0  6
  4  4  2  2  3  1  3  8  5  5  1 13  2 11  9  2  8  0  5  9 11  2  2  0
  5  3  1  3 18  0  4 11  9  3 15  1  1 21 15  5  2 16  3 14 19  4 20 22
  5  3  0 14 26  9 10]"
17700,67.80000000000001,1.0,8,3,126.15085315704346,5.669748783111572,9133,70800,424472,4378139,"[ 0  1  3  2  2  1  2  1  3  4  1  3  2  0  3  4  8  5  3  6  6  0  6  1
  4  3  2  0  3  8  3  8  5  5  8 13  2 11  9  2  8 13  4  2 11  2  2  0
  5  3 12  0 18 17  5 11  9  5  9  9  5 15 17  0 18 20  3 14 19  3 16 15
  3 17 14 14 26  9 10]"
17800,68.0,1.0,7,3,126.72191858291626,5.710620880126953,9186,71200,426726,4395780,"[ 0  1  3  2  2  1  2  1  3  2  0  0  2  0  3  4  8  5  5  6  6  0  6  1
  4  2  7  2  4  6  3  8  5  2 10 13  2 11  9  2  8 12  4  2 11  2  2  0
  5 18 12  2 18 16  2 11  0  2  2 14  5 15 17  0 23 21  3 14 19  2 16 15
  0  3 15 14 26  9  4]"
17900,68.0,1.0,7,3,127.19911003112793,4.771862030029297,9237,71600,428939,4411339,"[ 0  1  3  2  2  1  5  3  2  0  1  0  2  0  3  4  8  5  4  6  6  0  2  3
  1  7  6  2  1  6  3  8  5  5  9  9  1  0  2  5  8  3  0  0  5  2  2  0
  2 18 15  2 18 16  1 16 18  2  2 10  5 15 17  0 19 21  3 14 19  3 18 15
  5 15 15 14 26  9  4]"
18000,68.0,1.0,7,3,127.71233654022217,5.132198333740234,9295,72000,431039,4426077,"[ 0  1  3  2  2  1  5  3  2  0  2  0  2  0  3  4  8  5  4  8  0  1  6  0
  0  0  6  5  1  6  3  8  5  1  6  0  1 11  1  5  4  9  2  3  7  2  2  0
  4  1  0  3  3 10  1  2 16  2  2  3  5  2 21  0 20 14  5 14 19  2 21 14
  2 14 15 14 26  9  4]"
18100,68.0,1.0,7,3,128.24679446220398,5.344526767730713,9350,72400,433088,4440413,"[ 0  1  3  2  2  1  5  2  3  3  0  0  2  0  3  4  8  5  3  0  8  2  6  6
  4  1  7  4  1  3  3  8  5  3  4 12  1 13  2  2  2  5  2  2 10  2  2  0
  1 14  2  2  0  1  1 18  9  5 11  3  0 16  2  3 20  3  3 14 19  2 16 23
  2 22 15 14 26  9  4]"
18200,68.0,1.0,7,3,128.83253455162048,5.857362747192383,9408,72800,435050,4454241,"[ 0  1  3  2  2  1  5  1  3  0  0  0  2  0  3  4  8  5  4  8  6  1  6  6
  5  4  7  4  5  8  3  8  5  3 11  4  3  5  0  1 13 11  4  4 10  2  2  0
  0  3  2  2 12  1  3 15 14  2 18  3  2 17 22  5 14  1  5 14 19  2 17 14
  2 22 15 14 26  9  4]"
18300,68.0,1.0,7,3,129.3347110748291,5.021729469299316,9463,73200,437222,4469475,"[ 0  1  3  2  2  1  5  3  3  3  0  0  2  0  3  4  8  5  2  6  1  1  1  0
  3  4  3  4  6  4  3  8  5  4 13  7  5  5  0  1  5  5  4  3  4  2  2  0
  5  3 15  5 12  1  3 12 17  0 18  0  0 17  1  4  0  1  3 14 19  4 19  3
  2 18 15 14 26  9  4]"
18400,68.0,1.0,7,3,129.78592443466187,4.5120954513549805,9514,73600,439210,4483438,"[ 0  1  3  2  2  1  1  1  1  3  3  0  2  0  3  4  8  5  5  5  4  1  1  6
  2  0  3  1  3  7  3  8  5  4  1 13  1 12  6  2  2  5  5 11  5  2  2  0
  5 17 17  5 12  0  5 16 11  0 17 10  4 17 19  2 17 18  3 14 19  4 19  3
  3 18 19 14 26  9  4]"
18500,68.0,1.0,7,3,130.24230337142944,4.563736915588379,9559,74000,441502,4499526,"[ 0  1  3  2  2  1  3  1  3  4  2  0  2  0  3  4  8  5  5  8  2  4  1  2
  2  0  2  5  2  7  3  8  5  4 13 12  2  1 12  2  2  0  0  0  8  2  2  0
  3 18  0  2 17 16  0 18 13  5 16 13  4 17 18  3 23 18  5 14 19  2 19  3
  2 18  1 14 26  9  4]"
18600,68.0,1.0,7,3,130.74453854560852,5.022320747375488,9613,74400,443551,4513972,"[ 0  1  3  2  2  1  3  3  3  4  2  0  2  0  3  4  8  5  2  7  8  0  7  3
  2  0  5  3  7  7  3  8  5  5  8 12  2 10 12  5  6  9  3  3  0  2  2  0
  2 18 13  5  0  0  5 15 15  0 10  9  3 20 18  5 15 16  5 14 19  0 20  3
  4  0 23 14 26  9  4]"
18700,68.0,1.0,7,3,131.20100688934326,4.564647674560547,9668,74800,445645,4528634,"[ 0  1  3  2  2  1  5  3  1  5  0  1  2  0  3  4  8  5  1  4  1  4  2  2
  2  0  1  1  6  6  3  8  5  2  2 12  4 10  8  3  3  0  3  4  4  2  2  0
  2 18 18  4 13 16  5  1 10  3  1 14  3 22 15  3 17 19  5 14 19  5  1  1
  0 23  3 14 26  9  4]"
18800,68.0,1.0,7,3,131.61399674415588,4.129858016967773,9730,75200,447599,4542322,"[ 0  1  3  2  2  1  3  0  2  5  2  3  2  0  3  4  8  5  1  8  2  5  2  4
  0  8  0  3  0  6  3  8  5  0  2  6  5  7  8  5  3 11  0  5  4  2  2  0
  3 18 18  0 13  9  2  1 13  0 14  9  2  0 23  3 16 21  5 14 19  5  1 22
  5 23 18 14 26  9  4]"
18900,68.0,1.0,7,3,132.13749146461487,5.234894752502441,9786,75600,449616,4556466,"[ 0  1  3  2  2  1  1  2  2  3  0  3  2  0  3  4  8  5  3  3  2  5  4  4
  3  2  8  5  0  6  3  8  5  0  8  6  5  7  3  0  3  5  0  3  0  2  2  0
  3 18  0  0 17 10  3  1 16  0 16 14  0  0  1  2 17 18  5 14 19  4  1 22
  5 23  1 14 26  9  4]"
19000,68.0,1.0,7,3,132.57033324241638,4.3283796310424805,9839,76000,451673,4570877,"[ 0  1  3  2  2  1  3  2  2  4  1  1  2  0  3  4  8  5  2  6  1  0  8  2
  2  8  8  4  5  2  3  8  5  5  2  5  4  7 13  0  5 11  1  3 12  2  2  0
  5  0  1  2 13 18  1  1 11  0 16 13  0  0 20  2 23 18  3 14 19  3 22 22
  5 23 23 14 26  9  4]"
19100,68.0,1.0,7,3,133.0059094429016,4.355721473693848,9894,76400,453754,4585510,"[ 0  1  3  2  2  1  1  1  1  4  0  3  2  0  3  4  8  5  2  3  3  5  1  6
  5  5  7  1  5  1  3  8  5  5  4  6  4  9 12  0  5 11  0  3  7  2  2  0
  2  9 16  2  2 12  5 15 15  5 17 11  0  2 18  3 22  2  5 14 19  1  3 22
  4  2 16 14 26  9  4]"
19200,68.0,1.0,7,3,133.4196674823761,4.137539863586426,9955,76800,455695,4599185,"[ 0  1  3  2  2  1  4  2  1  4  0  2  2  0  3  4  8  5  2  6  5  1  6  6
  5  2  6  3  2  0  3  8  5  4  8  8  1  2  0  4  2  9  0  2  4  2  2  0
  2 15  3  1  0 14  4  0 16  5  3 14  1 14 18  3  0 19  3 14 19  1 19  2
  1  2 16 14 26  9  4]"
19300,68.0,1.0,7,3,133.85793948173523,4.382686614990234,10013,77200,457816,4614064,"[ 0  1  3  2  2  1  1  2  1  1  3  2  2  0  3  4  8  5  4  3  7  5  0  6
  4  5  6  3  2  3  3  8  5  0  7 11  1  2  0  4 10 13  1  9  5  2  2  0
  3 14  3  4 10 11  2 13 16  5  3  1  1 14 18  5 22 19  5 14 19  1 19 16
  4  0 16 14 26  9  4]"
19400,68.0,1.0,7,3,134.26177787780762,4.038331508636475,10076,77600,459691,4627227,"[ 0  1  3  2  2  1  1  2  0  4  0  2  2  0  3  4  8  5  3  4  7  5  0  7
  4  5  8  5  1  5  3  8  5  0  7 11  1  4  7  0  2  3  0  6  8  2  2  0
  3  0 13  4 16 13  2  9 16  4 10 16  3 15 21  5 16 19  5 14 19  5 19 21
  4  2 20 14 26  9  4]"
19500,68.0,1.0,7,3,134.77061319351196,5.088315010070801,10122,78000,461830,4642278,"[ 0  1  3  2  2  1  1  0  2  0  2  3  2  0  3  4  8  5  2  4  1  5  4  2
  4  5  4  3  6  2  3  8  5  0 11  6  1 10  9  5 12 13  2  9  8  2  2  0
  1  3 13  0 12  1  4 12 17  0  9  9  0 16  1  1 15 19  3 14 19  4  0 19
  3 17 18 14 26  9  4]"
19600,68.0,1.0,7,3,135.26979327201843,4.991762638092041,10169,78400,464068,4657942,"[ 0  1  3  2  2  1  1  3  3  4  3  1  2  0  3  4  8  5  2  2  0  0  6  2
  4  5  3  4  4  4  3  8  5  5  1  0  2  1  6  5  1 11  0  5  3  2  2  0
  1  1  1  3 15  2  3 14 15  0 15  0  5 18 14  4 22 23  5 14 19  3  1  1
  0  0 15 14 26  9  4]"
19700,68.0,1.0,7,3,135.70214581489563,4.323492050170898,10224,78800,466102,4672183,"[ 0  1  3  2  2  1  5  3  1  2  0  2  2  0  3  4  8  5  2  4  0  4  0  6
  2  4  6  4  3  8  3  8  5  4  1  0  3  1  6  5 12 13  2  3  0  2  2  0
  0 13  2  3 13  0  3 14 17  0  9 11  0 18 14  4 18 23  5 14 19  5  1  1
  5 15 19 14 26  9  4]"
19800,68.0,1.0,7,3,136.1304087638855,4.282574653625488,10286,79200,467887,4684765,"[ 0  1  3  2  2  1  5  1  0  1  0  2  2  0  3  4  8  5  1  1  2  4  0  2
  2  8  7  1  2  7  3  8  5  4  3  0  3  1  9  4 13  0  0  0  0  2  2  0
  2 13  2  5 13  0  2 14 17  1  0 15  0 18 14  5 14  3  3 14 19  5  1  1
  3  1  3 14 26  9  4]"
19900,68.0,1.0,7,3,136.61189675331116,4.8148298263549805,10343,79600,469934,4699083,"[ 0  1  3  2  2  1  4  0  1  3  3  3  2  0  3  4  8  5  0  8  3  4  0  4
  3  3  6  2  7  0  3  8  5  0  9 12  2  7  2  4 13  0  4 13  9  2  2  0
  2 10 14  5  0  0  2 16  3  0  1 14  1 14 19  0 14  2  5 14 19  5 18 22
  2 22 18 14 26  9  4]"
20000,68.0,1.0,7,3,137.07209825515747,4.6019768714904785,10396,80000,471939,4713126,"[ 0  1  3  2  2  1  4  3  0  2  3  1  2  0  3  4  8  5  3  2  7  4  4  4
  2  0  6  2  1  7  3  8  5  4  7  3  0  3  7  4  7  0  2  6  9  2  2  0
  2 10  1  3  0  0  4  3 16  1  0 18  1  1  2  4 14 19  3 14 19  5 22  1
  4  3  3 14 26  9  4]"
20100,68.0,1.0,7,3,137.5366325378418,4.645290374755859,10455,80400,474045,4727985,"[ 0  1  3  2  2  1  2  1  0  5  3  3  2  0  3  4  8  5  5  2  7  5  0  6
  2  8  4  2  4  7  3  8  5  4  4  3  2 12  7  3  3  6  4  3  5  2  2  0
  1 10 13  3 12  0  4 12 10  4  0 14  1 21 16  5 20 19  3 14 19  5  1  2
  0  2  3 14 26  9  4]"
20200,68.0,1.0,7,3,138.00825238227844,4.71616268157959,10511,80800,476239,4743387,"[ 0  1  3  2  2  1  2  3  0  3  3  0  2  0  3  4  8  5  0  6  6  5  8  5
  5  4  1  3  4  0  3  8  5  0  6  3  4  0  3  5  2  6  4  4  2  2  2  0
  1 14 17  1  1  3  4 16 17  1 11 14  1 23 14  5 15 15  5 14 19  2 14 19
  1 14 23 14 26  9  4]"
20300,68.0,1.0,7,3,138.53776025772095,5.2950263023376465,10564,81200,478258,4757582,"[ 0  1  3  2  2  1  2  2  0  2  0  0  2  0  3  4  8  5  2  7  6  1  0  8
  5  5  8  0  1  7  3  8  5  2  7  4  2  0  0  3 13  7  4  3  2  2  2  0
  2 14 10  0 11 15  4 12 13  2 12 11  3  0 22  3 23 16  5 14 19  4 14  0
  3 19 23 14 26  9  4]"
20400,68.0,1.0,7,3,138.99199748039246,4.542334079742432,10616,81600,480351,4772377,"[ 0  1  3  2  2  1  0  0  0  5  0  0  2  0  3  4  8  5  4  7  6  1  0  1
  5  0  2  5  1  7  3  8  5  0  5  0  2  4  3  2  6  2  1  6  3  2  2  0
  4 16 10  3 11 10  4 17 15  5 11 12  1 15 19  0 19 16  5 14 19  4 14 23
  5  3 15 14 26  9  4]"
20500,68.0,1.0,7,3,139.42754316329956,4.35542106628418,10671,82000,482466,4787130,"[ 0  1  3  2  2  1  0  0  2  0  3  0  2  0  3  4  8  5  4  5  2  3  3  1
  0  2  1  5  3  3  3  8  5  5  4  3  1  5 12  5  6  9  5  6 12  2  2  0
  5 14 14  3 17  1  4 15 17  3 11 11  2 22 20  0 17 15  5 14 19  2 20  0
  1  0  0 14 26  9  4]"
20600,68.0,1.0,7,3,139.85458970069885,4.2704033851623535,10719,82400,484620,4802195,"[ 0  1  3  2  2  1  5  1  2  4  2  1  2  0  3  4  8  5  3  0  4  3  3  4
  1  6  4  0  3  0  3  8  5  3 10  6  1  8  3  4  7 11  1  6  6  2  2  0
  5  3 14  2 14 15  1 14 17  3 14 16  3  0  2  3 18 15  3 14 19  3 20 16
  4 16 16 14 26  9  4]"
20700,68.0,1.0,7,3,140.2991280555725,4.445350170135498,10772,82800,486687,4816730,"[ 0  1  3  2  2  1  0  0  0  5  3  2  2  0  3  4  8  5  0  0  4  3  4  0
  3  1  6  2  3  7  3  8  5  0  1  6  5  0  3  3  1 12  1  6  6  2  2  0
  1 18 10  2  0 18  4  1 17  3 17  3  3 18  2  3 18 18  5 14 19  3 20 19
  4  3 14 14 26  9  4]"
20800,68.0,1.0,7,3,140.75018525123596,4.510538578033447,10829,83200,488676,4830770,"[ 0  1  3  2  2  1  2  0  0  5  3  0  2  0  3  4  8  5  5  3  2  0  6  3
  0  8  6  4  4  8  3  8  5  4  0  3  0 10  0  0  3  1  0  6  6  2  2  0
  1  0 10  2 14 17  4 17 14  2 14 17  3 15 20  2 22 18  3 14 19  1 22 16
  4 14 16 14 26  9  4]"
20900,68.0,1.0,7,3,141.232656955719,4.824678897857666,10878,83600,491012,4847170,"[ 3  3  1  2  2  1  4  3  1  5  1  0  2  0  3  4  8  5  3  8  7  1  8  2
  0  3  5  0  5  0  3  8  5  1  1  2  0 10  2  0  3  1  5  6 10  2  2  0
  4 10 10  5 14  0  3  3 15  3 13 13  5 20 14  4  1 23  5 14 19  5  3 20
  4 14 14 14 26  9 17]"
21000,68.0,1.0,7,3,141.77902793884277,5.463662147521973,10935,84000,493042,4861436,"[ 0  3  0  2  2  1  2  2  1  5  1  0  2  0  3  4  8  5  5  4  2  5  3  4
  5  1  6  3  8  2  3  8  5  1  4  0  0 11  5  0  3  1  4  0 10  2  2  0
  4  3 16  4  9 10  2 10  2  5 13 13  0 21 14  3 17 23  5 14 19  5  1 21
  4 14  3 14 26  9 17]"
21023,68.19999999999999,1.0,7,2,141.93104314804077,6.609118503072987,10950,84092,493528,4864829,"[ 0  3  1  2  2  1  2  2  2  5  1  0  2  0  3  4  8  5  0  4  2  5  3  4
  5  7  6  1  8  2  3  8  5  1  4  0  1 11  5  0  3  1  5  9  1  2  2  0
  0 14 16  4 14 10  2 10  2  4 13  3  2 21 14  1 17 23  3 17 19  0  0 16
  4  3  2 14 26  9 17]"
