generation,fitness,functionality,active_nodes,longest_path,time,gen_time,nc_gens,fitness_evals,graph_evals,node_evals,genotype
0,194.0,0.53125,4,2,0.016622066497802734,16.622066497802734,0,0,0,0,"[ 2  2  1  3  3  3  2  2  0  3  2  3  2  2  0  3  0  5  0  8  2  2  0  2
  4  3  1  5  4  2  2  9  1  5 11  5  0 12 12  5  4 13  2  9  8  4 12  3
  4  0  9  5  2  1  0 16 13  3 18 14  1 14  3  0 20  1  2 18  2  2  2 19
  0 17 18 13 12  2 16]"
100,331.0,0.96875,7,2,24.456040620803833,244.3941855430603,0,12800,145706,846795,"[ 4  1  0  2  2  2  0  1  2  0  0  0  0  0  1  0  1  2  1  7  3  0  0  2
  4  1  1  2  4  0  2  3  1  5 11 11  1  6  6  4  4  4  3  5  4  1 10 10
  5 16  9  0  1  2  0  0  3  3 12 14  0  3 20  4 22 21  3  0 14  2 18 21
  1  0  3 12 11 25 23]"
200,332.0,0.96875,6,2,47.036688804626465,225.80648183822632,0,25600,255438,1550774,"[ 5  3  3  0  3  1  0  1  2  4  0  1  3  1  1  3  8  6  2  4  4  0  0  2
  4  1  1  1  3  0  4 11  8  2  5 11  1  1  8  0  4  1  3  1  8  4 15 12
  3 11  3  0  1  2  0  0  3  3 11  3  1 23 17  4 22 21  4 14 14  5 14  2
  3 14 20 12 11 25  5]"
300,332.0,0.96875,6,2,68.122878074646,210.8618927001953,0,38400,367299,2251043,"[ 3  0  2  0  3  1  0  1  1  3  0  0  1  2  1  3  8  5  5  3  3  0  0  2
  4  1  1  5  5  5  3  7 10  4  6 13  5  6 13  4 11 10  3 10  1  3 10 17
  0  3 13  0  1  2  0  0  3  1 15  1  0 22 19  4 22 21  3 16 18  4 19 23
  5 18 22 12 11 25  5]"
400,332.0,0.96875,6,2,91.96690583229065,238.44027757644653,0,51200,474296,2921225,"[ 4  2  0  0  3  1  5  0  0  0  1  3  0  3  1  2  4  4  5  1  1  0  0  2
  4  1  1  4  5  6  5 13 13  1  4  1  3 10  2  3  5  8  2 11 10  0  9 17
  3 14 12  0  1  2  0  0  3  2  0 15  5 21 20  4 22 21  3  3  1  4 15  0
  1 19 22 12 11 25  8]"
500,337.0,0.984375,6,2,111.48351764678955,195.166118144989,0,64000,574992,3559599,"[ 1  2  2  2  3  2  0  0  0  1  3  3  0  3  1  0  3  0  2  1  3  0  0  2
  4  4  3  5  1  5  1 11 11  1  9 12  3 12  1  5  3  5  0 11  8  1  1 14
  0 16 14  0  1  2  0  0  3  2  9  2  0 20  3  4 22 21  1 17  0  2 17 19
  1 15 15 18 11 25  8]"
600,337.0,0.984375,6,2,128.25441884994507,167.70901203155518,0,76800,668402,4153970,"[ 3  0  0  2  2  3  3  0  3  5  3  0  0  3  1  4  8  5  2  3  7  0  0  2
  0  8  5  3  2  8  0  8 13  0 11  4  4  7 11  0  9 12  0 11  8  3 18 18
  1 10 11  0  1  2  0  0  3  4 15  3  0 16  3  4 22 21  2 17 16  4 17  3
  0 16 16 18 11 25  8]"
700,337.0,0.984375,6,2,144.80634140968323,165.5192255973816,0,89600,758782,4729188,"[ 4  2  0  0  2  0  0  2  3  2  2  1  0  3  1  2  0  1  4  4  7  0  0  2
  3  3  4  0  0  1  0  2 12  2 11  4  4  3  0  4  5 12  0 11  8  4 18 11
  0  0  0  0  1  2  0  0  3  1 17  2  1 18 16  4 22 21  4 21 21  5 18 22
  2  0  2 18 11 25  8]"
701,342,1.0,7,3,145.0899260044098,283.5845947265625,0,89728,759727,4735244,"[ 4  2  0  0  2  0  0  2  3  2  2  1  0  3  1  2  0  1  4  4  7  0  0  2
  3  3  4  0  0  1  0  2 12  2 11  4  4  3  0  4  5 12  0 11  8  4 18 11
  0  0  0  0  1  2  0  0  3  1 17  2  1 18 16  4 22 21  4 21 21  5 18 22
  2  0  2 18 19 25  8]"
800,342,1.0,7,3,158.32856464385986,133.7236226207078,0,102400,820991,5162366,"[ 3  3  0  0  0  3  3  2  1  5  1  3  0  3  1  0  0  5  2  3  2  0  0  2
  1  2  2  5  6  2  4  0  3  1  6  8  3  8  4  1 11  8  0 11  8  4 18 11
  1 10  0  0  1  2  0  0  3  0 14  1  4 18 21  4 22 21  4  0 17  4 15 23
  2 22  2 18 19 25  8]"
900,342,1.0,7,3,171.55650401115417,132.27939367294312,0,115200,882361,5592953,"[ 0  2  0  2  3  0  5  2  0  3  0  3  0  3  1  4  4  5  3  4  7  0  0  2
  5  7  3  2  4  8  5  8  7  3  2 12  4  5  2  2  7 11  0 11  8  4 18 11
  3  9  2  0  1  2  0  0  3  2 16 18  5 19 20  4 22 21  2 20  0  5  2  2
  2 17 15 18 19 25  8]"
1000,342,1.0,7,3,185.5561125278473,139.99608516693115,0,128000,943330,6020012,"[ 2  0  0  0  3  3  1  3  1  5  1  0  0  3  1  3  1  6  5  8  6  0  0  2
  3  3  3  5  2  1  1  2  4  1  6  3  5  6  2  0 10  6  0 11  8  4 18 11
  0 16  3  0  1  2  0  0  3  5  1 11  3 14 14  4 22 21  2  3 23  1 15 17
  0  3 15 18 19 25  8]"
1100,342,1.0,7,3,200.37278246879578,148.16669940948486,0,140800,1003869,6444254,"[ 2  2  2  2  1  2  1  0  0  5  1  2  0  3  1  5  0  7  4  6  3  0  0  2
  4  0  1  0  7  2  2  5  4  1  2  5  0  2  6  1  6  7  0 11  8  4 18 11
  0 17 17  0  1  2  0  0  3  4 11  0  2 23 18  4 22 21  1  3  3  2 17  2
  0 20  2 18 19 25  8]"
1200,342,1.0,7,3,214.8822100162506,145.09427547454834,0,153600,1065824,6877091,"[ 4  1  0  0  3  3  3  0  3  1  1  3  0  3  1  0  7  8  5  7  1  0  0  2
  3  6  5  5  0  7  1 13  4  3 11  5  3 10  6  1 10 13  0 11  8  4 18 11
  0  3  0  0  1  2  0 17  0  5 15 10  5 22  0  4 20 21  0  0 21  1  3 16
  3  1  1 18 19 25  8]"
1300,342,1.0,7,3,230.0939016342163,152.11691617965698,0,166400,1126340,7299285,"[ 0  3  2  4  0  2  0  2  0  4  0  2  0  3  1  5  2  5  4  3  6  0  0  2
  2  7  1  5  2  8  3  0  2  0 11  7  2 10 13  4  6  6  0 11  8  4 18 11
  0  3  0  0  1  2  1 14 10  0  1 14  4 20 18  4 20 21  0  0 19  5 17 23
  4  1 18 18 19 25  8]"
1400,342,1.0,7,3,245.4086034297943,153.14701795578003,0,179200,1187662,7727216,"[ 0  1  0  4  0  1  2  3  1  4  0  2  0  3  1  4  0  5  4  0  6  0  0  2
  2  8  8  1  4  8  4  1  4  5  0  1  4  2  1  1  8 13  0 11  8  4 18 11
  0  3  0  0  1  2  1 14 10  1 15  2  3 18  3  4 20 21  3 14 20  3  0 19
  2  2  2 18 19 25  8]"
1500,342,1.0,7,3,261.11093831062317,157.02334880828857,0,192000,1248452,8152241,"[ 3  2  1  4  3  1  2  2  0  1  2  2  0  3  1  3  8  5  3  8  8  0  0  2
  4  5  3  0  1  2  5  1 10  5 13 13  0  2 12  2  5  7  0 11  8  4 18 11
  0  3  0  0  1  2  2  1 16  1  3 10  0  3  1  4 20 21  5 16 21  1  1  1
  2 14 19 18 19 25  8]"
1600,342,1.0,7,3,275.6823573112488,145.7141900062561,0,204800,1308602,8573301,"[ 2  3  3  5  1  2  4  1  2  2  0  3  0  3  1  5  1  0  4  2  2  0  0  2
  3  1  7  1  5  8  1 12  2  5  9  7  2  5 13  1  5  6  0 11  8  4 18 11
  0  3  0  0  1  2  2  9  9  1  2  0  4 17  2  4 20 21  5  1 16  2 19 23
  2 23 21 18 19 25  8]"
1700,342,1.0,7,3,290.4367473125458,147.54390001296997,0,217600,1368903,8995079,"[ 3  1  2  1  3  2  5  1  2  2  2  1  0  3  1  0  1  5  3  2  7  0  0  2
  1  4  6  1  4  1  4  8  2  3  3  3  4  4  5  4  2  4  0 11  8  4 18 11
  0  3  0  0  1  2  4 14 17  1 16 10  2  3 20  4 20 21  4 15 21  2 15  1
  3 21 20 18 19 25  8]"
1800,342,1.0,7,3,305.9583284854889,155.21581172943115,0,230400,1429666,9420239,"[ 4  2  1  3  3  3  0  3  1  4  1  2  0  3  1  1  5  0  3  1  2  0  0  2
  1  5  7  2  7  3  0 12 13  3  0  4  2  6  1  5  1  0  0 11  8  4 18 11
  0  3  0  0  1  2  2  1 16  1 14 11  0 22 21  4 20 21  5 15 17  1 22 14
  3 15 22 18 19 25  8]"
1900,342,1.0,7,3,319.49141216278076,135.3308367729187,0,243200,1491333,9850372,"[ 1  0  0  5  0  0  0  0  3  1  1  3  0  3  1  4  3  0  1  5  8  0  0  2
  5  7  3  0  1  1  2  2 13  4  2  4  4  5 11  0  6 13  0 11  8  4 18 11
  0  3  0  0  1  2  0 13  3  5 14 15  5 18  1  4 20 21  5 20 18  3  1 21
  2 15  1 18 19 25  8]"
2000,342,1.0,7,3,335.45942425727844,159.6801209449768,0,256000,1552375,10276056,"[ 5  0  1  3  3  3  3  2  3  4  0  3  0  3  1  2  0  1  3  4  6  0  0  2
  1  8  7  3  4  4  5  7  4  5  8  3  1 12 11  0 12  2  0 11  8  4 18 11
  0  3  0  0  1  2  2  0  2  4 10 14  0 21 16  4 20 21  4 18 18  0 18 15
  4 23  1 18 19 25  8]"
2100,342,1.0,7,3,351.23250007629395,157.73075819015503,0,268800,1614614,10712288,"[ 4  0  2  5  1  1  5  1  2  5  0  1  0  3  1  3  4  3  2  4  8  0  0  2
  3  6  5  5  4  2  4  7  4  3 12  4  2  9 12  0  5 10  0 11  8  4 18 11
  0  3  0  0  1  2  4  9 11  1 10 18  1  2 23  4 20 21  1  2 22  0 17  3
  0 23  3 18 19 25  8]"
2200,342,1.0,7,3,365.51379323005676,142.81293153762817,0,281600,1674799,11133794,"[ 3  0  0  0  2  0  5  2  2  0  0  2  0  3  1  5  2  3  2  5  7  0  0  2
  2  1  4  0  2  1  1  4  0  4  1  1  1  6  0  3  8  6  0 11  8  4 18 11
  0  3  0  0  1  2  5 18  1  1  2 13  4  0 20  4 20 21  4  2  0  1 14 16
  1 14 19 18 19 25  8]"
2300,342,1.0,7,3,382.24844217300415,167.34648942947388,0,294400,1735609,11558912,"[ 0  3  0  1  0  2  5  1  3  1  0  2  0  3  1  3  2  5  4  0  3  0  0  2
  0  7  5  3  6  5  1  1  7  3  1  6  2 10  7  0 11  8  0 11  8  4 18 11
  0  3  0  0  1  2  5 14 17  1  3 13  3 23  2  4 20 21  4  3 14  5 14  0
  2 17  0 18 19 25  8]"
2400,342,1.0,7,3,397.4899318218231,152.4148964881897,0,307200,1797200,11990447,"[ 2  2  0  1  0  0  1  1  0  1  3  0  0  3  1  3  0  4  3  0  0  0  0  2
  3  4  7  2  8  7  4 10  0  2 13 10  2 12  7  4  0  7  0 11  8  4 18 11
  0  3  0  0  1  2  2 12  2  5  9 10  3 19  2  4 20 21  5 17  0  3  3  1
  2 15  1 18 19 25  8]"
2500,342,1.0,7,3,414.1214382648468,166.31506443023682,0,320000,1857630,12414301,"[ 4  1  2  5  2  3  0  3  1  2  0  2  0  3  1  4  6  5  1  1  2  0  0  2
  0  2  7  0  2  4  1  3  5  3  2 11  4 12 11  5  9 10  0 11  8  4 18 11
  0  3  0  0  1  2  1 13 11  5 16 11  4  3 17  4 20 21  5 22 17  3 18 19
  5  0 20 18 19 25  8]"
2600,342,1.0,7,3,431.65363478660583,175.32196521759033,0,332800,1919992,12850127,"[ 2  0  0  0  3  1  5  3  3  2  1  3  0  3  1  0  0  5  5  0  2  0  0  2
  3  7  6  4  1  3  4  6  2  3  6  4  1 10 13  2  3  5  0 11  8  4 18 11
  0  3  0  0  1  2  5 15 10  2  1 13  5 15 18  4 20 21  0  2 22  1 16 19
  5 22 15 18 19 25  8]"
2700,342,1.0,7,3,444.75995683670044,131.06322050094604,0,345600,1981141,13278207,"[ 4  2  1  5  0  1  3  3  3  4  0  1  0  3  1  5  0  4  5  1  2  0  0  2
  1  3  1  1  1  8  2 10  9  0  6  1  0  9  6  2 10  9  0 11  8  4 18 11
  0  3  0  0  1  2  0  3  0  5 18 10  5 16 20  4 20 21  4 15  2  3  2 22
  4  1 23 18 19 25  8]"
2800,342,1.0,7,3,458.1657335758209,134.05776739120483,0,358400,2042928,13710645,"[ 2  2  0  4  2  0  4  2  0  0  3  2  0  3  1  5  2  7  2  6  8  0  0  2
  3  0  0  1  7  8  2  6 12  4 13  6  4  5  7  2  8  1  0 11  8  4 18 11
  2 13 17  0  1  2  0  3  0  4 18 13  5  1 23  4 22 21  3 23  2  0 22 23
  3 16 18 18 19 25  8]"
2900,342,1.0,7,3,474.35593700408936,161.90203428268433,0,371200,2104377,14139467,"[ 2  0  2  1  0  1  1  2  1  4  1  1  0  3  1  0  3  4  2  0  5  0  0  2
  3  0  6  2  4  4  0  3  8  3  1  7  4  1  5  2 12 13  0 11  8  4 18 11
  0 15 15  0  1  2  0  3  0  0 18 11  1 17  0  4 22 21  3 23 20  0 20 19
  3  2  1 18 19 25  8]"
3000,342,1.0,7,3,491.2529377937317,168.97000789642334,0,384000,2165231,14565448,"[ 4  0  3  4  1  3  0  1  1  5  0  1  0  3  1  2  6  1  2  4  3  0  0  2
  1  6  6  5  2  7  4 10  2  0 13  1  4  7  7  0  2  8  0 11  8  4 18 11
  4  2 10  0  1  2  0  3  0  4 18  2  4  3 18  4 22 21  4 19 20  3 14 18
  3  2 19 18 19 25  8]"
3100,342,1.0,7,3,510.2781546115875,190.25216817855835,0,396800,2225189,14984623,"[ 0  1  3  3  1  3  2  2  3  5  1  0  0  3  1  3  0  8  3  2  1  0  0  2
  0  2  5  3  1  2  5  1  3  4  3  5  5  4 12  4  4 12  0 11  8  4 18 11
  2 16  0  0  1  2  0  3  0  4  0 18  2  0  0  4 22 21  4 22 20  0 18 22
  1  2 22 18 19 25  8]"
3200,342,1.0,7,3,526.2839136123657,160.05759000778198,0,409600,2286516,15412438,"[ 4  2  2  4  2  2  3  0  3  1  0  2  0  3  1  0  2  1  1  2  8  0  0  2
  4  3  5  4  4  1  3  3  6  3  5  1  1  4  6  5 13  9  0 11  8  4 18 11
  4 11  2  0  1  2  0  3  0  0 17 13  5 17 21  4 22 21  1 19 21  2 15 23
  0 16 19 18 19 25  8]"
3300,342,1.0,7,3,542.5361394882202,162.52225875854492,0,422400,2346565,15833456,"[ 2  1  1  3  0  0  0  1  3  3  3  3  0  3  1  5  0  6  4  5  1  0  0  2
  0  3  5  4  1  4  0  0  5  0 10 10  1  5  4  5  9  3  0 11  8  4 18 11
  2  2 12  0  1  2  0  3  0  4  3 17  1 17  0  4 22 21  3 23  1  3  1  0
  5 14 17 18 19 25  8]"
3400,342,1.0,7,3,559.1246819496155,165.88542461395264,0,435200,2406904,16255639,"[ 4  3  2  2  2  3  2  2  3  5  0  1  0  3  1  2  3  1  5  0  0  0  0  2
  5  3  1  4  7  0  5  2  7  1 11 13  5  5  8  2  5  3  0 11  8  4 18 11
  4  3 10  0  1  2  0  3  0  1 18 11  3  0 14  4 22 21  0 16 18  1 15  0
  1 18 16 18 19 25  8]"
3500,342,1.0,7,3,578.00532579422,188.80643844604492,0,448000,2467237,16676861,"[ 1  3  3  0  1  2  5  1  1  0  0  3  0  3  1  0  5  2  3  1  2  0  0  2
  3  1  3  5  0  7  4  2 11  3  0  4  2 11  4  1  8  8  0 11  8  4 18 11
  4  3  9  0  1  2  0  3  0  1 18 17  5  3  1  4 22 21  5 18 14  4 18 18
  5 20 21 18 19 25  8]"
3600,342,1.0,7,3,594.0991690158844,160.9384322166443,0,460800,2529106,17108859,"[ 2  1  1  3  3  0  5  2  3  4  0  3  0  3  1  1  0  0  4  1  2  0  0  2
  2  1  5  4  3  3  4  5  0  2  4 10  0  2  9  1  0  7  0 11  8  4 18 11
  2  0  3  0  1  2  0  3  0  1  0 18  4 19  3  4 22 21  2 18 17  5 15 19
  1 22 23 18 19 25  8]"
3700,342,1.0,7,3,612.5078172683716,184.08648252487183,0,473600,2590294,17536447,"[ 5  1  0  0  2  1  0  2  3  0  2  3  0  3  1  4  6  6  1  7  5  0  0  2
  1  8  3  0  6  0  0  4  3  4  3  0  0 11  3  0 13  2  0 11  8  4 18 11
  2 12  0  0  1  2  0  3  0  4  9 12  1  0 15  4 22 21  3 14 18  5 15 20
  1  1 15 18 19 25  8]"
3800,342,1.0,7,3,629.6952664852142,171.8744921684265,0,486400,2650663,17959055,"[ 0  3  2  5  2  2  4  1  2  4  3  0  0  3  1  1  1  6  5  6  3  0  0  2
  0  4  2  2  6  8  5 11  9  5  9  4  0  1  4  3  7  4  0 11  8  4 18 11
  5 13 17  0  1  2  0  3  0  3 18 14  5 17 16  4 22 21  3  1 16  5 21 21
  1 22 22 18 19 25  8]"
3900,342,1.0,7,3,647.1398458480835,174.44579362869263,0,499200,2711103,18382793,"[ 4  2  2  4  1  0  4  2  0  0  1  1  0  3  1  0  4  6  0  1  0  0  0  2
  0  5  5  3  7  5  5  0  7  3 12  3  2  3  6  5 12  4  0 11  8  4 18 11
  3 11 12  0  1  2  0  3  0  5 11 14  2 17 14  4 22 21  2  1 23  4 22  2
  4 14  3 18 19 25  8]"
4000,342,1.0,7,3,661.4396688938141,142.9982304573059,0,512000,2772197,18810213,"[ 4  2  1  2  3  1  4  1  2  0  0  2  0  3  1  3  8  3  0  5  5  0  0  2
  2  6  0  2  8  3  2  3  2  5  4  6  4 12 10  0  5 12  0 11  8  4 18 11
  4  3 15  0  1  2  0  3  0  2  0 10  5 15  3  4 22 21  5 20 22  0 19  3
  4 17 20 18 19 25  8]"
4100,342,1.0,7,3,677.8240113258362,163.84342432022095,0,524800,2832472,19232143,"[ 1  1  3  1  0  1  2  0  1  1  0  2  0  3  1  2  8  6  0  4  8  0  0  2
  0  7  1  2  8  0  4 12  6  2  7 11  1  2  1  4  7  9  0 11  8  4 18 11
  5  2 14  0  1  2  0  3  0  0  2 10  5 19  1  4 22 21  3 20 21  2  1 21
  2  3 16 18 19 25  8]"
4200,342,1.0,7,3,693.5232877731323,156.99276447296143,0,537600,2892811,19654460,"[ 2  2  1  2  0  3  1  2  2  1  1  0  0  3  1  0  4  4  2  2  5  0  0  2
  0  8  1  2  8  6  0  6  8  1  5  4  4  3  6  3 13  0  0 11  8  4 18 11
  2 16  2  0  1  2  0  3  0  2  1  3  5  0 18  4 22 21  4 15 21  4 19 21
  5 17  2 18 19 25  8]"
4300,342,1.0,7,3,707.2055718898773,136.82284116744995,0,550400,2953241,20077033,"[ 4  1  1  0  3  3  0  0  2  3  2  2  0  3  1  0  3  3  5  8  6  0  0  2
  0  4  1  0  8  1  3  1 12  1  4 10  5  9  9  3  7 12  0 11  8  4 18 11
  2  0 15  0  1  2  0  3  0  0 10  9  5 16 20  4 22 21  1 15 19  4 23 20
  5 22  1 18 19 25  8]"
4400,342,1.0,7,3,723.2221746444702,160.16602754592896,0,563200,3013141,20498060,"[ 3  1  0  4  1  2  1  1  2  5  1  1  0  3  1  2  6  0  0  1  6  0  0  2
  5  0  7  3  4  1  1 12  8  4  8 10  2 12 12  1  6  3  0 11  8  4 18 11
  1  9 13  0  1  2  0  3  0  5  9 14  2  1  0  4 22 21  1 16 23  1 14 17
  2 16 20 18 19 25  8]"
4500,342,1.0,7,3,739.8080885410309,165.8591389656067,0,576000,3073845,20923104,"[ 5  2  0  1  2  0  3  0  0  1  2  0  0  3  1  2  3  6  1  1  0  0  0  2
  2  3  8  0  3  0  2  5  4  1  3  4  2 11 12  4  4  9  0 11  8  4 18 11
  4  9 12  0  1  2  0  3  0  5 14  1  4  2 18  4 22 21  0 23  3  5 18  1
  5 21  2 18 19 25  8]"
4600,342,1.0,7,3,754.4766204357147,146.68531894683838,0,588800,3134218,21345120,"[ 0  1  0  0  3  3  2  1  3  4  1  3  0  3  1  4  6  2  3  6  7  0  0  2
  4  6  6  0  4  1  4  8 10  1  7  6  4 11  0  2  0  3  0 11  8  4 18 11
  5  9  1  0  1  2  0  3  0  3  3 13  1 14 14  4 22 21  0 23 17  0 21 19
  4 22 23 18 19 25  8]"
4700,342,1.0,7,3,769.6062455177307,151.2962508201599,0,601600,3194413,21766320,"[ 1  1  1  1  2  3  3  2  1  3  0  1  0  3  1  4  7  5  5  6  5  0  0  2
  0  3  6  3  4  8  1  5 12  4  9  2  4  2  4  5  3  7  0 11  8  4 18 11
  0 12 13  0  1  2  0  3  0  3 17 14  1 16  1  4 22 21  2 19  0  4 14 15
  2 23 17 18 19 25  8]"
4800,342,1.0,7,3,784.5910594463348,149.84813928604126,0,614400,3255689,22195685,"[ 2  1  1  1  0  0  4  2  1  4  3  1  0  3  1  2  4  6  0  2  6  0  0  2
  3  1  8  0  4  4  3  4  5  5  0  2  4 12  5  3  9 11  0 11  8  4 18 11
  4 11  3  0  1  2  0  3  0  5 14 13  5 18 16  4 22 21  3 17 19  3 15 22
  0 19  0 18 19 25  8]"
4900,342,1.0,7,3,799.1006665229797,145.09607076644897,0,627200,3316624,22622192,"[ 0  2  2  2  2  3  2  3  0  4  3  3  0  3  1  4  3  6  2  4  5  0  0  2
  2  8  2  1  4  7  4 13  9  3  8  4  5  9 10  0 13  2  0 11  8  4 18 11
  2 17 17  0  1  2  0  3  0  1 12  1  3 21 18  4 22 21  5 14 14  0  2  2
  5  2 19 18 19 25  8]"
5000,342,1.0,7,3,811.922479391098,128.21812868118286,0,640000,3377778,23049478,"[ 2  2  0  1  0  3  3  0  1  3  0  3  0  3  1  0  3  0  0  4  3  0  0  2
  0  8  2  2  6  3  3  2  0  3  0  8  5 10  8  5 10  7  0 11  8  4 18 11
  0 18 12  0  1  2  0  3  0  1 12  0  1 19 17  4 22 21  1 16 18  2 23  2
  4 17  2 18 19 25  8]"
5100,342,1.0,7,3,825.1024451255798,131.79965734481812,0,652800,3439587,23481521,"[ 5  3  1  1  3  2  1  1  0  4  2  3  0  3  1  4  8  6  3  2  8  0  0  2
  3  4  8  2  1  8  0  1  9  2  9  4  4  6 13  3  3  5  0 11  8  4 18 11
  3 14 11  0  1  2  0  3  0  1  9  9  1 14 23  4 22 21  3 19  2  2 16  3
  4 21 18 18 19 25  8]"
5200,342,1.0,7,3,837.689644575119,125.87199449539186,0,665600,3499367,23899751,"[ 0  0  1  4  3  2  4  1  3  1  1  0  0  3  1  1  3  3  5  5  7  0  0  2
  5  5  6  1  4  8  3 13  4  4  5  1  3  6  9  1 10 11  0 11  8  4 18 11
  4 11  1  0  1  2  0  3  0  5 13  1  4 14 17  4 22 21  0 19  3  0  0  1
  2 20 18 18 19 25  8]"
5300,342,1.0,7,3,851.0603022575378,133.70657682418823,0,678400,3560337,24324801,"[ 4  1  0  5  3  1  1  3  0  1  0  1  0  3  1  3  6  7  4  1  2  0  0  2
  3  8  7  2  1  3  5 13 12  5  6 11  3  8  2  4  5  0  0 11  8  4 18 11
  0 11  2  0  1  2  0  3  0  3 17  3  2 19 23  4 22 21  2  1 18  2  3 21
  3 23 16 18 19 25  8]"
5400,342,1.0,7,3,864.5025849342346,134.42282676696777,0,691200,3620956,24748027,"[ 5  0  1  2  1  1  1  2  3  3  0  2  0  3  1  1  1  1  3  4  3  0  0  2
  4  1  4  4  2  6  5  1  8  2  5  9  0  7  9  4 10  9  0 11  8  4 18 11
  0  1  1  0  1  2  0  3  0  0  9 18  2  1 20  4 22 21  1 16 14  0 22 16
  0 14  0 18 19 25  8]"
5500,342,1.0,7,3,877.8927416801453,133.90156745910645,0,704000,3682650,25179602,"[ 5  0  1  3  2  0  0  3  2  4  0  3  0  3  1  1  0  8  5  5  6  0  0  2
  0  5  3  4  8  3  3  5  4  3  1 10  2  7  9  3  1  8  0 11  8  4 18 11
  5 11 13  0  1  2  0  3  0  4 15  9  2 17 20  4 22 21  1 16 16  1  1 22
  1 21 21 18 19 25  8]"
5600,342,1.0,7,3,890.6391716003418,127.46429920196533,0,716800,3743749,25607154,"[ 0  0  3  0  2  1  4  1  2  4  0  0  0  3  1  3  4  7  3  7  8  0  0  2
  4  1  5  5  1  4  5 10  6  4  2  1  4  4  9  2  0  4  0 11  8  4 18 11
  3 15 10  0  1  2  0  3  0  1 15  1  4 20  0  4 22 21  0 20  0  2 22 17
  1  0 21 18 19 25  8]"
5700,342,1.0,7,3,903.5871946811676,129.48023080825806,0,729600,3805548,26040823,"[ 1  0  2  1  3  1  0  0  0  4  1  3  0  3  1  5  3  8  0  3  1  0  0  2
  5  7  8  2  6  4  1 12  0  3  6  3  1  9  5  2 13  8  0 11  8  4 18 11
  3 16 16  0  1  2  0  3  0  5 10  1  4 21 22  4 22 21  4 20  0  5 18 16
  0  2 23 18 19 25  8]"
5800,342,1.0,7,3,916.2984530925751,127.11258411407469,0,742400,3865236,26459190,"[ 2  0  2  0  3  2  5  3  1  3  1  1  0  3  1  0  1  5  0  6  1  0  0  2
  1  5  6  1  1  2  0  9  9  1  8  3  0 11 10  4  2  4  0 11  8  4 18 11
  1 15 16  0  1  2  0  3  0  3  0 13  3 18  0  4 22 21  1 18 18  1  2  0
  1 20  3 18 19 25  8]"
5900,342,1.0,7,3,929.182868719101,128.8441562652588,0,755200,3927239,26892542,"[ 1  0  3  4  0  1  4  3  0  3  0  3  0  3  1  1  0  8  0  8  2  0  0  2
  5  7  7  0  5  7  0  0  3  3 12 13  4  5  2  0  8 12  0 11  8  4 18 11
  3  3 18  0  1  2  1  1 12  3 13 13  4 15 23  4 14 21  1 17 14  5 21 16
  0 21 22 18 19 25  8]"
6000,342,1.0,7,3,942.2864055633545,131.0353684425354,0,768000,3989614,27329187,"[ 1  2  1  4  1  2  3  1  2  0  1  3  0  3  1  3  6  4  4  1  0  0  0  2
  2  0  8  3  3  6  0  0  3  1  2  3  4 13 11  4 11  9  0 11  8  4 18 11
  1 14  3  0  1  2  1 10  3  0  0 18  0 21 18  4 14 21  5 23 21  3 14  0
  1 17  2 18 19 25  8]"
6100,342,1.0,7,3,955.3713915348053,130.84985971450806,0,780800,4051864,27764082,"[ 4  2  2  0  3  0  2  1  0  0  1  0  0  3  1  2  6  8  0  7  4  0  0  2
  1  1  3  4  6  7  0  0  3  4 10  9  0  2  2  3  9  5  0 11  8  4 18 11
  2 12  2  0  1  2  5 18  3  0  1 14  0  3  2  4 14 21  4 14 14  1 16 21
  4  0 15 18 19 25  8]"
6200,342,1.0,7,3,968.3669619560242,129.95570421218872,0,793600,4114114,28199860,"[ 2  1  0  0  3  3  4  3  0  1  3  2  0  3  1  4  6  6  1  2  3  0  0  2
  2  6  0  5  8  2  0  0  3  4  5 10  5  2 12  1  0 13  0 11  8  4 18 11
  3 16 16  0  1  2  3 11 18  5 10 14  5 15 18  4 14 21  3 18 16  5  2 14
  4 16 15 18 19 25  8]"
6300,342,1.0,7,3,981.173024892807,128.06062936782837,0,806400,4175915,28632242,"[ 5  2  0  5  0  1  0  2  0  0  3  1  0  3  1  4  0  3  0  2  7  0  0  2
  0  1  3  5  5  7  0  0  3  5 11  4  0  3 12  0  2  7  0 11  8  4 18 11
  0  1 16  0  1  2  4 18 17  4  9 18  5 17  3  4 14 21  1  3 18  4 19 23
  1 14 17 18 19 25  8]"
6400,342,1.0,7,3,994.0731356143951,129.00110721588135,0,819200,4238859,29072513,"[ 3  1  2  5  0  3  5  1  1  0  2  2  0  3  1  2  0  5  2  0  5  0  0  2
  2  4  0  2  6  2  0  0  3  2  7 12  2 13  8  4  9  1  0 11  8  4 18 11
  0  0 17  0  1  2  0 14 12  1  0  0  3 14  3  4 14 21  5 14  1  2 20 14
  2 23  2 18 19 25  8]"
6500,342,1.0,7,3,1007.1454486846924,130.7231307029724,0,832000,4302243,29516076,"[ 3  1  3  2  1  2  3  3  2  2  0  0  0  3  1  2  1  2  5  4  1  0  0  2
  4  1  6  3  7  2  0  0  3  5 10  9  0  3  5  1  9 13  0 11  8  4 18 11
  3  1 14  0  1  2  5  1 17  0  2  3  5 15 19  4 14 21  0  0 17  0  0 18
  1  0  1 18 19 25  8]"
6600,342,1.0,7,3,1019.9839661121368,128.38517427444458,0,844800,4364046,29948122,"[ 1  1  1  3  2  1  1  1  0  1  3  0  0  3  1  5  5  6  3  3  8  0  0  2
  1  7  5  2  1  6  0  0  3  3  6  5  2  6  5  1  5  7  0 11  8  4 18 11
  2  9 18  0  1  2  5 10 16  3 12 11  5 17  3  4 14 21  4  3  0  5  0  2
  5  3  0 18 19 25  8]"
6700,342,1.0,7,3,1034.9562418460846,149.72275733947754,0,857600,4425967,30381151,"[ 3  3  3  2  1  0  2  1  0  3  0  2  0  3  1  5  7  3  2  0  0  0  0  2
  4  6  6  0  6  4  0  0  3  2 12  2  2 10  5  4 13 12  0 11  8  4 18 11
  1 17 17  0  1  2  2  0  2  3 10 18  1 18  0  4 14 21  2 19 17  1 20 16
  0 16 14 18 19 25  8]"
6800,342,1.0,7,3,1052.158658504486,172.0241665840149,0,870400,4488245,30815610,"[ 5  3  2  3  2  0  4  2  1  2  0  2  0  3  1  2  4  4  3  0  0  0  0  2
  2  2  3  3  8  8  0  0  3  1 11  7  0  5  9  3 11  0  0 11  8  4 18 11
  4  1 14  0  1  2  2  9 15  2 12  9  5 15 19  4 14 21  3 15 19  1  3  0
  0 14 14 18 19 25  8]"
6900,342,1.0,7,3,1068.4989840984344,163.40325593948364,0,883200,4551213,31254506,"[ 4  2  2  4  2  0  2  3  0  3  3  1  0  3  1  3  2  2  1  5  0  0  0  2
  5  3  6  2  8  8  0  0  3  3 11  5  4  9 11  4  5 11  0 11  8  4 18 11
  4  1 17  0  1  2  0 17 11  5 16  9  3  3 16  4 14 21  1  1  0  0  3 14
  2 15 18 18 19 25  8]"
7000,342,1.0,7,3,1083.9291412830353,154.3015718460083,0,896000,4613068,31686670,"[ 0  0  0  0  3  3  2  1  3  2  3  0  0  3  1  0  3  6  2  0  2  0  0  2
  5  3  4  0  8  5  0  0  3  1 11  9  5 13  4  3  7 10  0 11  8  4 18 11
  2 15 12  0  1  2  4 14 15  5 11 16  5  2 18  4 14 21  0 22 16  0 19 16
  0 16 18 18 19 25  8]"
7100,342,1.0,7,3,1097.3398835659027,134.10742282867432,0,908800,4674589,32117437,"[ 5  3  0  0  3  2  4  2  2  3  3  3  0  3  1  3  4  6  2  8  1  0  0  2
  4  7  5  2  2  5  0  0  3  4 12 13  0  8  6  1  8  3  0 11  8  4 18 11
  2 18  0  0  1  2  3  9 18  0  9  9  3  1 15  4 14 21  3 20 16  0  3 19
  1 22 18 18 19 25  8]"
7200,342,1.0,7,3,1111.6850545406342,143.45170974731445,0,921600,4737628,32557866,"[ 4  3  2  4  0  3  1  3  1  1  0  3  0  3  1  4  3  5  3  6  6  0  0  2
  2  0  6  0  3  3  0  0  3  2 10  6  3 10  8  0 13  9  0 11  8  4 18 11
  4  0  0  0  1  2  3  0 11  0 16 17  0 23  0  4 14 21  4 21 18  3 20  0
  0  0 19 18 19 25  8]"
7300,342,1.0,7,3,1125.5248839855194,138.39829444885254,0,934400,4800708,32998096,"[ 4  3  3  0  1  0  4  1  1  0  1  2  0  3  1  2  7  4  3  5  6  0  0  2
  3  0  4  1  2  8  0  0  3  1 11  5  1 13  7  5  3  5  0 11  8  4 18 11
  2 14 17  0  1  2  1 17 11  0 13 14  4 17 14  4 14 21  1  2  1  0 15  2
  2 20 19 18 19 25  8]"
7400,342,1.0,7,3,1138.9260849952698,134.01201009750366,0,947200,4864655,33444033,"[ 1  3  1  0  1  0  5  0  0  3  2  0  0  3  1  1  4  1  0  0  2  0  0  2
  5  4  0  4  2  2  0  0  3  2  1  9  1  4  9  3  5  1  0 11  8  4 18 11
  1  0 11  0  1  2  2  9 18  0  9 14  0  1 19  4 14 21  3 23 16  4 15 19
  5 14 14 18 19 25  8]"
7500,342,1.0,7,3,1151.7381253242493,128.12040328979492,0,960000,4926509,33874834,"[ 1  1  1  0  1  2  2  2  2  1  0  0  0  3  1  3  2  8  5  2  5  0  0  2
  1  2  1  3  8  2  0  0  3  5 10  5  1  4  5  5 12  7  0 11  8  4 18 11
  3 15 16  0  1  2  3  0 15  1  9  0  2  1 21  4 14 21  5 19 14  0 15 15
  2 18  2 18 19 25  8]"
7600,342,1.0,7,3,1164.6248366832733,128.86711359024048,0,972800,4988510,34308493,"[ 1  3  3  4  0  3  3  3  2  0  0  3  0  3  1  3  5  1  3  6  2  0  0  2
  3  2  1  5  4  8  0  0  3  1  7 12  3  0  2  1 10  0  0 11  8  4 18 11
  3 18  1  0  1  2  3  1 14  5 12 10  3  3  2  4 14 21  0 22 20  3 20 16
  3  3 16 18 19 25  8]"
7700,342,1.0,7,3,1179.7398073673248,151.14970684051514,0,985600,5051179,34746233,"[ 3  3  0  3  1  0  1  2  0  3  1  3  0  3  1  5  7  0  3  8  5  0  0  2
  4  5  2  3  8  4  0  0  3  4  4  8  2  8  1  2  9 10  0 11  8  4 18 11
  2  2 13  0  1  2  4 17 10  5 15 13  2 23 21  4 14 21  5 16  0  2 14 21
  5  3  1 18 19 25  8]"
7800,342,1.0,7,3,1192.8037769794464,130.63969612121582,0,998400,5113819,35183650,"[ 5  2  2  4  0  3  0  1  2  2  1  3  0  3  1  2  0  6  5  4  2  0  0  2
  1  8  6  4  2  8  0  0  3  1  2  7  2 13 12  0  5 13  0 11  8  4 18 11
  5  1  2  0  1  2  1 16 18  4 11 11  4 20 14  4 14 21  4  0 18  4 18 20
  2 23  2 18 19 25  8]"
7900,342,1.0,7,3,1205.8732779026031,130.69500923156738,0,1011200,5176378,35621081,"[ 2  0  3  4  2  1  1  1  0  5  1  1  0  3  1  3  5  6  0  3  7  0  0  2
  3  5  0  4  4  4  0  0  3  0 12  6  0  4  3  1  0  6  0 11  8  4 18 11
  4 12 17  0  1  2  0 16 17  4 15 16  1 14 23  4 14 21  0 19  2  2 23  1
  0 19 19 18 19 25  8]"
8000,342,1.0,7,3,1218.8564746379852,129.8319673538208,0,1024000,5238334,36055081,"[ 0  0  1  0  1  3  0  3  3  2  3  1  0  3  1  3  5  6  0  2  5  0  0  2
  1  4  5  3  3  5  0  0  3  1  4  1  1 12  1  3  7 11  0 11  8  4 18 11
  1  9  0  0  1  2  3  0  1  1  1 16  2  3 15  4 14 21  1 14 15  4 17 14
  5 20 16 18 19 25  8]"
8100,342,1.0,7,3,1232.484736919403,136.28262281417847,0,1036800,5302183,36500682,"[ 3  0  2  5  1  2  5  2  2  5  1  0  0  3  1  5  7  0  4  2  8  0  0  2
  0  1  5  1  3  2  0  0  3  3  6  9  0  6  1  4  1  5  0 11  8  4 18 11
  2 17 14  0  1  2  2 14  1  0  2  0  4 18 18  4 14 21  0  3 16  5 16 23
  1  3  0 18 19 25  8]"
8200,342,1.0,7,3,1245.7948479652405,133.10111045837402,0,1049600,5365209,36940873,"[ 1  3  1  2  3  0  5  0  0  5  0  1  0  3  1  2  4  3  3  7  8  0  0  2
  2  8  7  2  0  3  0  0  3  5  7  3  4  5  0  4  1 11  0 11  8  4 18 11
  2 14 12  0  1  2  2 18  0  5  1  1  3 22 19  4 14 21  1 22 16  2 22 22
  2 22 19 18 19 25  8]"
8300,342,1.0,7,3,1260.5099158287048,147.15067863464355,0,1062400,5428082,37379364,"[ 3  2  0  4  1  1  3  1  0  5  0  1  0  3  1  2  2  0  0  3  0  0  0  2
  3  5  1  5  7  8  0  0  3  4  2  3  0  1  1  0  7  9  0 11  8  4 18 11
  4  9 18  0  1  2  0 16 15  0  9 16  3 15 17  4 14 21  4 20  0  0 23 23
  4 20 16 18 19 25  8]"
8400,342,1.0,7,3,1273.6440272331238,131.34111404418945,0,1075200,5491862,37824771,"[ 1  2  1  4  2  1  4  0  3  0  3  1  0  3  1  3  5  0  4  6  2  0  0  2
  0  7  0  3  2  2  0  0  3  4 13 11  4 13  7  0  5  5  0 11  8  4 18 11
  5 10 10  0  1  2  5  2 17  5 15 15  5 23 22  4 14 21  2  0  1  5 18 22
  3  3  0 18 19 25  8]"
8500,342,1.0,7,3,1286.9203655719757,132.7633833885193,0,1088000,5554836,38264786,"[ 0  1  2  5  1  0  2  1  3  4  2  1  0  3  1  5  4  3  5  3  8  0  0  2
  3  6  7  1  7  0  0  0  3  1  4  7  3  7  8  3 11  4  0 11  8  4 18 11
  5 10 17  0  1  2  2  3  2  3  3 15  2 23 23  4 14 21  0 20  2  2 23 22
  3 15 21 18 19 25  8]"
8600,342,1.0,7,3,1300.6895728111267,137.69207239151,0,1100800,5616949,38699092,"[ 3  1  0  0  3  1  4  0  1  4  2  0  0  3  1  0  6  2  5  8  0  0  0  2
  3  3  6  5  3  7  0  0  3  1  0 13  5  0 11  1  7  6  0 11  8  4 18 11
  5  9 13  0  1  2  4 17 15  2 13 17  2 14 21  4 14 21  5 16 16  3 15 18
  5  0 19 18 19 25  8]"
8700,342,1.0,7,3,1313.6287724971771,129.39199686050415,0,1113600,5678891,39132464,"[ 2  3  0  3  1  3  3  0  1  1  0  3  0  3  1  2  3  7  5  7  7  0  0  2
  5  2  8  2  3  3  0  0  3  2  7 13  3  3  8  3 12 10  0 11  8  4 18 11
  3  9 12  0  1  2  2 17 11  5  9  0  1  3 15  4 14 21  5  1 21  3 23 22
  2 20  2 18 19 25  8]"
8800,342,1.0,7,3,1326.5813179016113,129.52545404434204,0,1126400,5740043,39560237,"[ 2  1  0  0  3  2  4  3  3  1  0  2  0  3  1  5  1  4  3  1  7  0  0  2
  5  8  6  3  0  2  0  0  3  2  1  4  5  1 11  0  0  7  0 11  8  4 18 11
  5 18 15  0  1  2  1  3 14  4 15 16  5 15  0  4 14 21  4 14 17  0 23 23
  1 21 23 18 19 25  8]"
8900,342,1.0,7,3,1339.539601802826,129.582839012146,0,1139200,5802254,39995181,"[ 4  1  0  5  0  0  2  0  3  4  2  3  0  3  1  2  0  5  1  6  4  0  0  2
  2  7  0  2  0  2  0  0  3  1  6  6  5  5  7  4  0 10  0 11  8  4 18 11
  4 13 11  0  1  2  1  1  9  3  2 12  1 23 14  4 14 21  3 19  3  3 20  0
  5 20 18 18 19 25  8]"
9000,342,1.0,7,3,1352.8151416778564,132.75539875030518,0,1152000,5866087,40441859,"[ 4  2  0  4  2  2  2  2  1  3  1  1  0  3  1  5  4  3  1  4  0  0  0  2
  5  8  5  2  3  7  0  0  3  0  6  1  1 11  5  5 13  9  0 11  8  4 18 11
  4 15 16  0  1  2  2  1 13  0 10 16  5  3 21  4 14 21  4 15 20  4 16 21
  1 15  0 18 19 25  8]"
9100,342,1.0,7,3,1366.0563478469849,132.41206169128418,0,1164800,5929437,40883888,"[ 0  2  3  4  2  2  0  3  3  0  3  2  0  3  1  5  4  3  3  2  4  0  0  2
  5  6  7  4  5  3  0  0  3  2  7  7  1  2  5  4  7  7  0 11  8  4 18 11
  5 10 14  0  1  2  1 10 18  1 11  0  4  0 16  4 14 21  3 20 20  3 15  0
  4  1 21 18 19 25  8]"
9200,342,1.0,7,3,1379.0154728889465,129.5912504196167,0,1177600,5991650,41318254,"[ 2  2  0  5  1  0  5  3  3  5  0  2  0  3  1  5  4  8  2  8  6  0  0  2
  3  3  5  5  3  3  0  0  3  0 13  3  1  1 11  0 12 12  0 11  8  4 18 11
  4 11 17  0  1  2  1  2 10  3  9 10  2  0 18  4 14 21  5 22  0  0 19  0
  1  3  0 18 19 25  8]"
9300,342,1.0,7,3,1392.5831761360168,135.67703247070312,0,1190400,6055421,41763823,"[ 5  2  3  5  0  2  5  0  0  2  0  1  0  3  1  0  1  5  2  1  2  0  0  2
  5  7  8  5  1  2  0  0  3  0  7 13  0  9  8  3 10  9  0 11  8  4 18 11
  3  9 10  0  1  2  1  0  3  5  1 17  4 19  1  4 14 21  0  3  2  0  3  0
  5 17 15 18 19 25  8]"
9400,342,1.0,7,3,1405.6861996650696,131.03023529052734,0,1203200,6117427,42196979,"[ 2  1  2  4  0  2  2  1  2  5  0  3  0  3  1  3  5  8  5  2  0  0  0  2
  4  6  5  0  1  4  0  0  3  5  6  2  1  4  1  4  1 10  0 11  8  4 18 11
  5 10 15  0  1  2  1 11  1  1 15 17  0  3 17  4 14 21  2 15  3  4  2 21
  2 14 20 18 19 25  8]"
9500,342,1.0,7,3,1419.0232484340668,133.37048768997192,0,1216000,6179195,42628310,"[ 4  2  3  5  3  2  2  1  1  3  0  2  0  3  1  4  8  8  5  1  4  0  0  2
  0  6  1  5  3  4  0  0  3  0  5  4  2 12  4  3  3 13  0 11  8  4 18 11
  1 10 14  0  1  2  1 13 13  4 13 17  1 20 16  4 14 21  4 17 23  4 15 18
  0 16 23 18 19 25  8]"
9600,342,1.0,7,3,1431.839450120926,128.1620168685913,0,1228800,6241404,43062846,"[ 4  2  3  0  3  0  2  3  0  2  2  1  0  3  1  2  3  6  3  7  5  0  0  2
  5  0  1  2  5  0  0  0  3  0  2  0  5 13  5  5 10 10  0 11  8  4 18 11
  2 13  9  0  1  2  5 12 18  3 12  0  4  3 23  4 14 21  2 21 15  2 15 18
  2 22  1 18 19 25  8]"
9700,342,1.0,7,3,1444.80428814888,129.64838027954102,0,1241600,6303818,43499168,"[ 5  0  0  5  0  2  5  2  2  4  3  1  0  3  1  4  0  2  5  7  4  0  0  2
  5  4  7  3  2  3  0  0  3  4  7 11  4 10 10  4  5  2  0 11  8  4 18 11
  0  1 17  0  1  2  2 18 16  2  0 16  5 16 22  4 14 21  2 20 22  0  2  2
  3 15 14 18 19 25  8]"
9800,342,1.0,7,3,1458.2525010108948,134.4821286201477,0,1254400,6365220,43929356,"[ 0  3  3  4  1  2  1  3  2  0  0  2  0  3  1  3  3  8  0  1  1  0  0  2
  2  6  0  3  6  8  0  0  3  5  7 10  4 13  9  3  9  5  0 11  8  4 18 11
  2 12  3  0  1  2  4  0 13  1 16 14  3 18 16  4 14 21  3 23 14  0 17  2
  5 22 16 18 19 25  8]"
9900,342,1.0,7,3,1471.596046924591,133.4354591369629,0,1267200,6426313,44356215,"[ 2  1  1  2  1  1  0  2  3  5  2  3  0  3  1  1  8  3  3  6  6  0  0  2
  1  5  5  4  3  4  0  0  3  0  4  7  4 13  1  4 10  7  0 11  8  4 18 11
  4  9  0  0  1  2  1 13 16  3 11 14  2 15 21  4 14 21  3 20  3  1  0 18
  3 18 23 18 19 25  8]"
10000,342,1.0,7,3,1484.892926454544,132.96879529953003,0,1280000,6488534,44790175,"[ 5  1  1  1  0  0  4  1  3  3  0  2  0  3  1  5  8  0  2  4  1  0  0  2
  3  0  1  1  1  5  0  0  3  3  1  6  2  1 13  3  1  1  0 11  8  4 18 11
  3 17 11  0  1  2  4  3  1  3 18 17  3  1  0  4 14 21  5  1  1  0 18  2
  5 18  0 18 19 25  8]"
10100,342,1.0,7,3,1498.123194694519,132.30268239974976,0,1292800,6551298,45226883,"[ 3  0  1  1  1  3  3  3  0  1  1  3  0  3  1  2  5  6  5  6  7  0  0  2
  1  0  7  3  1  8  0  0  3  5  6  1  2  0 13  1  4  4  0 11  8  4 18 11
  2  1 10  0  1  2  2 15 11  5  9 14  4 17  3  4 14 21  5  0 23  5  3  3
  3  1  2 18 19 25  8]"
10200,342,1.0,7,3,1511.1230821609497,129.99887466430664,0,1305600,6613681,45663391,"[ 2  2  2  1  2  2  3  1  3  1  1  0  0  3  1  4  2  5  4  6  8  0  0  2
  4  2  4  0  0  2  0  0  3  0 11  5  0  1  7  1 10  9  0 11  8  4 18 11
  0 18 12  0  1  2  2  9 12  2 17  1  0 14 20  4 14 21  1 21 14  2 23 16
  2 20 17 18 19 25  8]"
10300,342,1.0,7,3,1524.1480679512024,130.24985790252686,0,1318400,6675851,46097536,"[ 1  0  3  1  3  3  5  1  2  2  2  2  0  3  1  5  0  3  4  6  1  0  0  2
  0  1  2  3  5  5  0  0  3  0  3 12  4  4  7  2  8  3  0 11  8  4 18 11
  0 18  2  0  1  2  3 14 11  0 13  2  4  0 16  4 14 21  1 14 18  3 19 16
  1  2 19 18 19 25  8]"
10400,342,1.0,7,3,1537.2395946979523,130.91526746749878,0,1331200,6737270,46525640,"[ 3  3  1  5  1  0  5  2  3  5  1  3  0  3  1  5  6  8  0  0  7  0  0  2
  1  7  5  0  2  5  0  0  3  0  7  9  4 10 10  2  9  7  0 11  8  4 18 11
  1 18  2  0  1  2  5 14  3  3  1  2  4  0  2  4 14 21  3 17 16  3  2  0
  5 17 16 18 19 25  8]"
10500,342,1.0,7,3,1550.7978401184082,135.58245420455933,0,1344000,6799840,46961837,"[ 5  1  0  1  0  2  1  0  0  3  3  2  0  3  1  4  0  8  2  7  6  0  0  2
  2  0  1  4  6  1  0  0  3  4 12 10  1  6  6  1 12 11  0 11  8  4 18 11
  0 15  0  0  1  2  2 11 13  4 17 12  4  0  2  4 14 21  5 22  2  2 17  2
  3 22  3 18 19 25  8]"
10600,342,1.0,7,3,1566.5075407028198,157.0970058441162,0,1356800,6863794,47408313,"[ 3  3  2  5  0  1  0  1  2  3  0  2  0  3  1  0  5  0  4  7  8  0  0  2
  4  5  7  2  3  8  0  0  3  0  9 11  0  3 12  5 13 13  0 11  8  4 18 11
  4  2  2  0  1  2  4 11  0  0  0 14  5 22 14  4 14 21  3 14 20  3 20  0
  0 21 15 18 19 25  8]"
10700,342,1.0,7,3,1580.0229783058167,135.15437602996826,0,1369600,6926717,47847027,"[ 3  3  1  0  1  1  0  0  0  5  2  2  0  3  1  0  3  0  4  3  6  0  0  2
  4  8  0  2  2  0  0  0  3  3  6  7  3  5  1  4  9 13  0 11  8  4 18 11
  5  1 16  0  1  2  4 15 11  0  0 18  2 19 21  4 14 21  3 19 19  5 18 18
  3 15 23 18 19 25  8]"
10800,342,1.0,7,3,1593.0397861003876,130.16807794570923,0,1382400,6989975,48287888,"[ 4  2  0  4  2  3  0  2  3  3  0  0  0  3  1  5  2  2  2  6  1  0  0  2
  4  4  2  3  7  7  0  0  3  4  1  3  2  8  3  2  7  6  0 11  8  4 18 11
  4 11 10  0  1  2  0 11 11  5 18  1  2 17 16  4 14 21  3  2 16  2 21 21
  4  3 17 18 19 25  8]"
10900,342,1.0,7,3,1606.082909822464,130.43123722076416,0,1395200,7053059,48727435,"[ 5  3  1  0  2  1  1  2  3  1  1  0  0  3  1  2  5  8  0  4  1  0  0  2
  1  6  7  0  6  2  0  0  3  3  3  8  1  4  8  5  2  6  0 11  8  4 18 11
  1  9 13  0  1  2  0 10 16  3  3 15  0  3 16  4 14 21  0  3 20  4 17 16
  1 17 18 18 19 25  8]"
11000,342,1.0,7,3,1618.99773311615,129.14823293685913,0,1408000,7113867,49151494,"[ 3  1  1  2  1  1  2  3  0  3  0  1  0  3  1  2  7  3  3  8  5  0  0  2
  5  8  3  1  6  0  0  0  3  0 11  4  3  5  7  5  5  8  0 11  8  4 18 11
  2 11  0  0  1  2  5 18 16  2 13 17  2 17 19  4 14 21  3 23 17  4 15  0
  4 21  1 18 19 25  8]"
11100,342,1.0,7,3,1633.3601262569427,143.62393140792847,0,1420800,7175716,49582512,"[ 2  0  1  4  0  1  0  3  3  2  3  3  0  3  1  4  3  0  4  7  4  0  0  2
  2  5  1  2  7  7  0  0  3  2  2 11  5  3  6  5  4  5  0 11  8  4 18 11
  3 14  9  0  1  2  0  2 18  1 16  3  3 14 14  4 14 21  0 20 19  0 19 15
  5 19 23 18 19 25  8]"
11200,342,1.0,7,3,1646.5896062850952,132.29480028152466,0,1433600,7238284,50019257,"[ 2  1  1  4  0  0  2  1  0  4  0  2  0  3  1  0  2  4  1  3  4  0  0  2
  0  8  6  3  3  0  0  0  3  5  9  3  1  6  2  4 11  3  0 11  8  4 18 11
  5 10  9  0  1  2  0 12 10  1 14  9  2 22  3  4 14 21  3 17 19  3  2 15
  0 17 16 18 19 25  8]"
11300,342,1.0,7,3,1659.7149860858917,131.2537980079651,0,1446400,7301006,50457900,"[ 5  0  3  4  3  2  2  0  3  0  2  0  0  3  1  4  8  2  2  2  2  0  0  2
  4  6  4  1  6  7  0  0  3  0  1  6  2 11 12  5 10  7  0 11  8  4 18 11
  1  0 18  0  1  2  4 17  1  0 17 12  5  2  0  4 14 21  0 20  2  3 15  2
  1 20  3 18 19 25  8]"
11400,342,1.0,7,3,1672.666944026947,129.51957941055298,0,1459200,7364258,50899552,"[ 2  2  2  2  1  0  0  2  3  2  2  3  0  3  1  3  5  0  4  8  3  0  0  2
  2  5  2  2  6  3  0  0  3  0 13  2  2  3 10  2  8  0  0 11  8  4 18 11
  4 11  2  0  1  2  1 11 12  2 16 15  4  3 18  4 14 21  0 18 23  3 15 14
  1 22 20 18 19 25  8]"
11500,342,1.0,7,3,1685.6733283996582,130.06384372711182,0,1472000,7426318,51333597,"[ 1  1  1  1  2  0  5  2  1  2  0  3  0  3  1  4  2  0  3  4  0  0  0  2
  1  4  8  1  4  3  0  0  3  1  1 10  4  1  4  2  1  3  0 11  8  4 18 11
  0 17  9  0  1  2  4  3 10  5 11 15  1  1 15  4 14 21  4  2  3  2 17  0
  0  1 19 18 19 25  8]"
11600,342,1.0,7,3,1700.0094637870789,143.36135387420654,0,1484800,7489602,51775527,"[ 4  0  2  3  2  2  0  1  2  0  0  3  0  3  1  0  7  6  4  4  7  0  0  2
  5  6  3  2  5  8  0  0  3  3 10  5  2 10 10  1 10  1  0 11  8  4 18 11
  2 14  2  0  1  2  5  9 10  5 11  9  0  0 22  4 14 21  3  0  1  4 23 16
  1 18 23 18 19 25  8]"
11700,342,1.0,7,3,1714.6613771915436,146.51913404464722,0,1497600,7552120,52212224,"[ 2  0  3  5  3  2  3  1  0  5  1  3  0  3  1  0  6  1  0  0  6  0  0  2
  2  7  8  4  0  4  0  0  3  0  3  8  1  0  7  2  7  9  0 11  8  4 18 11
  3  2 13  0  1  2  5 15 16  1  3 18  0  2 20  4 14 21  1 17 20  2 19 14
  4  0  1 18 19 25  8]"
11800,342,1.0,7,3,1728.4899072647095,138.28530073165894,0,1510400,7614623,52648111,"[ 3  0  1  4  2  3  5  1  0  1  2  2  0  3  1  3  8  3  1  0  6  0  0  2
  0  4  3  3  5  5  0  0  3  1  0  5  5  9  0  3  5 13  0 11  8  4 18 11
  3 10  1  0  1  2  3 13 12  4 18  0  3 15  3  4 14 21  0 14 19  4  0 20
  4 23 16 18 19 25  8]"
11900,342,1.0,7,3,1742.4698491096497,139.79941844940186,0,1523200,7676885,53081878,"[ 1  1  0  1  1  1  0  0  0  2  1  2  0  3  1  4  8  0  2  0  0  0  0  2
  0  6  6  5  5  8  0  0  3  3  2  4  3  0 13  5  7 13  0 11  8  4 18 11
  4  1 16  0  1  2  1  1 11  4 16 16  2 15  2  4 14 21  4 22 20  3 21 18
  1 17 18 18 19 25  8]"
12000,342,1.0,7,3,1757.4568045139313,149.86955404281616,0,1536000,7740166,53524848,"[ 5  0  0  1  0  0  0  1  3  1  3  0  0  3  1  0  6  6  5  7  0  0  0  2
  2  7  1  4  1  2  0  0  3  1  0  0  2  6  8  3  1  4  0 11  8  4 18 11
  0 11 17  0  1  2  0 18 15  1 11  9  4 21  2  4 14 21  1 17  3  2 23 22
  1 23 16 18 19 25  8]"
12100,342,1.0,7,3,1772.08571600914,146.2891149520874,0,1548800,7803215,53964279,"[ 0  2  0  3  0  0  5  3  1  0  3  0  0  3  1  4  1  6  4  8  8  0  0  2
  0  3  2  2  8  2  0  0  3  2  2  0  5 13 10  2  1  6  0 11  8  4 18 11
  3 11  0  0  1  2  4 14  9  4  2  3  3  1 18  4 14 21  0 20 19  4 22 20
  2  1  1 18 19 25  8]"
12200,342,1.0,7,3,1785.9625194072723,138.76803398132324,0,1561600,7865670,54399584,"[ 5  1  3  2  1  1  0  3  3  3  1  0  0  3  1  4  6  4  4  4  5  0  0  2
  1  7  1  3  8  1  0  0  3  4  8  6  2  1  6  2  0  8  0 11  8  4 18 11
  0  2 10  0  1  2  3 12  0  3  3 13  5 22 16  4 14 21  3 15 17  3  0 22
  0 23 19 18 19 25  8]"
12300,342,1.0,7,3,1799.8984506130219,139.35931205749512,0,1574400,7927490,54832024,"[ 3  3  0  4  0  2  4  0  3  2  2  2  0  3  1  4  8  6  2  7  3  0  0  2
  3  1  0  5  5  1  0  0  3  5  5  6  4  7  2  2 12  0  0 11  8  4 18 11
  2  3  2  0  1  2  2 16 12  3  0 13  1  1  1  4 14 21  0 20 22  4  1 18
  2 16 14 18 19 25  8]"
12400,342,1.0,7,3,1814.2232251167297,143.24774503707886,0,1587200,7989973,55268020,"[ 4  3  3  2  2  0  2  0  1  3  3  1  0  3  1  0  8  7  1  3  7  0  0  2
  0  4  1  3  7  0  0  0  3  0  3  3  5 13  8  3  7  4  0 11  8  4 18 11
  1 10 15  0  1  2  5 12 14  4  0 11  5 15  2  4 14 21  0 16 18  1 23  3
  2 21 17 18 19 25  8]"
12500,342,1.0,7,3,1827.7840282917023,135.60803174972534,0,1600000,8052688,55706170,"[ 2  0  2  4  0  2  3  3  3  5  3  1  0  3  1  0  7  1  5  5  8  0  0  2
  5  8  4  0  3  5  0  0  3  4  0 11  4 10  8  3 10  9  0 11  8  4 18 11
  5  0  3  0  1  2  4 12 17  5  9 10  2 14 14  4 14 21  2  2  1  2 21  3
  1 17  3 18 19 25  8]"
12600,342,1.0,7,3,1841.4040250778198,136.19996786117554,0,1612800,8114734,56139240,"[ 1  3  2  3  0  0  5  3  0  1  0  0  0  3  1  4  7  6  4  1  5  0  0  2
  2  8  1  2  3  8  0  0  3  4  1  1  4  2  5  3  3  7  0 11  8  4 18 11
  4  2 12  0  1  2  2  2 10  3  2 17  5  3  0  4 14 21  1 21 20  2 16 16
  1 15 15 18 19 25  8]"
12700,342,1.0,7,3,1854.9729948043823,135.689697265625,0,1625600,8177296,56577266,"[ 3  0  1  1  1  2  5  0  2  5  3  0  0  3  1  1  7  2  2  6  1  0  0  2
  0  2  6  5  0  0  0  0  3  4 12  5  3  7  1  1  1  3  0 11  8  4 18 11
  2  2 14  0  1  2  5 10 13  3  3 11  1 20 21  4 14 21  4 20  1  0  2  3
  5 15 23 18 19 25  8]"
12800,342,1.0,7,3,1870.3846364021301,154.11641597747803,0,1638400,8240308,57016590,"[ 2  1  2  3  3  2  4  0  1  5  2  0  0  3  1  0  0  3  1  1  1  0  0  2
  2  0  5  5  8  4  0  0  3  0  5  3  0 10  3  5  8  2  0 11  8  4 18 11
  3 17 12  0  1  2  1  1  0  2  3 12  2  1 20  4 14 21  3 19 18  5  0  1
  5 20  2 18 19 25  8]"
12900,342,1.0,7,3,1886.7079317569733,163.2329535484314,0,1651200,8302237,57448508,"[ 2  0  3  3  3  1  1  0  1  3  0  0  0  3  1  3  2  5  3  1  4  0  0  2
  3  2  0  4  7  3  0  0  3  2  7  0  1  7  2  2 12  0  0 11  8  4 18 11
  5 10 18  0  1  2  3  1  2  3  0 18  0 22 15  4 14 21  5 14 18  3  1  0
  5 15  3 18 19 25  8]"
13000,342,1.0,7,3,1899.8888010978699,131.80869340896606,0,1664000,8365289,57889766,"[ 2  1  1  0  2  3  2  2  1  0  1  0  0  3  1  1  4  1  3  5  5  0  0  2
  2  6  2  0  7  6  0  0  3  1  5  5  0  9  1  3 10  1  0 11  8  4 18 11
  4 11 17  0  1  2  0 16 10  0 12 18  4  0 16  4 14 21  3 15 16  0 19 15
  5 17  3 18 19 25  8]"
13100,342,1.0,7,3,1914.9000890254974,150.11287927627563,0,1676800,8427506,58323940,"[ 0  1  0  0  0  3  5  3  0  4  2  1  0  3  1  0  6  2  3  0  1  0  0  2
  5  6  2  4  2  6  0  0  3  4  8  2  5 10  7  4  5  0  0 11  8  4 18 11
  4  3 10  0  1  2  0 14 15  3  9  3  1  3 22  4 14 21  2 19 21  5 20 15
  0 23 18 18 19 25  8]"
13200,342,1.0,7,3,1929.5623502731323,146.62261247634888,0,1689600,8489854,58760192,"[ 3  0  0  1  0  3  1  1  3  3  1  1  0  3  1  5  7  3  4  8  8  0  0  2
  3  2  6  2  2  6  0  0  3  1 12  0  1  3  0  0  3  1  0 11  8  4 18 11
  4 14 14  0  1  2  0 10 15  4  3 13  3  3 16  4 14 21  3  2 16  1  1 14
  3 14  1 18 19 25  8]"
13300,342,1.0,7,3,1945.0189318656921,154.56581592559814,0,1702400,8553165,59202483,"[ 3  3  0  4  1  0  3  0  1  1  3  1  0  3  1  3  4  1  0  1  3  0  0  2
  2  6  5  2  6  3  0  0  3  2  8  4  4  3  7  0  0  6  0 11  8  4 18 11
  3 14  2  0  1  2  3 11 12  4 16 12  5 20 20  4 14 21  1 16 19  4  1 14
  5  1  3 18 19 25  8]"
13400,342,1.0,7,3,1959.3475253582,143.28593492507935,0,1715200,8615693,59637778,"[ 0  0  1  1  2  1  3  1  2  2  3  0  0  3  1  4  1  3  0  7  2  0  0  2
  5  2  3  1  3  6  0  0  3  2  2  0  4  3  0  5 11  8  0 11  8  4 18 11
  5 10 18  0  1  2  4  2 17  5  0 10  4  3 18  4 14 21  3 15  2  5  0  0
  3 14 16 18 19 25  8]"
13500,342,1.0,7,3,1973.8376336097717,144.90108251571655,0,1728000,8677891,60072279,"[ 3  3  0  1  0  1  0  2  3  4  1  0  0  3  1  5  4  7  0  8  0  0  0  2
  3  6  6  5  4  2  0  0  3  1  7 10  4 11  4  3 12  9  0 11  8  4 18 11
  4 10 12  0  1  2  5 18 17  2  0 16  4  2 15  4 14 21  1 16 19  3  0  0
  5 21 22 18 19 25  8]"
13600,342,1.0,7,3,1989.473200082779,156.35566473007202,0,1740800,8740882,60512275,"[ 2  1  0  4  0  0  2  0  1  1  0  0  0  3  1  5  7  3  2  6  0  0  0  2
  3  7  3  4  3  2  0  0  3  1 13  9  4  3 13  3  5  2  0 11  8  4 18 11
  0  2  0  0  1  2  5  3 10  4 14 12  5  3 22  4 14 21  2  0 18  2 21 20
  3 19 18 18 19 25  8]"
13700,342,1.0,7,3,2002.562638759613,130.89438676834106,0,1753600,8802868,60946374,"[ 4  3  2  1  3  3  5  1  1  0  2  3  0  3  1  2  7  2  4  3  8  0  0  2
  1  8  4  1  1  4  0  0  3  5 11  3  1  4 10  1  4  1  0 11  8  4 18 11
  3 17 17  0  1  2  4 11 15  5  2 14  1 23 20  4 14 21  0 19 18  5 21 19
  0  3 21 18 19 25  8]"
13800,342,1.0,7,3,2017.3900249004364,148.27386140823364,0,1766400,8865817,61385547,"[ 4  0  1  4  2  1  2  2  1  1  3  3  0  3  1  4  8  8  4  1  1  0  0  2
  1  5  4  0  8  1  0  0  3  5  3 12  3  4  6  4 12 11  0 11  8  4 18 11
  0 15  0  0  1  2  1  0 11  4 10  2  5 18 23  4 14 21  1  2 14  1  2  0
  1 19 22 18 19 25  8]"
13900,342,1.0,7,3,2031.8212957382202,144.31270837783813,0,1779200,8928569,61823545,"[ 4  1  1  1  2  2  0  3  1  5  3  0  0  3  1  2  4  4  2  0  1  0  0  2
  5  1  0  0  2  3  0  0  3  5 11 13  3 12  0  5  5  6  0 11  8  4 18 11
  3  1 17  0  1  2  3 15 12  4 11 15  4 18 23  4 14 21  0 17 21  1 15  0
  1  1 23 18 19 25  8]"
14000,342,1.0,7,3,2046.8850393295288,150.63743591308594,0,1792000,8991984,62266892,"[ 2  1  2  1  1  3  5  2  0  4  1  1  0  3  1  0  0  2  4  1  5  0  0  2
  0  1  1  3  2  8  0  0  3  5  6 12  4  1  7  4 13 13  0 11  8  4 18 11
  1 17 14  0  1  2  1 16 17  1 15  1  0  2 15  4 14 21  2  2 15  4 14  2
  4  1 16 18 19 25  8]"
14100,342,1.0,7,3,2062.039600133896,151.54560804367065,0,1804800,9053691,62698092,"[ 2  2  0  2  2  1  0  0  0  0  2  2  0  3  1  0  4  8  2  5  7  0  0  2
  2  0  4  1  4  0  0  0  3  1 13  6  5 10 12  0 12  0  0 11  8  4 18 11
  2 10 12  0  1  2  1  1  0  5  3 11  2  2 16  4 14 21  5  2 23  0 16 21
  1 19  2 18 19 25  8]"
14200,342,1.0,7,3,2078.428651332855,163.8905119895935,0,1817600,9116897,63141010,"[ 1  3  2  1  2  2  2  0  2  0  2  2  0  3  1  0  7  2  5  3  7  0  0  2
  2  6  8  4  6  6  0  0  3  2  0  0  2  0  1  0  5  7  0 11  8  4 18 11
  5  9 11  0  1  2  4 13  1  0 10 17  4 19 23  4 14 21  3 17 17  4 23 17
  4 21 23 18 19 25  8]"
14300,342,1.0,7,3,2091.231866121292,128.0321478843689,0,1830400,9178800,63573711,"[ 1  0  0  1  3  2  3  3  2  0  2  0  0  3  1  4  1  3  4  8  0  0  0  2
  4  1  8  4  7  0  0  0  3  1  6 12  5  3  2  3 13 11  0 11  8  4 18 11
  4  9  0  0  1  2  3 18  0  1 11 17  0 22 19  4 14 21  5 19  3  1 18  2
  1 23  2 18 19 25  8]"
14400,342,1.0,7,3,2104.097623348236,128.6575722694397,0,1843200,9241427,64010770,"[ 1  3  0  5  1  3  5  2  2  3  2  3  0  3  1  0  3  3  0  5  2  0  0  2
  4  3  7  4  4  8  0  0  3  2  2 11  1  0 13  3  4 12  0 11  8  4 18 11
  0 17 10  0  1  2  3  0  2  0 18  0  2  1 19  4 14 21  0 21  3  1 21 14
  4 18  0 18 19 25  8]"
14500,342,1.0,7,3,2116.923302412033,128.25679063796997,0,1856000,9303753,64446526,"[ 4  2  0  5  3  3  3  0  3  3  0  2  0  3  1  4  1  4  4  8  4  0  0  2
  0  0  7  1  5  4  0  0  3  3 13  1  0  2  5  1  4 13  0 11  8  4 18 11
  3 12  3  0  1  2  3  2 14  4  9 16  1 15  3  4 14 21  0  1 15  5  1  1
  3 19 19 18 19 25  8]"
14600,342,1.0,7,3,2129.7877950668335,128.64492654800415,0,1868800,9365732,64880618,"[ 4  0  1  0  2  3  0  3  3  5  2  2  0  3  1  2  3  8  0  4  5  0  0  2
  0  6  7  1  2  6  0  0  3  1  1 13  1  0 11  1  9  7  0 11  8  4 18 11
  3  9  0  0  1  2  4 13 16  0 17 12  5  1  1  4 14 21  2 16  0  3 23  0
  3 18 22 18 19 25  8]"
14700,342,1.0,7,3,2142.4827783107758,126.9498324394226,0,1881600,9427036,65310505,"[ 3  3  0  4  3  1  2  3  2  4  2  1  0  3  1  1  6  4  4  4  0  0  0  2
  3  8  5  1  3  2  0  0  3  3  3  1  2 10 12  5 11 13  0 11  8  4 18 11
  3 16 13  0  1  2  5 10 13  4  2 16  2 21 16  4 14 21  3  2  0  0 22 20
  5 21 17 18 19 25  8]"
14800,342,1.0,7,3,2155.5195593833923,130.36781072616577,0,1894400,9489485,65746392,"[ 5  2  2  0  0  0  2  3  3  3  1  3  0  3  1  3  1  1  0  7  0  0  0  2
  4  4  2  3  5  3  0  0  3  4  8 10  2  9  9  4  9 12  0 11  8  4 18 11
  2 17  0  0  1  2  1 12 11  4 18 15  3 20 19  4 14 21  3 23 18  5  1 21
  4 14  2 18 19 25  8]"
14900,342,1.0,7,3,2168.4996268749237,129.80067491531372,0,1907200,9552463,66186434,"[ 5  2  1  2  3  3  3  1  3  2  0  2  0  3  1  3  6  6  2  7  7  0  0  2
  3  5  0  5  5  2  0  0  3  0 12  8  4  9  1  4  7 10  0 11  8  4 18 11
  2 11 17  0  1  2  2 10  9  0  1  3  2  1 22  4 14 21  4  3 19  1 22 22
  2  1  0 18 19 25  8]"
15000,342,1.0,7,3,2181.2534608840942,127.53834009170531,0,1920000,9614670,66621499,"[ 0  1  1  4  1  1  0  1  0  4  3  1  0  3  1  4  7  8  1  8  3  0  0  2
  2  2  5  1  1  8  0  0  3  2  6  9  0  8  2  2 10 13  0 11  8  4 18 11
  5  2 14  0  1  2  5 11 17  2 13  1  2 16 18  4 14 21  3 15  3  2  2 17
  1 22  2 18 19 25  8]"
15100,342,1.0,7,3,2194.0393936634064,127.85932779312134,0,1932800,9677061,67057405,"[ 5  0  3  5  2  1  4  3  3  3  1  1  0  3  1  1  7  0  5  8  5  0  0  2
  2  3  4  2  4  8  0  0  3  3  8 13  3  3  1  1  8  3  0 11  8  4 18 11
  2 15 18  0  1  2  3 18  1  1 10  0  1 16  0  4 14 21  1  1 18  2 22 21
  0 19 18 18 19 25  8]"
15200,342,1.0,7,3,2206.7806289196014,127.41235256195068,0,1945600,9739649,67493547,"[ 5  1  1  5  2  3  5  3  2  4  1  1  0  3  1  2  6  0  0  6  4  0  0  2
  3  6  6  2  8  6  0  0  3  5 13  6  3  3  0  1  7  9  0 11  8  4 18 11
  5 13 10  0  1  2  1 12  2  2 13 10  2 20  2  4 14 21  0  3  0  1  0 22
  3  0  3 18 19 25  8]"
15300,342,1.0,7,3,2219.8438436985016,130.63214778900146,0,1958400,9803218,67937545,"[ 0  2  0  2  3  1  5  0  3  4  1  2  0  3  1  2  5  5  0  1  0  0  0  2
  3  2  8  4  3  0  0  0  3  1 11  6  1 10  0  0  3  9  0 11  8  4 18 11
  1 14  1  0  1  2  0 12 10  1  3 15  0 14 20  4 14 21  3  2 18  2  0 19
  2 23 17 18 19 25  8]"
15400,342,1.0,7,3,2232.658597946167,128.14754247665405,0,1971200,9865829,68374682,"[ 3  3  1  5  3  0  1  0  0  0  2  1  0  3  1  0  4  0  1  7  7  0  0  2
  3  2  5  4  5  6  0  0  3  4  7  3  0  5  3  4  5 13  0 11  8  4 18 11
  2 11  0  0  1  2  2 10 11  4 14  3  1 22 17  4 14 21  2 15  2  5 20  0
  4 15 17 18 19 25  8]"
15500,342,1.0,7,3,2246.461696624756,138.03098678588867,0,1984000,9929201,68817190,"[ 5  1  0  2  0  0  4  0  3  1  0  1  0  3  1  2  3  0  1  7  7  0  0  2
  2  7  0  5  4  2  0  0  3  3 10 13  2 13 10  5  0  7  0 11  8  4 18 11
  3 12 17  0  1  2  1  3  0  4 16 12  4  2 18  4 14 21  2 15 23  3 19 20
  5 15  1 18 19 25  8]"
15600,342,1.0,7,3,2260.2055928707123,137.4389624595642,0,1996800,9991173,69249641,"[ 2  2  3  4  2  0  3  2  3  3  2  3  0  3  1  0  4  6  3  7  8  0  0  2
  0  7  0  5  5  4  0  0  3  3 13  4  3  3  3  1  2  0  0 11  8  4 18 11
  2 11  0  0  1  2  3 11 16  0 17 18  3 14 14  4 14 21  0 19 17  3  1 20
  4 18 14 18 19 25  8]"
15700,342,1.0,7,3,2273.5974774360657,133.91884565353394,0,2009600,10054386,69691529,"[ 3  3  3  0  0  2  4  3  3  1  2  2  0  3  1  3  1  7  3  7  7  0  0  2
  3  6  7  3  3  7  0  0  3  0  0  4  5  6 12  3  7 13  0 11  8  4 18 11
  2 11  2  0  1  2  1 16 13  3  2 10  4  1  2  4 14 21  3  1 18  2  3 16
  5  3  0 18 19 25  8]"
15800,342,1.0,7,3,2286.7890825271606,131.9160509109497,0,2022400,10117635,70134386,"[ 0  2  3  3  0  0  2  2  2  3  3  2  0  3  1  1  6  2  5  2  5  0  0  2
  0  2  6  4  5  5  0  0  3  0  0 10  2  9  5  1 10  7  0 11  8  4 18 11
  4 18  0  0  1  2  3 17  1  1 17 14  5  0 20  4 14 21  3  1 22  1  3 16
  5 17 20 18 19 25  8]"
15900,342,1.0,7,3,2299.7350335121155,129.45950984954834,0,2035200,10179933,70569824,"[ 5  1  1  5  3  2  3  3  0  3  3  1  0  3  1  1  1  3  4  0  4  0  0  2
  3  0  8  2  5  4  0  0  3  1  5  7  1  5  2  0  9  7  0 11  8  4 18 11
  2  0  1  0  1  2  3 15 10  5 17 16  4 22 16  4 14 21  3  1 20  0 16 21
  5 16  0 18 19 25  8]"
16000,342,1.0,7,3,2312.6728043556213,129.3777084350586,0,2048000,10241736,71003280,"[ 5  0  0  1  3  2  2  2  3  5  0  3  0  3  1  4  0  0  4  0  4  0  0  2
  2  0  2  2  6  3  0  0  3  4  8  8  0  2 13  4  0  7  0 11  8  4 18 11
  2  2 10  0  1  2  3 17  3  5 10  9  4  0 20  4 14 21  3 23 21  2 16  0
  5 18 17 18 19 25  8]"
16100,342,1.0,7,3,2326.6768929958344,140.04088640213013,0,2060800,10305169,71445805,"[ 5  2  2  4  1  0  0  2  2  2  0  2  0  3  1  5  6  8  5  1  6  0  0  2
  0  5  1  4  0  0  0  0  3  4  2  0  2 12 11  5  1  4  0 11  8  4 18 11
  1 15 17  0  1  2  4 13 12  0  1 14  0  0  2  4 14 21  4 19  3  4  2 18
  1 19 15 18 19 25  8]"
16200,342,1.0,7,3,2340.079473257065,134.0258026123047,0,2073600,10368534,71886943,"[ 3  2  1  1  1  0  2  1  3  5  0  2  0  3  1  4  6  4  4  8  7  0  0  2
  1  0  2  5  2  8  0  0  3  0 11  8  1  1  9  2  2 11  0 11  8  4 18 11
  4 14  2  0  1  2  5 16 17  1 14  2  5 18  2  4 14 21  5  1  1  0 16 14
  3 15  3 18 19 25  8]"
16300,342,1.0,7,3,2353.2327847480774,131.53311491012573,0,2086400,10431110,72323205,"[ 0  3  2  3  2  0  3  3  1  3  1  3  0  3  1  3  7  6  4  1  2  0  0  2
  2  5  3  3  7  8  0  0  3  1  9  9  1  3 11  4  3 11  0 11  8  4 18 11
  5 10 10  0  1  2  4  9 14  0  9  3  0  0 20  4 14 21  3 16 16  5 16 17
  1 14  2 18 19 25  8]"
16400,342,1.0,7,3,2366.845434188843,136.1264944076538,0,2099200,10494029,72761513,"[ 2  2  2  1  2  0  3  3  2  5  0  1  0  3  1  2  6  6  0  1  5  0  0  2
  0  0  4  2  4  7  0  0  3  5  6  2  4  2 11  5  7 10  0 11  8  4 18 11
  4  9 10  0  1  2  2 15 15  4 14 18  3 22 14  4 14 21  2 16 21  3 20 18
  5 15 19 18 19 25  8]"
16500,342,1.0,7,3,2381.911285877228,150.6585168838501,0,2112000,10554868,73187854,"[ 1  3  3  1  3  0  2  3  1  2  3  0  0  3  1  1  4  1  2  6  4  0  0  2
  5  0  1  1  0  8  0  0  3  2  9 11  2  3  6  2 13  7  0 11  8  4 18 11
  3 17 16  0  1  2  4  0 16  4 18 18  2 15  2  4 14 21  1 15 23  2  3  2
  0 21 19 18 19 25  8]"
16600,342,1.0,7,3,2396.980961084366,150.69675207138062,0,2124800,10617129,73622696,"[ 0  0  3  1  3  0  3  3  1  2  0  2  0  3  1  2  3  8  0  6  5  0  0  2
  0  5  1  1  2  2  0  0  3  2 13  9  2  8  6  0  1  2  0 11  8  4 18 11
  2  9  3  0 14  2  2 10  2  5 12 17  1  1 19  4 14 17  3  1 19  2 20  1
  0 16 21 18 19 25  8]"
16700,342,1.0,7,3,2412.142946243286,151.61985158920288,0,2137600,10679733,74060021,"[ 3  0  0  4  0  0  5  1  1  3  3  1  0  3  1  2  4  4  3  7  6  0  0  2
  4  1  8  2  4  4  0  0  3  1  0 12  3  0  3  0  1  2  0 11  8  4 18 11
  3  0 13  3 15 16  5 15 11  1  2 18  4 22 19  4 14 17  0  2  1  4 21  0
  3 21 22 18 19 25  8]"
16800,342,1.0,7,3,2426.7082998752594,145.65353631973267,0,2150400,10743754,74505670,"[ 4  1  0  3  3  3  1  0  0  3  1  1  0  3  1  0  4  6  4  2  3  0  0  2
  4  1  0  2  7  0  0  0  3  0  9 12  1  3  5  0  1  2  0 11  8  4 18 11
  2 11  0  3 16 10  4 12 18  1  1 14  4  1 14  4 14 17  1  3  2  2 19 20
  2 17 16 18 19 25  8]"
16900,342,1.0,7,3,2440.8855273723602,141.7722749710083,0,2163200,10806925,74945980,"[ 1  3  1  0  2  0  0  2  3  5  0  0  0  3  1  3  2  5  0  1  5  0  0  2
  0  8  3  1  4  4  0  0  3  2  5  6  3  4  5  0  1  2  0 11  8  4 18 11
  3  3 17  5 12 16  4  0 18  1 15 13  5 18 22  4 14 17  1 21 15  0 17 16
  1  3 19 18 19 25  8]"
17000,342,1.0,7,3,2456.638102531433,157.52575159072876,0,2176000,10870009,75386560,"[ 2  0  3  0  3  3  2  0  0  5  3  1  0  3  1  2  8  7  3  0  2  0  0  2
  2  0  6  1  4  4  0  0  3  0  7  2  4  5  6  0  1  2  0 11  8  4 18 11
  2 16 15  2  3 15  5 10 12  3 13  3  4  3 14  4 14 17  2  3 15  3  0  3
  3 22  3 18 19 25  8]"
17100,342,1.0,7,3,2471.899246454239,152.61143922805786,0,2188800,10934026,75832830,"[ 5  2  0  1  0  3  3  0  3  2  1  3  0  3  1  2  7  1  0  2  7  0  0  2
  4  1  8  2  2  4  0  0  3  1  0  9  5  8  9  0  1  2  0 11  8  4 18 11
  3 16  2  5  3 18  4 16  1  0  1 11  2 15 14  4 14 17  3  1  1  5 18 18
  2  0 20 18 19 25  8]"
17200,342,1.0,7,3,2487.3057329654694,154.0648651123047,0,2201600,10997772,76276741,"[ 5  3  3  5  1  1  1  1  1  2  1  0  0  3  1  0  4  0  1  1  0  0  0  2
  5  7  4  2  6  0  0  0  3  0  8  1  5  9  8  0  1  2  0 11  8  4 18 11
  1 18 16  2 15  2  4 14  2  3 14 11  5  3 16  4 14 17  1 16  0  0  0 18
  1 18  2 18 19 25  8]"
17300,342,1.0,7,3,2500.1243064403534,128.18573474884033,0,2214400,11059966,76709687,"[ 2  3  1  3  2  1  2  2  2  0  3  1  0  3  1  0  0  8  1  5  3  0  0  2
  0  4  6  4  6  8  0  0  3  0  6 13  5  8  7  0  1  2  0 11  8  4 18 11
  1 18  3  0 10  2  4  3 14  5  9  3  3 15  3  4 14 17  0  1  2  5  1 22
  4 15  2 18 19 25  8]"
17400,342,1.0,7,3,2513.1169192790985,129.92612838745117,0,2227200,11122593,77146664,"[ 1  2  1  5  3  3  4  3  1  5  3  3  0  3  1  3  8  0  0  2  8  0  0  2
  0  3  1  3  8  8  0  0  3  0  0  5  1 12  8  0  1  2  0 11  8  4 18 11
  3 13 13  3  1 16  3 10 16  2  9 14  1 23 15  4 14 17  4 18 23  3 23  0
  3  2 15 18 19 25  8]"
17500,342,1.0,7,3,2526.846868276596,137.2994899749756,0,2240000,11185405,77585065,"[ 1  2  0  4  3  0  0  1  2  2  2  0  0  3  1  4  4  7  2  6  7  0  0  2
  5  0  0  2  1  1  0  0  3  2  4  3  2  9  2  0  1  2  0 11  8  4 18 11
  1 17 10  3 17  0  0  2 15  5  2 10  5  0 15  4 14 17  4 18 15  0 17  0
  2 18  1 18 19 25  8]"
17600,342,1.0,7,3,2539.9969475269318,131.50079250335693,0,2252800,11249099,78027567,"[ 3  3  0  1  0  1  4  3  2  5  2  2  0  3  1  4  7  0  0  3  1  0  0  2
  0  3  0  4  2  3  0  0  3  2  0  9  5  5  5  0  1  2  0 11  8  4 18 11
  0 16  9  2 17 10  1  1 13  0 12 14  0  0 18  4 14 17  3 14 23  4  0 14
  4  3  1 18 19 25  8]"
17700,342,1.0,7,3,2553.8011860847473,138.04238557815552,0,2265600,11312814,78471679,"[ 3  1  1  4  1  3  4  2  0  0  2  2  0  3  1  4  7  7  1  0  8  0  0  2
  0  7  1  0  2  4  0  0  3  5  8 10  4 10 13  0  1  2  0 11  8  4 18 11
  2 10 13  4 15 18  2 10 11  5  9 17  0  2 14  4 14 17  2 22 21  0 18 15
  2 17 17 18 19 25  8]"
17800,342,1.0,7,3,2568.7596344947815,149.5844841003418,0,2278400,11376137,78912648,"[ 3  1  0  4  2  0  2  1  0  1  1  3  0  3  1  3  8  6  2  5  3  0  0  2
  4  3  7  1  4  0  0  0  3  2  8  8  1 12 10  0  1  2  0 11  8  4 18 11
  3  0  2  2 11  9  1  3  3  3  9 18  0 20  0  4 14 17  5  0 16  4 21 19
  1 15 18 18 19 25  8]"
17900,342,1.0,7,3,2583.2574632167816,144.97828722000122,0,2291200,11438778,79349656,"[ 3  3  2  0  1  2  1  3  2  2  2  0  0  3  1  5  6  4  0  1  4  0  0  2
  0  5  8  5  0  4  0  0  3  2 13 11  4 11 13  0  1  2  0 11  8  4 18 11
  2 18  3  0 12 17  3 12 16  1  3 10  2 16 18  4 14 17  5 17 19  2  2 19
  3 19 20 18 19 25  8]"
18000,342,1.0,7,3,2597.1591765880585,139.01713371276855,0,2304000,11500797,79782269,"[ 3  2  2  4  3  0  0  0  0  3  3  1  0  3  1  2  8  5  5  2  2  0  0  2
  3  1  4  4  0  5  0  0  3  5 10  7  0  7  3  0  1  2  0 11  8  4 18 11
  1 18  3  5 11 12  4 17 14  1 17 11  3 15 23  4 14 17  4 23 19  0 18 22
  1 20 14 18 19 25  8]"
18100,342,1.0,7,3,2612.4104385375977,152.51261949539185,0,2316800,11564105,80222932,"[ 3  2  3  5  0  3  5  3  0  3  2  0  0  3  1  5  8  0  0  8  5  0  0  2
  5  3  7  1  1  3  0  0  3  5  2  0  1  4  1  0  1  2  0 11  8  4 18 11
  2 16 15  4 18  3  1  1 14  5  3  9  2 14 18  4 14 17  4 16 15  0 20 19
  5 23 18 18 19 25  8]"
18200,342,1.0,7,3,2627.4703271389008,150.598886013031,0,2329600,11626371,80657860,"[ 4  0  0  3  0  2  5  1  1  3  0  0  0  3  1  5  1  7  0  8  5  0  0  2
  5  2  1  1  6  0  0  0  3  5  7  1  1  7 11  0  1  2  0 11  8  4 18 11
  2 18 13  3 15 14  3  9 17  5 14 18  0  1  0  4 14 17  0 19 15  3 15 17
  4 21 22 18 19 25  8]"
18300,342,1.0,7,3,2641.455995798111,139.85668659210205,0,2342400,11689203,81095685,"[ 3  0  3  0  3  0  2  0  0  5  3  1  0  3  1  5  8  5  4  8  7  0  0  2
  0  6  0  0  2  3  0  0  3  5  1 10  5  1 12  0  1  2  0 11  8  4 18 11
  5 11 13  2 13 11  1 18 17  4 14 17  4 18 20  4 14 17  4 16  1  3 22 16
  3  0 23 18 19 25  8]"
18400,342,1.0,7,3,2655.9769756793976,145.2097988128662,0,2355200,11751665,81531272,"[ 1  1  2  3  2  3  5  3  0  3  2  2  0  3  1  5  0  1  1  3  3  0  0  2
  2  4  8  0  1  1  0  0  3  2  1  5  3  5  5  0  1  2  0 11  8  4 18 11
  1  0 13  5 12 11  5  0 15  1 14 14  1 20  3  4 14 17  4  3 23  1  2  3
  1  1 18 18 19 25  8]"
18500,342,1.0,7,3,2670.4696311950684,144.92655515670776,0,2368000,11814269,81968485,"[ 2  0  2  3  1  1  2  1  3  3  3  2  0  3  1  0  1  4  3  2  2  0  0  2
  1  3  5  4  6  7  0  0  3  0 11  1  2 12 10  0  1  2  0 11  8  4 18 11
  4  1  1  3  2 16  2 11  3  3 16 16  0 23 22  4 14 17  0 15  2  4 20 21
  1 21 17 18 19 25  8]"
18600,342,1.0,7,3,2685.1733164787292,147.0368528366089,0,2380800,11876193,82401745,"[ 5  3  0  1  0  3  0  1  3  2  1  0  0  3  1  2  1  6  1  7  1  0  0  2
  0  2  3  4  8  5  0  0  3  4  7  4  2  7 13  0  1  2  0 11  8  4 18 11
  5  2 11  3  1 11  2 18  9  4 11 14  3  1 22  4 14 17  2  0  2  5  0 16
  0 22 16 18 19 25  8]"
18700,342,1.0,7,3,2699.6792340278625,145.059175491333,0,2393600,11938958,82839288,"[ 3  2  1  4  1  1  2  1  3  1  0  0  0  3  1  4  0  6  1  5  7  0  0  2
  4  7  7  2  7  8  0  0  3  1  9 12  0 11  6  0  1  2  0 11  8  4 18 11
  5 15 17  4  2  3  2 16 16  1 10  9  0 15 23  4 14 17  1  3 19  0 18 19
  5 21 14 18 19 25  8]"
18800,342,1.0,7,3,2714.119696855545,144.40462827682495,0,2406400,12001491,83277852,"[ 5  2  1  3  1  1  3  2  2  1  2  0  0  3  1  5  3  6  2  4  0  0  0  2
  1  3  7  2  0  2  0  0  3  0 12  1  2  8 12  0  1  2  0 11  8  4 18 11
  2  0 12  0 16  3  4 11  9  4 17 10  0 15 23  4 14 17  3 17 16  2 16 17
  0 16  1 18 19 25  8]"
18900,342,1.0,7,3,2729.962210893631,158.42514038085938,0,2419200,12064978,83721266,"[ 1  1  1  0  3  1  4  0  0  2  0  2  0  3  1  3  8  6  1  2  1  0  0  2
  1  3  4  0  8  5  0  0  3  3  7  0  5  4  9  0  1  2  0 11  8  4 18 11
  2 18 15  0  2  3  0 18 10  1 15  3  3 20 20  4 14 17  3 22 21  1 17  2
  1 14 20 18 19 25  8]"
19000,342,1.0,7,3,2746.9752876758575,170.13076782226562,0,2432000,12126857,84153312,"[ 4  2  2  5  0  0  2  2  0  1  3  3  0  3  1  0  1  6  1  1  7  0  0  2
  1  6  3  1  8  2  4  0  6  5 10  8  1  3  2  0  1  2  0 11  8  4 18 11
  5 12 14  0  3  0  3  1 11  4  2 17  2  0 22  4 21 17  5  2 19  1 19 19
  0 14 21 18 19 25  8]"
19100,342,1.0,7,3,2760.6230137348175,136.4772605895996,0,2444800,12187848,84579473,"[ 1  1  1  1  3  1  2  2  0  1  1  3  0  3  1  2  7  3  5  6  6  0  0  2
  1  2  3  0  4  8  5 12  0  4  1  1  3  4  0  0  1  2  0 11  8  4 18 11
  2  9 12  0  3  0  4 10  1  2 16  9  4 14 21  4 21 17  4  3 21  5 23 18
  5 16  3 18 19 25  8]"
19200,342,1.0,7,3,2774.402215719223,137.79201984405518,0,2457600,12248827,85005299,"[ 3  2  3  0  1  3  4  3  2  1  0  3  0  3  1  1  6  2  5  7  6  0  0  2
  3  0  2  0  3  8  5  3  9  5 10  1  3  8 13  0  1  2  0 11  8  4 18 11
  0  3  1  0  3  0  4 12 18  1 14 18  5 23 20  4 21 17  5  3 21  1 20  2
  5 16  2 18 19 25  8]"
19300,342,1.0,7,3,2788.6428277492523,142.40612030029297,0,2470400,12311499,85442562,"[ 0  1  1  1  3  0  2  1  3  0  0  1  0  3  1  3  3  6  3  2  7  0  0  2
  5  8  1  4  4  8  3  7  1  4  2  9  0  2  8  0  1  2  0 11  8  4 18 11
  1 17  2  0  3  0  4 14  0  1 14 18  0  3 22  4 21 17  1 14 14  2  0 14
  0  1  3 18 19 25  8]"
19400,342,1.0,7,3,2803.6941010951996,150.51273345947266,0,2483200,12373961,85877399,"[ 0  0  2  4  1  0  0  0  1  5  1  3  0  3  1  4  3  4  5  4  1  0  0  2
  0  7  5  4  5  4  3  9  0  0  7  9  1 10  3  0  1  2  0 11  8  4 18 11
  3  9 13  0  3  0  1  3 18  3 13  9  4 20 19  4 21 17  1 17 23  5 20 23
  3 22 19 18 19 25  8]"
19500,342,1.0,7,3,2818.837429523468,151.43328428268433,0,2496000,12436947,86318644,"[ 0  3  3  3  2  2  5  0  1  2  2  3  0  3  1  3  3  2  4  3  4  0  0  2
  0  8  7  5  7  8  3 12  2  2 12  3  2  9  9  0  1  2  0 11  8  4 18 11
  3  0 15  0  3  0  2 11 10  0 11 10  5 17 20  4 21 17  3  3 23  4 18 14
  4 19 22 18 19 25  8]"
19600,342,1.0,7,3,2831.9538662433624,131.1643671989441,0,2508800,12499491,86755684,"[ 2  3  2  1  0  1  2  2  0  3  2  1  0  3  1  3  1  1  2  2  1  0  0  2
  5  3  7  0  7  2  1  1 10  0 12  0  5 12  1  0  1  2  0 11  8  4 18 11
  4  0 12  0  3  0  1 16  0  3  2 13  5 14  1  4 21 17  3 23 21  4 16 16
  3  3 14 18 19 25  8]"
19700,342,1.0,7,3,2845.0501656532288,130.96299409866333,0,2521600,12561823,87191664,"[ 3  2  2  1  2  3  0  3  2  4  2  1  0  3  1  1  1  6  2  5  4  0  0  2
  3  4  1  1  3  0  4  5  6  1  8 11  4  6  0  0  1  2  0 11  8  4 18 11
  5 11 12  0  3  0  3 10 14  4  9 17  4 18 20  4 21 17  4 21 21  0 21  0
  4  2  0 18 19 25  8]"
19800,342,1.0,7,3,2859.2324373722076,141.82271718978882,0,2534400,12624106,87625655,"[ 1  1  3  0  2  3  3  3  2  2  1  3  0  3  1  5  5  5  3  0  4  0  0  2
  5  2  4  1  8  6  0  7  0  5  7  5  4  3  3  0  1  2  0 11  8  4 18 11
  3 10  0  0  3  0  5  3 16  4  9 15  4 23 14  4 21 17  1 21  1  2 23 23
  1 17 17 18 19 25  8]"
19900,342,1.0,7,3,2873.0737318992615,138.41294527053833,0,2547200,12686793,88063464,"[ 1  3  0  5  0  0  3  1  2  0  0  0  0  3  1  1  3  4  0  2  4  0  0  2
  2  0  1  0  8  1  0  7  7  2  6 12  2  9  1  0  1  2  0 11  8  4 18 11
  3 15 15  0  3  0  2 10  1  5 12 17  3 15 20  4 21 17  3 15 14  0 21  0
  5 22 14 18 19 25  8]"
20000,342,1.0,7,3,2887.339725971222,142.6599407196045,0,2560000,12749133,88499815,"[ 5  2  0  5  1  1  1  1  2  4  3  0  0  3  1  4  4  4  2  5  7  0  0  2
  2  2  3  1  4  2  0 13  0  1  3  0  2 12  4  0  1  2  0 11  8  4 18 11
  0 13 12  0  3  0  1 10  2  0 12 18  2 17 20  4 21 17  1 15 15  4 23  0
  0  1 23 18 19 25  8]"
