generation,fitness,functionality,active_nodes,longest_path,time,gen_time,nc_gens,fitness_evals,graph_evals,node_evals,genotype
0,253.0,0.71875,5,2,0.705359935760498,705.359935760498,57,256,2775,17786,"[ 5  3  0  4  3  0  2  1  2  3  1  1  5  1  2  3  0  2  5  2  3  4  4  5
  3  8  1  2  2  1  4 12 13  3  6  6  5 12 13  0  9  2  5  3  6  5  9 13
  5 10 13  2  0 17  2 16 16  4  3  1  2 14 17  3 16 18  1 15 14  4 23 16
  0  0 23  4 17 18  1]"
100,292.0,0.84375,6,2,1.5452675819396973,8.399076461791992,96,656,8168,49544,"[ 5  1  0  4  0  0  2  2  2  1  1  1  0  0  0  2  8  8  2  2  5  3  7  1
  5  4  6  1  7  8  1  4  1  3  3  4  0  4  8  4  5  8  3  4  6  1 14  2
  2 10  9  2  0  2  1  1  9  5  0 13  5 18 17  0 15 18  3  1 21  1  1 17
  2  0  3  5 26 18  3]"
200,295.0,0.859375,7,3,2.5030064582824707,9.577388763427734,140,1056,13766,89658,"[ 5  1  0  4  0  0  2  2  3  1  1  0  4  0  2  5  1  4  3  8  6  3  4  4
  0  3  2  1  1  2  4  5  1  4 10  5  2  8  2  1  9  8  3  4  6  0  2 18
  3  0 14  2  0  2  5 18  9  4 13 14  2 18  3  0 21 18  2 21 21  4 23  1
  3  0 20  5 26 18 25]"
300,312.0,0.90625,6,2,3.421339750289917,9.183332920074463,185,1456,18950,127920,"[ 4  1  2  4  0  0  2  3  0  0  1  0  0  1  3  0  6  7  0  8  0  0  3  7
  4  4  2  2  6  4  3 12  4  4  0  0  3 12  8  4  9  2  3  2  6  5 10 18
  0  2 14  2  0  2  3 14  2  3 14 16  5 20  2  0 19  3  3  3 21  1 20 18
  2 18  3  5 26 18  8]"
400,312.0,0.90625,6,2,4.19063401222229,7.6929426193237305,231,1856,23746,157607,"[ 5  1  2  4  0  0  2  3  0  1  3  3  0  1  2  0  2  3  5  0  7  5  8  7
  2  8  5  3  4  6  3  3  0  4  7 10  5 13  5  3  9  2  5  8  6  1 13  9
  5  0 12  2  0  2  2 15 11  3 18 18  3 15  2  3 14  3  3  1 21  2 20  1
  2 15  3  5 26 18  8]"
500,312.0,0.90625,6,2,4.977936029434204,7.87302017211914,278,2256,28674,188398,"[ 5  1  0  4  0  0  2  3  0  5  0  2  0  1  3  2  0  3  0  6  5  3  8  6
  3  2  5  0  4  1  4  7 10  2  6  4  0 13  5  1  1  8  4 11  9  1 15 13
  1 11  0  2  0  2  2 11 16  2 13  0  1 17  3  1  1 16  3  3 21  5 14 14
  0 20  3  5 26 11  8]"
600,312.0,0.90625,6,2,5.777873992919922,7.999379634857178,314,2656,33757,219621,"[ 4  1  0  4  0  0  2  3  0  5  2  3  0  1  3  3  4  3  0  4  2  3  8  6
  1  3  0  0  4  4  0 12  9  2  6 12  3  4  5  3  1 11  5  5  0  2 11 11
  4 11 17  2  0  2  5 17 16  1 17 13  4  2  3  5 14  2  3 21 21  4  1 20
  2 16  3  5 26 11  8]"
700,315.0,0.921875,6,4,6.590853214263916,8.129792213439941,361,3056,38513,251963,"[ 1  1  0  1  0  3  2  3  0  5  1  2  0  1  3  2  5  5  2  4  0  5  8  6
  5  3  4  3  3  1  0  1  0  5 13  5  4  6  2  3  6 11  2 11  8  5 13 15
  4  0 17  2  0  2  5 12  3  1 12 13  4  0 17  3  0 14  3 17 21  2  2 14
  1 16 17 17 26 11  8]"
800,320.0,0.9375,6,4,7.271585941314697,6.8073272705078125,414,3456,42527,277559,"[ 2  3  3  5  1  3  2  2  0  3  0  1  0  1  3  1  5  3  0  1  5  5  8  6
  4  0  3  3  7  7  5  3 12  0  4 11  3  3  8  3  6 11  0  7  8  5  2 18
  1  3 16  2  0  2  3  0 11  4 12 13  5 18 17  3  2 23  5 17 21  4  3  3
  4 20 22 17 26 11  8]"
900,320.0,0.9375,6,4,7.910606145858765,6.390202045440674,468,3856,46185,300739,"[ 3  3  2  4  0  1  2  2  0  1  2  1  0  1  3  4  6  3  4  1  7  5  8  6
  0  5  2  0  7  7  5  5  3  0  2  8  4  1  8  3  6 11  2  7  2  4  2 18
  4 11  3  2  0  2  3 16 16  2 12 18  2 17  2  3 21 17  5 17 21  5  3 18
  5 17 15 17 26 11  8]"
1000,320.0,0.9375,6,4,8.56020212173462,6.495959758758545,528,4256,49937,324324,"[ 3  1  2  5  2  1  2  2  0  5  2  0  0  1  3  5  5  0  1  3  4  5  8  6
  1  1  1  3  2  7  0  5  1  0  3  8  4  3 13  3  6 11  1 13  4  3 13  2
  1  2  3  2  0  2  3  2  9  3 16  1  0  0 14  1 22 21  5 17 21  5  3 19
  5 17 17 17 26 11  8]"
1100,320.0,0.9375,7,3,9.266499042510986,7.062969207763672,576,4656,53902,351578,"[ 0  3  2  5  3  1  2  2  0  2  1  3  0  1  3  5  6  0  5  7  7  5  8  6
  1  1  1  2  2  1  2  8  0  5  2  4  0  0  8  3  6  7  2  5  7  3 17 12
  5  2 11  2  0  2  0 10 12  2 10  2  0 16 20  1 22 21  3 17 21  3 23  2
  3 16 14 17 26 11  8]"
1200,320.0,0.9375,6,4,9.941753625869751,6.7525458335876465,630,5056,57675,377167,"[ 1  3  0  3  2  0  2  2  0  2  0  1  0  1  3  1  1  0  4  1  2  5  8  6
  1  2  1  2  1  8  2  8  0  5  2  9  0  1 12  3  6 11  2  4 12  3 17  9
  1 11 11  2  0  2  4 14 18  3 17  2  0  0 23  1  0 19  5 17 21  3  2 18
  0 16  3 17 26 11  8]"
1300,320.0,0.9375,6,4,10.57848858833313,6.367349624633789,687,5456,61333,400556,"[ 0  3  0  0  2  2  2  2  0  1  2  3  0  1  3  1  5  0  2  4  1  5  8  6
  1  6  1  2  6  8  4 10  6  3  1  5  3  5 12  3  6 11  3 13  0  5 16  3
  0  1 11  2  0  2  0  0 11  0 12 14  5 16 23  1 21 19  5 17 21  2 22 18
  3 19  1 17 26 11  8]"
1400,320.0,0.9375,6,4,11.209753036499023,6.3126444816589355,751,5856,64898,423388,"[ 2  1  1  1  1  0  2  2  0  3  2  1  0  1  3  1  5  8  5  7  3  5  8  6
  1  5  0  0  0  1  3 10  6  2  0  8  2  1  0  3  6 11  2  8  9  3  1 16
  2  3  9  2  0  2  0  3 15  5  3  2  1 16 16  5 23 14  5 17 21  3 19 23
  3  0 15 17 26 11  8]"
1500,320.0,0.9375,6,4,11.885511875152588,6.7575883865356445,798,6256,68714,447651,"[ 2  0  2  5  0  0  2  2  0  0  2  1  0  1  3  1  3  8  1  7  2  5  8  6
  1  3  5  0  2  3  4 11  2  4  8  1  1  8  5  3  6 11  5  0  5  2 16 13
  1 16  9  2  0  2  5 11 10  0 10  3  3 17 21  2 16  0  3 17 21  3 19 22
  0 20 16 17 24 11  8]"
1600,320.0,0.9375,6,4,12.52303671836853,6.375248432159424,854,6656,72400,471389,"[ 2  1  1  5  2  0  2  2  0  0  2  3  0  1  3  3  2  0  1  7  0  5  8  6
  2  5  2  0  1  2  5 10  3  2 10 10  3  5  8  3  6 11  4  3  5  2  2 13
  3 17 13  2  0  2  4 15 14  5 10  3  5 21 21  5  2  2  5 17 21  0  2  3
  3 23 14 17 26 11  8]"
1700,324.0,0.953125,8,3,13.343225002288818,8.20188283920288,906,7056,76392,503460,"[ 2  3  1  2  3  0  2  1  0  0  3  1  0  1  3  3  5  4  2  3  0  2  0  6
  2  6  2  2  1  2  5  9  0  1  0  5  3  4  7  3  6 10  1  4 10  4 14 17
  5 17 13  2  0  2  2  9 10  4 13 11  2  0 18  5  1 19  3 17 21  0 23 17
  5 23 21 17 26 20  8]"
1800,329.0,0.96875,8,3,14.12292742729187,7.797024250030518,958,7456,80393,535468,"[ 5  0  0  0  3  0  0  1  1  5  3  2  0  1  3  3  4  4  2  3  0  1  5  6
  5  1  1  2  1  2  0 11 11  2  0  7  3 13  0  3 13 10  1  8  1  0 12 17
  5 16 10  2  0  2  5 15 11  0 13  3  4 20 19  5  2 20  3 17 21  5 16 21
  5 19 14 17 26 20  8]"
1813,338,1.0,10,4,14.220251083374023,7.486435083242563,967,7508,80869,539397,"[ 5  0  0  4  3  0  3  1  1  3  3  2  0  1  3  3  2  4  2  3  0  2  2  6
  0  1  1  2  1  2  3 11 11  4  0  7  3 13  9  3 13 10  1  8  1  0 12 17
  5 16 10  2  0  2  1 15 11  0 13 14  4 20 16  5  2 20  3 17 21  5 16 22
  5 19 21 17 26 20  8]"
1900,340,1.0,9,3,14.684423446655273,5.335314520474138,1008,7856,82817,556925,"[ 5  2  1  0  1  1  5  2  2  4  2  1  0  1  3  3  0  3  2  3  0  2  3  1
  3  1  1  2  1  2  5  1 11  0  0 10  3 13  7  3 13 10  3  1  4  2  1 17
  5 16 10  2  0  2  4 17 12  0  0  2  0  3 18  2 22 14  3 17 21  2 16  2
  5 19 18 17 26 20  8]"
2000,340,1.0,9,3,15.203054904937744,5.186314582824707,1057,8256,84916,575660,"[ 1  1  0  1  0  1  3  3  2  4  2  2  0  1  3  3  6  4  2  3  0  1  0  1
  2  3  8  2  1  2  3  5 11  4 13  0  3 13  7  3 13 10  5  1  1  2 17 16
  5 16 10  2  0  2  3  9 12  4  0 15  3 19 18  1 22 14  5 17 21  2 21  2
  0 15 21 17 26 20  8]"
2100,340,1.0,9,3,15.742544412612915,5.394895076751709,1107,8656,87113,595341,"[ 1  1  0  1  2  2  2  2  1  4  1  1  0  1  3  1  8  4  2  3  0  1  8  3
  3  5  4  2  1  2  4  4 11  4  2 13  3 13  7  3 13 10  1  1  1  2 17  0
  5 16 10  2  0  2  5 14 10  3  3 14  3 21  2  4  3 14  3 17 21  2 14  1
  5  1 16 17 26 20  8]"
2200,341,1.0,8,3,16.247008085250854,5.0446367263793945,1163,9056,89115,612415,"[ 1  3  3  2  3  0  4  3  0  2  2  1  0  1  3  1  0  4  2  3  0  1  8  4
  1  4  4  2  1  2  2  7 11  4  4  5  2 13 13  3 13 10  1  1 11  2 13  0
  5 16 10  2  0  2  1 14  0  3 11 12  3 20  2  4 22 17  5 17 21  2 15  1
  5  1 16 17 26 20  8]"
2300,341,1.0,8,3,16.709479093551636,4.6247100830078125,1224,9456,91065,628032,"[ 2  2  1  3  1  2  4  3  3  0  2  2  0  1  3  1  4  0  2  3  0  3  6  4
  4  4  4  2  1  2  1  7 13  4  4  3  3 13 13  3 13 10  0  1 13  1  1 13
  5 16 10  2  0  2  0 14 12  3 11 13  3 20 20  4 23 17  3 17 21  4 15 17
  3 14 19 17 26 20  8]"
2400,341,1.0,8,3,17.156444549560547,4.469654560089111,1286,9856,92918,642871,"[ 1  0  1  4  2  2  2  0  2  1  0  2  0  1  3  1  1  3  2  3  0  3  6  2
  0  5  1  2  1  2  1  3 12  4  5  8  2 13 13  3 13 10  3  1  4  3 10 11
  5 16 10  2  0  2  0  9 15  2  3 14  3 20 15  5 21  1  5 17 21  4 18 15
  3 14 19 17 26 20  8]"
2500,341,1.0,8,3,17.591731548309326,4.352869987487793,1347,10256,94706,657178,"[ 1  3  1  0  2  0  0  0  3  1  0  1  0  1  3  1  4  3  2  3  0  5  6  2
  0  3  3  2  1  2  0 12  8  4  0 13  3 13 13  3 13 10  2  8  1  3 13 17
  5 16 10  2  0  2  0 15 10  5 13 16  4 20 16  2 21 20  5 17 21  0 23 23
  3 14  2 17 26 20  8]"
2600,341,1.0,8,3,18.053011417388916,4.612798690795898,1410,10656,96659,672726,"[ 1  3  3  0  2  0  0  0  3  0  2  1  0  1  3  1  8  1  2  3  0  5  0  7
  2  3  3  2  1  2  0 10 10  3  5  9  3 13 13  3 13 10  2  8 12  2 18 15
  5 16 10  2  0  2  2 13 10  3 13 15  4 19 19  2 14 20  5 17 21  0 23 16
  4 14 17 17 26 20  8]"
2700,341,1.0,8,3,18.491780281066895,4.387688636779785,1479,11056,98487,687327,"[ 3  3  3  0  2  3  4  0  0  5  3  1  0  1  3  1  8  8  2  3  0  5  7  5
  0  3  4  2  1  2  0  1  2  5  5  0  2 13 13  3 13 10  2  5 12  2 18 14
  5 16 10  2  0  2  3 13 15  3 13 15  4 19 19  5 14 18  5 17 21  3 23 14
  1 19 17 17 26 20  8]"
2800,341,1.0,8,3,18.91950273513794,4.277224540710449,1544,11456,100262,701485,"[ 3  1  0  0  2  3  4  3  1  2  2  1  0  1  3  4  6  5  2  3  0  5  5  0
  0  3  6  2  1  2  0  8  7  3 11  0  3 13 13  3 13 10  3  8 12  3 17 14
  5 16 10  2  0  2  3  3 16  1 17  0  4 19 22  4 14 18  5 17 21  1 20 20
  0 19 20 17 26 20  8]"
2900,341,1.0,8,3,19.38251519203186,4.630124568939209,1600,11856,102242,717245,"[ 1  0  0  2  2  3  1  3  3  0  0  1  0  1  3  4  6  5  2  3  0  5  5  5
  5  3  2  2  1  2  4 13  0  2 11  5  3 13 13  3 13 10  3 12  5  3 17  9
  5 16 10  2  0  2  3 17 13  1 17 17  0 15 20  2 14 14  5 17 21  3 18 23
  1 18 20 17 26 20  8]"
3000,341,1.0,8,3,19.85421347618103,4.716982841491699,1656,12256,104213,733079,"[ 4  3  0  1  2  2  1  0  1  2  2  1  0  1  3  4  4  5  2  3  0  3  5  3
  5  3  2  2  1  2  4  0  5  1 11  5  3 13 13  3 13 10  1  7 13  5 17 15
  5 16 10  2  0  2  4 13 18  2  9 17  3  0 19  3 14 14  2 17 21  3 21 17
  4  0 23 17 27 20  8]"
3100,341,1.0,8,3,20.317596673965454,4.633831977844238,1714,12656,106160,748718,"[ 1  3  3  1  1  2  3  0  2  3  2  1  0  1  3  1  4  8  2  3  0  1  7  8
  4  3  2  2  1  2  4  0 13  1  4  5  3 13 13  3 13 10  4  8 10  3  2 15
  5 16 10  2  0  2  2  2 13  5 13  9  5 17  2  4 20 19  3 17 21  5  3 14
  4  0 23 17 26 20  8]"
3200,341,1.0,8,3,20.78170347213745,4.641067981719971,1770,13056,108112,764324,"[ 5  2  2  2  1  2  5  2  3  0  1  0  0  1  3  4  8  3  2  3  0  5  7  2
  4  2  6  2  1  2  2  5  2  1  3  1  2 13 13  3 13 10  5  0 12  1  0  1
  5 16 10  2  0  2  1  2 10  0 16 10  2  0  2  5 20  0  3 17 21  5 14 21
  0 19 23 17 26 20  8]"
3300,341,1.0,8,3,21.24436330795288,4.626598358154297,1821,13456,110096,780119,"[ 5  2  1  0  1  0  5  2  3  0  0  0  0  1  3  0  6  4  2  3  0  2  5  4
  3  2  2  2  1  2  0  0  2  0  6  7  2 13 13  3 13 10  5  1 11  4  1 18
  5 16 10  2  0  2  0  2  9  0 14 12  2  0  2  5 20  0  5 17 21  0 18 18
  0 19 19 17 26 20  8]"
3400,341,1.0,8,3,21.6965651512146,4.5220184326171875,1884,13856,112020,795486,"[ 5  3  2  2  0  0  5  3  0  5  0  3  0  1  3  3  6  6  2  3  0  2  3  0
  2  1  2  2  1  2  0  7  1  0  0 10  3 13 13  3 13 10  1  1  6  4  1  2
  5 16 10  2  0  2  0  2 10  1  9 13  1  2 19  5  3  0  5 17 21  3 18 17
  4 14 22 17 26 20  8]"
3500,341,1.0,8,3,22.154278993606567,4.577138423919678,1945,14256,113838,809960,"[ 2  3  2  5  0  1  0  0  0  5  2  0  0  1  3  0  3  3  2  3  0  5  5  0
  1  1  2  2  1  2  0  1 10  2  2  4  2 13 13  3 13 10  4 13  8  4 13 14
  5 16 10  2  0  2  0  9 18  4  9  9  1  2 22  3  3 17  5 17 21  3 18 15
  4 14 21 17 26 20  8]"
3600,341,1.0,8,3,22.580495834350586,4.2621684074401855,2009,14656,115575,823840,"[ 2  3  2  4  0  1  3  2  1  0  2  0  0  1  3  0  1  8  2  3  0  0  5  3
  1  1  2  2  1  2  1 11  6  5 12  4  3 13 13  3 13 10  5 13  9  3 12 14
  5 16 10  2  0  2  4 15 18  5  1  9  1 15 14  5 22 20  5 17 21  3 18 21
  2 16 17 17 26 20  8]"
3700,341,1.0,8,3,23.0379056930542,4.574098587036133,2068,15056,117470,838960,"[ 2  3  2  5  2  3  0  0  1  2  1  0  0  1  3  5  1  4  2  3  0  0  0  3
  3  2  7  2  1  2  1  1  0  3  2  4  2 13 13  3 13 10  3 13  3  3 13  3
  5 16 10  2  0  2  0 11 14  1 14 12  0 18  3  5 22 23  5 17 21  3 23 15
  0 20 21 17 26 20  8]"
3800,341,1.0,8,3,23.491846323013306,4.5394062995910645,2123,15456,119431,854545,"[ 4  2  3  5  1  3  1  0  2  0  1  1  0  1  3  5  8  4  2  3  0  0  0  6
  2  1  7  2  1  2  1  7  0  5  2  3  3 13 13  3 13 10  1 13  3  1 13 10
  5 16 10  2  0  2  4  3 13  2 18 12  0 16  2  5 22  1  3 17 21  3 22 15
  2 15 22 17 26 20  8]"
3900,341,1.0,8,3,23.92532467842102,4.334783554077148,2186,15856,121234,868934,"[ 4  0  0  2  2  3  3  2  2  4  1  3  0  1  3  2  8  8  2  3  0  0  0  0
  1  1  4  2  1  2  1  7  2  5 12  0  2 13 13  3 13 10  5 11  5  5  9  1
  5 16 10  2  0  2  4  3 15  1 14 12  0 16  2  1 19 16  5 17 21  3  2 19
  5 20  0 17 26 20  8]"
4000,341,1.0,8,3,24.354938983917236,4.296143054962158,2250,16256,122981,882955,"[ 4  2  0  2  0  0  3  1  3  4  1  0  0  1  3  1  4  6  2  3  0  4  1  0
  1  1  8  2  1  2  5  9  2  5  3  0  3 13 13  3 13 10  0 12  7  5  3 11
  5 16 10  2  0  2  3  3  3  4 16 10  5  0  2  1 21 19  5 17 21  3 20 22
  0 20 14 17 26 20  8]"
4100,341,1.0,8,3,24.792680740356445,4.37741756439209,2313,16656,124713,896896,"[ 4  2  0  4  0  1  2  0  1  2  0  0  0  1  3  1  8  6  2  3  0  4  1  5
  1  1  7  2  1  2  5  9  2  5  1 13  2 13 13  3 13 10  0 12  9  0 15 10
  5 16 10  2  0  2  3 11  2  4 16  1  5  0 20  0 15 16  3 17 21  0  1 22
  0 15 14 17 26 20  8]"
4200,341,1.0,8,3,25.255075454711914,4.6239471435546875,2376,17056,126636,912332,"[ 4  0  0  4  3  1  2  0  1  5  0  1  0  1  3  1  8  8  2  3  0  4  3  7
  1  3  7  2  1  2  3 11  0  0  0 13  3 13 13  3 13 10  0  8  9  0 15 10
  5 16 10  2  0  2  3 10  1  4 11  1  1 23 21  0 15 16  5 17 21  0 22 22
  2 16 19 17 26 20  8]"
4300,341,1.0,8,3,25.697606801986694,4.425313472747803,2436,17456,128462,926977,"[ 2  2  0  1  3  1  2  0  0  4  2  3  0  1  3  3  6  7  2  3  0  5  8  5
  0  1  3  2  1  2  0  9  0  4  0  6  3 13 13  3 13 10  0 12  9  2 10 10
  5 16 10  2  0  2  2 10 15  5 18 11  2 16 21  2 15 16  3 17 21  4 19 20
  0 23  2 17 26 20  8]"
4400,341,1.0,8,3,26.169752597808838,4.7214579582214355,2494,17856,130487,943247,"[ 3  0  3  2  2  0  0  0  0  3  2  2  0  1  3  3  6  7  2  3  0  2  6  5
  3  7  5  2  1  2  1  9  0  0  0  0  2 13 13  3 13 10  4  8  2  1 14 10
  5 16 10  2  0  2  1 11  9  4 14 11  3 22  1  0 15 16  3 17 21  2 16  2
  2 15 20 17 26 20  8]"
4500,341,1.0,8,3,26.639109134674072,4.693565368652344,2549,18256,132510,959436,"[ 1  1  1  5  1  1  0  0  3  2  0  3  0  1  3  4  5  1  2  3  0  4  7  4
  1  2  5  2  1  2  4  7  0  2  9  6  2 13 13  3 13 10  4 10  3  2 10 10
  5 16 10  2  0  2  5 11  9  2 14 17  1 21  0  3 18  1  3 17 21  0  3 20
  2  1 20 17 26 20  8]"
4600,341,1.0,8,3,27.09817409515381,4.590649604797363,2602,18656,134406,974613,"[ 1  0  1  5  0  2  1  0  0  3  1  2  0  1  3  4  3  5  2  3  0  4  2  5
  1  6  5  2  1  2  2  7  0  2  5  6  2 13 13  3 13 10  0  9 10  2 12 14
  5 16 10  2  0  2  5 11 13  0 18 12  1  3 15  3 18  1  5 17 21  1  3  2
  0 15 19 17 26 20  8]"
4700,341,1.0,8,3,27.531653881072998,4.3347978591918945,2663,19056,136146,988621,"[ 1  2  2  5  1  2  1  0  0  2  1  1  0  1  3  4  6  5  2  3  0  2  2  4
  5  6  6  2  1  2  4 13  0  3 12  6  3 13 13  3 13 10  0  9  1  4 15 12
  5 16 10  2  0  2  5 16 13  4 15 10  1  3 23  3 18 14  3 17 21  2  0 17
  1 15  0 17 26 20  8]"
4800,341,1.0,8,3,28.005569219589233,4.7391533851623535,2719,19456,138174,1004813,"[ 1  0  2  2  0  2  1  3  1  2  0  1  0  1  3  5  1  0  2  3  0  2  7  0
  2  1  6  2  1  2  4  8  5  0  6  3  3 13 13  3 13 10  0 10  1  3 13  3
  5 16 10  2  0  2  1 13 13  4  9 18  3 23  0  5 21 17  0 17  0  5 20 17
  1  3  2 17 25 20  8]"
4900,341,1.0,8,3,28.482519388198853,4.769501686096191,2767,19856,140252,1021418,"[ 1  0  3  2  1  0  1  3  1  5  2  1  0  1  3  5  3  4  2  3  0  0  6  4
  2  7  7  2  1  2  1 12  1  0  1  3  3 13 13  3 13 10  0  4  0  3  0  0
  5 16 10  2  0  2  3  9  3  3 15 18  3 23  0  5 21 17  2 18 19  2 20 16
  0 19 20 17 25 20  8]"
5000,341,1.0,8,3,28.93213653564453,4.496171474456787,2831,20256,142146,1036596,"[ 4  3  1  5  2  0  1  0  3  5  1  1  0  1  3  3  2  5  2  3  0  3  6  5
  5  7  1  2  1  2  1 12 12  4  6  6  2 13 13  3 13 10  0  9 11  5 16 18
  5 16 10  2  0  2  5  0  3  5  1 18  3  1  1  3 21 17  3  2 19  2 23 16
  5 21 18 17 25 20  8]"
5100,341,1.0,8,3,29.400153636932373,4.680171012878418,2885,20656,144106,1052329,"[ 5  3  0  3  3  0  1  2  3  5  2  2  0  1  3  3  5  2  2  3  0  3  2  5
  1  7  4  2  1  2  3 10 12  0 13  4  2 13 13  3 13 10  3  6  7  3 11 12
  5 16 10  2  0  2  1 17 18  0 13  0  4 16 20  3 21 17  3 18 16  3  3 16
  2 22 14 17 25 20  8]"
5200,341,1.0,8,3,29.85975933074951,4.596056938171387,2952,21056,146041,1067777,"[ 5  3  3  3  2  1  5  2  2  1  2  2  0  1  3  4  3  6  2  3  0  3  5  7
  1  2  8  2  1  2  3  4 12  5  8  8  3 13 13  3 13 10  2 10 13  1 12 12
  5 16 10  2  0  2  1  2 16  3 15  0  3 16  1  3 21 17  5 15 16  3  3 15
  2 22  1 17 25 20  8]"
5300,341,1.0,8,3,30.32782769203186,4.680683612823486,3003,21456,148029,1083655,"[ 0  1  3  3  3  0  4  3  2  4  3  3  0  1  3  3  4  4  2  3  0  3  4  0
  1  8  7  2  1  2  3 13  3  4  5  3  3 13 13  3 13 10  0 10  2  1  0 12
  5 16 10  2  0  2  5  9 10  2 13  0  2 17 22  5 21 17  0  1  2  0 20 23
  3 16  0 17 25 20  8]"
5400,341,1.0,8,3,30.792954444885254,4.6512675285339355,3057,21856,150028,1099569,"[ 3  1  1  1  3  3  3  2  2  2  1  1  0  1  3  4  3  0  2  3  0  2  6  4
  4  8  7  2  1  2  3  9  9  0 13  9  3 13 13  3 13 10  4  1 10  2  0 16
  5 16 10  5  9 11  1  9 13  2  0  2  2 15 19  5 23 17  4  1 22  2  0 23
  3 20  0 17 25 20  8]"
5500,341,1.0,8,3,31.2369441986084,4.439897537231445,3115,22256,151905,1114622,"[ 3  1  2  1  3  3  3  2  2  2  2  0  0  1  3  5  3  4  2  3  0  4  4  6
  1  8  7  2  1  2  4 12  9  0 13  9  3 13 13  3 13 10  1  1 12  2 10  3
  5 16 10  5 18 10  2  9 13  2  0  2  4 15 19  5 23 17  4 14 22  3  0  2
  3 17 20 17 25 20  8]"
5600,341,1.0,8,3,31.681307077407837,4.443628787994385,3171,22656,153767,1129578,"[ 3  1  3  4  3  1  3  0  2  2  1  1  0  1  3  5  6  5  2  3  0  5  1  6
  1  1  7  2  1  2  1 13  9  0  0  0  3 13 13  3 13 10  5 12 12  1 13 10
  5 16 10  2 14  0  1  9 14  2  0  2  4 23 19  5 23 17  4  3 17  0  0 19
  0 21 15 17 25 20  8]"
5700,341,1.0,8,3,32.13053035736084,4.492232799530029,3237,23056,155622,1144475,"[ 2  0  0  0  1  0  3  3  1  1  2  2  0  1  3  2  6  2  2  3  0  5  1  8
  1  4  7  2  1  2  0 13  8  3  0  4  2 13 13  3 13 10  2  3 12  1 13 10
  5 16 10  0 17  9  5 13  3  2  0  2  5 22  1  5 23 17  4 22 17  0  0 14
  0  0 20 17 25 20  8]"
5800,341,1.0,8,3,32.600911140441895,4.703807830810547,3291,23456,157640,1160725,"[ 1  0  3  1  0  1  0  3  3  1  3  2  0  1  3  1  8  3  2  3  0  5  1  8
  3  4  7  2  1  2  5  2  8  5  0 12  3 13 13  3 13 10  0  1 12  1 12 10
  5 16 10  0 16 17  5  2 18  2  0  2  5  0 20  3 23 17  5 21 17  0  0 14
  0  2 16 17 25 20  8]"
5900,341,1.0,8,3,33.0566201210022,4.557089805603027,3350,23856,159539,1175939,"[ 0  1  0  1  1  1  3  3  3  1  2  3  0  1  3  0  8  3  2  3  0  1  2  8
  3  4  7  2  1  2  5  2 13  5  9  9  2 13 13  3 13 10  5  1  1  1 12 13
  5 16 10  3 14  3  4  1 18  2  0  2  4 14 15  5 23 17  2 20 17  4 16 14
  2  2 22 17 25 20  8]"
6000,341,1.0,8,3,33.51679277420044,4.601726531982422,3414,24256,161521,1191758,"[ 1  0  3  1  2  0  1  3  3  3  2  3  0  1  3  0  5  4  2  3  0  1  3  2
  3  4  8  2  1  2  5  9 13  5  8  8  2 13 13  3 13 10  1  0  5  1 10  1
  5 16 10  3 14 11  4  1 16  2  0  2  3 23 22  3 23 17  0 20 17  2 21 14
  2  2 15 17 25 20  8]"
6100,341,1.0,8,3,33.96130108833313,4.445083141326904,3468,24656,163323,1206188,"[ 1  1  2  5  1  2  0  3  3  5  2  0  0  1  3  3  8  0  2  3  0  0  3  7
  4  4  1  2  1  2  2 11  5  4 12  4  2 13 13  3 13 10  0 13  5  0  2 11
  5 16 10  3 15  9  5  1 14  2  0  2  3 23 22  3 23 17  3 20 17  5 21 14
  3  2 16 17 25 20  8]"
6200,341,1.0,8,3,34.409321546554565,4.4802045822143555,3531,25056,165176,1221020,"[ 1  0  3  4  2  2  0  2  3  4  2  0  0  1  3  1  2  0  2  3  0  1  2  4
  4  7  4  2  1  2  3  3  1  0  6  3  3 13 13  3 13 10  0 13  9  0 17 17
  5 16 10  2 12 16  1 17  1  2  0  2  3 23  1  3 23 17  5 15 17  5 21  3
  4 18 14 17 25 20  8]"
6300,341,1.0,8,3,34.82229256629944,4.1297101974487305,3600,25456,166811,1234113,"[ 1  0  3  4  2  2  5  0  3  4  2  2  0  1  3  0  4  0  2  3  0  4  2  0
  4  7  2  2  1  2  3  3  9  1  6  8  3 13 13  3 13 10  0  7  9  5 13 13
  5 16 10  3 15 16  3 12 10  2  0  2  3 19  1  3 23 17  4 15 16  5 15  3
  1 18 20 17 25 20  8]"
6400,341,1.0,8,3,35.282416105270386,4.601235389709473,3664,25856,168721,1249322,"[ 1  1  1  1  1  1  2  3  3  4  1  2  0  1  3  0  7  0  2  3  0  3  2  6
  4  8  1  2  1  2  2  3  5  4 11  2  3 13 13  3 13 10  0  1  8  5  3 16
  5 16 10  1 15 18  5 12 10  2  0  2  4 16 22  3 23 17  4 15 21  5 18  3
  0 14 20 17 25 20  8]"
6500,341,1.0,8,3,35.72414255142212,4.417264461517334,3720,26256,170583,1264183,"[ 1  2  2  0  0  1  4  2  3  5  1  0  0  1  3  1  4  0  2  3  0  3  5  0
  3  2  1  2  1  2  3  4  6  4  9  6  2 13 13  3 13 10  0  1  8  3 17  0
  5 16 10  1 15  1  3 12 13  2  0  2  0  0 21  5 23 17  3 15 23  5 18  3
  5  2 17 17 25 20  8]"
6600,341,1.0,8,3,36.162344217300415,4.382016658782959,3790,26656,172364,1278380,"[ 1  2  1  1  0  1  5  1  3  5  1  0  0  1  3  1  3  7  2  3  0  3  4  2
  3  2  3  2  1  2  3  4  6  4  9  6  2 13 13  3 13 10  0  9  8  3 17  0
  5 16 10  1 16  1  1 12 13  2  0  2  0  0 20  3 23 17  3 15 23  5 18  3
  5  2 23 17 25 20  8]"
6700,341,1.0,8,3,36.62272357940674,4.603793621063232,3842,27056,174346,1294234,"[ 5  3  2  5  0  1  1  0  1  1  2  0  0  1  3  4  3  7  2  3  0  1  7  6
  2  4  0  2  1  2  0  8  9  4 11  0  3 13 13  3 13 10  5 13  8  2 14 18
  5 16 10  2  1  0  0 10 13  2  0  2  4  0 22  5 23 17  3 19 16  1 17 23
  3 21 19 17 25 20  8]"
6800,341,1.0,8,3,37.07350254058838,4.507789611816406,3905,27456,176257,1309467,"[ 1  1  2  5  3  1  1  0  0  1  2  3  0  1  3  4  3  3  2  3  0  0  7  3
  5  6  0  2  1  2  5 10  9  5  4  0  3 13 13  3 13 10  5  8  8  3 14 18
  5 16 10  1 13  0  0 14  3  2  0  2  4  0 21  5 23 17  4 20 16  5 17 23
  3 15 19 17 25 20  8]"
6900,341,1.0,8,3,37.52412748336792,4.50624942779541,3959,27856,178139,1324538,"[ 3  0  2  2  3  3  1  2  1  1  1  2  0  1  3  4  2  1  2  3  0  2  2  3
  3  7  8  2  1  2  4  7  6  3  2  1  2 13 13  3 13 10  0  8  1  3 18  0
  5 16 10  2 14 11  1 18 13  2  0  2  4 18  2  3 19 15  0 17 18  3 17 23
  2 15 18 17 27 20  8]"
7000,341,1.0,8,3,37.96318340301514,4.390559196472168,4016,28256,179991,1339340,"[ 4  3  2  0  1  3  2  0  0  2  1  3  0  1  3  4  2  1  2  3  0  5  2  3
  3  1  2  2  1  2  5  7  0  3  3  1  2 13 13  3 13 10  0 13  7  3  9  1
  5 16 10  4 16  3  5  9  1  2  0  2  4  1 23  0 18  0  0 17 21  3 17 23
  1 15 18 17 27 20  8]"
7100,341,1.0,8,3,38.38721323013306,4.240298271179199,4080,28656,181713,1353129,"[ 3  1  3  1  2  3  4  0  0  2  2  1  0  1  3  5  4  1  2  3  0  5  2  0
  3  3  8  2  1  2  2  7  0  3 11  1  2 13 13  3 13 10  0  3  2  4  1  2
  5 16 10  4 14  3  3 17  3  2  0  2  5 22  2  1 18 21  4 22 21  3 17 23
  3  3 21 17 27 20  8]"
7200,341,1.0,8,3,38.833893060684204,4.466798305511475,4134,29056,183622,1368360,"[ 0  3  3  3  1  0  4  2  0  1  3  1  0  1  3  5  8  3  2  3  0  5  1  3
  1  4  5  2  1  2  0  5  3  4  7  9  3 13 13  3 13 10  2  6  4  4 17 15
  5 16 10  3 14  3  3 16  3  2  0  2  2  0 23  3 16 21  4 22 22  3 17 23
  5 14 21 17 27 20  8]"
7300,341,1.0,8,3,39.240821838378906,4.0692877769470215,4198,29456,185243,1381341,"[ 0  1  3  1  1  3  4  2  1  0  1  2  0  1  3  3  3  0  2  3  0  1  5  1
  4  0  5  2  1  2  1  5 12  3  7  7  3 13 13  3 13 10  2  6  4  0 17 18
  5 16 10  4  2  3  0 14 10  2  0  2  4 18 21  5 22 21  2  3 19  5 17 23
  2  3  0 17 27 20  8]"
7400,341,1.0,8,3,39.707069873809814,4.662480354309082,4253,29856,187216,1397112,"[ 0  0  3  5  3  1  0  0  1  0  0  0  0  1  3  0  1  6  2  3  0  0  5  3
  0  0  3  2  1  2  1  9  1  4  3  8  2 13 13  3 13 10  1  2 13  2 15 18
  5 16 10  4 13  3  4 15 15  2  0  2  4 18 14  3  1 21  4 22 19  3 17 23
  5 16  2 17 27 20  8]"
7500,341,1.0,8,3,40.177441358566284,4.703714847564697,4308,30256,189208,1412957,"[ 3  2  3  1  0  0  2  3  2  5  0  2  0  1  3  3  3  6  2  3  0  2  8  4
  4  3  7  2  1  2  1  2  0  1  3  1  2 13 13  3 13 10  5  3  7  1 18 15
  5 16 10  4 13 16  4 16  0  2  0  2  5 17  0  2 21  0  3 19 22  5 17 23
  5  3 20 17 27 20  8]"
7600,341,1.0,8,3,40.679129123687744,5.0168776512146,4367,30656,191179,1428773,"[ 2  3  3  1  0  0  2  1  2  5  0  1  0  1  3  1  3  0  2  3  0  2  8  5
  1  3  5  2  1  2  1  4  0  0 13  7  2 13 13  3 13 10  1  4  1  5 18  1
  5 16 10  1 14 16  0  3  0  2  0  2  0 14 23  1 21  3  2 19 22  3 17 23
  1  0 18 17 27 20  8]"
7700,341,1.0,8,3,41.10225796699524,4.231288433074951,4434,31056,192944,1442920,"[ 2  1  3  5  0  0  2  1  1  0  2  3  0  1  3  2  3  0  2  3  0  2  8  4
  1  4  4  2  1  2  5  6  6  4 13  3  2 13 13  3 13 10  5  4  1  5 13 18
  5 16 10  2 13  9  4  3  0  2  0  2  5 16 23  3  1  3  1 19 16  3 17 23
  2  3 17 17 27 20  8]"
7800,341,1.0,8,3,41.59731841087341,4.950604438781738,4492,31456,194794,1457715,"[ 1  2  1  1  2  0  2  1  1  0  1  3  0  1  3  0  4  0  2  3  0  2  0  3
  5  8  6  2  1  2  2  5  6  5  1  3  2 13 13  3 13 10  2  4 13  3 11 18
  5 16 10  3 14  1  1 16 13  2  0  2  1 16 17  1 18 19  1 15 18  3 17 23
  4  3 19 17 27 20  8]"
7900,342,1.0,7,3,42.036834716796875,4.395163059234619,4554,31856,196650,1472165,"[ 0  1  1  1  1  3  4  1  1  0  0  0  0  1  3  4  1  3  2  3  0  2  0  3
  5  4  2  2  1  2  0 12  6  5 11  8  2 13 13  3 13 10  0  4 13  2  9 16
  5 16  0  2  2 11  4 10 13  2  0  2  1  3 17  1  3 19  1 14  2  3 17 23
  0 18  3 17 27 22  8]"
8000,342,1.0,7,3,42.44202017784119,4.051854610443115,4619,32256,198405,1484614,"[ 1  2  1  1  3  3  4  1  3  1  0  0  0  1  3  4  1  2  2  3  0  2  0  2
  0  2  7  2  1  2  0  5  6  0  7  5  1  0  2  3 13 10  2  0  7  3  9 17
  5 11 10  3 10 11  4 10 13  2  0  2  0 20 18  4  2 23  1  0 17  3 17 23
  0 17  0 17 27 22  8]"
8100,342,1.0,7,3,42.84655547142029,4.045352935791016,4682,32656,200198,1497254,"[ 0  2  2  3  3  3  1  3  3  2  0  1  0  1  3  2  8  2  2  3  0  4  5  5
  0  2  1  2  1  2  0  8  6  0  7  0  5  4  2  3 13 10  3  4 13  0  9 14
  1 18 11  0  0 11  4 10 13  2  0  2  0  0 21  1 23 23  0  0 17  3 17 23
  0 18  0 17 27 22  8]"
8200,342,1.0,7,3,43.27252459526062,4.25969123840332,4733,33056,202172,1511099,"[ 0  2  2  3  1  0  0  0  3  0  0  2  0  1  3  2  7  0  2  3  0  2  5  7
  2  8  1  2  1  2  1  8  7  3 10  1  5  3  6  3 13 10  2  1 13  3  1  9
  3  0 10  0  2 18  4 10 13  2  0  2  4  0  3  3  0 21  0 18 15  5 17 23
  0  2 17 17 27 22  8]"
8300,342,1.0,7,3,43.67874503135681,4.062204360961914,4801,33456,203959,1523780,"[ 4  0  2  2  3  3  0  1  3  0  1  2  0  1  3  2  7  1  2  3  0  2  5  4
  2  8  5  2  1  2  1  1  3  4  0  6  5  5  5  3 13 10  3  0  5  5 11  0
  3 12 15  1 14 12  4 10 13  2  0  2  4  0 22  4  0 16  4 14 15  5 17 23
  5  2 17 17 27 22  8]"
8400,342,1.0,7,3,44.089749336242676,4.110043048858643,4864,33856,205768,1536528,"[ 4  0  2  2  2  0  0  1  3  3  1  0  0  1  3  1  4  5  2  3  0  2  6  0
  1  4  2  2  1  2  0  0  0  2  2  8  0  5  5  3 13 10  4  0  1  0 11  0
  2  2 15  4 14 13  4 10 13  2  0  2  4 14 14  1 22 21  2 14 15  3 17 23
  3 18 22 17 27 22  8]"
8500,342,1.0,7,3,44.50388765335083,4.141383171081543,4922,34256,207622,1549563,"[ 3  0  3  4  0  2  4  3  2  4  1  2  0  1  3  2  4  7  2  3  0  2  5  2
  0  1  2  2  1  2  2  0 10  0  0 12  2 10  0  3 13 10  5  4  3  0 11  0
  3  0 17  1  3 13  4 10 13  2  0  2  4 18  2  1 23 21  2 14 19  3 17 23
  5 17  2 17 27 22  8]"
8600,342,1.0,7,3,44.94245743751526,4.385697841644287,4984,34656,209632,1563719,"[ 1  2  3  3  0  2  1  3  2  3  2  0  0  1  3  2  1  4  2  3  0  3  6  7
  4  1  4  2  1  2  3 11  3  1 12 10  5 12  6  3 13 10  1  4  1  3 10  0
  1 11 17  1  2  0  4 10 13  2  0  2  4  3  3  3 14 22  4 16 19  3 17 23
  5 23  0 17 27 22  8]"
8700,342,1.0,7,3,45.34828186035156,4.058244228363037,5049,35056,211445,1576557,"[ 5  0  0  3  1  0  3  3  2  3  3  3  0  1  3  3  1  4  2  3  0  1  0  4
  1  1  4  2  1  2  3 13  6  2  2  0  3  1  7  3 13 10  0 11  1  1 13 12
  2 13 17  1  2  9  4 10 13  2  0  2  2 17 20  5 20 17  1 19 17  5 17 23
  5  1 16 17 27 22  8]"
8800,342,1.0,7,3,45.76590585708618,4.176239967346191,5100,35456,213341,1589896,"[ 0  0  0  3  0  2  1  2  2  3  3  0  0  1  3  3  3  0  2  3  0  4  2  5
  5  0  1  2  1  2  3  1  0  2 12  6  4  6  2  3 13 10  0  4 10  1 13  0
  2 15  1  3 10  1  4 10 13  2  0  2  5 17 14  1 20 14  0 18 19  5 17 23
  5 21 21 17 27 22  8]"
8900,342,1.0,7,3,46.15674662590027,3.908407688140869,5164,35856,215042,1601874,"[ 2  0  1  3  1  3  3  0  2  2  2  2  0  1  3  1  7  4  2  3  0  2  2  7
  2  1  1  2  1  2  0  1  0  2  3  9  4  6  4  3 13 10  5 13 11  1 13  1
  2 12 16  2 10 10  4 10 13  2  0  2  2 17  1  2 20  0  5 23 19  3 17 23
  2 18 18 17 27 22  8]"
9000,342,1.0,7,3,46.5566520690918,3.999054431915283,5227,36256,216771,1614179,"[ 1  2  3  2  1  3  3  1  1  4  3  2  0  1  3  1  6  5  2  3  0  2  8  7
  5  4  4  2  1  2  2  2 12  0  3 12  3  0  3  3 13 10  5 11 11  2 15  1
  4  3 16  1 15  1  4 10 13  2  0  2  2 21  1  2 20 18  4 23  0  3 17 23
  3 15 18 17 27 22  8]"
9100,342,1.0,7,3,46.97078227996826,4.141302108764648,5288,36656,218598,1627183,"[ 1  3  0  4  1  1  5  1  1  4  3  2  0  1  3  4  4  8  2  3  0  0  4  0
  5  4  4  2  1  2  5  2  2  3  1  3  0 10  7  3 13 10  1 12  3  4 17 12
  3 11 12  1  0  1  4 10 13  2  0  2  0  3 18  2 15  3  4  1 22  5 17 23
  2 15 19 17 27 22  8]"
9200,342,1.0,7,3,47.38621544837952,4.154331684112549,5350,37056,220451,1640229,"[ 1  1  0  1  0  1  5  1  1  1  1  2  0  1  3  4  4  8  2  3  0  1  5  2
  1  7  5  2  1  2  0 12 12  3  1 12  3  3  7  3 13 10  3 12  3  1 17  0
  2 13 10  0  0 14  4 10 13  2  0  2  0  1 21  5 15  3  3  1  2  5 17 23
  0 18  2 17 27 22  8]"
9300,342,1.0,7,3,47.77858901023865,3.9237356185913086,5414,37456,222155,1652277,"[ 1  2  0  1  1  2  0  2  0  3  1  0  0  1  3  0  7  8  2  3  0  2  1  0
  1  3  1  2  1  2  0  8 10  5 10 12  0 10  7  3 13 10  4  9  3  5 14  9
  3  1  3  5  0 18  4 10 13  2  0  2  1  0  0  3 21  1  3 19 15  3 17 23
  4  3  3 17 27 22  8]"
9400,342,1.0,7,3,48.17667770385742,3.980886936187744,5484,37856,223853,1664263,"[ 1  3  0  1  1  2  3  2  1  0  2  3  0  1  3  0  6  1  2  3  0  4  3  5
  0  0  1  2  1  2  5  8  6  2  1  6  4  4  9  3 13 10  1  9  3  1 17 18
  3 16 11  5  3  9  4 10 13  2  0  2  3 16 21  3 21 22  5 21 18  3 17 23
  2 23  2 17 27 22  8]"
9500,342,1.0,7,3,48.60130286216736,4.246251583099365,5541,38256,225651,1677016,"[ 0  1  0  0  1  0  3  0  0  3  2  0  0  1  3  3  6  7  2  3  0  5  3  7
  2  8  0  2  1  2  1  8  2  5 11 11  5  1  9  3 13 10  4  2  5  1 16 18
  2 13 13  2 10 16  4 10 13  2  0  2  1  1  1  3  3 23  4 21 16  5 17 23
  2 16 14 17 27 22  8]"
9600,342,1.0,7,3,49.00629186630249,4.049890041351318,5601,38656,227439,1689685,"[ 4  3  1  5  0  0  5  0  3  2  1  0  0  1  3  1  0  5  2  3  0  5  8  2
  1  1  5  2  1  2  5 11  5  1  1 12  5  1  1  3 13 10  0  5 10  1 16  1
  1 10 15  5 12 11  4 10 13  2  0  2  1  1 14  2  0 23  1 16 16  5 17 23
  5 21  0 17 27 22  8]"
9700,342,1.0,7,3,49.42587065696716,4.1957879066467285,5655,39056,229318,1702904,"[ 4  2  1  5  1  0  5  3  1  2  1  0  0  1  3  0  2  5  2  3  0  4  6  7
  1  5  6  2  1  2  4  0  5  1 13  8  3  2 10  3 13 10  0  0  8  0 16  1
  0  2 15  4  3 11  4 10 13  2  0  2  0  1 17  2  2 20  1 19  2  3 17 23
  1 17 21 17 27 22  8]"
9800,342,1.0,7,3,49.846121311187744,4.2025065422058105,5716,39456,231183,1716057,"[ 5  0  2  4  0  2  5  3  1  1  3  3  0  1  3  2  4  3  2  3  0  0  8  0
  3  7  4  2  1  2  2  7  2  2  3  6  2  9 10  3 13 10  0 12 11  0  1 11
  4  2 10  0 16 12  4 10 13  2  0  2  0 21 17  3  3 23  3 19 18  3 17 23
  1  3 21 17 27 22  8]"
9900,342,1.0,7,3,50.24997115135193,4.038498401641846,5779,39856,232981,1728802,"[ 3  1  2  1  0  0  3  3  3  5  3  3  0  1  3  5  5  1  2  3  0  0  2  4
  0  0  3  2  1  2  1  2  2  2  2 10  3 12 10  3 13 10  2 11  7  3 10 11
  4  2 10  3 16 10  4 10 13  2  0  2  0 20  3  3  3 19  4 14 18  3 17 23
  4  2 19 17 27 22  8]"
10000,342,1.0,7,3,50.64681100845337,3.968398571014404,5836,40256,234721,1741066,"[ 3  2  1  5  1  1  0  0  3  2  0  3  0  1  3  4  8  1  2  3  0  0  4  5
  3  7  7  2  1  2  5  2  8  5  2 13  4  4  3  3 13 10  2 13  1  0 15 11
  4 13 13  3 16 10  4 10 13  2  0  2  5  3 17  0  3 23  4 14 23  5 17 23
  5 19 19 17 27 22  8]"
10100,342,1.0,7,3,51.06001615524292,4.132051467895508,5890,40656,236560,1754016,"[ 3  2  0  0  2  1  3  1  1  5  1  3  0  1  3  3  8  8  2  3  0  4  7  3
  1  0  8  2  1  2  5  5  2  3  8  6  1  0 10  3 13 10  5  3 11  0 10 12
  0  0  9  4 16 16  4 10 13  2  0  2  2  3 22  3 23 20  2  3 23  5 17 23
  5 22 19 17 27 22  8]"
10200,342,1.0,7,3,51.47375774383545,4.137415885925293,5948,41056,238354,1766613,"[ 2  2  0  5  3  0  3  1  2  3  1  0  0  1  3  3  1  8  2  3  0  4  7  8
  1  0  5  2  1  2  5  6  2  3 13  8  5  3  0  3 13 10  5  4 12  1  3 18
  5 17  1  5  2  1  4 10 13  2  0  2  3  1  1  4  1 20  2  3 14  3 17 23
  0 22 14 17 27 22  8]"
10300,342,1.0,7,3,51.891135454177856,4.173777103424072,6014,41456,240189,1779615,"[ 5  2  0  5  1  3  2  3  2  5  1  2  0  1  3  3  6  8  2  3  0  3  7  8
  1  8  4  2  1  2  5  6  2  3  3  8  3  3 12  3 13 10  4 13 10  3  9 18
  5 17 11  5 15 17  4 10 13  2  0  2  3 14  1  0 18  1  2 23 14  3 17 23
  4 14 14 17 27 22  8]"
10400,342,1.0,7,3,52.32062792778015,4.294924736022949,6069,41856,242088,1792993,"[ 5  1  1  3  1  3  5  0  2  3  3  1  0  1  3  4  2  6  2  3  0  2  7  6
  1  3  8  2  1  2  2 12  9  3  3 10  5  3  2  3 13 10  1 13  2  2 18 13
  3 16 12  3  1 17  4 10 13  2  0  2  5  3 19  5  0  3  3 23 22  3 17 23
  0 14  0 17 27 22  8]"
10500,342,1.0,7,3,52.745824098587036,4.251961708068848,6124,42256,243978,1806361,"[ 4  1  1  2  1  1  0  2  0  4  0  1  0  1  3  4  6  6  2  3  0  3  4  6
  3  4  5  2  1  2  2  4  9  3  2  9  2  9  1  3 13 10  0  8 12  2  3 12
  5 16  0  1 12  2  4 10 13  2  0  2  5  3 21  1 19  1  3 23 21  3 17 23
  0 14  0 17 27 22  8]"
10600,342,1.0,7,3,53.18255543708801,4.367313385009766,6178,42656,245988,1820540,"[ 4  3  1  1  1  3  4  2  3  0  1  2  0  1  3  4  0  7  2  3  0  0  4  1
  1  0  4  2  1  2  5  7  1  0  1  1  0 12  3  3 13 10  0  0  5  2  3  2
  4 16  0  1 18  2  4 10 13  2  0  2  1 20 21  3 19  0  4 22 14  5 17 23
  5 17 14 17 27 22  8]"
10700,342,1.0,7,3,53.59857106208801,4.16015625,6235,43056,247836,1833635,"[ 5  3  3  4  1  2  3  3  0  1  3  2  0  1  3  0  0  0  2  3  0  4  6  8
  5  2  2  2  1  2  5  6  5  5  5  1  3 12 11  3 13 10  0 10  2  2 11  2
  4 11 18  1  1  3  4 10 13  2  0  2  2  2  2  0 17 20  4 16  2  5 17 23
  2 17  2 17 27 22  8]"
10800,342,1.0,7,3,54.000579595565796,4.020085334777832,6290,43456,249575,1845986,"[ 5  3  2  4  1  2  3  1  0  4  0  3  0  1  3  0  1  1  2  3  0  3  6  8
  5  0  4  2  1  2  1  8 12  5  2  0  4  1 12  3 13 10  4 12  6  3  9  9
  4  0 14  0 13 15  4 10 13  2  0  2  2  2 23  5 14 16  2 16 20  3 17 23
  2 19 19 17 27 22  8]"
10900,342,1.0,7,3,54.380303144454956,3.7972354888916016,6362,43856,251173,1857302,"[ 0  3  0  5  1  2  3  1  2  4  2  3  0  1  3  3  0  1  2  3  0  2  6  8
  1  0  8  2  1  2  0  8 11  5 10  0  1  8 12  3 13 10  4 11  9  0  9 16
  5  0 14  0 15 13  4 10 13  2  0  2  0 18  0  1 20 15  0 16 20  3 17 23
  2 19  2 17 27 22  8]"
11000,342,1.0,7,3,54.79983878135681,4.195356369018555,6419,44256,253037,1870495,"[ 2  3  0  1  2  1  2  1  2  4  1  3  0  1  3  4  2  7  2  3  0  4  6  5
  5  2  7  2  1  2  4  3  5  3 10  3  3 10  6  3 13 10  3  9  8  3  9  1
  1  0 10  1 18 10  4 10 13  2  0  2  5 18 16  2 20 15  0 21 18  5 17 23
  2 19  0 17 27 22  8]"
11100,342,1.0,7,3,55.22699689865112,4.271581172943115,6477,44656,254992,1884301,"[ 4  3  0  2  2  1  4  1  2  1  0  1  0  1  3  1  0  6  2  3  0  2  1  5
  0  6  6  2  1  2  4 10 13  3 10 12  5 10  6  3 13 10  3 11  8  1 11 17
  1  0  0  1 18  0  4 10 13  2  0  2  5 14 14  3 18 15  4 23  0  3 17 23
  2 23 15 17 27 22  8]"
11200,342,1.0,7,3,55.66837501525879,4.41378116607666,6533,45056,256986,1898384,"[ 3  0  0  3  3  1  2  3  0  1  2  2  0  1  3  5  0  6  2  3  0  2  8  1
  0  7  0  2  1  2  4 11  6  1 11 11  5 10 10  3 13 10  2  3  3  2  0 11
  0 16 10  1  1  3  4 10 13  2  0  2  3 23 14  1 18 19  4 16  0  3 17 23
  2  0 15 17 27 22  8]"
11300,342,1.0,7,3,56.10120129585266,4.328262805938721,6588,45456,258958,1912248,"[ 1  0  3  1  3  1  2  2  1  2  2  2  0  1  3  0  8  2  2  3  0  2  5  6
  0  7  3  2  1  2  0 13  6  2  8  1  2 10  4  3 13 10  0  3  4  3 11  1
  5 16 18  2 14 11  4 10 13  2  0  2  3  3 15  1 17 22  5 15 22  3 17 23
  2 15  0 17 27 22  8]"
11400,342,1.0,7,3,56.5180127620697,4.16811466217041,6647,45856,260809,1925297,"[ 4  3  1  4  3  3  4  3  2  0  3  3  0  1  3  4  8  7  2  3  0  5  6  2
  0  5  4  2  1  2  5  8  7  5  8  7  2  5  5  3 13 10  0  3 13  1 10  0
  4 11  1  4 14 12  4 10 13  2  0  2  1  3 17  0 17 22  1 16 19  3 17 23
  2  3  3 17 27 22  8]"
11500,342,1.0,7,3,56.90871548652649,3.9070272445678706,6709,46256,262517,1937328,"[ 4  2  3  1  3  2  4  2  3  3  3  3  0  1  3  4  0  6  2  3  0  5  6  4
  5  6  5  2  1  2  5  1 13  5  7 11  5  9  5  3 13 10  0  3  7  0 10  0
  1 12  1  4 14 10  4 10 13  2  0  2  5 20 23  3  2 22  0 23 15  5 17 23
  3  2 16 17 27 22  8]"
11600,342,1.0,7,3,57.31964063644409,4.109251499176025,6768,46656,264334,1950201,"[ 5  2  2  3  3  2  4  1  3  5  3  1  0  1  3  0  5  4  2  3  0  2  0  0
  3  1  4  2  1  2  4  1  2  4  7  7  1  1  9  3 13 10  5  4  7  3  0  0
  5 16  3  0  2 13  4 10 13  2  0  2  2 17  3  4 21 18  2  3  2  3 17 23
  0  0 14 17 27 22  8]"
11700,342,1.0,7,3,57.754462480545044,4.3482184410095215,6827,47056,266328,1964278,"[ 4  3  2  3  2  2  2  0  3  4  2  1  0  1  3  2  5  1  2  3  0  4  1  0
  0  6  6  2  1  2  3  1  2  2 11  0  1  9  4  3 13 10  3  9 12  2 12 13
  2 16  3  5 11 10  4 10 13  2  0  2  1  0 16  4  0 18  3 16 21  5 17 23
  4 20 16 17 27 22  8]"
11800,342,1.0,7,3,58.17471385002136,4.202513694763184,6884,47456,268175,1977240,"[ 5  0  0  0  1  3  2  2  3  4  1  2  0  1  3  3  5  0  2  3  0  4  1  1
  3  1  5  2  1  2  3  2  2  4  1  5  5  4  8  3 13 10  3  2  8  1 11 10
  0 16 15  3 13 10  4 10 13  2  0  2  5  2  3  0 19 20  2 21 16  3 17 23
  5  0 23 17 27 22  8]"
11900,342,1.0,7,3,58.61536121368408,4.406473636627197,6943,47856,270161,1991111,"[ 5  3  3  0  1  3  5  1  0  2  1  2  0  3  1  0  0  0  2  3  0  1  4  8
  3  1  5  2  1  2  3  4  9  0  9  6  0  7  8  3 13 10  5  4  8  2  0  0
  5 18  9  3  3 10  4 10 13  2  0  2  3 16  0  2 23 19  2 21  3  5 17 23
  1  0 18 17 27 22  5]"
12000,342,1.0,7,3,59.06505036354065,4.496891498565674,7002,48256,272199,2005371,"[ 0  3  3  0  1  3  5  1  0  0  1  1  5  2  1  1  5  0  2  3  0  1  7  3
  3  2  5  2  1  2  2  4  9  1  8  6  1 11  8  3 13 10  4  9  8  3  0 10
  2  3  9  3 16 11  4 10 13  2  0  2  3 15 22  4 17  1  1 18 23  5 17 23
  1 17 18 17 27 22  5]"
12100,342,1.0,7,3,59.45612049102783,3.9107012748718257,7064,48656,273894,2017337,"[ 4  3  3  0  1  3  4  0  2  4  2  1  4  2  3  1  0  0  2  3  0  3  0  8
  2  8  4  2  1  2  1  4  9  1  8 12  0  0 13  3 13 10  0  2  8  1  0 12
  4  3 14  5 11  0  4 10 13  2  0  2  0 18  0  4 22 20  0 15 20  5 17 23
  4 17 21 17 27 22  5]"
12200,342,1.0,7,3,59.86776876449585,4.116482734680176,7129,49056,275738,2030359,"[ 2  3  3  0  1  3  0  3  2  4  2  2  4  0  2  2  0  4  2  3  0  1  0  0
  2  7  7  2  1  2  5  4  2  4  0  8  1  3 13  3 13 10  0 11  0  1  0 12
  4 11 14  0  9  0  4 10 13  2  0  2  1 18  0  4 16  0  1 15 20  5 17 23
  0 17  1 17 27 22  5]"
12300,342,1.0,7,3,60.27362871170044,4.058599472045898,7187,49456,277539,2043017,"[ 0  3  0  0  1  3  2  3  1  4  2  3  5  2  3  1  7  8  2  3  0  1  1  2
  3  6  2  2  1  2  3 12  4  0  7 13  1  3 10  3 13 10  1 11  8  4 14 11
  5 14 16  2  3 14  4 10 13  2  0  2  1 20 18  4 16 17  1  2 14  3 17 23
  4 15 15 17 27 22  5]"
12400,342,1.0,7,3,60.72591996192932,4.522912502288818,7245,49856,279634,2057773,"[ 4  3  0  2  1  1  0  3  1  5  2  1  3  0  0  5  4  1  2  3  0  2  4  3
  3  0  2  2  1  2  1  8  9  0  7  3  1  9 13  3 13 10  1 11  2  4 17  3
  1 10 17  5  1  9  4 10 13  2  0  2  1  1  3  4 18 16  5 15 17  5 17 23
  1 15 21 17 27 22  6]"
12500,342,1.0,7,3,61.152098178863525,4.261782169342041,7304,50256,281556,2071239,"[ 2  2  3  4  2  3  0  3  1  5  2  1  3  2  1  2  3  3  2  3  0  1  4  6
  3  0  2  2  1  2  1  0  9  0 12  3  1  9  1  3 13 10  1  2  2  0 17  3
  2 12 15  5  9  3  4 10 13  2  0  2  3 15 19  5 14 19  0 22 17  3 17 23
  3 15 21 17 27 22  6]"
12600,342,1.0,7,3,61.57133150100708,4.192333221435547,7369,50656,283428,2084514,"[ 2  3  3  4  2  3  0  3  1  5  2  1  3  2  1  2  3  7  2  3  0  1  8  0
  3  0  2  2  1  2  2  6  6  3  7  6  1  9  4  3 13 10  0  0  9  0 15 17
  0 12 10  5 12 14  4 10 13  2  0  2  2 19 14  3 14 18  2  3 15  5 17 23
  3  2 16 17 27 22  6]"
12700,342,1.0,7,3,61.96722197532654,3.9589047431945796,7431,51056,285194,2096959,"[ 0  3  3  0  0  2  0  3  1  5  0  2  1  2  0  1  4  7  2  3  0  1  8  3
  2  4  8  2  1  2  3  2  2  3  7  7  1  9 13  3 13 10  3  5 10  5 11 17
  1  0 10  3 15  9  4 10 13  2  0  2  2 23 14  5 14 16  1 14  0  5 17 23
  3  2 16 17 27 22  6]"
12800,342,1.0,7,3,62.38374161720276,4.165196418762207,7488,51456,287033,2109940,"[ 4  3  3  0  1  2  0  3  1  3  0  2  2  2  1  3  3  0  2  3  0  2  0  1
  2  8  5  2  1  2  3 13  4  3  9  6  0  6 11  3 13 10  4  0  9  2  9 17
  1  0  1  0 11  1  4 10 13  2  0  2  1 14  2  4 18 19  1  1  0  5 17 23
  3  2 18 17 27 22  6]"
12900,342,1.0,7,3,62.76936221122742,3.856205940246582,7554,51856,288702,2121711,"[ 2  3  3  3  0  1  0  3  1  5  1  3  2  3  0  2  0  0  2  3  0  2  0  5
  5  0  0  2  1  2  1 12  6  5  1 12  0 13 13  3 13 10  4 13  2  2 13 10
  4  0  1  4  9 14  4 10 13  2  0  2  1 23 20  4 18 15  1 20 23  3 17 23
  4 23 18 17 27 22  6]"
13000,342,1.0,7,3,63.20667052268982,4.373083114624023,7608,52256,290755,2136117,"[ 2  3  2  5  3  3  0  3  1  1  2  3  5  3  0  2  3  1  2  3  0  1  4  6
  1  6  7  2  1  2  0  7  0  1  5 12  2  6  3  3 13 10  3 13  2  1 11 10
  1  0  1  5  9 10  4 10 13  2  0  2  0  0  0  4 15 22  1 20  2  3 17 23
  0  1  2 17 27 22  6]"
13100,342,1.0,7,3,63.63446044921875,4.277899265289307,7666,52656,292676,2149659,"[ 2  3  1  4  2  3  0  3  1  4  0  0  5  1  3  2  6  4  2  3  0  3  5  8
  1  6  7  2  1  2  0  9  7  2  4  2  2 13  3  3 13 10  0  1  0  2  0 10
  1  3  2  5  9 16  4 10 13  2  0  2  0 19  3  0 20 23  3  2  2  5 17 23
  0  1 15 17 27 22  6]"
13200,342,1.0,7,3,64.05524134635925,4.207808971405029,7718,53056,294563,2162939,"[ 0  2  2  4  1  3  0  3  1  3  2  0  5  2  3  3  1  4  2  3  0  1  0  0
  4  6  7  2  1  2  1  5  0  4  2  7  4  6 12  3 13 10  2  6  5  3 15 15
  1 14 13  3  9  1  4 10 13  2  0  2  1 23 19  2 16 15  3 17 22  3 17 23
  4  1 22 17 27 22  6]"
13300,342,1.0,7,3,64.45838165283203,4.031403064727783,7785,53456,296365,2175683,"[ 0  2  2  5  2  3  0  3  1  1  2  0  5  3  3  3  5  4  2  3  0  5  8  2
  5  4  7  2  1  2  4  9  6  4  2  8  5  3 12  3 13 10  4  9 10  2 12 10
  1  2  3  0  9  1  4 10 13  2  0  2  1 23 16  2  0  0  3 14 22  5 17 23
  4  1 22 17 27 22  6]"
13400,342,1.0,7,3,64.88597059249878,4.2758893966674805,7842,53856,298315,2189468,"[ 0  0  2  5  1  1  0  3  1  0  2  1  5  0  0  3  7  7  2  3  0  4  5  2
  4  4  0  2  1  2  0  9  7  1  5 12  2  3 13  3 13 10  2  6  6  2  2 11
  1  1  3  5  9  1  4 10 13  2  0  2  2  0  2  2 19  1  3 23 18  3 17 23
  1  1 22 17 27 22  6]"
13500,342,1.0,7,3,65.33138251304626,4.4541192054748535,7893,54256,300371,2204020,"[ 3  0  2  1  1  3  0  3  1  0  1  1  1  3  3  0  8  0  2  3  0  4  5  5
  4  7  0  2  1  2  2  7  5  4  5  2  2  9 13  3 13 10  4  4  2  5 10 12
  1  0 12  5 12  2  4 10 13  2  0  2  1 21 21  3  3  1  3  3 18  5 17 23
  5 18 19 17 27 22  6]"
13600,342,1.0,7,3,65.7472128868103,4.158303737640381,7950,54656,302196,2216889,"[ 3  0  2  0  1  3  0  3  1  1  1  1  2  2  1  0  8  7  2  3  0  2  6  8
  2  6  6  2  1  2  5  7  1  2  9  2  3  9  9  3 13 10  5  5  8  5 16 11
  0 11 12  4  1  2  4 10 13  2  0  2  4  1 15  3 20  3  3 18 20  3 17 23
  5 19 18 17 27 22  6]"
13700,342,1.0,7,3,66.17525577545166,4.280428886413574,8010,55056,304161,2230692,"[ 2  3  0  5  1  1  0  3  1  1  1  1  3  2  0  0  8  7  2  3  0  1  6  8
  2  1  2  2  1  2  5  5  3  5  5  8  1  7  0  3 13 10  1  5  2  4  0 13
  3 11 12  4 10  2  4 10 13  2  0  2  1 18 23  1 16 23  4 14  3  3 17 23
  0 20  1 17 27 22  6]"
13800,342,1.0,7,3,66.60859656333923,4.333407878875732,8061,55456,306118,2244507,"[ 3  0  3  1  1  2  0  3  1  3  1  3  1  1  2  2  1  6  2  3  0  1  5  4
  4  7  0  2  1  2  5 10 10  5  7  5  5  9 10  3 13 10  1  1  2  5  2 15
  3  2  9  0 12  2  4 10 13  2  0  2  3 17 19  4 16 23  2 14  3  5 17 23
  4 18 16 17 27 22  6]"
13900,342,1.0,7,3,67.02450156211853,4.159049987792969,8122,55856,307985,2257689,"[ 3  0  0  2  1  3  0  3  1  2  2  3  1  1  2  5  5  2  2  3  0  0  8  7
  4  4  0  2  1  2  1 13 10  5  5  0  4 13 10  3 13 10  4  8  7  1  0 12
  3  3 17  0  0 14  4 10 13  2  0  2  2 19 18  0  1 23  1  2 20  3 17 23
  4 16 16 17 27 22  6]"
14000,342,1.0,7,3,67.41394400596619,3.8944244384765625,8186,56256,309731,2269960,"[ 0  0  2  2  3  0  0  3  1  1  2  1  1  1  2  1  6  2  2  3  0  2  4  2
  1  4  4  2  1  2  1 13 10  3  5  1  4 13 10  3 13 10  4  8  7  1  0 18
  3  3 10  0  0 14  4  2  1  2  0  2  1 21 21  0 19 23  1  0 14  5 17 23
  4  1 16 17 27 16  6]"
14100,342,1.0,7,3,67.81208634376526,3.9814233779907227,8252,56656,311447,2282031,"[ 3  0  2  0  1  1  0  3  1  5  0  3  2  0  3  4  6  2  2  3  0  1  8  6
  2  1  4  2  1  2  4  4 10  2  6  7  4 13 10  3 13 10  4  8  6  1 17  0
  5  3  2  1 17 17  0 11 13  2  0  2  0 21 21  0 21 16  1  2 15  3 17 23
  3 18 16 17 27 16  6]"
14200,342,1.0,7,3,68.22672271728516,4.146363735198975,8313,57056,313339,2295306,"[ 5  0  1  0  1  3  3  3  1  5  3  3  2  0  1  5  7  3  2  3  0  5  2  4
  4  0  7  2  1  2  4  9 11  2 10  2  4 13 10  3 13 10  0  8  6  1 17  0
  2  0  2  1 18 12  4 11  0  2  0  2  0 21 18  5  1 16  1 22 19  3 17 23
  1 22 16 17 27 16  5]"
14300,342,1.0,7,3,68.64039754867554,4.136748313903809,8370,57456,315155,2308137,"[ 2  0  0  0  1  3  2  2  3  2  3  0  2  2  3  1  7  2  2  3  0  0  4  2
  0  8  1  2  1  2  5  7  4  2 13  5  4 13 10  3 13 10  1  6  5  1 10 10
  0  0 16  5 18 13  5 11  0  2  0  2  5 15 21  4 23 14  3 19 17  5 17 23
  5  1 17 17 27 16  5]"
14400,342,1.0,7,3,69.0458824634552,4.054849147796631,8436,57856,316956,2320851,"[ 2  2  3  0  1  3  2  1  1  3  0  0  0  2  0  5  1  2  2  3  0  2  4  7
  3  8  1  2  1  2  0  7  1  1  0 12  4 13 10  3 13 10  3  1 13  3 10 10
  5  0 16  4 18 13  2 16  1  2  0  2  2  1  0  4  0 14  3 18 17  3 17 23
  3  1 17 17 27 16  5]"
14500,342,1.0,7,3,69.4314033985138,3.8552093505859375,8503,58256,318651,2332774,"[ 4  2  3  0  1  3  0  0  1  4  1  0  3  1  2  5  6  4  2  3  0  1  1  5
  5  8  1  2  1  2  0  7 12  4  5  7  4 13 10  3 13 10  3  3  5  0  0  2
  4  1  0  4 13 16  2 11 15  2  0  2  2  1  3  0  2 14  2 19 20  5 17 23
  5 21 17 17 27 16  5]"
14600,342,1.0,7,3,69.84948205947876,4.180786609649658,8560,58656,320521,2345955,"[ 5  2  2  0  1  3  0  1  2  5  0  3  4  3  0  1  4  1  2  3  0  2  7  5
  4  8  1  2  1  2  2  7  2  3  2  2  4 13 10  3 13 10  2 12  2  0  9 18
  4  1 10  4  0 16  2 15 10  2  0  2  2 19  1  3  0 14  4 23  0  5 17 23
  5 17  2 17 27 16  5]"
14700,342,1.0,7,3,70.24975538253784,4.00273323059082,8621,59056,322323,2358627,"[ 5  2  2  0  1  3  5  1  2  5  1  1  0  1  3  2  6  3  2  3  0  2  7  0
  4  7  1  2  1  2  0  7  6  2  8  1  4 13 10  3 13 10  4  1  4  1 10 14
  3  1 16  5  0  0  3 15 10  2  0  2  2 16  1  3 22 14  2 23 17  3 17 23
  2  0  2 17 27 16  5]"
14800,342,1.0,7,3,70.66938400268555,4.196286201477051,8678,59456,324252,2372203,"[ 4  3  0  0  1  3  0  2  2  0  3  1  3  2  0  1  2  0  2  3  0  3  5  0
  4  5  1  2  1  2  1  4  5  3 13  7  4 13 10  3 13 10  1  7  1  4 13 13
  3 16 17  5  1 15  2 15 14  2  0  2  1 16 22  4 14 14  1 16 18  5 17 23
  3 17 16 17 27 16  5]"
14900,342,1.0,7,3,71.07804369926453,4.086596965789795,8735,59856,325990,2384484,"[ 1  3  0  0  1  3  3  0  3  2  0  2  5  2  1  4  0  7  2  3  0  2  5  0
  2  6  1  2  1  2  1 13 11  5 13  8  4 13 10  3 13 10  2 13  7  5  3 17
  5  9  3  5  1 18  3 17  2  2  0  2  1 14 22  2 20 14  1  2 18  5 17 23
  3 16 19 17 27 16  5]"
15000,342,1.0,7,3,71.48823189735413,4.101881980895996,8796,60256,327819,2397326,"[ 3  3  3  0  1  3  1  1  3  1  2  0  2  3  3  2  0  6  2  3  0  4  5  5
  2  6  0  2  1  2  1 13 11  2  4  8  4 13 10  3 13 10  2  3 11  4 14  9
  4  9 13  0  1 12  3 16 11  2  0  2  1 16 22  0  3 14  3 17  1  3 17 23
  5 21 20 17 27 16  5]"
15100,342,1.0,7,3,71.88211679458618,3.9388489723205566,8857,60656,329499,2409193,"[ 1  0  3  0  1  3  3  1  3  1  2  0  0  1  3  3  0  6  2  3  0  5  5  6
  2  7  1  2  1  2  2  8  0  4  2  8  4 13 10  3 13 10  5  5 11  4  2  9
  2  9 15  3  1  2  2 12 17  2  0  2  0  1 20  1 15  2  5 16  1  5 17 23
  3  0 21 17 27 16  5]"
15200,342,1.0,7,3,72.29324698448181,4.111301898956299,8918,61056,331359,2422245,"[ 4  1  2  0  1  3  5  1  1  5  0  0  3  2  3  0  0  5  2  3  0  5  7  6
  4  7  1  2  1  2  4  1  0  4 13 11  4 13 10  3 13 10  5  1 11  5 11 10
  4 13  1  0 10 11  2  1 17  2  0  2  5 20  1  1 16 23  2 16  1  3 17 23
  4  0  2 17 27 16  5]"
15300,342,1.0,7,3,72.6868486404419,3.9360165596008296,8983,61456,333049,2434186,"[ 1  2  1  0  1  3  5  0  3  3  0  0  2  3  3  0  0  7  2  3  0  3  7  7
  3  8  2  2  1  2  4  1 11  3  8 13  4 13 10  3 13 10  3  8  7  4  3 10
  3 16  1  3 16 12  2 17 11  2  0  2  0 19  2  3 16 20  4 15 21  3 17 23
  2 20  3 17 27 16  5]"
15400,342,1.0,7,3,73.11867618560791,4.318275451660156,9046,61856,334988,2447862,"[ 2  2  0  0  1  3  5  0  2  1  0  0  3  0  2  3  5  7  2  3  0  2  5  2
  1  6  1  2  1  2  1  5 12  3  2 12  4 13 10  3 13 10  0  8  7  4  9 10
  4 11 17  0 11 14  0  2 17  2  0  2  4 18  2  3  0 22  1 15 17  3 17 23
  0 15 20 17 27 16  5]"
15500,342,1.0,7,3,73.52167320251465,4.029970169067383,9112,62256,336785,2460575,"[ 2  2  2  0  1  3  5  2  2  5  3  3  3  0  1  4  5  3  2  3  0  2  7  0
  2  2  3  2  1  2  5  1 12  4  2  4  4 13 10  3 13 10  0 10 10  4 17  0
  1  2 11  0 14 12  0  2 18  2  0  2  5 18 22  5 23 23  4  1 16  3 17 23
  1 14 21 17 27 16  5]"
15600,342,1.0,7,3,73.93848037719727,4.168071746826172,9171,62656,338672,2473844,"[ 1  3  1  0  1  3  5  2  3  5  3  2  1  1  2  4  5  8  2  3  0  2  7  2
  4  7  2  2  1  2  5  9  0  2 10  4  4 13 10  3 13 10  0  2 13  3  2  0
  5  0  1  0 14 14  2  1 10  2  0  2  4 17  0  4 14 23  4 20 16  5 17 23
  1  2 17 17 27 16  5]"
15700,342,1.0,7,3,74.33708214759827,3.9860177040100098,9235,63056,340470,2486461,"[ 4  3  0  0  1  3  4  2  1  1  3  2  0  1  2  4  5  0  2  3  0  2  4  2
  4  2  5  2  1  2  5 13  1  1  6  8  4 13 10  3 13 10  0  2  3  3 15  9
  3  0  9  0 14  2  2  1  0  2  0  2  4  0 19  2  1 16  4 20 22  5 17 23
  2 16 21 17 27 16  5]"
15800,342,1.0,7,3,74.78244733810425,4.4536519050598145,9288,63456,342568,2501076,"[ 2  0  0  0  1  3  4  2  1  1  3  2  0  1  2  4  5  0  2  3  0  2  4  7
  3  2  2  2  1  2  5  1  5  2  6  3  4 13 10  3 13 10  0  5  6  3 15  0
  5  1 11  5 15  2  4  9  0  2  0  2  4 22  1  1 19 16  5 20  3  3 17 23
  5 20 14 17 27 16  5]"
15900,342,1.0,7,3,75.22431468963623,4.418673515319824,9346,63856,344486,2514530,"[ 4  0  1  0  1  3  2  0  1  5  1  2  0  1  3  0  6  2  2  3  0  2  4  0
  3  2  2  2  1  2  2  1  5  1  5  7  4 13 10  3 13 10  5  3  5  3 14 10
  3  1 16  5 17  2  4  9 11  2  0  2  4  2  0  4  3 20  5 20  3  3 17 23
  5 14 14 17 27 16  5]"
16000,342,1.0,7,3,75.65845537185669,4.34140682220459,9400,64256,346495,2528618,"[ 4  0  3  0  1  3  2  0  0  4  2  2  0  0  3  0  6  1  2  3  0  1  3  2
  3  4  2  2  1  2  1  1  8  1  5 12  4 13 10  3 13 10  4  4  6  3 14 18
  3  1 16  4 16  2  2 14 10  2  0  2  0  2 17  2 16 23  3 20 19  5 17 23
  2  1 23 17 27 16  5]"
16100,342,1.0,7,3,76.09100699424744,4.325516223907471,9467,64656,348296,2541346,"[ 5  2  3  0  1  3  0  0  0  1  1  3  0  2  2  0  6  7  2  3  0  1  3  3
  2  8  7  2  1  2  1  6  1  4  5  6  4 13 10  3 13 10  5 13  6  2 12 12
  5  1 13  1  2 14  4 14 11  2  0  2  0  0 14  4 16 17  0  1  0  3 17 23
  5 18 18 17 27 16  5]"
16200,342,1.0,7,3,76.4869737625122,3.959667682647705,9533,65056,350048,2553796,"[ 5  2  0  0  1  3  0  1  0  1  0  3  4  2  3  4  5  8  2  3  0  1  7  3
  1  5  7  2  1  2  0  1  3  4  8  8  4 13 10  3 13 10  5 13  6  3 12 12
  5 13 13  0 18 14  4 14  3  2  0  2  0 19 16  4 22  2  0 14  1  3 17 23
  5 22  0 17 27 16  5]"
16224,343,1.0,7,2,76.58489990234375,4.08025582631429,9548,65152,350465,2556759,"[ 5  2  0  5  1  3  4  2  0  1  0  0  4  2  3  4  5  8  2  3  0  1  5  3
  1  5  7  2  1  2  0  1  3  4  8  8  4 13 10  3 13 10  5 13  6  3 12 12
  5 13 17  1 15 14  4 14  3  2  0  2  0 19  2  4 22  2  0 14 22  3 14 23
  5 22  0 17 27 16 14]"
