generation,fitness,functionality,active_nodes,longest_path,time,gen_time,nc_gens,fitness_evals,graph_evals,node_evals,genotype
0,143.0,0.375,15,4,0.007471561431884766,7.468461990356445,0,0,0,0,"[ 5  3  2  0  3  0  4  3  2  5  3  2  3  3  0  5  2  1  2  0  3  2  7  7
  3  5  5  3  7  5  0  6  2  2  1  4  3 10  0  2 12  6  2  7  7  5  6 12
  2  8 14  2  2 15  5 13 10  0 20  1  1  5  4  3  6 12  4  7 12  0 13 15
  3 12  1  0 26 21  2 26  4  4 21  5  0 27 15  0 10 16  5  0 11  1 17 22
  5 20 29  2 25 16  1 10 26  3 33  6 32 30 17 35]"
100,312.0,0.875,7,3,0.6814253330230713,6.739518642425537,30,400,5613,57130,"[ 5  3  3  0  3  0  0  0  0  5  3  3  4  2  0  2  3  2  0  4  8  2  7  7
  2  1  2  4  4  5  0  7  4  2  2  3  1  9  1  2  7  5  1 13  7  2  3  4
  3 11  7  4  0  2  2 19  3  0 10 17  0  6  5  4  1 10  2 20  1  0  3  1
  3  3  8  2 13 26  5 16  3  1  6  5  0 27  3  5 10 16  5 32 24  0 32 32
  4 10 15  0 20 28  0  8  5  2  3 19 20 11  5 35]"
200,313.0,0.875,6,3,1.2044026851654053,5.22974967956543,70,800,11139,96267,"[ 1  1  3  0  3  0  0  0  2  3  0  3  4  3  2  2  3  0  2  7  3  4  7  7
  1  2  5  4  6  4  2  3  8  1  5  0  3  9 14  0  3  6  0 14  3  0  1  8
  0 12  0  2  6 14  2 14 11  0 15 14  4  3 17  4  1  9  0 18  0  0  3  1
  5 13 13  1 25 26  2  2 21  5  0  8  0 27  3  5 18  7  4 17 19  0  3 32
  1 10  7  2 31 17  0 24 15  4 29 19 11 11  5 35]"
300,313.0,0.875,6,3,1.6837265491485596,4.793217182159424,98,1200,16421,130637,"[ 3  1  0  0  3  0  4  3  1  5  3  3  1  2  3  4  2  2  2  6  9  2  7  7
  1  3  2  1  1  1  0  2  3  5  8  8  5 13 14  5  1  7  5 12 12  3 14 11
  4 15 15  1  2  4  5 12  1  1 15  9  3  8  4  2 18  2  2 14  0  0  3  1
  1 10  6  5 15  8  2 27  8  3  6  1  0 27  3  2  1 26  1 15  9  0  3 32
  1  9 19  4 11  6  2 27 15  1  2 11 11 11  5 35]"
400,324.0,0.90625,6,2,2.1530885696411133,4.693598747253418,146,1600,21714,163957,"[ 4  1  0  0  3  0  0  1  2  5  3  3  4  2  3  4  3  3  2  2  8  3  1  7
  5  6  0  0  1  8  5  2  0  4  8  8  0 13  0  2  8  9  2  8  3  3 14 14
  5  4 11  4  6 13  5  3 10  1  5  9  0  9  7  4 20  2  0 14  2  3  1 10
  5  2 12  1 15  5  1 27  7  2 19 12  0 15  5  1 23  7  1 33 27  0  3  1
  5 10  2  4 17 20  5  6 16  5 22  5 11 26  5 35]"
500,325.0,0.90625,5,2,2.6192452907562256,4.661545753479004,195,2000,26975,194858,"[ 2  2  1  0  3  0  5  3  2  5  3  3  4  2  2  4  3  0  1  5  7  3  7  2
  0  7  4  4  2  0  1  9  0  2  8  1  3  4 13  5  9  3  0 13  1  0  0  6
  3  2 14  5 15  6  0  6  5  1 19 15  4 15 14  5  0 11  0  0  2  3 19  2
  3  3 19  4  4 16  5 18  7  3 13  4  0 25  5  4 21 26  2 11 13  0  3  1
  5  7 27  1 22 21  4 19 17  1 15 10 11 26  5 35]"
600,325.0,0.90625,5,2,3.0579257011413574,4.386777877807617,237,2400,32290,223865,"[ 2  0  0  5  0  0  2  1  2  2  3  3  4  3  2  5  2  2  5  1  2  0  7  3
  0  3  0  4  2  4  0  1  0  5  3  6  5  0  8  0  8  0  1  4 12  4  6  5
  2  9 10  2  3  7  5  5  6  1  1 17  1  2 18  0  0  1  0  0  2  5  1  5
  5 10 12  4 25  5  1  7  5  1 10  0  4 10  0  1 13 10  2 28 15  0  3  1
  3 19  9  3 27 21  5 15 12  1 30  6 11 26 12 35]"
700,325.0,0.90625,5,2,3.507456064224243,4.495282173156738,280,2800,37662,253282,"[ 2  1  3  5  2  0  3  2  1  2  1  0  1  1  3  3  0  2  5  1  2  3  7  0
  0  3  0  0  0  0  1  4  1  5  8  2  5 10  1  3  3  3  4  7 14  1  3 10
  5  6 15  2 12  7  5 18 21  0 12 13  1 14  5  4  9  6  0  0  2  2 16 10
  5 25 11  0 14 21  3 14 25  5  6  0  4  5 15  4 10  5  0 28 27  0  3  1
  1  2 27  4 27 26  2 24 12  3  7  6 11 26 12 35]"
800,325.0,0.90625,5,2,3.94136905670166,4.339108467102051,332,3200,42747,282239,"[ 4  1  0  5  2  0  2  0  0  2  1  3  1  1  3  0  3  0  4  9  9  0  6  0
  0  3  0  2  3  9  2  8  6  4  2  1  5 13 12  3  2  6  4  8  5  2  4  7
  0  0 13  1 12 10  0 20  9  4  5 19  0  6 21  0 21 20  0  0  2  5 12 10
  2 12 19  1 17 14  5 26 22  1 12  2  5 10 18  3 16 19  3 31  9  0  3  1
  5  8 27  2 32 21  3  9 27  0  0 11 11 26 12 35]"
900,325.0,0.90625,5,2,4.382389068603516,4.4101762771606445,372,3600,48031,311717,"[ 2  0  1  2  2  2  2  2  1  5  1  3  4  1  3  1  3  2  5  0  8  3  5  2
  0  3  0  3  3  2  3  9  0  1  3  3  4  9  2  1  4  7  5 10  1  4 13  8
  2  1 13  2  4  1  2  6 18  4  7  4  0  3  2  0 11  9  0  0  2  2 10 21
  5  5 12  1  0 21  0 26 22  5 26 13  1 26 26  1 16 27  0 26  9  0  3  1
  5  3 10  0 26 17  1 20 24  2  6 29 11 26 12 35]"
1000,325.0,0.90625,5,2,4.819739818572998,4.373488426208496,416,4000,53375,340835,"[ 5  2  3  4  2  3  3  0  1  3  1  3  2  0  0  3  0  3  2  9  8  0  7  3
  0  3  0  3  3  9  0  8  5  0  8  2  4 11 10  1  5 12  3  7 14  1  2 12
  1 10 15  2  5  7  0  4 18  0  7 11  2 16 19  0 20  6  0  0  2  3  0  1
  1 21  1  4 21  8  3  6 19  5 13  4  2  4  4  4 11 21  5 26  9  0  3  1
  5 30  9  3 12 24  1 19 15  0  9 29 11 26 12 35]"
1100,325.0,0.90625,5,2,5.262624263763428,4.428820610046387,467,4400,58732,369989,"[ 1  1  2  3  2  0  0  0  2  3  3  1  4  3  1  5  3  1  0  2  8  0  6  1
  0  3  0  0  4  9  0  6  5  5  8  3  0 10  7  0 13  6  5  9 14  1 11 12
  0  2 15  0  6  5  2  4 16  3  5  3  0  4 19  0  3 21  0  0  2  1  9  4
  0 19 23  3  8  0  5 26 26  3 13 23  1  4  8  2 21 12  5 26 15  0  3  1
  0 18  1  2 30 23  5 15  2  2 16 14 11 26 12 35]"
1200,325.0,0.90625,5,2,5.692965984344482,4.303393363952637,516,4800,63824,398770,"[ 4  3  3  0  1  0  0  3  0  5  2  2  5  1  1  1  3  1  3  3  3  0  6  2
  1  1  6  0  0  4  3  6  5  2  6  7  5 11 14  3 14  8  5 13 10  2 10  6
  1  5  8  1  0 15  0 14  6  4 17 13  4  4 19  0  3 12  0  0  2  2  9 14
  0 24 19  1  8  0  4 22 25  1 13 23  1 10 27  0  6 14  5 33  2  0  3  1
  0 31 21  5 17 28  1 20 32  2 25 32 11 26 12 35]"
1300,329.0,0.921875,6,2,6.13055157661438,4.3758320808410645,569,5200,68939,428309,"[ 0  3  3  3  0  0  0  3  0  5  2  2  0  2  1  1  1  3  4  3  2  0  6  8
  0  6  6  1  3  9  3  4  5  2  4  2  5 10 13  4  8 15  5  0  6  0  4  4
  1  0 11  4  0  1  2  8  9  4 12  6  2 16 15  0 10  2  0  0  2  0  5  8
  4 18 24  4  5 14  3 27  0  5  3  6  0  8 27  3 18 12  2 10 19  0  3  1
  0  7 17  4 24 28  2  3 32  2  1  3 11 26 12 35]"
1400,329.0,0.921875,6,2,6.607752561569214,4.771983623504639,611,5600,74113,460863,"[ 5  2  2  1  2  3  0  3  0  3  0  0  0  2  1  5  2  1  2  3  9  0  6  8
  0  3  6  1  1  5  2  3  8  1  0  8  0  0  2  2 11  6  2 15  6  2 14  6
  1 15  3  2 11 14  4 21  1  0  8 18  1 16 12  5  4  5  0  0  2  5  5 21
  3  8 24  4 21 24  3  2 26  3  8 18  5 14 14  2  7 15  2 23 29  0  3  1
  2 30 16  3 15 23  4  4 32  5 10 20 11 26 12 35]"
1500,337.0,0.953125,7,3,7.051437854766846,4.436824321746826,669,6000,78573,492041,"[ 5  1  3  5  0  0  0  3  0  3  1  0  0  2  1  3  3  3  2  8  9  0  6  8
  4  2  7  0  1  5  0  6  3  4  6  8  0  0 15  3  6  6  2  9  1  1 11 11
  2 15  2  4 10  3  2 21 20  3 17  4  5  0  2  2 20  5  0  0  2  5 18  8
  3  8  2  3 27 10  3  2 19  3  8 10  1 14 14  0 25 15  3 20 28  0  3  1
  2  0  9  0 15 23  4 16 13  3 22 20 11 26 16 35]"
1600,337.0,0.953125,7,3,7.490373611450195,4.389336109161377,736,6400,82907,523193,"[ 5  1  2  1  2  2  0  3  0  3  2  0  0  2  1  3  2  3  0  3  9  0  6  8
  2  2  1  0  6  3  4  8  8  4  3  8  0  0 15  2  1  7  0  6 14  3 12  9
  3 15  9  1 14  3  0 10  0  5 17  4  5  0  0  2  3  5  0  0  2  3 16 14
  2 13  1  3  3  6  3 23 19  2  8 27  1  0  7  0 25 15  3 20 10  0  3  1
  5 30 24  5 26 20  5  0 14  0 22 15 11 26 16 35]"
1700,346.0,0.984375,8,3,7.89295220375061,4.025764465332031,794,6800,86720,551940,"[ 5  0  0  4  0  1  0  3  0  5  2  0  0  2  1  3  0  3  3  4  4  0  6  8
  1  0  2  4  9  8  5  1  9  4  6  8  5  4 15  2 11  7  3  7 11  2  8 10
  2 15  4  3  3  4  0  9  4  5 21  2  0  0 19  5 12  1  0  0  2  2 17 14
  4 11 17  3 13 22  3 17 19  2 26 26  0 10 19  0 23  7  2  3 27  0  3  1
  5 30 21  1 17 20  0 10 14  1 26 29 11 26 16 35]"
1800,349.0,0.984375,6,2,8.235200643539429,3.4224629402160645,846,7200,89643,575035,"[ 5  0  0  0  0  1  0  3  0  0  0  0  0  2  1  1  0  0  2  7  4  0  6  8
  1  6  8  3  9  5  5  5  9  4  6  8  5  4 14  2  0  8  0  1  2  2  8  9
  2  1  2  2 10  6  0 16 16  4  5 10  0 11  6  5 12 19  0  0  2  5 17 14
  1 15 24  0 13 27  2 15  6  2 24  3  2 10 19  5  9  2  2  3 27  0  3  1
  0  9 31  0  4  2  1  0 14  3 13 12 11 26 15 35]"
1900,349.0,0.984375,6,2,8.542148351669312,3.0694580078125,910,7600,92533,593722,"[ 0  0  3  2  1  1  0  3  0  2  2  1  0  2  1  1  0  3  5  7  2  0  6  8
  4  7  7  4  9  4  0  6  9  4  6  8  1  3 11  2  4  2  3  7  8  3  8 11
  4  0  6  3 10 15  5 15 18  5  5  1  5  3 17  2 18  0  0  0  2  3 21 21
  4 14 10  3 27 27  0  5  6  5 23  3  4 10  1  5  2 12  2 17 31  0  3  1
  1 32  1  0 16  9  3 31  9  1 26  2 11 26 15 35]"
2000,349.0,0.984375,6,2,8.837739944458008,2.9558944702148438,969,8000,95313,611368,"[ 2  0  1  3  0  1  0  3  0  2  0  0  0  2  1  3  3  3  2  2  6  0  6  8
  4  8  5  4  9  4  3  7  2  4  6  8  1 14  3  2 11  8  1 12 13  2  9  3
  1  7 13  1 10  4  3 10 19  2  3  1  5  2 17  2 18  1  0  0  2  0  2  3
  4  7  6  1 23 21  3 27 13  5 10 21  0 21 14  5 13  4  2 24  5  0  3  1
  2 31 27  2  4 15  3  1  5  3 14  2 11 26 15 35]"
2100,349.0,0.984375,6,2,9.152154445648193,3.1441235542297363,1026,8400,98397,630778,"[ 3  0  1  0  3  3  0  3  0  0  1  1  0  2  1  1  2  2  4  2  0  0  6  8
  4  1  7  5  9  4  1  3  9  4  6  8  2  2 10  3  0  8  4  2  9  5 11  9
  1  7  9  5  7  1  3 15  0  5 12  2  2 16  1  3 18 11  0  0  2  1  2 11
  4 17  0  2 10 26  2  2 24  0 19 21  0 22  3  5 14 18  2  0 12  0  3  1
  4  6 27  0 14 15  3  8 19  3 17 16 11 26 15 35]"
2200,349.0,0.984375,6,2,9.447431802749634,2.952752113342285,1092,8800,101107,648460,"[ 3  0  3  0  3  1  0  3  0  1  1  3  0  2  1  5  1  0  4  7  0  0  6  8
  1  6  0  2  2  5  5  9  9  4  6  8  5  3  4  3 15 14  0 15  2  4  5 15
  3  7  2  0 14 10  3 21  9  2 12  8  2 16  1  5  1 11  0  0  2  1 14 11
  0 14  3  4 27  1  2 27 24  0 19 22  0 22 16  5  4 19  1  7 31  0  3  1
  4 20  0  0 27 15  4 31  7  4 12  8 11 26 15 35]"
2300,349.0,0.984375,6,2,9.74325180053711,2.9581785202026367,1155,9200,103913,666131,"[ 3  0  1  2  0  1  0  3  0  3  1  2  0  2  1  4  3  2  5  6  0  0  6  8
  1  4  5  2  8  3  1  1  7  4  6  8  3  3  5  0 12 11  4  2  6  5  5  6
  1  2  8  4 13 10  1 21  3  4 21 14  4 15 12  1  0  2  0  0  2  0 13 11
  3  8  3  0  4  1  5  6  3  1 11 22  4 15  2  0 21 19  1  4 23  0  3  1
  4 32 19  2 27 15  2 12 22  3  2  4 11 26 15 35]"
2400,349.0,0.984375,6,2,10.038462162017822,2.952084541320801,1222,9600,106691,683776,"[ 5  3  1  2  3  2  0  3  0  2  3  2  0  2  1  2  3  1  3  6  0  0  6  8
  0  8  4  2  8  9  3  8  5  4  6  8  0  7  1  0 14 12  2 12  9  0  9  0
  4  5  8  1  9 15  4  1  8  3 21 14  0  0  9  2 20  2  0  0  2  5 17 21
  4  8 21  0  4  1  1  6  3  1 26 10  3 15 22  4 25 18  5  4 23  0  3  1
  0 29 17  4 27 17  1 11 18  2  4 31 11 26 15 35]"
2500,349.0,0.984375,6,2,10.331918001174927,2.934536933898926,1286,10000,109433,701220,"[ 5  3  2  1  3  0  0  3  0  2  3  1  0  2  1  5  3  1  3  6  2  0  6  8
  0  8  4  2  6  9  1  2  6  4  6  8  1 10  6  5 14 14  3 14  0  1 14  9
  5 14  7  2  4  8  4 21  6  5  2 16  3 21  9  0 15  2  0  0  2  1 10  8
  1 12 25  3  4 25  5  0  1  2 27 20  0  2  2  5 25 17  5 25 31  0  3  1
  0 11 22  0 29 17  4 20  6  2  4  0 11 26 15 35]"
2600,349.0,0.984375,6,2,10.67878794670105,3.4686756134033203,1348,10400,112204,718594,"[ 2  1  1  5  2  3  0  3  0  5  1  3  0  2  1  1  3  0  3  9  1  0  6  8
  0  0  5  5  6  0  1  4  6  4  6  8  2 10 10  5 14 15  3 14  4  1  6  6
  0 10  7  2 11  8  2 21 10  5 16 14  4 21 18  3 19  3  0  0  2  0  0  8
  2  3 11  2  5 27  5 25 22  4 24  5  2  9 18  4 24 16  5  9 33  0  3  1
  2  0 32  1 17 18  3  9 20  4 33  0 11 26 15 35]"
2700,349.0,0.984375,6,2,10.975813388824463,2.9702305793762207,1410,10800,114925,736063,"[ 4  1  0  3  2  2  0  3  0  4  0  1  0  2  1  1  1  3  5  9  0  0  6  8
  1  9  6  1  0  0  0  9  6  4  6  8  3 10  0  5 14  9  0 14 14  0 11  6
  5  0  6  3 14 15  2 13 18  3 14  5  4 17 21  0  1 10  0  0  2  4 16 19
  2 15  5  2 23  2  2 25  4  2 24 26  3 13  4  4 24 25  4 12  3  0  3  1
  2  0 12  0  4 15  1  9 11  4  7 25 11 26 15 35]"
2800,349.0,0.984375,6,2,11.359697580337524,3.838815689086914,1473,11200,117793,754366,"[ 2  1  0  5  2  0  0  3  0  4  0  1  0  2  1  1  2  3  4  6  5  0  6  8
  2  7  8  2  7  2  2  9  8  4  6  8  0  1  7  5 11  0  1  9  2  0  2  7
  3  8  8  1  7  4  4 13 10  2  5  5  5  9 21  0  1 14  0  0  2  0 16 20
  3 27 14  3  8 11  2 16  3  2  2 21  5  5 11  5  6 25  2 10 32  0  3  1
  3  0 27  0  3 32  0  0  4  0  0 11 11 26 15 35]"
2900,349.0,0.984375,6,2,11.651390075683594,2.916903495788574,1535,11600,120513,771580,"[ 2  1  2  0  1  1  0  3  0  0  0  2  0  2  1  3  1  3  1  6  6  0  6  8
  5  4  6  0  2  6  2  8  8  4  6  8  0  1 14  0  1  0  3 11  7  5  2  5
  4  1  1  3  6 10  0 19 17  3  5  9  5 17  9  1 16  5  0  0  2  3  3 14
  0 17 25  2 11 14  4  3 10  0  1 17  4  5  1  5  4 22  3 21 18  0  3  1
  0 20  1  0 12 32  3 31  2  3  2 11 11  7 15 35]"
2948,352,1.0,9,3,11.799997806549072,3.0959496895472207,1561,11792,121983,780596,"[ 4  0  0  2  1  3  0  3  0  0  0  2  0  2  1  3  2  0  4  6  6  0  6  8
  5  4  7  0  9  0  1  8  0  4  6  8  0  1 12  1  1  0  3 11  7  1  4 12
  4  0  1  1  6  6  4 18 20  4  5  1  5 17  7  3 12 11  3  0  6  3 17 17
  2 17 24  2 11  2  4  3 10  0 18 17  2  1 11  4  4 22  3 14 18  0  3  1
  3 27  1  5  5 32  5 31  2  0  6 11 11 25 15 35]"
3000,352,1.0,9,3,11.959442615509033,3.0662096463716946,1587,12000,123159,791105,"[ 4  0  0  2  1  3  0  3  0  0  0  2  0  2  1  5  2  0  4  7  6  0  6  8
  5  4  7  0  6  5  2  8  4  4  6  8  5  3 11  1  4  0  0 11  1  0  3 12
  4 12  6  1  6 13  2  0  1  4  5  6  5  5  7  3 12 11  2  0  0  2 15 13
  1 14 24  0 19  2  3 12 16  4 18 17  4  1  3  3 17 24  3 14 13  0  3  1
  4 27  3  5 17 32  2 25 28  0  6 11 11 25 15 35]"
3100,352,1.0,9,3,12.27925157546997,3.198068141937256,1629,12400,125586,812711,"[ 4  0  0  2  3  0  0  3  0  0  0  2  0  2  1  2  0  1  0  1  5  0  6  8
  3  4  7  2  7  3  0  8  6  4  6  8  4  3  4  0  7 14  2  6  0  1  4  8
  0 12 14  2  5 13  2  9  1  2 11  5  0  8 16  3 12 11  2  5 14  5 13  6
  2 14 15  1 16  0  4  6 23  4 23  1  5 12 19  2 11 26  5 28 13  0  3  1
  1 24  3  1 25  6  1 32 22  5 13  0 11 25 15 35]"
3200,352,1.0,9,3,12.5995032787323,3.202497959136963,1687,12800,128006,834268,"[ 4  0  0  2  3  3  0  3  0  0  0  2  0  2  1  5  3  0  3  8  1  0  6  8
  3  4  7  2  7  7  0  6  0  4  6  8  2  3  8  0 12 14  2  6  0  4  1  1
  4 12 15  0  2 13  1 12 20  4 11 17  4  0  7  5 12 11  5  5 14  4  5 18
  5 17 15  2  7 10  4 23 16  4  6 22  3 12  6  2 13 21  5 24 15  0  3  1
  1 21 22  3 25 33  1  1 30  2 26  0 11 25 15 35]"
3300,353,1.0,8,3,12.896772861480713,2.9726791381835938,1732,13200,130289,853144,"[ 3  1  0  0  3  2  0  3  0  0  0  2  0  2  1  5  3  2  0  2  1  0  6  8
  2  7  7  4  6  6  0  2  4  4  6  8  4  3  8  5  5  4  3  1 13  2  1  5
  1  5 13  0 12  2  2 15 16  2 14 17  4  0 18  5 12 11  2 21 17  2 13 10
  5 11  0  1  2 25  4  6 16  3 24  9  4 10 11  3 21 15  1  3 25  0  3  1
  0 24  7  3  8 26  3  3  5  1  0 23 11 25 15 35]"
3400,354,1.0,7,3,13.193750619888306,2.9697537422180176,1783,13600,132694,871972,"[ 1  3  3  0  0  2  0  3  0  0  1  2  0  2  1  5  3  3  4  8  2  0  6  8
  2  0  2  1  2  4  0  7  2  4  6  8  0  0  8  2 14  1  4 11 12  0  4 13
  0  1  5  5 12  8  4 17  1  4  0 15  0 18  9  5 12 11  1  1  8  1 13  4
  4  4  9  4  4  0  2 10 10  1 18  9  0  0 14  4 21 13  1 12 27  0  3  1
  0 24 26  2  2 26  4 17 12  1  2 27 11 25 15 35]"
3500,354,1.0,7,3,13.450474739074707,2.5672197341918945,1841,14000,134709,886262,"[ 1  0  3  0  0  0  0  3  0  1  1  3  0  2  1  4  3  0  1  6  0  0  6  8
  2  0  2  1  0  2  2  7  6  4  6  8  0 11  8  3 14  9  0 11  6  5  4  2
  2  9  1  4  3 11  4 17  2  3 16 12  5 17 11  3 12 11  0 12 12  5 11 10
  1  4 17  0  8 17  3  8 23  4 21 19  3 11 21  4  4 13  4 29  1  0  3  1
  4 24  5  4  0  8  4 32 10  4 31 27 11 25 15 35]"
3600,354,1.0,7,3,13.701972007751465,2.514948844909668,1903,14400,136712,900367,"[ 4  0  3  3  0  3  0  3  0  4  1  1  0  2  1  2  3  2  4  6  0  0  6  8
  2  0  2  0  2  5  1  7  6  4  6  8  0  7 14  5  9 11  4  0 12  0 12  2
  4 10 11  0  5 11  3  6  2  2 10 12  1 21 13  3 12 11  0  4  6  5 20 11
  4  7  6  1 23  3  4 10 27  2 21 12  3 16  6  5  0 19  4 29  1  0  3  1
  5  0 32  1  0  8  2  3 17  4 20 20 11 25 15 35]"
3700,354,1.0,7,3,13.955435514450073,2.534615993499756,1958,14800,138739,914639,"[ 2  1  3  0  1  1  0  3  0  2  1  3  0  2  1  0  3  0  5  8  3  0  6  8
  2  0  2  2  3  0  5  2  4  4  6  8  0  7  6  4  9 11  4  7  1  2 11  2
  0  4  9  3  9  8  3  1  2  3 10 12  1  6  3  3 12 11  2  0 16  0  3  7
  4  7  0  5 14 26  4 10 27  2  9 23  2 17  6  4  0 15  4 27 14  0  3  1
  1 11 26  1  0  8  3 23 19  1 19 29 11 25 15 35]"
3800,354,1.0,7,3,14.228476762771606,2.730391025543213,2004,15200,141021,930707,"[ 2  1  1  0  3  2  0  3  0  2  3  1  0  2  1  0  2  0  0  6  3  0  6  8
  2  0  2  1  1  0  5  5  5  4  6  8  3 14 15  4 10  8  1 13  4  2  2 10
  5  6  5  4  9 13  4  0 11  1 12 21  3  6  0  3 12 11  5  9  2  3 14  7
  0  3 20  5  3  3  2  7 27  1 14 18  2 15  6  3 22 15  4 29 23  0  3  1
  1 11 26  5 14  8  4  8  3  4 21 21 11 25 15 35]"
3900,354,1.0,7,3,14.505504608154297,2.770252227783203,2051,15600,143192,945970,"[ 2  3  2  0  1  0  0  3  0  0  3  2  0  2  1  5  2  0  5  8  4  0  6  8
  2  0  2  4  1  6  2  5  4  4  6  8  0  8 15  3 11  8  0  0  4  5 14 13
  5  8  2  4  6  7  0 18  6  5 12 19  3  5  0  3 12 11  5  7  2  3 15 19
  3  2 15  5  3 10  5 21 14  2  5 12  2  3  1  2 22 18  2 19  0  0  3  1
  1  6 14  5 30  9  0 30 19  3 18  6 11 25 15 35]"
4000,354,1.0,7,3,14.763948678970337,2.584414482116699,2114,16000,145230,960335,"[ 4  1  0  1  1  0  0  3  0  0  1  2  0  2  1  2  1  0  1  1  3  0  6  8
  2  0  2  4  1  4  2  7  2  4  6  8  1 12 15  3  5  6  0  6  7  2 14 14
  0  8 11  4 10  2  0  8 21  5 12 19  4  0  0  3 12 11  5 11  6  3 15 16
  3  8 15  2  3  9  5 13 11  2  5 12  2 19 26  0  5  1  5 17 18  0  3  1
  1 13  2  5  1 15  0 30 19  3  2  7 11 25 15 35]"
4100,354,1.0,7,3,15.006989240646362,2.4303841590881348,2178,16400,147083,973435,"[ 4  3  1  3  1  0  0  3  0  0  1  0  0  2  1  1  2  0  1  8  3  0  6  8
  2  0  2  4  5  5  1  7  9  4  6  8  1  5  3  3 14 14  0 13 10  2 14  5
  0 15  5  4 15 11  0  8 18  1 12  9  4 21 20  5 12 11  5 11  5  3  3 18
  1 11 17  2  0  9  5 13 11  2  5  6  4 19 16  2 22  5  5 17 16  0  3  1
  0 13  2  0  1 32  2 30 19  4 23 32 11 25 15 35]"
4200,354,1.0,7,3,15.35761284828186,3.5062122344970703,2238,16800,149233,988572,"[ 1  0  1  4  1  0  0  3  0  5  1  2  0  2  1  3  3  0  4  0  4  0  6  8
  2  0  2  4  6  7  2  7  4  4  6  8  1 15  1  0 10  6  5 13 10  1 14  5
  1 15  1  4  1 13  2  8 18  1  8 11  4 21 20  5 12 11  2  8  5  0  5 13
  1 15 17  3  0 16  4 13 23  5 22 26  3 19 21  0 22 17  5 17 32  0  3  1
  5 26 26  0  2 32  3 29 19  2 23 29 11 25 15 35]"
4300,354,1.0,7,3,15.604646921157837,2.4703216552734375,2300,17200,151142,1002094,"[ 1  0  1  2  3  0  0  3  0  4  2  2  0  2  1  5  3  1  5  0  4  0  6  8
  2  0  2  4  6  7  3  9  9  4  6  8  0 15 12  1 15  7  1 13  5  0 15 10
  1  5  3  1  1 10  0  5  5  0 14 11  0  1 16  5 12 11  2  5  4  5  9 13
  2 16 19  4 11 22  2 19 16  5 11 26  4 19 21  4 22  1  0 17 24  0  3  1
  2  7 15  1  2 31  5 18 33  3  2 29 11 25 15 35]"
4400,354,1.0,7,3,15.86982798576355,2.6517868041992188,2356,17600,153291,1017342,"[ 0  0  1  5  3  1  0  3  0  0  3  2  0  2  1  2  3  0  4  8  4  0  6  8
  2  0  2  4  9  6  4  9  0  4  6  8  5 11 12  3 11 11  2 12  4  0  9  2
  0  5 14  4  1  2  0 20  5  1 20 11  0 20  3  3 12 11  2  6 16  5 19  2
  2 22 24  4 11 26  2  3 17  5  6  8  2  6  8  4 11  9  4 17 20  0  3  1
  5  7  1  1  7 29  0 32  0  3 21 14 11 25 15 35]"
4500,354,1.0,7,3,16.139551162719727,2.6972103118896484,2409,18000,155536,1033145,"[ 2  0  2  4  0  0  0  3  0  0  2  2  0  2  1  1  3  1  2  0  4  0  6  8
  2  0  2  1  6  8  4  3  0  4  6  8  3 10 12  4 11  6  2 15  0  0  9  2
  0 10 12  1  6  5  0 12  7  1  1 10  3  8  1  5 12 11  4  7 17  5 19  2
  5 10  5  1 18 13  5  3 13  5  6  5  3 23  2  1 16 25  2 13 20  0  3  1
  5 21  6  0  9 21  4  7  2  0 21  8 11 25 15 35]"
4600,354,1.0,7,3,16.40919828414917,2.6964521408081055,2466,18400,157766,1048920,"[ 4  3  2  4  0  0  0  3  0  1  2  2  0  2  1  3  3  1  2  0  4  0  6  8
  2  0  2  1  0  5  4  5  0  4  6  8  0 10 14  1 11  6  1 10 12  0  0  5
  0 10  2  4 10  5  0 11  7  5  9  0  3 11  7  5 12 11  5  5  9  0 19  8
  5  7  5  5 24 13  2  7 12  5 15 25  1 22  2  4  2 19  4 11 26  0  3  1
  5 29  1  5  9 32  4  3 14  0 13 20 11 25 15 35]"
4700,354,1.0,7,3,16.672783613204956,2.635834217071533,2523,18800,159903,1064057,"[ 1  2  0  0  0  0  0  3  0  5  0  1  0  2  1  0  2  2  1  0  4  0  6  8
  2  0  2  1  8  8  4  1  6  4  6  8  2 10 14  1  2 11  1  4  7  0  4  5
  5  0  2  4 15  5  0 14 11  2  6 14  3 11  6  3 12 11  0  9 20  2 21  9
  4  6  3  2 11 13  2 21 21  1 19  4  1  9  9  0 18 19  3 22 29  0  3  1
  5 29  1  5  3 32  3 23 13  3 10 20 11 25 15 35]"
4800,354,1.0,7,3,16.943257570266724,2.7047204971313477,2574,19200,162142,1079870,"[ 2  3  0  0  2  2  0  3  0  1  0  1  0  2  1  3  2  1  1  3  6  0  6  8
  2  0  2  2  2  2  0  1  3  4  6  8  1 14 14  5  2  8  5  4  5  4 13  4
  3  1 15  2 13 11  0 10 14  0 20  1  0 11 16  5 12 11  3 18 19  2 18 16
  0  6 17  2 12 16  3 10 21  4 26 12  1  9  4  0 15 14  5 24 23  0  3  1
  3 15 14  0  3 32  2 15 25  4 22 20 11 25 15 35]"
4900,354,1.0,7,3,17.191694736480713,2.4843502044677734,2637,19600,164001,1093014,"[ 5  3  1  0  1  2  0  3  0  1  2  1  0  2  1  1  2  2  5  5  6  0  6  8
  2  0  2  3  2  2  1  3  9  4  6  8  1  2  5  5  0  8  5  2 13  0  5  5
  3  1  5  2 14  5  4 21 14  3 18  1  4  3 16  3 12 11  3 18 19  2 18  7
  2  6  7  4 12 23  3  1  1  0  8 17  3  9 23  5 15 17  5 24 24  0  3  1
  3  7 14  3 22 10  3 15 30  3 13 17 11 25 15 35]"
5000,354,1.0,7,3,17.458552598953247,2.6685547828674316,2690,20000,166190,1108496,"[ 3  0  1  3  1  3  0  3  0  0  3  3  0  2  1  4  0  3  0  9  2  0  6  8
  2  0  2  1  3  7  1  9  5  4  6  8  3  9 10  5  2  8  5  2  9  0  6  0
  2 11 11  4  3  5  3  9  5  5 13 14  1 21 16  5 12 11  0 15 18  2 21  7
  3 26 10  1 19 23  5 13  0  3  2 15  5 13 11  0  8 11  5 24  1  0  3  1
  4 23 29  4 19 32  3  2 31  2 17 21 11 25 15 35]"
5100,354,1.0,7,3,17.728758811950684,2.702040672302246,2741,20400,168445,1124474,"[ 2  2  2  2  0  2  0  3  0  1  0  0  0  2  1  4  1  3  0  5  2  0  6  8
  1  0  2  1  8  7  4  7  6  4  6  8  2 13  9  4  0  9  3  7  7  4  3  9
  1 10 13  4 10 13  4 11  4  1  3 14  3 17 16  3  5 11  2  5  6  3  6 20
  5 20  5  4  7  3  4 14  3  0  7 15  2  4 17  2 18 19  5 10  1  0  3  1
  1 23 29  4 27  8  3  5  2  3 13 26 11 25 15 35]"
5200,354,1.0,7,3,17.990909814834595,2.621486186981201,2798,20800,170575,1139432,"[ 3  0  1  2  0  2  0  3  0  2  3  0  0  2  1  2  3  1  3  8  2  0  6  8
  5  3  8  1  4  7  5  7  4  4  6  8  5  0  9  4  1  2  2 14  4  5  0  6
  4  8 10  1 10  2  2 16  8  1  4  2  0 15  2  5  5 11  1 13 12  4 17 12
  0  9  5  4  7 22  1  5 11  4  4 27  4 24 10  2 18  3  3 26  1  0  3  1
  3  0 29  3 26 11  1 18 33  5 13  8 11 25 15 35]"
5300,354,1.0,7,3,18.25501823425293,2.6410651206970215,2856,21200,172732,1154617,"[ 3  2  3  2  0  2  0  3  0  0  3  0  0  2  1  1  3  1  3  7  2  0  6  8
  4  0  7  1  2  2  5  6  0  4  6  8  5  9 13  5  7  7  4  8  5  3 11  3
  4  7 10  0  7  6  0  5 15  0  1  5  0 15  2  5  5 11  2 13  6  5 12 12
  0 10 14  4 25 22  2  1  3  2 23 10  4  2 11  5 26  9  3 17 33  0  3  1
  3 12 14  4 26 27  2 18 14  3 10 27 11 25 15 35]"
5400,354,1.0,7,3,18.538803577423096,2.837827205657959,2911,21600,174982,1170426,"[ 5  1  3  2  0  2  0  3  0  0  2  2  0  2  1  4  3  3  1  1  8  0  6  8
  3  0  6  2  2  2  5  5  9  4  6  8  5  7  1  1 13  5  4 15 13  3 13  3
  0  3  2  3 12  9  0  6 10  1 21 14  0 11 21  5  5 11  2 15  3  5 11 12
  0 22  5  4 10 16  3  3  9  2 18 27  3  2 13  4  6 25  4 30 33  0  3  1
  5 12 27  2  9  9  0 12  2  0 10 27 11 25 15 35]"
5500,354,1.0,7,3,18.824430227279663,2.8562402725219727,2960,22000,177396,1187416,"[ 4  0  1  2  0  2  0  3  0  1  0  3  0  2  1  5  0  3  1  1  5  0  6  8
  3  5  4  1  9  2  3  9  7  4  6  8  2  1  8  2 13  0  2  3 14  5  4 10
  5 13  1  5 12  0  1  6  7  1  5 20  0 11  9  5  5 11  1  8 13  2 14 12
  1 18  4  0 10  2  5 27 11  2 16 21  1  2  4  0 24 19  0  9 12  0  3  1
  4 15  0  1 22  6  1 10 24  1 24  5 11 25 15 35]"
5600,354,1.0,7,3,19.097188472747803,2.7275538444519043,3017,22400,179629,1203168,"[ 1  2  3  2  0  2  0  3  0  1  3  3  0  2  1  1  0  0  0  3  7  0  6  8
  3  5  4  1  4  6  3  4  7  4  6  8  4  1  4  2 13 14  5  8  9  5  4  3
  5 13  7  5 12  0  4 15  7  5  2  4  3 10  0  5  5 11  5  8 14  2 17 12
  1 21 19  0 10  2  5  5 11  2  2 15  5 19  1  0 15  8  2  9 24  0  3  1
  4 28  5  5 15 15  0 32 24  1 24  5 11 25 15 35]"
5700,354,1.0,7,3,19.379018783569336,2.818279266357422,3066,22800,181941,1219409,"[ 1  2  2  2  0  2  0  3  0  5  3  0  0  2  1  1  2  1  0  7  5  0  6  8
  1  4  8  5  6  6  1  3  8  4  6  8  3  0 12  3  7 12  1 10 12  4  0 15
  5 12  7  2  8 13  1  8  9  0  1 21  0  6 12  5  5 11  1  9 14  1 20 18
  3  2 16  1 23 17  2  5 26  2 26  6  2 15  1  4 24  0  2 29 10  0  3  1
  2  3 10  2 13  3  3 32 32  3  5  2 11 25 15 35]"
5800,354,1.0,7,3,19.661096572875977,2.820756435394287,3122,23200,184277,1235866,"[ 3  1  3  2  0  2  0  3  0  3  1  2  0  2  1  4  3  1  5  7  6  0  6  8
  1  4  6  1  7  7  4  0  3  4  6  8  3  1 12  5 15 12  4 11 11  1  6 10
  3  3  7  0  8  6  3 19  3  0 18  1  0  6  4  5  5 11  5  8 13  1 15 21
  4  8 20  1 24 22  4 11 23  5 15  3  4 15  1  5  9 25  5 16  7  0  3  1
  2  1 10  5 13 30  0 24 18  0 12 22 11 25 15 35]"
5900,354,1.0,7,3,19.937196254730225,2.7609753608703613,3171,23600,186644,1252486,"[ 3  2  2  2  0  2  0  3  0  0  0  2  0  2  1  1  3  1  4  7  8  0  6  8
  1  2  6  1  4  7  5  0  1  4  6  8  3  1 12  5 15  4  4 15 11  2  5  9
  1  3  4  2  8 11  3  5 18  1  4 20  3  6 11  5  5 11  1  8  4  1 15 12
  4  7  4  1 22  8  2 14 20  0  9  7  0  5 22  5  7 20  1 33  7  0  3  1
  3 12 10  5 20 14  3 26  5  2 12 16 11 25 15 35]"
6000,354,1.0,7,3,20.19895339012146,2.6175498962402344,3231,24000,188782,1267502,"[ 2  3  0  2  0  2  0  3  0  0  3  2  0  2  1  4  2  3  4  9  2  0  6  8
  1  8  8  2  3  6  0  2  2  4  6  8  2  2  8  3  8  7  4 15  0  2  5  9
  0  3  4  1  6  5  3  1  6  1 19 18  3  5 13  3  5 11  1 11  4  3 21 18
  3 13  5  5 11  8  4 21  3  0  9  7  0  4  7  2 19 27  3 33 13  0  3  1
  3 33 10  4 23 20  3 12  5  2 30 17 11 25 15 35]"
6100,354,1.0,7,3,20.45992612838745,2.609703540802002,3287,24400,190903,1282477,"[ 2  3  2  2  0  2  0  3  0  0  0  1  0  2  1  1  3  3  0  5  7  0  6  8
  4  3  9  0  4  7  4  2  2  4  6  8  2  3  1  2  4  7  4 15  0  0  6 13
  5  1  3  3 14  3  2 13 20  2 19  3  1  1  1  5  5 11  0 19  5  3  4  1
  0  0 23  2 21 10  4 13  0  4 26  0  3  5 15  4  3  1  4  6  1  0  3  1
  4 30 10  3 20 30  0  4 26  1 13  4 11 25 15 35]"
6200,354,1.0,7,3,20.735974073410034,2.760457992553711,3333,24800,193235,1298812,"[ 0  1  3  2  0  2  0  3  0  1  2  0  0  2  1  4  1  3  1  7  7  0  6  8
  2  2  4  4  6  0  3  8  7  4  6  8  1 13  1  4 12  8  3 14  7  1  6 10
  3  4 14  2  3  3  0 12 10  2 15  5  4 20  5  5  5 11  5 14  5  3 20 12
  0  0 16  4 21  1  0 15 25  4 24 17  3  6  2  5 26 27  0 27 25  0  3  1
  2 21  9  4 26 21  3  8 16  4 29 29 11 25 15  4]"
6300,354,1.0,7,3,21.009790182113647,2.7381420135498047,3383,25200,195559,1315135,"[ 0  3  0  2  0  2  0  3  0  1  2  1  0  2  1  4  3  1  1  9  8  0  6  8
  5  9  8  3  7  0  1  5  3  4  6  8  1 13 14  0  3  3  3 13  9  1 12 13
  4 12 14  0  1  3  2 20  6  2 15  6  2 20 15  5  5 11  5 17  4  5  2 15
  1  4 21  1 14 19  1 15 25  0 27 15  3 10  8  2 21 20  0 32  2  2  5 28
  0  5  2  3 26 22  4  8  5  4 18 11 11 25 15 21]"
6400,354,1.0,7,3,21.28219699859619,2.7240443229675293,3435,25600,197851,1331277,"[ 1  0  0  2  0  2  0  3  0  0  0  2  0  2  1  5  1  2  1  9  4  0  6  8
  2  6  6  1  4  2  1  2  5  4  6  8  1 13 14  1  8  8  5 14  9  3  5  9
  4 12  9  0  1  3  1 19 14  5  3  9  1  2  9  5  5 11  4 17 14  4  2 14
  1 13  2  4 23  5  1  0 11  1 14 12  3 10  8  3 20 13  4 17  2  3 20 17
  3 16 18  3 26  3  4  0 18  4 13 25 11 25 15 21]"
6500,354,1.0,7,3,21.559738874435425,2.775399684906006,3489,26000,200205,1347860,"[ 4  0  1  2  0  2  0  3  0  1  0  2  0  2  1  0  1  1  0  4  1  0  6  8
  1  6  9  1  9  8  1  2  5  4  6  8  2  7  1  5 10 12  2  0 12  5  0  7
  0  2 13  0  1  3  4 16 14  3 12  9  2 19 12  3  5 11  1 17 14  1 11 16
  1 26  1  5 23  0  1 22 13  3 14 23  2 27 25  3  5 13  3 17  9  2 26 15
  5  1 20  0 29  3  4  0 18  3  8 23 11 25 15 21]"
6600,354,1.0,7,3,21.83312726020813,2.7338624000549316,3543,26400,202498,1363952,"[ 5  2  2  2  0  2  0  3  0  4  0  0  0  2  1  1  2  3  4  5  0  0  6  8
  1  6  4  2  6  1  4  5  3  4  6  8  2  2  7  2  6  0  5  3 12  4  5 13
  0 13  6  0  1  3  3 16 20  2 19  6  4 19  0  5  5 11  1  0 18  5  0 14
  4 16 21  5  0 16  1 22  6  3  2  9  2 16 19  2 18 16  4 21 16  4  0 32
  5 19 17  2 22 30  2  1 22  1  8 23 11 25 15 21]"
6700,354,1.0,7,3,22.121339797973633,2.882101535797119,3589,26800,204988,1381407,"[ 4  2  0  2  0  2  0  3  0  1  2  2  0  2  1  1  0  3  4  0  0  0  6  8
  3  4  7  5  3  8  1  5  3  4  6  8  2 13  8  2 11 13  2 12  8  4  8 10
  0 12  8  0  1  3  4  3  3  0 20 18  5 14  8  5  5 11  4  1 21  4  8  6
  3 13  7  5  0 27  4 25 12  5 10 26  4 26  6  2 21 27  4 18  5  5  4  5
  2 14 17  5  0  8  1  8  2  3 16 14 11 25 15 21]"
6800,354,1.0,7,3,22.403459787368774,2.821178436279297,3639,27200,207441,1398639,"[ 3  1  3  2  0  2  0  3  0  1  3  0  0  2  1  0  3  3  4  5  0  0  6  8
  0  3  7  5  4  8  2  2  5  4  6  8  2 13  1  4  5  0  3  7  1  4 11  0
  1 12  8  0  1  3  1  4  0  4  8 11  5 14  8  5  5 11  4  1 11  4  7  9
  5 27 21  0  0  6  5 25 11  5 13 25  5 26 17  4 16 11  4 22  5  5  4  5
  0 14 11  0  1  8  1 18 27  3  3 22 11 25 15 21]"
6900,354,1.0,7,3,22.68229055404663,2.7882814407348633,3700,27600,209675,1414197,"[ 3  1  0  2  0  2  0  3  0  1  0  1  0  2  1  0  3  2  5  2  7  0  6  8
  2  9  7  2  1  8  0  2  6  4  6  8  0 13 14  3  0  7  1 13 12  3 11 14
  1  8  5  0  1  3  2  4 20  0 18 13  1 14 21  5  5 11  4  1 11  4 18 13
  2 27 21  5 19 12  4 27 21  1 13  5  2 20 17  5 16 23  3 32  5  1 12  5
  2  0 22  0  8  7  1 10 25  2  3  4 11 25 15 21]"
6906,355,1.0,7,2,22.702686071395874,3.3988157908121743,3702,27624,209851,1415431,"[ 3  1  0  2  0  2  0  3  0  0  1  1  0  2  1  0  2  2  5  0  7  0  6  8
  2  9  7  2  1  4  0  1  6  4  6  8  0 13 14  3  0  7  1 13 14  0  9 14
  4  8  5  0  1  3  2  4 20  0 18 13  1 14 21  3  5 21  4  1 11  4 18 13
  4 27 24  5 14 12  1 25 21  1 13  5  2 20 17  5 16 16  3 32  5  1 12  5
  2 21 22  0 27  7  1 10 25  2  3  4 11 25 15 21]"
