generation,fitness,functionality,active_nodes,longest_path,time,gen_time,nc_gens,fitness_evals,graph_evals,node_evals,genotype
0,166.0,0.46875,9,5,0.0066339969635009766,6.631135940551758,0,0,0,0,"[ 4  2  0  1  3  3  2  2  0  0  3  0  3  1  2  5  5  4  5  2  7  4  4  3
  2  8  2  2  7  4  5 11  5  3 12  9  0  2 11  4  1  2  4  0 10  0 16  2
  0 17  0  3 17  3  5  2 10  4 17  0  3  1  0  0 15 20  4  1 17  1  1 19
  1  2  1 18 27 24 27]"
100,318.0,0.921875,5,2,3.606395721435547,35.99759340286255,0,3200,39020,219877,"[ 1  1  3  1  2  2  2  2  0  0  3  1  1  0  0  0  2  2  5  8  3  5  4  8
  1  8  0  3  7  6  5 13 13  5 11 10  4  1  6  3  9  6  5  9 12  4  3 13
  0  3  0  0 13 17  0  9  1  5  3 16  5  2 16  1 14 22  3 18 23  0  1 20
  4 19 19 27 13 20  7]"
200,322.0,0.9375,6,2,7.422757625579834,38.16359519958496,2,6400,77453,465678,"[ 1  3  1  5  3  0  2  2  0  0  3  1  4  3  1  2  7  1  5  2  5  3  1  1
  0  2  2  3  7  6  5 11  5  4  6  5  1  6  1  4 13 13  5 12  0  0  1 15
  0  3  0  3  1  3  0  2  1  4 16  3  1  0 17  3 15  0  4  0 22  0 22 20
  3 14 15 27 13 22  7]"
300,322.0,0.9375,6,2,11.319965600967407,38.97205829620361,4,9600,116404,716403,"[ 0  0  2  3  3  2  2  2  0  0  3  1  4  2  1  3  6  0  2  3  8  0  1  7
  2  5  4  3  7  6  5  0  8  2  5 10  2  4 13  3 12  7  0  4 11  5 12 18
  0  3  0  1 13 13  0  2  1  1 17 11  2 23 17  2  2 15  1 17  1  0 22 20
  5  0  0 27 13 22  7]"
400,322.0,0.9375,6,2,15.060261487960815,37.40293264389038,4,12800,154900,960644,"[ 0  2  1  2  2  3  2  2  0  0  3  1  3  1  0  3  8  1  2  4  7  4  1  0
  4  3  3  3  7  6  3  1  9  4  1  3  2 10  1  0  2  3  2  6  2  0  1 16
  0  3  0  0 11 10  0  2  1  3 16  3  2 22 22  5 18  1  4 21 16  0 22 20
  5 19  1 27 13 22  7]"
500,322.0,0.9375,6,2,18.757501125335693,36.97237491607666,6,16000,191892,1196699,"[ 1  2  2  0  2  0  2  2  0  0  3  1  1  2  0  3  8  7  5  4  8  5  1  3
  1  7  6  3  7  6  4  5  6  0  8  0  5 12 10  3  6  3  3 12  5  2  0 11
  0  3  0  3  9 18  0  2  1  1  1 15  1 17 14  1 15  0  4 19  2  0 22 20
  4 19  0 27 13 20  7]"
600,322.0,0.9375,6,2,22.54276967048645,37.85265922546387,7,19200,229912,1445302,"[ 3  2  2  2  3  3  2  2  0  0  3  1  1  0  2  1  6  5  0  8  2  1  6  7
  3  7  0  3  7  6  1  4  0  3  6  1  0  5 10  0  2  9  0  9  4  2 15 18
  0  3  0  0 12 10  0  2  1  0  9 16  1 23 14  3 17 22  1  2 20  0 22 20
  1  0 21 27 13 22  7]"
700,322.0,0.9375,6,2,26.289958238601685,37.47185945510864,8,22400,267680,1688536,"[ 5  3  3  5  2  1  2  2  2  0  3  1  2  0  2  4  5  1  3  4  4  0  7  7
  1  0  5  3  7  8  5 11 10  5 12  7  3 11  6  4  3 13  0  4  4  1 17  0
  0  3  0  3  1 12  0  2  1  4  2  3  2 23 15  0  3 14  1  1 23  0 22 20
  5 15 15 27 13 20  7]"
800,322.0,0.9375,6,2,30.103947162628174,38.13986778259277,10,25600,305739,1933236,"[ 5  3  1  3  3  3  5  0  0  0  3  1  2  0  2  5  1  8  5  0  1  2  1  1
  1  6  4  3  7  8  3  9 12  0  4 10  1  4  2  4  0 11  2  2 11  0  2 14
  0  3  0  3 10  1  0  2  1  2 11  9  1  2 18  4 20  0  5 15  0  0 22 20
  0 20 17 27 13 22  7]"
900,322.0,0.9375,6,2,33.87666845321655,37.72718667984009,10,28800,344232,2180652,"[ 1  0  1  2  1  0  0  1  2  0  3  1  2  0  2  5  8  3  5  5  7  2  3  6
  5  6  4  3  7  8  0  3  1  3 10 13  4  5  4  0  9  4  5 12  4  2  0  9
  0  3  0  4 14  3  0  2  1  3 15  0  4  2  3  1  1 15  5 22 18  0 22 20
  3 20 14 27 13 20  7]"
1000,322.0,0.9375,6,2,37.59972310066223,37.230520248413086,14,32000,381895,2423756,"[ 1  3  2  5  3  1  3  2  1  0  3  1  2  0  2  4  7  6  0  1  1  3  0  7
  2  3  0  3  7  8  2  0  9  5  8  1  0  3  7  3  8  9  1 12  7  2 12  1
  0  3  0  3  2  2  0  2  1  4  1  1  2 23  2  5 20 18  0 22 15  0 22 20
  0 19 14 27 13 22  7]"
1100,322.0,0.9375,6,2,41.39322233200073,37.9349684715271,15,35200,419931,2665352,"[ 2  2  3  0  1  3  2  2  0  0  3  1  2  0  2  3  4  2  0  6  8  1  5  5
  5  5  6  3  7  8  3  7  5  2  2 11  3  1 13  2  7 10  5  8  8  2 10  0
  0  3  0  4 15  0  0  2  1  1 14  9  3 23 15  5 19 20  1 17 14  0 22 20
  2 19 20 27 13 20  7]"
1200,322.0,0.9375,6,2,45.26889967918396,38.756747245788574,17,38400,458189,2911595,"[ 3  0  0  5  2  1  4  0  3  0  3  1  2  0  2  4  7  0  3  1  7  3  6  0
  2  0  2  3  7  8  5  1  6  5  8  4  0 12  3  1 11  8  3  5  2  4 14  3
  0  3  0  4 10 18  0  2  1  3 10 13  2 16 17  4 16  1  5 17 22  0 22 20
  4 22 22 27 13 22  7]"
1300,322.0,0.9375,6,2,49.058547019958496,37.89644718170166,17,41600,496667,3158532,"[ 2  3  3  4  3  2  1  1  3  0  3  1  2  0  2  3  7  0  0  8  1  1  1  7
  2  2  2  3  7  8  0  3 13  3 10  2  5 12  6  1  3  2  3  1 12  0 14 17
  0  3  0  4  2 10  0  2  1  1  1 12  1 18 14  0 15 19  4  0 19  0 22 20
  1 14  1 27 13 22  7]"
1400,322.0,0.9375,6,2,52.87913727760315,38.20587635040283,19,44800,534885,3402330,"[ 4  3  0  0  3  1  1  3  3  0  3  1  2  0  2  0  1  7  3  2  6  2  0  3
  4  8  1  3  7  8  4  5 12  0  4  6  5  0  8  3  4  7  2  0  4  1 11 10
  0  3  0  1 15 15  0  2  1  2 12 10  5 20 22  2  2  1  3 22 14  0 22 20
  1  3 18 27 13 22  7]"
1500,322.0,0.9375,6,2,56.61671686172485,37.37576961517334,19,48000,572328,3642064,"[ 4  1  0  1  1  2  2  1  1  0  3  1  2  0  2  0  7  2  1  1  2  2  5  3
  4  1  2  3  7  8  5  9 13  1  8  8  2  1  4  2  7  7  0  0 11  5 13 10
  0  3  0  1  0  0  0  2  1  1 15  0  0 15  3  2 18 17  3 17  0  0 22 20
  3 19 18 27 13 20  7]"
1600,322.0,0.9375,6,2,60.278241872787476,36.61522150039673,22,51200,609554,3881421,"[ 3  1  3  2  3  1  2  1  1  0  3  1  2  0  2  1  6  1  0  6  4  0  6  4
  3  8  3  3  7  8  4  9  7  0  2  8  5  7  7  3  3 12  1  1  6  2 18 13
  0  3  0  1 10  3  0  2  1  5 10 10  3 19 23  2  1  0  4 17 17  0 22 20
  5 17 19 27 13 22  7]"
1635,340,1.0,9,3,61.66810488700867,39.71030371529716,22,52320,622921,3969451,"[ 3  0  3  5  3  1  0  3  0  0  3  1  2  0  2  2  8  8  2  5  7  0  7  4
  2  1  0  3  7  8  4  9  7  5  1  8  5 11  1  0  6  0  0  3 10  1 14 11
  0  3  0  4 10  1  0  2  1  1 17 16  5 17 23  3  3 21  4 22 17  0 22 20
  3  2  0 27 13 26  7]"
1637,343,1.0,7,2,61.72489786148071,28.39529514312744,22,52384,623351,3973074,"[ 3  0  3  4  3  1  0  3  0  0  3  1  2  0  2  2  8  8  2  5  7  0  7  4
  2  1  0  3  7  8  4  9  7  5  1  8  5 11  1  0  3  0  0  3 10  1 14 11
  0  3  0  4 10  1  0  2  1  1 17 16  5 15 23  3  3 21  4 22 17  0 22 17
  3  2  0 27 13 26  7]"
