generation,fitness,functionality,active_nodes,longest_path,time,gen_time,nc_gens,fitness_evals,graph_evals,node_evals,genotype
0,141.0,0.40625,6,3,0.015172958374023438,15.165090560913086,0,0,0,0,"[ 2  2  0  2  1  3  3  3  3  0  3  0  3  2  0  3  1  7  0  1  4  1  5  0
  5  0  2  1  7  7  2  3  2  5  4  3  0  1 12  1  1 11  1 13  2  0  8 11
 17 16  6  0]"
100,293.0,0.875,4,3,0.7426798343658447,7.274999618530273,39,400,5304,22371,"[ 0  1  0  1  3  2  3  2  0  2  1  3  2  0  5  2  7  7  5  6  7  5  0  6
  3  5  1  2 10  0  0  9  2  2 11  8  0  2  0  4 10 12  3 14 14  5  2  2
 14 16  0  9]"
200,293.0,0.875,4,3,1.495354175567627,7.526681423187256,85,800,10455,48749,"[ 4  1  0  3  0  1  3  1  0  2  1  3  0  5  4  2  7  7  4  4  5  4  1  7
  2  4  5  1  0  2  0  9  0  0 10  6  0  2  0  0 11  2  1  8 12  4  2  0
 14 16  9  9]"
300,302.0,0.90625,6,2,2.305091142654419,8.097333908081055,129,1200,15877,79624,"[ 1  1  1  4  0  3  3  3  0  2  1  3  0  2  1  3  7  6  3  0  5  5  3  7
  2  6  2  3  6  8  0  6  0  5  3  7  0  2  0  3 12 14  5 15  3  5 13  3
 14 16  8  9]"
400,319.0,0.96875,8,3,3.334209442138672,10.291144847869873,172,1600,20516,113039,"[ 3  1  0  5  0  3  5  2  0  2  1  3  0  2  1  2  7  7  5  3  7  3  1  7
  1  2  6  0  0  5  5  5  8  2  5  9  0  2  0  4 15  3  5  8  9  4 13  8
 11 16 19  9]"
500,321.0,0.96875,7,2,4.1305646896362305,7.963480949401856,218,2000,24434,140630,"[ 0  3  0  3  2  3  4  2  2  2  1  3  0  2  1  3  7  7  3  3  7  0  3  7
  3  8 10  0  0  3  2  8  0  5  8  0  0  2  0  5  3  3  2 11  3  4 13  8
 10 16 19  9]"
600,321.0,0.96875,7,2,5.010230302810669,8.796589374542236,264,2400,28428,168428,"[ 5  3  2  3  2  3  0  2  2  2  1  2  0  2  1  3  1  7  4  7  7  0  3  1
  3  6 11  0  0  3  3  7 10  5  5  0  0  2  0  3  3  9  4  2 11  4 13  8
  9 16 19 11]"
700,321.0,0.96875,7,2,5.943704843521118,9.334712028503418,309,2800,32212,194534,"[ 0  3  0  5  2  2  3  0  2  4  1  3  0  2  1  1  1  6  4  7  7  0  3  1
  4  8 10  0  0  3  2  0 10  2  8  5  0  2  0  5 10 11  5  2 14  4 13  8
 10 16 19 11]"
800,321.0,0.96875,7,2,6.816182374954224,8.724720478057861,348,3200,36054,221199,"[ 4  1  3  2  3  1  3  0  3  4  3  0  0  2  1  1  1  7  4  7  7  0  3  1
  0  2  6  0  0  3  4  4  8  2  8  6  0  2  0  1 11 12  0  0  8  4 13  8
 10 16 19 11]"
900,327.0,0.984375,6,2,7.431245565414429,6.1505818367004395,403,3600,39333,242598,"[ 0  0  0  2  2  1  3  3  0  2  0  2  0  2  1  1  5  0  4  7  7  0  3  1
  2  3 11  0  0  3  4  3  0  4  3 11  0  2  0  3 15  3  0 13  8  4 13  8
 18 16 19 11]"
1000,327.0,0.984375,6,2,7.908243417739868,4.769926071166992,466,4000,42400,261782,"[ 4  0  0  2  3  1  3  1  0  5  1  2  0  2  1  1  5  6  5  2  6  0  3  1
  5 11 11  0  0  3  1  7  6  2  6  6  0  2  0  5  9  3  0 13  8  4 13  8
 18 16 19 11]"
1100,327.0,0.984375,6,2,8.369330167770386,4.6108198165893555,529,4400,45282,279807,"[ 3  0  1  3  2  1  0  2  0  0  3  1  0  2  1  3  6  6  3  2  3  0  3  1
  5  8 10  0  0  3  0  9  6  1  3 10  0  2  0  5  1  9  0 13  8  4 13  8
 18 16 19 11]"
1200,327.0,0.984375,6,2,8.895016193389893,5.25679349899292,592,4800,48445,300634,"[ 2  3  2  4  2  3  2  3  1  1  0  0  0  2  1  2  6  6  3  6  3  0  3  1
  3  7 10  0  0  3  3  9 11  2  2 10  0  2  0  5 12 10  0 13  8  4 13  8
 18 16 19 11]"
1300,327.0,0.984375,6,2,9.505600452423096,6.105802059173584,651,5200,51515,320299,"[ 4  3  2  1  3  0  4  1  0  1  0  0  0  2  1  4  6  6  5  2  4  0  3  1
  3  4  4  0  0  3  3  3  9  5  0  0  0  2  0  3 15 10  0 13  8  4 13  8
 18 16 19 11]"
1400,327.0,0.984375,6,2,10.1468026638031,6.4119672775268555,715,5600,54502,339090,"[ 3  3  0  4  2  2  0  1  2  0  1  3  0  2  1  3  2  3  5  7  4  0  3  1
  3  4 11  0  0  3  5  8  4  5  0  4  0  2  0  3  9  8  0 13  8  4 13  8
 18 16 19 11]"
1500,327.0,0.984375,6,2,10.713927030563354,5.671200752258301,781,6000,57347,356724,"[ 0  3  1  0  2  3  5  1  2  1  1  3  0  2  1  4  5  0  5  3  5  0  4  1
  4  2 11  0  0  3  5  8  0  3  0  9  0  2  0  3 12  3  0 13  8  4 13  8
 18 16 19  4]"
1600,327.0,0.984375,6,2,11.206968545913696,4.930377006530762,840,6400,60347,375537,"[ 0  3  1  4  2  3  5  2  2  0  1  3  0  2  1  4  0  0  5  6  5  2  3  2
  1  9  4  0  0  3  3  2  9  0  4  9  0  2  0  0  2  3  0 13  8  4 13  8
 18 16 19  4]"
1700,327.0,0.984375,6,2,11.71101427078247,5.040411949157715,900,6800,63275,393681,"[ 4  2  1  5  0  3  3  2  3  0  1  3  0  2  1  5  7  1  3  2  4  2  3  3
  4 11  4  0  0  3  3  5  9  2  9  2  0  2  0  3  1 12  0 13  8  4 13  8
 18 16 19  7]"
1800,327.0,0.984375,6,2,12.23286509513855,5.218453407287598,960,7200,66037,410978,"[ 0  2  0  5  2  3  4  3  1  0  1  3  0  2  1  2  4  1  4  1  5  2  7  3
  1 11  5  0  0  3  2  5  6  2  4  5  0  2  0  5  1 10  0 13  8  4 13  8
 18  4 19  7]"
1900,327.0,0.984375,6,2,12.758903980255127,5.260345935821533,1021,7600,68974,429245,"[ 0  2  0  1  1  2  2  3  3  0  1  3  0  2  1  2  7  4  4  7  5  0  5  1
  1  3  9  0  0  3  3  7  8  4  4  5  1  1 14  2  1 12  0 13  8  4 13  8
 18  4 19  7]"
2000,327.0,0.984375,6,2,13.264866590499878,5.059571266174316,1075,8000,71860,446833,"[ 0  2  0  4  3  2  3  0  0  0  1  3  0  2  1  3  7  4  5  2  2  4  5  0
  5  8  2  0  0  3  2  7  5  4  8  4  5  1 11  0  1 14  0 13  8  4 13  8
 18  4 19  7]"
2100,327.0,0.984375,6,2,13.839780807495117,5.749104022979736,1130,8400,74998,466435,"[ 0  2  0  4  0  0  0  3  0  0  1  3  0  2  1  0  5  1  4  7  6  4  5  5
  3  7  8  0  0  3  2 10  4  4  3 10  3 14  1  0 13 14  0 13  8  4 13  8
 18  4 19  7]"
2200,327.0,0.984375,6,2,14.359459400177002,5.196740627288818,1192,8800,77962,484866,"[ 0  2  0  3  0  0  0  3  3  0  1  3  0  2  1  0  1  3  0  1  0  4  0  1
  3  6  3  0  0  3  3  6  7  3  3  1  5 14 13  5  0  8  0 13  8  4 13  8
 18  4 19  7]"
2300,327.0,0.984375,6,2,14.929337501525879,5.698742866516113,1247,9200,81125,504341,"[ 0  2  0  4  1  1  1  1  1  0  1  3  0  2  1  5  5  5  2  1  4  2  0  1
  4  6  3  0  0  3  4  7  1  5  3  9  3  1  2  0 11  8  0 13  8  4 13  8
 18  4 19  7]"
2400,327.0,0.984375,6,2,15.50059461593628,5.7125163078308105,1303,9600,84209,523162,"[ 0  2  0  4  2  2  3  1  1  0  1  3  0  2  1  2  2  1  2  2  3  4  1  7
  5  7  2  0  0  3  0  0  1  4  3  6  5  3  2  5  8  8  0 13  8  4 13  8
 18  4 19  7]"
2500,327.0,0.984375,6,2,16.015558004379272,5.149593353271484,1359,10000,87125,541023,"[ 0  2  0  0  0  2  0  1  3  0  1  3  0  2  1  1  0  4  2  1  3  4  0  5
  1 11 10  0  0  3  5 11 10  5  7  9  2  9  8  5  1  8  0 13  8  4 13  8
 18  4 19  7]"
2600,327.0,0.984375,6,2,16.503523349761963,4.879612922668457,1423,10400,90045,558993,"[ 0  2  0  4  0  0  0  1  3  0  3  2  0  2  1  1  3  4  5  4  3  3  0  2
  1  3 10  0  0  3  4 11  4  5  2  9  0  9 11  1 12  8  0 13  8  4 13  8
 18  4 19  6]"
2700,327.0,0.984375,6,2,17.020997047424316,5.174560546875,1472,10800,93214,578577,"[ 0  2  0  1  0  1  0  1  3  3  0  3  0  2  1  4  1  5  2  0  3  5  0  6
  0  7 10  0  0  3  5 11  9  3  3  9  2  9 15  4 12  2  0 13  8  4 13  8
 18  4 19  6]"
2800,327.0,0.984375,6,2,17.497575759887695,4.765751361846924,1532,11200,96126,596500,"[ 0  2  0  1  0  1  0  1  3  3  2  0  0  2  1  5  5  7  5  7  3  4  3  6
  2  9 10  0  0  3  3  2  5  3  3 10  5  1  8  0 12  2  0 13  8  4 13  8
 18  4 19  6]"
2900,327.0,0.984375,6,2,18.057251930236816,5.5967116355896,1590,11600,99228,615740,"[ 0  2  0  0  3  1  0  1  3  2  1  1  0  2  1  5  1  7  4  3  3  2  4  1
  0  3  4  0  0  3  5 11 10  3  3  4  3  1  8  5  8 11  0 13  8  4 13  8
 18  4 19  5]"
3000,327.0,0.984375,6,2,18.679895401000977,6.226365566253662,1650,12000,102259,634644,"[ 0  2  0  0  3  1  1  0  2  5  3  3  0  2  1  2  3  4  5  3  7  2  5  1
  0  5  9  0  0  3  2 10  9  0  3  5  4  3  2  5  2 11  0 13  8  4 13  8
 18  4 19  5]"
3100,327.0,0.984375,6,2,19.409340620040894,7.2943830490112305,1708,12400,105361,654018,"[ 0  2  0  0  3  1  1  1  1  5  0  2  0  2  1  1  1  4  1  3  4  1  6  7
  5  1  5  0  0  3  3 10  5  3  9  1  4  2  2  1  3  0  0 13  8  4 13  8
 18  4 19  5]"
3200,327.0,0.984375,6,2,19.97250461578369,5.631577968597412,1771,12800,108227,671492,"[ 0  2  0  0  3  1  1  2  0  4  0  2  0  2  1  1  1  4  0  3  4  3  7  7
  3  9  5  0  0  3  4  1  5  4  9  1  3 11  3  1 12 10  0 13  8  4 13  8
 18  4 19  5]"
3300,327.0,0.984375,6,2,20.68530583381653,7.127969264984131,1826,13200,111343,690877,"[ 0  2  0  0  3  1  1  3  0  0  2  2  0  2  1  1  0  0  1  4  7  1  4  5
  3  4  5  0  0  3  2  1 11  2  6  1  3 15 10  1 13  9  0 13  8  4 13  8
 18  4 19  5]"
3400,327.0,0.984375,6,2,21.283463954925537,5.98153829574585,1880,13600,114447,710102,"[ 0  2  0  0  3  1  4  3  0  0  0  1  0  2  1  1  2  2  1  3  6  3  4  4
  4  7  9  0  0  3  4  2 11  0 10  3  3 15  8  5  9  1  0 13  8  4 13  8
 18  4 19  5]"
3500,327.0,0.984375,6,2,21.786551237106323,5.030817985534668,1942,14000,117326,727868,"[ 0  2  0  0  3  1  4  3  0  4  3  1  0  2  1  2  2  2  1  5  2  3  6  2
  4  8  9  0  0  3  2  9  0  0 10  7  2 13  8  3 14  2  0 13  8  4 13  8
 18  4 19  5]"
3600,327.0,0.984375,6,2,22.29011344909668,5.035576820373535,1996,14400,120471,747405,"[ 0  2  0  0  3  1  2  3  3  0  3  3  0  2  1  5  2  6  2  5  5  4  2  7
  4  1  9  0  0  3  2  5  0  2 10  7  4 13  2  1  1 10  0 13  8  4 13  8
 18  4 19  5]"
3700,327.0,0.984375,6,2,22.840948581695557,5.508294105529785,2050,14800,123434,765687,"[ 0  2  0  0  3  1  5  1  1  0  3  2  0  2  1  3  1  5  0  0  3  0  2  7
  1  9  5  0  0  3  5  2  6  2 11  6  4 13  8  1  9 10  0 13  8  1 12  8
 18  4 16  5]"
3800,327.0,0.984375,6,2,23.46251153945923,6.2155914306640625,2112,15200,126360,784048,"[ 0  2  0  0  3  1  2  3  1  4  3  3  0  2  1  5  6  3  3  6  6  5  7  7
  3  2  9  0  0  3  5  0  7  3  0  8  4 13  8  3 10 10  0 13  8  0 12  9
 18  4 16  5]"
3900,327.0,0.984375,6,2,23.963556051254272,5.010385513305664,2176,15600,129142,801120,"[ 0  2  0  0  3  1  1  0  3  1  1  0  0  2  1  5  3  0  2  6  6  1  7  7
  4  2  9  0  0  3  5  5  3  3  0  8  4 13  8  2 10 10  0 13  8  0  9 14
 18  4 16  5]"
4000,327.0,0.984375,6,2,24.490989685058594,5.274286270141602,2233,16000,132212,820164,"[ 0  2  0  0  3  1  2  3  2  3  1  0  0  2  1  0  1  0  5  1  6  3  6  7
  4  2  3  0  0  3  5  5  3  3 11 11  4 13  8  2 14 12  0 13  8  4  9  8
 18  4 16  5]"
4100,327.0,0.984375,6,2,25.04641342163086,5.554196834564209,2291,16400,135009,837386,"[ 0  2  0  0  3  1  3  2  0  4  2  3  0  2  1  2  6  1  5  7  2  4  1  0
  4  7  3  0  0  3  2  3  6  5 10  5  4 13  8  0  1  3  0 13  8  2 12  8
 18  4 16  5]"
4200,327.0,0.984375,6,2,25.621450424194336,5.75031042098999,2345,16800,138030,855982,"[ 0  2  0  0  3  1  2  0  3  2  0  2  0  2  1  3  5  4  5  3  0  4  0  0
  4  1  8  0  0  3  4  9  7  0 11  1  4 13  8  1 13 10  0 13  8  5 14 12
 18  4 16  5]"
4300,327.0,0.984375,6,2,26.18726658821106,5.658109188079834,2399,17200,141145,874977,"[ 0  2  0  0  3  1  5  0  0  5  3  2  0  2  1  3  2  5  5  3  6  1  3  0
  5  1  8  0  0  3  0  0  9  1 11  0  4 13  8  2 13  8  0 13  8  5  8 13
 18  4 16  5]"
4400,327.0,0.984375,6,2,26.77681565284729,5.895442962646484,2462,17600,144119,893201,"[ 0  2  0  0  3  1  1  3  0  5  1  3  0  2  1  5  2  3  5  6  7  0  7  5
  1  1 11  0  0  3  2  3  8  1  7 11  4 13  8  3 12 13  0 13  8  1  8 13
 18  4 16  5]"
4500,327.0,0.984375,6,2,27.394099712371826,6.172783374786377,2523,18000,147165,912206,"[ 0  2  0  0  3  1  1  3  3  5  2  0  0  2  1  0  3  3  0  3  6  0  1  1
  1  3  7  0  0  3  0  3 10  2 10  5  4 13  8  3 12 13  0 13  8  1  8  2
 18  4 16  5]"
4600,327.0,0.984375,6,2,27.96286702156067,5.687603950500488,2581,18400,150186,930748,"[ 0  2  0  0  3  1  4  0  0  4  2  0  0  2  1  1  1  1  2  3  5  0  0  3
  1 10  9  0  0  3  2  3  8  2 10 11  4 13  8  2 12  0  0 13  8  4 13 14
 18  4 16  5]"
4700,327.0,0.984375,6,2,28.486003160476685,5.231328010559082,2638,18800,153064,948330,"[ 0  2  0  0  3  1  4  3  1  4  3  1  0  2  1  4  1  0  3  5  2  5  5  1
  0  4  2  0  0  3  4  6  8  2  3  1  4 13  8  5  0  0  0 13  8  3  1  3
 18  4 16  5]"
4800,327.0,0.984375,6,2,29.043198585510254,5.571901798248291,2694,19200,156088,967042,"[ 0  2  0  0  3  1  5  1  1  2  0  3  0  2  1  2  0  0  2  1  6  2  5  2
  1  4  2  0  0  3  4  3  4  2  6  7  4 13  8  3  0  2  0 13  8  5  8 10
 18  4 16  5]"
4900,327.0,0.984375,6,2,29.6991868019104,6.5598297119140625,2747,19600,159244,986340,"[ 0  2  0  0  3  1  2  1  1  1  2  1  0  2  1  4  4  0  0  3  3  4  1  0
  1  3  2  0  0  3  1  0 11  0  5  1  4 13  8  1  0 14  0 13  8  2 10  1
 18  4 16  5]"
5000,327.0,0.984375,6,2,30.313499212265015,6.143064498901367,2811,20000,162179,1004223,"[ 0  2  0  0  3  1  1  3  2  3  3  0  0  2  1  4  4  6  4  1  3  5  7  0
  1  8  4  0  0  3  5  0  6  0  5 10  4 13  8  1  1 13  0 13  8  3 10 10
 18  4 16  5]"
5100,327.0,0.984375,6,2,30.90735173225403,5.938470363616943,2863,20400,165378,1023852,"[ 0  2  0  0  3  1  0  0  1  3  3  1  0  2  1  0  4  6  0  0  3  3  0  3
  1  8  5  0  0  3  5  8 10  1  0  4  4 13  8  1 12 13  0 13  8  4 11  1
 18  4 16  5]"
5200,327.0,0.984375,6,2,31.51354146003723,6.061854362487793,2921,20800,168496,1043245,"[ 0  2  0  0  3  1  2  0  1  3  2  1  0  2  1  3  7  6  2  1  6  3  3  3
  5  2 10  0  0  3  5  9  6  1 11  2  4 13  8  3 13  2  0 13  8  3 15 10
 18  4 16  5]"
5300,327.0,0.984375,6,2,32.10564708709717,5.921018123626709,2980,21200,171432,1061312,"[ 0  2  0  0  3  1  5  0  1  4  3  1  0  2  1  1  6  1  3  1  4  3  3  2
  5  2 10  0  0  3  5  9  2  2 10  9  4 13  8  5 13 11  0 13  8  1 15 10
 18  4 16  5]"
5400,327.0,0.984375,6,2,32.6081600189209,5.025069713592529,3039,21600,174405,1079406,"[ 0  2  0  0  3  1  5  1  1  2  2  2  0  2  1  1  1  1  5  1  4  3  3  3
  5  1  3  0  0  3  5  3  2  3 10  1  4 13  8  5  0 11  0 13  8  3 11 13
 18  4 16  5]"
5500,327.0,0.984375,6,2,33.124497175216675,5.163331031799316,3096,22000,177509,1098365,"[ 0  2  0  0  3  1  5  0  3  2  0  1  0  2  1  1  7  1  5  1  4  2  2  0
  3  1 11  0  0  3  0  7  5  5  4  2  4 13  8  1 11  0  0 13  8  3  8 10
 18  4 16  5]"
5600,327.0,0.984375,6,2,33.662113189697266,5.376126766204834,3154,22400,180516,1117000,"[ 0  2  0  0  3  1  4  0  0  4  3  2  0  2  1  4  4  7  1  4  6  3  5  5
  5  9 10  0  0  3  0  7 10  0 11 11  4 13  8  0 11  3  0 13  8  0  2 10
 18  4 16  5]"
5700,327.0,0.984375,6,2,34.12206053733826,4.599428176879883,3215,22800,183545,1135837,"[ 0  2  0  0  3  1  3  0  3  4  3  0  0  2  1  0  4  2  5  2  6  5  0  1
  5  3 10  0  0  3  4  6  9  3 11 11  4 13  8  1  2  9  0 13  8  0  3 10
 18  4 16  5]"
5800,327.0,0.984375,6,2,34.64721655845642,5.251498222351074,3273,23200,186459,1153907,"[ 0  2  0  0  3  1  3  3  0  4  1  0  0  2  1  2  3  0  0  2  6  4  0  0
  2 10 10  0  0  3  0 11 11  5  9  6  4 13  8  1  2  0  0 13  8  4  3  2
 18  4 16  5]"
5900,327.0,0.984375,6,2,35.190505504608154,5.432829856872559,3333,23600,189529,1173075,"[ 0  2  0  0  3  1  0  1  0  3  2  2  0  2  1  4  5  5  2  6  6  2  0  1
  1 10  8  0  0  3  3  3  2  5 10  8  4 13  8  0 10 10  0 13  8  3 15  0
 18  4 16  5]"
6000,327.0,0.984375,6,2,35.66143274307251,4.709234237670898,3393,24000,192495,1191254,"[ 0  2  0  0  3  1  3  3  3  1  1  1  0  2  1  1  1  5  2  1  6  0  2  2
  2  5  1  0  0  3  4  7  2  5  6  4  4 13  8  1  0  0  0 13  8  5  3  3
 18  4 16  5]"
6100,327.0,0.984375,6,2,36.28183150291443,6.203930377960205,3448,24400,195548,1210107,"[ 0  2  0  0  3  1  0  1  3  2  1  3  0  2  1  4  1  5  4  2  6  5  0  3
  2  4  4  0  0  3  1  7 10  5  3  7  4 13  8  0  9 14  0 13  8  2 11  9
 18  4 16  5]"
6200,327.0,0.984375,6,2,36.89000701904297,6.081705093383789,3498,24800,198615,1229029,"[ 0  2  0  0  3  1  0  0  2  0  3  1  0  2  1  3  2  2  3  3  2  5  0  3
  0 10  2  0  0  3  3  9  3  5  8  7  4 13  8  4  1  0  0 13  8  4 11  3
 18  4 16  5]"
6300,327.0,0.984375,6,2,37.5868034362793,6.967899799346924,3557,25200,201779,1248650,"[ 0  3  1  0  3  1  0  0  2  0  1  3  0  2  1  1  2  6  3  1  2  5  7  5
  3  8  1  0  0  3  5  9  3  0  4 10  4 13  8  1  8 12  0 13  8  4  1  3
 18  6 16  5]"
6400,327.0,0.984375,6,2,38.47563719749451,8.888275623321533,3616,25600,204625,1266079,"[ 1  2  3  4  1  0  0  0  2  0  1  3  0  2  1  5  1  0  3  2  4  1  4  4
  1  2  6  0  0  3  2  9  7  5  1  7  4 13  8  3 14 12  0 13  8  4 12  3
 18  6 16  7]"
6500,327.0,0.984375,6,2,39.55476784706116,10.791254043579102,3677,26000,207500,1283860,"[ 0  2  3  5  1  2  0  0  2  0  1  3  0  2  1  2  2  0  0  6  6  0  0  1
  0  2  6  0  0  3  2 10  5  4  0  3  4 13  8  3  2 12  0 13  8  4  3 15
 18  6 16  7]"
6600,327.0,0.984375,6,2,40.321969509124756,7.671952247619629,3715,26400,210663,1303308,"[ 5  0  0  2  3  3  0  0  2  0  1  3  0  2  1  1  5  3  3  0  5  0  4  4
  5 11  0  0  0  3  1  2  0  4  9  4  4 13  8  0  0 12  0 13  8  5  1 14
 18  6 16  7]"
6700,327.0,0.984375,6,2,41.21647524833679,8.945014476776123,3771,26800,213702,1322710,"[ 5  3  0  3  3  0  0  0  2  0  1  3  0  2  1  2  7  6  3  0  4  2  3  0
  3 11  0  0  0  3  1  2 11  3  9  4  4 13  8  1 11  3  0 13  8  2  1 14
 18  6 16  7]"
6800,327.0,0.984375,6,2,41.875545263290405,6.590638160705566,3821,27200,216810,1341781,"[ 2  0  3  0  3  0  0  0  2  0  1  3  0  2  1  1  2  4  4  4  1  3  0  7
  4  9  5  0  0  3  5  6  7  1  9  3  4 13  8  1 12  3  0 13  8  4  1  8
 18  6 16  7]"
6900,327.0,0.984375,6,2,42.71839714050293,8.428452014923096,3878,27600,219911,1360669,"[ 5  1  3  4  3  1  0  0  2  0  1  3  0  2  1  4  2  1  5  3  1  2  3  6
  4  9  6  0  0  3  5  7  7  4  1  6  4 13  8  3 12  8  0 13  8  2 11  0
 18  6 16  7]"
7000,327.0,0.984375,6,2,43.69642686843872,9.780232906341553,3927,28000,223262,1381648,"[ 0  2  0  1  1  1  2  0  3  0  1  3  0  2  1  0  5  3  1  5  1  2  6  4
  0  5  5  0  0  3  3  2  5  0  3  7  4 13  8  1  1  9  0 13  8  4 12  3
 18  4 16  7]"
7100,327.0,0.984375,6,2,44.41318202018738,7.167487144470215,3984,28400,226309,1400519,"[ 0  2  0  4  1  0  0  0  2  0  1  3  0  2  1  0  4  7  0  4  7  2  5  0
  4  9  5  0  0  3  1  5  5  1  2  4  4 13  8  0  2  0  0 13  8  2  1 12
  9  4 16  7]"
7200,327.0,0.984375,6,2,45.11878824234009,7.056014537811279,4034,28800,229482,1419676,"[ 0  2  0  0  0  2  4  0  2  0  1  3  0  2  1  0  4  7  5  4  2  3  7  0
  4  9  7  0  0  3  3  1  7  1  5  4  4 13  8  2  2  1  4 13 14  3  0  8
  9  4 16  7]"
7300,327.0,0.984375,6,2,45.865222692489624,7.464308738708496,4093,29200,232528,1437985,"[ 0  2  0  3  0  1  3  1  2  0  1  3  0  2  1  0  4  7  2  5  2  3  0  5
  0  0 11  0  0  3  5  1 11  5  1  9  4 13  8  3  3 10  2 12  3  3  8  2
  9  4 16  7]"
7400,327.0,0.984375,6,2,46.58063316345215,7.154066562652588,4146,29600,235740,1457454,"[ 0  2  0  0  2  1  4  2  2  0  1  3  0  2  1  0  4  7  0  1  6  4  3  3
  2  9  1  0  0  3  2  5 10  4  6  1  4 13  8  5  3  9  2 12  9  2 12 10
  9  4 16  7]"
7500,327.0,0.984375,6,2,47.36100625991821,7.803671360015869,4197,30000,238957,1476834,"[ 0  2  0  3  2  2  4  2  2  0  1  3  0  2  1  0  4  7  0  1  5  3  1  0
  5  8  9  0  0  3  1  4  3  1  3  0  4 13  8  4 11  2  4 12  8  3 12  0
  9  4 16  7]"
7600,327.0,0.984375,6,2,48.20806288719177,8.470513820648193,4251,30400,242166,1496207,"[ 0  2  0  4  3  0  5  1  3  0  1  3  0  2  1  0  4  7  2  0  2  5  1  5
  2  8  8  0  0  3  2  6  1  3  3  2  4 13  8  2  2  8  1 14  8  5 15  1
  9  4 16  7]"
7700,327.0,0.984375,6,2,48.83464336395264,6.265766620635986,4302,30800,245236,1514634,"[ 0  2  0  2  1  2  1  2  0  0  1  3  0  2  1  0  4  7  5  7  5  2  6  0
  4  7  5  0  0  3  3  6  1  3  8  6  4 13  8  1  2 11  1 15 12  5  0 11
  9  4 16  7]"
7800,327.0,0.984375,6,2,49.4355206489563,6.008732318878174,4360,31200,248177,1532108,"[ 0  2  0  5  1  2  4  2  0  0  1  3  0  2  1  0  4  7  3  5  2  3  2  5
  4  6  2  0  0  3  0  3 11  1  8  4  4 13  8  3  1  1  0  1 15  2  0  2
  9  4 16  7]"
7900,327.0,0.984375,6,2,50.02852964401245,5.930027961730957,4420,31600,251205,1550280,"[ 0  2  0  1  0  1  5  1  3  0  1  3  0  2  1  0  4  7  0  7  2  3  0  5
  1  0 10  0  0  3  0  0  4  5  2  3  4 13  8  3  1 15  0 13 11  2 10  2
  9  4 16  7]"
8000,327.0,0.984375,6,2,50.670156478881836,6.416232585906982,4482,32000,254266,1568645,"[ 0  2  0  1  0  1  3  3  3  0  1  3  0  2  1  0  4  7  2  4  6  5  6  2
  1  2 10  0  0  3  0  4  3  4  2  9  4 13  8  1  8 15  0  8 13  1 10  9
 18  4 16  7]"
8100,327.0,0.984375,6,2,51.24432349205017,5.741603374481201,4547,32400,257137,1586383,"[ 0  2  0  1  0  0  3  0  1  0  1  3  0  2  1  4  1  0  3  4  6  3  4  4
  3  7  5  0  0  3  0  8  0  2  2  4  4 13  8  1  8  8  0  8 13  0  2 10
 18  4 16  7]"
8200,327.0,0.984375,6,2,51.894553422927856,6.502261161804199,4606,32800,260151,1604944,"[ 0  2  0  2  1  1  0  2  1  0  1  3  0  2  1  2  3  0  3  3  1  5  6  1
  4  8  5  0  0  3  2  2  8  4  5  2  4 13  8  4  2 10  0  8 13  4  1  2
 18  4 16  7]"
8300,327.0,0.984375,6,2,52.571317195892334,6.767597198486328,4660,33200,263367,1624802,"[ 0  2  0  5  1  1  4  0  1  0  1  3  0  2  1  0  2  4  3  6  6  1  5  4
  5 11 10  0  0  3  1  6  3  4  9 11  4 13  8  4 10 10  0  8 13  1  2  2
 18  4 16  7]"
8400,327.0,0.984375,6,2,53.182175636291504,6.108543872833252,4712,33600,266296,1642835,"[ 0  2  0  1  1  0  1  3  0  0  1  3  0  2  1  4  5  6  1  2  5  5  3  2
  5 11  7  0  0  3  4  6  5  3 10  0  4 13  8  5  1 14  0  8 13  4  9  2
 18  4 16  7]"
8500,327.0,0.984375,6,2,53.806636571884155,6.244568824768066,4766,34000,269371,1662016,"[ 0  2  0  2  2  0  5  0  3  0  1  3  0  2  1  4  3  5  5  1  7  3  4  5
  2 11 10  0  0  3  4  0  5  0 10  1  4 13  8  0  2  0  0  8 13  4 12  2
 18 17 16  7]"
8600,327.0,0.984375,6,2,54.44478893280029,6.381478309631348,4837,34400,272265,1680522,"[ 5  0  0  2  2  3  5  0  3  0  1  3  0  2  1  4  1  5  5  1  7  3  4  5
  0 11  5  0  0  3  4  0  4  0 10  1  4 13  8  0  2  0  0  8 13  1  9 10
 18 17 16  7]"
8700,327.0,0.984375,6,2,55.09295845031738,6.481642723083496,4893,34800,275278,1700116,"[ 3  1  0  2  2  1  1  2  1  0  1  3  0  2  1  3  2  5  4  6  7  0  4  5
  0  5  3  0  0  3  1  4  4  1  2  8  4 13  8  0  2  0  0  8 13  0  8  0
 18 17 16  7]"
8800,327.0,0.984375,6,2,55.70771074295044,6.147480010986328,4954,35200,278231,1718863,"[ 5  3  0  2  0  3  3  2  2  0  1  3  0  2  1  0  2  7  0  6  3  0  3  4
  2  4  6  0  0  3  3 11  0  3 10  0  4 13  8  0  2  0  0  8 13  2  2  0
 18 17 16  7]"
8900,327.0,0.984375,6,2,56.21863389015198,5.109190940856934,5021,35600,281173,1737451,"[ 2  0  2  2  0  3  0  0  0  0  1  3  0  2  1  4  1  2  3  1  2  0  1  4
  2  1  9  0  0  3  2 11  4  1  3  0  4 13  8  0  2  0  0  8 13  3 13 13
 18 17 16  7]"
9000,327.0,0.984375,6,2,56.71531009674072,4.966716766357422,5089,36000,284026,1755466,"[ 2  1  0  4  0  1  0  0  2  0  1  3  0  2  1  2  5  2  5  1  2  1  7  4
  4  1  9  0  0  3  3  5  4  0  3  0  4 13  8  0  2  0  0  8 13  3 12  3
 18 17 16  7]"
9100,327.0,0.984375,6,2,57.23682427406311,5.21510124206543,5149,36400,287048,1774353,"[ 5  2  0  2  2  3  1  2  0  0  1  3  0  2  1  4  5  2  5  7  7  1  4  7
  0  1 10  0  0  3  1 10  1  1  8  0  4 13  8  0  2  0  0  8 13  3 12  9
 18 17 16  7]"
9200,327.0,0.984375,6,2,57.79497194290161,5.5814290046691895,5206,36800,290060,1793232,"[ 1  2  2  0  2  3  5  1  0  0  1  3  0  2  1  1  5  0  3  7  2  1  4  0
  2  1  2  0  0  3  1  4  8  0 11  8  4 13  8  0  2  0  0  8 13  3 13  9
 18 17 16  7]"
9300,327.0,0.984375,6,2,58.34814453125,5.531678199768066,5267,37200,292987,1811906,"[ 2  3  3  1  0  1  1  1  1  0  1  3  0  2  1  2  6  0  4  6  0  1  4  3
  4  9 11  0  0  3  5  2  0  1 11  7  4 13  8  0  2  0  0  8 13  3 14  9
 18 17 16  7]"
9400,327.0,0.984375,6,2,58.94451951980591,5.963683128356934,5323,37600,295886,1830258,"[ 2  2  3  1  3  3  1  1  3  0  1  3  0  2  1  4  5  0  0  0  7  0  2  6
  4  2  9  0  0  3  0  7  8  3  7  8  4 13  8  0  2  0  0  8 13  1 14  1
 18 17 16  7]"
9500,327.0,0.984375,6,2,59.54957866668701,6.05053186416626,5373,38000,298954,1849229,"[ 5  1  2  1  3  0  1  3  2  0  1  3  0  2  1  0  2  0  4  4  1  3  0  3
  4  6  7  0  0  3  3 11  5  5 10  5  4 13  8  0  2  3  0  8 13  1  3  9
 18  9 16  7]"
9600,327.0,0.984375,6,2,60.226243019104004,6.7665791511535645,5424,38400,302123,1868860,"[ 0  1  2  1  0  2  3  2  0  0  1  3  0  2  1  0  2  0  2  4  2  5  5  4
  4  4  7  0  0  3  3  5  1  0  0  7  4 13  8  2 15 13  0  8 13  4  9 12
 18  9 16  7]"
9700,327.0,0.984375,6,2,60.786824464797974,5.605754852294922,5487,38800,304998,1886829,"[ 5  2  2  3  0  1  4  3  0  0  1  3  0  2  1  0  2  0  4  0  3  0  3  4
  4  9 10  0  0  3  5  8  8  2  9  9  4 13  8  2  2 15  0  8 13  5  0 15
 18  9 16  7]"
9800,327.0,0.984375,6,2,61.406898021698,6.200697422027588,5549,39200,308165,1906787,"[ 1  0  1  4  1  1  5  1  2  0  1  3  0  2  1  0  2  0  1  0  1  3  3  6
  0  4  4  0  0  3  1  9  8  3  4 11  4 13  8  3  3 13  0  8 13  4  0  9
 18  9 16  7]"
9900,327.0,0.984375,6,2,61.93064999580383,5.237483978271484,5610,39600,311372,1926895,"[ 1  1  1  0  3  1  1  0  1  5  2  1  0  2  1  0  2  0  4  4  1  5  1  7
  0  5  5  0  0  3  3  0  8  0  2  6  4 13  8  4  9 12  0  8 13  5 15 10
 18  9 16  5]"
10000,327.0,0.984375,6,2,62.411295890808105,4.806375503540039,5676,40000,314427,1945822,"[ 1  1  2  0  3  1  5  0  1  0  0  1  0  2  1  0  2  0  4  3  7  3  7  1
  1  3  5  0  0  3  1  4  9  3  4  5  4 13  8  5  0 13  0  8 13  3 14 10
 18  9 16  5]"
10100,327.0,0.984375,6,2,62.908517360687256,4.972176551818848,5725,40400,317496,1964813,"[ 5  3  2  0  3  1  3  0  2  2  0  3  0  2  1  0  2  0  3  6  6  1  7  7
  0 11  9  0  0  3  0  4 10  5  4 10  4 13  8  1  1 13  0  8 13  3 13 12
 18  9 16  5]"
10200,327.0,0.984375,6,2,63.41771745681763,5.091948509216309,5784,40800,320455,1982987,"[ 2  0  2  0  3  1  3  3  2  4  0  3  0  2  1  0  2  0  3  6  7  0  2  7
  4 11 10  0  0  3  5 11  2  4  1  5  4 13  8  1  1  0  0  8 13  3  9 12
 18  9 16  5]"
10300,327.0,0.984375,6,2,64.0022029876709,5.8448052406311035,5839,41200,323523,2002062,"[ 2  0  0  0  3  1  1  3  2  0  0  3  0  2  1  0  2  0  3  6  1  4  0  0
  4  9  5  0  0  3  5  8  9  5  1  5  4 13  8  1 14 10  0  8 13  1 15 14
 18  9 16  5]"
10400,327.0,0.984375,6,2,64.71322011947632,7.110106945037842,5887,41600,326693,2021699,"[ 0  0  2  0  3  1  5  2  3  4  0  3  0  2  1  0  2  0  0  2  3  4  4  5
  0  0  1  0  0  3  5  8  5  1  7  6  4 13  8  2 13  2  0  8 13  2 11  3
 18  9 16  5]"
10500,327.0,0.984375,6,2,65.32733130455017,6.141071319580078,5943,42000,329777,2040768,"[ 1  2  2  0  3  1  1  3  2  2  3  0  0  2  1  0  2  0  2  7  2  4  2  5
  2  9 11  0  0  3  5  1  4  1  9  7  4 13  8  2 12  9  0  8 13  1 11 12
 18  9 16  5]"
10600,327.0,0.984375,6,2,65.86001229286194,5.3267669677734375,6007,42400,332934,2060159,"[ 1  2  2  0  3  1  0  2  0  3  0  0  0  2  1  0  2  0  2  7  4  4  2  0
  2  5  6  0  0  3  5  2  8  3 11  9  4 13  8  2  0  3  0  8 13  3 11  8
 18  9 16  5]"
10700,327.0,0.984375,6,2,66.52270197868347,6.626853942871094,6071,42800,335858,2078161,"[ 1  3  3  0  3  1  1  0  1  5  1  3  0  2  1  0  2  0  4  6  7  0  2  7
  0  6  7  0  0  3  2  2  2  2  0  6  4 13  8  0 10  8  0  8 13  1 13  0
 18  9 16  5]"
10800,327.0,0.984375,6,2,67.15737581253052,6.346709728240967,6125,43200,338953,2097192,"[ 3  0  1  0  3  1  1  1  1  0  2  2  0  2  1  0  2  0  4  5  6  3  3  3
  3  2  1  0  0  3  0  7  1  2  7  2  4 13  8  2  8 14  0  8 13  1  1 10
 18  9 16  5]"
10900,327.0,0.984375,6,2,67.66211938858032,5.047392845153809,6176,43600,341991,2115711,"[ 5  0  1  0  3  1  3  1  3  5  1  3  0  2  1  0  2  0  4  2  3  0  4  5
  2  8  2  0  0  3  1  9  1  5  3  1  4 13  8  0  3 13  0  8 13  5 14 14
 18  9 16  5]"
11000,327.0,0.984375,6,2,68.19561457633972,5.334911346435547,6240,44000,344951,2133882,"[ 1  3  0  0  3  1  3  1  0  4  0  3  0  2  1  0  2  0  4  2  5  2  3  5
  4  2 10  0  0  3  1  5  3  2  3  1  4 13  8  0  3  8  0  8 13  3 14  0
 18  9 16  5]"
11100,327.0,0.984375,6,2,68.73165440559387,5.360352993011475,6303,44400,347962,2152289,"[ 0  2  1  0  3  1  4  1  2  2  2  2  0  2  1  0  2  0  4  5  5  0  5  7
  1  9  0  0  0  3  1  9  5  4  0  1  4 13  8  5 14  1  0  8 13  5 14 12
 18  9 16  5]"
11200,327.0,0.984375,6,2,69.29191422462463,5.60255765914917,6356,44800,351022,2171128,"[ 1  1  3  0  3  1  2  0  3  1  3  3  0  2  1  0  2  0  0  5  6  2  4  5
  1  4  5  0  0  3  5  7  8  2 10  3  4 13  8  3 13  9  0  8 13  5 11 14
 18  9 16  5]"
11300,327.0,0.984375,6,2,69.82598233222961,5.340638160705566,6412,45200,354103,2190244,"[ 3  0  0  0  3  1  5  0  2  4  1  1  0  2  1  0  2  0  0  4  1  4  0  2
  2  4  5  0  0  3  2  3  0  5  3 11  4 13  8  3  1 12  0  8 13  0  1  8
 18  9 16  5]"
11400,327.0,0.984375,6,2,70.33685684204102,5.108683109283447,6470,45600,356954,2207864,"[ 2  3  0  0  3  1  2  1  2  5  2  3  0  2  1  0  2  0  2  1  6  3  5  6
  0  9  3  0  0  3  2 11  0  2  5  0  4 13  8  4  1 13  0  8 13  1 14  3
 18  9 16  5]"
11500,327.0,0.984375,6,2,70.96128034591675,6.244184970855713,6533,46000,360020,2226957,"[ 5  3  0  0  3  1  5  1  2  0  3  0  0  2  1  0  2  0  3  1  1  1  2  6
  4  2  5  0  0  3  4  1  7  1  6  0  4 13  8  0 12  8  0  8 13  3  2 14
 18  9 16  5]"
11600,327.0,0.984375,6,2,71.46253490447998,5.012474060058594,6596,46400,363007,2245460,"[ 5  3  1  0  3  1  5  0  2  2  0  0  0  2  1  0  2  0  3  1  4  3  2  0
  5  2  9  0  0  3  4  5  9  5 11  6  4 13  8  1 12  8  0  8 13  0  0  1
 18  9 16  5]"
11700,327.0,0.984375,6,2,71.95767641067505,4.951376914978027,6662,46800,365788,2262289,"[ 5  3  1  0  3  1  5  2  0  2  3  0  0  2  1  0  2  0  0  1  4  4  0  5
  2  1  2  0  0  3  4  1  9  2  9  6  4 13  8  0 12  8  0  8 13  1  0 13
 18  9 16  5]"
11800,327.0,0.984375,6,2,72.45731997489929,4.99638557434082,6713,47200,368850,2281202,"[ 2  0  0  0  3  1  0  2  0  3  0  3  0  2  1  0  4  0  2  3  1  4  6  0
  1 11  2  0  0  3  5  9  9  2  6  6  4 13  8  4 12  2  0  8 13  2 14 11
 18  6 16  5]"
11900,327.0,0.984375,6,2,72.91739344596863,4.600675106048584,6764,47600,371910,2300226,"[ 1  0  1  0  3  1  0  2  0  5  2  1  0  2  1  4  3  7  4  7  5  1  5  4
  3  9  8  0  0  3  2  2  9  1 10  0  4 13  8  0  1 12  0  8 13  4  1 13
 18  6 16  5]"
12000,327.0,0.984375,6,2,73.41972017288208,5.023212432861328,6817,48000,374934,2319250,"[ 4  0  0  0  3  1  0  2  0  3  2  2  0  2  1  3  4  7  4  7  3  2  0  4
  1  7  8  0  0  3  5  3  8  4  9  0  4 13  8  0 13 14  0  8 13  5  0  8
 18  6 16  5]"
12100,327.0,0.984375,6,2,73.91186571121216,4.921398162841797,6880,48400,377933,2337811,"[ 4  2  0  0  3  1  0  2  0  3  2  2  0  2  1  3  7  6  3  7  3  5  5  5
  5  7 11  0  0  3  5  3  7  4  6  0  4 13  8  4 13 15  0  8 13  0  0  8
 18  6 16  5]"
12200,327.0,0.984375,6,2,74.52572536468506,6.1385369300842285,6937,48800,380948,2356251,"[ 3  3  0  0  3  1  0  2  0  2  0  0  0  2  1  5  1  6  2  5  1  3  5  4
  3  6  6  0  0  3  5  5  9  2 11  9  4 13  8  4 13  3  0  8 13  4  8 12
 18  6 16  5]"
12300,327.0,0.984375,6,2,75.11914110183716,5.934076309204102,6991,49200,384048,2375893,"[ 4  2  0  0  3  1  0  2  0  2  0  0  0  2  1  1  1  7  2  7  1  4  4  1
  4  1  6  0  0  3  3  9  7  4  0 11  4 13  8  4 13  1  0  8 13  0 10  2
 18  6 16  5]"
12400,327.0,0.984375,6,2,75.6026725769043,4.8352766036987305,7055,49600,386976,2394153,"[ 4  2  3  0  3  1  0  2  0  2  0  0  0  2  1  1  1  2  1  7  1  4  4  1
  4  1  6  0  0  3  5 11  7  4  0 11  4 13  8  5  9  1  0  8 13  5 13  2
 18  6 16  5]"
12500,327.0,0.984375,6,2,76.07224011421204,4.695611000061035,7114,50000,389851,2411972,"[ 0  0  3  0  3  1  0  2  0  2  0  0  0  2  1  2  3  2  2  4  1  3  3  3
  5  2  5  0  0  3  4  3  3  2 11 11  4 13  8  0 11 10  0  8 13  5 10  9
 18  6 16  5]"
12600,327.0,0.984375,6,2,76.57726430892944,5.050201416015625,7178,50400,392855,2430587,"[ 5  1  0  0  3  1  0  2  0  0  0  2  0  2  1  2  3  3  5  6  7  5  6  0
  3  6  9  0  0  3  5 10  7  1  9  0  4 13  8  1 14 14  0  8 13  0  3 11
 18  6 16  5]"
12700,327.0,0.984375,6,2,77.15656352043152,5.792951583862305,7227,50800,395980,2449904,"[ 4  0  3  0  3  1  0  0  2  0  2  0  0  2  1  2  6  3  5  5  0  0  6  3
  3  6  7  0  0  3  5  5  2  0  1  0  4 13  8  4 14 14  0  8 13  0 12  3
 18  7 16  5]"
12800,327.0,0.984375,6,2,77.73045039176941,5.738809108734131,7290,51200,398797,2467266,"[ 4  0  3  0  3  1  1  3  3  0  2  0  0  2  1  4  5  0  0  6  4  0  1  1
  2  6 10  0  0  3  3  9  8  5  7 11  4 13  8  5  0 14  0  8 13  0 12 10
 18  7 16  5]"
12900,327.0,0.984375,6,2,78.25602149963379,5.2556562423706055,7355,51600,401777,2486011,"[ 5  1  3  0  3  1  2  1  0  0  2  0  0  2  1  4  5  2  3  6  1  0  1  0
  2  4  2  0  0  3  1 10  6  3  0  6  4 13  8  5  3 13  0  8 13  0 11 10
 18  7 16  5]"
13000,327.0,0.984375,6,2,78.84976434707642,5.937364101409912,7408,52000,404801,2504515,"[ 0  1  2  0  3  1  0  0  2  0  2  0  0  2  1  0  5  5  1  6  0  2  5  5
  1  1  4  0  0  3  1  0  4  0  6 10  4 13  8  5  3  1  0  8 13  4  9 11
 18  6 16  5]"
13100,327.0,0.984375,6,2,79.45522618293762,6.054556369781494,7464,52400,408100,2525095,"[ 5  1  1  0  3  1  0  0  2  0  2  0  0  2  1  0  6  0  1  7  0  0  0  5
  5  3  0  0  0  3  2 10  4  4  0 10  4 13  8  2  0 12  0  8 13  5 15 15
 18  6 16  5]"
13200,327.0,0.984375,6,2,79.98617148399353,5.309410095214844,7523,52800,411152,2543868,"[ 0  2  1  0  3  1  0  0  2  4  3  1  0  2  1  3  7  0  2  0  7  1  3  5
  0  4  6  0  0  3  2 10  7  0  7  1  4 13  8  1  3  8  0  8 13  1  9 15
 18  6 16  5]"
13300,327.0,0.984375,6,2,80.50201344490051,5.158357620239258,7575,53200,414194,2562812,"[ 0  0  0  0  3  1  0  0  2  3  3  1  0  2  1  4  7  6  4  5  7  4  7  1
  3 11 11  0  0  3  3 11  7  4  1  1  4 13  8  0  0 12  0  8 13  3  3 12
 18  6 16  5]"
13400,327.0,0.984375,6,2,81.02479243278503,5.227746963500977,7624,53600,417252,2582056,"[ 1  1  2  0  3  1  0  0  2  0  1  1  0  2  1  4  7  2  2  3  5  2  1  7
  3 11 11  0  0  3  0  0  6  0  1  1  4 13  8  5  3  0  0  8 13  5  3 12
 18  6 16  5]"
13500,327.0,0.984375,6,2,81.55947518348694,5.346627235412598,7689,54000,420252,2600770,"[ 4  3  0  0  3  1  0  0  2  1  1  3  0  2  1  4  0  2  1  3  0  3  7  7
  1 11  9  0  0  3  0  0  9  0  2  0  4 13  8  1 15  0  0  8 13  5  0 11
 18  6 16  5]"
13600,327.0,0.984375,6,2,82.15361857414246,5.941348075866699,7741,54400,423444,2621018,"[ 4  0  2  0  3  1  0  0  2  0  0  0  0  2  1  4  1  4  0  1  7  4  3  4
  3  2  0  0  0  3  0  5  9  0  4  8  4 13  8  0  1 13  0  8 13  5 12 13
 18  6 16  5]"
13700,327.0,0.984375,6,2,82.67558479309082,5.219626426696777,7800,54800,426544,2640351,"[ 5  0  3  0  3  1  0  0  2  1  0  3  0  2  1  0  0  4  2  1  7  0  1  4
  2 10  0  0  0  3  2  6  0  0 10  0  4 13  8  3 15 13  0  8 13  2  8  9
 18  6 16  5]"
13800,327.0,0.984375,6,2,83.18962383270264,5.140340328216553,7855,55200,429568,2659161,"[ 1  0  1  0  3  1  0  0  2  0  0  3  0  2  1  0  1  7  3  1  7  2  0  4
  2  6  2  0  0  3  0  0  0  4  8  0  4 13  8  3  0 12  0  8 13  2 14 13
 18  6 16  5]"
13900,327.0,0.984375,6,2,83.86624217033386,6.766114234924316,7910,55600,432673,2678457,"[ 4  2  0  0  3  1  0  0  2  0  2  3  0  2  1  0  3  7  5  1  5  3  6  4
  4 10  9  0  0  3  2 11 11  3 10  8  4 13  8  0 15 13  0  8 13  4  0 11
 18  6 16  5]"
14000,327.0,0.984375,6,2,84.38040089607239,5.141549110412598,7966,56000,435577,2696055,"[ 2  2  2  0  3  1  0  0  2  5  2  2  0  2  1  3  1  6  0  0  5  5  3  4
  2  2  8  0  0  3  3  3  0  1  7  8  4 13  8  1 12 14  0  8 13  2 12  0
 18  6 16  5]"
14100,327.0,0.984375,6,2,84.8626389503479,4.822332859039307,8025,56400,438554,2714129,"[ 1  0  0  0  3  1  0  0  2  3  1  0  0  2  1  1  1  5  3  3  3  5  4  7
  2  7 10  0  0  3  2 11  6  1  3  3  4 13  8  0  3 11  0  8 13  0 15 14
 18  6 16  5]"
14200,327.0,0.984375,6,2,85.31351280212402,4.508700370788574,8082,56800,441589,2732701,"[ 0  0  2  0  3  1  1  0  3  0  2  2  0  2  1  1  1  5  2  7  1  4  0  4
  0  7 10  0  0  3  3  7 10  5  3  6  4 13  8  5  9  2  0  8 13  2 13  3
 18  4 16  5]"
14300,327.0,0.984375,6,2,85.7918541431427,4.78337287902832,8135,57200,444741,2751965,"[ 0  0  2  0  3  1  2  1  1  0  3  0  0  2  1  2  1  2  4  5  5  4  1  4
  0  2 10  0  0  3  2  7  8  5  3  6  4 13  8  0  9 13  0  8 13  3 14 11
 18  4 16  5]"
14400,327.0,0.984375,6,2,86.26008367538452,4.6822428703308105,8194,57600,447700,2770080,"[ 0  0  2  0  3  1  1  0  2  3  3  1  0  2  1  0  0  0  2  5  6  5  0  1
  4  2  9  0  0  3  5  7  8  1  2  4  4 13  8  1 11  3  0  8 13  3 15  0
 18  4 16  5]"
14500,327.0,0.984375,6,2,86.85315012931824,5.930607318878174,8250,58000,450683,2788262,"[ 0  0  2  0  3  1  2  0  2  5  3  0  0  2  1  3  0  7  5  4  3  5  3  7
  4  1  9  0  0  3  3  7  4  4  2  8  4 13  8  3  1 10  0  8 13  4 14 14
 18  4 16  5]"
14600,327.0,0.984375,6,2,87.34223580360413,4.890804290771484,8308,58400,453722,2806992,"[ 0  0  2  0  3  1  5  0  2  0  1  0  0  2  1  3  0  3  3  0  3  5  1  2
  4  9  9  0  0  3  3  7  7  3  2 10  4 13  8  0 10  3  0  8 13  2  1 14
 18  4 16  5]"
14700,327.0,0.984375,6,2,87.81627058982849,4.740300178527832,8365,58800,456670,2825154,"[ 0  0  2  0  3  1  4  2  1  5  2  0  0  2  1  3  1  7  3  3  6  5  7  2
  4  4  9  0  0  3  0  6  5  5  2  9  4 13  8  5 14 11  0  8 13  5 14 15
 18  4 16  5]"
14800,327.0,0.984375,6,2,88.29958629608154,4.833121299743652,8426,59200,459584,2843055,"[ 0  0  2  0  3  1  4  0  1  1  2  1  0  2  1  3  5  2  1  2  1  5  1  5
  4  7  9  0  0  3  5  9 10  1  6  2  4 13  8  1 13  8  0  8 13  3 14 14
 18  4 16  5]"
14900,327.0,0.984375,6,2,88.81708025932312,5.174870491027832,8482,59600,462681,2862324,"[ 0  0  2  0  3  1  4  0  2  3  2  0  0  2  1  0  3  6  2  3  1  4  1  7
  5 10  9  0  0  3  4  3  5  0 11  1  4 13  8  2  1  1  0  8 13  1 10 15
 18  4 16  5]"
15000,327.0,0.984375,6,2,89.31008458137512,4.930000305175781,8538,60000,465734,2881281,"[ 0  0  2  0  3  1  3  0  1  2  1  2  0  2  1  4  7  2  2  0  2  4  2  7
  3  8  1  0  0  3  5 11  2  3  0  6  4 13  8  4 10  0  0  8 13  2 11 10
 18  4 16  5]"
15100,327.0,0.984375,6,2,89.85173416137695,5.416455268859863,8584,60400,468919,2900910,"[ 0  0  2  0  3  1  3  3  3  2  1  2  0  2  1  4  5  6  3  4  7  2  2  3
  2  0  1  0  0  3  5  2  7  4  3  5  4 13  8  0  8 11  0  8 13  0  3 10
 18  4 16  5]"
15200,327.0,0.984375,6,2,90.43329048156738,5.815525054931641,8646,60800,471918,2919370,"[ 0  0  2  0  3  1  4  1  3  2  3  2  0  2  1  3  2  4  3  3  6  2  3  0
  5  4  3  0  0  3  5 10  3  0  3  5  4 13  8  3  8 15  0  8 13  5  2 10
 18  4 16  5]"
15300,327.0,0.984375,6,2,90.9768009185791,5.435030460357666,8698,61200,474771,2936971,"[ 0  0  2  0  3  1  5  3  2  5  1  1  0  2  1  3  6  2  1  6  6  2  4  0
  4  4  9  0  0  3  4  7 10  4  8  0  4 13  8  0  8 10  0  8 13  5  8 11
 18  4 16  5]"
15400,327.0,0.984375,6,2,91.45682859420776,4.800217151641846,8760,61600,477715,2955356,"[ 0  0  2  0  3  1  0  1  1  1  1  3  0  2  1  4  0  2  5  1  0  5  4  5
  5  8 10  0  0  3  2  4 11  0  5  2  4 13  8  3  2 13  0  8 13  5 13 12
 18  4 16  5]"
15500,327.0,0.984375,6,2,91.91384720802307,4.570150375366211,8819,62000,480703,2973796,"[ 0  0  2  0  3  1  2  3  1  1  1  0  0  2  1  2  0  6  2  1  0  4  6  3
  5  1  7  0  0  3  2  5  5  0  6 11  4 13  8  4 10 13  0  8 13  0 13 15
 18  4 16  5]"
15600,327.0,0.984375,6,2,92.46026682853699,5.464158058166504,8868,62400,483901,2993316,"[ 0  0  2  0  3  1  1  1  2  1  0  3  0  2  1  5  1  5  0  1  0  4  4  3
  2  9  0  0  0  3  1  5  5  5  7  7  4 13  8  0 13 11  0  8 13  4 10 13
 18  4 16  5]"
15700,327.0,0.984375,6,2,92.98475527763367,5.2448296546936035,8927,62800,486986,3012533,"[ 0  0  2  0  3  1  1  1  0  3  3  3  0  2  1  0  4  4  0  1  7  1  5  3
  2  9  2  0  0  3  5  4 10  5  5  4  4 13  8  0 13 11  0  8 13  2 10 13
 18  4 16  5]"
15800,327.0,0.984375,6,2,93.48806571960449,5.033063888549805,8981,63200,490204,3032285,"[ 0  0  2  0  3  1  2  3  0  3  1  1  0  2  1  4  3  3  0  0  1  1  4  5
  5  2 10  0  0  3  1  3  1  5 10  7  4 13  8  4  9  3  0  8 13  3 13  0
 18  4 16  5]"
15900,327.0,0.984375,6,2,93.98884749412537,5.00777006149292,9041,63600,493276,3051465,"[ 0  0  2  0  3  1  5  0  0  3  2  0  0  2  1  5  7  2  4  2  2  1  1  7
  2  1  3  0  0  3  0  7 10  0  0  3  4 13  8  0 10 14  0  8 13  1 15  1
 18  4 16  5]"
16000,327.0,0.984375,6,2,94.48443245887756,4.955794811248779,9099,64000,496275,3070040,"[ 0  0  2  0  3  1  1  0  2  0  1  2  0  2  1  0  1  0  3  0  0  1  4  7
  2  3  9  0  0  3  4  7  1  0  1  6  4 13  8  0 11 12  0  8 13  2  9  8
 18  4 16  5]"
16100,327.0,0.984375,6,2,95.05181074142456,5.673725605010986,9147,64400,499572,3090408,"[ 0  1  0  0  3  1  1  1  3  0  0  2  0  2  1  1  7  6  0  6  7  1  1  7
  4  2  4  0  0  3  3  7  0  2  8  6  4 13  8  2  0 10  0  8 13  1 14 15
 18  7 16  5]"
16200,327.0,0.984375,6,2,95.53484916687012,4.830343723297119,9206,64800,502511,3108533,"[ 1  3  0  0  3  1  1  1  1  0  0  2  0  2  1  2  3  2  2  0  0  2  6  6
  5  1  9  0  0  3  4  1  9  2  3  3  4 13  8  5  3 10  0  8 13  1 15  1
 18  7 16  5]"
16300,327.0,0.984375,6,2,96.05740070343018,5.225472450256348,9261,65200,505556,3127428,"[ 2  3  1  0  3  1  1  0  0  0  0  2  0  2  1  2  5  2  2  1  5  0  6  4
  5 11  1  0  0  3  1  2  3  2  3  1  4 13  8  1  8 10  0  8 13  4  0  9
 18  7 16  5]"
16400,327.0,0.984375,6,2,96.62783861160278,5.704331398010254,9316,65600,508802,3147201,"[ 0  3  1  5  3  3  2  3  2  0  0  2  0  2  1  0  3  2  2  2  4  3  3  1
  5  4 11  0  0  3  3  2  7  1  3 11  4 13  8  1 13  3  0  8 13  0  1  2
 18  7 16  4]"
16500,327.0,0.984375,6,2,97.13193249702454,5.040886402130127,9382,66000,511599,3164258,"[ 0  3  1  5  0  3  5  3  2  0  0  2  0  2  1  0  3  2  2  2  4  5  6  1
  4  4 11  0  0  3  3 11  2  1 10  5  4 13  8  1 13  3  0  8 13  4  1  8
 18  7 16  4]"
16600,327.0,0.984375,6,2,97.80721020698547,6.752738952636719,9439,66400,514568,3182683,"[ 0  3  1  4  2  2  2  3  2  0  0  2  0  2  1  0  3  7  2  4  6  3  6  2
  4  2  4  0  0  3  2  2 10  1 10  7  4 13  8  1 13 14  0  8 13  4 12 10
 18  7 16  4]"
16700,327.0,0.984375,6,2,98.37151265144348,5.642986297607422,9498,66800,517436,3200913,"[ 0  3  1  0  1  1  0  0  1  0  0  2  0  2  1  0  4  5  1  5  6  2  1  6
  4 11 10  0  0  3  2 10  2  3  3  0  4 13  8  1  1 14  0  8 13  5  2  9
 18  7 16  4]"
16800,327.0,0.984375,6,2,98.98879027366638,6.1727190017700195,9554,67200,520424,3219606,"[ 0  3  1  4  3  0  0  1  1  0  0  2  0  2  1  0  4  5  1  1  2  5  1  4
  4  4  4  0  0  3  5  1  1  1  1  3  4 13  8  1  1  3  0  8 13  4 11  8
 18  7 16  4]"
16900,327.0,0.984375,6,2,99.63161969184875,6.428236961364746,9605,67600,523602,3239080,"[ 0  3  1  5  1  0  5  1  3  0  0  2  0  2  1  0  5  7  1  4  3  1  1  3
  3  5  4  0  0  3  5  6  1  1  0  5  4 13  8  3 14  1  0  8 13  0 10 10
 18  7 16  4]"
17000,327.0,0.984375,6,2,100.16312766075134,5.31503438949585,9664,68000,526705,3258064,"[ 0  3  1  3  1  2  3  3  0  0  0  2  0  2  1  5  7  7  5  7  7  3  4  6
  5  5 11  0  0  3  0 10  8  1  2  5  4 13  8  5 11 13  0  8 13  4 13 10
 18  7 16  4]"
17100,327.0,0.984375,6,2,100.68742418289185,5.242903232574463,9716,68400,529758,3276998,"[ 0  3  1  3  3  3  4  3  3  0  0  2  0  2  1  4  1  3  1  6  5  1  0  7
  2  3  8  0  0  3  4  7  1  1  4  0  4 13  8  0  9 11  0  8 13  0 13 14
 18  7 16  4]"
17200,327.0,0.984375,6,2,101.21092581748962,5.234956741333008,9767,68800,532895,3296205,"[ 0  3  1  1  1  1  0  1  0  0  0  2  0  2  1  1  6  4  1  7  2  5  0  1
  4  8  3  0  0  3  2 11  2  4  0  0  4 13  8  0 12 13  0  8 13  0  0  8
 18  7 16  4]"
17300,327.0,0.984375,6,2,101.74367356300354,5.327432155609131,9819,69200,536061,3315764,"[ 0  3  1  1  3  1  2  0  1  0  0  2  0  2  1  1  4  1  3  7  3  5  7  6
  4  0  3  0  0  3  2  6  2  2  5  0  4 13  8  5 13 13  0  8 13  3 15 12
 18  7 16  4]"
17400,327.0,0.984375,6,2,102.25425434112549,5.105772018432617,9878,69600,539036,3333942,"[ 0  3  1  1  0  1  2  3  1  0  0  2  0  2  1  4  4  1  0  7  1  2  6  4
  1  7  1  0  0  3  1  9 11  1  2  0  4 13  8  1 10 12  0  8 13  2 13  0
 18  7 16  4]"
17500,327.0,0.984375,6,2,102.77749729156494,5.232367515563965,9941,70000,541995,3352121,"[ 0  3  1  1  1  1  1  1  0  0  0  2  0  2  1  4  4  6  4  1  3  0  1  1
  3  3  9  0  0  3  4 11  0  1  6  8  4 13  8  4  8 11  0  8 13  0  3  0
 18  7 16  4]"
17600,327.0,0.984375,6,2,103.42205882072449,6.445558071136475,10000,70400,545043,3370944,"[ 0  3  1  1  3  1  5  1  1  0  0  2  0  2  1  1  1  0  4  1  1  0  1  4
  0 11  5  0  0  3  1  5  9  4  1  3  4 13  8  1  3 15  0  8 13  0 15  0
 18  7 16  4]"
17700,327.0,0.984375,6,2,104.04847645759583,6.264133453369141,10056,70800,548122,3389965,"[ 0  3  1  1  0  1  0  3  3  0  0  2  0  2  1  1  7  6  5  2  2  0  1  1
  5 10  5  0  0  3  0  5 11  5  1 11  4 13  8  1 15 11  0  8 13  3  9 13
 18  7 16  4]"
17800,327.0,0.984375,6,2,104.70078301429749,6.523025035858154,10118,71200,551237,3409059,"[ 1  1  1  1  2  1  4  2  3  0  0  2  0  2  1  1  3  4  4  3  0  0  1  3
  0  0  1  0  0  3  0  6  8  1  2 10  4 13  8  5 15 11  0  8 13  4  2  8
 18  7 16 11]"
17900,327.0,0.984375,6,2,105.26894330978394,5.681564807891846,10179,71600,554284,3427733,"[ 1  3  3  0  3  3  0  3  0  0  0  2  0  2  1  3  3  4  3  1  4  0  1  3
  4  7  8  0  0  3  3  3 11  5  4 10  4 13  8  4 12  9  0  8 13  5 15  8
 18  7 16 11]"
18000,327.0,0.984375,6,2,105.85909914970398,5.901494026184082,10232,72000,557463,3447655,"[ 3  2  2  0  3  1  1  3  0  0  0  2  0  2  1  1  0  7  2  6  1  0  1  0
  3  0  9  0  0  3  1 10  7  3  3 10  4 13  8  4 13  9  0  8 13  5 14 11
 18  7 16  5]"
18100,327.0,0.984375,6,2,106.38380169868469,5.2469801902771,10284,72400,560512,3466532,"[ 4  3  1  0  3  1  1  3  0  0  0  2  0  2  1  5  0  5  3  4  6  3  0  0
  4 11  3  0  0  3  3 11  5  2  9  6  4 13  8  0 15  3  0  8 13  4  9  0
 18  7 16  5]"
18200,327.0,0.984375,6,2,106.88522791862488,5.014209747314453,10344,72800,563558,3485038,"[ 5  3  0  0  3  1  2  3  0  0  0  2  0  2  1  0  5  3  3  7  0  3  0  2
  4  7  1  0  0  3  0  8  0  2 10 11  4 13  8  0 15  3  0  8 13  4 11  0
 18  7 16  5]"
18300,327.0,0.984375,6,2,107.41518449783325,5.299522876739502,10405,73200,566673,3504279,"[ 0  0  1  0  3  1  0  3  1  0  0  2  0  2  1  0  5  3  5  6  6  5  2  0
  4  2  1  0  0  3  0  0  8  4  0  5  4 13  8  5  2  3  0  8 13  4 15  0
 18  7 16  5]"
18400,327.0,0.984375,6,2,107.92705655097961,5.118680000305176,10463,73600,569685,3522674,"[ 3  1  3  0  3  1  4  2  0  0  0  2  0  2  1  2  6  1  4  4  4  1  2  0
  4  5 10  0  0  3  5  1  4  2  8 11  4 13  8  3 10  3  0  8 13  5  1 14
 18  7 16  5]"
18500,327.0,0.984375,6,2,108.43144583702087,5.043849945068359,10524,74000,572709,3541408,"[ 1  1  1  0  3  1  2  2  3  0  0  2  0  2  1  4  0  1  2  1  5  1  2  0
  4  5  7  0  0  3  2  6  4  4  7  9  4 13  8  3 10  0  0  8 13  5 10  9
 18  7 16  5]"
18600,327.0,0.984375,6,2,108.96163940429688,5.301861763000488,10580,74400,575766,3560010,"[ 0  1  0  0  3  1  5  1  1  0  0  2  0  2  1  2  4  1  5  1  3  1  0  7
  5  7  7  0  0  3  2  9  0  3  2  3  4 13  8  5 14  2  0  8 13  5 10 14
 18  7 16  5]"
18700,327.0,0.984375,6,2,109.4632613658905,5.016157627105713,10634,74800,578820,3578709,"[ 1  3  1  0  3  1  0  0  1  0  0  2  0  2  1  0  4  2  5  0  6  5  0  7
  5  5  5  0  0  3  2 11  0  1  2  9  4 13  8  3  8  2  0  8 13  3  1 14
 18  7 16  5]"
18800,327.0,0.984375,6,2,109.9789469242096,5.15681266784668,10691,75200,581760,3596877,"[ 4  3  1  0  3  1  0  1  3  0  0  2  0  2  1  2  1  6  5  6  7  0  1  6
  4  6  5  0  0  3  1  8  1  2 11  1  4 13  8  2 11 12  0  8 13  3 15 11
 18  7 16  5]"
18900,327.0,0.984375,6,2,110.5009093284607,5.219576358795166,10744,75600,584912,3616291,"[ 5  0  0  0  3  1  3  0  3  0  0  2  0  2  1  2  4  4  4  0  0  0  0  6
  4  5  4  0  0  3  4  8  7  0  9  1  4 13  8  2  3  9  0  8 13  2 15 13
 18  7 16  5]"
19000,327.0,0.984375,6,2,110.9780158996582,4.771018028259277,10805,76000,587911,3634788,"[ 2  0  0  0  3  1  3  2  3  0  0  2  0  2  1  0  2  5  0  0  6  5  0  0
  0  9  6  0  0  3  5 11  5  4  7  3  4 13  8  5  3 10  0  8 13  2 15 10
 18  7 16  5]"
19100,327.0,0.984375,6,2,111.55510115623474,5.770809650421143,10862,76400,591077,3654383,"[ 4  0  3  0  3  1  0  3  3  0  0  2  0  2  1  2  5  4  0  0  3  2  1  1
  0  9  0  0  0  3  3 11  5  3  2  7  4 13  8  5  3 10  0  8 13  2  9 15
 18  7 16  5]"
19200,327.0,0.984375,6,2,112.06419324874878,5.090885162353516,10918,76800,594152,3673597,"[ 0  3  3  0  3  1  2  0  3  0  0  2  0  2  1  5  6  5  1  7  3  1  1  6
  2 10 10  0  0  3  4 10  5  0  6  7  4 13  8  3  1 14  0  8 13  5 13  9
 18  7 16  5]"
19300,327.0,0.984375,6,2,112.64989805221558,5.856986045837402,10970,77200,597206,3692457,"[ 2  2  3  0  3  1  4  0  3  0  0  2  0  2  1  5  3  1  1  1  2  3  6  3
  0  8 10  0  0  3  1  2  3  4  2  7  4 13  8  3  1  1  0  8 13  0 14 13
 18  7 16  5]"
19400,327.0,0.984375,6,2,113.24310827255249,5.932056903839111,11024,77600,600152,3710487,"[ 4  2  0  0  3  1  5  3  3  0  0  2  0  2  1  0  2  3  4  4  5  3  7  4
  0  9  4  0  0  3  1  1  8  0  2  0  4 13  8  5  8 10  0  8 13  2  0 11
 18  7 16  5]"
19500,327.0,0.984375,6,2,113.84695768356323,6.0384416580200195,11077,78000,603292,3729932,"[ 2  2  2  0  3  1  1  2  3  0  0  2  0  2  1  0  1  2  4  3  3  4  0  5
  0  1  4  0  0  3  3 11 10  0 11  0  4 13  8  2  8 10  0  8 13  2 15  3
 18  7 16  5]"
19600,327.0,0.984375,6,2,114.39779806137085,5.508360862731934,11133,78400,606364,3748669,"[ 2  2  2  0  3  1  5  1  3  0  0  2  0  2  1  3  1  2  3  1  1  2  3  3
  2  4  0  0  0  3  2  0  8  0  5 10  4 13  8  2 15  3  0  8 13  2 15  9
 18  7 16  5]"
19700,327.0,0.984375,6,2,114.87392258644104,4.761202335357666,11190,78800,609283,3766326,"[ 4  2  1  0  3  1  5  1  0  0  0  2  0  2  1  0  5  2  3  6  2  5  6  2
  2 10  6  0  0  3  5  0  2  4  7  1  4 13  8  2 10  3  0  8 13  3 10  9
 18  7 16  5]"
19800,327.0,0.984375,6,2,115.38398337364197,5.100538730621338,11249,79200,612381,3785444,"[ 1  2  1  0  3  1  0  0  2  0  0  2  0  2  1  3  0  5  3  6  2  5  3  2
  2 10 10  0  0  3  0 11  2  0  2  1  4 13  8  3 10  2  0  8 13  2  0 11
 18  7 16  5]"
19900,327.0,0.984375,6,2,115.96112942695618,5.771420001983643,11304,79600,615355,3803559,"[ 0  2  0  0  3  1  3  2  2  4  1  2  0  2  1  4  3  5  0  6  0  2  3  2
  4 11  9  0  0  3  3 10  4  0 10  1  4 13  8  4 13 15  0  8 13  5 11 12
 18  4 16  5]"
20000,327.0,0.984375,6,2,116.5483877658844,5.872547626495361,11359,80000,618376,3822265,"[ 0  2  0  0  3  1  3  2  2  0  1  3  0  2  1  1  7  4  4  7  2  2  6  2
  0  7 10  0  0  3  4  8  5  1 11  6  4 13  8  0 10  3  0  8 13  3 14 13
 18  4 16  5]"
20100,327.0,0.984375,6,2,117.09440636634827,5.460143089294434,11414,80400,621298,3840108,"[ 0  2  0  0  3  1  1  2  2  1  1  3  0  2  1  2  5  4  2  3  2  0  6  4
  4  0  6  0  0  3  1  3  8  4  5  4  4 13  8  4  9  1  0  8 13  2 10  2
 18  4 16  5]"
20200,327.0,0.984375,6,2,117.70918250083923,6.147713661193848,11472,80800,624317,3858555,"[ 0  2  0  0  3  1  4  0  3  4  0  3  0  2  1  0  1  1  4  5  6  2  4  5
  0  6  6  0  0  3  5  4  8  0  5  1  4 13  8  4 15 10  0  8 13  4 11  1
 18  4 16  5]"
20300,327.0,0.984375,6,2,118.38822031021118,6.790316104888916,11525,81200,627407,3877647,"[ 0  2  0  0  3  1  0  1  3  0  0  3  0  2  1  1  5  5  5  6  2  2  6  3
  0  5  5  0  0  3  5  8  8  0  5  7  4 13  8  4 13 15  0  8 13  3 14  2
 18  4 16  5]"
20400,327.0,0.984375,6,2,118.9841661453247,5.959413051605225,11583,81600,630427,3896359,"[ 0  2  0  0  0  0  0  1  3  2  3  2  0  2  1  1  5  2  5  4  2  0  6  1
  5  6  5  0  0  3  5  0  8  3  5  4  4 13  8  0  8 15  0  8 13  3 12  3
 18  4 16  6]"
20500,327.0,0.984375,6,2,119.6198046207428,6.356329917907715,11636,82000,633636,3916206,"[ 0  2  0  5  0  0  0  1  3  5  2  2  0  2  1  4  3  4  4  3  3  4  4  0
  2  2  1  0  0  3  2  2  7  0  4  3  4 13  8  3 13  3  0  8 13  3 11 14
 18  4 16  6]"
20600,327.0,0.984375,6,2,120.15622615814209,5.364172458648682,11692,82400,636708,3935190,"[ 0  2  0  5  3  0  0  1  3  0  3  0  0  2  1  4  1  5  3  5  3  1  4  0
  2  2  1  0  0  3  5  7  7  4  9 10  4 13  8  3  8  2  0  8 13  0 15 12
 18  4 16  6]"
20700,327.0,0.984375,6,2,120.73740077018738,5.8116984367370605,11746,82800,640005,3955625,"[ 0  2  0  4  1  2  0  1  3  2  3  3  0  2  1  2  3  2  0  7  3  5  5  4
  4  0  0  0  0  3  5  0  5  3  0  7  4 13  8  1  2  8  0  8 13  1 15  2
 18  4 16  6]"
20800,327.0,0.984375,6,2,121.21746349334717,4.800589084625244,11802,83200,642956,3973713,"[ 0  2  0  2  0  3  0  1  3  1  0  3  0  2  1  3  7  5  1  3  6  2  6  5
  4 11  6  0  0  3  5  1  2  3  4  7  4 13  8  1  2 10  0  8 13  2 13 15
 18  4 16  6]"
20900,327.0,0.984375,6,2,121.7614095211029,5.439414978027344,11865,83600,645962,3992110,"[ 0  2  0  1  3  3  0  1  3  0  0  3  0  2  1  1  2  0  0  4  6  0  6  2
  4 11 11  0  0  3  5 10  1  0  7  7  4 13  8  2 13  1  5 11 13  4 14  9
 10  4 16  6]"
21000,327.0,0.984375,6,2,122.30389308929443,5.424768924713135,11920,84000,649093,4011015,"[ 0  2  0  3  3  3  0  1  3  5  0  2  0  2  1  2  5  7  0  4  6  2  3  6
  2  5  1  0  0  3  3  2 10  5  6  1  4 13  8  2 14 14  5  9 11  4  0  9
 10  4 16  6]"
21100,327.0,0.984375,6,2,122.77567386627197,4.71776008605957,11973,84400,652128,4029101,"[ 0  2  0  4  0  1  0  1  3  4  1  3  0  2  1  5  5  0  0  4  6  3  5  5
  3  3  2  0  0  3  3 10  8  4  6  6  4 13  8  3 13 11  3  8  2  2  2  8
 10  4 16  6]"
21200,327.0,0.984375,6,2,123.29400300979614,5.183241367340088,12024,84800,655159,4047260,"[ 0  2  0  2  1  2  0  1  3  4  1  1  0  2  1  5  2  0  0  4  6  3  0  1
  2  7  2  0  0  3  4  7  8  4  6  1  4 13  8  5  1  2  1 14  2  4  3  3
 10  4 16  6]"
21300,327.0,0.984375,6,2,123.79388904571533,4.998812675476074,12086,85200,658141,4065035,"[ 0  2  0  1  1  1  0  1  3  0  3  1  0  2  1  3  5  2  0  4  6  0  6  2
  0  2  9  0  0  3  0 11  4  0 10  8  4 13  8  2 10  8  3  9 11  4 15  3
 10  4 16  6]"
21400,327.0,0.984375,6,2,124.35249948501587,5.586044788360596,12142,85600,661334,4084372,"[ 0  2  0  5  1  2  0  1  3  2  3  1  0  2  1  3  5  1  0  4  6  0  5  4
  0 11  6  0  0  3  1  5  5  0  3  5  4 13  8  4 15  9  0 15  8  0  1  9
 10  4 16  6]"
21500,327.0,0.984375,6,2,124.92105054855347,5.685451030731201,12194,86000,664506,4103726,"[ 0  2  0  5  1  2  0  1  3  2  3  2  0  2  1  4  3  6  0  4  6  0  7  0
  3  1 11  0  0  3  2  5  1  1  2  6  4 13  8  0  8 14  0  2  1  5 10 10
 10  4 16  6]"
21600,327.0,0.984375,6,2,125.41314768791199,4.920907020568848,12248,86400,667424,4121262,"[ 0  2  0  4  1  3  0  1  3  2  0  2  0  2  1  5  3  7  0  4  6  5  0  5
  4 11  0  0  0  3  4  1 11  4  4 11  4 13  8  5  8  0  5  2  9  4 10 10
 10  4 16  6]"
21700,327.0,0.984375,6,2,125.95689845085144,5.437464714050293,12306,86800,670464,4139453,"[ 0  2  0  1  3  3  0  1  3  2  1  3  0  2  1  0  3  6  0  4  6  5  5  5
  5  4  4  0  0  3  3  5  3  5  5  3  4 13  8  5 15 14  1  2  9  4  2 12
 10  4 16  6]"
21800,327.0,0.984375,6,2,126.4814522266388,5.245475769042969,12374,87200,673311,4156556,"[ 0  2  0  0  3  0  0  1  3  5  0  1  0  2  1  0  3  0  0  4  6  5  7  4
  0  3  8  0  0  3  1  3  8  5  5  2  4 13  8  1  2 14  1  0  2  4  0 12
 10  4 16  6]"
21900,327.0,0.984375,6,2,127.00194144248962,5.2048492431640625,12427,87600,676510,4175803,"[ 0  2  0  0  2  0  0  1  3  2  0  0  0  2  1  0  6  4  2  4  6  4  3  3
  5  2  8  0  0  3  5 11  8  4  5 10  4 13  8  3 15  9  2  0  2  4  0  1
  9  4 16  6]"
22000,327.0,0.984375,6,2,127.52434349060059,5.223958492279053,12483,88000,679562,4194245,"[ 0  2  0  3  1  0  0  1  3  1  0  3  0  2  1  0  6  4  2  7  0  4  2  2
  3 10 11  0  0  3  4  4 11  4  5 11  4 13  8  1 14 10  3 14  2  3  2 11
  9  4 16  6]"
22100,327.0,0.984375,6,2,128.01674556732178,4.923975467681885,12549,88400,682549,4212236,"[ 0  2  0  5  0  1  0  1  3  1  1  0  0  2  1  0  6  4  5  3  0  4  1  4
  3  9  9  0  0  3  0  4 11  4  5  0  4 13  8  0  1 10  3  3 14  3  2 11
  9  4 16  6]"
22200,327.0,0.984375,6,2,128.56628823280334,5.4953694343566895,12606,88800,685596,4230626,"[ 0  2  0  1  1  2  0  1  3  1  1  1  0  2  1  0  6  4  2  0  7  4  5  4
  1  7  1  0  0  3  0  5  7  5 11 10  4 13  8  5 10  0  2  8  1  3  9  2
  9  4 16  6]"
22300,327.0,0.984375,6,2,129.13347554206848,5.671830177307129,12664,89200,688611,4248848,"[ 0  2  0  5  0  2  0  1  3  5  1  2  0  2  1  0  6  4  4  2  6  3  7  1
  5 11  1  0  0  3  0  3  0  3  9 11  4 14  8  0 10 15  3  3 11  5  2 14
  9  4 16  6]"
22400,327.0,0.984375,6,2,129.74905610084534,6.155745983123779,12710,89600,691756,4267608,"[ 0  2  0  5  0  2  0  1  3  0  3  1  0  2  1  0  6  4  3  1  6  5  1  2
  3  6  1  1  0  5  0  3  0  1  0  7  4 14  8  4  0  3  3 10 11  0 12  9
  9  4 16  6]"
22500,327.0,0.984375,6,2,130.40535140037537,6.5628886222839355,12770,90000,694822,4286155,"[ 0  2  0  2  3  3  0  1  3  1  1  0  0  2  1  0  6  4  3  1  1  3  5  2
  1  0  0  1  4 10  0  3  0  2  0 10  4 14  8  2 15  8  0 11 11  1 12  9
  9  4 16  6]"
22600,327.0,0.984375,6,2,130.9511206150055,5.457649230957031,12821,90400,697826,4303949,"[ 0  2  0  4  0  3  0  1  3  2  1  0  0  2  1  0  6  4  1  6  2  5  1  3
  2  5 11  2  6 10  0  3  0  1  0  8  4 14  8  4 11  8  5 11 11  1 13 10
  9  4 16  6]"
22700,327.0,0.984375,6,2,131.5464117527008,5.952868461608887,12878,90800,700908,4322371,"[ 0  2  0  1  1  0  0  1  3  5  1  3  0  2  1  0  6  4  1  5  0  4  6  0
  3  7  8  4  1 10  0  3  0  3  3  3  4 14  8  3 11  0  5 11 11  3 13  0
  9  4 16  6]"
22800,327.0,0.984375,6,2,132.09844493865967,5.520296096801758,12931,91200,703954,4340754,"[ 0  2  0  5  0  3  0  1  3  5  0  0  0  2  1  0  6  4  5  3  4  1  7  4
  4  8  8  0  1  3  0  3  0  3  9  6  4 14  8  3 11  8  3  0  3  3  9  8
  9  4 16  6]"
22900,327.0,0.984375,6,2,132.62138891220093,5.229346752166748,12983,91600,707056,4359399,"[ 0  2  0  1  0  2  0  1  3  3  3  1  0  2  1  0  7  4  5  4  3  1  2  4
  4  7  8  5  6  0  0  3  0  1  1 10  4 14  8  0 11  8  0  8 14  2  2 15
 18  4 16  6]"
23000,327.0,0.984375,6,2,133.1225392818451,5.011458396911621,13042,92000,710118,4378141,"[ 0  2  0  5  1  2  0  1  3  2  2  3  0  2  1  3  3  5  0  3  5  3  2  0
  5  7  7  5  6  4  0  3  0  1  3 10  4 14  8  0 11  1  0  8 14  3 10 10
 18  4 16  6]"
23100,327.0,0.984375,6,2,133.64310264587402,5.20557165145874,13099,92400,713127,4396758,"[ 0  2  0  1  0  2  0  1  3  3  0  2  0  2  1  2  5  0  2  5  7  4  2  5
  0  4 11  1  7  1  0  3  0  0  9  4  4 14  8  0 12 11  0  8 14  5 10  3
 18  4 16  6]"
23200,327.0,0.984375,6,2,134.23260736465454,5.894980430603027,13147,92800,716341,4416777,"[ 0  2  0  4  1  3  0  1  3  4  0  1  0  2  1  3  5  4  1  3  4  1  2  1
  1  9  6  3 11  8  0  3  0  5 10  1  4 14  8  4 11  9  0  8 14  0 12 12
 18  4 16  6]"
23300,327.0,0.984375,6,2,134.76740503311157,5.347929000854492,13198,93200,719347,4435063,"[ 0  2  0  2  1  0  0  1  3  4  1  0  0  2  1  5  6  4  5  5  2  4  1  5
  1  9  7  3 11 11  0  3  0  1  9  0  4 14  8  4  9  9  0  8 14  4  1 15
 18  4 16  6]"
23400,327.0,0.984375,6,2,135.3175551891327,5.501439571380615,13252,93600,722332,4453232,"[ 0  2  0  4  2  3  0  1  3  5  1  0  0  2  1  5  6  6  2  5  2  5  6  4
  1  0  6  0 11  3  0  3  0  1  9  9  4 14  8  4 14  1  0  8 14  0  1  2
 18  4 16  6]"
23419,331,1.0,8,3,135.43297672271729,6.07450384842722,13263,93676,722854,4456408,"[ 0  2  0  4  0  3  0  1  3  5  1  0  0  2  1  5  6  7  2  5  2  5  6  4
  1  6  6  3 11  6  0  3  0  1  9  9  4 14  8  4 14  1  0  8 14  0  1  2
 18 13 16  6]"
23500,331,1.0,8,3,135.84046244621277,5.030602584650487,13303,94000,724784,4471520,"[ 0  2  0  4  1  3  0  1  3  0  3  2  0  2  1  5  6  1  2  5  1  3  6  4
  0  9  7  5 11  6  0  3  0  3  9  4  4 14  8  2 12  1  0  8 14  4  9 13
 18 13 16  6]"
23600,331,1.0,8,3,136.3320939540863,4.916272163391113,13358,94400,727065,4489554,"[ 0  2  0  1  0  1  0  1  3  0  2  2  0  2  1  1  3  2  5  5  5  3  6  4
  0  9  5  3 11  6  0  3  0  3  0  2  4 14  8  1 12 13  0  8 14  2 12  3
 18 13 16  6]"
23680,333,1.0,7,2,136.72124791145325,4.864338040351868,13401,94720,729105,4505746,"[ 5  2  0  5  0  1  0  1  3  5  0  2  0  2  1  2  2  0  2  6  1  4  4  4
  0 11  9  3  9  6  0  3  0  3  6  7  4 14  8  1 15 13  0  8 14  5  3  3
 18 13 16  6]"
