generation,fitness,functionality,active_nodes,longest_path,time,gen_time,nc_gens,fitness_evals,graph_evals,node_evals,genotype
0,231.0,0.65625,6,3,0.006733417510986328,6.728172302246094,0,0,0,0,"[ 2  0  0  4  0  1  1  3  0  3  1  1  2  2  3  4  8  6  4  3  5  3  2  6
  1  6  8  1  0  7  0  7  3  5  5 10  2  8 12  3  4 12  3  0  6  5  2 11
  5 14  2  5  3  1  2 12  1  3 11 16  3 23  0  5 16 17  3 22 22  3 15 18
  0 21  3 14 15  1 21]"
100,317.0,0.921875,6,2,7.644551992416382,76.37815952301025,0,6400,82441,492464,"[ 0  2  0  3  0  2  0  3  2  3  1  3  5  0  2  0  8  5  0  0  2  3  3  3
  4  5  8  0  7  0  5 12 12  3  7  5  5 11  2  2 10  3  1  5  3  2  0 11
  4  2  2  0  3  1  2  2  1  1  0  9  0  3  3  2 22 17  4  0  2  3 15  0
  0 18 17 20  4 15 21]"
200,317.0,0.921875,6,2,15.456641435623169,78.12086582183838,0,12800,164558,996629,"[ 0  2  0  3  0  2  3  0  0  3  1  3  4  3  3  0  5  6  3  4  0  4  2  3
  3  0  8  4  2  7  2  6  7  3  7  5  4  7 12  1  2  0  5  8  2  3 12  0
  4  2  2  0  3  1  0  3 15  1 10 11  0  2 21  2 20 21  4  3 21  4 19 15
  5 19  0 24  4 15 21]"
300,323.0,0.953125,9,3,23.99565553665161,85.39011240005493,0,19200,243181,1596097,"[ 0  2  0  3  0  2  2  2  2  3  1  3  5  1  0  1  5  8  3  4  7  4  1  6
  0  3  8  3  6  3  4  4  7  3  7  9  4  9  4  0 12  4  0 12  6  0 10 12
  1 15  1  0  3  1  2  0 18  4  9  9  0 14 21  4  0 23  4 17 16  5 21 20
  5 16  2 24  4 15 21]"
400,323.0,0.953125,9,3,33.35272741317749,93.57069253921509,0,25600,320486,2290994,"[ 0  2  0  3  0  2  1  2  2  3  1  3  5  1  0  1  5  8  1  5  5  4  4  0
  5  3  0  2  5  2  4  4  7  3  7  9  2  6  3  2 11  3  5 12 12  5  9  1
  2 13 18  0  3  1  0 11 10  4 18 12  0 14 21  4 23  2  2  2  2  2 22 17
  2 23 17 24  4 15 21]"
500,323.0,0.953125,9,3,42.6628520488739,93.10121774673462,0,32000,398097,2986166,"[ 0  2  0  3  3  2  5  0  3  3  1  3  3  2  0  1  5  8  5  4  8  0  1  8
  0  8  3  4  0  7  1  4  7  3  7  9  5  3  5  0 11  5  0  6  8  2 14  9
  2 12  1  0  3  1  4 15 18  1  2 18  0 14 21  2 15 18  1 15 17  0 19 19
  3  2 17 24  4 15 21]"
600,323.0,0.953125,9,3,51.947941303253174,92.8508734703064,0,38400,474492,3671147,"[ 0  2  0  5  3  2  0  2  1  3  1  3  3  2  0  1  5  8  3  8  2  5  7  7
  4  1  5  0  2  7  4  4  7  3  7  9  4  4  9  4  2  6  4  3  1  1 10  1
  2 15 13  0  3  1  0 13 18  5 11 15  0 14 21  5 15  2  4 20  3  0 19 17
  4  0 17 24  4 15 21]"
700,323.0,0.953125,9,3,61.026655435562134,90.78711748123169,0,44800,549397,4341049,"[ 0  2  0  3  3  2  1  3  3  3  1  3  3  1  0  4  5  8  3  2  4  0  1  3
  3  1  7  2  0  6  5  4  4  3  7  9  1  4 12  0  4  0  5 10 11  3 17  1
  3  9 15  0  3  1  2 14 13  2  2  0  0 17 21  3 22 22  4 22 19  1 20 20
  4 23  0 24  4 15 21]"
800,324.0,0.953125,8,3,69.61061787605286,85.83960056304932,0,51200,623654,4941296,"[ 3  3  2  2  1  3  2  1  0  3  1  0  5  2  0  1  4  8  5  8  8  2  7  8
  5  3  5  4  6  2  0  6  3  3  7  9  4  4  5  0  2  8  3  1  4  5 12  1
  1 16 12  0  3  1  3 15 18  5 10 17  0 17 21  1 17 23  1 18 23  3 21 19
  2 23  2 24 17 15 21]"
900,324.0,0.953125,8,3,78.36134815216064,87.50727891921997,0,57600,700644,5560859,"[ 3  3  1  0  1  0  5  2  3  3  1  0  3  2  0  1  4  8  1  2  8  5  6  8
  0  3  3  0  0  7  4  2  3  3  7  9  2  6  8  0  2  0  2  0  4  1 17 15
  3 16 18  0  3  1  2  0 15  1 18 17  0 17 21  3 17  0  0 21  2  5 19  1
  5 23  0 24 17 15 21]"
1000,324.0,0.953125,8,3,86.93196201324463,85.70611715316772,0,64000,776733,6171210,"[ 3  3  1  1  3  1  1  0  1  5  1  0  3  2  0  4  4  8  5  4  7  3  6  8
  5  5  4  2  5  4  2  1 10  3  7  9  5 12  8  0  2  0  5 13  4  0 16 17
  5 15  9  0  3  1  5 11 12  3  2 17  0 17 21  3 17 15  4 17 22  2 22 15
  2 23  3 24 17 15 21]"
1100,324.0,0.953125,8,3,95.58941721916199,86.5745210647583,0,70400,853441,6788860,"[ 5  3  2  4  0  2  3  2  0  3  1  3  3  2  0  1  4  8  5  1  8  2  6  6
  1  2  8  1  1  5  1 10  9  3  7  9  0  5  9  0  2  0  3  8  1  0 10 13
  4  0  1  0  3  1  3 13 11  2 15 12  0 17 21  3  3 14  4 17 20  0  2 23
  2 17 16 24 17 15 21]"
1200,324.0,0.953125,8,3,104.00060510635376,84.1118574142456,0,76800,928040,7385387,"[ 3  3  1  3  2  0  0  1  1  3  1  0  4  1  2  4  4  5  2  3  2  1  1  7
  1  1  0  0  7  2  1  9 13  3  7  9  1 11 10  0  2  0  3  6  0  0  3 15
  0 17  9  0  3  1  5 18  1  4 14  9  0 17 21  3 14 18  5  0 20  4 18 19
  2  0  3 24 17 15 21]"
1300,324.0,0.953125,8,3,112.58997321128845,85.89365243911743,0,83200,1004513,8003391,"[ 3  3  1  3  2  0  0  2  1  5  1  0  2  3  2  1  4  5  5  6  2  3  0  3
  0  6  5  1  8  2  1 13  4  3  7  9  3  4 11  0  2  0  4  8  0  0  1 17
  4 11 10  0  3  1  0  0 16  1 17 15  0 17 21  0  3 19  1  2 18  2 18 19
  2 15 23 24 17 15 21]"
1400,324.0,0.953125,8,3,121.2200276851654,86.30051851272583,0,89600,1082207,8622119,"[ 3  3  1  3  2  0  0  3  1  3  1  0  2  2  2  4  4  5  2  0  1  0  5  5
  0  7  1  2  5  7  4  6  3  3  7  9  1  1  1  0  2  0  1  1  0  2  3  0
  2  9  1  0  3  1  0  2  3  2 11 14  0 17 21  5 14 23  1 18 21  5 17 21
  5  0 16 24 17 15 21]"
1500,324.0,0.953125,8,3,130.0690951347351,88.4906530380249,1,96000,1159612,9242446,"[ 5  3  2  3  2  0  0  3  2  3  1  3  2  2  1  1  4  5  4  5  5  0  8  6
  0  1  3  3  3  0  1  8 12  3  7  9  3  6  7  0  2  0  1 10 12  2 12 14
  4 13 15  0  3  1  5 18  3  2 10 11  0 17 21  3 18 22  4 15  0  0  1 21
  4  3  0 24 17 15 21]"
1600,324.0,0.953125,8,3,138.42993235588074,83.60834836959839,1,102400,1233356,9833212,"[ 3  3  2  5  2  0  3  0  1  3  1  0  1  1  2  1  4  5  4  1  3  3  6  8
  5  5  0  1  4  8  4  0  6  3  7  9  2  2  4  0  2  0  3 12  1  1 15  3
  5  0  0  0  3  1  2 10  0  3  1  2  0 17 21  1 23 17  4  2  0  3 22 22
  5 16 17 24 17 15 21]"
1700,324.0,0.953125,8,3,146.99816799163818,85.68233013153076,1,108800,1307883,10428569,"[ 3  1  3  3  1  0  3  1  0  3  1  3  3  2  0  1  8  5  0  8  4  4  8  8
  4  4  7  4  7  5  4 13 11  3  7  9  2  9 12  0  2  0  5  2  9  0 16  1
  5 18  1  0  3  1  0 13 13  2 14 15  0 17 21  1  0 18  4  2 15  5 14 20
  0 15  0 24 17 15 21]"
1800,325.0,0.953125,7,3,155.24447441101074,82.46304035186768,1,115200,1382565,11002733,"[ 3  1  3  2  1  1  2  2  1  3  3  2  1  0  1  1  6  7  0  8  4  3  7  5
  4  6  0  3  4  5  2  6  7  3  7 12  2 13  2  0  2  0  1 10  9  2 13 14
  3 12 16  0  3  1  0  3 15  3  3 10  0 17 21  1 21 15  0 19 20  1 15  0
  3 20  0 24 17 15 21]"
1900,334.0,0.984375,8,3,162.02186727523804,67.77390480041504,1,121600,1442674,11455491,"[ 1  3  0  3  0  2  2  2  1  3  0  3  2  2  1  5  7  3  5  8  7  5  2  4
  4  6  0  3  5  3  1 12 10  5  9 12  1 12 11  0  2  0  2  9  7  2 11 15
  0 10 13  0  3  1  2 18 11  5 15 16  0 17 21  3 16 23  3 19 20  2 19 19
  1  3 19 24 17 15 21]"
2000,334.0,0.984375,8,3,167.78615927696228,57.64289379119873,1,128000,1488457,11826987,"[ 0  0  0  2  2  3  0  3  0  2  0  0  2  2  1  3  7  3  4  1  5  5  8  0
  4  8  0  4  4  7  5 10  1  5  9 12  1 12  2  0  2  0  0  4 11  3  0 12
  5 17 14  0  3  1  4 11 11  0  1 15  0 17 21  4 16 15  3 19  1  4 14 14
  0 17 19 24 17 15 21]"
2100,334.0,0.984375,8,3,173.79314422607422,60.069825649261475,1,134400,1536067,12212851,"[ 2  0  2  1  3  2  5  0  0  3  0  0  2  2  1  3  7  3  4  4  5  1  4  3
  4  8  0  4  4  0  3 12  6  5  9 12  1 11  3  0  2  0  2  1  4  5 16 14
  0 17  3  0  3  1  3  2  0  1 18 18  0 17 21  0 17  3  0  0 21  0 19 21
  5  1  2 24 17 15 21]"
2200,334.0,0.984375,8,3,179.68687772750854,58.9372992515564,1,140800,1583005,12593258,"[ 3  1  3  2  2  0  5  0  3  1  2  0  2  2  1  3  6  3  3  2  4  0  3  4
  4  8  0  4  7  3  0 10  0  5  9 12  2  1  3  0  2  0  2  1  6  5 16 11
  2  1 11  0  3  1  0  2  0  0  3 10  0 17 21  4 23 17  3  2 23  5 15 21
  5  0 21 24 17 15 21]"
2300,334.0,0.984375,8,3,185.46891045570374,57.8203010559082,1,147200,1628777,12964050,"[ 5  1  0  3  3  3  5  3  0  1  2  3  2  2  1  3  6  3  0  5  8  0  7  4
  4  8  0  4  8  2  3  0  6  5  9 12  0  3 13  0  2  0  2  4 10  0 17  1
  2 13 17  0  3  1  2 16 14  2 13  3  0 17 21  5 21 17  3 22 15  2  0  1
  3  2  0 24 17 15 21]"
2400,334.0,0.984375,8,3,191.2791941165924,58.102805614471436,1,153600,1673235,13326012,"[ 2  3  2  2  1  3  3  3  0  3  1  1  2  2  1  3  6  3  3  8  1  2  1  8
  4  8  0  3  5  5  2  5 12  5  9 12  2  2  2  0  2  0  4  7  4  0 15 14
  0  3 16  0  3  1  2 18 16  2 12 17  0 17 21  0  2 22  1 18 22  1 15 23
  0 22 21 24 17 15 21]"
2500,334.0,0.984375,8,3,197.0795407295227,58.00343990325928,1,160000,1719569,13701460,"[ 4  2  3  0  2  3  2  0  3  5  2  0  2  2  1  3  6  3  5  8  6  2  7  4
  0  8  1  1  5  5  1  4  4  5  9 10  2  0  5  0  2  0  1  4 13  5 12  0
  1 11 12  0  3  1  3 18  0  5  3 17  0 17 21  2 20 16  1 23  3  5  2  0
  4 17 21 24 17 15 21]"
2600,335.0,0.984375,7,3,202.85364651679993,57.741031646728516,1,166400,1767487,14052282,"[ 2  0  3  2  1  1  0  0  3  3  2  2  2  2  1  5  4  0  5  8  4  5  5  0
  1  0  2  0  4  4  5  5  1  3 10 10  1  6  0  0  2  0  3 12  6  3 16 16
  2  1  1  0  3  1  4 11 13  5  3 16  0 17 21  4 22  2  4  1 19  5 20 23
  0 21 18 24 17 15 21]"
2700,335.0,0.984375,7,3,208.28349041938782,54.298412799835205,1,172800,1813165,14383257,"[ 2  0  3  3  1  0  3  2  1  1  0  3  2  2  1  5  1  5  5  8  4  3  5  0
  0  5  8  3  7  1  5 11  1  2 10 10  2  9  6  0  2  0  1  2  6  3 12 12
  0 13  1  0  3  1  5 13  9  1 10 16  0 17 21  2 15 18  3 19 23  5 19  2
  1 15 22 24 17 15 21]"
2800,337.0,0.984375,6,2,213.5171604156494,52.3366641998291,1,179200,1858459,14684818,"[ 2  0  3  4  3  1  0  1  0  1  0  2  2  2  1  3  7  2  3  1  0  0  4  6
  4  4  8  3  0  1  5  5  7  5 10  1  5 11  7  0  2  0  4  1  4  2 11 10
  0 17  0  0  3  1  1 12 11  5 17 13  0 17 21  3  3  0  2 18 23  0 18  2
  2 16 20 24 17 12 21]"
2900,337.0,0.984375,6,2,218.52501821517944,50.07855415344238,1,185600,1902922,14968270,"[ 2  0  3  3  2  2  5  2  3  5  1  0  2  2  1  5  4  5  5  4  1  5  7  2
  4  4  8  1  0  2  5  6 13  4 10  7  2  6 11  0  2  0  2 10  0  4 10 17
  3 11  1  0  3  1  1 18 10  3 15  0  0 17 21  4  0 22  5  3 23  1  1 18
  0 21  0 24 17 12 21]"
3000,337.0,0.984375,6,2,223.56989645957947,50.448758602142334,1,192000,1947416,15248975,"[ 2  0  3  2  2  1  2  2  0  0  3  3  2  2  1  3  0  2  5  0  8  4  4  1
  4  4  8  1  4  6  0 13  4  2  7  1  5  8  3  0  2  0  3  6  9  3 16 10
  0  2 11  0  3  1  3 16 18  2 10 16  0 17 21  5 14 16  2 19  1  3 20 15
  2 22 17 24 17 12 21]"
3100,337.0,0.984375,6,2,228.5648787021637,49.949796199798584,1,198400,1992985,15536608,"[ 2  0  3  2  2  1  1  3  3  1  1  2  0  1  2  3  4  1  0  6  7  0  2  4
  4  4  5  5  8  0  5  6  9  4  4  0  1 12  8  0  2  0  5  2  0  4 17  0
  3 15 11  0  3  1  3 15 10  3  0  3  0 17 21  4 21  3  0 17 16  2 14  2
  2  0 16 24 17 12 21]"
3200,337.0,0.984375,6,2,233.74185991287231,51.76978826522827,1,204800,2038772,15827029,"[ 2  0  3  2  2  1  5  2  0  1  2  2  4  3  2  2  8  2  0  6  2  5  4  4
  4  4  5  0  3  4  2 11  8  1  6  2  2  3  6  0  2  0  0  0 10  2 18 13
  5 12  0  0  3  1  0 12 17  0  2 14  0 17 21  4 15 18  3 17  3  2  3 16
  1  0 17 24 17 12 21]"
3300,337.0,0.984375,6,2,238.7672209739685,50.25358438491821,1,211200,2083924,16113355,"[ 2  0  3  5  3  0  4  3  0  2  1  2  3  1  2  0  4  6  1  1  1  1  2  8
  4  4  7  2  1  1  4  9  8  5  4  3  4  8 13  0  2  0  5  2  1  4 18 12
  5 15 16  0  3  1  3 10  1  0  9 13  0 17 21  5  2 19  4 14  3  4 22 18
  4 23  1 24 17 12 21]"
3400,337.0,0.984375,6,2,243.63463044166565,48.674070835113525,1,217600,2127595,16390907,"[ 2  0  3  1  3  3  1  2  2  2  1  2  5  1  0  0  6  2  5  1  6  1  1  5
  4  4  7  4  8  1  4  9  7  5  4 13  2 11  2  0  2  0  2 11  8  0 10 10
  2 14  2  0  3  1  2 12  1  5  3  2  0 17 21  3  3 16  2 18  2  2  3 16
  3 20 14 24 17 12 21]"
3500,337.0,0.984375,6,2,248.71803736686707,50.83404064178467,1,224000,2172401,16675192,"[ 2  0  3  3  1  3  4  3  2  2  1  2  0  0  2  4  1  4  3  5  4  1  5  3
  4  4  7  5  2  7  1  7  9  5 13  4  3 10 10  0  2  0  0 11 13  4  1  2
  5 12 16  0  3  1  3  3 17  1 10 12  0 17 21  1 15 17  0 16 16  1 21 23
  0  1 23 24 17 12 21]"
3600,337.0,0.984375,6,2,253.6786289215088,49.605891704559326,1,230400,2217570,16960478,"[ 2  0  3  0  1  1  3  3  3  2  1  2  3  0  1  0  2  5  5  2  0  5  4  0
  4  4  7  2  3  2  2  1 11  5 11 12  3  6  3  0  2  0  3  4  4  3 10  9
  5  3 13  0  3  1  4 14 11  2 16 17  0 17 21  3 19 23  3 15 15  1 16  1
  4 16 20 24 17 12 21]"
3700,337.0,0.984375,6,2,258.6428396701813,49.64208364486694,1,236800,2262174,17242241,"[ 2  0  3  2  1  0  3  2  2  2  1  2  3  2  2  3  0  1  1  1  5  5  7  5
  4  4  7  5  4  4  4  5  5  5  5  3  4  8  3  0  2  0  2  4  4  1 12  0
  2 10 14  0  3  1  5 16 12  3 17 17  0 17 21  0 23 19  4 16 19  0  3 21
  4  3 18 24 17 12 21]"
3800,337.0,0.984375,6,2,263.5907826423645,49.47940111160278,1,243200,2306977,17525242,"[ 2  0  3  2  3  0  2  2  2  2  1  2  3  1  3  5  2  6  1  0  4  0  7  3
  4  4  7  4  3  0  4  0 12  0 11  1  3  5  9  0  2  0  1  8  7  1  2 12
  5  9  0  0  3  1  2  1 10  1  1 17  0 17 21  4 20  3  5 16 15  4 20  1
  3 21 23 24 17 12 21]"
3900,337.0,0.984375,6,2,268.60500741004944,50.142223834991455,1,249600,2352883,17815155,"[ 2  0  3  0  3  2  2  1  2  4  2  0  4  0  1  3  3  7  5  0  2  1  7  2
  4  4  6  4  0  2  0  4  1  4  4  9  3 12 11  0  2  0  0  9  5  0 15 10
  1 16 18  0  3  1  3 14 15  5 12  2  0 17 21  1 17 21  4 18 16  4  1  3
  2 17 23 24 17 12 21]"
4000,337.0,0.984375,6,2,273.5174403190613,49.1243052482605,1,256000,2397699,18097172,"[ 2  0  3  4  3  2  2  1  2  3  1  2  1  0  2  5  6  0  3  3  4  5  1  6
  4  4  6  1  6  2  2  7 13  0  3  1  2 10 11  0  2  0  2  8  7  0 17  2
  2 14  0  0  3  1  1  0 14  3 18 15  0 17 21  3 23 20  2 22  3  3  1 17
  2  3 22 24 17 12 21]"
4100,337.0,0.984375,6,2,278.43371057510376,49.16267395019531,1,262400,2442044,18377753,"[ 2  0  3  1  3  2  2  1  2  4  1  3  0  2  3  4  4  8  0  0  4  1  1  4
  4  4  6  5  2  3  4  5  7  2  8  0  3 11 11  0  2  0  5  2 12  0 14  9
  4 11  9  0  3  1  0  3  3  4  1 10  0 17 21  0 17 15  5  0  1  1 23 15
  0 20 23 24 17 12 21]"
4200,337.0,0.984375,6,2,283.5310797691345,50.97366809844971,1,268800,2488211,18671030,"[ 2  0  3  4  0  0  2  1  2  2  0  2  0  0  0  4  4  4  1  1  7  4  6  4
  4  4  6  4  8  8  5 13  6  4 10  0  0 11  0  0  2  0  4 10  9  3 15  1
  2  1  2  0  3  1  1 14 12  1  1  9  0 17 21  1 20  3  2 17 21  1  0 20
  5 23 23 24 17 12 21]"
4300,337.0,0.984375,6,2,288.5843107700348,50.532286167144775,1,275200,2534659,18964906,"[ 2  0  3  0  0  3  2  1  2  5  3  1  3  1  0  3  4  6  4  2  1  2  7  0
  4  4  6  3  8  3  4 12  4  4 10  9  4 12  9  0  2  0  0  3  9  5 18 15
  0  9 13  0  3  1  3  9 14  2 15  0  1 17 16  1  0 23  5 15 23  0  0 20
  1 16 22  9 17 12 21]"
4400,337.0,0.984375,6,2,293.6699676513672,50.85654020309448,1,281600,2581722,19257184,"[ 2  0  3  0  1  0  2  1  2  1  2  3  2  0  2  3  4  6  5  7  6  2  0  7
  4  4  6  1  0  5  4  6  7  3 10  0  5 12 10  0  2  0  5 13 12  5 16 18
  3 14  2  0  3  1  4 15 12  0  1 13  3  3  3  3  2 15  3 18 15  5  0 21
  1 17 17  9 17 12 21]"
4500,337.0,0.984375,6,2,298.7371609210968,50.67191123962402,1,288000,2629458,19551398,"[ 2  0  3  3  3  0  2  1  2  0  2  0  5  3  2  3  4  6  0  0  0  3  8  3
  4  4  6  3  0  6  2  2  2  3 10  8  5  0  4  2  9 11  0 11  7  2 11 17
  1 13  1  0  3  1  2  9 10  3  3 12  1 16 20  5  2 23  5  1  0  5 15  0
  5 19 22  9  7 12 21]"
4600,337.0,0.984375,6,2,303.79766964912415,50.60506343841553,1,294400,2676506,19840371,"[ 2  0  3  0  2  0  2  1  2  5  0  0  5  3  1  3  4  6  5  1  0  4  3  0
  4  4  6  1  2  5  1 13  8  1  0  4  0  1 10  5 11  2  1  2  8  3  3 13
  0 10 18  0  3  1  1  1 11  5  3 18  4 19 17  1 20 20  2 20 19  5  0 18
  3 17  2  9  5 12 21]"
4700,337.0,0.984375,6,2,308.9836518764496,51.85979127883911,1,300800,2724396,20133857,"[ 2  0  3  0  2  0  2  1  2  4  1  3  0  2  3  3  4  6  3  4  2  2  0  6
  4  4  6  1  3  2  2 13  9  4  0  1  2 11  4  1  6  3  0  1  6  1 10 14
  4 11 13  0  3  1  2  3  9  1 11  1  3 19 18  5 22 20  3  3 21  1 19 23
  3 19 14  9  5 12 21]"
4800,337.0,0.984375,6,2,313.9686906337738,49.85036611557007,1,307200,2770703,20418416,"[ 2  0  3  0  2  0  2  1  2  5  2  3  3  2  2  3  4  6  5  3  4  2  5  8
  4  4  6  5  0  0  1  5  7  1  8 11  3 13  2  1  7  2  0  0  9  1  2 16
  3 14 14  0  3  1  3 14 10  0 10 14  1 20 14  5 23 23  4  3 21  1 14 18
  2  2  0  9  5 12 21]"
4900,337.0,0.984375,6,2,318.88284254074097,49.14149522781372,1,313600,2816686,20700466,"[ 2  0  3  0  2  0  2  1  2  0  1  3  0  2  1  3  4  6  4  6  1  1  0  8
  4  4  6  3  8  3  0  7 11  5 11 12  3 10  7  2  7 13  2  8  3  5 16 14
  5 18 11  0  3  1  4 13 17  5 13  3  0 20  1  3  3  1  3  3 15  5  0 16
  4  3 23  9  5 12 21]"
5000,337.0,0.984375,6,2,323.9155080318451,50.32661437988281,1,320000,2863145,20985534,"[ 2  0  3  0  2  0  2  1  2  0  2  3  3  3  3  3  4  6  1  0  3  0  6  7
  4  4  6  5  1  1  1  6  4  5  3  3  2  9  0  4  9 12  0  3  4  0  2 16
  5  2  2  0  3  1  5  0 10  4  9 11  4 17 16  0 18 15  0  1  0  1  0 17
  2 15 19  9  5 12 21]"
5100,337.0,0.984375,6,2,329.08163046836853,51.661198139190674,1,326400,2910435,21276041,"[ 2  0  3  0  2  0  2  1  2  2  1  0  0  3  2  3  4  6  0  3  4  4  8  5
  4  4  6  4  7  1  4  7 11  2  1 10  1 10 10  1 12  7  2  2 11  3 14 13
  4 17 10  0  3  1  4 16  3  1 14 13  2 15 23  5 22 16  4 17  3  1  2 20
  0  2 23  9  5 12 21]"
5200,337.0,0.984375,6,2,334.10944390296936,50.27811050415039,1,332800,2957416,21564128,"[ 2  0  3  0  2  0  2  1  2  2  3  3  3  2  0  3  4  6  4  4  6  5  4  5
  4  2  6  2  4  7  5 10 11  4  7  5  0  1 13  4  1 10  1  2  7  4 17 17
  4 17 16  0  3  1  1 13 13  1 18  0  0 19 20  5 16  3  1 16 16  4 18 17
  3 22 15  9  5 10 21]"
5300,337.0,0.984375,6,2,339.14082503318787,50.31378984451294,1,339200,3004939,21855573,"[ 2  0  3  0  2  0  2  1  2  3  0  3  4  2  3  3  4  6  4  4  6  0  0  0
  2  3  5  5  4  4  0  0  0  0 12 13  0  1  5  2  1 12  3 11  9  0  2 17
  4  1 17  0  3  1  1 10  9  1 10  9  0 20  1  0 23  0  0 22  2  3  2  2
  1  0 17  9  5 10 21]"
5400,337.0,0.984375,6,2,344.41033458709717,52.69507169723511,1,345600,3052461,22147420,"[ 2  0  3  0  2  0  2  1  2  0  1  3  1  0  0  3  4  6  4  4  6  3  1  6
  3  1  0  5  2  4  2  0 10  2 13  8  3  6 13  4  5  1  1  9  2  1 17  9
  5  3  9  0  3  1  0 17 11  2  1 14  5 14 17  4 20 14  5  1 14  2  2  2
  2 18 20  9  5 10 21]"
5500,337.0,0.984375,6,2,349.4787619113922,50.68424940109253,1,352000,3099710,22436054,"[ 2  0  3  0  2  0  2  1  2  2  1  2  5  2  0  3  4  6  4  4  6  4  3  2
  5  1  4  0  1  3  4 10  7  5  6 11  4  7 13  0  4  9  5  4  5  1  2 13
  5 14  3  0  3  1  0 15  1  0  2  9  2 22 18  5  2 18  1 19 20  3 17 21
  1 15 16  9  5 10 21]"
5600,337.0,0.984375,6,2,354.6018211841583,51.23056888580322,1,358400,3147813,22730091,"[ 2  0  3  0  2  0  2  1  2  2  1  0  0  1  3  3  4  6  4  4  6  3  8  6
  1  1  4  1  3  7  5  4  5  3 10  1  2  2  3  2 13  8  0 12 12  0 17  2
  2 15  1  4 17 15  0 13 17  1 18 15  3  3 22  5 17 18  1 19  3  4  3 14
  5 15 15  9  5 10  8]"
5700,337.0,0.984375,6,2,359.77190947532654,51.70085430145264,1,364800,3196172,23022196,"[ 2  0  3  0  2  0  2  1  2  3  3  3  0  1  3  3  4  6  4  4  6  1  7  3
  2  6  4  1  0  7  4 10  9  3 13  7  3 13  9  3  4  4  5  7 13  1  0 13
  1  0  2  0  2 15  5 12  2  2  9  9  3  0 17  2 18 20  2  0 19  5  1  0
  4 23 16  9  5 10  8]"
5800,338,1.0,10,4,365.0021376609802,52.302255630493164,1,371200,3244577,23314231,"[ 2  0  3  0  2  0  2  1  2  5  2  0  0  1  3  3  4  6  4  4  6  3  6  1
  3  8  5  5  7  8  1  6  2  1  6  1  3  1  3  4  2  6  1  8 12  4 14 18
  5 10 17  0 10 12  1  9 13  0 13 12  2 16 15  5 14 18  0 15 16  1 15 17
  3 22 18  9 19 10  8]"
5900,339,1.0,9,4,370.5837650299072,55.81624984741211,1,377600,3284332,23673614,"[ 2  0  3  0  2  0  2  1  2  2  2  1  0  1  3  3  4  6  4  4  6  2  6  8
  5  8  5  4  4  2  5  6  1  0  6  0  4  0  0  2  4  0  4  8 12  5 18  9
  4  1 13  0 14  1  3  1 10  0 10 12  0 16 15  2 23 18  5 21  3  2  2 19
  5  3 15  9 19 10  8]"
6000,340,1.0,9,3,376.21778988838196,56.34022235870361,1,384000,3323177,24020541,"[ 2  0  3  0  2  0  2  1  2  4  0  3  0  1  3  3  4  6  4  4  6  0  7  4
  5  8  5  0  8  7  1  2 13  0  1  4  2 11 10  4 13 11  1  8  8  3 18 12
  4 16 11  3  1 15  5 18 17  1  2 13  3 21 16  0 19 23  5 17 18  4 15 18
  4 19 17  9 19 10  8]"
6100,340,1.0,9,3,381.95029854774475,57.32506513595581,1,390400,3364489,24388074,"[ 2  0  3  2  0  0  2  1  2  0  0  2  0  1  3  3  4  6  4  4  6  0  7  8
  5  8  7  2  6  6  5  4  1  3 13  4  0  0 13  0  9  2  1  8  8  3 18 12
  2 12  2  5  1  2  3 15 16  1  3 11  2 18  0  3 14 20  4 21 16  0  0 18
  3 18  0  9 19 10  8]"
6200,340,1.0,9,3,387.56145334243774,56.11151933670044,1,396800,3404004,24740524,"[ 2  0  3  5  3  0  2  1  2  0  0  2  0  1  3  3  4  6  4  4  6  1  6  4
  5  8  7  3  6  2  5  6 13  5  7 11  0  5 10  0 11  7  0  8  1  3 18 12
  0 16 17  0 12 17  1 13 16  4  3  0  1 15 18  2 21 15  0 16 17  0  1 21
  0  2 22  9 19 10 18]"
6300,340,1.0,9,3,393.0355637073517,54.741084575653076,1,403200,3443581,25093377,"[ 2  0  3  2  0  1  2  1  2  0  0  2  0  1  3  3  4  6  4  4  6  1  6  2
  3  8  7  3  5  6  2 10  1  1  5 13  0 10  4  4  8  6  0  8  1  3 18 12
  2 18 15  2 18  3  1 10  0  4 14  9  5  1  3  2  3 20  2  1 15  5 15  3
  5 23  1  9 19 10  8]"
6400,340,1.0,9,3,398.630478143692,55.94911813735962,1,409600,3482942,25443712,"[ 2  0  3  4  2  2  2  1  2  0  0  2  0  1  3  3  4  6  4  4  6  1  1  2
  5  8  7  2  1  6  1  8  7  5  5  4  5  6  1  3  0  1  0  8  3  3 18 12
  0 13 13  4 13 11  3  9 14  4  9 16  4  0 20  3 17  3  0 16 22  2 15 14
  1 22 21  9 19 10  8]"
6500,340,1.0,9,3,404.2634665966034,56.32984638214111,1,416000,3523540,25804229,"[ 2  0  3  1  3  2  2  1  2  0  0  2  0  1  3  3  4  6  4  4  6  2  1  3
  3  8  7  4  6  7  4  6  0  5  0  9  1 11  6  5  3 11  0  1  3  5 18 12
  5  0 12  3 16 18  1 10 18  0 18 16  1  2 14  4  3 23  3  0 18  2 14 15
  3 17 14  9 19 10  8]"
6600,341,1.0,8,3,409.5266418457031,52.631728649139404,1,422400,3562082,26131329,"[ 2  0  3  4  1  3  2  1  2  0  0  2  0  1  3  3  4  6  4  4  6  0  2  7
  3  7  7  2  0  2  4  2 11  2  7  8  2  2  2  5 12  0  2  6 12  5  9 12
  5 17 10  0 16 15  1 11 17  0  9  3  2 15 18  1 20 16  2 16 23  1 14 18
  5  3 14  9 19 10  8]"
6700,342,1.0,7,3,414.1160554885864,45.89411497116089,1,428800,3599053,26395443,"[ 2  0  3  4  2  2  2  1  2  1  0  0  0  1  3  3  4  6  4  4  6  4  5  4
  1  7  6  3  4  4  1  1 11  5  4  7  2  0  2  5 10 12  3  3 13  5  9 16
  1 15  9  4  9 10  5 13 16  1  1 13  2  0 23  3  0 22  4 18 23  4  1 18
  5 22 19  9 19 10  8]"
6800,342,1.0,7,3,418.6524727344513,45.36414861679077,1,435200,3634967,26646965,"[ 2  0  3  4  0  2  2  1  2  1  2  3  0  1  3  3  4  6  4  4  6  5  3  0
  0  2  5  4  6  8  4  7 10  2  2  3  2  0  2  1 10  5  5 12  0  3  9 16
  1 13 16  1 10  9  2 16 11  4  9 12  0 21 18  5 14 21  5  3 23  2 17  3
  4 19 19  9 19 10  8]"
6900,342,1.0,7,3,423.12761521339417,44.7514009475708,1,441600,3670820,26897891,"[ 2  0  3  5  2  2  2  1  2  1  1  0  0  1  3  3  4  6  4  4  6  5  2  7
  0  8  6  0  0  3  1  6  7  0  4  5  2  0  2  4  3  6  2  9  6  5  9 16
  3 15 18  3 10 10  0 18  3  4 15 16  2 23 15  1  2 14  4  3 18  5  0  0
  0 17  0  9 19 10  8]"
7000,342,1.0,7,3,427.6125748157501,44.84956979751587,1,448000,3706539,27147901,"[ 2  0  3  5  3  1  2  1  2  2  0  3  0  1  3  3  4  6  4  4  6  2  8  2
  1  0  8  3  5  3  4  6  9  5  0  9  2  0  2  1  8  4  0 13 12  5  9 16
  0  9 16  0 12 16  5 15  1  5  0 15  4 14 14  1  3 21  2 22 22  3 18 17
  4  0 17  9 19 10  8]"
7100,342,1.0,7,3,432.14655447006226,45.33977270126343,1,454400,3743155,27404619,"[ 2  0  3  2  2  2  2  1  2  2  2  0  0  1  3  3  4  6  4  4  6  2  5  5
  0  0  3  3  6  5  0 11 11  4  7  5  2  0  2  4  8  5  0  5 12  5  9 16
  4  9 17  0 16 18  3  3 12  3 16  9  0 21  0  2  3 19  4 18  1  3 22 15
  1  3 18  9 19 10  8]"
7200,342,1.0,7,3,436.64465856552124,44.98101472854614,1,460800,3779250,27657560,"[ 2  0  3  2  2  0  2  1  2  1  2  1  0  1  3  3  4  6  4  4  6  0  1  5
  3  7  8  2  1  0  3 11  1  1  7 12  2  0  2  1  5 12  0  6 12  3  9 16
  4 18 14  2 16  9  1 18 15  4  3 12  3 19 19  2 19 22  5 14 15  4 19 18
  2 18  0  9 19 10  8]"
7300,342,1.0,7,3,441.19691014289856,45.52249193191528,1,467200,3815147,27908876,"[ 2  0  3  4  2  1  2  1  2  4  3  0  0  1  3  3  4  6  4  4  6  1  5  5
  4  1  1  2  6  6  0  2  7  2  4  0  2  0  2  4  8 13  5  7  3  5  9 16
  2 17 17  1 10  2  5 18 14  5 10 16  5 21 17  0  2  1  4  1 19  0 21  2
  1 14  2  9 19 10  8]"
7400,342,1.0,7,3,445.66810512542725,44.711925983428955,1,473600,3851030,28160428,"[ 2  0  3  4  3  1  2  1  2  1  3  0  0  1  3  3  4  6  4  4  6  1  8  4
  0  1  7  4  5  7  3  2  5  3 10  6  2  0  2  5  6 13  2  8 11  3  9 16
  2  2 16  4  1 12  0 11 16  4 10 12  3 21 22  0 14 19  0 17 21  1 17 19
  3  1  0  9 19 10  8]"
7500,342,1.0,7,3,450.17562437057495,45.07516860961914,1,480000,3886429,28408356,"[ 2  0  3  2  2  0  2  1  2  4  2  3  0  1  3  3  4  6  4  4  6  4  1  4
  5  1  3  4  3  1  5 11  8  0  8  2  2  0  2  3 12  6  4 11  5  5  9 16
  5 12 13  2 15 10  4 16 16  2 13 12  0  1 16  0 17  2  5  0 14  1  0 19
  5 15 14  9 19 10  8]"
7600,342,1.0,7,3,454.6921663284302,45.165395736694336,1,486400,3921909,28656654,"[ 2  0  3  1  1  3  2  1  2  2  1  3  0  1  3  3  4  6  4  4  6  0  3  0
  4  1  1  5  4  0  5  1 11  3 10 10  2  0  2  3 10  7  1 11 13  5  9 16
  1 18 16  4  9 14  3 17 10  5 14 15  2  2  1  5 17 19  5  0 14  0 20  1
  0 18  3  9 19 10  8]"
7700,342,1.0,7,3,459.21219968795776,45.20030498504639,1,492800,3958521,28912828,"[ 2  0  3  3  1  0  2  1  2  1  1  0  0  1  3  3  4  6  4  4  6  5  6  6
  5  4  7  3  5  1  4  5 11  0  7  3  2  0  2  2  5  1  5  5  1  1 15 13
  3  9 16  4  3 10  4  0  0  4  1 16  4 15  3  3 16 19  1 16 16  0 20  3
  4 21  3  9 20 10  8]"
7800,342,1.0,7,3,463.67870473861694,44.665024280548096,1,499200,3994444,29164041,"[ 2  0  3  4  0  3  2  1  2  2  1  2  0  3  3  3  4  6  4  4  6  5  0  8
  3  5  8  3  4  5  2  8 11  0  9  0  2  0  2  2  6  1  2  7  5  3  1  9
  3  9 16  1 10 13  2 16 13  3 14 15  1 16 18  4 20  1  0  0  1  0  3  1
  3  3 20  9 20 10 27]"
7900,342,1.0,7,3,467.96315813064575,42.844510078430176,1,505600,4027558,29396561,"[ 2  0  3  0  1  2  2  1  2  1  2  2  2  0  3  3  4  6  4  4  6  5  8  0
  1  0  2  5  2  8  0  8  1  3  3  7  2  0  2  2  2  2  0  6  9  2  1  2
  5  9 16  0  2 18  0 12 15  2  2 18  5 16 20  1 21 23  4 19  2  0  3  1
  5 20 17  9 20 10 27]"
8000,342,1.0,7,3,472.35570096969604,43.92540216445923,1,512000,4060227,29626005,"[ 2  0  3  4  0  3  2  1  2  4  1  2  2  3  3  3  4  6  4  4  6  4  4  2
  3  7  7  4  4  4  5  6  8  0  9  7  2  0  2  2  8  8  0 13  0  3 13  1
  5  9 16  1 17 17  2 10 14  2  9  3  0 16 23  5 18  3  5 21 18  0  3  1
  2  0 16  9 20 10 27]"
8100,342,1.0,7,3,476.59081053733826,42.35107183456421,1,518400,4093038,29856719,"[ 2  0  3  3  3  1  2  1  2  1  2  2  3  2  3  3  4  6  4  4  6  3  6  0
  2  0  1  4  8  2  5 13 11  3  4  3  2  0  2  0 10  7  2  5  9  4 11 14
  5  9 16  5 18 17  1 11 17  0 12 18  1 19  0  4 18 19  0 19 18  0  3  1
  2 15 16  9 20 10 27]"
8200,342,1.0,7,3,480.82364106178284,42.32828378677368,1,524800,4125897,30087880,"[ 2  0  3  1  3  1  2  1  2  0  0  0  4  0  0  3  4  6  4  4  6  3  1  5
  2  4  8  5  1  0  3  9  5  2 12  3  2  0  2  4  1  7  5 13  9  2 16 16
  3  9 16  3 15 17  5 15 15  4  1 18  2  1 20  4 20 17  2 20  0  0  3  1
  3  2  0  9 20 10 27]"
8300,342,1.0,7,3,485.0666732788086,42.43029594421387,1,531200,4158898,30319801,"[ 2  0  3  0  1  0  2  1  2  5  0  2  2  0  2  3  4  6  4  4  6  5  7  6
  1  1  3  2  0  4  2  7  3  3  7  1  2  0  2  4  0  2  1 11  2  4  2  2
  5  9 16  5  3  9  4 14 15  3 14  3  1  2 19  4 14 20  2  1 15  0  3  1
  5  1  1  9 20 10 27]"
8400,342,1.0,7,3,489.3554644584656,42.887887954711914,1,537600,4192234,30554024,"[ 2  0  3  1  0  2  2  1  2  2  0  2  2  1  2  3  4  6  4  4  6  0  1  2
  1  8  2  4  7  2  4  3 11  1  5 13  2  0  2  2 12  3  4  8  2  0 11 13
  3  9 16  1  9 10  4 15  2  1 11 16  5 14  0  2  0 15  4 23 17  0  3  1
  4 21 15  9 20 10 27]"
8500,342,1.0,7,3,493.61135601997375,42.55889177322388,1,544000,4225213,30785979,"[ 2  0  3  2  2  1  2  1  2  1  3  0  5  3  3  3  4  6  4  4  6  0  1  1
  2  3  3  2  7  1  3  0  1  3  3  3  2  0  2  3 11  1  4  9  3  3 17 10
  0 11 12  1 11  9  4  1 16  5 16  9  0  1 20  2  1 22  2  3 22  0  3  1
  2 17  2  9 23 10 27]"
8600,342,1.0,7,3,497.8449900150299,42.33631134033203,1,550400,4258063,31016882,"[ 2  0  3  1  0  0  2  1  2  5  2  2  1  0  3  3  4  6  4  4  6  3  5  1
  1  8  4  4  2  8  1  1  0  5  3  0  2  0  2  5  0 13  2  8  2  3  9 15
  0  0 17  5 12 11  0  1 13  5 16  9  3 17  2  1 23 15  0  3 20  0  3  1
  2 22  0  9 23 10 27]"
8700,342,1.0,7,3,502.0972137451172,42.5222110748291,1,556800,4291068,31248724,"[ 2  0  3  2  0  1  2  1  2  1  2  2  3  1  3  3  4  6  4  4  6  2  1  8
  1  4  5  5  0  5  3  6 11  5  1  2  2  0  2  2  4  9  0  2  7  5 11  2
  2  0 15  2 10 15  0  3 13  5 16  9  3 21  0  4  0 20  3 21  0  0  3  1
  3 18 21  9 23 10 27]"
8800,342,1.0,7,3,506.40525364875793,43.08037281036377,1,563200,4324686,31485026,"[ 2  0  3  5  3  2  2  1  2  2  2  2  2  0  1  3  4  6  4  4  6  3  2  1
  4  1  3  1  3  3  3  0  2  3  4  5  2  0  2  4  0 13  3 11  8  1 12 11
  5 17 16  1  0  1  0 15 14  3 16  9  2  2 21  5  0 21  3 21 18  0  3  1
  5  0  3  9 23 10 27]"
8900,342,1.0,7,3,510.7307925224304,43.25536489486694,1,569600,4358252,31721462,"[ 2  0  3  2  1  1  2  1  2  5  2  3  0  3  1  3  4  6  4  4  6  3  2  6
  5  8  8  0  8  7  4  9  5  3  4 11  2  0  2  1  5  8  1  4  6  3 13 17
  0  9 13  3 18 12  4 11 18  5 16  9  4  2 17  1  2  1  1  1  2  0  3  1
  5 18 23  9 23 10 27]"
9000,342,1.0,7,3,515.0315504074097,43.00755739212036,1,576000,4391001,31952228,"[ 2  0  3  3  3  0  2  1  2  4  1  2  2  1  0  3  4  6  4  4  6  3  6  7
  2  1  6  0  8  1  2  0  9  3  1  0  2  0  2  3 11  4  2 10 10  1  2  3
  4 15 10  3 14 11  1  1 18  5 16  9  1  3 18  3 21  0  1 20  2  0  3  1
  4 14 23  9 23 10 27]"
9100,342,1.0,7,3,519.3111548423767,42.79601812362671,1,582400,4424220,32185611,"[ 2  0  3  4  1  0  2  1  2  1  1  2  2  1  0  3  4  6  4  4  6  3  0  3
  2  6  2  3  3  1  4  3  4  0  5  9  2  0  2  0  5 10  5  8 13  4  9 14
  3 14  9  0  9 10  4  1 15  5 16  9  0  1 22  3  3 15  5 20 22  0  3  1
  4 18 22  9 23 10 27]"
9174,343,1.0,7,2,522.5656499862671,43.97962866602717,1,587136,4449332,32368143,"[ 2  0  3  2  0  1  2  1  2  1  2  1  3  2  3  3  4  6  5  5  6  5  7  3
  0  3  1  2  3  4  4  6  4  0  0 13  2  0  2  5  6  2  0  2  6  0 10 14
  4 18 11  0 16 18  4  1 13  3 16 12  1 18 17  4 14 16  4 23 23  0  3  1
  0 15 16  9 23 14 12]"
