generation,fitness,functionality,active_nodes,longest_path,time,gen_time,nc_gens,fitness_evals,graph_evals,node_evals,genotype
0,166.0,0.46875,10,4,0.006766080856323242,6.763219833374023,0,0,0,0,"[ 0  1  3  5  3  2  4  3  0  1  1  0  5  2  3  5  7  1  3  1  5  3  7  2
  1  6  4  3  4  2  3  6 13  4  8  3  0  8  2  2  3  6  2 13 13  5  1 11
  3 10  2  3  1 13  4  0 15  3 16 17  3  0 19  5 17 17  5 22 18  1  1 21
  2 19  1 22  3 26 19]"
100,293.0,0.84375,4,3,0.918449878692627,9.116816520690918,12,800,10849,54684,"[ 1  2  1  2  3  2  2  2  3  2  3  3  1  3  2  1  4  1  5  3  7  1  5  8
  4  1  6  0  8  6  0  1  1  5  8  2  0  9  2  2  1  5  2  3  1  4 13 10
  1  2 11  5  9 16  0  1  9  3 10 18  5 18 14  3  0 20  3 16  0  4  3 18
  0  1 15 10 10  1 23]"
200,306.0,0.890625,7,2,2.000676393508911,10.82223892211914,25,1600,21595,129037,"[ 4  1  1  4  1  2  2  3  1  0  2  1  1  3  1  1  0  2  3  1  6  3  8  8
  0  3  2  5  2  0  1  9  1  1  9 11  0  9  8  2 13 13  2  3  1  3 16  1
  4 18 13  4 10  3  2  9  2  2 18 18  2 23 20  3 22  1  1  2 14  4  2 18
  5  1 14 10 10 16 23]"
300,306.0,0.890625,7,2,3.0724709033966064,10.717918872833252,47,2400,31910,202502,"[ 5  0  0  3  1  2  4  3  3  2  3  3  1  3  1  1  0  2  0  6  6  3  5  5
  1  2  1  4  3  3  1  9  2  0  1 11  0  9  8  4 12  5  2  3  1  3 16 17
  2  9  1  0 10  1  2 15 17  3 18 18  1 19 16  3  3 17  1 21  0  4  0 20
  1 20 17 10 10 16 23]"
400,317.0,0.921875,6,2,4.069405794143677,9.969322681427002,66,3200,42493,268676,"[ 2  3  2  4  3  3  2  1  3  0  3  1  1  3  1  1  0  2  0  2  0  2  0  4
  0  8  0  5  8  5  0  9  8  4  4 13  5  7 12  5  2 12  3  8 11  0  9  0
  0  1  3  0  0 12  0 16  3  1  2  0  1 19  1  4 14 17  0 14  1  5 18 14
  5 16  1  5 10 14 20]"
500,317.0,0.921875,6,2,5.032402515411377,9.62993860244751,99,4000,52886,332318,"[ 1  3  3  4  3  3  5  3  0  3  3  0  1  3  1  1  0  2  0  2  0  0  8  8
  5  1  5  4  2  5  0  9  8  2 10  9  0 13  8  4 11 10  3  5  8  3 16  0
  0  1  3  4  9  0  4 17  0  0  2 10  3 17  2  4 16 17  3 17 17  4 23  1
  2  3 18  5 10 14 20]"
600,332.0,0.96875,6,2,5.968071699142456,9.35666799545288,134,4800,61640,395199,"[ 3  3  3  4  3  3  2  2  1  1  0  3  3  1  0  5  3  1  0  2  0  4  1  4
  4  4  5  3  8  1  0  3  8  4  9 13  0  1  2  0  3  0  3  5  3  5  1 13
  0  1  3  1  1 17  2 17 11  0  2 13  0 17 22  4 16 17  3 14 17  0  2 20
  4 19  0 27 10 25 20]"
700,337.0,0.984375,6,2,6.649813175201416,6.8173933029174805,174,5600,67966,436011,"[ 4  3  2  1  1  2  3  2  1  1  1  1  3  2  3  5  0  4  0  2  0  4  8  1
  3  0  5  4  8  4  5  6  4  5 10 12  0  1  2  0  3  0  2  9  8  2 12 11
  0  1  3  3 12 10  1 15 13  3  9 15  2  3 17  4 16 17  2 21 22  0 16 17
  1  2  2 27 10 25 20]"
800,337.0,0.984375,6,2,7.280354022979736,6.305389404296875,218,6400,73594,473050,"[ 4  2  0  0  3  0  0  3  1  0  0  1  1  3  2  3  1  3  0  2  0  5  5  2
  0  3  8  2  7  4  1  1  2  5  8  4  0  1  2  0  3  0  1  5  0  2 15 10
  0  1  3  0 18 18  3 10 17  4 16  9  4 20 15  4 16 17  2 20 15  0 16 17
  5  1 23 27 10 25 20]"
900,337.0,0.984375,6,2,7.896592617034912,6.162362098693848,258,7200,79130,508881,"[ 1  3  2  4  0  0  5  3  1  0  2  1  5  2  0  5  0  0  0  2  0  0  3  0
  4  2  0  5  0  2  0  4  4  2  1  4  0  1  2  0  3  0  1  6  8  5 15 18
  0  1  3  3  2  2  3 14 12  2 18  3  3 16 14  4 16 17  5  0  0  0 16 17
  0 20 21 27 10 25 20]"
1000,337.0,0.984375,6,2,8.510104656219482,6.135098934173584,308,8000,84608,544228,"[ 3  2  2  1  2  2  5  0  1  2  1  2  3  0  3  0  2  6  0  2  0  5  3  2
  3  2  0  3  2  1  0  4  1  5  6 12  0  1  2  0  3  0  5 11  5  5  0 10
  0  1  3  3  2  9  1  3 10  3 16  3  1 17  2  4 16 17  1 16  2  0 16 17
  0 23  3 27 10 25 20]"
1100,337.0,0.984375,6,2,9.206225633621216,6.961183547973633,346,8800,90555,582778,"[ 3  2  1  1  2  1  4  1  2  2  1  2  3  1  1  1  5  1  0  7  0  4  6  2
  0  4  0  0  2  0  1  0  0  4  6  0  0  1  2  0  3  0  5  7 10  4 10  1
  0  1  3  1  3 16  1  2  3  3 10  2  1  1 20  4 16 17  0 14 16  0 16 17
  0 17  3 27 13 25 20]"
1200,337.0,0.984375,6,2,9.94239068031311,7.361626625061035,399,9600,96122,619589,"[ 5  2  2  1  1  1  5  1  2  2  1  1  5  2  2  3  3  2  0  6  3  4  6  3
  0  3  1  0  2  0  1  7 10  5  7  5  0  1  2  0  3  0  3 10  2  3 13 12
  0  1  3  0  3  2  1  1 15  3 17  2  1 20 18  4 16 17  3 23 18  0 16 17
  4 17 22 27 13 25 12]"
1300,337.0,0.984375,6,2,10.571155548095703,6.287624835968018,442,10400,101803,656411,"[ 4  2  2  0  2  0  0  2  2  0  0  2  1  1  3  0  3  3  0  8  3  2  1  6
  0  3  1  0  2  0  1  8  0  1 11 11  0  1  2  0  3  0  4 13  3  3 17 13
  4  1 11  4 14  2  2 10 13  2 16 17  3  3 22  4 16 17  3 23 18  0 16 17
  4 23  1 27 13 25 12]"
1400,337.0,0.984375,6,2,11.20723843574524,6.360805034637451,492,11200,107569,693859,"[ 0  3  1  2  3  1  5  1  3  1  0  1  2  0  1  0  7  7  3  3  1  2  5  2
  0  3  1  0  2  0  1  5  0  1  8 10  0  1  2  0  3  0  4  8  7  5 17 12
  4 12 12  4  1 10  0 11  2  5  9 15  3 16 21  4 16 17  2 20 22  0 16 17
  4 23 18 27 13 25 12]"
1500,337.0,0.984375,6,2,11.837340831756592,6.301002502441406,530,12000,113337,730718,"[ 0  3  1  5  2  0  2  3  2  2  2  0  3  3  3  2  1  1  0  3  1  2  3  0
  4  1  8  0  2  0  4 12  0  5  4  4  0  1  2  0  3  0  5  9 11  3  9 12
  1 15  3  5 11 14  2  3  1  0 16 18  0  3 22  4 16 17  1 15  2  0 16 17
  0  2 18 27 13 25  4]"
1600,337.0,0.984375,6,2,12.4733247756958,6.359820365905762,566,12800,119176,768135,"[ 0  3  1  1  1  3  4  1  0  3  2  3  3  2  3  5  1  0  5  3  6  5  4  5
  4  3  0  0  2  0  4  8  6  3 10 12  0  1  2  0  3  0  1  1  4  3  3  2
  4 18 17  2 17 13  1  3 17  1 16  2  3  3  0  4 16 17  4 16 19  0 16 17
  5 16 19 27 13 25  4]"
1700,337.0,0.984375,6,2,13.105610847473145,6.322834491729736,612,13600,124837,804593,"[ 0  3  1  3  1  0  0  0  2  3  0  3  2  1  3  3  0  3  1  2  3  4  3  1
  5  8  0  0  2  0  1  6 10  0 12 13  0  1  2  0  3  0  4  6  0  2 14 17
  4 15  0  3 11 13  0 10  9  4 16 10  3  1  2  4 16 17  1 14 15  0 16 17
  5 20 14 27 13 25  4]"
1800,337.0,0.984375,6,2,13.824495077133179,7.188816070556641,648,14400,130585,841810,"[ 0  3  1  4  2  0  4  0  2  3  1  0  1  1  1  5  4  4  0  0  8  1  3  8
  3  2  2  0  2  0  3  0  5  4 12 13  0  1  2  0  3  0  5 11  8  2 14 15
  5  9  0  2 17  9  1 12  9  5  2 13  5 14  2  4 16 17  1 21 19  0 16 17
  4 19  2 27 13 25  4]"
1900,337.0,0.984375,6,2,14.460185050964355,6.3568806648254395,681,15200,136395,878977,"[ 0  3  1  0  0  0  4  0  3  0  3  2  4  1  3  0  0  5  0  8  2  0  0  8
  3  1  5  0  2  0  2 10 13  2 10  2  0  1  2  0  3  0  4  7  8  2 17  0
  4 15  9  4 17  9  3  2  0  0  1  2  2 20 16  4 16 17  1 21  0  0 16 17
  1  3  1 27 13 25  4]"
2000,337.0,0.984375,6,2,15.101163864135742,6.409761905670166,719,16000,142113,916239,"[ 0  3  1  2  0  0  4  0  1  2  3  2  5  2  1  2  8  7  1  2  2  0  5  8
  1  5  8  0  2  0  5  3 10  3 11  8  0  1  2  0  3  0  0  7  5  5 11  0
  4  0 10  2  0 13  4  3 17  0 11  0  0  1 23  4 16 17  3  2  1  0 16 17
  2 15  0 27 13 25  4]"
2100,337.0,0.984375,6,2,15.748548030853271,6.473817825317383,758,16800,147897,954141,"[ 0  3  1  5  0  2  0  1  2  5  0  1  1  1  2  0  3  5  5  7  2  2  5  1
  4  8  7  0  2  0  2  3  3  2  8  1  0  1  2  0  3  0  4  2  0  1 11 16
  1 14  9  1 17 17  1 18 17  0  2 18  5 21  0  4 16 17  2 15 16  0 16 17
  2 17 20 27 13 25  4]"
2200,337.0,0.984375,6,2,16.378640174865723,6.300897598266602,798,17600,153639,990883,"[ 0  3  1  0  1  3  5  1  2  4  0  1  0  0  2  5  0  4  3  4  4  0  6  3
  5  3  5  0  2  0  4  5 11  3 13 13  0  1  2  0  3  0  2  2  9  0 14 16
  0 18  9  3 17 17  4  1 14  2 16  0  4 17 22  4 16 17  2  0 16  0 16 17
  0 21  2 27 13 25  4]"
2300,337.0,0.984375,6,2,17.012161016464233,6.335184574127197,842,18400,159327,1027629,"[ 0  3  1  5  2  2  1  3  1  2  3  2  5  3  3  1  8  8  4  2  2  2  4  6
  4  4  6  0  2  0  1 13 13  2 13 12  0  1  2  0  3  0  2  6 10  1 14  0
  0 17  9  3 13  1  1 13  0  5 13 12  4 14  3  4 16 17  0  2 18  0 16 17
  0 21 14 27 13 25  4]"
2400,337.0,0.984375,6,2,17.646267414093018,6.341037750244141,880,19200,165001,1063875,"[ 0  3  1  5  0  1  2  0  3  5  0  2  5  1  3  1  6  4  3  7  2  0  6  1
  2  5  5  0  2  0  5  8  9  4 11  5  0  1  2  0  3  0  0 10 13  3 11 11
  0  1  9  0 16 10  4 17 11  5  2  0  3 20 19  4 16 17  1 17 19  0 16 17
  2 22 20 27 13 25  4]"
2500,337.0,0.984375,6,2,18.261895895004272,6.156265735626221,927,20000,170496,1099099,"[ 0  3  1  4  3  3  2  2  3  0  2  2  1  0  3  0  1  2  5  7  7  5  2  1
  1  8  1  0  2  0  3  0  8  2 12  5  0  1  2  0  3  0  2 13 11  1 13  2
  4 15 11  4  3  9  1 17  2  3  3  3  5 23 19  4 16 17  2  0 15  0 16 17
  3 22 23 27 13 25  4]"
2600,337.0,0.984375,6,2,18.902432441711426,6.405346393585205,962,20800,176265,1136485,"[ 4  1  3  5  1  1  1  3  1  0  2  0  0  1  3  1  5  6  2  6  0  0  7  8
  5  5  6  4  2  4  0  0  5  0 13 10  0  1  2  0  3  0  0  3  6  1  0 16
  3  2  1  2  9  0  2  0  9  1 13 14  0 15 16  4 16 17  3 19 18  0 16 17
  3 21 17 27  7 25  8]"
2700,337.0,0.984375,6,2,19.54937481880188,6.469399929046631,997,21600,182144,1174194,"[ 4  0  1  4  3  0  1  1  1  0  2  0  0  1  3  1  5  7  3  5  1  5  1  8
  5  3  4  5  2  0  4 12  3  2  2  4  0  1  2  0  3  0  0 10 13  3 14  0
  5 11 15  2 12  0  4 18  3  0 13  9  0  3  1  4 16 17  3 14 15  0 16 17
  0 23 19 27  7 25  8]"
2800,337.0,0.984375,6,2,20.204436779022217,6.55059814453125,1033,22400,188002,1213035,"[ 0  2  1  0  0  1  0  0  1  0  2  0  0  1  3  0  3  4  1  7  1  4  2  1
  5  3  6  4  1  4  3  9  6  2 12 10  0  1  2  0  3  0  1 11  7  5 10 12
  1 14 10  1  9 12  5  2 12  1 18 12  5 23  1  4 16 17  1  3  2  0 16 17
  3 15 14 27  7 25  8]"
2900,337.0,0.984375,6,2,20.872787475585938,6.683480739593506,1062,23200,194009,1252259,"[ 0  1  0  3  2  3  4  2  3  0  2  0  0  1  3  5  1  1  5  6  4  1  1  7
  2  7  5  4  3  8  0  1 10  3 12  5  0  1  2  0  3  0  0 13  9  5 13 12
  4 14 13  5 18  9  2 13 16  4 13 15  3 23 16  4 16 17  5 20  1  0 16 17
  5 23 19 27  7 25  8]"
3000,337.0,0.984375,6,2,21.5380802154541,6.6529011726379395,1097,24000,200069,1291684,"[ 4  3  1  4  2  3  5  2  3  0  2  0  0  1  3  2  0  5  2  7  7  5  1  1
  0  7  8  0  3  2  1  8  7  4  5  5  0  1  2  0  3  0  3  6  5  3 18 15
  4 14  1  0  9 10  4 13 11  4 18 13  0 16 23  4 16 17  5 20 23  0 16 17
  5  2 21 27  7 25  8]"
3100,337.0,0.984375,6,2,22.161017179489136,6.229345798492432,1129,24800,205783,1328129,"[ 3  0  3  3  0  0  0  0  0  0  2  0  0  1  3  0  2  1  3  3  0  1  3  3
  5  2  6  5  6  6  5 13  1  1  9 12  0  1  2  0  3  0  5  1 12  3 12  9
  3  9 16  2 10  2  4 13 12  4 18 10  2 20 19  4 16 17  1  0  1  0 16 17
  2 23  1 27  7 25  8]"
3200,337.0,0.984375,6,2,22.80612564086914,6.451060771942139,1160,25600,211743,1366316,"[ 2  0  0  0  0  2  3  3  1  0  2  0  0  1  3  1  6  6  1  5  2  4  4  1
  3  3  6  3  4  5  1 13 10  1  8  0  0  1  2  0  3  0  3  0 10  3 17  2
  5  9 17  0  0 10  0  3 18  2 12 12  5 20 17  4 16 17  1 23 16  0 16 17
  3 17 15 27  7 25  8]"
3300,337.0,0.984375,6,2,23.41849708557129,6.123690605163574,1195,26400,217300,1401804,"[ 2  2  3  4  0  0  0  1  1  0  2  0  0  1  3  0  3  8  5  0  8  3  6  7
  5  2  4  4  0  6  2  8 11  0  1  8  0  1  2  0  3  0  4  0 11  4  9  1
  3 11  0  1  9 17  1 18 13  5 11 12  3 18 21  4 16 17  1 21 18  0 16 17
  5 16 23 27  7 25  8]"
3400,337.0,0.984375,6,2,24.06697368621826,6.484742164611816,1233,27200,223262,1440624,"[ 5  0  2  5  0  2  0  3  3  0  2  0  0  1  3  0  5  4  2  4  0  3  7  6
  1  8  1  3  6  6  1  8  1  3 10 11  0  1  2  0  3  0  4 13  1  0  9 16
  4 11 13  2  3 13  1 14 12  5 17  3  2 22 16  4 16 17  5 19 22  0 16 17
  4 15 18 27  7 25  8]"
3500,337.0,0.984375,6,2,24.68548560142517,6.1850905418396,1281,28000,228731,1476008,"[ 5  3  2  4  0  0  0  3  1  0  2  0  0  1  3  5  5  6  1  4  6  5  5  0
  1  0  3  3  8  5  2  9  2  5  0 10  0  1  2  0  3  0  0  3  9  0 12  3
  3  3 18  4  1  1  3 18 16  5  9 16  5 22  1  4 16 17  0 19 19  0 16 17
  3  0 14 27  7 25  8]"
3600,337.0,0.984375,6,2,25.33173394203186,6.462459564208984,1319,28800,234532,1512817,"[ 1  1  1  5  0  0  2  2  0  0  2  0  0  1  3  0  3  2  1  5  1  5  3  1
  3  1  0  1  2  3  3 13  0  2 11 10  0  1  2  0  3  0  3 13  7  2 12 15
  2 17 18  4  1 13  3  3 12  0  9  0  1  0 20  4 16 17  5 23 15  0 16 17
  3  0 18 27  7 25  8]"
3700,337.0,0.984375,6,2,25.95581841468811,6.240825653076172,1354,29600,240283,1548994,"[ 0  0  2  0  0  2  4  3  2  0  2  0  0  1  3  4  7  7  2  3  6  1  4  4
  3  2  5  1  4  4  5  6 11  2 12  5  0  1  2  0  3  0  1  8  2  1  2  2
  3 13 14  4 16  1  0  2  1  3  2  9  2 23  0  4 16 17  4  2 23  0 16 17
  3 16  3 27  7 25  8]"
3800,337.0,0.984375,6,2,26.587791204452515,6.319701671600342,1391,30400,246135,1586015,"[ 4  1  0  5  2  2  0  0  2  0  1  0  0  1  3  3  8  3  2  3  4  0  3  8
  0  2  5  4  5  4  5 10  2  5 12  5  0  1  2  0  3  0  5  1  3  0  2  2
  5 13  9  4  1  9  0 16  2  3  2 15  5 20  3  4 16 17  5 18 22  0 16 17
  3 20  0 27  6 25  8]"
3900,337.0,0.984375,6,2,27.233986139297485,6.461925506591797,1431,31200,251995,1624111,"[ 3  1  2  3  2  2  0  0  2  2  0  0  0  1  3  0  8  3  4  4  4  3  8  5
  3  5  1  5  2  5  4  4 12  0  4  9  0  1  2  0  3  0  2  2  2  4 10 10
  0 14 14  4 14  9  0  0  0  3  9  2  1 23 20  4 16 17  5 14 22  0 16 17
  3 17  2 27  6 25  8]"
4000,337.0,0.984375,6,2,27.86760425567627,6.336157321929932,1465,32000,257721,1661288,"[ 2  3  0  1  2  1  0  0  2  2  1  0  0  1  3  2  7  0  1  7  1  0  2  0
  2  1  7  3  2  4  5 10  4  2 13  3  0  1  2  0  3  0  5  9 10  4  1 10
  0 10 12  5 17 18  5 12  2  0  9 12  5 21  2  4 16 17  1 20  2  0 16 17
  2 17 14 27  6 25  8]"
4100,337.0,0.984375,6,2,28.49796199798584,6.303551197052002,1506,32800,263377,1697663,"[ 3  3  3  1  1  3  0  0  2  0  1  1  0  1  3  5  0  7  4  0  3  0  0  5
  5  0  1  5  1  7  3 10  4  4 13 13  0  1  2  0  3  0  5 13  4  4  1  9
  4 13 10  1  2  3  4 17 16  5  0  0  5  2 14  4 16 17  5 14  1  0 16 17
  3  2 18 27  6 25  8]"
4200,337.0,0.984375,6,2,29.11880898475647,6.208446025848389,1546,33600,268989,1732999,"[ 1  2  1  1  1  1  0  0  2  0  2  1  0  1  3  5  5  7  3  4  4  3  0  5
  5  4  6  2  1  4  2  7  4  3  3  9  0  1  2  0  3  0  4  6  4  1 15  9
  5 18 10  3  2 18  1  0 15  5 13 14  3 22  0  4 16 17  2 16 17  0 16 17
  3 15 18 27  6 25  8]"
4300,337.0,0.984375,6,2,29.763981819152832,6.451704502105713,1581,34400,274923,1771334,"[ 1  1  0  1  1  1  0  0  2  1  3  2  0  1  3  2  0  2  0  4  3  3  3  4
  5  4  0  4  0  4  2  6  4  2 13  9  0  1  2  0  3  0  3  5 12  5 17  9
  0 13 17  0  2 18  0 11 13  0 13 17  4  1 14  4 16 17  3 19  1  0 16 17
  5  1  1 27  6 25  8]"
4400,337.0,0.984375,6,2,30.397022247314453,6.330382823944092,1616,35200,280732,1808738,"[ 3  1  2  5  2  2  0  0  2  5  2  0  1  2  3  5  8  3  2  0  7  0  3  1
  2  4  2  4  2  4  1 11 10  2  4  6  0  1  2  0  3  0  0  8  1  0 14  9
  2 14 14  5 13 18  3  3 15  0  9 18  1 14 15  4 16 17  5 19 18  0 16 17
  5 18 19 27  6 25 11]"
4500,337.0,0.984375,6,2,31.007097721099854,6.100730895996094,1649,36000,286156,1843956,"[ 2  0  0  2  3  0  0  0  2  1  2  3  2  0  2  2  4  5  3  0  7  0  3  1
  2  8  6  2  4  7  1 12  6  5  0  3  0  1  2  0  3  0  2  6  9  1 18  2
  5 13 18  0  3  9  1  1 13  1  9  9  0 21  2  4 16 17  4 15  3  0 16 17
  0 23 23 27  6 25 11]"
4600,337.0,0.984375,6,2,31.61879062652588,6.116905212402344,1692,36800,291586,1878777,"[ 0  1  3  5  1  0  0  0  2  4  0  3  5  3  3  2  7  5  5  7  7  0  3  1
  2  4  3  2  8  8  2 13  3  0  6 11  0  1  2  0  3  0  5  7  8  1  2 13
  3 13  0  5  2 17  2 11 12  3  3 18  0 22  2  4 16 17  5 15 17  0 16 17
  1 19 14 15  6 25 11]"
4700,337.0,0.984375,6,2,32.24790549278259,6.2911200523376465,1725,37600,297262,1914709,"[ 0  2  1  3  2  2  0  0  2  0  1  0  5  3  1  5  7  8  2  2  8  0  3  1
  2  6  4  4  0  6  1 13  8  0  6 11  0  1  2  0  3  0  2  6  0  1  2 11
  2 16  2  3 15 11  3 11  3  3  9 17  3  2 22  4 16 17  4  0 20  2 19 16
  0 19  1 15  6 25 11]"
4800,337.0,0.984375,6,2,32.869144439697266,6.212363243103027,1764,38400,302793,1949399,"[ 2  0  3  3  3  1  0  0  2  0  2  2  0  3  2  5  2  0  2  4  4  0  3  1
  2  4  2  3  3  1  3 13 11  0  6 11  0  1  2  0  3  0  0  9 13  5 11  1
  2  2  2  5 15 18  4 12  2  1  9 11  4  3 18  4 16 17  4 23 17  5 14  3
  0  2  0 15  6 25 11]"
4900,337.0,0.984375,6,2,33.47560381889343,6.06456995010376,1805,39200,308232,1983597,"[ 2  2  0  1  1  3  0  0  2  3  1  0  0  0  3  2  0  7  2  6  3  0  3  1
  5  3  7  4  4  7  3 10 11  0  6 11  0  1  2  0  3  0  1  0  1  0  9 14
  5  0 15  5  2 10  1  9 11  3  9  0  3 23 20  4 16 17  5 21 20  1 15 21
  4 15 20 15  6 25 11]"
5000,337.0,0.984375,6,2,34.09607672691345,6.204707622528076,1839,40000,313890,2018994,"[ 4  2  3  3  2  0  0  0  2  5  2  2  4  3  2  4  7  1  2  6  1  0  3  1
  5  6  4  5  1  3  3  0 12  0  6 11  0  1  2  0  3  0  4 13 12  0 14 10
  3  9 12  0  2  1  0 16  9  3  3 12  4 22 18  4 21 17  5  2  2  5 17 21
  5 22 20 15  6 25 11]"
5100,337.0,0.984375,6,2,34.72693109512329,6.3085246086120605,1874,40800,319625,2055334,"[ 0  3  3  2  2  0  0  0  2  4  0  2  1  0  3  1  1  6  2  4  1  0  3  1
  4  3  2  3  2  1  2  4 13  0  6 11  0  8  5  0  3  0  3 10  1  1 12  2
  5 16 12  0  2  1  0 11 16  1 10 18  4  1 17  4 21 17  1 19 23  1 20 20
  0 23  0 15  6 25 11]"
5200,337.0,0.984375,6,2,35.34569478034973,6.187613010406494,1916,41600,325208,2090647,"[ 4  2  3  2  0  3  0  0  2  3  2  1  3  0  0  2  7  6  4  6  8  0  3  1
  1  2  4  4  0  2  2 10  0  0  6 11  4 12 13  0  3  0  5  8 10  4  9 14
  2 16  2  0  2  1  3  3 13  2  9 14  4 23  2  4 21 17  4 17 15  5 15 19
  3 22 21 15  6 25 11]"
5300,337.0,0.984375,6,2,35.95089673995972,6.051990985870361,1960,42400,330645,2124558,"[ 1  2  2  3  2  0  0  0  2  1  0  0  1  0  3  1  6  2  0  7  1  0  3  1
  1  4  5  4  1  7  4 12  0  0  6 11  4 10  3  0  3  0  1  5  1  1 11  2
  4 10  0  0  2  1  0  9  1  2 14  1  4  3 14  4 21 17  0 20 23  0  2 18
  4 22 23 15  6 25 11]"
5400,337.0,0.984375,6,2,36.58612394332886,6.352245807647705,1997,43200,336373,2161103,"[ 4  2  2  4  2  2  0  0  2  5  2  0  2  1  3  5  1  3  0  4  4  0  3  1
  4  6  4  1  4  8  0 11 13  0  6 11  3 10  3  0  3  0  1 13  3  2  9  3
  2 13 18  4  2  3  0  2  1  3  0 10  1 15 14  4 22 17  3 23  0  1 16 16
  4  0 16 15  6 25 11]"
5500,337.0,0.984375,6,2,37.22301626205444,6.368896961212158,2031,44000,342232,2197887,"[ 1  2  2  0  0  3  0  0  2  5  1  0  3  2  3  4  8  3  0  0  4  0  3  1
  4  0  2  1  2  2  1 12  3  0  6 11  0  8  2  0  3  0  3  6  5  5  9 12
  5 15 15  0  2  3  0  2  1  5 11 16  2 20 22  4 22 17  5 14 19  1 15 15
  3  2 23 15  6 25 11]"
5600,337.0,0.984375,6,2,37.84602761268616,6.2300896644592285,2082,44800,347974,2233920,"[ 0  2  0  0  0  1  0  0  2  0  1  2  5  1  3  5  7  3  0  1  8  0  3  1
  1  3  2  5  7  7  5  7  3  0  6 11  1  6  6  0  3  0  2 10  7  4 15 13
  1 12 13  5 15  3  0  2  1  2  9 17  2 14 20  4 22 17  3 18 16  5 20 16
  2 16 14 15  6 25 11]"
5700,337.0,0.984375,6,2,38.457608461380005,6.115782260894775,2130,45600,353460,2268857,"[ 3  2  0  1  1  2  0  0  2  1  1  0  5  2  1  3  5  1  4  4  3  0  3  1
  5  4  1  5  4  2  2 11 13  0  6 11  1 13 13  0  3  0  2  4  1  4 17 15
  4  3 14  5  3 12  0  2  1  1  9 17  4 15 21  4 22 17  5 20  0  5  0 14
  0 23  3 15  6 25 11]"
5800,337.0,0.984375,6,2,39.11242127418518,6.54810905456543,2166,46400,359586,2307488,"[ 1  1  1  0  0  2  0  0  2  4  0  1  0  3  1  4  6  8  5  1  0  0  3  1
  0  2  1  0  2  0  1  0  6  0  6 11  0  0  0  0  3  0  2  3  3  5 13  3
  4 16 12  3 10 18  0  2  1  5  2 17  3 19 17  4 22 17  1  1  0  2 15  0
  3 23 23 15  6 25 11]"
5900,337.0,0.984375,6,2,39.727946043014526,6.155226230621338,2208,47200,365276,2342697,"[ 5  0  0  0  3  2  0  0  2  3  3  2  2  2  2  5  7  1  3  7  0  0  3  1
  1  6  8  5  0  6  0  1  0  0  6 11  2 12  2  0  3  0  0  1  1  2 17 11
  1 15 10  4 11 15  0  2  1  0 15 14  1 16 17  4 22 17  0 22  3  0  0 16
  4 14 21 15  6 25 11]"
6000,337.0,0.984375,6,2,40.43487858772278,7.069294452667236,2238,48000,371186,2379759,"[ 0  2  3  4  3  3  0  0  2  0  2  2  2  0  3  5  7  8  0  4  0  0  3  1
  3  5  6  5  6  4  5  1  4  0  6 11  3 11 11  0  3  0  2  3  8  4  3 12
  3 18  1  1  3 18  0  2  1  0 15 14  1 17 15  4 22 17  4 19 23  1  1  1
  3  1 17 15  6 25 11]"
6054,342,1.0,8,2,40.79610800743103,6.689385131553367,2256,48432,374484,2400605,"[ 3  1  1  0  2  2  0  0  2  0  0  3  2  0  2  0  7  5  3  4  0  0  3  1
  4  5  6  2  5  1  0 11  4  0  6 11  3 11  8  0  3  0  2  5  1  4  0  0
  1 10  0  2  3  0  0  2  1  5 14 12  3 17  0  4 22 17  2 23 17  1  1 15
  3 17 20 15 16 25 11]"
6100,342,1.0,8,2,41.071314334869385,5.982699601546577,2271,48800,376571,2417088,"[ 1  1  2  4  2  1  4  0  2  0  0  2  2  0  2  0  7  4  3  2  1  0  3  1
  4  5  0  2  5  3  0  0  2  0  7 11  3 11  8  0  3  0  1  8  1  3 16 17
  3 10  0  1 11  9  0  2  1  2  2 14  4  1 15  4 22 17  0 23 15  1 23  3
  5 19 15 15 16 25 11]"
6200,342,1.0,8,2,41.677452087402344,6.06135368347168,2299,49600,381199,2453536,"[ 1  1  3  4  3  0  1  1  1  0  0  2  2  0  2  4  2  8  5  8  2  0  3  1
  5  4  8  4  5  3  3  4 12  0  7 11  3 11  8  0  3  0  2  0  6  0 12 14
  5 15 11  1  0 14  0  2  1  1  2  0  3 14 14  4 22 17  0 18 15  2 17 22
  5 23 14 15 16 25 11]"
6300,342,1.0,8,2,42.25251626968384,5.750620365142822,2335,50400,385516,2487349,"[ 3  3  3  5  1  0  2  0  2  0  0  2  2  0  2  3  3  1  2  3  2  0  3  1
  5  7  8  2  8  6  2  3  8  0  7 11  3 11  8  0  3  0  2 12  7  0  0 14
  3 15 12  1  9 18  0  2  1  5 17 16  1  3 21  4 22 17  0 16 15  5  3 17
  1 19 14 15 16 25 11]"
6400,342,1.0,8,2,42.825191497802734,5.726728439331055,2376,51200,389792,2520985,"[ 3  1  0  1  0  3  3  1  1  0  0  2  2  0  2  5  7  5  5  6  4  0  3  1
  5  8  7  5  2  5  3  3  6  0  7 11  3 11  8  0  3  0  2  6  3  0 13 17
  3 16  0  1 15 14  0  2  1  0  9  2  5  0 17  4 22 17  3 17 23  0 15  3
  4 15 23 15 16 25 11]"
6500,342,1.0,8,2,43.42686080932617,6.016671657562256,2409,52000,394419,2557214,"[ 1  0  2  0  3  1  3  2  2  0  0  2  2  0  2  4  3  3  3  6  4  0  3  1
  3  1  6  3  3  5  5  3  6  0  7 11  3 11  8  0  3  0  5 11  5  1 16  3
  2 15  1  0 16  1  0  2  1  4  0  9  2 22  1  4 22 17  3 16 23  4 17 21
  0  1 23 15 16 25 11]"
6600,342,1.0,8,2,44.062079191207886,6.3521552085876465,2450,52800,398913,2592573,"[ 3  0  1  2  3  2  1  1  2  0  0  2  2  0  2  0  3  3  0  4  4  0  3  1
  1  7  6  3  3  7  0  4 10  0  7 11  3 11  8  0  3  0  0 12  6  1 18 12
  0 16  2  2 16 15  0  2  1  3 12  9  2 22  1  4 22 17  3 16 20  3 17 23
  2 14  2 15 16 25 11]"
6700,342,1.0,8,2,44.7350549697876,6.729731559753418,2488,53600,403296,2627073,"[ 1  2  3  2  1  0  3  3  1  0  0  2  2  0  2  4  2  1  2  4  8  0  3  1
  4  6  3  2  3  6  5  9  9  0  7 11  3 11  8  0  3  0  0 11  0  5 18 11
  1  0 10  3  1  2  0  2  1  5 10  0  0 17  1  4 22 17  1 16 21  3 19 21
  0 19 16 15 16 25 11]"
6800,342,1.0,8,2,45.32041788101196,5.85360050201416,2523,54400,407680,2661463,"[ 4  3  3  5  3  2  1  1  3  0  0  2  2  0  2  3  7  2  0  1  2  0  3  1
  4  1  4  3  1  1  0  3 13  0  7 11  3 11  8  0  3  0  1  2  4  2  3 10
  3 17 17  0 11  1  0  2  1  3 10 17  2 14  3  4 22 17  2 14 14  5 18  1
  5  2 22 15 16 25 11]"
6900,342,1.0,8,2,45.92004108428955,5.996208190917969,2555,55200,412191,2696964,"[ 5  1  0  5  3  0  3  3  0  0  0  2  2  0  2  3  8  8  5  3  3  0  3  1
  0  6  2  3  3  0  3  8 13  0  7 11  3 11  8  0  3  0  0  1 10  3 10 14
  2 17  2  3 14 14  0  2  1  1  9 15  2 21  3  4 22 17  3 15 16  1  0 21
  0 22 21 15 16 25 11]"
7000,342,1.0,8,2,46.51783776283264,5.977945327758789,2592,56000,416684,2732190,"[ 5  0  2  0  2  1  4  1  2  0  0  2  2  0  2  2  8  8  0  7  6  0  3  1
  0  8  2  1  2  6  3 11  4  0  7 11  3 11  8  0  3  0  5 11  1  3  3  2
  2 18 13  4 13 18  0  2  1  0 17 12  1 23 21  4 22 17  0 16 23  3  3 14
  4  2 21 15 16 25 11]"
7100,342,1.0,8,2,47.10380005836487,5.8595991134643555,2625,56800,421110,2766923,"[ 3  3  3  4  2  0  3  3  2  0  0  2  2  0  2  3  4  0  3  4  5  0  3  1
  5  2  6  4  2  6  2  5  2  0  7 11  3 11  8  0  3  0  5 10  1  1  3 12
  1 15 14  1 11 18  0  2  1  0 13 13  0 23 21  4 22 17  4 21 15  4 14 19
  4  1 16 15 16 25 11]"
7200,342,1.0,8,2,47.691203594207764,5.874011516571045,2659,57600,425502,2801486,"[ 5  2  1  4  1  3  3  1  3  0  0  2  2  0  2  3  4  4  1  0  1  0  3  1
  4  7  8  0  5  5  4  4 10  0  7 11  3 11  8  0  3  0  5  1  5  0 12  1
  2  3  3  4  1 12  0  2  1  3 13  2  2  0 21  4 22 17  2 19 16  1  3 14
  2 23 22 15 16 25 11]"
7300,342,1.0,8,2,48.30737328529358,6.161665916442871,2698,58400,429667,2834176,"[ 4  2  0  4  1  3  3  0  1  0  0  2  2  0  2  0  6  4  2  2  5  0  3  1
  2  3  6  2  0  2  3 11  6  0  7 11  3 11  8  0  3  0  0  5  8  1  2 16
  1 13 15  2  0 13  0  2  1  2  2 17  3 15 20  4 22 17  3  1  3  5 23 14
  4 23  1 15 16 25 11]"
7400,342,1.0,8,2,48.95470404624939,6.473286151885986,2732,59200,434228,2870035,"[ 5  1  0  2  0  1  0  0  0  0  0  2  0  0  2  1  5  3  1  2  2  0  3  1
  5  4  6  2  0  2  3  6  5  0  7 11  3 11 13  0  3  0  2  0  2  1  0 10
  1 13 14  1 14 17  0  2  1  0 17 14  0 16 15  4 22 17  0 21  0  5  0 14
  5  2 14 15 16 25 11]"
7500,342,1.0,8,2,49.51432013511658,5.596139430999756,2782,60000,438342,2902506,"[ 5  1  3  0  0  1  0  2  0  0  0  2  2  0  3  3  0  5  2  2  5  0  3  1
  5  7  1  2  0  2  3  6 12  0  7 11  3 11 13  0  3  0  0 11  2  3  1 13
  4  0 10  3  3  3  0  2  1  5 18 18  0 20 23  4 22 17  0 14 23  5 23 19
  5 19  0 15 16 25 11]"
7600,342,1.0,8,2,50.09372401237488,5.794012546539307,2821,60800,442681,2936501,"[ 0  1  2  4  2  1  1  1  3  0  0  2  5  0  2  1  5  5  4  4  0  0  3  1
  3  2  3  2  0  2  4 10 10  0  7 11  3 11 13  0  3  0  0  1  8  5  9  0
  0  9 12  1 15  9  0  2  1  2 16  3  4 16 22  4 22 17  4  0 18  0 23  0
  5 20  0 15 16 25 11]"
7700,342,1.0,8,2,50.661492586135864,5.677659511566162,2858,61600,446887,2969605,"[ 4  3  2  3  2  2  1  1  1  0  0  2  2  0  2  4  0  5  2  4  0  0  3  1
  4  5  4  2  0  4  1 10 10  0  7 11  3 11  8  0  3  0  2  8  0  1 15 17
  5  3  1  2  0 11  0  2  1  1 16  3  2  3 22  4 22 17  0 22  3  0  1  1
  0 20 14 15 16 25 11]"
7800,342,1.0,8,2,51.22745394706726,5.659589767456055,2906,62400,451121,3002752,"[ 2  3  0  3  2  0  4  2  1  0  0  2  2  0  2  2  3  8  5  4  3  0  3  1
  5  5  3  4  2  4  2  5  7  0  7 11  3 11  8  0  3  0  0  6  3  2  3  2
  5 15  1  3 17 17  0  2  1  4 15 17  1 15 19  4 22 17  5 17  2  1  0  3
  0  1 22 15 16 25 11]"
7900,342,1.0,8,2,51.809922218322754,5.8246636390686035,2944,63200,455474,3036929,"[ 4  3  1  4  3  1  0  3  1  0  0  2  2  0  2  0  3  8  1  5  4  0  3  1
  1  5  3  5  6  4  5  0  0  0  7 11  3 11  8  0  3  0  0 10 12  0  0  0
  3 11 13  5  1 17  0  2  1  0 13 13  2 21  3  4 22 17  4 17  2  1 19 23
  2 20 15 15 16 25 11]"
8000,342,1.0,8,2,52.42202138900757,6.120960712432861,2975,64000,460099,3073436,"[ 4  0  3  2  2  0  2  1  3  0  0  2  2  0  2  0  8  7  1  2  0  0  3  1
  2  0  8  0  2  8  1 11 12  0  7 11  3 11  8  0  3  0  5  5  1  4 12 16
  3 15 17  0 17 11  0  2  1  2  0 10  4 21 22  4 22 17  5 17 21  1 16 17
  4 17  2 15 16 25 11]"
8100,342,1.0,8,2,53.01846432685852,5.96440315246582,3011,64800,464590,3108665,"[ 1  0  3  3  0  1  3  2  3  0  0  2  2  0  2  0  8  5  2  0  0  0  3  1
  4  0  0  2  0  8  1  1  5  0  7 11  3 11  8  0  3  0  5 13  8  4  0 16
  1 16  1  1 17 10  0  2  1  5  9 18  3  2 15  4 22 17  3 18  1  5 14 17
  4 17  0 15 16 25 11]"
8200,342,1.0,8,2,53.63019418716431,6.117274761199951,3041,65600,469321,3145795,"[ 5  1  1  3  1  1  3  1  0  0  0  2  2  0  2  2  7  4  2  8  3  0  3  1
  0  0  2  4  6  8  0  6  9  0  7 11  3 11  8  0  3  0  4  0 10  5 15  9
  2 11  2  3  2 15  0  2  1  2  9 10  3 20 15  4 22 17  2  2 18  5  2 14
  1 19  1 15 16 25 11]"
8300,342,1.0,8,2,54.23278498649597,6.025886535644531,3078,66400,473950,3182247,"[ 0  3  1  3  1  0  0  0  1  0  0  2  2  0  2  5  6  8  2  8  8  0  3  1
  0  7  1  4  1  1  5  6  5  0  7 11  3 11  8  0  3  0  5  4 11  5 15 13
  4 13 12  1 15  3  0  2  1  4  3 15  3 20 15  4 22 17  2 18 20  2 21  3
  4  2 17 15 16 25 11]"
8400,342,1.0,8,2,54.83627152442932,6.034843921661377,3113,67200,478317,3216762,"[ 4  2  0  3  2  2  3  2  0  0  0  2  2  0  2  2  2  0  0  1  4  0  3  1
  3  6  0  0  0  0  4 11  1  0  7 11  3 11  9  0  3  0  3  8  7  5  2 11
  1 13  2  3  1 14  0  2  1  0 11  2  3 15 17  4 22 17  1 18 14  3 16  2
  2  1  0 15 16 25 11]"
8500,342,1.0,8,2,55.40979886054993,5.735254287719727,3146,68000,482643,3250639,"[ 2  0  0  2  3  2  5  3  3  0  0  2  5  1  1  2  2  0  3  6  4  0  3  1
  4  5  5  0  0  2  5 12  1  0  7 11  3 11  9  0  3  0  3  0  3  0 17 14
  3  9 15  4  1 14  0  2  1  5 14 11  0 20 18  4 22 17  4  0 23  1 16  1
  3 23 14 15 16 25 11]"
8600,342,1.0,8,2,55.99951648712158,5.8971357345581055,3186,68800,486811,3283488,"[ 0  0  3  0  3  1  0  3  1  0  0  2  3  1  0  2  2  0  2  8  5  0  3  1
  4  6  5  1  1  2  5 11  4  0  7 11  3 11  9  0  3  0  1  8  4  0  2 17
  3  0  9  5  1 14  0  2  1  0  1 18  0  2  2  4 22 17  4 15  2  4 16  0
  1 15 18 15 16 25 11]"
8700,342,1.0,8,2,56.68068170547485,6.811623573303223,3220,69600,491046,3316830,"[ 2  1  3  0  3  2  0  2  2  0  0  2  2  0  1  2  2  0  2  6  0  0  3  1
  3  2  0  0  2  1  1  8  1  0  7 11  3 11  9  0  3  0  4 12  9  5 14  0
  0 11 15  2 11 15  0  2  1  4  9 16  2 17 18  4 22 17  4 16 23  1 16 15
  3 20 20 15 16 25 11]"
8800,342,1.0,8,2,57.253151655197144,5.72467565536499,3259,70400,495156,3349035,"[ 4  1  0  5  2  2  1  3  2  0  0  2  1  1  1  2  2  0  2  0  2  0  3  1
  5  6  0  4  0  1  2  2  8  0  7 11  3 11  9  0  3  0  1 10  9  0 16  0
  0  1 11  2  3  1  0  2  1  1  1 13  4  2 23  4 22 17  4 17 17  4 19  1
  3 18  2 15 16 25 11]"
8900,342,1.0,8,2,57.8161358833313,5.629823207855225,3303,71200,499343,3381808,"[ 4  1  2  3  2  3  5  1  0  0  0  2  1  1  1  2  2  0  5  1  5  0  3  1
  5  8  4  4  4  1  1  3 12  0  7 11  3 11  9  0  3  0  0 13 12  0 17 13
  0  1 11  4  1  0  0  2  1  2  9 18  5 17 23  4 22 17  4  3 15  3 14 16
  3 22  2 15 16 25 11]"
9000,342,1.0,8,2,58.36380672454834,5.4766845703125,3349,72000,503322,3413284,"[ 4  2  2  4  2  1  0  3  1  0  0  2  1  2  2  2  2  0  5  6  2  0  3  1
  0  0  6  3  4  1  0  5 10  0  7 11  3 11  9  0  3  0  4 13  0  0 17 13
  5  1  0  3  9  1  0  2  1  2 18 16  2 15 15  4 22 17  2  1 16  1 22  0
  1 14 21 15 16 25 11]"
9100,342,1.0,8,2,58.94515943527222,5.813500881195068,3386,72800,507737,3447791,"[ 1  2  3  2  2  1  5  0  3  0  0  2  0  1  1  2  2  0  0  2  5  0  3  1
  4  2  1  2  5  2  4  4  4  0  7 11  3 11  9  0  3  0  4  0  7  0 10 11
  5  2  9  3 10 18  0  2  1  2  1 14  4 22  3  4 22 17  4 21 16  1 18 14
  0 22  2 15 16 25 11]"
9157,343,1.0,7,2,59.255486726760864,5.444296619348359,3408,73256,510002,3465453,"[ 5  2  1  1  1  3  1  1  3  0  0  2  0  1  1  2  2  0  2  5  5  0  3  1
  0  0  2  2  1  7  0 13  9  0  7 11  3 11  9  0  3  0  2 12  2  4  1 11
  0 12 11  5 10 15  0  2  1  2  1 18  1 14 17  4 22 17  0  2  3  4 19  1
  0 22 17 28 16 25 11]"
