generation,fitness,functionality,active_nodes,longest_path,time,gen_time,nc_gens,fitness_evals,graph_evals,node_evals,genotype
0,240.0,0.6875,7,3,0.2090010643005371,209.0010643005371,14,64,743,6208,"[ 2  3  0  1  1  0  1  0  0  1  3  1  1  0  0  0  8  6  4  7  8  3  8  3
  2  7  1  3  4  5  1  3 10  5  5 10  2  7  3  1  1  7  3  6  9  3 13 13
  4 11 15  3 10 18  4 13 10  5 16  3  1 17 15  4 20  3  0  2 20  5 17 21
  3 20 17 13 13 14  8]"
100,306.0,0.890625,6,3,1.0110478401184082,8.020467758178711,33,464,6422,33658,"[ 4  0  0  5  1  3  0  1  3  2  2  3  2  2  0  5  0  2  3  1  2  2  4  4
  3  8  2  3  8  6  0  8  8  1  9  5  5  3 12  3  1  1  2  2  5  3 10 14
  1  2  2  0  9 13  2 15 16  2 12 17  1 16 14  1 21 19  1 22 20  3 17 14
  4 17  1 27 13  1  6]"
200,316.0,0.921875,6,3,1.710249662399292,6.992018222808838,82,864,10799,61116,"[ 4  1  2  5  0  1  0  1  3  3  1  2  2  2  0  5  8  7  2  3  6  2  4  4
  3  4  0  3  8  6  5  3  8  5  8  4  4  9  5  2  1  3  2  0 11  3 13 17
  5 15  3  0 14  3  2 15 17  3 12 17  3  2 22  0 19  3  2  0  2  3 17 14
  3 17 16 27 13 13  6]"
300,319.0,0.9375,8,3,2.4162442684173584,7.059946060180664,130,1264,15068,89290,"[ 2  0  0  5  0  2  0  1  3  0  1  2  2  2  0  1  4  3  1  3  7  1  3  4
  0  7  2  3  8  6  1  8  8  0  5  0  2  1 10  2  1  3  1  3 11  2 15 10
  1  1  3  5  1 18  0  0 17  1 17 18  1 19 15  2 17  0  1 20 14  3 17 14
  2  0 16 27 13 10  6]"
400,319.0,0.9375,8,3,3.30542254447937,8.891782760620117,168,1664,19732,127163,"[ 2  1  1  5  3  3  0  1  3  0  1  2  2  2  0  0  7  1  1  0  7  0  1  0
  0  7  7  3  8  6  5  8  2  3  6  0  1  1  4  2  3  7  0  4  9  4 14  2
  5  1  2  4 13 18  5 11 13  3 14 11  4 15 23  3  0 14  4 23  1  3 17 14
  4 20 18 27 13 10  6]"
500,333.0,0.984375,9,3,4.078289747238159,7.728672027587891,212,2064,23664,161367,"[ 4  1  2  0  3  0  0  1  3  0  1  2  2  2  0  5  4  1  1  5  7  0  8  0
  0  6  4  3  8  6  0  1  8  4  2  0  5  2  2  2  3  7  3  2  5  1 12  2
  5 11  2  3  3 16  0 11 13  1  0 10  4  0 15  5  2 17  0 20 16  3 17 14
  5  2 23 27 13 10  6]"
518,340,1.0,9,3,4.212468385696411,7.45436880323622,221,2136,24303,167231,"[ 1  1  2  0  3  0  0  1  3  0  1  2  2  2  0  5  4  4  4  5  7  0  0  0
  1  6  4  3  8  6  0  2  8  4 11  0  5  2  2  2  6  7  3  1 10  1 12 12
  4 18  2  0  1 16  0 11 13  2  0 10  4  0 15  1  2  1  0 20 16  3 17 14
  5  2 23 27 13 10  6]"
600,340,1.0,9,3,4.701287508010864,5.961208808712843,253,2464,26549,187243,"[ 2  1  1  0  3  0  0  1  3  0  1  2  2  2  0  0  3  3  4  5  7  2  8  0
  3  2  4  3  8  6  0  7  8  0 13 10  1 11  5  2  3  7  4  1  7  5 12  1
  4 18 17  3  3 16  0  0 15  4  3 17  3 18 18  2  2 16  2 17 21  3 17 14
  5 23  2 27 13 10  6]"
700,340,1.0,9,3,5.269021987915039,5.677344799041748,299,2864,29117,210058,"[ 4  1  1  0  3  0  0  1  3  0  1  2  2  2  0  0  1  0  4  5  7  2  2  3
  4  6  7  3  8  6  0  1  8  4  2  1  1 12  7  3  6  6  1  1  7  5 10 18
  3  1  2  3 11 10  4 12 14  4  0 17  0 18  3  4 20 16  2 17  1  3 17 14
  5 18  1 27 13 10  6]"
800,340,1.0,9,3,5.883554458618164,6.14532470703125,335,3264,31924,234937,"[ 3  2  3  0  3  0  0  1  3  0  1  2  2  2  0  0  4  4  4  5  7  5  5  7
  5  6  8  3  8  6  5  1  8  3  0  2  0  9  9  2  6  6  5 13  0  3 11 18
  2  3 10  4 12  1  0  3  1  2 11 18  4 23 15  1 19 19  5 21 17  3 17 14
  5 17 15 27 13 10  6]"
900,340,1.0,9,3,6.444140672683716,5.605862140655518,388,3664,34455,257270,"[ 3  1  2  0  3  0  0  1  3  0  1  2  2  2  0  4  2  4  4  5  7  1  2  7
  0  0  7  3  8  6  0  6  8  3  0 10  0  9  9  2  3  1  5  3  0  3 17  2
  2 10 10  4  0  1  3 15  9  5 14 11  3  2 15  4 15 19  5 21 17  3 17 14
  3 15  1 27 13 10  6]"
1000,340,1.0,9,3,7.025748252868652,5.816075801849365,432,4064,37020,280175,"[ 5  3  2  0  3  0  0  1  3  0  1  2  2  2  0  5  6  0  4  5  7  0  4  0
  0  0  0  3  8  6  0  7  8  0 12  3  5  9  6  2  6  2  5 13  0  3 18  9
  0 10 12  1  2 13  2  0 14  5  3 11  5  2  0  4  3 19  5 21 14  3 17 14
  4  2 15 27 13 10  6]"
1100,340,1.0,9,3,7.614634037017822,5.888857841491699,476,4464,39727,304110,"[ 0  2  0  0  3  0  0  1  3  0  1  2  2  2  0  1  1  6  4  5  7  3  3  6
  3  7  0  3  8  6  5  8  6  0  3  4  5  4 13  2  6  1  5  1  4  3 18 15
  2 14 11  1  2  9  5 10 14  3  3 10  5 14  0  3  3 22  0  3 14  3 17 14
  0  1 23 27 13 10  6]"
1200,340,1.0,9,3,8.189767122268677,5.751330852508545,519,4864,42317,327177,"[ 4  1  2  0  3  0  0  1  3  0  1  2  2  2  0  2  4  7  4  5  7  3  8  2
  2  6  0  3  8  6  0  8  2  2 10 13  1  4 11  2  7  6  5  1  0  2 12 11
  1  0 11  0  2 13  3 16 11  3 17 14  5  2 22  4 15 19  4  2  0  4 17 14
  0 14 18 23 13 10  6]"
1300,341,1.0,8,3,8.80175495147705,6.109867095947266,555,5264,45251,352859,"[ 2  2  0  0  3  0  0  1  3  0  1  2  2  2  0  2  1  2  4  5  7  3  5  1
  2  0  7  3  8  6  5 10  2  2  3 13  1 12  5  2  7  5  5  4  0  0  0 11
  1 10 17  0  0 16  3 14 12  3 13 17  0 19 19  0 14  0  4  0 23  3 19  3
  3 19  0 23 13 10  6]"
1400,341,1.0,8,3,9.33928632736206,5.375313758850098,596,5664,47875,373674,"[ 2  2  0  0  3  0  0  1  3  0  1  2  0  2  0  4  6  2  4  5  7  3  1  6
  1  0  8  3  4  6  5 13  7  2 12  2  1 12  8  2  2  7  2  0  3  5 10  1
  0  1 18  4 13  2  2 12  2  3 10 17  0 23  2  1 18  1  5 15 21  4 19 14
  3  0 22 23 13 10  6]"
1500,341,1.0,8,3,9.862998008728027,5.237116813659668,642,6064,50409,393853,"[ 2  2  0  0  3  0  0  1  3  0  1  2  0  2  0  4  6  2  4  5  7  5  6  6
  1  2  2  3  4  6  3 13 10  4  8  5  1  6  7  4  4  0  2  7  0  2 13  9
  0 16  1  5  9 15  2 15  2  3 13 18  1 23 23  4  0  1  5 15 23  2  1 21
  0 20 15 23 13 10  6]"
1600,341,1.0,8,3,10.368993759155273,5.059957504272461,695,6464,52769,412541,"[ 2  2  0  0  3  0  0  1  3  0  1  2  1  1  0  5  4  4  4  5  7  0  6  6
  0  1  5  3  4  6  1 13 10  1  0  1  3  6  4  2  4  8  2  2  0  2  3  0
  0 18  1  4  3  1  0 10  9  5 13 18  4 20 23  5  2  1  1 15  0  0 23 15
  1 22  0 23 13 10  6]"
1700,341,1.0,8,3,10.857643127441406,4.886493682861328,744,6864,55138,431230,"[ 2  2  0  0  3  0  0  1  3  0  1  2  1  1  0  4  0  1  4  5  7  5  6  6
  5  6  0  3  4  6  3 13 10  1  7  6  0  0 12  1  6  2  2  2  0  1 15 16
  2 18 12  3  3  0  0 18  9  5 13 18  2 21 21  4 14 20  3 20 20  0  0 23
  4 17 19 23 13 10  6]"
1800,341,1.0,8,3,11.367929458618164,5.102863311767578,788,7264,57586,450697,"[ 2  2  0  0  3  0  0  1  3  0  1  2  5  3  3  5  7  1  4  5  7  5  6  1
  5  6  3  3  4  6  4  6  5  3  9  6  4  6  9  3  7  9  3  5  5  3 15 15
  1 11 14  5 14  0  0 11 16  3 10 18  1 21 20  0  3  1  2 21  0  3 17  1
  3 23 18 23 13 10  6]"
1900,341,1.0,8,3,11.871684551239014,5.037550926208496,833,7664,60001,469839,"[ 2  2  0  0  3  0  0  1  3  0  1  2  3  1  1  1  2  7  4  5  7  5  0  1
  1  4  6  3  4  6  4  8  4  5  4 10  3  7  7  4 12  8  2  6  7  4  2 11
  1 12  3  2  0 11  0 16 18  3 10 18  5  3 18  0 20 15  2 19 19  2 20 22
  5 16 14 23 13 10  6]"
2000,341,1.0,8,3,12.371845245361328,5.0016069412231445,880,8064,62396,488928,"[ 2  2  0  0  3  0  0  1  3  0  1  2  1  1  0  5  4  5  4  5  7  1  3  1
  3  8  8  3  4  6  3  2  0  2 10 12  2  1  7  2  7  0  1  6  0  4 17 11
  0  2 13  4 11  3  2  1 11  3 10 16  1 14 20  2 20  2  3 20 21  3 18 16
  3  2 14 23 13 10  6]"
2100,341,1.0,8,3,12.933350086212158,5.615048408508301,917,8464,65155,510926,"[ 2  2  0  0  3  0  0  1  3  0  1  2  0  1  2  0  0  7  4  5  7  4  3  6
  2  0  7  3  4  6  4  3 10  3 13  5  2  1  7  0 12 13  4  1 10  5 15  2
  0 14 17  1 17  9  2 18 16  3 10 16  2 20 17  0 20  2  1 20  1  0 22  0
  5 19 16 23 13 10  6]"
2200,341,1.0,8,3,13.484729528427124,5.513794422149658,961,8864,67649,530773,"[ 2  2  0  0  3  0  0  1  3  0  1  2  3  1  1  5  1  7  4  5  7  3  3  6
  2  6  5  3  4  6  0  7  7  0 13 12  0  5 11  0  8 11  2 12  3  5 17  2
  1 14 18  1  0 13  3 15  9  3 10 12  2 20 17  5 18 19  5 16 23  5 23  1
  0 22 18 23 13 10  6]"
2300,341,1.0,8,3,14.016699075698853,5.319695472717285,1008,9264,70271,551496,"[ 2  2  0  0  3  0  0  1  3  0  1  2  0  3  1  5  4  2  4  5  7  5  8  8
  2  0  5  3  4  6  5 11  3  3  7  2  0  4  7  2 12  3  1  0  3  0 14 17
  2 18 17  0 11  3  5 15 12  3 10 12  2 20 17  0 21  2  5  0 14  5  0  2
  4  3 21 23 13 10  6]"
2400,341,1.0,8,3,14.564868688583374,5.481696128845215,1054,9664,72941,572718,"[ 2  2  0  0  3  0  0  1  3  0  1  2  0  0  2  1  4  2  4  5  7  5  8  6
  2  7  1  3  4  6  0  3  2  5  7  8  0  3  2  2  1 12  2  6  6  1 15 17
  0  2  3  2 18 12  1 18 13  3 10 12  1 20 19  4 21  2  2 16  0  5 18  0
  5 14 21 23 13 10  6]"
2500,341,1.0,8,3,15.098795652389526,5.339269638061523,1096,10064,75508,593133,"[ 2  2  0  0  3  0  0  1  3  0  1  2  4  3  2  3  3  4  4  5  7  1  5  7
  2  7  0  3  4  6  4  5  3  3  7 11  0  3  4  1  1  4  2 11  4  4 15  0
  2  2 18  1 15  2  4 13  2  3 10 12  5 17 22  0  3 14  3  3 19  5 22  0
  4 16 20 23 13 10  6]"
2600,341,1.0,8,3,15.639537572860718,5.407419204711914,1138,10464,78128,613893,"[ 2  2  0  0  3  0  0  1  3  0  1  2  4  3  2  1  0  6  4  5  7  0  5  6
  2  6  7  3  4  6  4  0  9  0  2  8  0 12  4  3  4  4  0  7  4  0  3 16
  0 11  2  1  1  3  4 18  2  4 16 11  5 21 14  1 14 21  3 19 19  5 22 14
  4 14 20 20 13 10  6]"
2700,341,1.0,8,3,16.19275403022766,5.532164573669434,1176,10864,80891,635805,"[ 2  2  0  0  3  0  0  1  3  0  1  2  0  0  2  0  0  6  4  5  7  0  5  7
  2  6  2  3  4  6  4  8  7  5 10  6  0  2  4  1 10  1  5  9 11  5 11 10
  0  0 11  3 14 11  3 16  2  2 13  1  2 19 22  0 18 16  3  3  1  2  2 21
  1 17 21 20 13 10  6]"
2800,341,1.0,8,3,16.727145195007324,5.343911647796631,1227,11264,83506,656558,"[ 2  2  0  0  3  0  0  1  3  0  1  2  0  3  2  1  6  8  4  5  7  0  0  6
  4  0  1  3  4  6  5  8  4  1  6  9  3  6  4  1  0  1  4  9  8  5  0  2
  0  2 11  1 16 17  3  1 18  2 15 17  0 19  0  0  1 21  2 17  1  5 21 17
  1 21 21 20 13 10  6]"
2900,341,1.0,8,3,17.264615058898926,5.374698638916016,1279,11664,86090,676938,"[ 2  2  0  0  3  0  0  1  3  0  1  2  1  0  2  4  5  4  4  5  7  0  0  6
  4  4  4  3  4  6  4 11 10  2 12  7  3  6  1  2  3 13  5  9  4  5 18 15
  0  2 11  1  3 15  2  3 17  0 14  3  1 15 14  2 17 22  2 19  1  0 20 19
  1 19 21 20 13 10  6]"
3000,341,1.0,8,3,17.81105089187622,5.464358329772949,1322,12064,88831,698570,"[ 2  2  0  0  3  0  0  1  3  0  1  2  4  0  3  2  3  0  4  5  7  0  0  6
  3  4  4  3  4  6  4 10 10  2  4  0  2  2 12  3  9 12  5  9  8  2 18 15
  0  2 11  2 16 14  2 16 16  3  3 15  0 19  1  1 19 21  2 14 14  1 23 18
  4 19  2 20 13 10  6]"
3100,341,1.0,8,3,18.34634518623352,5.352942943572998,1373,12464,91492,719547,"[ 2  2  0  0  3  0  0  1  3  0  1  2  3  0  3  1  4  2  4  5  7  0  0  6
  3  4  1  3  4  6  1  1  9  2  8  6  1  5 12  3  7  4  5  9  8  3 18  1
  0  2 11  3 16  0  3  0  3  3  1 17  3 19 23  0 19 21  2 16  2  0 23 15
  0  1 15 20 13 10  6]"
3200,341,1.0,8,3,18.92895221710205,5.826070308685303,1415,12864,94413,742618,"[ 2  2  0  0  3  0  0  1  3  0  1  2  0  2  3  2  3  2  4  5  7  0  5  6
  3  8  1  3  4  6  1  5  1  4  8  0  1 11  3  3  7  2  5  1  5  1 14 11
  0  2 11  3  9  3  0 12 13  3  2  3  4  2 22  3 16 22  1  3 16  5  0 22
  3 19 19 20 13 10  6]"
3300,341,1.0,8,3,19.50918436050415,5.802321434020996,1466,13264,97207,764548,"[ 2  2  0  0  3  0  0  1  3  0  1  2  2  2  3  2  0  2  4  5  7  0  0  6
  4  3  1  3  4  6  1  8  7  0  6  6  5  4  5  1  7 10  1 12  6  0  2  2
  0  2 11  2 16 11  4 12 18  3 10  2  4 17  1  3  1 17  1 14  0  5  0 20
  5  3  3 20 13 10  6]"
3400,341,1.0,8,3,20.04272484779358,5.335404872894287,1512,13664,99752,784793,"[ 2  2  0  0  3  0  0  1  3  0  1  2  2  2  3  0  1  3  4  5  7  0  5  7
  5  0  0  3  4  6  3  8 10  1  3  6  5  7  9  1 11  7  0  4 11  1  3 17
  1 11 11  2 15  9  4  1  3  1 10  2  5 18 23  4  3 19  2  2  3  1 22 14
  5 22 19 20 13 10  6]"
3500,341,1.0,8,3,20.671826362609863,6.291015148162842,1562,14064,102448,806039,"[ 2  2  0  0  3  0  0  1  3  0  1  2  3  0  3  2  2  7  4  5  7  0  0  6
  5  4  0  3  4  6  0  8  4  0  7  9  2  7  1  1 11  7  4  7 11  1  2 13
  0 11  2  2  3 13  5 14  3  1 14  3  2 18  3  0  3 15  3 17 21  5 16 14
  5 19 21 20 13 10  6]"
3546,343,1.0,7,2,20.951048612594604,6.070048912711766,1584,14248,103749,816302,"[ 2  2  0  0  3  0  0  1  3  0  1  2  3  3  2  4  2  7  4  5  7  0  5  7
  2  1  8  3  4  6  4  8  4  0  4  2  0  4 10  1 11  7  4  2 11  1  2 16
  0 11  3  3  3 13  1 14  0  0 14  3  4 18 16  0 14 15  3 17 15  4  1 20
  5 22 15 11 13 10  6]"
