generation,fitness,functionality,active_nodes,longest_path,time,gen_time,nc_gens,fitness_evals,graph_evals,node_evals,genotype
0,304.0,0.875,4,2,309.4312765598297,309431.2765598297,32751,131072,745646,5494476,"[ 0  2  2  0  3  1  1  2  2  5  1  1  0  2  0  0  4  1  0  0  3  2  5  3
  4  6  5  0  8  2  4  0  3  1  9  9  3  2  5  1 11 12  4 13  8  2 15  0
  4 15 14  1 18 13  1  2 13  5 10 17  0 18  0  1  0 19  0  3 16  4 16 17
  0  2 18 13  8 10  5]"
100,314.0,0.90625,4,2,310.2471299171448,8.158533573150635,32795,131472,751059,5523959,"[ 2  1  1  0  3  1  3  1  2  0  1  1  0  2  0  1  2  6  0  0  3  5  5  3
  0  2  7  3  5  3  3  9  4  0  9  9  4 11 10  2  2  2  4  8  8  0 14 17
  0 14 14  0 11  3  4  1  0  0 12  2  0 18  3  1  0 22  4  2 21  5  2 17
  5 17  3 18  8 10  5]"
200,314.0,0.90625,4,2,310.9833514690399,7.362215518951416,32842,131872,756365,5546613,"[ 0  3  2  0  3  1  2  3  2  3  3  3  0  2  0  1  4  3  0  0  3  0  7  6
  3  8  2  4  2  1  1  8  2  4 12 10  4 10 10  2  4 11  2 12 13  3  0  1
  5  3 11  5  1 14  5 14 11  4  0  1  4 22 18  3  0 16  1 23 18  1 15 17
  0 20 19 16  8 10  5]"
300,314.0,0.90625,4,2,311.9532127380371,9.698612689971924,32905,132272,761480,5568482,"[ 5  0  1  0  3  1  3  3  3  3  2  2  0  2  0  3  5  8  0  0  3  0  7  5
  3  0  5  0  2  5  1 12  8  1  5 12  4 10 10  2 12  9  2  4  5  2 11 10
  4 10  2  5  3  0  5 18 12  4 16  1  4 20  0  2 14 14  0 21 16  1 15 17
  1 16  3 16  8 10  5]"
400,314.0,0.90625,4,2,312.6975347995758,7.443220615386963,32959,132672,766619,5590660,"[ 0  3  3  0  3  1  3  0  1  1  3  0  0  2  0  3  3  7  0  0  3  2  1  0
  2  8  1  0  6  4  3 12  9  4  3 13  4 10 10  2  9  5  3  0  6  5  2 11
  5 13  2  2 17  2  3 13  1  1 13 16  3  1  0  3  2  3  5  3 17  0  0  0
  0 18 21 16  8 10  5]"
500,314.0,0.90625,4,2,313.41146969795227,7.139348983764648,33008,133072,771799,5613712,"[ 2  0  1  0  3  1  0  3  2  3  0  0  0  2  0  0  1  4  0  0  3  1  4  3
  5  7  6  0  1  2  5  3  9  4  2  8  4 10 10  3  2  3  2 11  8  5  2 13
  2  3  2  2 11 11  0  2 10  1 16 18  4 19 19  0  2 14  5  2  2  4 19 18
  3 23 17 16  8 10  5]"
600,314.0,0.90625,4,2,314.13968801498413,7.2821831703186035,33059,133472,777052,5636515,"[ 5  0  0  0  3  1  3  1  2  5  0  3  0  2  0  2  4  7  0  0  3  2  8  1
  5  1  6  4  0  2  1  8  9  4 11  0  4 10 10  5  9  5  1  3 12  0  9  0
  1  3 16  3 16  2  3  2 15  0 12 17  5  1  0  5 17 17  5 19 17  0 20  0
  3 15  2 16  8 10  5]"
700,314.0,0.90625,4,2,314.83026003837585,6.905720233917236,33114,133872,782202,5658534,"[ 1  2  3  0  3  1  0  1  0  4  1  3  0  2  0  4  8  6  0  0  3  1  7  3
  3  2  6  3  4  7  1 12  5  0  0  0  4 10 10  5  5 10  4  1 12  4  0  3
  1 10  0  2 18  0  5  2 17  2  9 17  3  1 22  0  3 17  5  1 16  0  1  3
  5 14 15 16  8 10  5]"
800,314.0,0.90625,4,2,315.50855922698975,6.782991886138916,33160,134272,787403,5680923,"[ 2  2  1  0  3  1  1  2  1  3  2  1  0  2  0  4  0  3  0  0  3  1  5  2
  0  8  6  5  6  5  2  6  8  1  2  0  4 10 10  5  1  0  4 12 13  0 12 15
  2 13 10  2 14  0  5 12 16  1  9 18  4  0  3  1  3 20  5 22 21  5 23 21
  5  0 22 16  8 10  5]"
900,314.0,0.90625,4,2,316.25104427337646,7.4248504638671875,33224,134672,792557,5703049,"[ 2  2  3  0  3  1  5  1  1  0  2  3  0  2  0  5  5  3  0  0  3  5  6  3
  0  5  7  4  6  5  3 10  4  1  8  1  4 10 10  1  8  0  0  6 11  3 12 15
  3  0 15  2 15 12  5 17  9  5 10 15  1 22 18  1 15 15  5 17 17  2  3 18
  4 20 23 16  8 10  5]"
1000,317.0,0.921875,5,3,316.9980220794678,7.469778060913086,33273,135072,797751,5728613,"[ 1  3  2  0  3  1  2  3  1  1  0  0  0  2  0  4  6  6  0  0  3  0  5  2
  5  5  0  3  4  3  0  8 12  3 12  3  4  5 12  4 13 11  0 10  1  5  1 15
  2 16 16  2 11 16  4 12  3  5 13 12  5 22 15  1  0 14  3  1 18  2 14 18
  4 23 22 14  8 10  5]"
1100,319.0,0.921875,4,2,317.7105984687805,7.125763893127441,33336,135472,802623,5751881,"[ 3  3  2  0  3  1  0  3  1  0  0  3  0  2  0  4  2  6  0  0  3  1  6  3
  5  5  5  0  3  2  0  8  5  3 12 12  1 11 12  1  2 12  0  4 10  1 18 10
  2 11  1  4 16 12  2 13  9  3 13  2  0  0  1  3  0 14  3 19 23  0  3 18
  1 22  1 14  8 10  5]"
1200,319.0,0.921875,4,2,318.3856282234192,6.750297546386719,33393,135872,807433,5773304,"[ 1  3  3  0  3  1  4  1  2  3  2  2  0  2  0  2  2  7  0  0  3  0  4  6
  3  7  8  5  5  2  0  8  5  5  7 11  5  3  3  4  7  5  2  7  5  1  0  2
  1 11 10  5 13  0  1  0 14  3  9 12  1 17  2  3 20 22  1 15  3  2  3 22
  3 21 23 14  8 10  5]"
1300,319.0,0.921875,4,2,319.0307812690735,6.451530456542969,33461,136272,812117,5794158,"[ 2  3  2  0  3  1  0  0  3  0  2  2  0  2  0  1  6  4  0  0  3  3  4  3
  2  6  4  2  2  6  0  8  5  2 10  8  5  5 13  4  7 10  2  8  8  4  0 12
  3 11 14  5 12  0  1  3 14  1  9 13  3 22 14  4 23 21  0  3 18  2 22 22
  2 16  0 14  8 10  5]"
1400,319.0,0.921875,4,2,319.6778070926666,6.4702582359313965,33518,136672,816851,5814635,"[ 5  3  0  0  3  1  1  1  0  1  3  2  0  2  0  0  3  8  0  0  3  1  3  7
  3  7  3  1  0  7  0  8  5  0 10 12  5  5 13  0  3  3  2  0 13  5 11 15
  5 15  0  1 12  0  0 10 13  1 16  3  4 23 14  1 19 22  3 20 15  2  0  3
  4 21 21 14  8 10  5]"
1500,322.0,0.9375,5,3,320.35217928886414,6.743721961975098,33577,137072,821562,5836487,"[ 1  0  2  0  3  1  1  0  2  4  1  0  0  2  0  2  5  4  0  0  3  1  6  1
  3  1  1  1  6  8  0  8  5  2  1 13  5  0  0  5 10 11  3 10 11  3 18 15
  2 15 13  4 10 14  0  1 17  5 16 12  1 21 15  4 23 18  2 15 23  3  1  1
  3  1  1 14  8 21  5]"
1600,323.0,0.9375,5,2,321.0549256801605,7.027463912963867,33633,137472,825903,5859172,"[ 1  3  3  0  3  1  5  0  1  0  2  0  0  2  0  4  2  2  0  0  3  1  0  6
  4  1  3  3  7  4  0  2  1  3  1  5  3 11  2  4 11  3  1 13 10  0  9 15
  1 17 14  4 10 14  0 11 16  4 15 15  0  2  3  3  0 15  2  1 15  3 18  3
  1 19 20 14  8 21  5]"
1700,323.0,0.9375,5,2,321.67852878570557,6.2360310554504395,33683,137872,830042,5881119,"[ 5  2  3  1  3  1  0  3  1  3  3  3  0  2  0  2  1  4  0  0  3  0  3  0
  2  2  7  5  2  4  0  2  1  4  8  2  5  8 10  3 13  2  4 10 10  0  9 15
  3 11  1  4 10 14  2 16  2  2 17  0  1  2  3  2 19 16  5  3 15  3 21  1
  1 20  3  8  8 21  6]"
1800,334.0,0.984375,8,3,322.5527639389038,8.742351531982422,33726,138272,834240,5909263,"[ 2  1  3  0  0  3  0  3  1  2  3  1  0  2  0  0  3  5  0  0  3  1  1  3
  1  0  7  5  0  6  0  2  1  2  3 10  4  1  1  2  6  8  2  1  4  4 10 10
  4  2 17  4 10 14  0 13  2  5 15  0  4 22 23  3 16 17  3 15  2  2  1 19
  0 17 16 25  8 21  6]"
1900,334.0,0.984375,8,3,323.54438519477844,9.916212558746338,33784,138672,837395,5935137,"[ 2  1  1  0  0  3  0  3  1  1  0  1  0  2  0  0  6  4  0  0  3  0  1  2
  1  0  6  5  6  1  0  2  1  5  1  1  0  4 11  2  1 10  1  2 12  2 10  2
  3 14 18  4 10 14  4 13  3  4 18  2  3 14 19  3 19 17  2 14  1  5  2 18
  4 16 21 25  8 21  6]"
2000,335.0,0.984375,7,3,324.87974095344543,13.353557586669922,33828,139072,840901,5961807,"[ 0  2  1  4  3  3  0  3  1  0  2  1  0  2  0  3  3  4  0  0  3  4  5  3
  0  4  6  1  4  6  0  2  1  2  5  6  4  9  0  2  5  0  1  2  8  2 14  2
  3 16 18  4 10 14  5  1 14  4 11  2  5 18 23  3 19 21  3 20 17  5 16 18
  4 18 17 25  8 21  6]"
2100,335.0,0.984375,7,3,325.5655519962311,6.858110427856445,33890,139472,843958,5984125,"[ 1  2  1  4  0  3  0  3  1  2  2  1  0  2  0  2  8  1  0  0  3  4  5  5
  0  4  4  0  7  8  0  2  1  5  6 12  0 12 12  2  3 10  1  5  8  2 14  3
  3 16  1  4 10 14  5  1 10  4  3  2  3 18  3  3 19 21  3 20 19  5 16  1
  4 14 17 25  8 21  6]"
2200,335.0,0.984375,7,3,326.23992943763733,6.7437744140625,33944,139872,847088,6007036,"[ 3  0  2  1  0  1  0  3  1  4  2  1  0  2  0  0  8  5  0  0  3  4  3  5
  0  0  0  3  7  8  0  2  1  1  1 10  4  8 12  2 12 10  4  5  5  3 10 14
  3 11  3  4 10 14  4 10 15  4  2 15  1  1  3  3 19 21  2 20  3  5 16 22
  4  1 17 25  8 21  6]"
2300,335.0,0.984375,7,3,326.8051378726959,5.6520843505859375,34004,140272,849789,6026422,"[ 0  0  0  4  0  1  0  3  1  0  3  2  0  2  0  1  4  5  0  0  3  0  2  3
  1  2  7  5  4  7  0  2  1  5  1 10  1  0 12  2 12  3  4  8  7  3 10 14
  5 11  3  4 10 14  4 10 10  1 15  0  5  3  3  5 19 21  1 18  0  5  3  0
  4  2 16 25  8 21  6]"
2400,335.0,0.984375,7,3,327.39099764823914,5.858597755432129,34061,140672,852578,6046805,"[ 3  2  0  3  0  1  0  3  1  2  3  3  0  2  0  1  0  4  0  0  3  0  3  3
  4  7  5  5  4  7  0  2  1  0  4 13  0  7  1  2  0  6  3  1  8  2 14  2
  5 11  3  4 10 14  2 16  9  1  9  2  5  3  3  3 19 21  4  0  0  3 16  3
  4  2 22 25  8 21  6]"
2500,335.0,0.984375,7,3,328.08589816093445,6.949005126953125,34117,141072,855669,6069614,"[ 3  1  2  4  3  0  0  3  1  4  3  3  0  2  0  3  1  6  0  0  3  2  8  4
  0  7  6  1  4  1  0  2  1  2  4 13  1 13  7  3  5  4  5 12  5  2 14  3
  1 10  1  4 10 14  1  1 18  1 16 14  5  1  1  3 19 21  4 18 16  1  0 17
  1  2 19 25  8 21  6]"
2600,335.0,0.984375,7,3,328.7257397174835,6.398415565490723,34175,141472,858713,6092415,"[ 1  1  1  4  0  0  0  3  1  0  3  3  0  2  0  2  1  5  0  0  3  3  8  4
  1  5  1  4  2  2  0  2  1  2  4  8  3  8  1  5  5  9  2  8  5  2  3 10
  5  1 12  4 10 14  1 15 18  5  3 14  5 23 22  3 19 21  3 18 14  4 19 19
  1  1 17 25  8 21  6]"
2700,335.0,0.984375,7,3,329.3182544708252,5.925147533416748,34234,141872,861709,6114274,"[ 4  0  2  4  2  3  0  3  1  4  0  0  0  2  0  3  2  8  0  0  3  5  7  4
  4  4  4  2  4  7  0  2  1  3  5 12  0 10  3  3 11 11  1  0 11  2  1  2
  5 17 12  4 10 14  0  0 18  4  3  2  1 23 22  3 19 21  0 18 22  5  1 17
  0 23 14 25  8 21  6]"
2800,335.0,0.984375,7,3,329.95449709892273,6.362426280975342,34292,142272,864719,6136870,"[ 3  2  3  1  1  0  0  3  1  4  0  2  0  2  0  4  2  5  0  0  3  3  2  3
  1  6  5  2  4  7  0  2  1  3  5  7  4 13  4  0  7  6  2  3 11  2  2  9
  3 14 10  4 10 14  4  9  9  4  3 18  3 16 18  3 20 21  1 18 18  2  1 17
  1 16 14 25  8 21  6]"
2900,335.0,0.984375,7,3,330.52136731147766,5.668702125549316,34338,142672,867538,6157243,"[ 5  2  1  5  1  3  0  3  1  4  1  2  0  2  0  4  2  1  0  0  3  2  2  4
  3  0  3  5  1  0  0  2  1  1 13  3  1  7  4  5  3  3  4  2 11  2 10 12
  3 10 14  4 10 14  4 17  9  5 10 18  5 16 21  5 20 21  0 18 20  1 19 16
  3  2  2 25  8 21  6]"
3000,335.0,0.984375,7,3,331.11861872673035,5.9725141525268555,34399,143072,870139,6175941,"[ 5  3  0  5  1  3  0  3  1  4  0  3  0  2  0  3  4  6  0  0  3  3  3  4
  3  2  3  3  0  7  0  2  1  1  3  0  1  1  4  3  5  2  4  5  4  3  0  2
  3 10 14  4 10 14  3 17  9  5 10 17  1  0  3  5 20 21  4 21  1  2 18 17
  3 15 23 25  8 21  6]"
3100,335.0,0.984375,7,3,331.91097688674927,7.92358160018921,34463,143472,872811,6195155,"[ 5  2  3  5  1  1  0  3  1  4  2  1  0  2  0  2  4  6  0  0  3  2  1  7
  2  4  3  3  0  7  0  2  1  1  3 10  4  7  4  4 12  4  2  0  3  3 14  1
  2 10 14  4 10 14  0  9  2  1 17 16  2 21  0  3 18 21  4 23  1  4 18 22
  2 20  0 25  8 21  6]"
3200,337.0,0.984375,6,2,332.63729643821716,7.263195514678955,34514,143872,875879,6214820,"[ 2  1  2  1  1  1  0  3  1  5  2  3  0  2  0  1  4  1  0  0  3  0  7  0
  0  1  8  3  4  7  0  2  1  5 12  5  1  7  4  0  9  4  2 11 10  0  0  2
  0 10 14  4 10 14  1  1  3  2 18 16  2 18  2  3 18 16  3 18  3  5  0 20
  3 14 18 20  8 21  6]"
3300,337.0,0.984375,6,2,333.21908164024353,5.817852020263672,34560,144272,879017,6234646,"[ 1  3  0  1  3  2  0  3  1  4  3  0  0  2  0  1  2  0  0  0  3  4  5  5
  5  2  4  4  5  6  0  2  1  0  1  0  2 13 13  0  9 13  2  9  2  3 11 10
  0 10 14  4 10 14  1  1  3  1 18 16  3 18  3  2 18 16  2 21  3  1 14 15
  1  1  0 20  8 21  6]"
3400,337.0,0.984375,6,2,333.75197649002075,5.328948497772217,34617,144672,881840,6252214,"[ 2  1  0  1  0  2  0  3  1  0  3  3  0  2  0  5  3  3  0  0  3  5  2  0
  0  5  2  4  5  0  0  2  1  1  1  2  5  8  3  0 11  3  4 13 10  4 10 10
  0 10 14  4 10 14  1  1 14  1  1 10  2  0 19  5 15 16  3 18  3  2 16 15
  4 20  1 20  8 21  6]"
3500,337.0,0.984375,6,2,334.30179023742676,5.498137474060059,34676,145072,884789,6270544,"[ 2  1  1  5  2  1  0  3  0  0  1  3  0  2  0  5  2  3  0  0  3  3  3  0
  0  5  5  5  5  7  0  2  1  1  0  0  0 10 12  2  0  5  1  3  3  3 14  0
  0 10 14  4 10 14  1  1  3  0 10 10  3 23 22  5 21  0  1 15 22  2 15  2
  4 22  2 20  8 21  7]"
3600,337.0,0.984375,6,2,334.8929190635681,5.911288261413574,34734,145472,887900,6289832,"[ 5  3  2  3  2  1  0  3  0  0  1  3  0  2  0  2  3  1  0  0  3  0  1  1
  4  1  2  4  1  2  0  2  1  5  2  0  5  1  0  0  6  5  3  8 10  2 18 15
  0 10 14  4 10 14  3 17 10  4 15  1  1 23 19  3  2 19  2  1 23  3 15  1
  2  3 18 20  8 21  7]"
3700,337.0,0.984375,6,2,335.4596073627472,5.6668829917907715,34784,145872,891091,6309914,"[ 5  0  2  2  3  1  5  1  3  0  1  3  0  2  0  5  3  2  0  0  3  4  8  5
  2  1  4  4  7  0  0  2  1  3 12  9  0  5 13  4  7  2  3  4  8  1  3 15
  0 10 14  4 10 14  3  9 16  1 15 13  0 16  0  0 16 15  3 19 21  1 18  1
  4 22 15 20  8 21  7]"
3800,337.0,0.984375,6,2,335.9904315471649,5.308241844177246,34849,146272,893916,6327567,"[ 1  3  2  1  0  2  5  2  0  0  1  3  0  2  0  1  1  3  0  0  3  4  6  2
  3  1  3  2  5  1  0  2  1  0 11  3  5  2  3  1  9 10  2  4 10  1 16 18
  0 10 14  4 10 14  3 18  1  1  0  0  0 23  0  1 22 15  0  1 22  1 18 14
  2 21 15 20  8 21  7]"
3900,337.0,0.984375,6,2,336.53203415870667,5.4160261154174805,34908,146672,896902,6346612,"[ 5  0  2  1  0  2  3  3  1  0  1  3  0  2  0  3  4  0  0  0  3  1  3  0
  0  2  7  3  6  2  0  2  1  4 11 10  4  6 13  0 11 10  5  5 11  3 16  3
  0 10 14  4 10 14  1  1 10  5  0 12  3  1 18  2  2 16  3  1 21  4 18 15
  3 21  2 20  8 21  7]"
4000,337.0,0.984375,6,2,337.06826519966125,5.362310409545898,34965,147072,899777,6364463,"[ 2  0  2  1  0  3  3  0  1  0  1  3  0  2  0  5  3  6  0  0  3  1  4  3
  1  0  6  0  1  7  0  2  1  5 12 10  1  6  0  1  9  7  0  1 11  2  3  3
  0 10 14  4 10 14  5  1 18  2  9 16  4  1  3  1  0 14  5  2 21  2 18  2
  0 21  2 20  8 21  7]"
4100,337.0,0.984375,6,2,337.6562132835388,5.879480838775635,35013,147472,902848,6383636,"[ 2  0  0  4  1  0  2  2  0  0  1  3  0  2  0  1  8  8  0  0  3  2  4  6
  3  5  3  3  7  3  0  2  1  2 13  9  2  4  6  4 13  7  3  7  4  2  3  9
  0 10 14  4 10 14  4  1 12  0 13  2  0 22  0  0 21 21  3 18 23  4 17  2
  0  1  2 20  8 21  7]"
4200,337.0,0.984375,6,2,338.2129445075989,5.567312240600586,35078,147872,905715,6401624,"[ 3  3  2  0  1  0  2  2  0  0  1  3  0  2  0  3  0  3  0  0  3  0  1  6
  2  7  7  1  7  3  0  2  1  2  2  0  3  4  1  4  8 13  3  4  2  1  2 16
  0 10 14  4 10 14  0 17 12  0  0 14  0 20 21  1 21 21  0 19 20  4  1  2
  0  1 17 20  8 21  7]"
4300,337.0,0.984375,6,2,338.7843315601349,5.713870525360107,35128,148272,908849,6421392,"[ 3  3  1  0  0  1  1  0  0  0  1  3  0  2  0  3  4  7  0  0  3  4  0  6
  1  2  2  0  5  3  0  2  1  4  4  8  2  1  5  3 12  0  4  4 11  4  2 11
  0 10 14  4 10 14  3 16 12  4 18  2  4  1 14  1  2 14  0  3  3  5 18  2
  2  2 18 20  8 21  7]"
4400,337.0,0.984375,6,2,339.336993932724,5.526623725891113,35189,148672,911847,6440544,"[ 3  1  2  3  2  0  0  1  0  0  1  3  0  2  0  0  1  1  0  0  3  0  4  8
  0  2  7  5  5  4  0  2  1  3  2  8  2 10  5  3  4  6  1  4  1  3  3 11
  0 10 14  4 10 14  4 16 18  5 18 12  1 14 14  5 22 18  3  0 16  1 17 19
  1 16  0 20  8 21  7]"
4500,337.0,0.984375,6,2,339.87831926345825,5.413253307342529,35245,149072,914652,6457944,"[ 1  2  3  1  2  0  4  1  3  0  1  3  0  2  0  5  3  2  0  0  3  3  6  3
  0  5  0  3  3  1  0  2  1  0  2  3  4  5 11  3  4  9  2  2  1  4 11 17
  0 10 14  4 10 14  5 18  9  2  2 12  5  1 21  1 15  3  0 23 22  4 22 18
  2 17  0 20  8 21  7]"
4600,337.0,0.984375,6,2,340.4635899066925,5.852706432342529,35309,149472,917429,6475222,"[ 0  2  3  1  2  0  4  0  3  0  1  3  0  2  0  5  4  4  0  0  3  2  3  3
  0  1  3  2  6  1  0  2  1  5 10  3  4  0 13  3  0 11  2  8 13  5 12 17
  0 10 14  4 10 14  4 18 11  5  1  3  2  1 21  2  2 17  2 15 17  4 22  3
  2 17 19 20  8 21  7]"
4700,337.0,0.984375,6,2,341.02923250198364,5.656425952911377,35374,149872,920212,6492761,"[ 0  3  2  1  0  0  4  2  3  0  2  0  0  2  0  0  7  7  0  0  3  2  3  1
  0  1  3  0  3  2  0  2  1  2 11  0  3 11  0  2  2 12  4  8  2  5 12 18
  0 10 14  4 10 14  4 14 13  4 18  3  3  2 21  4 18  3  0  3 16  0 21  1
  2  3 14 20  8 21 12]"
4800,337.0,0.984375,6,2,341.58591318130493,5.566806793212891,35439,150272,923234,6511672,"[ 1  2  2  1  0  0  0  2  1  5  3  2  0  2  0  4  1  3  0  0  3  4  1  1
  0  1  3  3  3  7  0  2  1  0  5 11  4  2  8  3 10 12  4  4  6  5 18 18
  0 10 14  4 10 14  4 14  0  0 11  3  1  2 21  4 15 23  3  0 19  0 21  2
  2  3 18 20  8 21 12]"
4900,337.0,0.984375,6,2,342.165242433548,5.79329252243042,35500,150672,926108,6529916,"[ 2  2  1  0  2  3  3  2  1  2  0  1  0  2  0  4  6  3  0  0  3  3  3  8
  0  1  3  3  6  7  0  2  1  0  4  9  5  0  0  3  1  7  4  3  0  0 18 11
  0 10 14  4 10 14  5 14  1  0 17  3  1 17 21  4 15 23  3  2 16  2  0 22
  2 18 21 20  8 21 12]"
5000,337.0,0.984375,6,2,342.7893908023834,6.241483688354492,35556,151072,929133,6549639,"[ 2  2  1  5  2  0  0  2  0  5  2  2  0  2  0  5  5  4  0  0  3  2  6  2
  0  1  3  4  7  7  0  2  1  1  8  2  1  5  8  3  9 13  4  1 12  4 17 15
  0 10 14  4 10 14  2 15  1  4  3  2  3 23 18  5 20 20  0 21 16  5 17 23
  5 18 22 20  8 21 12]"
5100,337.0,0.984375,6,2,343.34743762016296,5.58046817779541,35624,151472,931965,6567636,"[ 2  2  2  1  2  2  0  1  0  5  0  2  0  2  0  2  2  6  0  0  3  2  2  2
  0  1  3  2  7  8  0  2  1  0  9  9  1  5  8  0  3 13  2  1  3  4 17 15
  0 10 14  4 10 14  2 14  1  4  9  2  3 14  0  4 19 20  4 21 23  0 21 21
  0 18 22 20  8 21 12]"
5200,337.0,0.984375,6,2,343.87305998802185,5.256223678588867,35685,151872,934690,6584841,"[ 0  2  1  2  3  3  2  3  1  3  0  3  0  2  0  2  2  0  0  0  3  5  2  1
  0  1  3  1  7  0  0  2  1  1  9 12  3 10  7  5 10 10  1  6  0  0 17  3
  0 10 14  4 10 14  3 15 16  5  2  2  1  2 15  2 23 18  3 17 15  1 18 23
  4  3 23 20  8 21 12]"
5300,337.0,0.984375,6,2,344.42783308029175,5.547730922698975,35743,152272,937562,6602827,"[ 4  2  1  2  1  3  2  1  1  1  0  1  0  2  0  2  7  7  0  0  3  5  2  0
  0  1  3  0  3  3  0  2  1  1 10  3  3  8  0  5 10 10  0  9  8  0 15  9
  0 10 14  4 10 14  3  9 16  4  2  9  3  2  1  0 23  0  1  0 15  3 18  2
  5 20 20 20  8 21 12]"
5400,337.0,0.984375,6,2,344.9798917770386,5.520586967468262,35801,152672,940530,6621544,"[ 4  1  2  1  0  3  3  1  0  2  0  3  0  2  0  0  6  2  0  0  3  4  0  2
  0  1  3  1  4  3  0  2  1  5  6  0  5  9  1  5 11  5  3  0 12  5 14  1
  0 10 14  4 10 14  2  1  2  3  0  9  1  2 22  1 14  0  0  2  3  3  2  3
  5 17 18 20  8 21 12]"
5500,337.0,0.984375,6,2,345.49032282829285,5.104310512542725,35864,153072,943290,6638948,"[ 0  3  2  4  1  0  3  1  0  2  3  1  0  2  0  0  5  0  0  0  3  0  7  2
  0  1  3  3  4  3  0  2  1  4  3 13  4  4 10  5 10  5  3 11 11  5 18 12
  0 10 14  4 10 14  2 15  2  5  0  2  2 15 14  5 22  0  2  2 17  3 16 14
  0  3 20 20  8 21 12]"
5600,337.0,0.984375,6,2,346.02428126335144,5.3395843505859375,35927,153472,946215,6657478,"[ 0  2  3  1  1  0  2  3  1  2  3  0  0  2  0  0  2  8  0  0  3  0  6  0
  0  1  3  2  0  7  0  2  1  4 10  3  0 13  4  0  3  2  3  4  0  3 12 11
  0 10 14  4 10 14  3 11 12  5 18  9  5 15 19  0 22 19  5 16 17  4 23 17
  0 23 20 20  8 21 12]"
5700,337.0,0.984375,6,2,346.6084656715393,5.841844081878662,35989,153872,949406,6677527,"[ 0  2  0  1  3  3  4  3  0  4  3  0  0  2  0  5  5  7  0  0  3  0  7  4
  0  1  3  4  0  0  0  2  1  4  0  3  2  6  3  0  9  7  1  4  1  1 14 15
  0 10 14  4 10 14  5 11  9  3 18  3  0  0  2  3 16 20  5 16 17  0 23 19
  1 21 20 20  8 21 12]"
5800,337.0,0.984375,6,2,347.1592047214508,5.50739049911499,36048,154272,952216,6695480,"[ 4  0  1  3  1  3  2  3  0  1  3  2  5  0  0  1  0  8  0  0  3  3  7  1
  0  1  3  5  8  7  0  2  1  5 11  3  4  0  8  1  2  7  1 13  2  4 14  2
  0 10 14  4 10 14  2 13  9  5 13  1  0  0  2  3 18  3  5 21 21  1 20 23
  0 16 20 20 24 21 12]"
5900,337.0,0.984375,6,2,347.7080092430115,5.4880452156066895,36112,154672,955074,6714336,"[ 4  2  1  3  3  1  0  3  0  5  0  1  0  2  3  1  7  8  0  0  3  3  7  6
  0  1  3  1  8  2  0  2  1  5 11  2  0  0  7  4  9  7  0 13  3  5 15 13
  0 10 14  4 10 14  4  1 13  0 13 17  0  0  2  2 21  3  5 18  1  2  1 18
  2 16 20 20 24 21 12]"
6000,337.0,0.984375,6,2,348.23588490486145,5.278756618499756,36183,155072,957841,6732357,"[ 2  0  3  4  3  3  4  3  0  4  1  3  2  3  1  3  2  0  0  0  3  4  7  8
  0  1  3  2  3  6  0  2  1  5 13  3  0  9  0  4  8 12  5  5  3  5  3 11
  0 10 14  4 10 14  4  1 15  5  1 12  0  0  2  2 21  3  3 20  0  5 14 18
  3  1  0 20 24 21 12]"
6100,337.0,0.984375,6,2,348.77770256996155,5.418176651000977,36243,155472,960566,6749425,"[ 5  3  1  5  0  3  3  3  1  5  2  2  4  3  1  3  2  2  0  0  3  2  1  3
  0  1  3  0  5  8  0  2  1  4 12  1  5  6  0  4  2  1  5  5  5  5  9 17
  0 10 14  4 10 14  2  0 15  3  1 12  0  0  2  5 18  1  1  3 17  5 14  3
  3  1 21 20 24 21 12]"
6200,337.0,0.984375,6,2,349.38162755966187,6.039249897003174,36310,155872,963367,6767408,"[ 5  2  3  4  1  3  1  1  0  2  2  2  0  2  1  5  2  2  0  0  3  2  1  3
  0  1  3  3  5  6  0  2  1  0 13  1  1  6  0  4  2  9  1  2  7  5 17 14
  0 10 14  4 10 14  2  0  1  1 15 12  0  0  2  2  2 23  1  3 20  5  1 22
  3 16  0 20 24 21 12]"
6300,337.0,0.984375,6,2,350.00596022605896,6.243326663970947,36381,156272,966079,6785106,"[ 5  1  3  4  3  2  1  3  0  4  0  3  4  2  3  1  2  2  0  0  3  4  5  3
  0  1  3  3  5  4  0  2  1  0  3  5  4  3  6  3  2  9  1  2  7  2 12 11
  0 10 14  4 10 14  2  0  3  1  1 11  0  0  2  5  2  2  1  3 20  5  1  2
  3 23  2 20 24 21 12]"
6400,337.0,0.984375,6,2,350.5269627571106,5.210025310516357,36448,156672,968794,6802654,"[ 4  1  3  0  3  1  0  2  0  4  0  0  4  3  2  4  7  6  0  0  3  4  4  3
  0  1  3  5  1  4  0  2  1  2 12 10  0  3  6  5  5  9  4 12  9  3 12 11
  0 10 14  4 10 14  2  3  3  5  3  2  0  0  2  4  1  2  1  3 16  5 14  2
  1 19 19 20 24 21 12]"
6500,337.0,0.984375,6,2,351.0881531238556,5.611903667449951,36515,157072,971738,6821579,"[ 5  3  1  5  3  2  4  1  2  0  0  0  0  2  3  4  8  0  0  0  3  3  8  0
  0  1  3  1  5  6  0  2  1  2  8  6  1  4  6  3  7  4  5  0  9  1 13 10
  0 10 14  4 10 14  2  3 14  2  3  0  0  0  2  4  1 23  1  2  3  5  1  2
  5 16 21 20 24 21 12]"
6600,337.0,0.984375,6,2,351.6155879497528,5.274348258972168,36580,157472,974501,6839431,"[ 2  1  3  0  3  3  4  1  2  4  0  2  4  0  0  4  8  1  0  0  3  4  6  6
  0  1  3  0  5  1  0  2  1  2  9 10  1  1  0  1  6  4  0  0 11  1  3 10
  0 10 14  4 10 14  2 15  1  1  1  9  0  0  2  0  1  3  1 18 18  5  0  2
  4 16 20 20 24 21 12]"
6700,337.0,0.984375,6,2,352.169415473938,5.538275241851807,36640,157872,977475,6858402,"[ 0  1  0  2  3  2  5  1  0  1  0  1  0  0  3  2  0  1  0  0  3  0  4  2
  0  1  3  0  3  1  0  2  1  2  9 13  0 10  0  4  9  1  5  0  8  3 12  9
  0 10 14  4 10 14  2 15  1  5  0 12  0  0  2  5 17  1  3 21 15  3 15  0
  4 17 20 20 24 21 12]"
6800,337.0,0.984375,6,2,352.73581624031067,5.664007663726807,36707,158272,980293,6876617,"[ 2  1  0  0  3  2  1  3  3  1  2  3  0  0  2  2  4  1  0  0  3  2  4  2
  4  1  3  0  3  1  0  2  1  3  6  9  0  6 11  4  9  1  3  1  9  2  1 17
  0 10 14  4 10 14  5 13 13  2 15  2  0  0  2  3 20 18  0 15 23  5 20  0
  0 20 20 20 24 21 13]"
6900,337.0,0.984375,6,2,353.28187799453735,5.460617542266846,36781,158672,982997,6894296,"[ 2  0  0  0  1  0  1  2  1  4  2  0  2  0  2  3  4  1  0  0  3  0  2  7
  3  3  8  0  3  1  0  2  1  2  6  9  0  6  3  5  6  7  2  4  0  0 11  0
  0 10 14  4 10 14  3 13 16  2 14 10  0  0  2  2  1 18  1  1 23  5 23 14
  0 20 20 20 24 21 13]"
6973,341,1.0,8,3,353.80015444755554,7.099677438605322,36824,158964,985152,6908174,"[ 2  0  3  1  0  2  2  2  0  4  2  0  3  1  0  3  1  1  0  0  3  0  6  3
  3  8  4  0  3  1  0  2  1  2  4  4  5  7  0  3  6 13  5 13  0  5 11 15
  0 10 14  4 10 14  3 17  3  3  2 10  0 17  2  0  0 23  1  3  3  5 23 16
  0 18 14 20 24 21 13]"
7000,341,1.0,8,3,353.9527621269226,5.652136272854275,36841,159072,985727,6912725,"[ 2  0  3  1  0  2  4  2  0  4  3  0  3  1  0  0  6  2  0  0  3  0  6  3
  3  8  4  0  3  1  0  2  1  2  4  4  2  7  0  3  6 13  5 13  0  5 11 15
  0 10 14  4 10 14  3 17  3  2  2 15  0 17  2  0  0 23  4  3  3  0 23 16
  0 18 14 20 24 21 13]"
7100,341,1.0,8,3,354.55349016189575,6.007280349731445,36899,159472,988113,6931630,"[ 4  3  3  1  0  3  4  0  2  4  2  2  3  2  2  0  2  2  0  0  3  0  1  0
  0  8  2  0  3  1  0  2  1  5  4  3  3 13  0  3  6 13  1 13  3  4 14 12
  0 10 14  4 10 14  1  3 15  2 12 15  0 17  0  3 14 14  2 21 17  0 23 18
  0 23  0 20 24 21 13]"
7156,343,1.0,7,2,354.90074610710144,6.200999021530151,36931,159696,989594,6943204,"[ 1  3  3  1  3  2  2  2  0  5  2  2  2  2  2  0  2  3  0  0  3  5  2  0
  1  7  3  0  3  1  0  2  1  5  8  3  4 13  4  3  6 13  1 13  0  3 17 17
  0 10 14  4 10 14  4  1 15  2 11 16  0 17  0  2 15 23  0 21 17  4 23  1
  0 20 18 20 17 21 13]"
