generation,fitness,functionality,active_nodes,longest_path,time,gen_time,nc_gens,fitness_evals,graph_evals,node_evals,genotype
0,186.0,0.53125,11,3,0.006613492965698242,6.611108779907227,0,0,0,0,"[ 1  1  2  5  3  1  4  1  3  3  2  0  0  1  3  5  4  1  3  0  1  2  8  8
  1  6  1  1  1  0  1  6  2  5  5  3  0  9 11  0  3  7  4  3  2  5 15 16
  0 13 18  2 18  3  0 15 15  3 10 12  5 19  3  0  1  1  0 22  3  5 21 15
  2 15 20  1 20 22 16]"
100,311.0,0.90625,5,4,13.111691236495972,131.05074882507324,0,12800,149248,891119,"[ 1  2  2  0  0  3  4  2  1  4  1  1  2  1  3  4  7  4  4  6  7  5  7  8
  1  8  5  0  1  5  4  2  1  4  7 10  0  6  1  0 11  5  4 11  2  0 16 10
  0  0 18  5  3 10  3 11  0  2  1 17  4 23 14  4 21 18  1 23  3  2  3 21
  2 22  3  7 20 20 11]"
200,316.0,0.921875,6,3,25.88249635696411,127.7080273628235,0,25600,299214,1759845,"[ 4  2  1  0  1  2  3  2  0  4  1  1  2  1  3  4  1  1  2  5  4  3  8  8
  5  6  4  5  3  0  1  2  0  2  0  9  2 10  7  0  2  8  2  1 10  5 13  2
  0  0 17  2 15  2  0 18  1  4 12 12  3 21 17  5  2 16  1 14 16  3 18  0
  0  0 14  7 20  5 11]"
300,316.0,0.921875,6,3,39.88828444480896,140.05783557891846,0,38400,459810,2753403,"[ 2  2  2  0  1  2  1  2  1  4  1  1  2  1  3  5  7  8  2  4  1  1  6  2
  3  4  0  5  6  0  1  1 11  5  0  7  4  1 10  0  2  8  2  2  5  0 17 13
  0  0 17  1 12 15  0 15  2  5 14 11  3 16  1  1 22 20  2 16 16  0 15 17
  2 15 17  7 20  5  9]"
400,333.0,0.984375,9,3,52.993061780929565,131.04774951934814,0,51200,580154,3731027,"[ 2  3  0  0  1  2  4  1  2  4  1  1  2  1  3  5  8  7  2  6  3  5  3  4
  4  5  4  2  7  4  2  5 12  4  0 12  4 13 13  0  2  8  0  4  4  4  0  1
  0  0 17  1  1 18  3 12 12  1 17  1  1 19 22  1 20 18  2 22 16  2 14 18
  1 15 23  7 20 22  9]"
456,339,1.0,10,3,59.65062212944031,118.88496790613446,0,58368,634379,4218178,"[ 2  3  0  0  1  2  4  0  1  4  1  1  2  1  3  5  8  7  1  0  7  1  0  2
  4  5  4  0  2  6  0  5 12  4 12 12  1  4  9  0  2  8  2  4  9  5 18  1
  0  0 17  0 18 14  3 12 12  0 17 12  4  1 16  4  2 15  3 23  2  5 22 14
  4 18  0 14 20 22  9]"
500,340,1.0,9,3,64.06757116317749,100.38514028895986,0,64000,667499,4526494,"[ 2  3  0  0  1  2  3  0  1  4  0  0  2  1  3  3  8  8  4  7  5  3  5  2
  4  5  4  0  2  6  0  5 12  4 12  7  1  4  9  0  2  8  2  4  9  4 11 10
  0  0 17  0  9 14  2 12 12  0 15  0  4  1 15  2  0  1  3 17 19  5 14 17
  4 18  0 14 20 22  9]"
600,340,1.0,9,3,73.8826961517334,98.15122842788696,0,76800,742824,5200181,"[ 2  3  0  0  1  2  5  0  1  0  0  0  2  1  3  3  8  8  4  1  5  1  5  6
  4  5  4  4  3  3  0  5 12  0 13  9  2  6  9  0  2  8  5 11  1  4 10 18
  0  0 17  4 11 18  3 12 12  0 16  9  1 18 16  2  2 16  3 20 18  5 14 23
  0 16  0 14 20 22  9]"
700,340,1.0,9,3,83.58505392074585,97.02354907989502,0,89600,816002,5854891,"[ 2  3  0  0  1  2  0  3  3  3  0  1  2  1  3  3  8  8  2  0  2  2  8  8
  4  5  4  3  6  3  0  5 12  1  5  5  3  3  5  0  2  8  2  4  5  1 18  3
  0  0 17  2  3 10  2 12 12  1 17 17  4 15 19  1 20 20  2  0 17  1  1  2
  1  1  1 14 20 22  9]"
800,340,1.0,9,3,93.36769914627075,97.82642841339111,0,102400,890103,6517137,"[ 2  3  0  0  1  2  4  1  1  3  0  2  2  1  3  2  8  8  3  1  5  1  0  7
  4  5  4  5  6  3  0  5 12  5 10 12  2  4  4  0  2  8  0 11  4  2 13 11
  0  0 17  2 12 18  3 12 12  0  2  9  4  0 18  5  2 14  0 21 17  1  2 22
  0 16  1 14 20 22  9]"
900,340,1.0,9,3,103.11187815666199,97.44176387786865,0,115200,963895,7177912,"[ 2  3  0  0  1  2  1  3  0  0  3  2  2  1  3  3  8  8  4  1  5  4  7  7
  4  5  4  0  7  3  0  5 12  0  3  4  4 12  3  0  2  8  5  6  5  2  9  9
  0  0 17  5 15  3  3 12 12  3  3  0  4 17 22  0 19 19  4 22 17  0  1  1
  0  2 22 14 20 22  9]"
1000,340,1.0,9,3,113.00520873069763,98.93327951431274,0,128000,1039203,7850851,"[ 2  3  0  0  1  2  3  1  0  3  0  2  2  1  3  3  8  8  0  7  2  3  4  8
  4  5  4  2  7  7  0  5 12  0  6 11  0  2  5  0  2  8  4  6  2  4  2 17
  0  0 17  5  1 14  3 12 12  1  2  1  5 22 23  4 23 19  3 15 19  5 20 20
  1 18 21 14 20 22  9]"
1100,340,1.0,9,3,122.60180044174194,95.9658932685852,0,140800,1110957,8492686,"[ 2  3  0  0  1  2  5  0  1  5  0  1  2  1  3  2  8  8  5  0  1  0  1  5
  4  5  4  2  4  3  0  5 12  4  7  1  5  9  9  0  2  8  2  6  7  2 16  3
  0  0 17  5 14 11  2 12 12  2 11 11  2 15 14  2  3 23  4  1 18  1 15  2
  1 18  3 14 20 22  9]"
1200,340,1.0,9,3,132.39111304283142,97.8930926322937,0,153600,1185370,9157624,"[ 2  3  0  0  1  2  0  3  1  0  0  2  2  1  3  3  8  8  5  4  5  1  4  4
  4  5  4  0  7  3  0  5 12  2  6  5  0 11 13  0  2  8  5  9  8  3  0  3
  0  0 17  2  9 15  2 13 12  2 11 14  3 18  3  0  3 22  0  1 19  0  0 21
  2 23 16 14 20 10  9]"
1300,340,1.0,9,3,142.92068219184875,105.29566287994385,0,166400,1269467,9906212,"[ 2  3  0  0  1  2  4  1  0  1  1  0  2  1  3  3  8  8  5  4  5  3  4  8
  5  2  7  5  8  3  0  5 11  0  2  1  4 12  1  0  2  8  3  5 10  0 11 18
  0  0 17  0 18 18  0 11 15  2  3 13  2  2 18  3 20 14  2 15 14  5 21 22
  2  0  2 14 20 10  9]"
1400,340,1.0,9,3,153.4493477344513,105.28663158416748,0,179200,1353429,10652280,"[ 2  3  0  0  1  2  0  1  0  0  2  1  2  1  3  2  8  8  5  4  7  3  4  8
  1  1  2  1  6  5  0  2 11  3  4  5  4  6 13  0  2  8  2  3  1  5 11 18
  0  0 17  2 10 18  1  1 18  5 14 18  5  2 18  3 16 20  2  2 17  1 19 23
  4 17 22 14 20 10  9]"
1500,340,1.0,9,3,164.1024248600006,106.53074502944946,0,192000,1438621,11408951,"[ 2  3  0  0  0  2  5  3  2  0  2  1  2  1  3  3  8  8  5  4  7  3  4  4
  2  1  8  5  6  4  0  7 11  1  5  1  0  4  4  0  2  8  4  3  1  2  3 17
  0  0 17  3  0  0  3 18 15  3  1 18  3 17  1  1 21 17  5 15 16  1 21 22
  0 23 21 14 20 10  9]"
1600,340,1.0,9,3,174.67640805244446,105.73980331420898,0,204800,1523080,12159890,"[ 2  3  0  3  3  3  4  2  0  0  2  1  2  1  3  2  8  8  5  4  7  3  8  4
  1  2  2  1  2  8  0  7 11  5 13 11  5 12  0  0  2  8  5 13  9  1  2 12
  0  0 17  3  2  9  3 18  2  0  1 17  0  2  1  0 18 20  0 21 21  2  2 16
  4 17 23 14 20 10  9]"
1700,340,1.0,9,3,185.20441222190857,105.28001546859741,0,217600,1605940,12897523,"[ 2  3  0  1  3  2  1  2  0  0  2  1  2  1  3  3  8  8  5  4  7  2  4  7
  1  4  4  1  2  7  0  7 11  2  9 11  2  3  9  0  2  8  5 13 13  5  0 10
  0  0 17  5 15  1  2 11  3  1 10  2  3  1 21  0  2 23  2 14 23  1  3 23
  5  2  1 14 20 10  9]"
1800,340,1.0,9,3,195.485036611557,102.80621528625488,0,230400,1684607,13598887,"[ 2  3  0  2  0  2  1  1  2  0  2  1  2  1  3  2  8  8  5  4  7  2  4  7
  3  3  1  2  7  2  0  7 11  0  6  5  2  7 13  0  2  8  2  7 13  4  1 15
  0  0 17  3 17 10  3 17 13  1 11  0  4 14 22  3 20 22  1 20 18  4 18 14
  0  2 16 14 20 10  9]"
1900,340,1.0,9,3,205.8680386543274,103.82999420166016,0,243200,1766541,14328891,"[ 2  3  0  2  1  2  0  2  0  0  2  1  2  1  3  3  8  8  5  4  7  4  4  2
  0  0  0  2  4  8  0  7 11  4  4 12  3  7  9  0  2  8  4  4  2  1 12 10
  0  0 17  0  2  2  1 16 13  2  9 10  2 15 19  2  2  1  2 18 15  5 21 22
  5  2 20 14 20 10  9]"
2000,340,1.0,9,3,216.65441226959229,107.86370754241943,0,256000,1852581,15094062,"[ 2  3  0  5  1  0  4  2  3  0  2  1  2  1  3  1  8  8  5  4  7  3  8  4
  5  2  2  3  4  7  0  7 11  4  0  2  3 10 11  0  2  8  2  7  8  4 13 13
  0  0 17  3 14 15  0  2 15  0 16 13  1 22 22  0  1  3  4 14  0  4 21 20
  2 22 16 14 20 10 25]"
2100,340,1.0,9,3,228.1254072189331,114.7099232673645,0,268800,1945426,15918388,"[ 2  3  0  5  2  0  0  3  0  0  2  1  2  1  3  4  0  3  5  4  7  2  1  4
  2  1  2  5  0  1  0  7 11  0  7  2  2 12  3  0  2  8  3  5  0  4 16  9
  0  0 17  3  9 17  0 11 11  4 18  3  5 22  2  0  1  3  4 20 18  3  0  2
  1 23 20 14 20 10 25]"
2200,340,1.0,9,3,239.33093070983887,112.05520629882812,0,281600,2036709,16725201,"[ 2  3  0  1  2  3  2  1  3  0  2  1  1  2  3  3  8  2  5  4  7  4  1  4
  3  4  5  4  0  8  0  7 11  1  4 12  0  8  3  0  2  6  2 12  7  1 16 15
  0  0 17  2  9  3  3 11 10  1 13 10  5 19 18  0  1  3  3  3 14  1  1  0
  5  3  3 14 20 10 25]"
2300,340,1.0,9,3,250.12761068344116,107.96677350997925,0,294400,2125057,17507299,"[ 2  3  0  0  3  3  2  1  3  0  2  1  2  0  2  5  5  2  5  4  7  4  2  4
  4  7  8  2  4  4  0  7 11  2 10  6  0 12  4  0  2  6  4  2  7  1  9 15
  0  0 17  3 12  3  0 12 12  0 17  1  5 20 14  0  1  3  2  3 16  3 15 20
  1  0 23 14 20 10 25]"
2400,340,1.0,9,3,261.05518889427185,109.27575826644897,0,307200,2214566,18298272,"[ 2  3  0  5  3  3  2  1  3  0  2  1  4  3  2  4  2  1  5  4  7  0  4  5
  5  8  2  4  2  4  0  7 13  4 13 11  2  5  4  0  2  6  4  3 10  0  9 11
  0  0 17  5 13 13  4 10 12  5  3  2  0 17  3  0  1  3  2  1 20  3 17 19
  1  2 15 14 20 10 25]"
2500,340,1.0,9,3,272.0774095058441,110.22217273712158,0,320000,2304001,19089520,"[ 2  3  0  5  3  0  2  1  3  0  2  1  4  0  2  0  0  3  5  4  7  4  1  4
  4  5  1  4  2  4  0  7 13  0  5  5  0  6  0  0  2  6  5  1  8  2  1 12
  0  0 17  2 18  0  2 11 13  2  0  2  4 16 16  0  1  3  5 19 21  4 17 16
  0 14 20 14 20 10 25]"
2600,340,1.0,9,3,283.16841435432434,110.91002225875854,0,332800,2395230,19895033,"[ 2  3  0  1  0  3  2  1  3  0  2  1  5  0  3  0  0  3  5  4  7  0  6  2
  4  0  4  4  2  5  0  7  9  2  4  8  5 11  6  0  2  6  2  3  8  3  2 10
  0  0 17  5 17 13  5 18 15  4  1  9  2 19 16  0  1  3  0 20  3  2  3 17
  4  1  0 14 20 10 25]"
2700,340,1.0,9,3,294.4936492443085,113.25232267379761,0,345600,2488072,20715610,"[ 2  3  0  4  1  0  2  1  3  0  2  1  2  1  2  0  0  3  5  4  7  2  1  8
  3  8  0  3  0  7  0  7  9  1  5 10  4  3 11  0  2  6  3  4  5  3 15 18
  0  0 17  3 14 16  5 15 11  2  0 13  3 22 17  0  1  3  2 14 20  4 23  2
  2 15 18 14 20 10 25]"
2800,340,1.0,9,3,305.5961015224457,111.02449893951416,0,358400,2579730,21524613,"[ 2  3  0  3  3  3  2  1  3  0  2  1  2  3  0  0  0  1  5  4  7  4  4  2
  5  7  4  1  4  4  0  7 11  0  2  3  2  0  7  0  2  6  1  9 11  3 14 18
  0  0 17  4  1 11  0 16 17  0  9 12  1 15 16  0  1  3  1 19 18  5  1  1
  1 16 19 14 20 10 25]"
2900,340,1.0,9,3,316.7370159626007,111.40912055969238,0,371200,2670339,22325370,"[ 2  3  0  1  1  2  2  1  3  0  2  1  1  0  3  0  0  2  5  4  7  2  1  4
  1  2  6  2  2  2  0  7 11  5  7  0  2  1  9  0  2  6  4  7 12  2 15 16
  0  0 17  3  3 18  5 10  3  3 16 16  2  1 18  0  1  3  2 21 21  3 17 19
  2 23 23 14 20 10 25]"
3000,340,1.0,9,3,327.6690652370453,109.3204665184021,0,384000,2758666,23107592,"[ 2  3  0  5  2  0  2  1  3  0  2  1  2  3  3  4  7  2  5  4  7  1  0  2
  5  1  3  4  7  4  0  7 13  2  0  9  5  1  5  0  2  6  0  4  2  1 16 17
  0  0 17  3  3 11  5  2 10  2 14 12  0 16  1  0  1  3  0  1  3  0  2 20
  0 17 20 14 20 10 25]"
3100,340,1.0,9,3,338.5229334831238,108.53865623474121,0,396800,2847104,23889407,"[ 2  3  0  0  1  2  2  1  3  0  2  1  4  0  1  5  6  2  5  4  7  2  8  4
  0  1  2  2  4  1  0  7 13  2  6  6  2  0  3  3  8 12  0  2  6  0 12 11
  0  0 18  3 16 14  0  9  3  2  9  9  0 16  1  0  1  3  1 15 21  4  2 17
  2  2 22 14 20 10 25]"
3200,340,1.0,9,3,349.5911617279053,110.68225622177124,0,409600,2936883,24682728,"[ 2  3  0  5  1  2  1  3  1  0  2  1  2  3  1  3  1  4  5  4  7  5  4  0
  3  4  6  4  2  4  0  7 13  2 13  2  0  2 10  1  6 12  0  2  8  1 10 14
  0  0 18  5 11  2  2 13 15  2 10  0  1 22 14  0  1  3  4  2 19  3 20  1
  4 17 19 14 20 10 25]"
3300,340,1.0,9,3,360.68186044692993,110.90696096420288,0,422400,3025845,25469835,"[ 2  3  0  2  0  0  5  1  1  0  2  1  2  3  1  0  4  2  5  4  7  2  4  7
  5  5  0  1  2  0  0  7 11  2  7 10  0 10  6  4 13  3  0  2  8  5 16 18
  0  0 18  2 17 11  2 15 13  5  1 18  4 16 14  0  1  3  2 14  2  4 14 19
  4 23  2 14 20 10 25]"
3400,341,1.0,8,3,371.7012095451355,110.19346237182617,0,435200,3114655,26251263,"[ 2  3  0  2  1  2  4  0  3  0  2  1  2  3  1  2  5  5  5  4  7  2  4  7
  0  8  0  5  3  3  0  7 11  5  0 10  3 10  4  2  5  4  0  2  8  1 14 18
  0  0 18  3  2 11  2  9 16  3 16 15  4 22 14  0  1  3  2 15  2  1 20 17
  5 16  0 16 20 10 25]"
3500,341,1.0,8,3,381.37154626846313,96.70334100723267,0,448000,3197234,26900169,"[ 2  3  0  2  3  3  0  2  0  0  2  1  2  3  1  2  2  3  5  4  7  1  2  4
  5  3  7  5  3  1  0  2  6  0  2  5  3 10  4  2 11  3  0  2  8  0  0  3
  0  0 18  2  9 15  0  1 10  5 12 12  4 17 17  0  1  3  4 20  2  3 16 16
  0  1 21 16 20 10 25]"
3600,341,1.0,8,3,391.0196475982666,96.48098230361938,0,460800,3280174,27553529,"[ 2  3  0  5  2  2  5  0  3  0  2  1  2  3  1  0  7  6  5  4  7  2  3  8
  2  1  4  5  6  7  1  8 13  0  6  3  3 10  4  4 11  0  0  2  8  5 15  1
  0  0 18  5 16 14  4 13  1  3 12 12  4 17 17  0  1  3  5 16 20  4 23  2
  5 17  2 16 20 10 25]"
3700,341,1.0,8,3,400.7025685310364,96.82918310165405,0,473600,3362402,28202036,"[ 2  3  0  2  3  1  4  1  0  0  2  1  2  3  1  2  7  4  5  4  7  1  0  8
  1  1  2  3  8  7  2  3  9  3  4  3  3 10  4  1  3 10  0  2  5  2  3 11
  0  0 18  1 10 12  0  1 12  4  9  9  5 23 21  0  1  3  4 23  1  3 23  2
  1 20 23 16 20 10 25]"
3800,341,1.0,8,3,410.37548089027405,96.72909259796143,0,486400,3444517,28849220,"[ 2  3  0  2  3  1  4  0  3  0  2  1  5  2  0  5  3  0  5  4  7  0  2  5
  4  6  2  4  0  5  2 11  6  2  8  7  3 10  4  5  6  0  0  2  5  5 11 16
  0  0 18  3 10 14  1 17 12  2  9 12  4 22 21  0  1  3  4 21  2  5  1 17
  0 16 21 16 20 10 25]"
3900,341,1.0,8,3,419.97226643562317,95.9678316116333,0,499200,3526881,29498356,"[ 2  3  0  2  3  1  1  3  3  0  2  1  0  0  3  0  4  0  5  4  7  0  0  6
  1  3  5  3  8  7  0  1  2  1  3  5  3 10  4  4  2  2  0  2  5  4  0 11
  0  0 18  4 15 14  3 18 13  1  0 18  2 19 16  0  1  3  2 23 23  3  3 15
  5 16 21 16 20 10 25]"
4000,341,1.0,8,3,429.78488874435425,98.1261944770813,0,512000,3610362,30155381,"[ 2  3  0  2  3  1  4  3  3  0  2  1  0  0  3  1  2  8  5  4  7  4  7  2
  1  6  8  5  4  1  0  1  4  0  1  4  3 10  4  5  1  3  0  2  5  0 17  0
  0  0 18  3 12  2  3 14 16  5  9 16  3 14  1  0  1  3  4 14 16  2 16 23
  3 18  0 16 20 10 25]"
4100,341,1.0,8,3,439.7395284175873,99.54637050628662,0,524800,3696903,30835411,"[ 2  3  0  2  3  1  0  3  1  0  2  1  1  0  2  0  3  8  5  4  7  4  5  5
  4  7  1  2  0  3  1 12  6  1  4  2  3 10  4  2  5 11  0  2  5  0 12 10
  0  0 18  0 18 16  4 13 12  0 17 11  2 20 21  4 15 17  2  2  3  1 16 18
  1  1 18 16 20 10  6]"
4200,341,1.0,8,3,449.8852300643921,101.4569878578186,0,537600,3784790,31525346,"[ 2  3  0  2  3  1  0  3  1  0  2  1  2  3  2  1  7  6  5  4  7  2  5  1
  1  6  2  4  2  2  4 11  9  5  7  4  3 10  4  4  9 11  0  2  5  5 17  1
  0  0 18  1  0 12  0  2  2  1 11 11  0 16 20  1 17 16  0 22  3  4 16 22
  4 21 15 16 20 10  6]"
4300,341,1.0,8,3,460.20255422592163,103.17321538925171,0,550400,3873645,32222839,"[ 2  3  0  2  3  1  0  3  1  0  2  1  2  3  3  1  3  2  5  4  7  3  3  2
  1  2  7  3  0  0  2  2  6  3 13 10  3 10  4  5 10 13  0  2  5  5 18 18
  0  0 18  1 12 15  0 15 18  4  0 15  2 15 22  2 17 20  5  2 23  5 16  1
  0 22  2 16 20 10  6]"
4400,341,1.0,8,3,470.2732937335968,100.7073712348938,0,563200,3961445,32912761,"[ 2  3  0  2  3  1  0  3  1  0  2  1  1  2  1  4  2  4  5  4  7  3  8  3
  2  0  2  3  2  5  5 10  0  2  9  6  3 10  4  2  7 13  0  2  5  5 16 18
  0  0 18  3  9  2  5  0  1  0 14 15  3 20 20  5 14 16  4 21  1  5 15 14
  3  1 18 16 20 10  6]"
4500,341,1.0,8,3,480.2885944843292,100.15298128128052,0,576000,4049115,33602354,"[ 2  3  0  2  3  1  0  3  1  0  2  1  4  3  3  3  2  5  5  4  7  1  8  1
  3  6  4  4  0  2  1  6  5  0  8  8  3 10  4  5 11 10  0  2  5  5 16 18
  0  0 18  0  9  9  3 17  1  5 15 13  0 21  1  4 21 16  2 18  1  5  3 14
  3 21 17 16 20 10  6]"
4600,341,1.0,8,3,490.2336950302124,99.4509768486023,0,588800,4136029,34285665,"[ 2  3  0  2  3  1  0  3  1  0  2  1  3  3  1  2  0  4  5  4  7  2  5  0
  1  4  8  0  2  3  2 11 12  5  4 10  3 10  4  1  3 10  0  2  5  0 14 12
  0  0 18  5  0 15  1 17 18  5 15 18  3  0  2  4  0 18  5 23  3  0 14 14
  2 22 19 16 20 10  6]"
4700,341,1.0,8,3,500.3866376876831,101.52939796447754,0,601600,4221781,34959292,"[ 2  3  0  2  3  1  0  3  1  0  2  1  2  1  0  1  3  7  5  4  7  3  8  5
  0  5  2  3  4  6  4 10 13  0  2  2  3 10  4  1  4  7  0  2  5  5  1  3
  0  0 18  3  1  9  5 17 13  1 16  0  5 18 22  3  0 17  1  2 21  4 23 22
  5 22 22 16 20 10  6]"
4800,341,1.0,8,3,510.35139179229736,99.64751243591309,0,614400,4308260,35637562,"[ 2  3  0  2  3  1  0  3  1  0  2  1  5  1  0  5  5  7  5  4  7  0  1  3
  4  8  5  1  4  0  0  5  0  4 13  8  3 10  4  2  8  3  0  2  5  5  0  2
  0  0 18  4 13  1  3 17 12  1 16  2  0 23 18  2 21 19  5 20 20  5 19 21
  4 19  2 16 20 10 11]"
4900,341,1.0,8,3,520.4790070056915,101.27612590789795,0,627200,4393562,36309019,"[ 2  3  0  2  3  1  0  2  2  0  2  1  0  3  2  3  8  0  5  4  7  0  1  3
  4  4  5  3  8  1  5  5  9  3  4  6  3 10  4  4  3 13  0  2  5  4  3 12
  0  0 18  2 12 11  5 18  0  4 11  0  4 18 19  0 20 15  2 17  2  0 23 20
  5 22 22 16 20 10 11]"
5000,341,1.0,8,3,530.3751797676086,98.96170139312744,0,640000,4479389,36984100,"[ 2  3  0  2  3  1  5  3  0  0  2  1  5  0  2  2  4  2  5  4  7  0  1  3
  4  4  5  3  2  0  1  1  8  5 13  9  3 10  4  4  1  2  0  2  5  2 16 13
  0  0 18  3  0  3  1 18 12  4  1 18  0 14 14  0 18 19  0 14 16  5 23  1
  1 21 14 16 20 10 11]"
5100,341,1.0,8,3,540.211832523346,98.36650371551514,0,652800,4563619,37645299,"[ 2  3  0  2  3  1  5  2  0  0  2  1  4  1  0  3  4  7  5  4  7  0  1  3
  1  3  7  2  2  1  3  5  4  0 13  9  3 10  4  2  1  7  0  2  5  0 15 18
  0  0 18  1  0 10  1 11 12  4 18  1  4  3 16  4 23  1  5 14 22  3  3  2
  2 20 19 16 20 10 11]"
5200,341,1.0,8,3,550.3071887493134,100.95353841781616,0,665600,4649809,38322034,"[ 2  3  0  2  3  1  3  0  3  0  2  1  3  2  2  2  2  0  5  4  7  0  1  3
  1  2  4  2  4  0  0  7 13  5  3  9  3 10  4  5 11 10  0  2  5  3 13 11
  0  0 18  3  9  0  1 13 12  3  2  2  2 21 21  2 23 14  1 22 20  0 21 23
  2 21 14 16 20 10 11]"
5300,341,1.0,8,3,560.2522232532501,99.45031642913818,0,678400,4736128,39000023,"[ 2  3  0  2  3  1  4  3  0  0  2  1  3  1  2  0  8  0  5  4  7  0  1  3
  3  0  5  3  1  4  4 12 13  2  0  8  3 10  4  3  2  7  0  2  5  5  0 17
  0  0 18  3 10 12  5 12 13  3 11 10  3 17  3  2 21 16  2 16 19  1  3  2
  2 20 23 16 20 10 11]"
5400,341,1.0,8,3,570.1770515441895,99.24825668334961,0,691200,4821626,39672705,"[ 2  3  0  2  3  1  0  1  2  0  2  1  1  0  2  0  7  0  5  4  6  0  1  3
  5  8  2  2  0  0  4  8 11  5 13 13  3 10  4  3 13  5  0  2  5  5 10  2
  0  0 18  2 10 11  5 14  1  4  1  9  5 15 16  1  1 20  3 14 22  1 18 15
  5  1 18 16 20 10 11]"
5500,341,1.0,8,3,580.0945410728455,99.17486906051636,0,704000,4907469,40347844,"[ 2  3  0  2  3  1  0  1  2  0  2  1  1  2  3  0  7  7  5  4  6  0  1  3
  5  0  2  1  1  2  0  5  4  0  5 13  3 10  4  0  1  3  0  2  5  3 14 12
  0  0 18  0  9 17  0 11  2  5  3  9  0  1  1  5 21 19  5 19 14  2 21 22
  1 15 22 16 20 10 11]"
5600,341,1.0,8,3,589.9414885044098,98.46943855285645,0,716800,4992498,41015225,"[ 2  3  0  2  3  1  0  1  2  4  3  1  2  0  2  2  4  1  5  4  6  3  6  8
  3  3  8  5  2  2  5  5  8  1  0 13  3 10  4  0  1  3  0  2  5  5  0 13
  0  0 18  0  1 17  3 16 16  5 11 14  0  0  1  2 15 20  0  3 15  3 20  3
  4 17 20 16 20 10 17]"
5700,341,1.0,8,3,599.6567862033844,97.1529483795166,0,729600,5076334,41675041,"[ 2  3  0  2  3  1  0  1  2  4  3  3  0  1  3  3  3  0  5  4  6  2  2  4
  4  0  4  5  7  1  0  7  5  0  4  4  3 10  4  0  1  3  0  2  5  5  0 16
  0  0 18  4 15 14  1 15 16  5 14 11  0  1 22  5  2 15  5  3 14  3  3 22
  5 14  2 16 20 10 17]"
5800,341,1.0,8,3,609.3710236549377,97.14234828948975,0,742400,5160692,42336655,"[ 2  3  0  2  3  1  0  1  2  0  0  3  0  2  0  5  7  1  5  4  6  2  8  1
  5  2  4  2  1  6  2 12  7  2 13  5  3 10  4  0  1  3  0  2  5  3 16  2
  0  0 18  0 15  0  3 16 18  5 10  3  1  3 22  5 14 14  2 17 18  0  3 22
  2  1  0 16 20 10 17]"
5900,341,1.0,8,3,619.1750981807709,98.04071187973022,0,755200,5244389,42996002,"[ 2  3  0  2  3  1  0  1  2  2  1  1  0  1  2  1  7  1  5  4  8  1  8  4
  4  3  6  3  7  5  3  5  6  5  8 11  3 10  4  0  1  3  0  2  5  4 18 14
  0  0 18  4 18  1  0 15 18  2  2 11  2 21 23  2 14 15  3  0 22  4  2 16
  2 23 14 16 20 10 17]"
6000,341,1.0,8,3,628.9013864994049,97.26285696029663,0,768000,5328714,43658952,"[ 2  3  0  2  3  1  1  0  2  5  2  3  0  1  2  0  3  5  5  4  8  3  4  0
  0  3  8  3  7  7  4  7  7  5  0  3  3 10  4  0  1  3  0  2  5  4  3 15
  0  0 18  2 11 13  0  9 18  2  0 11  1 20  1  2 14 22  5 20 20  0  2 19
  1 23 19 16 20 10 17]"
6100,341,1.0,8,3,638.71408867836,98.12699556350708,0,780800,5413122,44322640,"[ 2  3  0  2  3  1  2  2  1  0  2  1  5  1  2  0  2  3  5  4  7  4  3  0
  0  7  7  2  0  8  5  6  4  4  6  8  3 10  4  0  1  3  0  2  5  1 15 16
  0  0 18  2 16 14  3  2 16  2  0 14  4  2 18  4  0  0  4 20  3  3 22 23
  5 21 20 16 20 10 17]"
6200,341,1.0,8,3,648.4514977931976,97.37406492233276,0,793600,5497512,44987049,"[ 2  3  0  2  3  1  0  2  2  0  2  1  5  2  1  1  8  8  5  4  7  3  7  0
  0  6  6  2  5  1  1 13  6  3  6 12  3 10  4  0  1  3  0  2  5  1 15 13
  0  0 18  0 18 12  4 10 14  3 16 13  4  3 18  5 17 20  3 22 15  3 17 23
  1 20 16 16 20 10 17]"
6300,341,1.0,8,3,658.3394105434418,98.8791012763977,0,806400,5582000,45652391,"[ 2  3  0  2  3  1  0  2  2  0  2  1  5  1  0  1  6  7  5  4  7  4  4  1
  2  8  0  3  8  3  1  3  8  5 11 12  3 10  4  0  1  3  0  2  5  2 14  3
  0  0 18  4 15  9  2  3  2  5 15 13  4 17 23  1 15 15  0 17 15  0  2  3
  1 18 20 16 20 10 17]"
6400,341,1.0,8,3,668.1865947246552,98.4718132019043,0,819200,5666628,46317495,"[ 2  3  0  2  3  1  1  0  0  0  2  1  5  0  2  0  3  3  5  4  7  4  5  3
  5  4  8  2  4  6  3 13 13  4  0  4  3 10  4  0  1  3  0  2  5  2 12 14
  0  0 18  3 17  1  5 18 15  5  3  9  2 20 19  4  2 18  2  2  0  3  0  3
  3 19  0 16 20 10 17]"
6500,341,1.0,8,3,677.9334006309509,97.46803283691406,0,832000,5751370,46982647,"[ 2  3  0  2  3  1  0  1  2  0  2  1  0  0  2  0  0  3  5  4  6  1  5  8
  1  6  7  1  3  6  0  0 11  4  6  2  3 10  4  0  1  3  0  2  5  2  1  2
  0  0 18  1 17 10  2 14 15  2  2  3  3  3 17  0 17 22  0 15 21  4  0 16
  2  0  0 16 20 10 17]"
6600,341,1.0,8,3,687.6870594024658,97.53656387329102,0,844800,5835199,47641719,"[ 2  3  0  2  3  1  0  1  2  5  0  0  4  1  1  0  3  2  5  4  6  1  8  0
  2  2  8  5  5  2  4  7 11  3  7 12  3 10  4  0  1  3  0  2  5  5  2 15
  0  0 18  4  3  2  2 10 13  1 14  1  3 15  3  1 14  1  5 23 18  2 16 16
  4 16 19 16 20 10 17]"
6700,341,1.0,8,3,697.4341340065002,97.47072219848633,0,857600,5919790,48306445,"[ 2  3  0  2  3  1  0  1  2  2  1  0  4  0  1  3  2  6  5  4  6  5  3  1
  0  0  2  4  4  0  3 10  3  1  6 10  3 10  4  0  1  3  0  2  5  0  3 17
  0  0 18  3  1 17  4 15  3  3  2  3  5 23  1  3  2  0  1 22 15  0 16 16
  1 21  1 16 20 10 17]"
6800,341,1.0,8,3,707.5042927265167,100.7015585899353,0,870400,6003756,48966086,"[ 2  3  0  2  3  1  0  1  2  4  3  2  1  0  1  3  8  5  5  4  6  2  3  8
  3  2  6  4  4  2  0 12  4  1 13  0  3 10  4  0  1  3  0  2  5  3 12 15
  0  0 18  2 14 14  2 14 18  5  0  3  1 15 16  5 23 23  5 19  1  1  2  1
  0 19 16 16 20 10 17]"
6900,341,1.0,8,3,717.3404266834259,98.36131811141968,0,883200,6087720,49625763,"[ 2  3  0  2  3  1  0  1  3  4  2  1  0  1  2  2  1  8  5  4  8  2  5  1
  3  5  2  2  4  5  3  9  2  2  2  6  3 10  4  0  1  3  0  2  5  0  1 16
  0  0 18  0  0  2  2  0 18  1  1 17  1  2 18  1 19 21  1  2 19  4  3 22
  3 15 16 16 20 10  6]"
7000,341,1.0,8,3,727.1422483921051,98.0181884765625,0,896000,6172868,50294399,"[ 2  3  0  3  2  0  0  1  3  0  0  2  0  1  2  2  3  1  5  4  8  4  8  8
  2  5  1  4  6  0  0  7  7  3 12  5  3 10  4  3 11  3  0  2  9  0 17  0
  0  0 18  4  2  1  5 12  0  5 11  9  1  1  3  2 20 18  0 19 20  3  2  0
  0  0 23 16 20 10  6]"
7100,341,1.0,8,3,736.6727044582367,95.30453681945801,0,908800,6254839,50936927,"[ 2  3  0  5  3  1  0  1  3  2  0  0  0  1  2  2  3  1  5  4  8  5  1  8
  3  4  0  4  6  4  1 12 11  4  0  6  3 10  4  2  7  3  0  2  9  4 12  0
  0  0 18  4 10 11  4  2 12  2 17  1  5 20 19  1  0 23  2 15 21  5 23  2
  5 21 22 16 20 10  6]"
7200,341,1.0,8,3,746.2801923751831,96.07484340667725,0,921600,6334377,51561441,"[ 2  3  0  2  1  0  0  1  3  0  2  3  0  1  2  2  3  1  5  4  8  1  6  8
  5  7  3  3  5  5  5 13 11  5  2  1  3 10  4  0 10  5  0  2  9  2 11  9
  0  0 18  0 17 11  5 13 11  1 16  2  4 22  3  4 14 23  4  1 18  0  3 23
  5 22  0 16 20 10  6]"
7300,341,1.0,8,3,755.875358581543,95.95163583755493,0,934400,6415154,52196986,"[ 2  3  0  1  1  3  0  1  3  3  3  1  0  1  2  2  3  1  5  4  8  5  5  6
  1  6  7  4  4  2  2  6  2  4  8 12  3 10  4  4 12 11  0  2  9  3 13 16
  0  0 18  4  2  2  2  3  0  5  0 17  2 23  2  1 14  1  1 21 19  3 19  1
  0 22 17 16 20 10  6]"
7400,341,1.0,8,3,765.4630908966064,95.87729930877686,0,947200,6496919,52838422,"[ 2  3  0  0  2  3  0  1  3  0  3  2  0  1  2  2  3  1  5  4  8  4  0  2
  3  3  7  1  3  0  1  3 12  0  8 10  3 10  4  2 11  0  0  2  9  4 10 15
  0  0 18  4  0  9  2  9 11  0  3 13  2 22 18  1 20  2  4  2  1  1 16  1
  5 19 17 16 20 10  6]"
7500,341,1.0,8,3,775.0682740211487,96.05180501937866,0,960000,6577004,53467683,"[ 2  3  0  3  1  3  0  1  3  2  3  1  0  1  2  2  3  1  5  4  8  2  2  2
  4  1  5  5  2  6  5  8  8  5  1  1  3 10  4  0 10  3  0  2  9  2  1  3
  0  0 18  5 18 11  5  9  2  2 14 10  5 17 15  3 17 23  2  1 15  0 19  2
  0 15 16 16 20 10  6]"
7600,341,1.0,8,3,784.627959728241,95.59683084487915,0,972800,6657066,54096333,"[ 2  3  0  2  3  3  0  1  3  0  3  3  0  1  2  2  3  1  5  4  8  1  7  7
  3  0  5  5  2  1  3 10  2  5  1  3  3 10  4  1 11  5  0  2  9  5 15 12
  0  0 18  3 18  3  3  3 11  2 17 15  5 23 19  3 17  2  0 19 18  3  3  2
  1 16 15 16 20 10  6]"
7700,341,1.0,8,3,794.1832995414734,95.55337190628052,0,985600,6738138,54731971,"[ 2  3  0  3  1  3  0  1  3  5  1  0  0  1  2  2  3  1  5  4  8  5  0  8
  3  5  8  0  1  1  1 13  5  3 10  8  3 10  4  4  2  2  0  2  9  3 18 11
  0  0 18  3 15  2  2 10 16  0  2 12  0 16 17  5  3 15  3 15 19  4 20 22
  0 14  3 16 20 10  6]"
7800,341,1.0,8,3,803.7904617786407,96.07159852981567,0,998400,6819127,55367188,"[ 2  3  0  2  0  1  0  1  3  5  2  0  0  1  2  2  3  1  5  4  8  4  7  0
  4  2  5  1  3  8  1  5  6  0  2 10  3 10  4  1  3  3  0  2  9  4  9 12
  0  0 18  3 13 12  0  3 12  0  3 13  1 18 16  1  1 19  4 20 22  4 17 23
  0 16  3 16 20 10  6]"
7900,341,1.0,8,3,813.2799158096313,94.89451169967651,0,1011200,6900565,56005254,"[ 2  3  0  5  0  3  0  1  3  5  3  3  0  1  2  2  3  1  5  4  8  3  2  0
  4  6  8  4  8  7  3  1  0  5 12  3  3 10  4  2  3  3  0  2  9  2 10 18
  0  0 18  4  0  3  4 15  0  0 18 10  4  1 20  4 18 21  5 15 18  5 18  0
  0  2 22 16 20 10  6]"
8000,341,1.0,8,3,822.8815743923187,96.01655721664429,0,1024000,6981738,56642000,"[ 2  3  0  4  1  3  0  1  3  1  1  3  0  1  2  2  3  1  5  4  8  1  8  1
  2  6  4  2  8  3  4  8 11  0 12  0  3 10  4  3  2 10  0  2  9  5  0 18
  0  0 18  5  0 17  2  2 13  2 10 12  2 18 15  3  2  0  4  1 23  1 23  1
  5  1  3 16 20 10  6]"
8100,341,1.0,8,3,832.3797297477722,94.98152494430542,0,1036800,7063123,57281366,"[ 2  3  0  3  1  1  0  1  3  3  1  3  0  1  2  2  3  1  5  4  8  4  5  5
  2  0  7  2  4  7  4  4  7  0  7  3  3 10  4  4  5  2  0  2  9  1 15  9
  0  0 18  5  1 12  2  3 18  4  9 14  0 18 16  4 17 18  5 21 23  5  1  3
  2 18 21 16 20 10  6]"
8200,341,1.0,8,3,842.1541574001312,97.74425029754639,0,1049600,7146444,57935810,"[ 2  3  0  0  3  0  0  1  3  2  1  3  0  1  2  0  7  1  5  4  8  1  1  0
  5  3  4  3  2  7  3  6  1  0 13  3  3 10  4  4  0  2  0  2  7  0 13  1
  0  0 18  5  3 10  3  3  3  1  0 16  0 16 15  1  2  3  5 21 17  4  3  0
  3  2  1 16 20 10  6]"
8300,341,1.0,8,3,852.1510953903198,99.9693512916565,0,1062400,7234189,58625261,"[ 2  3  0  0  2  2  0  1  3  2  1  3  0  1  2  1  2  7  5  4  8  5  2  5
  3  6  8  5  6  7  3  4  4  4 10  0  3 10  4  3  5 12  0  2  7  5 17  9
  0  0 18  1 15  3  2 16 16  2  3  3  2 19  3  2  0  0  4 17  0  5 19  0
  0 19 19 16 20 10  6]"
8400,341,1.0,8,3,862.3278405666351,101.76742315292358,0,1075200,7322055,59316581,"[ 2  3  0  5  2  0  0  1  3  2  1  3  0  1  2  1  8  4  5  4  8  0  5  5
  0  7  4  5  2  1  1  8  2  2  6  8  3 10  4  2 11  0  0  2  7  5  1 16
  0  0 18  2 15 12  5 17 16  4  3  2  3 18 15  1 22  1  5  0 20  1 18 14
  2 17 22 16 20 10  6]"
8500,341,1.0,8,3,872.3938946723938,100.66051483154297,0,1088000,7409436,60002964,"[ 2  3  0  2  3  1  0  1  3  4  3  2  0  1  2  1  2  1  5  4  8  4  3  4
  0  7  3  2  2  4  5  3  9  2  7  4  3 10  4  0  3  0  0  2  5  5 17 13
  0  0 18  4 11 14  0  1 11  0  9 10  5 19 17  4 14 16  3 16  2  5 23  1
  2  1 19 16 20 10  6]"
8600,341,1.0,8,3,882.4948074817657,101.0090970993042,0,1100800,7497364,60693395,"[ 2  3  0  2  3  1  0  1  3  0  1  2  3  2  2  2  6  0  5  4  7  0  6  4
  1  2  7  5  3  3  4  7  9  2 12  4  3 10  4  3  4  0  0  2  5  5 18 18
  0  0 18  3 11  3  1  1 12  0 13 17  2 20 21  0 19 16  3 18 15  5 21 23
  3 15 23 16 20 10  6]"
8700,341,1.0,8,3,892.7751343250275,102.8032374382019,0,1113600,7584943,61381397,"[ 2  3  0  2  3  1  0  1  3  0  1  2  4  3  1  3  5  2  5  4  7  0  0  6
  3  3  7  0  6  0  1 13  8  5  5  0  3 10  4  3  6 12  0  2  5  5 10 18
  0  0 18  0  3  3  2 13 11  4 12 14  4 20 16  2 15 14  3 19  3  2 22 15
  0 21 18 16 20 10  6]"
8800,341,1.0,8,3,902.6852700710297,99.10133123397827,0,1126400,7671373,62061285,"[ 2  3  0  2  3  1  0  1  3  0  1  2  3  3  2  3  6  7  5  4  7  5  2  3
  4  5  5  5  4  8  0  1  3  1  8  0  3 10  4  0  7 12  0  2  5  3 18 15
  0  0 18  1  1  3  0 13 10  0  3  1  3 14 16  0 16 14  0 15  1  1  0  2
  4 23  0 16 20 10  6]"
8900,341,1.0,8,3,912.7747297286987,100.89457035064697,0,1139200,7760163,62757994,"[ 2  3  0  2  3  1  0  1  3  0  1  2  2  0  3  4  7  2  5  4  7  3  7  5
  3  3  7  4  4  5  2  6  4  3  5 11  3 10  4  2 12  4  0  2  5  0  2  0
  0  0 18  0 15  3  5 18 16  3 13  1  0 18  1  2 22 17  4 21  2  5 22 19
  4 17 15 16 20 10  6]"
9000,341,1.0,8,3,922.9297077655792,101.54974222183228,0,1152000,7847728,63445242,"[ 2  3  0  2  3  1  0  1  3  0  1  2  1  0  2  2  6  4  5  4  7  1  4  5
  3  0  5  5  0  7  0 13  4  0 13  8  3 10  4  2  3 13  0  2  5  3  3 10
  0  0 18  3 11 15  5 18 14  5 13  1  1  0 22  2  2  3  4  1 23  5  3 14
  4  0 17 16 20 10  6]"
9100,341,1.0,8,3,932.9949433803558,100.652334690094,0,1164800,7936230,64141033,"[ 2  3  0  2  3  1  0  1  3  0  1  2  2  2  3  0  5  2  5  4  7  5  6  1
  5  2  8  0  3  4  4  3  6  1 11  6  3 10  4  3 10  7  3  9  4  2  2 16
  0  0  9  0  0  9  2  3 17  5 18  2  3 17 16  5 19 19  5  1 20  2 23  3
  4 18 21 16 20 10  6]"
9200,341,1.0,8,3,943.2117991447449,102.16852903366089,0,1177600,8026813,64851229,"[ 2  3  0  2  3  1  0  1  3  2  3  3  0  2  1  0  5  2  5  4  8  2  1  3
  5  7  1  0  7  3  4  8 10  5 11  2  3 10  4  4  5 11  4 10  9  5 11 16
  0  0  9  4 15  2  5  0  9  5 16  0  4 16 17  0 19  2  0  1 14  4 17 21
  0 23 20 16 20 10  6]"
9300,341,1.0,8,3,953.4617984294891,102.49996662139893,0,1190400,8118077,65567077,"[ 2  3  0  0  2  1  0  1  3  2  1  3  0  2  1  0  7  2  5  4  8  3  6  8
  0  2  4  4  2  8  1 12  9  4  8 13  3 10  4  4  4 11  5 12  5  5  9 15
  0  0  9  0 11 14  5 14 15  2 11  0  2 19 16  0 23 17  0  1 19  0 18  3
  3 15  1 16 20 10  6]"
9400,341,1.0,8,3,963.7982144355774,103.36413383483887,0,1203200,8208768,66280702,"[ 2  3  0  4  2  2  0  1  3  2  1  3  0  2  1  0  7  2  5  4  8  3  5  3
  3  3  3  3  4  3  1 12  4  4  6  9  3 10  4  5 11  1  4  3  0  0 14  2
  0  0  9  3  3 16  1 18 11  1 15  3  3  1 17  1 19 22  2 16 20  4 18 16
  4  0  1 16 20 10  6]"
9500,341,1.0,8,3,974.0727798938751,102.7456283569336,0,1216000,8299104,66990061,"[ 2  3  0  2  1  0  0  1  3  2  1  3  0  2  1  0  7  2  5  4  8  1  5  7
  2  5  2  5  2  5  4 13  3  3  0 12  3 10  4  4 11  4  2  5  8  4  9 10
  0  0  9  4 14 16  5 18  3  0 10  3  2 19 19  1 18 18  1  2 23  2 20 23
  4 19 21 16 20 10  6]"
9600,341,1.0,8,3,984.2947070598602,102.21924543380737,0,1228800,8387593,67685703,"[ 2  3  0  3  3  1  0  1  3  2  1  3  0  2  1  0  7  2  5  4  8  1  7  0
  2  6  8  0  6  3  4  6  0  3  4  3  3 10  4  2  2  6  3  2 10  3 14  9
  0  0  9  2 14 16  5 13 13  3 14 10  2 22  2  0  3 22  0 20 15  3 19 14
  4 21 15 16 20 10  6]"
9700,341,1.0,8,3,994.5749852657318,102.80275583267212,0,1241600,8477600,68391643,"[ 2  3  0  3  3  3  0  1  3  2  1  3  0  2  1  0  7  2  5  4  8  4  8  0
  2  6  2  4  4  4  3  6  4  3 13  5  3 10  4  4  3 12  2 10  1  0  3 12
  0  0  9  2 16 17  1  1  9  1 12 15  4 16  2  2  0  3  5 16  3  2 21  1
  0 14 21 16 20 10  6]"
9800,341,1.0,8,3,1004.8753161430359,103.00328493118286,0,1254400,8567835,69099027,"[ 2  3  0  2  1  3  0  1  3  1  1  0  0  2  1  0  5  2  5  4  8  3  4  2
  2  2  3  0  1  5  5  1 13  1 13 13  3 10  4  2  3  8  2  7  8  1 11  2
  0  0  9  0  2  3  4  1 15  4 11 18  5 15  1  3  3 21  3 17 23  5 14 23
  2 14  3 16 20 10  6]"
9900,341,1.0,8,3,1015.1926894187927,103.17370653152466,0,1267200,8657842,69805110,"[ 2  3  0  2  1  3  0  1  3  1  3  0  0  2  1  0  5  2  5  4  8  0  1  1
  1  0  7  3  5  6  2 13  9  2  1  6  3 10  4  1  4  1  4  4  9  1 15  2
  0  0  9  0  2 16  2 10  2  2  1 16  5 19 23  2 21  2  5 18 14  3 23 14
  1 22 17 16 20 10  6]"
10000,341,1.0,8,3,1025.5580945014954,103.65402698516846,0,1280000,8748126,70514078,"[ 2  3  0  2  1  3  0  1  3  1  2  3  0  2  1  0  5  2  5  4  8  1  1  6
  1  5  2  4  3  5  4  2  1  3  3  3  3 10  4  2  1  0  4 13  6  1 13 18
  0  0  9  4  1 10  0 15 12  3  2 12  2 19 18  1 21 19  3  2 19  3 16  0
  3  3 19 16 20 10  6]"
10100,341,1.0,8,3,1035.8103778362274,102.52280473709106,0,1292800,8839218,71228540,"[ 2  3  0  2  1  3  0  1  3  4  0  2  0  2  1  0  5  2  5  4  8  5  2  5
  4  3  0  0  4  4  5  9  8  3  1  1  3 10  4  0  2  6  0  7  7  4 15  0
  0  0  9  2 11  0  2  3 11  0  9  3  5  3 14  5 16 15  0  2 16  5  2 16
  4 14  1 16 20 10  6]"
10200,341,1.0,8,3,1046.15669131279,103.46310615539551,0,1305600,8929900,71938771,"[ 2  3  0  2  1  3  0  1  3  2  3  2  0  2  1  0  5  2  5  4  8  1  3  2
  3  1  4  5  3  2  2  4  8  0  2 11  3 10  4  4  4  6  5  9  0  4 16 16
  0  0  9  0  9 13  4 18  3  0 13  1  3 17 14  0 22 18  0 15 16  2 15 15
  1 16 19 16 20 10  6]"
10300,341,1.0,8,3,1056.6855819225311,105.28887987136841,0,1318400,9020990,72654311,"[ 2  3  0  2  1  3  0  1  3  1  0  0  0  2  1  0  5  2  5  4  8  1  3  7
  3  3  5  0  7  0  4  5  4  1  5  0  3 10  4  1 12 10  0  7  3  0 14 10
  0  0  9  4  9 11  4 14 11  4 17 16  4 17 14  5 14 21  3 23  3  3 21 23
  0 18 18 16 20 10  6]"
10400,341,1.0,8,3,1066.9771223068237,102.91537761688232,0,1331200,9112359,73372079,"[ 2  3  0  2  1  3  0  1  3  3  3  3  0  2  1  0  5  2  5  4  8  4  6  3
  3  4  2  2  1  8  5  5  4  3  8  7  3 10  4  2  7 10  0  6  9  1 11  2
  0  0  9  3 10  9  4  9  1  5  0  2  2 17 19  3 21 18  5 14 21  1 18 23
  5 21  0 16 20 10  6]"
10500,341,1.0,8,3,1077.1014626026154,101.24337673187256,0,1344000,9200186,74063855,"[ 2  3  0  2  1  3  4  1  0  4  1  2  0  2  1  0  5  2  5  4  8  1  2  2
  3  7  8  5  6  8  1 12  6  5 12  1  3 10  4  1 13  9  1 13  5  4 13 18
  0  0  9  4  0  9  3  3  2  5  9 13  5 21 22  1 23 14  3 20 21  2 20 18
  0  3  1 16 20 10 28]"
10600,341,1.0,8,3,1086.979237794876,98.77771854400635,0,1356800,9286111,74738990,"[ 2  3  0  2  1  3  4  3  1  3  1  1  0  2  1  0  5  2  5  4  8  0  0  5
  3  3  7  5  8  0  3 10  2  1 12  5  3 10  4  2 12  7  3  3  7  1 17  9
  0  0  9  5 16 10  3  0  1  5 16 16  0 14  3  4 22 15  2  1 18  0 21 18
  0  3  1 16 20 10 28]"
10700,341,1.0,8,3,1096.6852014064789,97.05960988998413,0,1369600,9369603,75396437,"[ 2  3  0  2  1  3  1  1  3  1  1  2  0  2  1  0  5  2  5  4  8  3  0  1
  1  3  8  3  2  8  5  6  2  0  7  2  3 10  4  5 12 12  5  5  3  5 12 12
  0  0  9  3 16 17  1 17 12  0  1 13  5 22  0  5 15 17  2  2 15  3  3  2
  0  3  1 16 20 10 28]"
10800,341,1.0,8,3,1106.655503988266,99.70299959182739,0,1382400,9454248,76061655,"[ 2  3  0  2  1  3  4  1  2  0  3  3  0  2  1  0  5  2  5  4  8  3  8  1
  5  3  6  5  2  8  1 13 12  4  0  0  3 10  4  2  6  9  5  8  4  5 12 12
  0  0  9  1 13 10  0  3 15  5 10  2  4 19 20  5 22 16  5 21 15  2 18 23
  0  3  1 16 20 10 28]"
10900,341,1.0,8,3,1116.479948759079,98.24442625045776,0,1395200,9539534,76732136,"[ 2  3  0  2  1  3  2  3  3  0  1  1  0  2  1  0  5  2  5  4  8  3  1  8
  5  2  4  5  4  3  0  2 12  0  0  2  3 10  4  4  7  5  3  1  6  0 13 13
  0  0  9  2 10  1  4 11 11  5 15  3  4 21 18  0  3 18  5 17 15  0 16  2
  0  3  1 16 20 10 28]"
11000,341,1.0,8,3,1126.3724114894867,98.92460346221924,0,1408000,9624563,77400016,"[ 2  3  0  2  1  3  0  1  0  3  1  1  0  2  1  0  5  2  5  4  8  1  6  5
  4  2  4  5  2  2  3  5  5  4 13 12  3 10  4  2 12  5  5 10 10  4 17  0
  0  0  9  2  2  2  4 13 14  2 15  3  4  0  3  0  3  1  2  2  3  3 14 23
  0 23  1 16 20 10 14]"
11100,341,1.0,8,3,1135.5609266757965,91.88513040542603,0,1420800,9698932,77993222,"[ 2  3  0  2  1  3  4  3  0  4  0  1  0  2  1  0  5  2  5  4  8  0  3  7
  0  6  2  2  2  7  3  5  9  5 10  3  3 10  4  2  0  8  4  6  7  2 11  0
  0  0  9  4 12  0  2  3 17  4  2 12  5 23 19  1 22 16  5  0  2  4 19 14
  5 23 16 16 20 10 14]"
11200,341,1.0,8,3,1144.6903474330902,91.29418134689331,0,1433600,9773820,78590490,"[ 2  3  0  2  1  3  0  3  2  1  1  1  0  2  1  0  5  2  5  4  8  4  3  7
  1  2  6  3  0  1  3  5  9  3  7  4  3 10  4  4  2  9  5  1  4  2 16 10
  0  0  9  1  0 10  1  9  3  1 15  3  0  1 21  3  3 14  0 14 16  2 15 17
  3 17 14 16 20 10 14]"
11300,341,1.0,8,3,1153.7994930744171,91.09142780303955,0,1446400,9847549,79178653,"[ 2  3  0  2  1  3  5  2  1  1  3  3  0  2  1  0  5  2  5  4  8  3  8  0
  1  3  5  4  2  5  3  5  9  3  0  8  3 10  4  3 10  6  4 11  5  0 10  1
  0  0  9  1 13 15  0  1 17  0 11  3  3 19 23  4 16 16  5 21 16  3  0 16
  1 20 15 16 20 10 14]"
11400,341,1.0,8,3,1162.8353729248047,90.35876989364624,0,1459200,9919372,79752207,"[ 2  3  0  2  1  3  2  0  2  2  2  2  0  2  1  0  5  2  5  4  8  2  4  0
  5  5  4  2  5  3  2  5  5  2  7 10  3 10  4  4 13  2  5  4 11  1  2 11
  0  0  9  4  9 16  1 11  9  1 11 11  5 18 23  3 22 16  3 23 20  0  1 20
  4  3 22 16 20 10 14]"
11500,341,1.0,8,3,1172.025511264801,91.9013524055481,0,1472000,9993698,80344346,"[ 2  3  0  2  1  3  4  0  2  3  0  3  0  2  1  0  5  2  5  4  8  4  2  7
  4  1  1  4  5  7  3  5  9  0  0  4  3 10  4  0 12 10  2 13  6  1  2 15
  0  0  9  2 18 12  1 11 13  0  2 11  1 19 17  3 15 14  5  3 14  0 14 19
  0 21 18 16 20 10 14]"
11600,341,1.0,8,3,1180.9890081882477,89.63494300842285,0,1484800,10065609,80919182,"[ 2  3  0  2  1  3  1  2  0  0  3  2  0  2  1  0  5  2  5  4  8  0  7  8
  3  2  0  5  7  1  3  9  5  1  6  0  3 10  4  1  6  6  0  5  0  1  2 11
  0  0  9  2 15 14  2 14 14  5  9  0  5 17  1  2 17 18  0  0 19  3  0  3
  3 19  0 16 20 10 14]"
11700,341,1.0,8,3,1190.0170845985413,90.28074026107788,0,1497600,10139239,81506516,"[ 2  3  0  2  1  3  3  2  1  4  0  3  0  2  1  0  5  2  5  4  8  5  0  2
  4  2  2  5  7  2  3  5  9  0 13 11  3 10  4  1 13  5  1  0  6  2 11 10
  0  0  9  2 13  9  2 17 16  0 14  0  5 23 17  4 19  2  5 19 21  2 18 20
  0 17  1 16 20 10 14]"
11800,341,1.0,8,3,1198.9943339824677,89.77246522903442,0,1510400,10211082,82081115,"[ 2  3  0  2  1  3  0  2  3  1  1  2  0  2  1  0  5  2  5  4  8  3  2  2
  4  1  8  3  3  7  3  5  9  5  8  8  3 10  4  0  9  9  4  6  4  1 15 18
  0  0  9  0 10  3  5 12 17  2 13  2  1 15 19  3 21 19  4 16 22  1 18 19
  4 23 18 16 20 10 14]"
11900,341,1.0,8,3,1208.1603875160217,91.66051149368286,0,1523200,10285786,82676607,"[ 2  3  0  2  1  3  5  2  2  2  1  3  0  2  1  0  5  2  5  4  8  2  1  5
  1  6  4  2  1  6  2  5  5  3  7 12  3 10  4  5  8  0  3 13  6  4 16  2
  0  0  9  0 10 11  0  3  0  1 10 15  5 15 15  5 15 19  5 15 17  0  0 19
  4 23  3 16 20 10 14]"
12000,341,1.0,8,3,1217.3250977993011,91.6470742225647,0,1536000,10360809,83274173,"[ 2  3  0  2  1  3  1  1  1  0  2  0  0  2  1  0  5  2  5  4  8  3  5  4
  1  5  6  2  4  7  3  9  5  0 10 10  3 10  4  1  1 11  1  0  5  5 13 15
  0  0  9  5 15  3  4 14  9  3 14 18  1 22 15  5  0 22  4 15  2  2  3  2
  3 20  3 16 20 10 14]"
12100,341,1.0,8,3,1226.2253136634827,89.0021300315857,0,1548800,10432770,83849258,"[ 2  3  0  2  1  3  4  3  3  2  2  2  0  2  1  0  5  2  5  4  8  1  5  3
  3  5  2  5  2  2  3  9  5  3 12  9  3 10  4  4  2  8  1  1  6  4  2  9
  0  0  9  0 14  2  3  0 18  5 18 15  2 15 18  0 22 18  0 23 23  0  2 14
  4  3 15 16 20 10 14]"
12200,341,1.0,8,3,1235.1707770824432,89.45460796356201,0,1561600,10505184,84428360,"[ 2  3  0  2  1  3  5  2  1  3  1  2  0  2  1  0  5  2  5  4  8  3  5  5
  3  6  0  4  7  2  3  9  5  4  4  5  3 10  4  0 10  0  0 11 13  4  1 11
  0  0  9  4 11 16  0 12 17  2 11  9  5 19 22  4 14 19  5 16 16  4  3  0
  4 14 14 16 20 10 14]"
12300,341,1.0,8,3,1244.6993997097015,95.2862000465393,0,1574400,10583065,85047639,"[ 2  3  0  2  1  3  5  1  2  0  2  3  0  2  1  0  5  2  5  4  8  2  5  5
  4  7  1  2  8  4  2  3  3  1  4  6  3 10  4  3 10 10  3  5 11  0  0 12
  0  0  9  5 12 12  5 17 13  2 13  1  5 17 14  2  1 19  0 19  3  3 18 17
  5  3 22 16 20 10 11]"
12400,341,1.0,8,3,1253.9774041175842,92.7800178527832,0,1587200,10658975,85650852,"[ 2  3  0  2  1  3  5  1  1  2  0  2  0  2  1  0  5  2  5  4  8  2  5  5
  1  5  6  2  2  4  4  8  5  0  9 12  3 10  4  0  1  7  4  5  3  5  0 14
  0  0  9  2 10 12  3 15 16  4 13  1  2 18 22  4 15 22  5  3 18  4 16 20
  0 14  1 16 20 10 11]"
12500,341,1.0,8,3,1263.2825305461884,93.05123567581177,0,1600000,10735277,86256489,"[ 2  3  0  2  1  3  2  3  0  3  2  3  0  2  1  0  5  2  5  4  8  2  5  5
  5  5  4  2  1  2  4  6 13  4  8  0  3 10  4  1  9  7  0  2  7  4 17  1
  0  0  9  3 11  2  1  2 17  0  0 18  5 19 21  3 19 16  0 14  3  4 20 20
  4 17 18 16 20 10 11]"
12600,341,1.0,8,3,1272.6361157894135,93.53582382202148,0,1612800,10812134,86867295,"[ 2  3  0  2  1  3  2  0  2  2  0  2  0  2  1  0  5  2  5  4  8  3  5  5
  5  8  0  3  2  0  2  3 11  2  0  6  3 10  4  2  2  3  0 10 12  2 12  3
  0  0  9  4 10 17  4  3 10  4 10 10  0 19 18  2  1 18  5 15 14  3 20 20
  4 17 17 16 20 10 11]"
12700,341,1.0,8,3,1282.4321105480194,97.95992136001587,0,1625600,10895925,87529583,"[ 2  3  0  2  1  3  2  3  0  0  1  3  0  2  1  0  5  2  5  4  8  3  1  0
  4  1  5  4  2  6  1  5  1  5 10  7  3 10  4  4  2  3  3  9  4  1 17 13
  0  0  9  4  2 10  5 12  9  2 16 13  1  2  3  5 14 18  1 15 14  0 17 17
  5 19  3 16 20 10  7]"
12800,341,1.0,8,3,1292.7098574638367,102.77743101119995,0,1638400,10985935,88235542,"[ 2  3  0  2  1  3  2  0  0  0  1  3  0  2  1  0  5  2  5  4  8  5  1  7
  5  3  5  1  2  6  1  5  1  0  6 11  3 10  4  2  2  0  3  3  3  5 10 11
  0  0  9  2 14 15  4 11 14  1  0 15  2 18 17  4 20 17  1  2  1  3 20 20
  1 15  1 16 20 10  7]"
12900,341,1.0,8,3,1303.0490012168884,103.39140892028809,0,1651200,11075806,88941345,"[ 2  3  0  2  1  3  4  2  2  0  1  3  0  2  1  0  5  2  5  4  8  3  5  6
  1  5  7  0  3  6  0  3 13  3  8  1  3 10  4  3  3  1  4  0  5  0 13 18
  0  0  9  1 17 13  4 10  3  4 17 12  5 18 17  0 20  2  3  3  0  1  2 17
  4  2  3 16 20 10  7]"
13000,341,1.0,8,3,1313.6360957622528,105.8709192276001,0,1664000,11166152,89650288,"[ 2  3  0  2  1  3  5  1  3  0  1  3  0  2  1  0  5  2  5  4  8  3  1  6
  1  3  7  4  2  2  4  9 10  5 13 13  3 10  4  5  9 11  4  6  7  5  1  3
  0  0  9  4 17  2  5 17  1  5 12 10  4  0 18  4  2  1  2 21  1  5  3 17
  5  1  1 16 20 10  7]"
13100,341,1.0,8,3,1323.9308137893677,102.9471492767334,0,1676800,11256020,90355498,"[ 2  3  0  2  1  3  4  0  2  0  1  3  0  2  1  0  5  2  5  4  8  4  0  5
  4  1  6  4  1  1  4  0  1  0  1  2  3 10  4  3 13  0  5  1  7  5 14 11
  0  0  9  5 16 16  3 16  2  0 16 14  4  3 20  1  2 23  2  1 15  4 14 17
  3 18 15 16 20 10  7]"
13200,341,1.0,8,3,1334.3864953517914,104.55678939819336,0,1689600,11345766,91060020,"[ 2  3  0  2  1  3  1  1  2  0  1  3  0  2  1  0  5  2  5  4  8  0  7  5
  5  7  2  1  1  4  1  9  1  1  5 10  3 10  4  4  0  0  3  6  1  2 11 12
  0  0  9  4 14 17  5 11 16  3 14 18  5 15 14  5  2 16  4 18 16  1 21 16
  5 14 15 16 20 10  7]"
13300,341,1.0,8,3,1344.8561162948608,104.69618320465088,0,1702400,11436892,91775445,"[ 2  3  0  2  1  3  0  0  1  0  1  3  0  2  1  0  5  2  5  4  8  0  7  5
  0  7  8  1  1  2  2 13  9  4  4  2  3 10  4  2  1  0  4 13 12  5 11 16
  0  0  9  3 17 17  1 11 17  4 14  2  0  2 19  1 21 18  2 19 18  3 17  3
  1 16 14 16 20 10  7]"
13400,341,1.0,8,3,1355.1656744480133,103.09555292129517,0,1715200,11528031,92490476,"[ 2  3  0  2  1  3  2  0  1  0  1  3  0  2  1  0  5  2  5  4  8  0  0  4
  1  6  2  1  4  0  5 13  9  0 13 13  3 10  4  0  3  3  3  2  8  4 17 13
  0  0  9  0 17 12  0 11  3  4  9  1  0 16 22  1 16  2  1 21  2  1 15 20
  5 17 16 16 20 10  7]"
13500,341,1.0,8,3,1365.660019159317,104.94342088699341,0,1728000,11618345,93199012,"[ 2  3  0  2  1  3  4  1  1  0  1  3  0  2  1  0  5  2  5  4  8  3  4  8
  3  5  5  5  7  6  3  2  7  0  1  4  3 10  4  2 12  1  3  9 11  2  9  3
  0  0  9  3  1  1  3  1 11  1  1 12  4 21 14  5 14  2  1 14 19  1  2 20
  3 19 18 16 20 10  7]"
13600,341,1.0,8,3,1376.1270682811737,104.67046737670898,0,1740800,11708162,93903859,"[ 2  3  0  2  1  3  0  1  1  0  1  3  0  2  1  0  5  2  5  4  8  3  1  7
  4  3  6  0  0  3  5 12 13  3  4 10  3 10  4  2  7 11  1 11 12  3 17 10
  0  0  9  1  9 17  1  3  9  2  1 12  3 14 18  1  1 23  3 15 15  2  0 18
  3  0 17 16 20 10  7]"
13700,341,1.0,8,3,1386.3725140094757,102.45443105697632,0,1753600,11798381,94612384,"[ 2  3  0  2  1  3  2  0  1  0  1  3  0  2  1  0  5  2  5  4  8  4  7  2
  0  0  1  5  6  2  3  0 13  1  1 10  3 10  4  4  9 10  0  6 13  4  9 14
  0  0  9  2 12  9  1  2 12  4 14 18  2  3 19  4  2 22  3  3  2  1 22 20
  5 22  1 16 20 10  7]"
13800,341,1.0,8,3,1396.7969467639923,104.2443037033081,0,1766400,11889086,95323998,"[ 2  3  0  0  1  1  2  3  1  0  1  3  0  2  1  0  6  2  5  4  8  0  4  6
  5  4  6  3  8  7  5  9  4  2  8  6  3 10  4  0  3  9  0  3 10  4 14 15
  0  0  9  5 11 14  4 12  3  0 15  9  4 22  1  0 15 22  4 18  2  1 16 17
  4 15 20 16 20 10  7]"
13900,341,1.0,8,3,1407.0388026237488,102.41853475570679,0,1779200,11979790,96034949,"[ 2  3  0  4  2  0  2  3  1  0  1  3  0  2  1  0  6  2  5  4  8  1  7  2
  2  8  5  3  1  7  2 11 10  3 10 13  3 10  4  2 12  4  3  7  8  0  3  2
  0  0  9  2  3 16  0 12 13  4 15 14  2 14  1  4 22 19  1 18 20  3 23 22
  4 14 20 16 20 10  7]"
14000,341,1.0,8,3,1417.300672531128,102.6186752319336,0,1792000,12070168,96744584,"[ 2  3  0  1  1  1  2  3  1  0  1  3  0  2  1  0  6  2  5  4  8  4  2  1
  3  1  3  4  2  8  0  0  2  4  6 11  3 10  4  0 12 13  1  3  5  0 11  0
  0  0  9  5 12 18  0  3 17  2 10 14  4  1  1  3 21  1  2  1 20  1 19 14
  3  3  0 16 20 10  7]"
14100,341,1.0,8,3,1427.5209884643555,102.2031307220459,0,1804800,12160676,97454974,"[ 2  3  0  1  2  3  2  3  1  0  1  3  0  2  1  0  6  2  5  4  8  4  1  3
  0  4  0  5  7  2  2 13  3  4  5 11  3 10  4  0  7 13  3  9  0  1  2  2
  0  0  9  2 12 10  5  2 14  1 10 11  3 19  1  3 23 15  1 21 16  0 21 15
  3 20 15 16 20 10  7]"
14200,341,1.0,8,3,1437.869036436081,103.48045587539673,0,1817600,12251725,98169322,"[ 2  3  0  2  1  3  2  3  1  0  1  3  0  2  1  0  6  2  5  4  8  0  3  0
  4  8  0  1  7  7  0  2  1  2  5  1  3 10  4  3  7 12  3 11 10  2 16 12
  0  0  9  2 12 17  1 15 17  1  2 14  0  0 22  2  0 14  5 16 20  3  2 14
  5 19 18 16 20 10  7]"
14300,341,1.0,8,3,1448.338970899582,104.69931840896606,0,1830400,12342520,98882012,"[ 2  3  0  2  1  3  2  3  1  0  1  3  0  2  1  0  6  2  5  4  8  3  7  7
  2  8  5  5  2  7  5  1  0  0 12  5  3 10  4  2  6  1  2 13  0  1 13 13
  0  0  9  2 18 16  0 18  1  5  3  9  4  0 19  5 19  3  4 15 22  4 19 16
  4 22  0 16 20 10  7]"
14400,341,1.0,8,3,1458.69628739357,103.57314109802246,0,1843200,12432428,99586507,"[ 2  3  0  0  2  3  2  3  1  0  1  3  0  2  1  0  6  2  5  4  8  2  8  2
  1  8  8  1  7  1  3 11  1  0  1  4  3 10  4  3  9  1  4 13  1  2 16 11
  0  0  9  0 14 13  5 11 14  1  3  2  2 15  0  0 19 19  4 14 23  2 23 22
  0 17 18 16 20 10  7]"
14500,341,1.0,8,3,1469.0056750774384,103.09385061264038,0,1856000,12523510,100301093,"[ 2  3  0  3  0  1  2  3  1  0  1  3  0  2  1  0  6  2  5  4  8  5  1  5
  3  0  5  0  4  1  4  5  8  5  2  6  3 10  4  2  5  8  3  7  8  5 16 18
  0  0  9  1  9  1  0 16  1  4  9 17  3 23 18  5  3 14  4 18  1  4 23 20
  2 19  2 16 20 10  7]"
14600,341,1.0,8,3,1479.2550520896912,102.49374151229858,0,1868800,12613760,101009462,"[ 2  3  0  0  3  1  2  3  1  0  1  3  0  2  1  0  6  2  5  4  8  3  2  4
  4  6  8  5  5  5  3  4 10  4 11  1  3 10  4  3 13 10  2  6  3  4 11 12
  0  0  9  3 15  3  0 11  0  2 10 10  3 18 21  5 20  1  1 15 23  2  0 17
  4 23 17 14 20 10  7]"
14700,341,1.0,8,3,1489.6094751358032,103.5442066192627,0,1881600,12704833,101724271,"[ 2  3  0  3  2  0  2  3  1  0  1  3  0  2  1  0  6  2  5  4  8  2  1  3
  3  5  2  5  5  5  3  4 10  2  4  5  3 10  4  5 10  3  1 12  0  4  1  3
  0  0  9  5 15 10  3 17 15  3 16 12  2 22  1  1 18  2  4  2 23  3 18  3
  0 23 20 14 20 10  7]"
14800,341,1.0,8,3,1499.9457712173462,103.36292743682861,0,1894400,12793867,102423128,"[ 2  3  0  5  1  1  2  3  1  0  1  3  0  2  1  0  6  2  5  4  8  5  6  6
  0  7  4  3  5  7  3  4 10  5 11  1  4  6 10  3 10 11  3  8 13  3 17 17
  0  0  9  5 15 17  4  3 11  4 13 18  3 14 21  1 23 18  4 21 22  1  2 14
  0  3 19 14 20 10  7]"
14900,341,1.0,8,3,1510.249353170395,103.03579092025757,0,1907200,12883726,103128102,"[ 2  3  0  5  3  0  2  3  1  0  1  3  0  2  1  0  6  2  5  4  8  2  3  2
  1  7  0  5  2  4  3  4 10  5  7  3  3  6 12  5 10  3  0  3  2  4  3 16
  0  0  9  4  3 12  1  9  2  4 14  9  3 22 19  2 22 22  2  1 19  4 15 19
  1 15 23 14 20 10  7]"
15000,341,1.0,8,3,1520.7289741039276,104.79618310928345,0,1920000,12974449,103839811,"[ 2  3  0  1  1  0  2  3  1  0  1  3  0  2  1  0  6  2  5  4  8  2  8  2
  4  0  6  2  5  3  3  4 10  1  6  2  3  9 11  3  8  7  4 13  3  0  3  1
  0  0  9  1  1 18  4 16 15  1 13 15  5  3 21  3 20 16  5 17 17  3 19  0
  5 21 20 14 20 10  7]"
15100,341,1.0,8,3,1531.1161341667175,103.87157440185547,0,1932800,13065452,104553622,"[ 2  3  0  0  2  0  2  3  1  0  1  3  0  2  1  0  6  2  5  4  8  3  0  1
  1  2  6  4  5  6  3  4 10  5  1  2  0  9  0  3  1  2  4  6  6  2  2  0
  0  0  9  0  3 15  2 15  1  4  9  0  0 21 20  2 19  1  4 18 19  3  1 16
  3 17 23 14 20 10  7]"
15200,341,1.0,8,3,1541.5360615253448,104.19924974441528,0,1945600,13156390,105266876,"[ 2  3  0  0  1  0  2  3  1  0  1  3  0  2  1  0  6  2  5  4  8  2  3  3
  4  2  6  0  2  5  3  4 10  3  6  6  5  1  7  0 12  8  3  9  5  1  0 14
  0  0  9  0 12 15  2 17 10  0 15  9  4 21 17  4 22  3  3 18 18  1 17 17
  0  0 19 14 20 10  7]"
15300,341,1.0,8,3,1551.850908756256,103.14844369888306,0,1958400,13247038,105977929,"[ 2  3  0  4  1  3  2  3  1  0  1  3  0  2  1  0  6  2  5  4  8  1  8  8
  2  2  1  3  0  4  3  4 10  0 12  9  2  2  3  0  4  9  1 13  8  3 17  9
  0  0  9  4 13  9  2 14  1  4 13 13  3  0 16  2 20 20  0 22  1  1 17  3
  5 17 23 14 20 10  7]"
15400,341,1.0,8,3,1561.9873247146606,101.36413335800171,0,1971200,13336840,106682170,"[ 2  3  0  5  3  0  2  3  1  0  1  3  0  2  1  0  6  2  5  4  8  2  5  3
  2  7  5  5  6  6  3  4 10  3 13  8  1 11  3  5  0  2  4 13  9  5 15 17
  0  0  9  3  9  1  0  1 13  3 18 16  1 17 23  3 23 22  0  0 23  1  2 16
  3  0 19 14 20 10  7]"
15500,341,1.0,8,3,1572.2794134616852,102.92086124420166,0,1984000,13425468,107378391,"[ 2  3  0  4  0  2  2  3  1  0  1  3  0  2  1  0  6  2  5  4  8  0  4  3
  2  5  1  1  0  8  3  4 10  0  6 11  0  7 12  4  9  3  3  4  8  1 12  2
  0  0  9  4 14 16  4 16  0  5 14  2  5 17 19  4 18 23  4 20  1  1  3 21
  2 21  0 14 20 10  7]"
15600,341,1.0,8,3,1582.5091297626495,102.29713439941406,0,1996800,13516210,108090607,"[ 2  3  0  4  3  3  2  3  1  0  1  3  0  2  1  0  6  2  5  4  8  0  3  5
  1  1  6  5  8  7  3  4 10  4  7  7  5  5 13  1  8  3  0  9  5  2 18 13
  0  0  9  4  2 17  4 13  9  2 18 17  2 16 20  1 20 15  3 20 23  2 18 19
  4 18  0 14 20 10  7]"
15700,341,1.0,8,3,1592.926836490631,104.17704105377197,0,2009600,13606552,108799886,"[ 2  3  0  0  3  0  2  3  1  0  1  3  0  2  1  0  6  2  5  4  8  3  5  2
  2  0  0  3  5  0  3  4 10  4  7  5  0  1 11  5  7  0  1  1  7  3  9 18
  0  0  9  4 16 17  4  2 15  3 17 15  0 16 23  0 15 21  3 20  3  2 19 15
  3 14 15 14 20 10  7]"
15800,341,1.0,8,3,1603.1300661563873,102.03227043151855,0,2022400,13697019,109509543,"[ 2  3  0  3  3  0  2  3  1  0  1  3  0  2  1  0  6  2  5  4  8  2  1  2
  3  8  0  0  4  2  3  4 10  5  9  8  2  5  9  5 10  0  3  2 12  4 10 17
  0  0  9  2 16  9  0 13  0  3  9 16  1 16  0  2 14 17  4  2 18  3  1 17
  0 22 23 14 20 10  7]"
15900,341,1.0,8,3,1613.3395431041718,102.09474325180054,0,2035200,13787550,110219449,"[ 2  3  0  1  3  2  2  3  1  0  1  3  0  2  1  0  6  2  5  4  8  2  8  6
  0  4  0  1  6  7  3  4 10  4  3 13  1 12  7  4  1  1  1  2  3  1  3  3
  0  0  9  2 11  3  4 15  3  3  2 17  3 20 20  0  0 14  0  2 23  0 23 23
  0 18  0 14 20 10  7]"
16000,341,1.0,8,3,1623.8287312984467,104.89185571670532,0,2048000,13878312,110931073,"[ 2  3  0  1  2  2  2  3  1  0  1  3  0  2  1  0  6  2  5  4  8  5  2  6
  3  1  1  4  3  0  3  4 10  4  3  7  5  4  0  2 10  5  1  6  9  2 16 15
  0  0  9  2 13  3  0 11 18  2 17  3  0 23 21  0 22 18  3 16 22  3  3 23
  5 23 17 14 20 10  7]"
16100,341,1.0,8,3,1634.3326253890991,105.03890991210938,0,2060800,13970056,111650641,"[ 2  3  0  5  2  1  2  3  1  0  1  3  0  2  1  0  6  2  5  4  8  0  7  6
  5  8  7  3  7  6  3  4 10  3  2  2  0  9  2  1 10 10  1  6  7  1 11 17
  0  0  9  2  3 11  3 12  2  2 17 13  5 14 19  2 23 20  4 23 20  0  3  1
  1 22  2 14 20 10  7]"
16200,341,1.0,8,3,1644.622939825058,102.90311813354492,0,2073600,14060751,112362529,"[ 2  3  0  0  2  1  2  3  1  0  1  3  5  2  1  0  6  2  5  4  5  4  2  5
  1  0  0  4  1  2  3  4 10  2  6  1  5  3  1  5 12 12  1  0  9  3 13 13
  0  0  9  1 17  9  3 17 10  2  3 11  3 22 23  0  3 22  0 21 21  3  2 20
  4 15 20 14 20 10  7]"
16300,341,1.0,8,3,1654.9214828014374,102.98540353775024,0,2086400,14150188,113065563,"[ 2  3  0  0  2  1  2  3  1  0  1  3  5  0  3  0  6  2  5  4  5  5  1  2
  5  1  0  5  5  1  3  4 10  3  3  1  0  4  5  5  2 12  5  6 10  1 14  1
  0  0  9  2 17 15  1 15 10  2 10 13  2  0  3  3 18 17  5 17 16  3 21 16
  0  0 18 14 20 10  7]"
16400,341,1.0,8,3,1665.3926553726196,104.71169948577881,0,2099200,14242249,113787589,"[ 2  3  0  0  2  1  2  3  1  0  1  3  2  1  2  0  6  2  5  4  5  4  4  2
  0  0  2  1  7  6  3  4 10  0  5 12  1  5  5  2  9 13  3  6  5  4  1 18
  0  0  9  2  3 11  4 18 14  2 17 13  5  1 21  3 21 18  0  1  2  5 16  0
  0 22 21 14 20 10  7]"
16500,341,1.0,8,3,1675.7500619888306,103.57404470443726,0,2112000,14333292,114501662,"[ 2  3  0  0  2  1  2  3  1  0  1  3  3  1  2  0  6  2  5  4  5  0  5  3
  1  0  1  3  8  7  3  4 10  5 11  0  1  3  4  0  7 11  1  3  3  5 14  1
  0  0  9  4  0 15  2 14 18  5  2 12  5  1 21  3 18  1  2 23 18  1 15 17
  5 18  3 14 20 10  7]"
16600,341,1.0,8,3,1685.9489750862122,101.98910713195801,0,2124800,14423616,115211604,"[ 2  3  0  0  2  1  2  3  1  0  1  3  1  1  0  0  6  2  5  4  5  0  3  6
  0  4  6  4  8  1  3  4 10  1 11 10  5 12  8  1  7  8  3  3  9  1  0 11
  0  0  9  3  0 15  0 11 14  1 18  9  3 19 22  4  0 14  1 14  0  0 15  1
  3 19 16 14 20 10  7]"
16700,341,1.0,8,3,1696.1713693141937,102.22391605377197,0,2137600,14514342,115923420,"[ 2  3  0  0  2  1  2  3  1  0  1  3  2  1  2  0  6  2  5  4  5  5  6  2
  4  3  6  0  7  7  3  4 10  5  3  5  3 13  9  0  7  3  2 10  0  2  0  0
  0  0  9  3 10  9  4 18  2  2 10 11  1 20 15  0 17 19  1 18 22  0  0 21
  3 20 14 14 20 10  7]"
16800,341,1.0,8,3,1706.4072873592377,102.35915184020996,0,2150400,14604754,116633554,"[ 2  3  0  0  2  1  2  3  1  0  1  3  2  1  0  0  6  2  5  4  5  2  2  0
  0  4  8  0  7  5  3  4 10  1  3 11  5 13 12  0  8 12  3  1  9  2  1 11
  0  0  9  4 18 15  1 12  3  1 15 11  3 15 20  3 23  1  1 15  2  2 21  1
  5 16 23 14 20 10  7]"
16900,341,1.0,8,3,1716.8565785884857,104.49288606643677,0,2163200,14696269,117351410,"[ 2  3  0  0  2  1  2  3  1  0  1  3  0  1  0  0  6  2  5  4  5  1  3  5
  1  5  3  1  4  3  3  4 10  4 13  8  5  0 12  2 10  8  1  5  4  2 18 13
  0  0  9  5  2  3  0  0 12  5 10 17  2 23  3  4 19  2  3 18  1  1 20  1
  1 14 15 14 20 10  7]"
17000,341,1.0,8,3,1727.2550251483917,103.98443937301636,0,2176000,14786599,118060492,"[ 2  3  0  0  2  1  2  3  1  0  1  3  5  0  2  0  6  2  5  4  5  5  6  8
  1  1  8  5  8  2  3  4 10  4  4 11  5  8  5  0  5  0  2  0  9  4 14 18
  0  0  9  3  0 10  1 17 10  0 12 14  3 21  1  0  0 19  2  1  1  4 14 19
  0  3  0 14 20 10  7]"
17100,341,1.0,8,3,1737.632496356964,103.77468585968018,0,2188800,14876793,118768626,"[ 2  3  0  0  2  1  2  3  1  0  1  3  5  0  0  0  6  2  5  4  5  2  2  6
  4  1  3  4  7  2  3  4 10  1  0  4  4 12  8  0  9  5  3  4  2  4 13 16
  0  0  9  3 12  9  2 18 10  5 12  3  5 18 23  3 17 21  4 14 17  4 22  1
  0 14  3 14 20 10  7]"
17200,341,1.0,8,3,1748.0318858623505,103.99386644363403,0,2201600,14966842,119475387,"[ 2  3  0  0  2  1  2  3  1  0  1  3  5  3  2  0  6  2  5  4  5  2  8  4
  0  6  6  1  5  6  3  4 10  1 12 10  5  9  9  1 13  8  1  9 13  2  0  1
  0  0  9  0  9 18  1  0 17  4 11  3  5  3 15  4  1 15  1  3 21  0 15 15
  1  0 20 14 20 10  7]"
17300,341,1.0,8,3,1758.2259805202484,101.94091796875,0,2214400,15056514,120179510,"[ 2  3  0  0  2  1  2  3  1  0  1  3  4  2  2  0  6  2  5  4  5  4  8  6
  5  6  5  1  6  1  3  4 10  3  7 13  3 11  6  0  9 12  3  3  4  4  1 14
  0  0  9  0 11 13  5 13 16  2  3 10  0 18 20  3 15 22  1 19 15  0  1 20
  0 21 23 14 20 10  7]"
17400,341,1.0,8,3,1768.4629440307617,102.36960887908936,0,2227200,15147328,120892546,"[ 2  3  0  0  2  1  2  3  1  0  1  3  3  3  1  0  6  2  5  4  5  2  6  7
  0  8  8  3  1  2  3  4 10  3  9  1  3  2 12  5 13  0  3 11  3  3  1 10
  0  0  9  5 11  9  1  3 14  4 11 10  0 16  1  2 18 18  1  0 20  3 15  0
  4 16 14 14 20 10  7]"
17500,341,1.0,8,3,1778.5427463054657,100.79799175262451,0,2240000,15236297,121589836,"[ 2  3  0  0  2  1  2  3  1  2  0  1  0  2  3  0  6  2  5  4  5  4  4  0
  0  3  1  0  1  3  3  4 10  2 10  0  0  7  0  4  6  5  2 13  3  0  0 10
  0  0  9  0  2  2  2  9  2  4 10  2  1  0  3  5 18 16  5 16 19  1  1 20
  2 22 14 14 20 10 12]"
17600,341,1.0,8,3,1788.5447871685028,100.02038717269897,0,2252800,15324173,122279902,"[ 2  3  0  0  2  1  2  3  1  5  1  2  4  3  0  0  6  2  5  4  5  0  2  7
  0  3  1  2  2  3  3  4 10  1  1  3  0  0 12  0  9  0  3  3  7  0 17  0
  0  0  9  0  2  3  0 12 14  0 14 13  3 18 20  5 17 14  1  0 16  5 19  1
  1 17 20 14 20 10 12]"
17700,341,1.0,8,3,1798.6280303001404,100.83240270614624,0,2265600,15411855,122967966,"[ 2  3  0  0  2  1  2  3  1  4  2  1  4  3  1  0  6  2  5  4  5  5  6  6
  0  3  1  2  6  5  3  4 10  2 13 10  4  8  8  3  6  7  1  9 12  1 11 18
  0  0  9  5  2  9  5 14 11  3  3  1  1  1 14  5 18 22  1 20 23  5 23 16
  5 20 14 14 20 10 12]"
17800,341,1.0,8,3,1808.8321990966797,102.04166173934937,0,2278400,15500507,123664289,"[ 2  3  0  0  2  1  2  3  1  1  3  3  4  3  1  0  6  2  5  4  5  0  1  6
  0  3  1  4  4  4  3  4 10  0  3 11  3  4  2  5  8  6  4  0  0  3 12  0
  0  0  9  4 14 12  4 12  3  3 15  2  5 16 19  1 22  2  1 19 16  3  3 18
  2 20 14 14 20 10 12]"
17900,341,1.0,8,3,1818.9993555545807,101.6715407371521,0,2291200,15588044,124351001,"[ 2  3  0  0  2  1  2  3  1  2  1  2  4  2  3  0  6  2  5  4  5  1  3  0
  0  3  1  2  5  2  3  4 10  5  2  6  1  3 11  5 13  3  4 12  3  2  9 13
  0  0  9  3 14  0  5 13  9  3  2 13  5 21 23  3 19 22  3 18  0  0  0 15
  3 22 14 14 20 10 12]"
18000,341,1.0,8,3,1829.1060433387756,101.06685400009155,0,2304000,15675404,125036164,"[ 2  3  0  0  2  1  2  3  1  2  3  0  1  1  0  0  6  2  5  4  5  3  0  1
  0  3  1  5  4  1  3  4 10  0  7  4  2 10 11  3  9  3  1 11  7  1  2 18
  0  0  9  3  0  1  0 17 17  5 11  1  3 20 19  1 20 15  0 16  1  5  2  0
  5 23 23 14 20 10 12]"
18100,341,1.0,8,3,1839.0573201179504,99.51273679733276,0,2316800,15762328,125719678,"[ 2  3  0  0  2  1  2  3  1  0  1  0  5  2  2  0  6  2  5  4  5  3  2  2
  0  3  1  1  4  2  3  4 10  1 13  3  1 10 11  0 10  0  0  4 13  3  0 18
  0  0  9  5  0 16  4  2 17  1 16  1  1  3  0  2 21  3  3  1  1  1 17 14
  2  2 22 14 20 10 12]"
18200,341,1.0,8,3,1849.2009971141815,101.43674373626709,0,2329600,15851368,126418468,"[ 2  3  0  0  2  1  2  3  1  4  3  1  5  0  3  0  6  2  5  4  5  4  2  6
  0  3  1  4  7  8  3  4 10  2 13  5  3 13  1  3  7  5  0  3  3  0 14  2
  0  0  9  3  0  2  2 15  3  0 13 10  0  3 15  0 14 16  4  3  3  2  1 22
  1  0 16 14 20 10 12]"
18300,341,1.0,8,3,1859.484058380127,102.83058643341064,0,2342400,15940064,127113702,"[ 2  3  0  0  2  0  2  3  1  0  2  1  3  2  2  0  6  2  5  4  7  4  1  4
  0  3  1  5  7  5  3  4 10  3  0  9  4 10 13  5  8  1  2 12  2  0 18 15
  0  0  9  4 15  2  4  3 16  1  3 14  1 18  0  5 22 15  0 16 17  0 15 19
  4 20 16 14 20 10 12]"
18400,341,1.0,8,3,1869.6805160045624,101.96455240249634,0,2355200,16028388,127807491,"[ 2  3  0  1  0  2  2  3  1  2  0  0  0  1  2  0  6  2  5  4  8  1  4  2
  0  3  1  1  6  2  3  4 10  5  9  0  0  1  3  1  7 12  4  4  1  0 12 14
  0  0  9  5  3 14  1  2 17  2 16  0  2 21 22  0 21 16  5 17  3  2 20 23
  5 19 23 14 20 10 16]"
18500,341,1.0,8,3,1879.7996926307678,101.19174242019653,0,2368000,16115899,128494489,"[ 2  3  0  0  3  0  2  3  1  0  2  1  2  2  2  0  6  2  5  4  7  3  0  4
  1  5  4  0  2  4  3  4 10  3  6  5  0  1  3  0 10  8  3  5 13  0 17 10
  0  0  9  5 14  3  1 16 12  0  9  0  3 23  3  4  2 16  3 22 20  4  0 15
  5  0 22 14 20 10 16]"
18600,341,1.0,8,3,1889.7597026824951,99.60007667541504,0,2380800,16202979,129178802,"[ 2  3  0  5  2  0  2  3  1  0  2  1  1  3  1  0  6  2  5  4  7  2  2  2
  5  5  4  2  7  2  3  4 10  2  8  0  0  1  3  0  8 11  2  3  5  3 17  2
  0  0  9  2  2  1  5 11 14  0  9  2  3  3 18  5  2  1  0 23 20  2 16  3
  1 14  2 14 20 10 16]"
18700,341,1.0,8,3,1899.6517589092255,98.92053365707397,0,2393600,16289152,129856818,"[ 2  3  0  2  3  1  2  1  3  0  2  1  3  3  2  0  5  2  5  4  7  5  4  8
  2  2  3  5  6  8  3  4 10  1  8  2  0  1  3  4  7 13  1  7  8  4  9 18
  0  0  9  5 14  1  2  0 11  0  9 15  5 14 18  1  2 16  0 23  0  2 15  3
  1 20  0 14 20 10 16]"
18800,341,1.0,8,3,1909.670034646988,100.18273591995239,0,2406400,16375738,130536308,"[ 2  3  0  2  3  1  1  2  2  0  2  1  3  0  0  0  5  2  5  4  7  2  8  1
  0  6  8  1  3  2  3  4 10  0  3  6  0  1  3  0  5  6  3 12  9  3 14 18
  0  0  9  1 17  1  3  9 18  2  0  2  0  1 22  3  0 18  1 19  0  4 22 18
  0 17 14 14 20 10 16]"
18900,341,1.0,8,3,1919.7158262729645,100.45788764953613,0,2419200,16462894,131220987,"[ 2  3  0  2  3  1  5  1  1  0  2  1  4  1  2  0  5  2  5  4  7  3  5  6
  5  3  4  2  4  4  3  4 10  0 12  3  0  1  3  5  4  5  4 11  9  1 14 16
  0  0  9  1  3 10  3 13 16  1 18  2  2  2 23  4 23 21  4 18 14  0 19 23
  5 22 19 14 20 10 16]"
19000,341,1.0,8,3,1929.704696893692,99.88867998123169,0,2432000,16550417,131909082,"[ 2  3  0  2  3  1  4  0  1  0  2  1  4  1  2  0  5  2  5  4  7  2  7  8
  5  3  5  4  5  0  3  4 10  4  4 13  0  1  3  2  8  4  1 12  5  4 14 13
  0  0  9  0  2 13  2 14  9  1 15  0  3 20 23  5 21  2  5  0 18  0 14 14
  2 20 18 14 20 10 16]"
19100,341,1.0,8,3,1939.5660548210144,98.61355781555176,0,2444800,16636465,132584526,"[ 2  3  0  2  3  1  3  3  0  0  2  1  1  1  0  0  5  2  5  4  7  4  5  0
  4  6  4  1  2  0  3  4 10  5  1  7  0  1  3  1 10  2  2  8  5  4 17 16
  0  0  9  4 16  2  3 11 16  1 18 12  4 18 20  5 15 15  5 15 16  4 20 18
  0  2 15 14 20 10 16]"
19200,341,1.0,8,3,1949.6809577941895,101.1489987373352,0,2457600,16723711,133270167,"[ 2  3  0  2  3  1  3  1  0  0  2  1  1  0  2  0  5  2  5  4  7  0  7  6
  2  3  4  3  4  0  3  4 10  0  5 10  0  1  3  4 13  4  0  0  5  4 13 15
  0  0  9  3 17 12  1 13  9  3 15 12  4 14  3  3  0 16  4 23 19  4 23 21
  5 22 20 14 20 10 16]"
19300,341,1.0,8,3,1959.6745924949646,99.93632316589355,0,2470400,16809467,133944262,"[ 2  3  0  2  3  1  4  0  3  0  2  1  2  1  1  0  5  2  5  4  7  1  0  6
  0  0  0  0  8  5  3  4 10  1  3  3  0  1  3  2  9  4  3 13  3  3 18 16
  0  0  9  3  1 12  5  9 10  0 13 13  3 22 20  0 16  3  4 14 16  5 14 16
  2  1 23 14 20 10 16]"
19400,341,1.0,8,3,1969.814740896225,101.40146017074585,0,2483200,16896741,134629805,"[ 2  3  0  2  3  1  4  0  0  0  2  1  4  0  1  0  5  2  5  4  7  1  6  0
  2  6  0  4  2  4  3  4 10  3  6 13  0  1  3  4  5  9  1  0  3  0  3 11
  0  0  9  2 17  2  1 17  1  5  0 16  0 21 19  4  3 22  0 22 20  2 20 20
  5  3 15 14 20 10 16]"
19500,341,1.0,8,3,1979.832190990448,100.17447710037231,0,2496000,16984554,135319780,"[ 2  3  0  2  3  1  4  3  3  0  2  1  4  0  2  0  5  2  5  4  7  1  7  5
  5  2  8  5  0  3  3  4 10  0 10  4  0  1  3  4  5  4  5 11 13  4 15  0
  0  0  9  2  0 11  1 18 13  4 16  2  5  2 22  3  0  0  1 18 18  5  1  2
  1 14  3 14 20 10 16]"
19600,341,1.0,8,3,1989.8586387634277,100.26445388793945,0,2508800,17071298,136001205,"[ 2  3  0  2  3  1  2  3  3  0  2  1  2  2  0  0  5  2  5  4  7  0  8  8
  3  7  2  4  7  8  3  4 10  5  2  0  0  1  3  0  9  3  5 11  7  5  2 17
  0  0  9  2 15  1  1 14 10  3  9 10  0 20  1  4 19  2  5  2 17  4 14  2
  2 14 14 14 20 10 16]"
19700,341,1.0,8,3,1999.7731728553772,99.14531469345093,0,2521600,17157335,136676037,"[ 2  3  0  2  3  1  4  2  0  0  2  1  0  1  0  0  5  2  5  4  7  5  7  2
  4  4  5  5  8  4  3  4 10  1  7  5  0  1  3  3  5  9  2 13  9  2  0 16
  0  0  9  1 10 17  2 14 16  3  1  9  4 17  0  0  2  1  1 15 19  2  3  1
  2  2 18 14 20 10 16]"
19800,341,1.0,8,3,2009.819836139679,100.46660900115967,0,2534400,17244876,137362767,"[ 2  3  0  2  3  1  5  0  1  0  2  1  4  1  3  0  5  2  5  4  7  5  2  8
  2  5  8  0  0  0  3  4 10  4  5  1  0  1  3  1 13 11  5  7  9  2 16 16
  0  0  9  3 10 12  3 18 14  2 14 13  4 21 22  0  0 17  5 15 22  3 17  0
  1 20  2 14 20 10 16]"
19900,341,1.0,8,3,2019.7538044452667,99.33965921401978,0,2547200,17331436,138043495,"[ 2  3  0  2  3  1  1  3  2  0  2  1  4  0  1  0  5  2  5  4  7  0  1  6
  1  5  8  4  1  4  3  4 10  1  4  9  0  1  3  0  9 11  1  2  3  2 10 10
  0  0  9  0 10 14  1 16  0  1  9 17  4 14 15  3 18 23  0  1 17  2 17 19
  2 14 22 14 20 10 16]"
20000,341,1.0,8,3,2029.652163028717,98.9835524559021,0,2560000,17416336,138711190,"[ 2  3  0  2  3  1  1  3  2  0  2  1  2  3  3  0  5  2  5  4  7  3  5  7
  1  8  2  4  1  2  3  4 10  5  5  3  0  1  3  5 13  5  1  9  3  1  2 13
  0  0  9  3  0  0  0 11 18  3 11  3  1 14 17  3 16 15  5  3  2  1 22 18
  2 22  2 14 20 10 16]"
