generation,fitness,functionality,active_nodes,longest_path,time,gen_time,nc_gens,fitness_evals,graph_evals,node_evals,genotype
0,302.0,0.875,5,3,301.9300458431244,301930.0458431244,32749,131072,759460,4759477,"[ 2  0  3  4  2  2  1  1  3  0  1  2  3  3  1  5  1  3  5  0  7  5  4  0
  0  7  7  4  0  7  5  8  3  1  8 11  2  4  3  5 12  4  5  1  2  3  9  0
  0  9  0  1  0  1  2  3 11  5 12 16  3 14 16  4 20 17  5  2 22  2  1 14
  3 23  1  5  5 17  1]"
100,302.0,0.875,5,3,302.68487191200256,7.548260688781738,32805,131472,764463,4784472,"[ 2  0  3  4  2  2  4  0  1  1  2  2  4  2  3  5  3  8  3  2  7  3  8  0
  0  7  1  1  7  7  4  2  2  5 10  0  2  6  1  5 12  4  1  1 10  5 15 15
  5  9  0  0 12 11  5  3 15  0  1 16  5 18 19  0 21  1  3 19  3  1 20 21
  4 14 21  5  5 17  5]"
200,304.0,0.875,4,2,303.3767592906952,6.9188737869262695,32852,131872,769426,4807425,"[ 2  0  3  4  2  2  0  1  2  2  0  2  2  2  3  4  4  8  1  4  1  1  3  2
  0  2  1  4  1  7  4  6  1  4  3  9  3 12  0  5 12  4  0  6  3  1 10 15
  4  9 17  3 10 16  4  1 16  1  1 13  4 14 15  4 23 20  5  0  0  0  3 21
  3 14 15  5  5 17  5]"
300,304.0,0.875,4,2,304.05716848373413,6.804091930389404,32902,132272,774210,4827792,"[ 2  0  3  4  2  2  0  1  2  2  0  1  4  1  2  2  3  8  2  7  8  3  3  7
  5  0  3  3  7  8  4 11 11  3  8  4  5  9  0  5  6  4  3  6  3  4 12  9
  0  2 15  3 15 11  5 18 12  5 17 12  2 14  0  0 23 17  4 17  3  0  2  2
  3 14  2  5  5 17  5]"
400,322.0,0.9375,6,2,304.7763955593109,7.192270755767822,32947,132672,778627,4853820,"[ 2  0  3  4  2  2  0  1  2  2  3  1  5  0  1  4  6  1  2  7  6  3  3  3
  3  7  3  2  7  7  2  9 12  1 10  1  5 12 13  5  6  4  0 13  5  0 12 18
  0  2 11  2 12  1  4 12 11  2  3 14  1 23 22  4 21 16  1 15  0  2 15  2
  5 16 16  5  5 17 13]"
500,322.0,0.9375,6,2,305.48479175567627,7.0839619636535645,32986,133072,782847,4878992,"[ 2  0  3  4  2  2  0  1  2  2  3  1  4  0  3  0  1  0  1  7  3  3  7  3
  3  5  1  3  7  7  1  2  1  0  5 11  5 11  9  5  6  4  3  6  5  3 12  3
  3  2 17  3 11 15  1 18 11  1  9 12  2  1 21  2  3 17  2 16 15  2  2  0
  0 19 16  5  5 17 13]"
600,322.0,0.9375,6,2,306.18982911109924,7.050373554229736,33039,133472,786940,4903432,"[ 2  0  3  4  2  2  0  1  2  2  3  1  2  3  2  4  3  5  1  0  1  0  0  7
  3  6  1  3  7  7  2  2  1  1  7 10  3 11  9  5  6  4  3  3  2  4 14  3
  3  9 17  3 11  3  0 14  9  2 11 10  4  3 20  1  3 14  5 17  3  2 23 22
  3 21 17  5  5 17 13]"
700,322.0,0.9375,6,2,306.9356565475464,7.4582743644714355,33089,133872,791276,4929646,"[ 2  0  3  4  2  2  0  1  2  2  3  1  2  1  0  5  7  5  1  0  5  3  7  1
  0  2  4  3  7  7  4  6  5  5  8  7  3  5 11  5  6  4  4  3  3  1 11  2
  2  9 16  5  9 16  1  2  9  0  0 12  4  1 14  1  2  2  4 23 22  3  1 22
  3 18  1  5  5 17 13]"
800,322.0,0.9375,6,2,307.7944366931915,8.587801456451416,33131,134272,795594,4955328,"[ 2  0  3  4  2  2  0  1  2  2  3  1  5  1  3  4  0  6  1  5  7  2  7  7
  5  0  7  2  7  7  4  6  0  4  9  1  5  9 11  5  6  4  3  9 13  3 12 14
  1  2  3  2  3 13  1 12 14  5 15  9  3  1 14  2  2 23  1  1 21  3 14 23
  4 16 20  5  5 17 13]"
900,322.0,0.9375,6,2,308.52114963531494,7.267129421234131,33180,134672,799857,4981079,"[ 2  0  3  4  2  2  0  1  2  2  3  1  5  1  2  2  0  0  0  7  0  2  6  1
  2  6  7  2  7  7  4 11  3  4  5  2  5  0  0  5  6  4  2  6  5  5 12  1
  2  9  9  4 16  9  4  0 11  4 16 13  5  1  0  0  1 21  1 20 21  1 22  2
  3  3 20  5  5 17 13]"
1000,322.0,0.9375,6,2,309.2313275337219,7.101778984069824,33223,135072,803917,5005350,"[ 2  0  3  4  2  2  0  1  2  2  3  1  1  0  0  2  4  0  0  4  2  1  8  6
  2  0  7  3  7  5  4 11  7  2  3  7  5  0  2  5  6  4  5 13 10  2  1  1
  0 15  9  2 18  2  4 14  1  5  0  9  4  0 16  4 18  2  3  3 17  0 22 17
  1 20 14  5  5 17 13]"
1100,322.0,0.9375,6,2,310.122549533844,8.912220001220703,33273,135472,808079,5030514,"[ 2  0  3  4  2  2  0  1  2  2  3  1  5  1  2  2  6  2  3  5  6  0  4  5
  1  7  5  3  5  7  0  3  1  4  3  5  0  1  3  5  6  4  4  4  0  0 14  1
  3  3 14  4  9  2  5 15 14  2 13  9  4 23  2  0  0 14  5  0 15  1 21 21
  2 20 17  5  5 17 13]"
1200,323.0,0.9375,5,2,310.9694519042969,8.469023704528809,33334,135872,812239,5052630,"[ 2  0  3  4  2  2  0  1  2  5  1  0  1  2  0  2  1  5  3  6  4  0  4  1
  0  0  6  0  6  7  0  3  1  4 10  6  0  9 10  5  6  4  4  9 13  5 13 11
  3  0  9  2 11  3  4 13 16  5 13 15  5 23 19  4  2 23  1 16  1  2 23 21
  1 20 16  5  5 17 14]"
1300,323.0,0.9375,5,2,311.72673892974854,7.572870254516602,33384,136272,816431,5074391,"[ 2  0  3  4  2  2  0  1  2  0  3  2  2  2  0  3  1  3  4  1  4  4  8  2
  0  0  4  2  6  4  4  4 10  3 12  2  3  6  7  5  6  4  2  4  8  0  2 17
  4 15 17  0 10 17  5 13 18  5 10  3  3  2 22  3 16 19  4 23 17  0  3  1
  4 18 14  5  5 17 27]"
1400,331.0,0.96875,7,2,312.4228603839874,6.961214542388916,33433,136672,820137,5096821,"[ 2  0  3  4  2  2  0  1  2  3  3  0  0  2  0  1  2  0  0  1  2  2  6  4
  1  7  4  5  0  1  1  5  2  4  3  2  4  3  6  5  6  4  4  5  8  1 12  9
  1 15 10  1 10 14  4 15 14  1 10 11  5 23 22  5 15 23  4  3 17  0  3  1
  2 19 20  5 18 17 27]"
1500,332.0,0.96875,6,2,313.17484164237976,7.51981258392334,33482,137072,823859,5121235,"[ 2  0  3  4  2  0  0  1  2  4  3  0  0  2  0  1  7  3  4  1  7  1  5  0
  4  6  7  1  4  0  4  7 12  2  7 11  4  0 13  5  6  4  0  6  8  2 10 18
  2  9 13  3 18 17  0 15  0  4  3 11  1 23 15  0 14 16  5  3  2  0  3  1
  5 19  3 18  8 17 27]"
1600,332.0,0.96875,6,2,314.24940252304077,10.745608806610107,33531,137472,827488,5143766,"[ 2  0  3  5  2  0  0  1  2  2  0  0  0  2  0  4  7  1  5  3  1  3  3  4
  1  7  7  1  2  3  4  5 11  1 13  1  5 10 13  5  6  4  0  3  6  1 14 12
  4 14  1  1 15  1  1  0 15  1  1 17  3 23  0  1 16 23  3 20  0  0  3  1
  0 17  3 11  8 17 27]"
1700,332.0,0.96875,6,2,314.9886543750763,7.392518520355225,33579,137872,831012,5165662,"[ 2  0  3  0  2  0  0  1  2  3  2  0  0  2  0  2  4  5  1  3  6  3  0  4
  4  4  0  4  6  7  1  1 12  3 13  8  5 12  7  5  6  4  0 10  6  1 10 12
  3 14  1  4  1  3  5 13 11  4 14 18  0  3 15  1 20 16  1 20 19  0  3  1
  1 19  3 11  8 17 27]"
1800,336.0,0.984375,7,2,315.65359807014465,6.649436950683594,33630,138272,834614,5188251,"[ 2  0  3  2  1  2  0  1  2  2  2  0  0  2  0  2  6  2  0  3  8  3  5  4
  2  7  0  5  7  7  1 11  4  5  8 12  1 12  7  5  6  4  0 10  4  2 11  0
  0 17 13  4 10 11  3 11  9  2 10  1  1 22 15  1 20 23  1  2 21  0  3  1
  1  3 18 11  8 17 27]"
1900,336.0,0.984375,7,2,316.50866508483887,8.550670146942139,33683,138672,838089,5212753,"[ 2  0  3  2  1  2  0  1  2  2  2  3  0  2  0  2  6  3  1  4  5  3  5  4
  1  0  0  5  7  5  5 10  1  3 11 13  0 11 13  5  6  4  4 13 11  1 11 10
  0 17 16  1 10 11  0 14 12  5 15 15  4 14 16  2 23 18  1 16 18  0  3  1
  1 14 17 11  8 17 27]"
2000,336.0,0.984375,7,2,317.1998772621155,6.912121772766113,33732,139072,841591,5237126,"[ 2  0  3  2  1  2  0  1  2  0  3  3  0  2  0  1  8  3  1  4  5  3  5  4
  1  6  1  0  5  5  4 12 11  4  1  9  3 11  8  5  6  4  2  1  8  3 14 12
  2  3 12  3 10  2  2 14  0  0 18  0  4  2 18  5 14  3  4  3 22  0  3  1
  1  1 14 11  8 17 27]"
2100,336.0,0.984375,7,2,317.9268448352814,7.2696757316589355,33775,139472,845041,5261274,"[ 2  0  3  2  1  2  0  1  2  5  0  0  0  2  0  1  6  8  2  4  0  3  5  4
  5  5  0  0  3  8  1 10  0  0  6  6  4 10  0  5  6  4  5  4 12  3 16  9
  2  0  3  4  2  0  5 14  9  2 14 17  4 21 20  0 21 16  1 20 23  0  3  1
  3 22 17 11  8 17 27]"
2200,336.0,0.984375,7,2,318.58586406707764,6.5901923179626465,33831,139872,848335,5284318,"[ 2  0  3  2  1  2  0  1  2  2  0  0  0  2  0  1  6  5  1  7  3  3  5  4
  4  0  4  3  8  7  5 10  5  1 10  3  2 10 13  5  6  4  2  4 12  3  3  3
  4 17  9  3  2  9  1  9 15  0  0 18  1  0 17  0  2 20  2 20 20  0  3  1
  0 14 21 11  8 17 27]"
2300,336.0,0.984375,7,2,319.26297402381897,6.77109956741333,33879,140272,851744,5308457,"[ 2  0  3  2  1  2  0  1  2  0  0  1  0  2  0  0  2  6  1  4  0  3  5  4
  4  2  4  0  1  3  1 10 13  0  2  6  0  0  3  5  6  4  3  6  7  2 11  9
  4 10  9  2  2  9  4  9 10  1  0 11  0  0 15  2  3  1  0  1 17  0  0  1
  3 14 20 11  8 17 13]"
2400,336.0,0.984375,7,2,319.9574909210205,6.945168972015381,33940,140672,855360,5333357,"[ 2  0  3  2  1  2  0  1  2  0  2  0  0  2  0  0  5  4  3  0  8  3  5  4
  4  4  8  0  1  3  4 12 13  2 10  6  0 11 11  5  6  4  3 13 12  5  2 14
  5 10 18  2  9 10  5  9 16  1  0  0  0 15  0  5  1 14  0 15 15  2 23  0
  4  2 20 11  8 17 13]"
2500,336.0,0.984375,7,2,320.63365387916565,6.761629581451416,33989,141072,858890,5357761,"[ 2  0  3  2  1  2  0  1  2  2  1  0  0  2  0  0  6  3  4  1  8  3  5  4
  4  0  8  0  1  3  2  9  4  1 10  7  0  1  4  5  6  4  1 10 13  0 10 13
  5 12  2  5 12 15  4 15 14  4 17 12  5  3  0  0  0 18  3 20 15  2 20 21
  5 18 23 11  8 17 13]"
2600,336.0,0.984375,7,2,321.29284381866455,6.591899394989014,34032,141472,862449,5382697,"[ 2  0  3  2  1  2  0  1  2  5  1  0  0  2  0  0  4  1  1  4  7  3  5  4
  4  1  0  0  1  3  3 11  9  0 13  3  2  8 11  5  6  4  1 13  8  3  1 12
  0  1  9  2  3  0  3 12 12  1  3 15  5 21 23  5  0 17  4 18 19  3 21 21
  1 18 14 11  8 17 13]"
2700,336.0,0.984375,7,2,321.94586420059204,6.530203819274902,34082,141872,865937,5406811,"[ 2  0  3  2  1  2  0  1  2  2  2  0  0  2  0  0  4  0  3  0  8  3  5  4
  4  7  1  0  1  3  1  3  9  4 13 10  2  7  3  5  6  4  0 13  2  0 10 14
  1 16 11  5 14 12  0 11  3  3  2 15  3  3 20  0  3 14  1 15 23  4 19  2
  0 23 17 11  8 17 13]"
2800,336.0,0.984375,7,2,322.6109845638275,6.651203632354736,34128,142272,869441,5431264,"[ 2  0  3  2  1  2  0  1  2  3  0  0  0  2  0  5  4  4  5  4  7  3  5  4
  5  6  2  0  1  3  1 12  9  1 11  3  3  0  8  5  6  4  0  2 12  0 10 11
  5 11 16  1  3 18  1 11 16  1 11  2  3 19 20  1 20  0  3 17 14  0 19  2
  3 23 19 11  8 17 13]"
2900,336.0,0.984375,7,2,323.27820682525635,6.67222261428833,34180,142672,873063,5456554,"[ 2  0  3  2  1  2  0  1  2  4  0  0  0  2  0  0  7  7  1  6  3  3  5  4
  5  6  6  0  1  3  4  1  8  4  0  2  2  1  8  5  6  4  2  2  9  3 12  1
  3 11 16  0 15 12  3 18 16  1 11  0  4 15 20  0 18 17  0 14 14  0 16  1
  1 23 21 11  8 17 13]"
3000,336.0,0.984375,7,2,323.93193197250366,6.5372514724731445,34230,143072,876627,5481038,"[ 2  0  3  2  1  2  0  1  2  3  0  1  0  2  0  2  1  1  3  3  3  3  5  4
  5  7  2  0  1  3  5 13  1  2 11  3  4 12  8  5  6  4  5  2  3  3 17 16
  3 11  0  2  0 10  3  3 13  1  1  0  1  2 21  0 17 19  2  2  0  0  0  0
  1  0  1 11  8 17 13]"
3100,336.0,0.984375,7,2,324.56084513664246,6.2891316413879395,34284,143472,879859,5503475,"[ 2  0  3  2  1  2  0  1  2  3  0  1  0  2  0  1  8  2  3  4  8  3  5  4
  5  7  6  0  1  3  4  0  1  3 13 11  4  5 12  5  6  4  2  2  4  1 18  9
  3 15  0  3  0 16  0 15 12  0  1  0  3 18  1  0 17 14  3 20 17  0  3  3
  1 18 20 11  8 17 13]"
3200,336.0,0.984375,7,2,325.39520502090454,8.34359884262085,34334,143872,883418,5528188,"[ 2  0  3  2  1  2  0  1  2  0  2  0  1  3  0  0  8  2  0  0  2  3  5  4
  2  6  3  0  1  3  1  0  1  3  9  7  1  5  7  5  6  4  1  5 13  5 13 12
  0 17 17  3 10  0  4 14  1  2 14  9  3 18  3  0 22 16  5 14 20  0 22  0
  3 20 23 11  7 17 13]"
3300,336.0,0.984375,7,2,326.24148416519165,8.462791442871094,34396,144272,886764,5551555,"[ 2  0  3  2  1  2  0  1  2  0  2  0  1  2  3  0  8  7  0  2  1  3  5  4
  2  6  0  0  1  3  1  3  1  5  1  7  5  8 12  5 10  4  0 13  5  3 15 13
  0 12 16  1 14  0  4 14 14  1 14  9  4 21 15  0 15 16  0 14 20  0  3  0
  3  1 23 11  7 17 13]"
3400,336.0,0.984375,7,2,326.9382703304291,6.967861652374268,34454,144672,889784,5572483,"[ 2  0  3  2  1  2  3  3  2  0  2  0  4  2  1  1  0  0  0  2  1  3  5  4
  3  6  8  0  1  3  0  3  6  3  1  2  3 11 13  5 10  4  5 13  5  2  2  9
  5 18  3  0 15 13  3 11 12  5 17 13  0 15 14  2 15 23  2  1 15  1 23 23
  3  1  1 11  7 17 13]"
3500,336.0,0.984375,7,2,327.6060755252838,6.678051948547363,34520,145072,893057,5595186,"[ 2  0  3  2  1  2  3  3  2  0  2  0  4  3  3  2  0  1  0  2  1  3  5  4
  3  5  8  0  1  3  1  5 10  3  0 10  1 10  9  5 10  4  5  3  2  5 18 11
  2  1 15  0  3 13  2  1 12  5  1  3  0 17 15  2 23 18  2  2 18  3 23 23
  4 15  1 11  7 17 13]"
3600,336.0,0.984375,7,2,328.27336144447327,6.672859191894531,34566,145472,896282,5617591,"[ 2  0  3  2  1  2  3  1  1  0  2  0  4  1  3  4  5  3  0  2  1  3  5  4
  0  2  7  0  1  3  5  2 10  0 12 10  3  7  4  5 10  4  1  3 10  5 13 18
  5 14  0  0  9 18  2 17 18  5 13 18  5 19 17  4 16 22  3 16 16  4 23 14
  5  0 19 11  7 17 13]"
3700,336.0,0.984375,7,2,328.9294447898865,6.56083345413208,34622,145872,899551,5640502,"[ 2  0  3  2  1  2  5  1  2  0  2  0  5  3  0  5  5  3  0  2  1  3  5  4
  4  2  1  0  1  3  4 12  9  5 10  0  1  9 11  5 10  4  5  8 13  1 11 10
  0 14 13  1 18  9  0 14 18  1 13  9  5 23  3  5 23 17  3 16 19  2  1 17
  4 18 23 11  7 17 13]"
3800,336.0,0.984375,7,2,329.7014157772064,7.719709873199463,34671,146272,902888,5663541,"[ 2  0  3  2  0  0  2  1  2  0  2  0  2  1  0  2  5  5  0  2  1  3  6  4
  5  2  8  0  1  3  1  3  5  3 10  3  1  4  6  5 10  4  5  5 10  1  0 10
  0 14 16  3 18 10  4 18 10  1 18 14  3 20  1  0 14 14  0 16  1  3  0 19
  4 15 22 11  7 17 13]"
3900,336.0,0.984375,7,2,330.3697154521942,6.68299674987793,34725,146672,906126,5685971,"[ 2  0  3  1  1  3  2  1  2  0  2  0  4  1  2  2  5  4  0  2  1  3  6  4
  4  4  8  0  1  3  1 10  5  2 11  1  4 11  6  5 10  4  2 11  1  1 18 10
  3 14 11  3 18 17  2  0 11  4 13 11  0  3 19  5 20 23  5 17  3  3 18  0
  2 14 20 11  7 17 13]"
4000,336.0,0.984375,7,2,331.0599853992462,6.9026994705200195,34783,147072,909467,5709173,"[ 2  0  3  1  1  2  2  1  2  0  2  0  2  1  0  2  6  4  0  2  1  3  6  4
  4  1  8  0  1  3  0  7  5  2 11  6  4  9  5  5 10  4  1  1 10  1 18  3
  2  9 14  3  9  2  5 18 11  3 13 15  0 23  0  0 19 18  5 14  3  4 14  0
  2  0 14 11  7 17 13]"
4100,336.0,0.984375,7,2,331.80165123939514,7.416658401489258,34838,147472,912760,5732194,"[ 2  0  3  3  1  0  2  1  2  0  2  0  0  2  2  3  5  4  0  2  1  3  6  4
  5  0  3  0  1  3  4  7 10  1  1  3  0  5 12  5 10  4  5 13 11  1  9  1
  0  9 17  4 18 14  4  2 15  1 11  0  4 18 19  3 14  0  2  0  0  4 16 16
  5 22 21 11  7 17 13]"
4200,336.0,0.984375,7,2,332.49753403663635,6.958827972412109,34891,147872,916062,5755008,"[ 2  0  3  1  1  1  2  1  2  0  2  0  1  0  3  5  1  7  0  2  1  3  6  4
  3  7  0  0  1  3  4  9 10  2  4  5  5  3 13  5 10  4  5  7  9  1  3 14
  2  9 12  1 10 12  4  9  0  3 15  1  4 14 18  2 17 16  0 23  0  4  3 22
  3  1 21 11  7 17 13]"
4300,336.0,0.984375,7,2,333.26010060310364,7.625665664672852,34943,148272,919442,5778569,"[ 2  0  3  2  1  1  2  1  2  0  2  0  0  1  1  1  8  3  0  2  1  3  6  4
  5  6  0  0  1  3  4  5 10  3  0 13  0  9  6  5 10  4  5  8  6  1 17  3
  3  9  1  2 12  3  5 11  3  0  9  9  2 19 20  5 23 20  0 15  0  2  3 22
  2  0 21 11  7 17 13]"
4400,336.0,0.984375,7,2,333.9323480129242,6.722474098205566,35002,148672,922803,5802026,"[ 2  0  3  1  2  0  2  1  2  0  2  0  0  1  1  1  7  4  0  2  1  3  6  4
  5  6  6  0  1  3  4  5 11  4  6 11  2  2  5  5 10  4  0  8  6  2  9 18
  1  9  9  3 15 12  4 17 18  0 11 15  4 23 20  5 23  1  3 16  0  0 23 22
  4 15 17 11  7 17 13]"
4500,336.0,0.984375,7,2,334.6268091201782,6.944611072540283,35049,149072,926141,5825182,"[ 2  0  3  4  0  3  2  1  2  0  2  0  2  2  3  0  3  2  0  2  1  3  6  4
  3  4  7  0  1  3  1  1  7  5 13  5  1  2 13  5 10  4  0 11  6  5 16  3
  4 16 14  4 10  3  3  2 11  1 11 10  1 23 17  4  2 18  4  1  0  0 18 19
  4  1 17 11  7 17 13]"
4600,336.0,0.984375,7,2,335.31602454185486,6.892154216766357,35103,149472,929506,5848560,"[ 2  0  3  2  2  3  2  1  2  0  2  0  3  1  3  1  2  5  0  2  1  3  6  4
  5  1  4  0  1  3  3  3  0  5  4  1  2  5 11  5 10  4  2 11  0  1 13  1
  0 18 16  0  3 16  3 12  9  3 13 18  0 20 18  5 19 15  3 15 21  2  0 15
  4  1 17 11  7 17 13]"
4700,336.0,0.984375,7,2,336.0077610015869,6.917364597320557,35155,149872,932836,5871787,"[ 2  0  3  2  1  2  2  1  2  0  2  0  0  3  3  1  2  0  0  2  1  3  6  4
  5  1  0  0  1  3  3  3  4  2  0  0  2  4 11  5 10  4  2  9 10  4 13  1
  1 13 11  0  3 16  3  3  1  0 10 18  5 21 16  5 14  2  3 23 21  4 16 17
  2 18 17 11  7 17 13]"
4800,336.0,0.984375,7,2,336.7683470249176,7.605860233306885,35200,150272,936234,5895561,"[ 2  0  3  2  1  2  2  3  0  0  2  0  4  1  1  0  3  1  0  2  1  3  5  4
  5  5  2  0  1  3  2  4  7  2  1 11  2  3  4  5 10  4  4 11  3  4  9  9
  0 18  1  0 11  1  0  9 15  5 11 18  4 20 16  0 16 15  4 20 21  4  0 16
  5 20  0 11  7 17 13]"
4900,336.0,0.984375,7,2,337.4594728946686,6.911258697509766,35251,150672,939506,5918146,"[ 2  0  3  2  1  2  2  3  1  0  2  0  4  2  3  2  5  1  0  2  1  3  5  4
  0  2  3  0  1  3  5  4  7  2  7 11  4 11 10  5 10  4  5  2  3  4 18 18
  3 16 15  1 15  9  0  9 16  5 11 18  4 15 21  3 14 14  5 16 14  2  0 23
  4 20 20 11  7 17 13]"
5000,336.0,0.984375,7,2,338.1238453388214,6.64372444152832,35317,151072,942755,5940745,"[ 2  0  3  2  1  2  3  3  1  0  2  0  4  2  1  5  7  1  0  2  1  3  5  4
  0  5  3  0  1  3  5  0  2  3  7 10  4 11 10  5 10  4  5  2  1  2  0  1
  3 16 10  3 15 11  5 10 13  0 17 11  5  0 17  3 14  1  5 16 14  2  0 17
  1 20 20 11  7 17 13]"
5100,336.0,0.984375,7,2,338.85222935676575,7.283840179443359,35375,151472,946044,5963644,"[ 2  0  3  2  1  2  5  0  0  0  2  0  4  3  1  0  7  0  0  2  1  3  5  4
  0  5  8  0  1  3  0 10  0  2 11  9  1 12  0  5 10  4  5  9  2  0 12 15
  3 10 10  3  9 11  4  3 12  0 17  2  3  0 21  2 19 16  5 16  2  1  0  2
  3 20 18 11  7 17 13]"
5200,336.0,0.984375,7,2,339.46574425697327,6.135149002075195,35427,151872,949332,5986629,"[ 2  0  3  2  1  2  1  3  1  0  2  0  4  1  2  1  4  6  0  2  1  3  5  4
  2  2  3  0  1  3  0  5  2  3  1  0  0 12  0  5 10  4  3  2  6  0 13 16
  0 13  1  3 15 11  0 17 12  0 15 16  1 15  3  2 14  0  3 16 16  1 22 22
  0 19 22 11  7 17 13]"
5300,336.0,0.984375,7,2,340.29834175109863,8.325974941253662,35478,152272,952617,6009429,"[ 2  0  3  2  1  2  1  2  3  0  2  0  3  2  3  5  6  6  0  2  1  3  5  4
  4  3  1  0  1  3  4  4  2  3  1 11  0  5 12  5 10  4  1  2  6  1  3 13
  0  3  0  2  3  0  0 12  1  4  2 18  4 23 21  1  2 23  3 19 15  4 15 21
  0  2  1 11  7 17 13]"
5400,336.0,0.984375,7,2,341.0427887439728,7.444469928741455,35525,152672,955884,6032058,"[ 2  0  3  2  1  2  2  3  3  2  1  0  0  3  2  1  8  5  0  2  1  3  5  4
  1  8  1  0  1  3  4  8  2  4  1  3  0  0  2  5 10  4  2  6  9  1 14  1
  1 11 10  3 18 15  4 11 12  4 15 17  5 23 22  5 15 20  4 20 17  4  2  1
  0  2 19 11 16 17 13]"
5500,336.0,0.984375,7,2,341.69386410713196,6.510753631591797,35581,153072,959183,6055186,"[ 2  0  3  2  1  2  5  3  1  3  0  0  1  1  2  4  4  5  0  2  1  3  5  4
  0  8  8  0  1  3  1 11  2  5  9 10  5 13  2  5 10  4  2  1  6  0 13 16
  4 14 10  0 17 18  4 10 11  4  0 10  5  3 15  3 19 16  5 14 20  4 18 22
  0  2  0 11 28 17 13]"
5600,337.0,0.984375,6,2,342.2955198287964,6.016557216644287,35636,153472,962323,6075349,"[ 2  0  3  2  1  2  5  2  3  1  0  3  2  0  1  4  4  5  4  8  3  3  5  4
  2  1  3  0  1  3  4 12  7  1  9  8  5  7  5  0 11  2  4  1  3  0 16  1
  4  9 12  0  9 16  4  2  2  0 15 14  0  0  3  5 19 16  2 21 19  4 16  1
  0  2  0 11 28  9 13]"
5700,337.0,0.984375,6,2,342.86191296577454,5.663931369781494,35690,153872,965352,6094079,"[ 2  0  3  2  1  2  5  3  2  2  0  1  5  1  1  4  4  5  3  0  2  3  5  4
  5  1  4  0  1  3  4  1  9  5  5  3  1  7  5  2  9  6  4  1  1  2 18 16
  5  2  9  3 17  3  0 11  2  1 13 11  0  0  0  1 19 17  3 16  3  0  1  1
  0  2  0 11 28  9 13]"
5800,337.0,0.984375,6,2,343.41762948036194,5.557165145874023,35742,154272,968266,6112323,"[ 2  0  3  2  1  2  5  1  1  4  2  1  4  3  1  4  4  5  0  3  2  3  5  4
  4  1  2  0  1  3  1  1  5  5 11  4  2  7  2  5  8  1  0  6  6  3 17 16
  1 15 13  1 11  0  2 11 16  4 12  3  2  2  0  5 19 15  3 16 17  3 18 17
  0  2  0 11 28  9 13]"
5900,337.0,0.984375,6,2,343.9855225086212,5.678930282592773,35797,154672,971210,6130869,"[ 2  0  3  2  1  2  1  1  0  4  0  2  4  1  2  4  4  5  0  8  5  3  5  4
  3  1  2  0  1  3  1  3  3  1 11  2  2 11 11  5  4  8  4  3  3  0 18 12
  5 17 17  0 11 12  4 11 17  1 17 14  4  1  1  5 19 20  5 14 20  3 19 18
  0  2  0 11 28  9 13]"
6000,337.0,0.984375,6,2,344.51452827453613,5.29005765914917,35861,155072,973965,6148168,"[ 2  0  3  2  1  2  1  3  1  4  1  2  1  2  0  4  4  5  2  8  5  3  5  4
  3  1  3  0  1  3  4  6  3  3 13  8  1  7 11  1  3  8  3  3  4  4  1 12
  5 17 16  0  3 11  0  1 17  2 12  0  0 16  1  5 20  0  4 17 15  1  0 23
  0  2  0 11 28  9 13]"
6100,337.0,0.984375,6,2,345.0740349292755,5.595066547393799,35921,155472,976983,6166762,"[ 2  0  3  2  1  2  2  0  2  5  1  1  0  2  0  4  4  5  2  8  5  3  5  4
  5  1  4  0  1  3  5  5  3  4 13  8  3  6 11  3  2  8  0  0  7  4  3 15
  5  3 15  5  2 11  1  1 12  2 14 11  3  1 19  3  3 19  4 17 14  5 18 19
  1  2  0 11  8  9 13]"
6110,342,1.0,7,3,345.1360342502594,6.199932098388672,35926,155512,977311,6168771,"[ 2  0  3  2  1  2  2  0  2  1  1  1  0  2  0  4  4  5  2  8  5  3  5  4
  5  3  4  0  1  3  5  5  2  4 13  5  3  6 11  3  2  8  0  0  8  5  3 15
  5  3 15  5  2 11  1  1 12  2 14  0  3  1 19  3 16 19  4 17  2  0 18 19
  2 22 15 11 16  9 13]"
6172,343,1.0,7,2,345.4480378627777,5.0323163309404935,35962,155760,978787,6179117,"[ 2  0  3  2  1  2  2  0  2  3  2  3  3  0  0  4  4  5  2  8  5  3  5  4
  5  7  4  0  1  3  5  5  1  4  5  0  3  6 13  4  2  8  0 11  8  5  3  0
  4  1 15  5  2 11  2  1  1  4 14 12  3  1 16  3 15 19  0 17 19  0 18 16
  4 22 21 11 16  9 13]"
