generation,fitness,functionality,active_nodes,longest_path,time,gen_time,nc_gens,fitness_evals,graph_evals,node_evals,genotype
0,293.0,0.84375,5,2,44.492549896240234,44492.549896240234,4088,16384,109571,786792,"[ 0  0  1  4  1  3  0  2  0  1  0  0  3  2  3  0  8  2  0  3  1  0  5  8
  2  2  4  4  3  3  5  6  8  1  9 11  2  9  6  2 12  2  1  1  4  0  3 10
  0 16 10  4  3 13  2 13 10  1  2  9  2 21 15  0 22 17  5 15 22  4 22  3
  3 19 17 19  6  9 10]"
100,315.0,0.921875,7,3,45.51070261001587,10.181527137756348,4123,16784,115071,821980,"[ 4  1  1  2  3  0  0  2  0  1  3  0  2  2  2  0  1  2  0  3  1  4  7  2
  5  5  0  4  4  3  1 13  8  5  3  7  2  5  4  2 12  0  3  5  8  0 10 18
  2 11  9  4  1  9  2  9 15  3  2  9  0 19  2  4 20  1  0 16 19  1 21 19
  1  2  2 19  6  9 10]"
200,317.0,0.921875,5,3,46.40051817893982,8.898155689239502,4176,17184,120163,850712,"[ 0  0  1  4  3  2  2  3  1  1  1  2  2  0  2  0  1  2  0  3  1  5  1  7
  1  6  4  2  0  4  0  6  3  3  1  9  0 11  4  0 13 13  3  8 10  0 10 18
  2 13 11  5 10  0  5  1  2  2  0  9  0  3 21  2  1 15  5 18 18  1  1 23
  4 20 14 19 18  9 10]"
300,318.0,0.921875,5,2,47.20038199424744,7.998638153076172,4236,17584,124873,875913,"[ 5  0  3  1  0  1  1  0  2  5  0  2  2  0  2  0  1  2  0  3  1  2  1  5
  5  1  2  0  5  4  1 12  4  3  1  7  0 12  1  4 10  4  3  8 10  0  0 10
  5 17 16  4  9 18  4 18 17  0  1  0  0 15 18  0 20 16  2  0 17  1  0  0
  4 23 17 19 18  9 10]"
400,321.0,0.9375,6,3,48.07108187675476,8.706998825073242,4298,17984,129666,902488,"[ 2  3  3  4  0  3  4  2  2  5  1  1  2  0  2  0  1  2  0  3  1  2  6  3
  5  7  4  5  0  7  5  7  9  1  4 13  0  0  9  4  1  4  3  8 10  0 16 10
  1 12 18  5  1 15  5  3  9  4 14 18  2 15 17  0  1  2  4 23  0  0 17 22
  2  1  1 19 18  9 10]"
500,321.0,0.9375,6,3,49.00657653808594,9.354946613311768,4367,18384,134481,932648,"[ 2  2  3  5  3  2  4  2  2  5  1  1  2  0  2  0  1  2  0  3  1  0  6  1
  1  5  4  5  0  3  5  3  8  1 12 12  0  0  9  4  9  4  3  8 10  0 16 10
  1 12 18  5 17 14  1  9 14  0  9 18  2 15  1  0 14 19  5 22  0  0 17 22
  3 19  0 19 18  9 10]"
600,321.0,0.9375,6,3,49.870606422424316,8.640298843383789,4428,18784,139161,962067,"[ 3  2  3  1  0  3  4  2  3  3  3  0  2  0  2  0  1  2  0  3  1  1  7  3
  3  7  4  5  3  3  5 11  1  5  4  9  0  0  9  0  7 10  3  8 10  0 16  3
  1  9 17  2 14  0  4  0 14  0 15 18  4  2 18  0 19 19  5  2 14  3 23 21
  2 23 15 19 18  9 10]"
700,321.0,0.9375,6,3,50.77492809295654,9.043216705322266,4481,19184,143983,993058,"[ 3  3  3  2  3  1  5  0  3  2  0  3  2  0  2  0  1  2  0  3  1  4  7  6
  2  5  2  5  3  2  5  1  6  1  0  2  0  0  9  0  7 10  3  8 10  0 16  3
  4 17 12  3 11 17  1 17 14  5 14 17  4 14 14  5  3 23  1  3  3  4 20 21
  4  1 15 19 18  9 10]"
800,321.0,0.9375,6,3,51.71795678138733,9.430286884307861,4534,19584,148732,1023376,"[ 3  0  3  5  0  0  4  2  1  5  3  3  2  0  2  0  1  2  0  3  1  3  1  2
  0  4  2  1  1  5  5  7  0  1 13  9  0  0  9  3  7 12  3  8 10  0 16  3
  5 15 13  3  0 17  0 14 16  0 18  0  0 20  1  2 21 18  5  3 18  4 20 14
  5 17  3 19 18  9 10]"
900,321.0,0.9375,6,3,52.678033113479614,9.600763320922852,4595,19984,153416,1052600,"[ 4  0  2  5  0  3  5  3  1  1  3  1  2  0  2  0  1  2  0  3  1  4  8  7
  4  4  3  1  7  3  4  7  1  0 10  5  0  0  9  2  2  6  3  8 10  0 16 10
  1 18 17  1 10  9  4 15 17  2  3 12  1 18 21  0 15 16  3 19 14  4  0 21
  3  0 23 19 18  9 10]"
1000,322.0,0.9375,6,2,53.63720464706421,9.591715335845947,4657,20384,158418,1084452,"[ 4  0  0  1  2  1  0  2  1  4  1  1  2  0  2  0  1  2  0  3  1  4  8  7
  2  4  1  5  8  5  2 12  1  5  7  5  0  0  2  0 11  9  3  8 10  0 16 10
  3 18  2  0  2 12  4 17 17  3 14 18  0 14 16  4 19  2  5  0 17  2  0 23
  0 21 21 19 18  9 10]"
1100,322.0,0.9375,6,2,54.562105655670166,9.24901008605957,4715,20784,163251,1114766,"[ 4  1  2  2  2  3  0  2  1  4  1  0  2  0  2  3  6  5  0  3  1  1  8  6
  5  2  8  4  4  4  2 10 13  3 12 13  0  0  2  4  9 10  3  8 10  0 16 10
  5 18  2  5 11 17  1  2  0  0 15  3  1  3  3  2 20  2  5 22  0  1  0 18
  5 19 21 19 18  6 10]"
1200,322.0,0.9375,6,2,55.447230100631714,8.851244449615479,4781,21184,167951,1144041,"[ 1  1  3  0  1  3  0  2  1  1  2  2  2  0  2  5  6  5  0  3  1  1  2  2
  5  0  3  0  5  2  4 10  6  2  0  8  0  0  2  3  3 12  3  8 10  0 16 10
  3 15  2  1 15 14  4  9 16  0 10  3  3 17 23  2  1  1  2  2  0  5  0 14
  0 19 15 19 18  6 10]"
1300,322.0,0.9375,6,2,56.36923289299011,9.220027923583984,4842,21584,172775,1174125,"[ 4  3  0  1  1  3  0  2  1  2  0  2  1  1  2  2  4  2  0  3  1  5  5  0
  4  0  4  0  5  8  5 10  6  5  4  8  0  0  2  5  8  9  3  7 10  0 16 10
  1 15 16  2 15 14  2 13 12  5 15  3  2 14  0  3 19  2  2 17 23  3  3 14
  0  1 18 19 18  6 10]"
1400,322.0,0.9375,6,2,57.32316184043884,9.539289474487305,4900,21984,177695,1205244,"[ 1  1  3  2  2  2  0  2  1  2  0  2  3  1  0  4  6  6  0  3  1  0  2  5
  2  5  5  5  5  2  3 10  9  2 12 11  0  0  2  3  5  9  3  7 10  0 16 10
  2 15  3  4 16 11  3 12  2  0 16  3  5  2 23  3 18  1  4 21 22  5 16 16
  2 23 18 19 18  6 10]"
1500,322.0,0.9375,6,2,58.215487003326416,8.923251628875732,4957,22384,182602,1235620,"[ 1  3  0  0  0  0  0  2  1  2  0  2  2  1  0  3  0  3  0  3  1  0  5  7
  1  6  6  5  2  7  2 10  8  0 10 12  0  0  2  5  9  7  3  7 10  0 16 10
  2  1 10  4 16  0  0 11 10  1 17 10  0 16 23  3 20 17  3 21  3  0 22 16
  0 22 16 19 18  6 10]"
1600,322.0,0.9375,6,2,59.05449104309082,8.390040397644043,5024,22784,187450,1265661,"[ 0  0  0  0  3  0  0  2  1  2  0  2  4  1  3  0  2  6  0  3  1  0  2  7
  4  0  6  2  7  7  5  4  7  1  8  4  0  0  2  4 10 12  3  7 10  0 16 10
  0  1 11  4  2 17  0 17  0  0 11 14  0 16 20  3  3 17  4 15 16  0 22  2
  2 22 16 19 18  6 10]"
1700,322.0,0.9375,6,2,59.960957527160645,9.064664840698242,5082,23184,192315,1296243,"[ 5  0  2  2  3  0  0  2  1  2  0  2  2  1  2  4  6  3  0  3  1  0  3  2
  5  1  2  2  6  3  5  6  9  4  8 11  0  0  2  3 13  8  3  7 10  0 16 10
  2  1 15  4  2 17  1 17 11  0  2 15  0  1  3  0  2 17  1 16  0  2 19 19
  1  0 15 19 18  6 10]"
1800,322.0,0.9375,6,2,60.79093050956726,8.299729824066162,5147,23584,196982,1325328,"[ 5  1  3  1  3  3  0  2  1  2  0  2  3  3  1  1  3  3  0  3  1  5  3  1
  5  3  2  2  5  8  5 13  8  4  7  7  0  0  2  4 13  6  3  7 10  0 16 10
  5  1 11  4  9 16  1  3 11  4  9  0  5 22 20  4 21 23  4 23  0  0 19 16
  5 14 15 19 18  6 10]"
1900,322.0,0.9375,6,2,61.698448181152344,9.07517671585083,5204,23984,201850,1355741,"[ 0  3  3  5  1  3  0  2  1  2  0  2  1  1  2  3  8  8  0  3  1  5  2  1
  5  3  3  2  4  8  2  4  8  4  7  0  0  0  2  1 11 12  3  7 10  0 16 10
  4 14 11  4 11 12  1 17  0  5 15  1  5 15 16  0  0 17  0 21  3  0 19 23
  5  3 16 19 18  6 10]"
2000,322.0,0.9375,6,2,62.603355884552,9.049077033996582,5256,24384,206650,1385172,"[ 0  0  3  5  0  2  0  2  1  2  0  2  0  2  3  2  5  8  0  3  1  1  7  8
  3  0  7  1  5  6  2  4  1  3  7  1  0  0  2  4  7 12  3  7 10  0 16 10
  1  2  3  2 12 17  1  3 14  1 12 14  5  3  0  5  1 17  4 15 16  2  1 20
  1 21 19 19 18  4 10]"
2100,322.0,0.9375,6,2,63.44161581993103,8.382599353790283,5305,24784,211343,1414170,"[ 0  0  3  0  0  3  0  0  0  2  0  2  4  2  0  0  4  6  0  3  1  2  2  4
  1  0  4  3  2  6  3  0  0  3  5  9  0  0  2  5  2  2  3  7 10  0 16 10
  4 12  3  0 18 13  4  1  9  1 16 17  3  0 23  0 15 20  4  3 16  2 19 22
  5 23 19 19 18  4 10]"
2200,322.0,0.9375,6,2,64.33186602592468,8.902502059936523,5366,25184,216078,1443269,"[ 0  0  3  0  1  0  5  0  3  2  0  2  2  3  2  0  3  4  0  3  1  4  6  4
  4  2  0  2  1  6  2  6  8  3 12  4  0  0  2  0 10  2  3  7 10  0 16 10
  0 12  3  5  9  2  4 13 13  0  9 10  2  0 16  5  3  3  4 14  3  3 22 15
  2 23  2 19 18  4 10]"
2300,322.0,0.9375,6,2,65.2231376171112,8.912715911865234,5427,25584,220867,1472944,"[ 0  0  3  3  2  1  4  0  1  2  0  2  2  2  2  3  3  7  0  3  1  4  1  5
  3  0  5  2  6  1  2  5  0  2 12  7  0  0  2  3  8  0  3  7 10  0 16 10
  5 11  9  1 16 16  3 17 12  0  9 10  2 23 17  2  0  3  2 18  1  4 16 17
  1 22  2 19 18  4 10]"
2400,322.0,0.9375,6,2,66.08521127700806,8.620736598968506,5484,25984,225537,1501916,"[ 0  0  3  3  2  1  2  2  0  2  0  2  0  3  0  5  5  7  0  3  1  4  2  6
  0  7  0  3  4  8  0 11  9  2  2 13  0  0  2  5  4  5  3  7 10  0 16 10
  5  0 16  4 12 13  1 17  3  1  9 10  5 23 17  0 14 16  2 23 22  4  0 17
  5  0 18 19 18  8 10]"
2500,322.0,0.9375,6,2,66.97587442398071,8.906631469726562,5545,26384,230311,1531831,"[ 5  0  3  1  2  1  4  1  1  2  0  2  0  3  0  5  5  0  0  3  1  1  2  4
  0  5  0  1  7  1  2  5  3  1  4  9  0  0  2  1 12  3  3  7 10  0 16 10
  5 15 16  5  2 17  3 17  3  0  9  1  2 23 17  2 21 17  0 23 18  4 17 23
  5 15 18 19 18  8 10]"
2600,322.0,0.9375,6,2,67.89328742027283,9.174129962921143,5600,26784,235047,1561413,"[ 4  2  3  0  0  3  2  0  1  2  0  2  5  3  1  2  3  8  0  3  1  3  8  6
  4  0  1  2  7  4  0  6  4  4  7  0  0  0  2  2 13  8  3  7 10  0 16 10
  5  0 15  3  2 13  3 17  2  2  0 17  4 23 20  1 21 17  4 23  2  4 19 15
  4  0 18 19 18  5 10]"
2700,322.0,0.9375,6,2,68.81210732460022,9.188199043273926,5663,27184,239432,1588967,"[ 4  0  3  5  0  1  2  0  1  2  0  2  1  2  1  4  2  4  0  3  1  1  4  6
  0  8  1  2  2  4  0  0  7  3  7 13  0  0  2  3 13  5  3  7 10  0 16 10
  5 11  1  3 12 13  4 16 10  3  2 17  3 15  1  3 23 17  2 17 21  4  2 17
  2  0 18 19 18 22 10]"
2800,322.0,0.9375,6,2,69.55317449569702,7.410671710968018,5725,27584,243262,1613332,"[ 3  2  2  5  1  0  5  3  1  2  0  2  0  3  0  4  4  4  0  3  1  0  5  1
  4  3  6  2  1  4  1  6 10  1  4 13  0  0  2  1  8  5  3  7 10  0 16 10
  4 16 11  0  1 13  4 16 10  4  2  3  2 19 20  3 23 17  5 17 16  0 21  0
  0  0  0 19 18 22 10]"
2900,322.0,0.9375,6,2,70.3026282787323,7.494537830352783,5797,27984,246998,1637185,"[ 3  1  3  2  1  3  5  2  2  2  0  2  2  3  0  5  3  7  0  3  1  0  2  0
  5  0  4  0  4  4  1  8 10  4  2  2  0  0  2  3  8  5  3  7 10  0 16 10
  1  0 16  3 16  2  4 16 10  3  2  3  1  3 20  3  1 17  3 17 16  5 20 15
  0  1 22 19 18 22 10]"
3000,322.0,0.9375,6,2,71.03209257125854,7.294642925262451,5863,28384,250625,1660653,"[ 2  0  1  2  0  2  5  1  3  2  0  2  1  3  3  4  8  4  0  3  1  3  2  2
  3  8  7  1  5  4  1  8  9  4  2  9  0  0  2  0  8 13  3  7 10  0 16 10
  5  0 12  4 16 15  4 16 10  2 10 17  5 17 22  4 20 20  4 22  3  3 22 19
  2 18 21 19 18 22 10]"
3100,322.0,0.9375,6,2,71.79467177391052,7.625792026519775,5924,28784,254392,1685099,"[ 0  3  1  2  0  2  1  2  0  5  2  0  1  3  2  1  8  4  0  3  1  5  1  2
  0  8  2  1  3  4  5  9  1  4  1 12  0  0  2  4  8 12  3  5 10  0 16 10
  1  2 12  1 14 13  4 16 10  5 10 11  0 17 23  4  0 20  5  1  3  0  3  1
  5 16 21 19 18 22 10]"
3200,322.0,0.9375,6,2,72.55889916419983,7.642273902893066,5981,29184,258267,1709680,"[ 0  0  2  2  0  2  0  0  0  5  1  0  1  1  2  2  1  1  0  3  1  5  6  2
  0  7  2  1  3  4  5  9  4  5  5  4  0  0  2  5  8  3  3  5 10  0 16 10
  2 14 11  1 11 10  4 16 10  4 15  2  0 22 18  5 16 20  1  0  3  4 15  1
  4 19 21 19 18 22 10]"
3300,322.0,0.9375,6,2,73.34153699874878,7.826378345489502,6051,29584,262080,1734017,"[ 2  1  0  2  0  2  1  2  1  3  3  3  0  1  2  3  8  8  0  3  1  2  7  2
  3  7  1  2  8  2  1  9  5  4  4  4  0  0  2  4  3  3  3  5 10  0 16 10
  4 13 18  3  3 13  4 16 10  4 15  2  0 15 17  5  3 18  0 18 16  0 23  0
  5 17  3 19 18 22 10]"
3400,329.0,0.96875,8,3,74.35475730895996,10.132203102111816,6111,29984,266163,1767210,"[ 4  2  0  2  0  2  1  3  1  3  3  3  0  1  2  4  8  8  0  3  1  2  1  4
  5  2  8  3  4  6  5  9  3  4  8  0  0  0  2  2  3  8  3  5 10  0 16 10
  2  2 18  3  3 18  1 15 11  4 10  9  0 15  3  0 17  0  2 22  2  2 23 23
  1 17  3 19 18 24 10]"
3500,329.0,0.96875,8,3,75.228360414505,8.73603105545044,6163,30384,270161,1799711,"[ 4  1  1  2  0  2  0  1  1  3  2  2  0  1  2  5  7  6  0  3  1  0  0  3
  1  1  7  5  2  6  1 12  9  4  8  0  0  0  2  0 10  6  3  5 10  0 16 10
  4  2 18  1  3 11  5 15 16  4  0 15  0 15  3  3 19 16  1 16  2  5 14 23
  2 14  1 19 18 24 10]"
3600,329.0,0.96875,8,3,76.14918971061707,9.208292961120605,6226,30784,273835,1830010,"[ 2  2  1  2  0  2  4  2  0  3  2  3  0  1  2  2  2  6  0  3  1  4  0  3
  0  2  1  3  2  6  1  9  9  4  8  0  0  0  2  1  8  6  3  5 10  0 16 10
  3 17 18  5 10 15  2 15 10  4  0 15  0 15  3  0 14 15  1 20  3  5 15 23
  5 14 18 19 18 24 10]"
3700,329.0,0.96875,8,3,77.01764750480652,8.684577941894531,6287,31184,277624,1860740,"[ 1  3  2  2  0  2  4  3  2  3  1  3  0  1  2  2  0  5  0  3  1  3  2  3
  0  7  5  3  3  8  1  9  8  4  8  0  0  0  8  5  4  9  3  5 10  0 16 10
  3 12 16  5 10 15  2  1 12  3 17 18  0 15  3  3 23 22  2 19 20  3 18 23
  0 21 21 19 18 24 10]"
3800,329.0,0.96875,8,3,77.99360966682434,9.759621620178223,6353,31584,281441,1891690,"[ 1  2  2  2  0  2  3  3  0  3  0  2  0  1  2  2  8  1  0  3  1  0  6  3
  3  2  5  3  0  0  1  9 12  4  8  0  0  0  2  5  4  1  3  5 10  0 16 10
  0 15 16  4 11  3  0  1 11  5 12 18  0 15  3  4 14 22  0 16  3  5 18 22
  1 21 20 19 18 24 10]"
3900,329.0,0.96875,8,3,78.95204782485962,9.584381580352783,6418,31984,285425,1923610,"[ 1  2  2  2  0  2  4  2  0  3  1  3  0  1  2  3  8  1  0  3  1  0  3  3
  4  2  5  4  8  4  4 10  8  4  8  0  0  0  2  5  3  1  3  5 10  0 16 10
  2 18  0  4 15 17  4 18 12  5 12  9  0 15  3  4 14 22  2 14 21  4 18 22
  1 18  2 19 18 24 10]"
4000,329.0,0.96875,8,3,79.8538887500763,9.018409252166748,6471,32384,289393,1955681,"[ 3  3  2  2  0  2  3  0  1  3  1  0  0  1  2  0  8  1  0  3  1  4  4  1
  5  2  5  4  6  8  4  8 11  4  8  0  0  0  8  1  5  1  3  5 10  0 16 10
  3 13 10  5 11 17  4 17 12  4  2  9  0 15  3  4 17 14  5 16  1  4  2 14
  1 18 18 19 18 24 10]"
4100,329.0,0.96875,8,3,80.76078820228577,9.068994522094727,6526,32784,293183,1986431,"[ 0  0  0  2  0  2  5  3  1  0  2  0  2  3  2  0  2  1  0  3  1  3  0  5
  1  2  4  5  5  0  5 13  4  4  9  0  0  0  9  1  6  3  3  5 10  0 16 10
  5 16 12  4 15 17  1 16 15  4 11 10  0 15  3  2 15 20  0 18  1  0  1 14
  4 14 17 19 18 24 10]"
4200,329.0,0.96875,8,3,81.72830867767334,9.675204753875732,6583,33184,297130,2018483,"[ 1  2  2  2  0  2  4  2  1  0  1  0  4  3  0  0  2  1  0  3  1  0  1  2
  5  4  7  1  4  5  2  9  8  4 11  0  0  0  2  3  7  3  3  5 10  0 16 10
  3 16 15  0  9 11  5  2 16  0 14  1  0 15  3  3 15 20  0  1 15  1  0 16
  4 21  0 19 18 24 10]"
4300,329.0,0.96875,8,3,82.57275819778442,8.44449520111084,6644,33584,300877,2048628,"[ 5  2  2  2  0  2  3  3  2  1  2  3  5  3  0  0  2  1  0  3  1  0  1  2
  0  4  3  1  3  7  5  9  8  4 11  0  0  0 11  3  3  3  3  5 10  0 16 10
  0 18 18  5 14  3  5  2 15  4 14 18  0 15  3  4 14 18  3 18  3  5 23 18
  4  0  0 19 18 24 10]"
4400,329.0,0.96875,8,3,83.52066016197205,9.47901964187622,6707,33984,304731,2080054,"[ 0  0  0  2  0  2  5  3  2  5  2  3  5  0  2  3  4  2  0  3  1  0  1  2
  3  5  0  5  1  7  4  2  4  4 11  0  0  0  2  2  3  5  3  5 10  0 16 10
  0 11 18  2 12  9  4  2 13  3 15 18  0 15  3  4 23 15  3 17 14  3 17  1
  3 19  0 19 18 24 10]"
4500,329.0,0.96875,8,3,84.4219617843628,9.01301622390747,6771,34384,308387,2109810,"[ 5  1  2  2  0  2  5  1  1  5  2  1  1  1  3  3  4  5  0  3  1  0  1  2
  3  3  0  5  5  1  4  2  8  4 11  0  0 12 11  4  3  5  3  5 10  0 17 10
  1 11 18  3  0  2  5  2 17  3 15 18  0 15  3  1  3 14  3 15 14  2  1  1
  3 16 21 19 18 24 10]"
4600,329.0,0.96875,8,3,85.245370388031,8.234086036682129,6832,34784,311977,2139240,"[ 5  1  1  2  0  2  5  2  1  3  2  0  5  1  3  3  4  3  0  3  1  0  1  2
  3  8  2  5  0  0  0  9  8  4 11  0  3 10  1  4  1  5  3  5 10  0 17 10
  0 16  1  0 11  2  4 11  2  5  3 13  0 15  3  1 19 14  1 15 14  0 14 18
  0  0 23 19 18 24 10]"
4700,329.0,0.96875,8,3,86.08960914611816,8.442387580871582,6901,35184,315555,2168649,"[ 4  1  2  2  0  2  5  3  1  2  2  1  5  1  3  5  4  1  0  3  1  0  1  2
  3  8  4  5  6  3  0  4  8  4 11  0  3 10  7  4  3  5  3  5 10  0 17 10
  0 11  3  3 11  2  0 17 15  2 14 13  0 15  3  2 14 17  2 19  0  0  3 15
  3 14 23 19 18 24 10]"
4800,329.0,0.96875,8,3,87.0150158405304,9.254066944122314,6955,35584,319095,2197714,"[ 1  0  0  2  0  2  3  3  1  1  0  1  5  1  0  5  4  3  0  3  1  0  1  2
  3  7  8  2  6  0  2  7 10  4 11  0  2  4  6  4 10  5  3  5 10  0 17 10
  0  2 13  0  1 17  3  2 15  2 11 13  0 15  3  2 14  1  0 19 14  0  3  2
  2 20  3 19 18 24 10]"
4900,329.0,0.96875,8,3,87.88359260559082,8.685767650604248,7013,35984,322619,2226332,"[ 3  0  0  2  0  2  5  1  0  4  3  3  0  1  2  3  4  3  0  3  1  0  1  2
  3  0  3  5  5  6  5  7 10  4  8  0  1 12  7  4  5 10  3  5 10  0 17 10
  0 18  3  4 18  3  3  2  0  3 13 12  0 15  3  5 18 15  0 23 22  2 22  3
  0  0 23 19 18 24 10]"
5000,329.0,0.96875,8,3,88.7112603187561,8.276677131652832,7074,36384,326355,2256620,"[ 1  0  0  2  0  2  1  1  0  5  3  3  0  1  2  3  4  3  0  3  1  0  1  2
  3  2  7  5  8  1  5  4  0  4  8  0  5 12 11  4  5 10  3  5 10  0 17 10
  0 10  0  1 11  9  2  2 16  3 11  3  0 15  3  1  3  0  0 23 22  3 18 19
  0 14 15 19 18 24 10]"
5100,329.0,0.96875,8,3,89.58766412734985,8.7640380859375,7136,36784,329894,2285342,"[ 1  0  1  2  0  2  3  0  2  1  1  1  0  1  1  3  4  4  0  3  1  0  1  2
  2  6  3  3  3  1  1  8  7  4 11  0  5 11 10  2 10  5  3  5 10  0 17 10
  0 10  0  3 11 15  2 13  2  4 11  9  0 15  3  2  3 18  0  3 16  2 19  1
  5 22 22 19 18 24 10]"
5200,329.0,0.96875,8,3,90.45997405052185,8.72309923171997,7194,37184,333630,2315534,"[ 4  1  0  2  0  2  3  1  2  1  1  1  1  1  1  5  4  7  0  3  1  0  1  2
  5  2  1  3  4  0  4  7  7  4 11  0  5 11 10  4  1  5  3  5 10  0 17 10
  0 11  0  5 17 16  0 11  2  4 16 17  0 15  3  4 17 18  2  0 20  0 18 20
  5  3 16 19 18 24 10]"
5300,329.0,0.96875,8,3,91.32334494590759,8.633708953857422,7245,37584,337259,2344753,"[ 4  3  1  2  0  2  0  3  1  4  2  1  1  1  1  0  2  7  0  3  1  0  1  2
  5  2  7  3  3  4  1  3  7  4 11  0  1  3  8  4  5  1  3  5 10  0 17 10
  4  0  2  2  9 16  2 11  2  3  3  1  0 15  3  4 17 14  2 17  3  0 15 23
  1  0  2 19 18 24 10]"
5400,329.0,0.96875,8,3,92.1664412021637,8.430962562561035,7302,37984,341059,2374910,"[ 0  3  3  2  0  2  0  0  1  4  2  3  1  1  1  0  2  7  0  3  1  0  1  2
  2  6  7  0  3  7  0  3 11  4 11  0  0 11  3  4  5  3  3  5 10  0 17 10
  4  0 10  1 11 16  2 11  0  4 13  1  0 15  3  4 16  2  1  2  3  1 16 20
  0 22  2 19 18 24 10]"
5500,329.0,0.96875,8,3,93.16322016716003,9.967789649963379,7360,38384,344718,2404530,"[ 4  3  3  2  0  2  2  0  1  3  2  0  0  2  1  0  2  0  0  3  1  1  1  2
  3  5  4  0  2  7  3  3 10  4  8  0  0  0  3  2  5 10  3  5 10  5 17 10
  3 12 16  1 13  0  2  1  3  4 13  1  0 15  3  1 16  2  0 15 15  1 19 15
  0 17  2 19 18 24 10]"
5600,329.0,0.96875,8,3,94.0553789138794,8.921587467193604,7417,38784,348409,2434519,"[ 2  3  1  2  0  2  0  1  3  3  0  0  0  2  1  3  3  2  0  3  1  3  3  5
  3  8  5  0  2  7  0  0  0  4  8  0  2  0 13  2  5  5  3  5 10  0 17 10
  3 10 12  1 12  0  2  9  3  2  0 14  0 15  3  2 17  2  0 20  2  3 14  3
  0  1 16 19 18 24 10]"
5700,329.0,0.96875,8,3,94.88397073745728,8.285918235778809,7482,39184,352021,2463956,"[ 5  1  1  2  0  2  4  2  1  0  0  3  0  2  1  5  7  1  0  3  1  3  3  5
  3  1  4  3  1  2  5 11 10  4  8  0  4  4 13  2 10  5  3  5 10  0 17 10
  3 16 17  4 12 12  0 15 13  4 14 12  0 15  3  0 16  2  0 23  2  0  1 15
  0  0 14 19 18 24 10]"
5800,329.0,0.96875,8,3,95.69563484191895,8.1166410446167,7544,39584,355522,2492194,"[ 4  2  0  2  0  2  5  1  1  5  0  1  0  2  1  3  6  1  0  3  1  2  1  0
  3  7  2  3  1  5  1  8  5  4  8  0  4  0 11  4 10  5  3  5 10  0 17 10
  1 16 13  1 12  0  0 15  9  0 14  3  0 15  3  5 15 16  3 23 17  0  1 15
  1  0 14 19 18 24 10]"
5900,329.0,0.96875,8,3,96.54822659492493,8.525917530059814,7595,39984,359084,2520894,"[ 0  2  1  2  0  2  3  0  3  0  3  1  0  2  1  2  5  1  0  3  1  5  1  1
  1  6  2  5  4  5  2  9 12  4  8  0  0  5  7  2 10  5  3  5 10  5 17 10
  1 16 10  1 10 15  0  9 15  4 17 16  0 15  3  0 15 21  0  0  0  2 20  0
  4 15 23 19 18 24 10]"
6000,329.0,0.96875,8,3,97.38139176368713,8.33165168762207,7658,40384,362542,2549032,"[ 2  1  2  2  0  2  3  3  0  4  1  1  0  2  1  0  8  5  0  3  1  0  1  3
  4  5  2  3  4  1  2  9  3  4  8  0  4  7  6  2 10  5  3  5 10  5 17 10
  4 17 17  1 12  9  5 10 18  1 13 16  0 15  3  0 17 19  0 18 23  2 20  0
  4 15 17 19 18 24 10]"
6100,329.0,0.96875,8,3,98.21113324165344,8.297414779663086,7719,40784,366102,2577626,"[ 4  1  3  2  0  2  3  1  2  4  0  1  0  2  1  4  8  5  0  3  1  1  1  0
  4  5  2  0  1  6  2  1  3  4  8  0  4  7  8  4  1  5  3  5 10  0 17 10
  4  9  9  5 17  9  0 10 10  1 13 11  0 15  3  1 17 16  4  2 20  2 20  0
  4 19  1 19 18 24 10]"
6200,329.0,0.96875,8,3,99.27059769630432,10.594644546508789,7782,41184,369677,2606725,"[ 0  2  1  2  0  2  1  2  2  4  0  1  0  2  1  4  8  8  0  3  1  4  1  7
  2  2  8  1  0  6  4 10 12  4  4  0  5  0  8  2 10  5  3  5 10  0 17 10
  0  1 13  5  2 14  3 17 14  1 16 18  0 15  3  5 17 16  1 23 20  1  1 18
  2 22  2 19 18 24 10]"
6300,329.0,0.96875,8,3,100.15032863616943,8.797309398651123,7839,41584,373487,2637690,"[ 0  2  1  2  0  2  1  2  3  0  1  2  3  2  1  0  0  8  0  3  1  0  1  8
  0  1  4  4  0  6  2  0 12  4  4  0  0  3  4  2  5 10  3  5 10  5 17 10
  0 18  2  3  2 14  5 17 11  4 15 18  0 15  3  5 17  1  3 20 20  5  2 23
  2  3  2 19 18 24 10]"
6400,329.0,0.96875,8,3,100.99285387992859,8.425252437591553,7898,41984,377024,2666028,"[ 0  2  1  2  0  2  1  2  1  0  1  2  3  2  1  0  7  6  0  3  1  0  5  8
  0  0  4  4  7  6  3  0 12  4  4  0  5 12 12  2  5 10  3  5 10  0 17 10
  2 18 12  3 13 14  4 11 11  3 10  2  0 15  3  2 17 16  2 20 20  5 18 22
  2 23 14 19 18 24 10]"
6500,329.0,0.96875,8,3,101.96359944343567,9.7074556350708,7950,42384,380933,2697756,"[ 0  2  1  2  0  2  4  0  1  0  1  3  2  2  3  0  7  8  0  3  1  5  5  8
  0  0  2  4  0  6  3  3 10  4  4  0  3 12  8  2  4  1  3  5 10  0 12 10
  4  1  2  3  0 16  5 11 15  1 12 11  0 15  3  4 14 16  2  0 15  1  3  2
  4 19 17 19 18 24 10]"
6600,329.0,0.96875,8,3,102.91441226005554,9.50812816619873,8011,42784,384729,2728591,"[ 0  2  1  2  0  2  5  0  0  0  2  0  2  2  3  2  1  8  0  3  1  5  1  3
  0  0  4  3  0  6  3  4  7  4  4  0  3 12 13  0  4  1  3  5 10  0 12  3
  2 15  2  2 10 16  2 11 15  0 12 14  0 15  3  1 14 19  1  0 16  5  2 15
  3 19 17 19 18 24 10]"
6700,329.0,0.96875,8,3,103.87272500991821,9.583127498626709,8057,43184,388688,2760428,"[ 0  2  1  2  0  2  5  1  0  2  3  3  5  0  2  2  1  6  0  3  1  5  1  8
  0  0  4  3  5  3  3  0  3  4  4  0  4  3  1  5  4  2  3  5 10  0 12  3
  2 18  1  5 10 16  2 17 12  3 18 17  0 15  3  1 20 22  5 18 14  0  0  1
  2  3 20 19 18 24 10]"
6800,329.0,0.96875,8,3,104.81006789207458,9.37342882156372,8118,43584,392582,2792161,"[ 0  2  1  2  0  2  2  1  0  1  1  3  5  0  2  2  1  2  0  3  1  1  5  6
  0  0  4  5  1  4  0  9  7  4  4  0  3 10  9  5  5  2  3  5 10  0 12  3
  2 12 15  5 12  2  2  9 16  3 14 15  0 15  3  4 22 23  5  2 14  0 16  1
  4  3 23 19 18 24 10]"
6900,329.0,0.96875,8,3,105.72848439216614,9.184165000915527,8178,43984,396455,2823646,"[ 0  2  1  2  0  2  3  1  0  0  3  0  0  1  3  2  0  2  0  3  1  1  5  6
  0  0  4  3  1  2  1 10 12  4  4  0  1  1  4  2  5  2  3  5 10  0 12 10
  2 10 16  1 12  1  2  3 16  1 17 15  0 15  3  2 18  3  5  3 14  2 14 15
  5 14 14 19 18 24 10]"
7000,329.0,0.96875,8,3,106.57890820503235,8.50423812866211,8225,44384,400346,2854702,"[ 0  2  1  2  0  2  5  1  0  0  3  3  3  2  3  0  0  3  0  3  1  2  5  7
  0  0  4  3  5  1  1 13 12  4  4  0  2  1 12  1  9 10  3  5 10  0 12  3
  5 15  1  1 12  2  4 13 11  1 11 11  0 15  3  4  0  1  5  3  3  2 20  2
  0 14 16 19 18 24 10]"
7100,329.0,0.96875,8,3,107.46919465065002,8.902864456176758,8285,44784,404148,2885440,"[ 0  2  1  2  0  2  0  3  0  3  0  3  1  1  1  4  5  3  0  3  1  0  0  7
  0  0  4  3  0  4  3  9  4  4  4  0  2  8  3  4  1 10  3  5 10  0 12  3
  0 15  1  1 12  2  4 10 11  1 12 18  0 15  3  5  3 17  5 23  2  1 17 17
  5  2 20 19 18 24 10]"
7200,329.0,0.96875,8,3,108.4543616771698,9.851670265197754,8341,45184,408188,2918104,"[ 0  2  1  2  0  2  1  3  1  1  1  1  1  0  1  4  5  3  0  3  1  0  0  6
  0  0  2  4  7  0  1  9  4  4  4  0  0  8  3  1  1  4  3  5 10  0 12 10
  4 15  1  0 10  2  5 14 16  1 12  0  0 15  3  5 20  3  5 16 18  5 14 23
  5  2 20 19 18 24 10]"
7300,331.0,0.984375,10,4,109.30930280685425,8.549411296844482,8396,45584,412059,2949694,"[ 0  2  1  2  0  2  0  3  1  4  1  1  5  1  3  0  5  2  0  3  1  4  6  5
  0  0  2  4  7  0  1  9  3  4  4  0  5  9 12  5  8  2  3  5 10  0 12 10
  0 11 17  2  2 15  4  9 16  2 12  9  0 15 14  4 22  0  0  2 19  3 14 17
  5 18 18 19 18 24 10]"
7333,339,1.0,10,3,109.61024618148804,9.11949620102391,8413,45716,413273,2961572,"[ 0  2  1  2  0  2  1  3  1  4  1  3  5  0  3  0  5  2  0  3  1  4  8  0
  0  0  2  4  7  0  1  8  3  4  4  0  5 10 12  5  8  2  3  5 10  0 12 10
  0 11 17  5 17 15  4  9 16  2 12  9  5 15 14  1 22  0  0 23 19  3 17 17
  5 18 18 19 18 24 10]"
7400,339,1.0,10,3,110.07225036621094,6.895584846610453,8440,45984,414967,2978368,"[ 0  2  1  2  0  2  5  2  0  0  1  2  5  0  3  5  6  2  0  3  1  0  8  0
  0  0  2  4  7  4  1  8  3  4  4  0  3 10  9  0  1  2  3  5 10  0 12 10
  5 11 17  5 17 12  1  0 16  2  2  9  5 15 14  5 21  0  0 23 21  1 16  1
  5  3 18 19 18 24 10]"
7500,339,1.0,10,3,110.8024492263794,7.30198860168457,8487,46384,417429,3002720,"[ 0  2  1  2  0  2  3  3  3  2  1  3  5  0  3  1  6  5  0  3  1  0  7  3
  0  0  2  1  1  5  1  8  3  4  4  0  3  0  3  0 10  2  3  5 10  0 12 10
  5 11 17  2 15 16  1  9  2  5  1  9  5 15 14  3 19  0  0  3 19  1 17 14
  2  3 23 19 18 24 10]"
7600,339,1.0,10,3,111.51664972305298,7.14200496673584,8537,46784,419844,3026511,"[ 0  2  1  2  0  2  0  0  3  2  0  3  5  0  3  1  6  0  0  3  1  1  7  7
  0  0  2  2  1  8  1  8  3  4  4  0  1  0 11  3 13  0  3  5 10  0 12 10
  5  0 17  4  9 10  1  1 17  0  3 10  5 15 14  3 19  1  4  3 19  3  0 18
  2  3  0 19 18 24 10]"
7700,339,1.0,10,3,112.16801857948303,6.513688564300537,8595,47184,422160,3049197,"[ 0  2  1  2  0  2  3  3  0  5  0  2  5  0  3  1  3  7  0  3  1  1  4  1
  0  8  4  2  6  8  1  8  3  4  4  0  4  0  5  2  7  0  3  5 10  0 12  3
  0  0  2  2 14  9  5  0 15  0  9 11  5 15 14  3  3 19  0  2 19  4  0 21
  3 15 23 19 18 24 10]"
7800,339,1.0,10,3,112.90894389152527,7.409253120422363,8647,47584,424611,3073621,"[ 0  2  1  2  0  2  0  2  1  5  2  0  5  0  3  2  8  7  0  3  1  1  4  0
  0  8  4  4  6  7  1  8  3  4  4  0  4  0  0  3  7  8  3  5 12  0 12  0
  0 14  2  1 14 16  4  2 18  0 17 13  5 15 14  4 17 19  4 15 20  4  0 18
  3  2 23 19 18 24 10]"
7900,339,1.0,10,3,113.63411116600037,7.251672744750977,8709,47984,426990,3097249,"[ 0  2  1  2  0  2  3  2  1  4  1  0  5  0  3  0  6  7  0  3  1  1  4  0
  0  8  4  1  6  7  1  8  3  4  4  0  2  5  4  3  1  0  3  5 10  0 12  0
  1 16  3  1 14  3  0  3 18  1  9 16  5 15 14  4 17 16  4 16 17  3  1  0
  3  0 15 19 18 24 10]"
8000,339,1.0,10,3,114.31003880500793,6.759276390075684,8769,48384,429366,3120768,"[ 0  2  1  2  0  2  3  1  2  2  0  0  5  0  3  0  7  3  0  3  1  4  0  0
  0  8  4  1  6  4  1  8  3  4  4  0  5  5  4  3  5  6  3  5 10  0 12 10
  1  0  3  1  2  3  0  3  0  5  0  1  5 15 14  4 21 23  2 20 17  3 23  0
  2  0  1 19 18 24 10]"
8100,339,1.0,10,3,115.06463289260864,7.54594087600708,8816,48784,431965,3146448,"[ 0  2  1  2  0  2  4  3  0  2  0  0  4  1  3  3  5  3  0  3  1  4  4  0
  0  0  4  1  6  4  1  7  3  4  4  0  4  5  9  4 10  6  3  5 10  0 12  3
  4 16  9  1 17 13  3 14  0  5  2  3  5 15 14  2 19  3  2 14 23  3 16  1
  1  0 23 19 18 24 10]"
8200,339,1.0,10,3,115.76012253761292,6.954896450042725,8868,49184,434422,3170722,"[ 0  2  1  2  0  2  1  0  0  3  0  3  4  2  2  2  8  0  0  3  1  4  4  6
  0  0  2  0  5  4  1  7  3  4  4  0  3  5 11  0 10  2  3  5 10  0 12 10
  0 15  9  1  0  0  1 18  0  5 10 17  5 15 14  5 14 16  1 14 23  3 16 14
  0 23 21 19 18 24 10]"
8300,339,1.0,10,3,116.4572536945343,6.971311569213867,8913,49584,436826,3194437,"[ 0  2  1  2  0  2  1  2  2  5  0  3  5  2  2  2  3  1  0  3  1  4  8  0
  0  7  4  3  5  0  1  7  3  4  4  0  5 10  0  1 11  9  3  5 10  0 12  3
  0 14  9  1  0 10  0 10  3  4 16 16  5 15 14  3 19 16  0 14 23  5 21  3
  0 21 14 19 18 24 10]"
8400,339,1.0,10,3,117.12651014328003,6.692564487457275,8964,49984,439196,3217897,"[ 0  2  1  2  0  2  1  2  3  5  0  3  5  3  3  4  3  1  0  3  1  4  2  0
  0  7  4  5  7  8  1  7  3  4  4  0  5  7  0  5  8  8  3  5 10  0 12 10
  1 14 12  0  1 10  4 13  2  1 17  9  5 15 14  5 14 15  0 14 19  5 22 17
  0 23 14 19 18 24 10]"
8500,339,1.0,10,3,117.87216019630432,7.45650053024292,9017,50384,441695,3242664,"[ 0  2  1  2  0  2  5  2  0  5  0  3  4  2  1  0  3  8  0  3  1  4  1  5
  0  3  4  1  7  8  1  7  3  4  4  0  2  7  0  5  8  8  3  5 12  0 12  0
  0  2  3  2  9 10  3 17 10  5  9 11  5 15 14  5  3 20  5 20 19  2 20  0
  0  3 23 19 18 24 10]"
8600,339,1.0,10,3,118.59638929367065,7.24229097366333,9063,50784,444324,3268685,"[ 0  2  1  2  0  2  5  2  0  5  0  3  1  2  2  2  3  4  0  3  1  0  1  5
  0  3  4  4  7  8  1  7  3  4  4  0  2  7 12  5  8  8  3  5 12  0 12  0
  5  1  3  2  9 11  3 16 10  5 18 15  5 15 14  5  3 19  5 23 17  4 15 18
  4  3 23 19 18 24 10]"
8700,339,1.0,10,3,119.2874367237091,6.9104743003845215,9109,51184,446947,3294626,"[ 0  2  1  2  0  2  4  1  3  5  0  3  4  3  0  4  3  7  0  3  1  2  1  4
  0  3  4  4  0  3  1  7  3  4  4  0  5  7  8  0 10  8  3  5 10  0 12  0
  5 17  3  1  9 11  4  0 15  1 16 14  5 15 14  3 15 19  5  3  0  4 15 15
  4  3  1 19 18 24 10]"
8800,339,1.0,10,3,120.02885365486145,7.4141693115234375,9163,51584,449544,3320389,"[ 0  2  1  2  0  2  5  3  0  5  0  3  4  3  0  5  6  3  0  3  1  0  3  5
  0  7  4  3  0  2  1  7  3  4  4  0  4 11 11  4  3  5  3  5 12  0 12  0
  2 12 12  5  9 14  4 10 15  4 15 14  5 15 14  2 16 19  5 18 17  4 15  2
  1  3 19 19 18 24 10]"
8900,339,1.0,10,3,120.80743384361267,7.785801887512207,9211,51984,452050,3345167,"[ 0  2  1  2  0  2  5  3  1  5  0  3  0  1  0  2  6  1  0  3  1  0  3  6
  0  7  4  5  5  5  1  7  3  4  4  0  1  5 11  0 12  2  3  5 10  0 12  0
  3 18 16  2 12  9  2  2  2  4  1 18  5 15 14  4 14  3  4 20 22  1 15  2
  2 23 16 19 18 24 10]"
9000,339,1.0,10,3,121.5226800441742,7.152462005615234,9260,52384,454523,3369612,"[ 0  2  1  2  0  2  5  3  2  5  0  3  4  0  0  2  0  0  0  3  1  1  3  6
  0  3  4  3  5  3  1  9  3  4  4  0  1 10 11  0  9  0  3  5 12  0 12  0
  2  0  9  3  0 14  4 17 13  1 16  2  5 15 14  3 14  2  4 17 22  1 21 14
  2 23 21 19 18 24 10]"
9100,339,1.0,10,3,122.19109845161438,6.6841840744018555,9322,52784,456936,3393552,"[ 0  2  1  2  0  2  5  3  2  5  0  2  2  2  3  2  0  0  0  3  1  3  2  2
  0  3  4  0  1  3  1  9  3  4  4  0  1  2  7  4  0  0  3  5 12  0 12  0
  4 14  0  1 15 14  1  1 13  1 16 16  5 15 14  4 22 15  5 21 22  1 21 18
  3  3 21 19 18 24 10]"
9200,339,1.0,10,3,122.88835334777832,6.972548961639404,9375,53184,459353,3417434,"[ 0  2  1  2  0  2  3  0  2  5  0  2  1  2  2  3  0  0  0  3  1  2  5  8
  0  3  4  0  4  4  1  9  3  4  4  0  1  6  6  2  7  5  3  5 10  0 12  0
  2 11  9  3  0 17  2  1 13  2  0 16  5 15 14  5  2 15  4  2 18  3 22 20
  5 23 16 19 18 24 10]"
9300,339,1.0,10,3,123.64166021347046,7.533068656921387,9422,53584,461906,3442604,"[ 0  2  1  2  0  2  2  2  2  5  1  2  1  1  0  5  0  3  0  3  1  2  5  4
  0  3  4  2  4  8  1  9  3  4  4  0  1  4  8  2  4  4  3  5 12  0 12  0
  5  9 16  3 10 18  5  1 10  4  1  2  5 15 14  0  2 14  1 23 14  0 22  1
  2 23 17 19 18 24 10]"
9400,339,1.0,10,3,124.35631203651428,7.146518230438232,9479,53984,464220,3465457,"[ 0  2  1  2  0  2  4  0  2  2  3  2  0  1  2  5  0  3  0  3  1  5  5  2
  0  3  4  2  7  6  1  9  3  4  4  0  1 10  0  1  0  4  3  5 10  0 12  0
  5  2  3  1  0 14  4  2 10  4 11  2  5 15 14  3 21 14  1 23  2  4  2 14
  2  1 23 19 18 24 10]"
9500,339,1.0,10,3,124.98690867424011,6.305966377258301,9539,54384,466598,3488952,"[ 0  2  1  2  0  2  4  0  1  1  1  3  2  0  2  5  3  0  0  3  1  5  3  2
  0  3  4  2  0  1  1  9  3  4  4  0  1 10  7  0 12  6  3  8 10  0 12  0
  3  9  2  2  0  2  4 16  9  2 11  3  5 15 14  0 21 15  1 23 14  4 19 20
  0 21 23 19 18 24 10]"
9600,339,1.0,10,3,125.67672514915466,6.898164749145508,9595,54784,468934,3511908,"[ 0  2  1  0  0  0  1  0  0  0  3  0  2  0  2  5  3  0  0  3  1  5  4  2
  0  3  4  5  8  1  1  9  3  4  4  0  3  9 10  2  9  0  3  8 10  0 12  0
  4  9  0  3 17  2  2  3  1  2  1 18  5 15 14  3 21 15  4 23  3  3 15 20
  0 15 15 19 18 24 10]"
9700,339,1.0,10,3,126.30805683135986,6.313316822052002,9650,55184,471193,3534088,"[ 0  2  1  2  2  0  3  3  0  5  3  0  2  0  2  5  3  0  0  3  1  5  4  2
  0  3  4  5  2  1  1  1  3  4  4  0  3  6 11  1  9  3  3  8 10  0 12  9
  0 15 14  1 18  2  0 10 17  2  1 18  5 15 17  0 16 16  4 16 17  1 15 18
  2 23 15 19 18 24 10]"
9800,339,1.0,10,3,127.02062582969666,7.12568998336792,9703,55584,473458,3556558,"[ 0  2  1  2  2  0  5  3  3  5  2  2  2  0  2  3  0  0  0  3  1  5  2  8
  0  0  4  5  2  6  5  1 13  4  4  0  4  8  9  1  9  3  3  5 10  0 12 10
  2  0 14  1 11 14  0 10 17  2 10  2  5 15 17  0  2 21  4 20  2  5 19 18
  4 17 17 19 18 24 10]"
9900,339,1.0,10,3,127.67705583572388,6.564300060272217,9753,55984,475725,3579018,"[ 0  2  1  2  2  0  5  3  3  0  3  2  5  2  2  5  0  3  0  3  1  5  2  8
  0  3  4  5  8  6  5  1 13  4  4  0  3  2  4  1  9  3  3  5 12  0 12  0
  2  9 14  5  9 14  2 10  0  2  9 13  5 15 17  0 15 19  1 20 16  5 15 17
  1  1 19 19 18 24 10]"
10000,339,1.0,10,3,128.31687021255493,6.398143768310547,9814,56384,477827,3599826,"[ 0  2  1  2  2  0  2  0  1  0  0  3  5  2  3  5  0  3  0  3  1  0  2  8
  0  3  4  0  8  4  0  8 13  4  4  0  3  2  4  1  9  3  3  5 10  0 12  9
  0  9 10  2  9 14  0 10 11  3  9  2  5 15 17  0 15 19  1 21 16  5  1 18
  1  3 19 19 18 24 10]"
10100,339,1.0,10,3,129.0474832057953,7.3061299324035645,9863,56784,480367,3624804,"[ 0  2  1  2  2  0  4  3  3  5  0  2  0  0  3  3  0  3  0  3  1  4  7  3
  4  5  2  0  8  4  3  8  2  4  4  0  4  2  9  1  9  3  3  5 13  4 13  9
  0  9 11  4 13 13  0  1 13  2 14 16  5 15 17  5 15 14  1 18 14  5  1 21
  3 20  1 13 18 24 10]"
10200,339,1.0,10,3,129.71414351463318,6.666603088378906,9921,57184,482686,3647701,"[ 0  2  1  2  2  0  3  2  3  3  1  1  0  0  3  5  0  3  0  3  1  0  2  0
  1  4  1  0  8  4  0 12  8  4  4  0  2 11  0  1  9  3  3  5 13  4 13 10
  2 18 12  5  9 10  4 13 17  2 16 16  5 15 17  5 15  1  1  0 18  5 21 19
  1 20 21 13 18 24 10]"
10300,339,1.0,10,3,130.41575980186462,7.016162872314453,9979,57584,485191,3672507,"[ 0  2  1  2  2  0  3  3  0  3  2  1  0  0  3  5  0  3  0  3  1  1  2  0
  1  2  8  0  8  4  0  7  4  4  4  0  5  4  0  1  9  3  3  5 10  4 13 10
  2 18  2  5  9 10  4 17 17  2 16 13  5 15 17  1 14 21  1  2 19  4 21 18
  2 14 14 13 18 24 10]"
10400,339,1.0,10,3,131.1201753616333,7.044155597686768,10039,57984,487627,3696420,"[ 0  2  1  2  2  0  3  1  2  3  2  3  0  0  3  5  0  3  0  3  1  1  2  0
  1  2  0  0  8  4  0  3  4  4  4  0  4  3  0  1  9  3  3  5 10  1 13  0
  2 18  2  0 13 11  1 15 17  5  9  0  5 15 17  1 17  1  1  2 19  0 14 18
  2 14  1 13 18 24 10]"
10500,339,1.0,10,3,131.82466530799866,7.0448994636535645,10093,58384,490073,3720542,"[ 0  2  1  2  2  0  1  2  1  1  0  3  0  0  3  5  0  3  0  3  1  3  7  0
  4  6  6  0  8  4  0 13  4  4  4  0  2 13  3  1  9  3  3  5 10  1  3 16
  3  9 12  5 17  2  3 10 11  1 17  0  5 15 17  0 15 18  4  2 19  0 21 23
  0 14 16 13 18 24 10]"
10600,339,1.0,10,3,132.55623364448547,7.315683364868164,10146,58784,492472,3744310,"[ 0  2  1  2  2  0  4  3  3  5  1  3  0  0  3  3  0  0  0  3  1  5  0  0
  2  1  0  0  8  4  1 13 13  4  4  0  0 10  9  1  9  3  3  5 10  0  3 16
  3  0  0  4  9  2  3 10  1  1  1  0  5 15 17  1 15 14  4  2 16  0  1 23
  0 18 16 13 18 24 10]"
10700,339,1.0,10,3,133.2882423400879,7.32008695602417,10202,59184,494912,3768312,"[ 0  2  1  2  2  0  2  2  3  5  0  3  0  0  3  3  0  0  0  3  1  1  0  6
  2  1  8  0  8  4  1 10  6  4  4  0  3  5  6  1  9  3  3  5 10  0  3 11
  3 15 16  1  9  2  3  2  2  2 15 11  5 15 17  1 15 14  4  2  2  0  1 23
  4 22 15 13 18 24 10]"
10800,339,1.0,10,3,134.0477855205536,7.595431804656982,10256,59584,497461,3793610,"[ 0  2  1  2  2  0  2  2  0  5  0  3  0  0  3  5  3  0  0  3  1  1  0  6
  0  1  6  0  8  4  1  1 11  4  4  0  5  8  4  1  9  3  3  5 13  2 12 17
  5 15 16  1  0  3  1 11 11  1  9 11  5 15 17  0 21 14  0 17 19  0  1  1
  5  1 18 13 18 24 10]"
10900,339,1.0,10,3,134.7852282524109,7.374427318572998,10306,59984,499908,3817697,"[ 0  2  1  2  2  0  1  0  0  1  0  2  0  0  3  5  3  0  0  3  1  3  0  5
  0  1  4  0  8  4  1  0 11  4  4  0  5  8  4  1  9  3  3  5 10  2 13 12
  4 10 18  4  0 18  1 18 10  1 11  3  5 15 17  1 17 14  4 17 21  3  1 22
  2 22 17 13 18 24 10]"
11000,339,1.0,10,3,135.48156332969666,6.963350772857666,10363,60384,502243,3840830,"[ 0  2  1  2  2  0  1  0  0  1  3  2  0  0  3  5  3  0  0  3  1  3  0  8
  1  1  4  0  8  4  2  0 11  4  4  0  5  8  4  1  9  3  3  5 13  4 12  2
  3 10 12  4  0 18  3  1 10  2 11  3  5 15 17  3 17 19  3 22 23  3  0 22
  2 22 15 13 18 24 10]"
11100,339,1.0,10,3,136.2717146873474,7.901513576507568,10413,60784,504665,3864726,"[ 0  2  1  2  2  0  5  3  0  4  2  2  0  0  3  3  0  3  0  3  1  3  8  8
  0  1  8  0  8  4  2  5 12  4  4  0  5  6  2  1  6  3  5  5 13  5 11  3
  3 17 12  2 13  0  2  0 17  2 14  2  5 15 17  4 17 17  0  1 22  0 15 22
  1 18 15 13 18 24 10]"
11200,339,1.0,10,3,137.31354761123657,10.418329238891602,10472,61184,507109,3888846,"[ 0  2  1  2  2  0  0  1  3  3  0  2  0  0  3  5  0  3  0  3  1  4  8  8
  4  5  6  0  8  4  2  5 10  4  4  0  2  6  8  1  9  3  5  5 13  3 11  9
  3  3 15  3  2  0  5 18  1  1 18 12  5 15 17  4 21 21  2  1 21  0 23 20
  1 21 15 13 18 24  6]"
11300,339,1.0,10,3,138.56334328651428,12.4979567527771,10514,61584,509860,3915942,"[ 0  2  1  2  2  0  0  1  3  3  0  3  0  0  3  5  0  3  4  8  1  4  2  0
  2  5  4  0  8  4  2  0  8  4  4  0  0  2  8  1  9  3  3  5 13  2 17 12
  5 16 15  4 11 12  5 16  0  1 18 13  5 15 17  4 22 23  4 16  1  5 19 20
  3 21 15 13 18 24  6]"
11400,340,1.0,9,3,139.4725923538208,9.092490673065186,10569,61984,512233,3938585,"[ 0  2  1  2  2  0  0  1  3  0  3  3  0  0  3  5  0  1  5  2  0  1  0  3
  2  6  6  0  8  4  5  0  8  4  4  0  0  8 13  1  9  3  3  5 13  0  2  0
  5 15 14  5 17  3  1 12 11  3 14  3  5 17 20  4 22  0  4  0 15  5  1 15
  0 21 19 13 18 20  6]"
11500,340,1.0,9,3,140.67931199073792,12.067196369171143,10623,62384,514519,3958972,"[ 0  2  1  2  2  0  0  1  3  4  2  2  0  0  3  3  5  7  2  1  1  4  4  3
  2  6  7  0  8  4  5  0  8  4  4  0  4  4  4  1  8 12  3  5 13  4 15  0
  5 15 14  5 17  9  1 12 16  3 13  9  2 20 21  0 23  3  0  2 23  5 22  0
  2 19 16 13 18 20  6]"
11600,340,1.0,9,3,141.66148829460144,9.821763038635254,10682,62784,516852,3979826,"[ 0  2  1  2  2  0  0  1  3  4  2  1  0  0  3  4  1  8  5  1  5  0  5  1
  3  3  6  0  8  4  5  0  8  4  4  0  5 13  4  1 11  8  5  5 13  4 15  0
  5 15 14  5 18  2  2 16 13  3  0  9  2 20 15  0 23  3  5  2 23  1 17  0
  2 19  0 13 18 20  6]"
11700,340,1.0,9,3,142.55305075645447,8.915624618530273,10733,63184,519454,4003035,"[ 0  2  1  2  2  0  0  1  3  4  2  3  0  0  3  2  7  5  1  8  5  1  7  1
  5  6  4  0  8  4  5  0  8  4  4  0  4 10  9  5  8 13  3  5 13  3 17  2
  5 15 14  3  9  2  2 16  1  2  0  3  0 21 16  0 18  3  4 14 21  3 17  0
  2 14  3 13 18 20  6]"
11800,340,1.0,9,3,143.3498637676239,7.968130111694337,10791,63584,521661,4022763,"[ 0  2  1  2  2  0  0  1  3  1  1  1  0  0  3  3  7  1  1  4  6  1  2  2
  3  3  0  0  8  4  5  0  9  4  4  0  4 13 11  5  8  0  5  5 13  2 17 10
  5 15 14  3  9 15  4 14 10  1  0  2  5  0 18  2 22 14  4 19 17  0 17 20
  5 15 17 13 18 28  6]"
11900,340,1.0,9,3,144.20245385169983,8.525900840759277,10848,63984,523926,4042859,"[ 0  2  1  2  2  0  0  1  3  3  1  2  0  0  3  1  4  1  0  0  2  1  7  2
  2  3  0  0  8  4  5  8  8  4  4  0  4  8 13  5  8  0  3  5  6  2  2  9
  4 15 11  1 16 18  1  3  9  1  0 18  5  0 22  5  1 16  5 21 21  2  0 20
  5 15 17 13 18 28  6]"
12000,340,1.0,9,3,145.1277735233307,9.253196716308594,10897,64384,526320,4064201,"[ 0  2  1  2  2  0  0  1  3  2  0  2  0  0  3  3  6  0  0  7  6  1  5  2
  3  3  1  0  8  4  1  4 10  4  4  0  3 11 13  5  8  0  3  5  6  5 10  9
  2 18  0  0 16 18  0 18  9  3 13 18  1 23  3  5 21 20  3 23 21  0  1 16
  5 15 17 13 18 28  6]"
12100,340,1.0,9,3,145.918066740036,7.9029321670532235,10950,64784,528663,4085126,"[ 0  2  1  2  2  0  0  1  3  3  0  1  0  0  3  1  7  4  0  0  5  2  3  7
  3  3  6  0  8  4  0  0 10  4  4  0  2 11  1  5  8  0  3  5  6  5  2 12
  2 18  0  2 16 18  0  0 12  3 11  2  4 23 16  5 23 21  2 17 22  0  2 16
  5 15 17 13 18 28  6]"
12200,340,1.0,9,3,146.85870456695557,9.406378269195557,11007,65184,531065,4106550,"[ 0  2  1  2  2  0  0  1  3  2  1  2  0  0  3  4  2  1  1  5  1  2  1  7
  0  3  2  0  8  4  5 11  9  4  4  0  2 10  6  5  8  0  3  5  6  5  0 17
  2 10  2  1  9  1  0 13  3  5 16  2  1 20 20  4 23 17  2 23 14  5 19 19
  5 15 17 13 18 28  6]"
12300,340,1.0,9,3,147.79289889335632,9.341943264007568,11049,65584,533796,4130966,"[ 0  2  1  2  2  0  0  1  3  2  1  1  0  0  3  4  2  4  1  5  7  4  0  7
  5  0  8  0  8  4  3 10  0  4  4  0  1 10  6  5  8  0  3  5 13  5 15 18
  2 10 10  4 18 12  0 13 10  5  3  2  3  3 19  4 23 22  2 16 17  1 17 23
  5 15 17 13 18 28  6]"
12400,340,1.0,9,3,148.61936473846436,8.264658451080322,11102,65984,536052,4151146,"[ 0  2  1  2  2  0  0  1  3  3  0  0  0  0  3  4  3  2  3  5  7  2  0  7
  4  1  8  0  8  4  5  3  0  4  4  0  4  3  9  5  8  0  5  5 13  4 15 18
  2  0 10  3  2 12  0 15 16  0 14  2  2  1  0  3 23  2  3  1  1  2  1 16
  5 15 17 13 18 28  6]"
12500,340,1.0,9,3,149.4778389930725,8.584742546081543,11155,66384,538332,4171467,"[ 0  2  1  2  2  0  0  1  3  2  1  2  0  0  3  0  6  5  3  2  4  2  7  5
  3  4  3  0  8  4  5 12  6  4  4  0  3  3 13  5  8  0  3  5  6  1  1 14
  1 11 11  3  2 12  0 16 16  0 11 18  0  0 23  0 17 21  3  0  1  5  1  0
  5 15 17 13 18 28  6]"
12600,340,1.0,9,3,150.3048050403595,8.269660472869873,11203,66784,540729,4192945,"[ 0  2  1  2  2  0  0  1  3  2  3  1  0  0  3  4  5  5  4  0  4  3  7  0
  2  8  3  0  8  4  3  1 12  4  4  0  3  9 13  5  8  0  3  5  6  1 18 12
  2 14  9  3 13 12  3  2  3  4  3 12  1  3 17  0  0 21  4 18 16  5 18 16
  5 15 17 13 18 28  6]"
12700,340,1.0,9,3,151.2424864768982,9.376814365386963,11260,67184,542904,4212347,"[ 0  2  1  2  2  0  0  1  3  4  3  2  0  0  3  1  1  8  2  3  4  0  7  6
  2  4  7  0  8  4  0  5 10  4  4  0  1 13  2  5  8  0  3  5  6  0 18 18
  2  3 16  3 10 15  5  1  0  3  3  9  2 22  3  1 14 14  4 18 21  1 21 19
  5 15 17 13 18 28  6]"
12800,340,1.0,9,3,151.9573040008545,7.148175239562988,11317,67584,545236,4233209,"[ 0  2  1  2  2  0  0  1  3  4  3  0  0  0  3  1  5  7  5  7  0  2  2  2
  5  7  7  0  8  4  1 10 12  4  4  0  0  8  3  5  8  0  3  5 13  3 18  1
  2  3 18  5 16 13  2  1  2  3 10 10  5 17 18  0 23 18  1 18  2  3 21 17
  5 15 17 13 18 28  6]"
12900,340,1.0,9,3,152.64579129219055,6.884872913360596,11370,67984,547644,4254714,"[ 0  2  1  2  2  0  0  1  3  4  3  2  0  0  3  1  1  5  5  7  2  0  8  3
  3  0  7  0  8  4  1 13  3  4  4  0  0  8  3  5  8  0  3  5 13  5  9  3
  1  3 15  1  1 12  1  3  3  2 10 13  3 15  0  0 22 14  1  1  1  3  1  3
  5 15 17 13 18 28  6]"
13000,340,1.0,9,3,153.2325849533081,5.867936611175537,11430,68384,549832,4274171,"[ 0  2  1  2  2  0  0  1  3  3  2  3  0  0  3  5  6  5  0  7  4  3  8  3
  4  3  1  0  8  4  4  8  2  4  4  0  2 12  3  5  8  0  3  5 13  5 13  3
  2  3 15  0  1 18  1  3 16  2 18 13  3 15 14  0 16 19  1  1 19  0  2  3
  5 15 17 13 18 28  6]"
13100,340,1.0,9,3,153.86530113220215,6.32716178894043,11485,68784,552188,4295183,"[ 0  2  1  2  2  0  0  1  3  1  2  3  0  0  3  5  6  3  2  5  1  1  8  3
  1  0  1  0  8  4  5  8  7  4  4  0  4 10  3  5  8  0  3  5 13  2 18  3
  0  3  3  3  1 12  4 15 14  3 10 17  3 19 22  5  3  1  4  0 19  1  2  0
  5 15 17 13 18 28  6]"
13200,340,1.0,9,3,154.50182175636292,6.365206241607666,11537,69184,554526,4316040,"[ 0  2  1  2  2  0  0  1  3  2  2  3  0  0  3  0  7  4  0  6  1  2  8  7
  2  3  1  0  8  4  3  1  7  4  4  0  4  7  5  5  8  0  3  5 13  2 18  3
  5  3 11  2  1  1  4 13 15  2  3  2  2 21 17  5  3 21  3 22 19  2  3  0
  5 15 17 13 18 28  6]"
13300,340,1.0,9,3,155.1228220462799,6.210002899169922,11597,69584,556833,4336528,"[ 0  2  1  2  2  0  0  1  3  2  0  1  0  0  3  0  7  4  2  8  8  2  5  0
  1  6  1  0  8  4  1  0  7  4  4  0  4 12 13  5  8  0  5  5 13  2 14  1
  1 11 11  0 11  1  1 13 15  2  3  2  2 21 15  5  0 21  2  0 22  4  3 20
  5 15 17 13 18 28  6]"
13400,340,1.0,9,3,155.75340294837952,6.305809020996094,11644,69984,559204,4357704,"[ 0  2  1  2  2  0  0  1  3  2  0  3  0  0  3  3  7  4  0  5  0  1  1  6
  3  6  5  0  8  4  1 12  7  4  4  0  4 12  8  5  8  0  5  5 13  4 10  9
  1  0  1  5  9 11  1 16 17  4 14 15  4 20 14  1 15 17  2 15 14  3  3 16
  5 15 17 13 18 28  6]"
13500,342,1.0,8,2,156.4455428123474,6.921398639678955,11693,70384,561766,4380295,"[ 0  2  1  2  2  0  0  1  3  2  0  3  0  0  3  3  1  1  2  3  0  2  1  4
  3  6  5  0  8  4  4 12  3  4  4  0  1  9  8  5  8  0  5  4  7  2 10  9
  1 11  3  3  1 15  2 14 11  3 18 16  5 20 14  3 15  3  2 15  3  2 20 16
  5 15 17 13 12 18  6]"
13600,342,1.0,8,2,157.1046805381775,6.591377258300781,11747,70784,564572,4402427,"[ 0  2  1  2  2  0  0  1  3  2  0  3  0  0  3  0  1  3  4  3  2  0  3  4
  3  6  5  0  8  4  4  4  1  4  7  0  0  2 13  1  2  4  5  4  7  5  3 12
  3 10 10  2 14 16  2 14 11  2  1 18  5 16 14  3  1 15  1 15  0  5 18  0
  5  1 22 13 12 18  6]"
13700,342,1.0,8,2,157.82618951797485,7.215089797973633,11798,71184,567382,4424640,"[ 0  2  1  2  2  0  0  1  3  2  0  3  0  0  3  0  3  3  1  6  4  0  3  0
  3  6  5  0  8  4  0  9 12  0  8  9  1 12 10  2  0 10  5  4  7  5  2  2
  3 12  3  0  9 18  5 14  0  3 14 18  5 14 14  3 20 15  5 15  1  0 19 14
  4  1 16 13 12 18  6]"
13800,342,1.0,8,2,158.55735635757446,7.311668395996094,11843,71584,570159,4446556,"[ 0  2  1  2  2  0  0  1  3  2  0  3  0  0  3  5  1  7  3  6  7  3  3  0
  3  6  5  0  8  4  0  0  7  0  8  3  1 12  7  5 13 10  5  4  7  0  0 11
  0  2 13  3 10  0  4  3  2  3  9  3  4 15 14  2 21 15  0  3 14  0 22 20
  0 18 17 13 12 18  6]"
13900,342,1.0,8,2,159.28812527656555,7.307689189910889,11903,71984,572872,4467954,"[ 0  2  1  2  2  0  0  1  3  2  0  3  0  0  3  5  8  4  4  8  0  3  6  6
  3  6  5  0  8  4  0  8  6  3  1 13  0  7  6  5  1 10  5  4  7  0  1  2
  0  2 13  1 10 15  4 17  3  3 14 16  0 14 15  2 22 17  0 20 19  5  2 20
  3 15 17 13 12 18  6]"
14000,342,1.0,8,2,159.94116735458374,6.530420780181885,11954,72384,575522,4488884,"[ 0  2  1  2  2  0  0  1  3  2  0  3  0  0  3  5  5  6  3  8  4  5  6  7
  3  6  5  0  8  4  3  8  9  2  1  9  2 13  1  5  2  7  5  4  7  2 12  2
  5  1  1  1 18  2  5  9 12  3 18 15  0 15 15  0 22 17  5 20 20  3  2 20
  3 19 22 13 12 18  6]"
14100,342,1.0,8,2,160.6077709197998,6.6660356521606445,12003,72784,578200,4509975,"[ 0  2  1  2  2  0  0  1  3  2  0  3  0  0  3  1  6  6  1  7  4  2  2  7
  3  6  5  0  8  4  3  6 10  5 12 11  4 11  1  1  1 13  5  4  7  3 14  2
  5 10 13  1 18  9  4 10 14  1 10  2  0 19  2  0 22  0  1 18 20  1 15  2
  4 16 23 13 12 18  6]"
14200,342,1.0,8,2,161.27685260772705,6.690816879272461,12054,73184,580946,4531609,"[ 0  2  1  2  2  0  0  1  3  2  0  3  0  0  3  3  4  8  2  5  8  2  6  1
  3  6  5  0  8  4  3  6  8  2  5 10  3 13  8  5 13  2  5  4  7  3  0  0
  5 17 12  1 18  1  4 10  9  1 17  2  1 19 16  3 20  0  0 17 14  5 15  3
  0 20 16 13 12 18  6]"
14300,342,1.0,8,2,162.07433080673218,7.97478199005127,12104,73584,583678,4553080,"[ 0  2  1  2  2  0  0  1  3  2  0  3  0  0  3  1  4  3  5  6  2  2  4  2
  3  6  5  0  8  4  3  1  0  0  3  5  5  4  9  4  6  2  5  4  7  5  0 18
  2 17 12  4 18  1  4 17 18  5  2 12  3  0 17  0  2 20  0  2 23  4 21  3
  3  0 19 13 12 18  6]"
14400,342,1.0,8,2,162.78876614570618,7.14435338973999,12151,73984,586335,4574092,"[ 0  2  1  2  2  0  0  1  3  2  0  3  0  0  3  1  4  8  1  6  6  1  5  1
  3  6  5  0  8  4  3  9  2  2 12  1  2  4 11  5 11  9  5  4  7  4  3 13
  2 15 16  1  2  1  5  2 13  1  2  1  4  0 23  5 15 18  1 18 23  0 22 16
  5 17 15 13 12 18  6]"
14500,342,1.0,8,2,163.55029702186584,7.61530876159668,12194,74384,589281,4597416,"[ 0  2  1  2  2  0  0  1  3  2  0  3  0  0  3  2  3  0  5  6  1  1  5  4
  3  6  5  0  8  4  3  9  7  4  1  9  3  6  1  5  0  2  5  4  7  4 18 15
  2  9 15  1 12 11  5 15 13  1  3 11  4  2  1  5 17 14  1  3 22  5  3 20
  5 14 17 13 12 18  6]"
14600,342,1.0,8,2,164.23737168312073,6.870746612548828,12251,74784,591932,4618350,"[ 0  2  1  2  2  0  0  1  3  2  0  3  0  0  3  0  3  0  2  3  4  3  4  6
  3  6  5  0  8  4  5 12  7  2  4  1  4  2 12  5 12  7  5  4  7  4 18  1
  5  1  2  0 12 13  1  9 17  1 14 17  4 20 16  5  0 23  3 20 15  1 22 20
  1 14 17 13 12 18  6]"
14700,342,1.0,8,2,164.90300059318542,6.656289100646973,12304,75184,594534,4638861,"[ 0  2  1  2  2  0  0  1  3  2  0  3  0  0  3  2  4  1  2  1  7  2  8  2
  3  6  5  0  8  4  4  4 10  5  5  5  4 10 10  2 10  1  5  4  7  2 17  2
  5  1  1  0 10  2  5 14 10  2 14 13  3 23 16  1 23 22  3 20 15  2 23 19
  5  2 20 13 12 18  6]"
14800,342,1.0,8,2,165.5844976902008,6.814970970153809,12356,75584,597296,4660648,"[ 0  2  1  2  2  0  0  1  3  2  0  3  0  0  3  0  7  1  2  5  8  5  2  8
  3  6  5  0  8  4  2  4  2  3 11  1  4  0 12  0  9  1  5  4  7  4 14 18
  0  1  9  3 18  0  1 12 16  4  0 17  4 19 16  5  3 17  5 18  0  1 23 21
  1  2 15 13 12 18  6]"
14900,342,1.0,8,2,166.25502252578735,6.7052483558654785,12411,75984,600007,4682016,"[ 0  2  1  2  2  0  0  1  3  2  0  3  0  0  3  0  6  1  4  5  8  2  7  7
  3  6  5  0  8  4  0  4  3  5 10 13  4  0  6  0  1  8  5  4  7  5 14 18
  2 16  2  3 15  1  5 17 11  2 16  2  2 19 16  1 16 18  5 19 20  0  3 21
  1  0 17 13 12 18  6]"
15000,342,1.0,8,2,166.919371843338,6.643493175506592,12462,76384,602728,4703414,"[ 0  2  1  2  2  0  0  1  3  2  0  3  0  0  3  5  2  2  5  4  0  2  7  8
  3  6  5  0  8  4  5 13  5  1 12  5  2 12  9  5  8  3  5  4  7  4  1  2
  4 16  2  0 12 10  4 17 10  0  1 14  4 15 17  5 23 18  4 16 16  0 20  0
  3  2 18 13 12 18  6]"
15100,342,1.0,8,2,167.6387734413147,7.194015979766846,12506,76784,605639,4726423,"[ 0  2  1  2  2  0  0  1  3  2  0  3  0  0  3  5  2  8  0  0  4  0  0  6
  3  6  5  0  8  4  0  5  3  2  8  3  5 11  8  2 11 12  5  4  7  4 12  2
  5 16  2  0  0 15  0 17 18  3 12  9  0 14 21  1  3 18  0 16 16  0 20  1
  0 17  1 13 12 18  6]"
15200,342,1.0,8,2,168.291889667511,6.531162261962891,12557,77184,608425,4748324,"[ 0  2  1  2  2  0  0  1  3  2  0  3  0  0  3  0  6  1  3  4  8  0  4  5
  3  6  5  0  8  4  2  1 13  3  8  0  3 10  1  1  1 12  5  4  7  5  2  2
  3 18 18  4  0 15  5 14 18  0 16 11  4 20 21  0 23 21  3 16 21  0 20 15
  3 21 19 13 12 18  6]"
15300,342,1.0,8,2,168.9810025691986,6.891129016876221,12603,77584,611295,4770919,"[ 0  2  1  2  2  0  0  1  3  2  0  3  0  0  3  0  2  1  2  7  0  3  8  5
  3  6  5  0  8  4  3  6  0  3 13  8  2  9  0  1  0  4  5  4  7  0  2 15
  0 13 16  4 14 11  4 12 14  2 14 11  4 16 21  2 23 22  2 20  0  4 17  0
  3 15 19 13 12 18  6]"
15400,342,1.0,8,2,169.705561876297,7.245593070983887,12651,77984,614222,4794026,"[ 0  2  1  2  2  0  0  1  3  2  0  3  0  0  3  0  8  2  2  7  3  5  2  2
  3  6  5  0  8  4  4  9  9  3  6 12  3 12 11  3  6  4  5  4  7  1 17 14
  4 15 11  5  9 13  1 16 14  2 14 11  4 15 21  2 19 16  4  1 19  4 18 18
  2 23 20 13 12 18  6]"
15500,342,1.0,8,2,170.3843092918396,6.787474155426025,12710,78384,616998,4815808,"[ 0  2  1  2  2  0  0  1  3  2  0  3  0  0  3  0  0  1  1  1  5  2  3  2
  3  6  5  0  8  4  4  0  5  3  7 12  1  7  1  2  6  5  5  4  7  3 16 11
  2 13  2  5 12  0  3  9  2  0  2 17  4 15 20  2  1 17  4 17 23  3 21 21
  5  3  2 13 12 18  6]"
15600,342,1.0,8,2,171.03221225738525,6.479029655456543,12764,78784,619831,4838098,"[ 0  2  1  2  2  0  0  1  3  2  0  3  0  0  3  2  0  1  1  4  6  2  8  6
  3  6  5  0  8  4  4 13 11  2  3  0  1  5  1  4  9 11  5  4  7  4 16 11
  2 18  0  1  9  3  3  2 13  5 11 15  0 21  3  2 18 18  0 21 23  0  0 21
  5  3  1 13 12 18  6]"
15700,342,1.0,8,2,171.6967010498047,6.644887924194336,12812,79184,622552,4859515,"[ 0  2  1  2  2  0  0  1  3  2  0  3  0  0  3  2  7  4  1  8  0  2  6  8
  3  6  5  0  8  4  4 10 12  0  0 12  0  0  5  4  4 11  5  4  7  3  1  3
  2  0 15  1 15  1  4 16 18  2 11 17  1 21  3  4  3 17  1 16 22  1  3 18
  4 15 20 13 12 18  6]"
15800,342,1.0,8,2,172.37837767601013,6.816766262054443,12865,79584,625434,4882254,"[ 0  2  1  2  2  0  0  1  3  2  0  3  0  0  3  3  4  3  2  1  0  0  4  3
  3  6  5  0  8  4  4  6 12  1 13  1  0  3  5  1 12 10  5  4  7  4  9  1
  0 10 13  1  0 18  4 10 11  5  2  0  3 21 14  1  3  1  1 21 21  1  2 21
  4 15 20 13 12 18  6]"
15900,342,1.0,8,2,173.0784592628479,7.0008158683776855,12909,79984,628371,4905386,"[ 0  2  1  2  2  0  0  1  3  2  0  3  0  0  3  5  5  3  0  1  5  5  4  7
  3  6  5  0  8  4  5  8 12  4 12  4  2  2  1  2  0 11  5  4  7  5  9 15
  5 10  1  1  0 15  4 10 17  2  2 16  4 21 15  3 22 20  4 17  0  1 16 18
  4 19  3 13 12 18  6]"
16000,342,1.0,8,2,173.74835515022278,6.698958873748779,12960,80384,631120,4927162,"[ 0  2  1  2  2  0  0  1  3  2  0  3  0  0  3  5  5  4  4  6  5  4  1  2
  3  6  5  0  8  4  5 13  6  4 10  5  0  3  0  2  9 11  5  4  7  1 15 12
  4  0 14  4 13  0  3  0 17  5 10  0  4  2  0  4 22 20  5 19 17  1 16 18
  0 23  2 13 12 18  6]"
16100,342,1.0,8,2,174.42006659507751,6.717114448547363,13015,80784,633812,4948476,"[ 0  2  1  2  2  0  0  1  3  2  0  3  0  0  3  5  7  4  2  6  5  1  7  6
  3  6  5  0  8  4  5  4  6  2 10  6  5  5  0  4  0 11  5  4  7  4 14 10
  2  0 10  3 10 14  3  0 13  3 10  0  0  0 21  0 19  2  4 19 19  5 23 14
  0 20 23 13 12 18  6]"
16200,342,1.0,8,2,175.06699180603027,6.469252109527588,13063,81184,636490,4969667,"[ 0  2  1  2  2  0  0  1  3  2  0  3  0  0  3  3  8  5  2  2  5  0  1  4
  3  6  5  0  8  4  5 12  1  1  3  6  5  9  0  4  0 11  5  4  7  1 13 13
  2  0 10  1  0 14  1 10 13  1 10  2  2  3 21  4  2 21  4 19  2  1 15 14
  0 20 23 13 12 18  6]"
16300,342,1.0,8,2,175.7597599029541,6.927680969238281,13119,81584,639153,4990581,"[ 0  2  1  2  2  0  0  1  3  2  0  3  0  0  3  3  6  2  3  2  1  0  6  4
  3  6  5  0  8  4  5 10  1  5  0  7  4  9  8  5  0 11  5  4  7  3 13 16
  5 10 18  4 17 12  3 12  1  1 10  2  2 17 21  4  2 23  4 19 19  1  0  2
  0 22 23 13 12 18  6]"
16400,342,1.0,8,2,176.40601682662964,6.462569236755371,13180,81984,641824,5011615,"[ 0  2  1  2  2  0  0  1  3  2  0  3  0  0  3  0  6  7  0  2  0  1  6  3
  3  6  5  0  8  4  2  8  4  2  7 12  3  9  6  5  4 11  5  4  7  4 17  3
  0 15 11  4 16 14  4  3 15  0 14 12  2 14 21  3 21 23  4 22  1  1 15 18
  0 22 16 13 12 18  6]"
16500,342,1.0,8,2,177.072407245636,6.663904190063477,13229,82384,644685,5034117,"[ 0  2  1  2  2  0  0  1  3  2  0  3  0  0  3  1  6  5  5  3  1  4  0  6
  3  6  5  0  8  4  2  8  4  2  7  5  1  4 11  1  4 13  5  4  7  5 16  3
  5 11 18  4 11 15  0  0 17  3 18 11  0 21 21  3 14 14  1 22  0  1 15 18
  0 22 18 13 12 18  6]"
16600,342,1.0,8,2,177.73862671852112,6.662194728851318,13270,82784,647542,5056703,"[ 0  2  1  2  2  0  0  1  3  2  0  3  0  0  3  2  4  5  4  3  7  0  8  7
  3  6  5  0  8  4  4  0  0  2  7  9  1 12 13  4  0  4  5  4  7  4 11 12
  1 10  9  1  1  3  3 10  0  5 12 14  0 15 22  0 22  3  5 22  0  3 23 23
  3  0 21 13 12 18  6]"
16700,342,1.0,8,2,178.43615698814392,6.975302696228027,13314,83184,650392,5079152,"[ 0  2  1  2  2  0  0  1  3  2  0  3  0  0  3  0  5  6  5  6  6  5  0  2
  3  6  5  0  8  4  0  6  1  2  7  2  2  9  9  2  6  6  5  4  7  0 14  9
  5 14  9  0  1 10  0  3 15  4  3  9  0 21 17  1 21 18  2  1 20  5 19  2
  2  1 17 13 12 18  6]"
16800,342,1.0,8,2,179.14630389213562,7.101469039916992,13366,83584,653218,5101575,"[ 0  2  1  2  2  0  0  1  3  2  0  3  0  0  3  4  1  5  0  5  8  4  4  2
  3  6  5  0  8  4  3  0  7  2 13 10  0 11  3  3 10  0  5  4  7  0 16 13
  0  3 16  2  3 16  3  0  3  0 15 10  3  3 14  4 17  3  2  1 19  5 15 22
  3  1 20 13 12 18  6]"
16900,342,1.0,8,2,179.83648920059204,6.901853084564209,13423,83984,655824,5122094,"[ 0  2  1  2  2  0  0  1  3  2  0  3  0  0  3  3  5  8  0  3  7  5  4  7
  3  6  5  0  8  4  5  4  7  0  7  7  0 11  2  4  4  0  5  4  7  5 16 13
  0  3 16  2  9 16  3 14  9  2 17 11  3 22 14  3  0 17  2  1 14  3 22  0
  0 15 21 13 12 18  6]"
17000,342,1.0,8,2,180.5660331249237,7.29543924331665,13471,84384,658626,5144305,"[ 0  2  1  2  2  0  0  1  3  2  0  3  0  0  3  5  5  2  5  3  8  2  3  0
  3  6  5  0  8  4  5  4  7  0  7  7  1  8  7  1  2  0  5  7  7  0 18  9
  3 11  2  2  9 18  2 17 17  5 17 15  1  3 23  2 23 17  3 16  1  2 14  0
  5 14 21 13 12 14  6]"
17100,342,1.0,8,2,181.21473836898804,6.4870524406433105,13514,84784,661606,5167726,"[ 0  2  1  2  2  0  0  1  3  3  3  1  0  0  3  5  8  2  2  6  6  2  3  0
  3  6  5  0  8  4  5  4 11  0  7 10  2 11  3  1  7  5  0 12 12  1 17 10
  4  9  9  0  1 14  3  3  2  3  3  3  0 14  1  5 15 21  3 16  0  1 14  0
  5 17 14 13 12 14  6]"
17200,342,1.0,8,2,181.96895146369934,7.542130947113037,13555,85184,664419,5189938,"[ 0  2  1  2  2  0  0  1  3  1  2  1  0  0  3  0  5  1  2  2  2  2  3  0
  3  6  5  2  0  4  5  4 11  0  4  8  3  0 12  4  1 12  1 10  2  1  3 17
  2  2 18  2  3 12  2 14  1  3  9  3  4  2 15  5 15 20  4 15 22  3 17 17
  4 22  3 15 12 14  6]"
17300,342,1.0,8,2,182.65297651290894,6.840250492095947,13598,85584,667014,5210532,"[ 0  2  1  2  2  0  0  1  3  3  0  1  0  0  3  0  8  6  0  5  3  2  3  0
  3  6  5  5  4  2  5  4 11  0  4  8  4  3  5  3  6  5  1  8  6  2 16  2
  1  2 16  2  3 16  1 18 17  3 16  0  0 16 14  3 15 19  1 23 19  1 22  1
  5 18  3 15 12 14  6]"
17400,342,1.0,8,2,183.33384490013123,6.8086838722229,13643,85984,669713,5231806,"[ 0  2  1  2  0  0  0  1  3  2  2  0  0  0  3  4  0  8  4  0  0  2  3  0
  3  6  7  0  1  5  5  4 11  0  4  8  1  1  5  3  6  0  5 10  6  5  3  9
  4 15  2  4 12 16  5 18 13  2 11 16  0  3 14  2 23 14  2 20 23  2 19 21
  4 17 21 15 12 14  6]"
17500,342,1.0,8,2,184.03443908691406,7.005941867828369,13695,86384,672343,5252579,"[ 0  2  1  2  1  2  0  1  3  2  2  0  0  0  3  1  0  1  4  0  3  2  3  0
  3  6  7  5  1  5  5  4 11  0  4  8  4 11  5  3  6  1  1 13  8  0 12  3
  4 16  2  4 12 16  4 15 10  2 10  0  2 23 17  3 14 17  3 14 21  2 21 21
  1 17 20 15 12 14  6]"
17600,342,1.0,8,2,184.64057683944702,6.06137752532959,13747,86784,674882,5272697,"[ 0  2  1  0  1  1  0  1  3  2  2  0  0  0  3  4  0  1  4  7  1  2  3  0
  3  6  7  5  1  3  5  4 11  0  4  8  0 11  3  3  8 13  5 11  9  4 12  2
  3 18 17  0 17 16  4 13 16  5 17 17  5 23 14  0 22 15  3 21  0  5 21 22
  5  0 17 15 12 14  6]"
17700,342,1.0,8,2,185.27748274803162,6.369059085845947,13793,87184,677469,5293188,"[ 0  2  1  2  3  1  0  1  3  2  2  0  0  0  3  4  0  1  1  7  7  2  3  0
  3  6  7  3  5  3  5  4 11  0  4  8  3  6 10  5  4  4  1  2 11  4  3  2
  3 11  1  1  1 10  1  0  9  5 10  0  0 19 14  3 14 21  2 16 16  2 15 22
  4  0 18 15 12 14  6]"
17800,342,1.0,8,2,185.92637538909912,6.488926410675049,13843,87584,680161,5314437,"[ 0  2  1  4  3  0  0  1  3  2  2  0  0  0  3  4  7  1  3  5  3  2  3  0
  3  6  7  5  1  3  5  4 11  0  4  8  4 13 12  1 10  4  3  0  9  4  3 11
  3  9 12  0  1 11  1 17  9  0 13 12  3 23 14  3  3 19  2  3  3  4 17 17
  0 17 17 15 12 14  6]"
17900,342,1.0,8,2,186.62865209579468,7.022767066955566,13882,87984,682890,5336087,"[ 0  2  1  2  2  3  0  1  3  2  2  0  0  0  3  2  4  5  0  2  6  2  3  0
  3  6  7  5  1  2  5  4 11  0  4  8  3 10 11  1 10  2  4  0  6  5 18 13
  2 10 12  0 14  0  2  9  2  2  9  3  1 19 16  1  3  3  1 18 22  3  3  3
  2 19 19 15 12 14  6]"
18000,342,1.0,8,2,187.23421049118042,6.055583953857422,13927,88384,685516,5356811,"[ 0  2  1  4  2  0  0  1  3  2  2  0  0  0  3  3  3  1  1  2  1  2  3  0
  3  6  7  2  2  2  5  4 11  0  4  8  0  1  1  1  6  9  4  0  6  2 14  0
  3  9  3  4 16  2  0 17 14  3  3 10  0 21  2  5 23 18  4 18 16  1  3  0
  1 19 22 15 12 14  6]"
18100,342,1.0,8,2,187.87012219429016,6.359117031097412,13989,88784,687873,5375395,"[ 0  2  1  2  2  0  0  1  3  2  2  0  0  0  3  1  1  1  1  5  3  2  3  0
  3  6  5  2  4  1  5  4 11  0  4  8  1  1 11  1  9  8  0  3  8  2 12  0
  3 16  2  4 16 15  5 17 16  2  9 16  4 22 22  5 23 17  5 20 16  0 19 17
  1  2 22 15 12 14  6]"
18200,342,1.0,8,2,188.56453347206116,6.944112777709961,14033,89184,690629,5397140,"[ 0  2  1  2  2  0  0  1  3  3  1  3  0  0  3  0  4  1  4  5  1  2  3  0
  3  6  5  2  7  3  5  4 11  0  4  8  2  5  0  1 13 10  1  8  2  5 17 11
  1 16 11  0 14 14  2 15 16  1 10  0  3  2  2  5 14 18  5 22 17  5 23  3
  0 20 22 15 12 14  6]"
18300,342,1.0,8,2,189.1836860179901,6.191525459289551,14085,89584,693059,5416381,"[ 0  2  1  2  2  0  0  1  3  5  2  3  0  0  3  3  1  5  5  3  3  2  3  0
  3  6  5  3  2  2  5  4 11  0  4  8  2 13  6  2  2  7  1  3 11  5  1 10
  3 11 17  1  9 16  5  2 12  1 15 16  0 17 18  2  2 22  0  1  1  1  1  1
  3  2 19 15 12 14  6]"
18400,342,1.0,8,2,189.8206925392151,6.370065212249756,14132,89984,695571,5436334,"[ 0  2  1  2  2  0  0  1  3  2  2  3  0  0  3  0  4  0  5  0  5  2  3  0
  3  6  5  2  2  8  5  4 11  0  4  8  0 13  1  4  3  8  1  1 12  3 10  9
  2  9 17  1 14  3  3  3  9  3  0 12  3 20 16  3 14 22  3 21  1  0 16  1
  5  2 20 15 12 14  6]"
18500,342,1.0,8,2,190.49001479148865,6.693222522735596,14178,90384,698178,5456932,"[ 0  2  1  2  2  0  0  1  3  4  1  2  0  0  3  5  4  6  4  0  4  2  3  0
  3  6  5  4  2  4  5  4 11  0  4  8  4  0  1  3  2  9  1  3 10  3 14 14
  5 12 10  1 18 12  1 12 11  3  0 12  5 20  0  5 17 21  2 14 23  5 20 18
  3  2 20 15 12 14  6]"
18600,342,1.0,8,2,191.11362028121948,6.23605489730835,14230,90784,700778,5477479,"[ 0  2  1  2  2  0  0  1  3  5  1  1  0  0  3  5  2  8  3  0  4  2  3  0
  3  6  5  3  2  2  5  4 11  0  4  8  4 13 10  4  0  9  1  3 10  1  9 14
  1  0 10  1 10 18  0 12 11  1 14 17  3 15 19  0 17 21  5 14 16  5 20  1
  1  2 15 15 12 14  6]"
18700,342,1.0,8,2,191.78717684745789,6.735565662384033,14280,91184,703328,5497615,"[ 0  2  1  2  2  0  0  1  3  5  2  3  0  0  3  5  0  3  4  0  8  2  3  0
  3  6  5  2  0  5  5  4 11  0  4  8  4 13  1  2  0 13  3  6  2  4  9  9
  1  1 18  5  9 15  5 15 16  4 14 18  3  2 17  4 16  3  3 18 23  5 20 18
  3  0  1 15 12 14  6]"
18800,342,1.0,8,2,192.40112113952637,6.1394429206848145,14335,91584,705846,5517549,"[ 0  2  1  2  2  0  0  1  3  3  2  0  0  0  3  0  1  3  5  0  8  2  3  0
  3  6  5  2  0  5  5  4 11  0  4  8  4 11  4  2 10  3  4  8  6  0  9  2
  1 13 18  0  9 15  3 13  9  4 14 18  4  2  1  3  3  0  2 19  0  0 20  2
  4  0 15 15 12 14  6]"
18900,342,1.0,8,2,193.0519003868103,6.5077924728393555,14383,91984,708528,5538760,"[ 0  2  1  2  2  0  0  1  3  2  3  0  0  0  3  1  5  6  1  8  8  2  8  0
  3  6  5  1  1  6  5  4  7  0  4  8  1  4  1  2  1  7  0  1  6  4  9  1
  0 16 14  0  9 16  5 17 13  3 17  9  3 22 16  2 14  1  5  2 16  0 23 21
  4  0 15 15 12 14  6]"
19000,342,1.0,8,2,193.74797797203064,6.960775852203369,14429,92384,711407,5561520,"[ 0  2  1  2  2  0  0  1  3  2  3  0  0  0  3  2  3  0  2  8  8  2  6  5
  3  6  5  5  3  0  5  4  7  0  4  8  0  1  1  5 13  7  3  2  6  3 11 10
  2 16 10  3  9 11  3  1 12  2 12 12  2 19 22  4 14  0  1 16 20  1 23 14
  5  3  1 15 12 14  6]"
19100,342,1.0,8,2,194.4210662841797,6.7308831214904785,14481,92784,714103,5582828,"[ 0  2  1  2  2  0  0  1  3  2  3  0  0  0  3  1  6  6  3  8  2  1  8  5
  3  6  5  2  5  3  4  4  2  0  4  8  0  7  7  5  4  7  3  2 13  0 15 14
  3  9  3  5  1 12  0 16 10  2  3 14  2  0 21  4  2 14  1 14  0  3 20 22
  5  3  1 15 12 17  6]"
19200,342,1.0,8,2,195.06899237632751,6.4792609214782715,14531,93184,716742,5603684,"[ 0  2  1  2  2  0  0  1  3  2  3  0  0  0  3  1  6  1  3  8  8  1  3  8
  3  6  5  0  4  6  5  4  1  0  4  8  0  2  7  5  4  7  2  7  1  1 11 14
  2  3  3  2 13  1  2  9 10  2  3  2  1 21 21  1  3 20  5 22 23  5 22 22
  5 16  3 15 12 17  6]"
19300,342,1.0,8,2,195.68759059906006,6.1859822273254395,14584,93584,719215,5623144,"[ 0  2  1  2  2  0  0  1  3  2  3  0  0  0  3  1  6  8  5  7  7  1  1  3
  3  6  5  5  2  4  1  3  4  0  4  8  3  3  7  5  4  7  2 13  6  1 11 10
  2 13 16  4 13  9  3  0 14  5 18 16  5 14 23  3 15  1  5 14 16  5 22 20
  4 14 15 15 12 17  6]"
19400,342,1.0,8,2,196.40212607383728,7.145354747772217,14631,93984,722109,5645964,"[ 0  2  1  2  2  0  0  1  3  2  3  0  0  0  3  3  3  8  5  1  3  1  3  5
  3  6  5  2  2  3  1  8 12  0  4  8  1 12  8  5  4  7  4  9  6  5  2 14
  3  9 11  4 16 13  3 11 14  5  9 18  5 20 23  1  1  0  3 14 16  4 22  2
  5 15 19 15 12 17  6]"
19500,342,1.0,8,2,197.07332038879395,6.71194314956665,14687,94384,724635,5665920,"[ 0  2  1  2  2  0  0  1  3  2  3  0  0  0  3  2  7  8  1  6  5  4  0  2
  3  6  5  2  1  3  2  4 11  0  4  8  0 13  3  5  4  7  4  1  1  4 12 14
  3 11 12  1 10 11  4 14 17  4  3 12  2 19 20  2  2 23  1  1 16  2 19  2
  1 21  3 15 12 17  6]"
19600,342,1.0,8,2,197.70719003677368,6.338696479797363,14738,94784,727299,5686908,"[ 0  2  1  2  2  0  0  1  3  2  3  0  0  0  3  3  7  8  1  1  7  4  4  3
  3  6  5  2  1  5  2 13  0  0  4  8  1  1  4  5  4  7  1  1  0  5 17 13
  2 11 17  4 16 14  4  9 17  4  2 13  2  2  2  5  2 23  3 14 18  4 19 14
  0 23 17 15 12 17  6]"
19700,342,1.0,8,2,198.45230674743652,7.451167106628418,14785,95184,730087,5708807,"[ 0  2  1  2  2  0  0  1  3  2  3  0  0  0  3  1  5  6  0  6  2  4  4  8
  3  6  5  2  2  5  4  9  5  0  4  8  5  0 10  5  4  7  0 10  3  2 13 17
  5 15  9  4  1 14  4  3 11  4  0  2  3 14 22  5  1 23  5 17 19  4 18 18
  4 22 23 15 12 17  6]"
19800,342,1.0,8,2,199.08822798728943,6.359212398529053,14838,95584,732902,5731042,"[ 0  2  1  2  2  0  0  1  3  2  3  0  0  0  3  0  1  6  0  3  1  2  7  7
  3  6  5  3  2  4  5  2  5  0  4  8  1  0 10  5  4  7  0  9  8  0  1 14
  5  0 14  4 13 10  3 10 11  3 10  2  4  0 20  1 18  3  0 21 19  4 18 18
  0 22 22 15 12 17  6]"
19900,342,1.0,8,2,199.77643871307373,6.882107257843018,14885,95984,735741,5753402,"[ 0  2  1  2  2  0  0  1  3  2  3  0  0  0  3  0  1  0  4  3  8  3  7  7
  3  6  5  5  6  4  2 10  4  0  4  8  1  8  0  5  4  7  1  6  4  3  1  3
  5  0 15  4  2  2  4 16 12  2 10 16  2  0 15  4 21  3  3 22 19  2  1 23
  1 22 23 15 12 17  6]"
20000,342,1.0,8,2,200.47221422195435,6.957755088806152,14938,96384,738394,5774390,"[ 0  2  1  2  2  0  0  1  3  2  3  0  0  0  3  2  4  2  3  6  2  5  3  5
  3  6  5  0  4  0  5 10  6  0  4  8  3  1  0  5  4  7  5  6  6  0  0 17
  1  0 14  4 16  1  3 13  2  5 15 11  5  0 14  2 14  2  4 20 17  5 23  0
  2 16 17 15 12 17  6]"
20100,342,1.0,8,2,201.12812685966492,6.559126377105713,14990,96784,741117,5795952,"[ 0  2  1  2  2  0  0  1  3  2  3  0  0  0  3  3  6  4  4  7  7  5  5  7
  3  6  5  3  4  3  4 10  6  0  4  8  3  1  1  5  4  7  5 12 10  3 17 13
  3 17  0  5 18  3  4  3 14  4  2 11  0 21 14  2 14 15  4 19 20  4 23 21
  4 21 20 15 12 17  6]"
20200,342,1.0,8,2,201.77679634094238,6.486694812774658,15043,97184,743751,5816760,"[ 0  2  1  2  2  0  0  1  3  2  3  0  0  0  3  0  7  4  1  0  7  0  2  6
  3  6  5  0  4  0  3 11 12  0  4  8  3 11  8  5  4  7  1 13  1  3 16  0
  1 18  0  0 13 17  4 18  3  4 13 16  2 22 14  2  3 21  0 19 19  2 18 21
  2 15  2 15 12 17  6]"
20300,342,1.0,8,2,202.41154623031616,6.347498893737793,15093,97584,746375,5837544,"[ 0  2  1  2  2  0  0  1  3  2  3  0  0  0  3  1  7  5  4  2  7  1  3  3
  3  6  5  0  2  3  2  8  9  0  4  8  3  3  1  5  4  7  1  3  3  1 13  2
  0 11  3  0 12 18  5 16 16  0 17 11  0 17 14  4  2 17  3 19 19  4 18 15
  5 19 14 15 12 17  6]"
20400,342,1.0,8,2,203.2744266986847,8.628804683685303,15144,97984,748989,5858229,"[ 0  2  1  2  2  0  0  1  3  2  3  0  0  0  3  2  4  1  2  7  6  1  5  6
  3  6  5  5  2  3  5 10  1  0  4  8  5  8  2  5  4  7  1  4  1  0 12 17
  0  1  9  5 12  3  2  9 18  5  0 17  4 14 14  4 16  0  4  0 19  5  0 23
  5 20 22 15 12 17  6]"
20494,343,1.0,7,2,203.9228494167328,6.898114021788252,15186,98360,751657,5879282,"[ 0  2  1  2  2  0  0  1  3  2  3  0  0  0  3  0  4  1  4  8  4  0  8  0
  3  6  5  5  7  6  4  4 13  0  4  8  0  8 12  5  4  7  5 12 10  0 18 16
  0 11  9  3 12 15  2 14  0  1 11  9  2 14 15  0  2  0  0  0 19  0 14 23
  5  0 18 15 12 10  6]"
