generation,fitness,functionality,active_nodes,longest_path,time,gen_time,nc_gens,fitness_evals,graph_evals,node_evals,genotype
0,157.0,0.4375,9,4,0.031207799911499023,31.207799911499023,0,0,0,0,"[ 4  1  1  0  2  2  5  3  2  0  2  0  5  3  3  4  1  1  1  7  7  3  6  3
  2  5  6  1  0  0  1  8  7  2  1 10  3  5  1  4  0  8  1  9 10  1 18  1
  1 10 13  5  9 13  5 16 13  4 13 13  5 23 22  2 20  0  1  2  3  3 15  3
  3 17  1  8 19 25  9]"
100,329.0,0.96875,8,3,24.885111570358276,248.53903770446777,0,12800,153191,754357,"[ 4  1  1  4  2  1  0  0  3  0  2  0  0  3  0  4  1  8  4  8  0  0  8  0
  5  2  7  2  5  1  3 12 10  0  1  3  1  5 12  5 13  9  4  8 11  1  2  2
  5  3 18  4  0 11  4 10 18  3 13 15  1 20 17  3 21 19  4  0 22  2 23 21
  4 18 23  4  7 17 15]"
200,329.0,0.96875,8,3,53.05842423439026,281.7331266403198,0,25600,273227,1688901,"[ 4  1  1  2  2  1  3  3  1  0  2  0  0  3  0  4  1  8  1  7  0  4  0  0
  2  6  7  2  5  1  3 11  3  0  1  3  1 10  2  5 13  9  5  2  7  0 18  2
  3 11  3  0  2 18  1 14  1  3 16 11  1 18 20  0 14  3  2 14  1  4 18 20
  2 16  1  4  7 17 15]"
300,329.0,0.96875,8,3,81.5031373500824,284.4471311569214,0,38400,395629,2644006,"[ 4  1  1  2  1  2  2  1  1  0  2  0  0  3  0  4  1  8  2  2  7  5  4  8
  4  1  2  2  5  1  3  9  9  0  1  3  4  4 12  5 13  9  2  6  1  4 16 16
  5 16  0  3 13 17  1  2 16  4  2  9  4 17  0  3  0  2  3 19  3  2  0 19
  1  0  1  4  7 17 15]"
400,329.0,0.96875,8,3,106.01133942604065,245.08202075958252,0,51200,513126,3561832,"[ 4  1  1  2  1  2  5  1  1  0  2  0  0  3  0  4  1  8  0  6  0  5  4  0
  1  8  7  2  5  1  5 10  9  0  1  3  2  2 13  5 13  9  0  0  1  5 15 14
  5 12 16  0 13  0  4 10 13  3  0  3  4  3 16  3 22 21  4 16  3  1  0  1
  1  1 21  4  7 17 15]"
500,333.0,0.984375,9,3,137.93903803825378,319.27698612213135,0,64000,634874,4523041,"[ 4  1  1  3  2  2  1  1  1  0  2  0  0  3  0  4  1  8  5  3  7  4  2  7
  2  2  0  2  5  1  0  1  0  0  1  3  3 10  5  5 13  9  5 13  8  4 17 12
  0 13 17  0 15 10  4 14  0  5  2  9  5 21 16  3 23  2  4 22  3  2  0 22
  5  1 21 21  7 17 15]"
600,333.0,0.984375,9,3,163.89433789253235,259.55299854278564,0,76800,739355,5452191,"[ 4  0  0  3  2  2  1  2  2  0  2  0  0  3  0  4  1  8  0  7  3  1  7  8
  5  8  7  2  5  1  5  6  2  0  1  3  2  4  8  5 13  9  1  7  7  3 11 14
  2 13 16  0 15 10  2  2  9  5  1 14  1 23 14  3 20 22  0  2  2  1 22 18
  2  1 15 21  7 17 15]"
658,340,1.0,9,3,177.66381430625916,237.40476575391045,0,84224,799923,5993922,"[ 2  0  2  2  2  1  3  1  0  0  2  0  0  3  0  4  1  8  1  6  8  2  7  8
  5  1  4  4  5  1  0  8 10  0  1  3  1  5  8  5 13  9  0  2  0  3 17  9
  4 17 12  0 15 18  4 13  3  5 10  0  4 21 18  4 19  2  0  2 20  1  2 18
  3 22 16 21 24 17 15]"
700,340,1.0,9,3,186.8005087375641,217.54034360249838,0,89600,826761,6233075,"[ 4  2  2  2  2  1  0  1  0  5  3  0  0  3  0  4  1  8  2  0  0  4  3  0
  4  6  4  4  5  1  5  8  4  0  1  3  5 13  0  5 13  9  0  2  0  0 17 14
  5 16  9  0 15 18  4 10  2  5  0 10  4 21 18  5  1  1  3 22 18  4  2 15
  5 18 16 21 24 17 15]"
800,340,1.0,9,3,203.53772354125977,167.3721480369568,0,102400,889866,6794422,"[ 2  3  2  4  1  2  0  0  0  5  1  0  0  3  0  4  1  8  0  1  3  3  3  1
  0  5  4  2  5  1  5  8 13  0  1  3  1 12 11  5 13  9  0  2  0  1 14 11
  0  0 16  0 15 18  3 12 17  5 10  3  4 21 18  5 16 14  3 21 17  4 18 15
  3 17 23 21 24 17 15]"
900,340,1.0,9,3,219.4330370426178,158.95313501358032,0,115200,958147,7403222,"[ 4  2  1  4  2  0  0  1  3  1  2  3  0  3  0  4  1  8  5  1  6  4  5  6
  4  8  6  2  4  1  4 11  6  0  1  3  1 10 13  5 13  9  0  2  0  1 16  1
  3 13 14  0 15 18  4 11 16  2 17  3  4 21 18  5 14 23  4  3 19  3 14 14
  2 19 20 21 24 17 15]"
1000,340,1.0,9,3,238.4192271232605,189.861900806427,0,128000,1023926,7989042,"[ 2  1  2  4  1  3  4  2  0  0  1  2  0  3  0  4  1  8  0  3  7  3  8  8
  4  3  8  2  4  1  4  4 11  0  1  3  0  4  9  5 13  9  0  2  0  5 17 13
  1  9  0  0 15 18  1  9 16  5  3 14  4 21 18  0  2 17  5 22 15  1 22 21
  0 21  1 21 24 17 15]"
1100,342,1.0,7,3,252.4825999736786,140.6337285041809,0,140800,1085426,8462526,"[ 2  1  2  3  1  1  1  3  3  1  3  3  2  1  1  2  1  6  0  2  8  2  3  0
  5  5  0  5  2  4  4  4 11  0  1  3  5  7  1  2  1  9  0  2  0  2 11 15
  5  1 12  0 15 18  2  9 14  0 17  1  4 21 18  2 14 20  2 17 20  3 23  1
  1 21  2 21 24 14 15]"
1200,342,1.0,7,3,265.0405740737915,125.57974100112915,0,153600,1144658,8878147,"[ 2  1  2  3  0  1  5  2  2  2  0  3  4  1  3  1  8  4  4  2  2  2  3  0
  5  1  1  3  3  0  4  4 11  0  1  3  0 13  4  0 12  2  0  2  0  4  2  0
  3 15 14  0 15 18  4  2 18  5 14 14  4 21 18  1 17 15  3  3 19  2  3 16
  4 15 15 21 24 14 15]"
1300,342,1.0,7,3,278.25540924072266,132.14835166931152,0,166400,1203643,9290834,"[ 2  1  2  1  3  0  5  1  0  0  0  2  5  3  2  0  3  5  5  3  7  2  3  0
  0  7  3  5  6  6  4  4 11  0  1  3  5 13  4  4  1  0  0  2  0  4 13 17
  1  9  3  0 15 18  2 11  3  1 18  1  4 21 18  3 22  3  3 16 15  4 22 18
  4 19  1 21 24 14 15]"
1400,342,1.0,7,3,291.05812764167786,128.027184009552,0,179200,1262859,9707624,"[ 2  1  2  3  1  0  2  2  0  3  3  3  5  2  3  0  7  5  3  1  8  2  3  0
  0  4  0  5  2  7  4  4 11  0  1  3  3  6  4  0  3  0  0  2  0  4  3  2
  1 14  9  0 15 18  4  1 14  0 15  1  4 21 18  0 17 17  1  0 16  3  0 18
  3 18  0 21 24 14 15]"
1500,342,1.0,7,3,304.858286857605,138.00159215927124,0,192000,1322120,10123505,"[ 2  1  2  0  3  2  5  1  2  2  2  0  0  2  3  5  4  1  1  3  1  2  3  0
  2  4  5  1  2  6  4  4 11  0  1  3  1  2  3  5 13  1  0  2  0  2 16  1
  4 15 15  0 15 18  1  9  2  2  1 16  4 21 18  1 23 22  0 20 18  1 22 20
  2 15 15 21 24 14 15]"
1600,342,1.0,7,3,317.77650117874146,129.18214321136475,0,204800,1381503,10541172,"[ 2  1  2  4  0  2  0  1  2  2  1  2  1  3  1  2  7  5  4  7  1  2  3  0
  2  5  6  3  1  6  4  4 11  0  1  3  1  0 12  1 11  8  0  2  0  2 16  1
  1  3 18  0 15 18  1  2 13  0 10 11  4 21 18  2 22 23  4 20  3  1 22 15
  0 22 15 21 24 14 15]"
1700,342,1.0,7,3,330.61196970939636,128.35468530654907,0,217600,1440203,10954105,"[ 2  1  2  1  1  0  2  1  0  4  0  1  5  0  3  2  8  1  5  0  3  2  3  0
  5  3  3  4  5  7  4  4 11  0  1  3  3  7 12  0 12  4  0  2  0  2 13 11
  4 18 11  0 15 18  5  2 13  5  2 15  4 21 18  3 19 23  1 21 21  1 18  0
  5 15 23 21 24 14 15]"
1800,342,1.0,7,3,343.67964792251587,130.67678213119507,0,230400,1499757,11372445,"[ 2  1  2  5  1  1  3  0  0  5  3  0  0  1  0  4  2  2  4  6  5  2  3  0
  5  8  5  3  6  5  4  4 11  0  1  3  1  2 12  2  0  0  0  2  0  0 17  3
  0 17  3  0 15 18  5 17  9  3 13 14  4 21 18  0 14 15  2  1 22  0 17  0
  1 15 20 21 24 14 15]"
1900,342,1.0,7,3,356.69339752197266,130.13749599456787,0,243200,1559646,11792509,"[ 2  1  2  5  1  1  2  1  2  3  0  3  5  0  1  5  7  2  3  5  8  2  3  0
  3  7  5  3  3  1  4  4 11  0  1  3  1  8  3  0 10  7  0  2  0  0 12 15
  2  9 14  0 15 18  2 11 18  3 10 15  4 21 18  0 18  1  2 14 22  2 18 15
  2  0  3 21 24 14 15]"
2000,342,1.0,7,3,369.7865912914276,130.93193769454956,0,256000,1617653,12199467,"[ 2  1  2  2  3  0  0  1  2  1  3  3  5  1  3  5  5  4  2  2  6  2  3  0
  0  4  6  3  1  5  4  4 11  0  1  3  5  7  4  0 12  9  0  2  0  5  0 12
  5 15  0  0 15 18  0 17 12  5  0 10  2 21  1  4 18 21  5 14 22  5 17 17
  1 19  3 21 25 14 15]"
2100,342,1.0,7,3,382.9151005744934,131.28509283065796,0,268800,1679185,12631980,"[ 2  1  2  3  0  0  4  1  1  3  0  3  2  0  3  1  1  3  3  6  0  1  3  4
  1  0  6  0  6  5  4  4  8  0  1  3  1 10 12  1  6  5  0  2  0  3  1 14
  2 10  3  0 15 18  0  0  0  5 11  9  0 22 21  4 18 21  0 17  0  3 17 22
  4 16 18 21 25 14 15]"
2200,342,1.0,7,3,400.07666873931885,171.6156816482544,0,281600,1743037,13079933,"[ 2  1  2  2  1  3  1  3  2  5  0  0  2  0  3  2  0  8  3  4  8  2  2  5
  2  7  8  1  5  3  4  4  8  0  1  3  2  6  9  5  2 13  0  2  0  3 10 15
  0 17 15  0 15 18  2 11  3  1  1 14  3 21 20  4 18 21  1 17 17  1  1  0
  2 23 21 21 25 14 15]"
2300,342,1.0,7,3,416.6019389629364,165.25270223617554,0,294400,1805044,13514165,"[ 2  1  2  2  3  3  1  1  1  2  2  1  2  0  3  1  2  4  2  8  8  1  2  2
  1  2  0  2  2  1  2  9 11  0  1  3  4  5 11  4  8 13  0  2  0  3 18  3
  0  1 16  0 15 18  1 11 10  5 14 13  0 22 17  4 18 21  4  0 14  1  3  1
  0 14  2 21 25 17 15]"
2400,342,1.0,7,3,433.07159757614136,164.69658613204956,0,307200,1868909,13962607,"[ 2  1  2  0  2  1  2  0  1  3  2  2  2  0  3  1  5  3  5  1  6  5  2  0
  3  6  3  0  4  5  3  5  6  0  1  3  5  4  5  4  8  4  0  2  0  2  3  3
  2  0 13  0 15 18  2 12 12  1 10 18  3  3 19  4 18 21  0  0 18  2  1 20
  3 20  0 21 25 17 15]"
2500,342,1.0,7,3,445.9827218055725,129.11124229431152,0,320000,1931672,14403212,"[ 2  1  2  4  2  1  5  0  1  3  0  0  2  0  3  3  4  5  2  7  1  5  5  2
  2  1  1  4  7  5  1  8  7  0  1  3  5 10  6  4  8  4  0  2  0  2 15 14
  2  9 13  0 15 18  2 11 11  5  9  1  1 19 14  4 18 21  4 21  3  3  2 18
  3 21 16 21 25 17 15]"
2600,342,1.0,7,3,459.0773012638092,130.94579458236694,0,332800,1994226,14843016,"[ 2  1  2  1  1  1  5  2  3  4  0  0  2  0  3  2  4  0  4  7  8  5  0  1
  4  2  8  3  7  6  0 11  0  0  1  3  5  5  2  4  8  4  0  2  0  2 16 16
  0  2 12  0 15 18  5  9  1  2  3 11  1 23 14  4 18 21  5 18 15  1  0  0
  0 14 16 21 25 17 15]"
2700,342,1.0,7,3,472.9827401638031,139.05438899993896,0,345600,2057412,15286090,"[ 2  1  2  0  2  3  5  2  3  3  0  1  2  0  3  1  7  6  5  5  1  3  3  6
  1  4  4  0  8  6  4  7  5  0  1  3  4  3  9  4  8  4  0  2  0  2 18 16
  4 17  3  0 15 18  5 18 13  3 11  3  1 21 22  4 18 21  3 15 14  1  2 19
  2 15 17 21 25 17 15]"
2800,342,1.0,7,3,485.9348187446594,129.52078580856323,0,358400,2119803,15723631,"[ 2  1  2  1  2  1  2  1  2  4  2  2  2  0  3  1  1  1  2  4  8  0  2  5
  4  5  2  1  0  6  4  7  8  0  1  3  3 11  2  4  8  4  0  2  0  4 15 11
  2 14 11  0 15 18  4 10 12  5 14  0  3 23 22  4 18 21  0 18 18  3  2 20
  1  3  1 21 25 17 15]"
2900,342,1.0,7,3,499.00382375717163,130.69005012512207,0,371200,2182855,16166218,"[ 3  2  0  3  0  3  2  1  2  3  0  1  2  0  3  1  7  8  2  5  8  3  6  2
  2  7  3  4  8  4  0  1 10  0  1  3  1  3  7  4  8  6  0  2  0  5 14 15
  1 13  9  0 15 18  2 13  1  2 12 16  4 14 22  4 18 21  4  2 15  0 19  0
  5 16 18 21 25 17 15]"
3000,342,1.0,7,3,512.223296880722,132.19473123550415,0,384000,2244788,16601942,"[ 4  0  2  3  3  1  2  1  2  2  3  3  2  0  3  1  4  7  2  8  7  1  7  2
  5  0  0  1  1  5  3  2  4  0  1  3  1  7  4  4  8  6  0  2  0  0  9 13
  0  2 18  0 15 18  2  3 14  3 11 10  2 19 14  4 18 21  5  2 15  2  1 14
  0 22 16 21 25 17 15]"
3100,342,1.0,7,3,525.833074092865,136.09777212142944,0,396800,2306571,17035253,"[ 1  1  2  4  3  2  2  1  2  3  2  3  2  0  3  5  3  4  4  7  7  2  2  1
  4  1  0  4  4  0  0  3 11  0  1  3  3  3 11  4  8 11  0  2  0  4  3  9
  1 15  9  0 15 18  3 18  3  4 11  1  5 21  0  4 18 21  4 15 23  4 21  2
  0  1  2 21 25 17 15]"
3200,342,1.0,7,3,539.0781307220459,132.45056629180908,0,409600,2366224,17453858,"[ 5  2  1  5  1  3  0  0  1  5  2  0  2  0  3  2  7  4  3  2  8  2  2  1
  5  1  3  3  1  8  0  5  9  0  1  3  2  8  4  4  8 11  0  2  0  4  2 17
  1 15  1  0 15 18  4 11 14  2 11 18  3 20  3  4 18 21  5 23 17  5  2 15
  0 22 17 21 25 17 15]"
3300,342,1.0,7,3,552.2983729839325,132.20242261886597,0,422400,2426952,17880054,"[ 1  3  3  2  0  1  3  0  1  3  1  2  2  0  3  3  8  7  3  3  5  2  2  1
  2  8  1  3  7  0  1  3 11  0  1  3  1 12  1  4  8 11  0  2  0  5 11 14
  3 16 14  0 15 18  1 18 12  3 15  9  0 19  2  4 23 23  5 17 15  0  2 15
  4 21 18 21 28 17 15]"
3400,342,1.0,7,3,565.0791990756989,127.80826091766356,0,435200,2486882,18301105,"[ 5  3  1  2  2  1  2  1  2  1  3  0  2  0  3  2  6  5  5  0  1  2  2  1
  4  5  8  0  7  2  3  0  0  0  1  3  1 13  2  4  8 11  0  2  0  0 18 16
  2 16 14  0 15 18  2  2 17  3 14 16  0  1  3  2  2 14  1 20  1  3 20 15
  4 21 18 21 28 17 15]"
3500,342,1.0,7,3,579.0560710430145,139.76871967315674,0,448000,2546952,18724075,"[ 1  2  1  3  1  3  5  3  3  4  1  2  2  0  3  5  3  6  4  3  2  2  2  1
  1  8  5  0  6  3  1  9 12  0  1  3  2  9  6  4  8 11  0  2  0  0 15 16
  2 13 14  0 15 18  4 18 15  0 10 13  4 23 15  2 17  3  0 18 15  4  2  2
  4 21 18 21 28 17 15]"
3600,342,1.0,7,3,596.5177164077759,174.61645364761353,0,460800,2607476,19149379,"[ 2  2  3  4  0  3  2  3  1  4  2  2  2  0  3  0  8  5  0  4  3  2  2  1
  3  8  2  0  0  0  4  9 10  0  1  3  2  6  5  4  8 11  0  2  0  0  9  2
  1 18 12  0 15 18  0  1  3  4 17  2  0 20  2  2 15  0  2 20 17  1 20  2
  4 21 18 21 28 17 15]"
3700,342,1.0,7,3,610.2642955780029,137.4657917022705,0,473600,2667690,19571914,"[ 1  0  3  5  0  0  0  0  0  4  1  1  2  0  3  3  8  5  4  7  5  2  2  1
  4  2  4  0  0  7  2  1 10  0  1  3  4 13  3  4  8 11  0  2  0  5 14 12
  1 18 15  0 15 18  2 18  2  0 17 17  2  2 21  0 19  1  5 19 16  2  1 23
  4 21 18 21 28 17 15]"
3800,342,1.0,7,3,623.2056028842926,129.41307306289673,0,486400,2726684,19986006,"[ 1  3  1  1  2  1  2  0  1  3  3  1  2  0  3  5  0  8  1  3  6  2  2  1
  1  3  7  4  0  3  3 12  2  0  1  3  2  4  0  4  8 11  0  2  0  3 15 12
  1 12 15  0 15 18  0 18 16  4 13 16  2  1 22  1 21 18  5 21  2  5  1  2
  4 21 18 21 28 17 15]"
3900,342,1.0,7,3,638.2887811660767,150.83178281784058,0,499200,2786251,20402870,"[ 2  3  1  2  3  0  1  0  0  2  0  0  4  0  0  4  2  2  3  4  1  2  2  1
  0  4  1  4  6  5  1  3  8  0  1  3  5 11  6  4  5 11  0  2  0  2 13  3
  1 11  2  0 15 18  3  0  3  0 17 11  3  1 23  1 15 18  5 17 19  4 20  2
  4 21 18 21 28 17 15]"
4000,342,1.0,7,3,652.5047934055328,142.16012239456177,0,512000,2846274,20824599,"[ 1  0  3  0  1  3  2  2  1  2  0  3  1  2  2  1  4  7  1  7  0  2  2  1
  2  3  5  2  8  0  1  4 10  0  1  3  5 11 13  4  7 11  0  2  0  2 14 15
  5  3 14  0 15 18  0  2 12  4 11 14  5  2 23  5 15 14  1 23 15  2 18 17
  4 21 18 21 28 17 15]"
4100,342,1.0,7,3,666.0957629680634,135.90969562530518,0,524800,2904479,21234353,"[ 1  1  2  1  0  2  0  3  3  2  0  3  2  1  3  3  4  8  2  4  2  2  2  1
  4  7  6  1  0  1  2 12 10  0  1  3  3  1  8  4  7 11  0  2  0  5 12  3
  2  9 12  0 15 18  0 13  9  2 18 14  3 19 23  4 14 19  1 15 15  3 20 21
  4 21 18 21 28 17 15]"
4200,342,1.0,7,3,678.8180177211761,127.22254753112794,0,537600,2963503,21649592,"[ 3  1  3  1  3  1  5  3  3  2  0  3  5  1  3  1  7  6  2  3  4  2  2  1
  4  1  1  1  8  7  3  6  1  0  1  3  1 12 11  4  7 11  0  2  0  0 12 12
  0  9 18  0 15 18  1 17  0  5  3 16  0 18 23  5 20 16  1 18 14  1 18 23
  4 21 18 21 28 17 15]"
4300,342,1.0,7,3,694.6928858757019,158.74868154525757,0,550400,3023532,22071626,"[ 3  0  1  1  0  3  4  3  3  2  0  3  2  0  3  3  2  8  2  7  8  2  2  1
  0  8  5  2  3  2  3 13 12  0  1  3  2 12  7  4  7 11  0  2  0  0 11  1
  2  3 16  0 15 18  0  1 14  4 12  0  4 18  2  3 14 18  1  3 23  5 19 19
  4 21 18 21 28 17 15]"
4400,342,1.0,7,3,708.0886642932892,133.9577841758728,0,563200,3082976,22489777,"[ 2  0  2  5  3  1  3  1  2  2  0  3  0  1  3  2  8  4  0  7  2  2  2  1
  2  1  5  3  5  0  1  4  7  0  1  3  1  4  7  4  7 11  0  2  0  3  0  1
  2 17 12  0 15 18  0 11 13  1 14 12  1 19 19  5 22  3  1  0 22  5 14  0
  4 21 18 21 28 17 15]"
4500,342,1.0,7,3,720.6277961730957,125.3913187980652,0,576000,3143155,22913184,"[ 3  1  2  4  0  0  1  0  2  2  0  3  5  3  2  5  4  6  3  1  5  2  2  1
  5  7  2  3  3  4  2  2  4  0  1  3  0  0  5  4  7 11  0  2  0  3 16 14
  1  9 13  0 15 18  1 14 10  3  2 18  0  1  0  5 20  2  5 19 14  1 23 23
  4 21 18 21 28 17 15]"
4600,342,1.0,7,3,734.504584312439,138.76788139343262,0,588800,3204126,23341568,"[ 2  2  2  5  0  0  2  0  1  2  0  3  2  2  0  0  5  5  3  2  6  2  2  1
  5  5  5  2  7  0  5 10  6  0  1  3  1  6  6  4  7 11  0  2  0  3 14 17
  0 11  3  0 15 18  0 10 10  0 10 10  4 22  0  4 20 17  4 19  0  0 20 19
  4 21 18 21 28 17 15]"
4700,342,1.0,7,3,747.2886309623718,127.84046649932861,0,601600,3263903,23762408,"[ 3  3  1  1  1  3  3  0  0  2  0  3  0  1  0  0  8  4  3  4  3  2  2  1
  1  0  0  3  4  8  4 11 12  0  1  3  2  4  4  4  7 11  0  2  0  2  9  9
  3  3  1  0 15 18  1  9  9  5  0  1  5 17 22  5 23 18  1 19  2  0 16 14
  4 21 18 21 28 17 15]"
4800,342,1.0,7,3,760.154052734375,128.65421772003174,0,614400,3323277,24180328,"[ 4  2  1  4  0  0  5  0  0  2  0  3  3  3  2  0  1  5  2  6  6  2  2  1
  0  2  7  3  7  8  4  3  6  0  1  3  4 10  4  4  7 11  0  2  0  2 12  1
  4  2 15  0 15 18  4 15 16  1  3 18  5  2  3  5 21 18  1 19 18  1 17 19
  4 21 18 21 28 17 15]"
4900,342,1.0,7,3,772.8096561431885,126.55603408813477,0,627200,3384133,24608233,"[ 2  0  1  3  0  3  2  2  1  2  0  3  4  3  2  4  6  7  0  1  4  2  2  1
  3  6  6  5  2  4  5  5  2  0  1  3  2  8  9  4  7 11  0  2  0  5 13 16
  5 13  0  0 15 18  5 14 14  2 13 12  5 15  3  5  1 15  1 14 15  4 19 22
  4 21 18 21 28  9 15]"
5000,342,1.0,7,3,785.8864130973816,130.76756954193115,0,640000,3447141,25049291,"[ 4  3  3  2  1  3  2  2  1  2  0  3  2  0  3  4  6  7  1  7  6  5  3  6
  3  4  3  4  7  0  2  5  5  0  1  3  2  6  2  2  2  7  0  2  0  3 10 10
  4  9 10  0 15 18  0 18 17  2  3 10  3 14 14  2 14  3  2  0 23  3  3 20
  4 21 18 21 28  9 15]"
5100,342,1.0,7,3,801.0637602806091,151.7734718322754,0,652800,3509964,25490198,"[ 0  3  3  0  2  2  2  2  1  2  0  3  3  1  1  4  6  7  1  2  7  4  1  0
  4  7  3  0  0  3  5  5  5  0  1  3  4 11  7  3  8  2  0  2  0  1  0 11
  4  3 12  0 15 18  5  9 16  4  1 10  4  1 14  5 19 18  0  0 16  2  2  0
  4 21 18 21 28  9 15]"
5200,342,1.0,7,3,820.6219573020935,195.58197021484375,0,665600,3573141,25932226,"[ 4  2  1  4  3  2  2  2  1  2  0  3  0  1  2  4  6  7  4  8  3  3  3  1
  4  8  6  1  7  6  0  4 11  0  1  3  3  6  6  3  5  3  0  2  0  4 10 17
  4 14  1  0 15 18  2  1  3  4 13 16  0 15 20  2  3  2  1 17 17  5 15 18
  4 21 18 21 28  9 15]"
5300,342,1.0,7,3,834.9011008739471,142.79143571853638,0,678400,3636181,26373372,"[ 2  2  3  1  1  2  2  2  1  2  0  3  0  3  1  4  6  7  5  3  3  2  6  7
  2  5  4  2  1  7  4 10  6  0  1  3  5  2  9  4 13  4  0  2  0  4 12  2
  4 14 10  0 15 18  1  3 16  3 13 10  0 15  0  4 22 23  5 19 17  1  1  1
  4 21 18 21 28  9 15]"
5400,342,1.0,7,3,854.4437906742096,195.4268980026245,0,691200,3699263,26815050,"[ 1  0  0  2  0  0  2  2  1  2  0  3  0  3  1  4  6  7  0  5  0  5  4  4
  5  3  6  5  2  2  0  4 13  0  1  3  5  7  7  0  1  4  0  2  0  1  3 16
  0 11 10  0 15 18  3  0 16  4  3  1  4 17 22  4 20 22  5 16  2  5  0 15
  4 21 18 21 28  9 15]"
5500,342,1.0,7,3,874.315840959549,198.72050285339355,0,704000,3762874,27260628,"[ 1  3  0  5  0  2  2  2  1  2  0  3  0  0  3  4  6  7  1  6  8  0  3  8
  3  4  2  4  4  5  3  5  3  0  1  3  1  7  2  2 11  0  0  2  0  2 18 17
  2 11 10  0 15 18  0  3  3  3 12  2  4 15 23  1 21 15  4 19 16  2  2 22
  4 21 18 21 28  9 15]"
5600,342,1.0,7,3,888.1126019954681,137.9676103591919,0,716800,3826232,27705980,"[ 5  1  3  0  0  0  2  2  1  2  0  3  1  0  2  4  6  7  3  5  7  3  0  0
  5  5  4  3  8  4  3  6  4  0  1  3  3 12  6  5 10  2  0  2  0  0 14  0
  1  3 11  0 15 18  1 17 18  0 15 12  3 22  3  3 19 14  3 15 19  4  0 14
  4 21 18 21 28  9 15]"
5700,342,1.0,7,3,902.1620380878448,140.4943609237671,0,729600,3889127,28147245,"[ 2  1  1  0  1  3  4  2  2  2  0  3  2  2  1  4  8  7  2  1  2  3  6  3
  4  5  7  2  7  3  5  5 12  0  1  3  2 12 12  5 11 12  0  2  0  0  2 11
  4 15 13  0 15 18  3  2 10  3 10 15  5 17  0  2  3  0  2 17 18  5  2 23
  4 21 18 21 28  9 15]"
5800,342,1.0,7,3,916.615193605423,144.53155517578125,0,742400,3951296,28583975,"[ 1  0  1  5  2  0  5  1  1  2  0  3  2  2  1  4  8  7  2  4  4  4  3  7
  5  3  5  0  7  2  2  9  0  0  1  3  3 13  1  5  2 12  0  2  0  5 14  1
  4  9 16  0 15 18  3  1 16  2 18 12  5 22 14  2  1 20  2 22 17  4  2 14
  4 21 18 21 28  9 15]"
5900,342,1.0,7,3,929.9815330505371,133.66339445114136,0,755200,4013798,29022045,"[ 2  0  3  2  1  3  4  2  3  5  3  3  2  2  1  4  8  4  4  3  3  2  6  1
  2  6  4  2  3  6  0  7  3  0  1  3  4 12  1  2  3  4  0  2  0  2  3  2
  1 11  3  0 15 18  4  3 13  5 13  9  4 22 15  3 23 18  1  0  0  5 16 18
  4 21 18 21 28  9 15]"
6000,342,1.0,7,3,943.4413638114929,134.5983076095581,0,768000,4078225,29472727,"[ 3  1  1  2  0  3  3  3  3  5  3  2  2  2  1  4  8  5  3  1  0  3  2  6
  0  2  0  2  3  2  5  7  1  0  1  3  3  2  1  2  1  8  0  2  0  1 15 16
  2 18 10  0 15 18  5 16 10  5 13 16  0  0 15  3 16  2  3 20 16  1 14 17
  4 21 18 21 28  9 15]"
6100,342,1.0,7,3,957.030341386795,135.88977575302124,0,780800,4141856,29917752,"[ 2  0  3  3  0  3  2  1  2  5  2  1  2  2  1  4  6  4  0  3  3  0  3  5
  4  0  6  4  3  6  5  1  5  0  1  3  2  4  1  2  1  9  0  2  0  5 16 12
  0 17 15  0 15 18  4 13 17  5  9 15  2 18 15  4 14 15  1  1 19  4 21 19
  4 21 18 21 28  9 15]"
6200,342,1.0,7,3,971.5969099998474,145.66568613052368,0,793600,4206764,30372396,"[ 2  0  3  3  0  1  2  1  2  3  3  1  0  1  2  0  2  1  0  1  6  5  6  1
  0  4  0  4  4  6  0  0  1  0  1  3  0  3 13  2  5 13  0  2  0  2  0 15
  4 12 17  0 15 18  3 13  3  4 11  1  5  0  1  2 16  1  5  2 19  4 20 20
  4 21 18 21 28 13 15]"
6300,342,1.0,7,3,984.7987177371979,132.01807737350464,0,806400,4269494,30811563,"[ 2  0  3  4  2  2  2  1  2  4  2  3  1  2  1  1  7  3  5  4  6  1  0  5
  3  7  8  4  4  6  1  3  9  0  1  3  0  6 11  2 13 10  0  2  0  4 18 15
  0 10  9  0 15 18  3 13 15  5 13 10  3  1 18  2  1 21  2  0 17  2 19  1
  4 21 18 21 28 13 15]"
6400,342,1.0,7,3,999.9296095371246,151.30891799926758,0,819200,4332217,31252998,"[ 2  0  3  1  0  3  2  1  2  2  3  1  5  2  0  3  3  7  0  8  4  3  7  8
  3  6  8  4  4  6  1  9  8  0  1  3  5  4 12  3 11  0  0  2  0  1  1 14
  5 14  9  0 15 18  3 16 15  0  3 12  3 22 20  2 17 16  5  3 22  0 22  2
  4 21 18 21 28 13 15]"
6500,342,1.0,7,3,1013.3122565746307,133.82647037506104,0,832000,4394474,31689133,"[ 2  0  3  4  0  0  3  1  3  2  1  2  3  1  0  4  2  3  4  2  1  3  5  3
  0  6  5  4  4  7  3  9  1  0  1  3  0 12 12  3 13 13  0  2  0  3 12  0
  0 18 15  0 15 18  0 16  3  4  3 10  4 14 21  1 17 17  4  1 16  3 22 21
  4 21 18 21 28 13 15]"
6600,342,1.0,7,3,1026.318143606186,130.05887031555176,0,844800,4457673,32132258,"[ 2  0  3  1  3  2  2  1  1  2  1  2  5  3  3  5  1  8  1  8  7  2  3  4
  4  2  4  4  4  7  0  5  1  0  1  3  1  7  7  0 12  3  0  2  0  4 17 10
  1  9 16  0 15 18  4 10 18  4  3  2  0 20 21  0 17 23  5  1 17  3 22 16
  4 21 18 21 28 13 15]"
6700,342,1.0,7,3,1039.231520652771,129.13377046585083,0,857600,4520962,32574948,"[ 2  0  3  5  2  2  5  0  0  2  1  2  2  2  0  4  3  6  5  5  2  0  0  1
  0  5  4  4  4  7  4  0  5  0  1  3  1  0  3  3  7  1  0  2  0  4 13 14
  0 14 10  0 15 18  2  2  1  0 13 12  2 22  3  3 18  3  4 20  2  3 22  3
  4 21 18 21 28 13 15]"
6800,342,1.0,7,3,1053.0113604068756,137.79839754104614,0,870400,4584221,33019599,"[ 2  0  3  3  1  3  4  2  1  2  1  2  5  1  0  0  5  0  1  3  6  5  4  1
  0  5  6  4  4  7  3 13  9  0  1  3  4  8  0  3 12 12  0  2  0  4 17 15
  2 16 12  0 15 18  3 12 18  4  0  1  5 23  0  2 21 23  0  3 19  0 15 17
  4 21 18 21 28 13 15]"
6900,342,1.0,7,3,1066.3459503650665,133.34589958190918,0,883200,4646826,33459013,"[ 2  0  3  4  2  3  1  0  0  2  1  2  5  2  3  5  3  8  2  8  1  2  5  1
  4  8  5  4  4  7  0 13 10  0  1  3  0 10  0  1 10  7  0  2  0  0  9 15
  5 14 15  0 15 18  3 14  3  0  9 17  1 23  2  4 21 22  1 16 16  5 18 19
  4 21 18 21 28 13 15]"
7000,342,1.0,7,3,1079.4419193267822,130.95968961715698,0,896000,4709338,33898828,"[ 2  0  3  3  2  2  1  1  1  2  1  2  4  1  3  5  2  7  2  8  8  3  3  4
  5  5  1  4  4  7  3  6  0  0  1  3  3  5 13  0 13  9  0  2  0  4  9 16
  1  3 11  0 15 18  0 14 15  4 11 15  2  0  2  0 21  0  3 21 18  3 20  3
  4 21 18 21 28 13 15]"
7100,342,1.0,7,3,1092.4974687099457,130.55549383163452,0,908800,4773065,34345492,"[ 2  0  3  5  2  2  2  1  1  0  1  2  2  2  1  5  4  7  3  7  2  3  6  0
  2  4  8  4  4  8  3  4  8  0  1  3  0  3  9  3  3  1  0  2  0  3  2 12
  3 10 16  0 15 18  4 14 11  4  1 11  2  3 15  2 22 15  0 20 17  1 21 20
  4 21 18 21 28 13 15]"
7200,342,1.0,7,3,1105.5492582321167,130.5178952217102,0,921600,4836785,34791945,"[ 2  0  3  5  0  0  1  0  0  0  3  3  2  2  1  5  7  3  4  7  6  3  3  3
  3  8  6  4  4  8  3 10  9  0  1  3  0 12  2  5  0 10  0  2  0  1  1 15
  4 18  9  0 15 18  5  1 18  1  2 11  1  3 15  5 17 16  2 16 21  3 23 18
  4 21 18 21 28 13 15]"
7300,342,1.0,7,3,1118.4772806167603,129.28022384643555,0,934400,4899176,35229116,"[ 2  0  3  2  3  3  1  3  2  3  0  3  2  2  1  4  3  4  4  6  1  2  2  6
  3  5  2  4  4  8  3  6  7  0  1  3  2  3  3  2  3  6  0  2  0  2 15 10
  3 16  9  0 15 18  2  9 11  4 18  2  5  3  3  5 21 21  1 21 18  2 22 14
  4 21 18 21 28 13 15]"
7400,342,1.0,7,3,1131.3426525592804,128.65371942520142,0,947200,4962432,35671479,"[ 2  0  3  1  3  1  1  1  1  4  3  2  2  2  1  4  6  0  4  4  8  2  5  4
  5  3  8  4  4  8  0  6  1  0  1  3  5  4  9  5  1 10  0  2  0  2  1 10
  1  0  1  0 15 18  2  0 11  0 12 11  2 14 16  3 16 23  2  0 20  4 23  3
  4 21 18 21 28 13 15]"
7500,342,1.0,7,3,1144.381325006485,130.3867244720459,0,960000,5025354,36112559,"[ 2  0  3  2  2  3  0  2  2  4  3  1  2  2  1  4  6  5  1  1  3  5  4  8
  4  4  3  4  4  8  2 12  5  0  1  3  3  6 11  5 10 10  0  2  0  2  3 18
  5 10 11  0 15 18  0 14 15  0  2 10  3  0 18  3 21 15  2  2 17  4  2 22
  4 21 18 21 28 13 15]"
7600,342,1.0,7,3,1157.2319583892822,128.5063338279724,0,972800,5088455,36554344,"[ 2  0  3  0  3  1  0  0  2  1  0  1  2  2  1  4  7  8  4  5  3  1  0  5
  4  4  2  4  4  8  1 13 11  0  1  3  1  3 11  3 10  4  0  2  0  3  3 17
  0 13 18  0 15 18  4  1 16  1 11 18  3  2 15  3 17 16  2 19 14  4 21 20
  4 21 18 21 28 13 15]"
7700,342,1.0,7,3,1170.4239838123322,131.92025423049927,0,985600,5151695,36997967,"[ 2  0  3  3  3  1  3  0  3  0  1  3  2  2  1  0  3  8  3  4  6  3  3  0
  5  6  4  4  4  8  1 11  7  0  1  3  2  7 11  1  2  3  0  2  0  0 10 10
  3 15  3  0 15 18  1  2 17  1 11 10  5 23 15  4 21 22  3 22 15  0 17  1
  4 21 18 21 28 13 15]"
7800,342,1.0,7,3,1184.0705862045288,136.46602392196655,0,998400,5214345,37437247,"[ 2  0  3  4  0  3  4  2  0  3  1  0  2  2  1  5  1  4  0  3  7  3  0  5
  3  3  3  4  4  8  0  7  3  0  1  3  1  6  3  1  4  5  0  2  0  1 10 16
  0 16  9  0 15 18  1 12 15  4  1 13  5  2 23  4 18 14  1 15 16  5 23 21
  4 21 18 21 28 13 15]"
7900,342,1.0,7,3,1198.315330028534,142.44743824005127,0,1011200,5278042,37884771,"[ 2  0  3  0  1  2  4  0  3  2  1  2  0  2  1  0  5  6  0  6  0  5  3  5
  3  1  3  4  4  7  1 10  6  0  1  3  5  3 11  1 13  4  0  2  0  0 15  9
  2 16 13  0 15 18  5 12  2  2 17  3  1 18  0  3 14 20  0 22 23  2 23 21
  4 21 18 21 28 13 15]"
8000,342,1.0,7,3,1211.5724322795868,132.57102251052856,0,1024000,5341702,38331569,"[ 2  0  3  2  2  1  3  2  3  2  1  2  5  3  3  4  1  6  5  2  1  4  5  2
  5  6  2  4  4  7  4 11  4  0  1  3  4  7  7  0  7 12  0  2  0  3 12  9
  5 11  3  0 15 18  2  2 13  1 17  9  3 22 14  3 19 17  5 21  3  2 16 22
  4 21 18 21 28 13 15]"
8100,342,1.0,7,3,1226.1920800209045,146.1964774131775,0,1036800,5406588,38786963,"[ 2  0  3  2  3  1  3  1  0  2  1  2  1  2  2  5  8  4  5  0  1  3  5  4
  5  0  2  4  4  7  1  0  4  0  1  3  5 10 12  4  9  2  0  2  0  2  2 11
  3 14  0  0 15 18  1 12  2  5 10  3  0  1  2  4 17 23  0 20 15  3 17  2
  4 21 18 21 28 13 15]"
8200,342,1.0,7,3,1242.9164385795593,167.24358558654785,0,1049600,5469021,39223752,"[ 2  0  3  3  0  2  1  2  2  2  1  2  4  1  2  3  7  8  4  1  1  0  0  6
  1  7  7  4  4  7  1  8  2  0  1  3  5 12  6  1  4  8  0  2  0  3 13 18
  2 15 10  0 15 18  5 16 18  2 10 14  4  3  1  5  2 19  3 17  2  5 20 23
  4 21 18 21 28 13 15]"
8300,342,1.0,7,3,1258.3893492221832,154.729106426239,0,1062400,5532444,39666841,"[ 2  0  3  1  0  0  5  2  1  2  1  2  4  1  2  0  4  3  3  2  6  4  1  0
  0  7  4  4  4  7  1 10  4  0  1  3  5 12  1  1  4  2  0  2  0  1 12 15
  5 12 14  0 15 18  4 18 13  3 13 16  3  1 18  4 15 23  4  3  1  3 22 19
  4 21 18 21 28 13 15]"
8400,342,1.0,7,3,1272.0142772197723,136.2492799758911,0,1075200,5595726,40110982,"[ 2  0  3  1  1  1  0  2  0  2  1  2  4  0  0  1  6  8  4  4  3  0  4  6
  5  2  8  4  4  7  4  8  3  0  1  3  4  5  3  3  9  2  0  2  0  5 12 13
  1 18  9  0 15 18  5 13 16  5  2  9  1 23 19  1 14  2  0  3 16  1 22 23
  4 21 18 21 28 13 15]"
8500,342,1.0,7,3,1286.7261414527893,147.11864233016968,0,1088000,5659654,40558560,"[ 2  0  3  2  1  2  4  1  1  3  1  2  2  1  2  0  1  1  3  2  7  3  0  0
  4  7  0  4  4  5  1  7  1  0  1  3  1  3  8  3  5  8  0  2  0  3 10 10
  5  0  1  0 15 18  4 17  3  0 12 16  0 19  0  0 15 14  5 22  1  1 15 21
  4 21 18 21 28 13 15]"
8600,342,1.0,7,3,1299.7170877456665,129.90946292877197,0,1100800,5722314,40997566,"[ 2  0  3  4  2  2  2  3  1  3  0  3  2  1  2  5  5  0  2  3  8  3  4  6
  0  5  5  4  4  8  3  1  5  0  1  3  4  5  9  5  0 11  0  2  0  3 11 16
  3 16 16  0 15 18  1 14 13  3 13 18  1 23 22  2  2 14  5 23  0  1 16 22
  4 21 18 21 28 13 15]"
8700,342,1.0,7,3,1315.3221385478973,156.05050802230835,0,1113600,5784717,41436422,"[ 2  0  3  3  2  3  0  3  1  4  1  2  2  1  2  0  4  7  1  3  4  4  0  4
  1  0  5  4  4  8  3  9  9  0  1  3  1  7  1  2  4  2  0  2  0  3 14  2
  4  0 14  0 15 18  0 17 13  4  9  9  1 16 16  3 21 20  2 22 14  2  0  2
  4 21 18 21 28 13 15]"
8800,342,1.0,7,3,1329.8829324245453,145.6079387664795,0,1126400,5848525,41883886,"[ 2  0  3  0  0  0  5  2  1  2  0  2  2  2  1  1  8  4  3  7  8  1  8  7
  4  7  7  4  4  8  3  0 10  0  1  3  5  3  1  3  7 10  0  2  0  0 15  3
  2 18  1  0 15 18  4  9 14  4  3 16  3 22 18  4  3  1  2 14 14  0 17  0
  4 21 18 21 28 13 15]"
8900,342,1.0,7,3,1345.4556090831757,155.7267665863037,0,1139200,5911672,42326275,"[ 2  0  3  2  3  0  1  3  1  5  3  1  2  2  1  2  5  7  3  0  0  1  8  7
  2  8  5  4  4  8  0  7  9  0  1  3  2  2 12  0  8  1  0  2  0  3 15 11
  5 10  2  0 15 18  0 10 11  5 12 13  5 20  3  3 17 20  3  3 14  5 22 16
  4 21 18 21 28 13 15]"
9000,342,1.0,7,3,1359.8541243076324,143.98515224456787,0,1152000,5975032,42770954,"[ 2  0  3  5  2  0  1  1  2  3  3  3  2  2  1  0  3  8  3  2  5  1  8  1
  4  1  7  4  4  8  4 13  6  0  1  3  4 13  5  1 11 11  0  2  0  3  9 13
  1  2  9  0 15 18  4 13  2  1 11 10  1 23  0  2 19 21  4  2 23  1 22 20
  4 21 18 21 28 13 15]"
9100,342,1.0,7,3,1374.2248508930206,143.70726585388184,0,1164800,6037343,43207301,"[ 2  0  3  2  3  0  3  3  1  4  0  0  2  2  1  4  1  6  3  6  8  4  1  1
  1  2  0  4  4  8  2  5  0  0  1  3  3 10  4  1  4  2  0  2  0  5  2 18
  3  1 18  0 15 18  2 14 12  2 16  3  2  2  0  0  3 22  5  2 21  0 17 23
  4 21 18 21 28 13 15]"
9200,342,1.0,7,3,1388.451661348343,142.26810455322266,0,1177600,6101224,43654695,"[ 2  0  3  2  1  0  5  1  1  0  2  0  2  2  1  3  1  3  4  2  0  5  2  4
  3  8  0  4  4  8  3  3  2  0  1  3  4 10  4  0  6 10  0  2  0  4  2 17
  3 13 14  0 15 18  0 16 10  1 11  1  3 23 17  4  1  3  5 19 19  1 21  3
  4 21 18 21 28 13 15]"
9300,342,1.0,7,3,1402.2229099273682,137.71248579025269,0,1190400,6164986,44101307,"[ 2  0  3  3  3  3  5  3  1  0  2  1  2  2  1  4  2  8  0  0  1  5  1  8
  4  6  4  4  4  8  3  9 13  0  1  3  1  6  7  4  1  2  0  2  0  5 13  3
  4 17 17  0 15 18  5  0 16  0 16 12  3 20  2  5 22 23  1 18 17  4  1 19
  4 21 18 21 28 13 15]"
9400,342,1.0,7,3,1415.7386968135834,135.1578688621521,0,1203200,6228255,44544917,"[ 5  1  2  5  1  2  4  2  0  2  0  3  2  2  1  2  2  6  1  3  8  5  0  1
  3  6  7  4  7  8  3 12  3  0  1  3  1  3  1  4  8 10  0  2  0  4  1 12
  4 13 10  0 15 18  5 14 17  5 15 13  3 20 21  5  0 19  1 19  0  5 23  0
  4 21 18 21 28 13 15]"
9500,342,1.0,7,3,1428.9260079860687,131.87311172485352,0,1216000,6291829,44990189,"[ 2  0  2  5  1  1  0  3  2  2  0  3  2  2  1  0  6  0  0  5  1  3  1  1
  5  6  1  4  7  8  5 12  3  0  1  3  0  3  8  5  6  4  0  2  0  0 18 14
  2 18 15  0 15 18  2  2 12  5  3  2  4 14  0  1 16  3  4  2  1  3  3 15
  4 21 18 21 28 13 15]"
9600,342,1.0,7,3,1442.4632775783539,135.37269592285156,0,1228800,6355426,45435466,"[ 0  3  0  2  1  2  0  3  1  2  0  3  4  3  3  4  1  4  3  6  8  4  2  7
  5  1  7  4  7  5  2  4  6  0  1  3  2  1  2  3 10  0  0  2  0  5 18  2
  0 17 17  0 15 18  3  2 10  3  3 14  5 21  1  4 14 23  5 15 15  4 16  1
  4 21 18 21 28 13 15]"
9700,342,1.0,7,3,1455.3264396190643,128.6316204071045,0,1241600,6417800,45872772,"[ 3  0  3  3  3  2  2  2  1  2  0  3  3  1  3  3  4  7  4  8  1  3  1  4
  5  1  0  4  7  6  2 10  6  0  1  3  5  8  8  5 13 11  0  2  0  5  9  9
  2 16 13  0 15 18  2 16 11  3  3 10  0 18 17  2 14  3  1 15 15  4  0 22
  4 21 18 21 28 13 15]"
9800,342,1.0,7,3,1470.085601091385,147.59161472320557,0,1254400,6480995,46316250,"[ 3  2  1  3  0  1  2  2  1  2  0  3  4  2  1  0  6  1  0  5  4  5  1  5
  2  5  3  4  7  6  3  5  6  0  1  3  2  8  6  5 11  1  0  2  0  2 10  1
  3 17  2  0 15 18  0 10  9  2 13  9  3 20 15  0 21 17  4  1 22  2 21 18
  4 21 18 21 28 13 15]"
9900,342,1.0,7,3,1485.139611005783,150.54009914398193,0,1267200,6543230,46752018,"[ 1  1  2  4  1  0  4  0  3  2  0  3  2  1  2  0  5  4  2  0  5  3  1  7
  2  4  3  4  7  8  4  3  0  0  1  3  1  8  7  3 12  4  0  2  0  5  0  3
  5 11  2  0 15 18  1  2 13  5 15 12  5 17  3  5 20 23  4 14 19  2  1 18
  4 21 18 21 28 13 15]"
10000,342,1.0,7,3,1500.6229701042175,154.83359098434448,0,1280000,6605828,47190248,"[ 3  1  2  1  0  2  5  0  2  2  0  3  2  1  2  0  2  3  3  0  4  2  8  3
  3  8  4  4  7  8  0  3  1  0  1  3  3  3  7  4  5 10  0  2  0  3 11  0
  2 10 18  0 15 18  0 14  0  4 14 10  5  0  1  4 20 19  2  3  1  0 23  1
  4 21 18 21 28 13 15]"
10100,342,1.0,7,3,1516.827656507492,162.04686403274536,0,1292800,6669148,47633371,"[ 5  1  2  2  1  2  4  1  0  2  0  3  4  3  1  2  2  5  0  8  7  1  2  6
  5  6  5  4  7  5  1  1  7  0  1  3  4  4  3  1  7  0  0  2  0  5 17 17
  4  3 11  0 15 18  0  9  9  5 18 10  1  3  2  4 19 16  2 19 21  3  0  1
  4 21 18 21 28 13 15]"
10200,342,1.0,7,3,1532.174797296524,153.47140789031982,0,1305600,6733158,48081100,"[ 0  3  1  2  1  2  1  2  0  2  0  3  0  1  3  4  5  1  1  0  8  4  2  7
  0  1  4  4  7  5  1  1  5  0  1  3  5  4  7  2  1 11  0  2  0  1  3  0
  0  2 18  0 15 18  3  9 11  1 10 17  4  3 16  5 21  2  5 23 18  4 15  0
  4 21 18 21 28 13 15]"
10300,342,1.0,7,3,1546.3758199214935,142.01022624969482,0,1318400,6795628,48518557,"[ 4  0  0  2  1  2  2  0  3  4  2  2  0  1  2  4  1  3  4  0  8  4  7  1
  1  6  2  4  6  5  2  6  9  0  1  3  4  8  4  3  6  9  0  2  0  5 17 12
  3 18  1  0 15 18  4  9 16  0  2 17  0 19 22  0 21 15  0 22 14  1  1  2
  4 21 18 21 28 13 15]"
10400,342,1.0,7,3,1563.610282421112,172.3446249961853,0,1331200,6858970,48962971,"[ 4  3  1  2  1  2  2  0  3  3  3  3  5  0  2  3  4  8  5  2  7  4  6  5
  4  1  6  4  6  5  0  6  2  0  1  3  2  8 10  3  8  4  0  2  0  0 17 14
  5 12  1  0 15 18  5  1 14  2 13 17  1 15 22  4 19 15  3  3 18  2 23 23
  4 21 18 21 28 11 15]"
10500,342,1.0,7,3,1579.1584870815277,155.4820466041565,0,1344000,6922356,49406815,"[ 2  3  1  2  1  2  2  0  3  3  0  3  4  2  1  5  5  0  3  5  8  4  6  5
  3  7  7  0  5  5  4 13  4  0  1  3  5  6 12  1  2  5  0  2  0  2 17  0
  4 17  1  0 15 18  2 12  1  2 18 10  3 17  1  4 17  2  1 18 18  3 19 15
  4 21 18 21 28 11 15]"
10600,342,1.0,7,3,1596.0304057598114,168.7191867828369,0,1356800,6984303,49841759,"[ 3  1  0  2  1  2  2  0  3  2  0  1  5  2  3  4  7  4  4  7  7  4  6  5
  2  0  4  2  8  4  2  9  4  0  1  3  3  2  8  1  7 12  0  2  0  0 13 15
  1 18 14  0 15 18  1 11 12  2  9  2  3  2 15  5  2 22  1  0 18  4 15 17
  4 21 18 21 28 11 15]"
10700,342,1.0,7,3,1610.9413073062897,149.10901546478271,0,1369600,7047681,50285542,"[ 5  1  3  2  1  2  2  0  3  5  3  1  0  0  1  4  5  6  2  4  0  4  0  6
  1  7  0  3  3  1  5  6 10  0  1  3  1  3 10  2  5  6  0  2  0  3  2 14
  0 17  2  0 15 18  0  3 10  2  2 14  3  3  1  3 15  2  5 22 23  4  3 23
  4 21 18 21 28  9 15]"
10800,342,1.0,7,3,1625.4304208755493,144.89113569259644,0,1382400,7110306,50723463,"[ 3  0  1  2  1  2  2  0  3  5  1  0  3  1  1  4  5  6  1  0  0  0  5  0
  3  4  0  3  1  6  2  0  8  0  1  3  4  9 12  3  6  7  0  2  0  5 14  1
  1  3 10  0 15 18  1  9 11  4  2 14  3 16  1  0  0 22  4  2 19  4 14 20
  4 21 18 21 28  9 15]"
10900,342,1.0,7,3,1640.798134803772,153.67713928222656,0,1395200,7173314,51165287,"[ 2  1  0  2  1  2  2  0  3  5  1  2  0  3  3  4  5  6  0  7  4  1  7  1
  0  8  7  1  6  2  1  1  0  0  1  3  2  2  2  5  9  0  0  2  0  0 11 10
  4 18  0  0 15 18  2 10  3  1 18 15  4 19 17  1 14 19  5 22 17  0 23 16
  4 21 18 21 28  9 15]"
11000,342,1.0,7,3,1657.1723284721375,163.74193668365479,0,1408000,7238037,51617931,"[ 2  0  2  5  1  3  2  0  3  2  1  2  3  1  3  4  7  6  5  0  8  0  6  5
  5  6  5  4  1  2  2  6  8  0  1  3  5  0  7  0  0 10  0  2  0  5 18  3
  5 17  0  0 15 18  5 15  9  3 13 11  0 21 23  1 23 20  0 14 15  0 23 21
  4 21 18 21 28  9 15]"
11100,342,1.0,7,3,1675.1389887332916,179.66660261154175,0,1420800,7301340,52060961,"[ 0  0  3  1  2  2  2  0  3  2  1  2  0  2  3  4  7  6  4  1  1  2  1  0
  3  5  8  3  3  2  0  5 13  0  1  3  2  7  1  5  9 10  0  2  0  4 18 12
  0  3  3  0 15 18  5  3 12  5 16 11  2 16 15  2 17 20  4 19  1  5  1 18
  4 21 18 21 28  9 15]"
11200,342,1.0,7,3,1696.6035277843475,214.64539051055908,0,1433600,7364319,52502581,"[ 2  0  0  4  1  3  2  0  3  2  1  2  4  1  2  4  7  6  5  8  0  1  4  4
  3  0  3  5  0  5  3  4  3  0  1  3  5  8  2  1  8  0  0  2  0  1 11 10
  3 11 10  0 15 18  0  0  0  1  3 13  5  0 20  5 18 15  0 22  1  1 22 18
  4 21 18 21 28  9 15]"
11300,342,1.0,7,3,1713.8685231208801,172.64995336532593,0,1446400,7427704,52946970,"[ 5  0  2  5  3  1  2  0  3  2  1  2  0  0  3  4  7  6  5  7  0  1  1  2
  4  4  8  4  5  4  2 11  4  0  1  3  3  9  0  4  3  9  0  2  0  3  1  2
  5 10  9  0 15 18  2  9  2  1 10 11  5 23 18  1 21 18  3 15 23  3 22 23
  4 21 18 21 28  9 15]"
11400,342,1.0,7,3,1731.1993401050568,173.30816984176636,0,1459200,7491243,53392883,"[ 2  1  1  4  2  0  2  0  3  2  1  2  2  2  2  4  7  6  4  5  1  4  3  5
  1  1  4  5  7  4  1  0 12  0  1  3  3  3  7  3  1 12  0  2  0  2 11 16
  2 14 15  0 15 18  1 12 10  5 15 11  4 20 20  3 22  2  5  1  2  2 19 22
  4 21 18 21 28  9 15]"
11500,342,1.0,7,3,1745.025160074234,138.25819969177246,0,1472000,7555421,53843634,"[ 2  0  3  5  1  0  2  0  3  2  1  2  2  2  2  4  7  6  4  0  7  4  8  2
  0  3  0  2  7  7  5 12  6  0  1  3  4  9 12  1 10  4  0  2  0  1 14  9
  4 11 18  0 15 18  4 13 17  2 13  9  5 20 18  3 22  2  0 22 20  4 17 18
  4 21 18 21 28  9 15]"
11600,342,1.0,7,3,1759.2210116386414,141.9585156440735,0,1484800,7618898,54288621,"[ 5  0  2  3  2  2  2  0  3  2  1  2  1  3  3  4  7  6  0  3  1  5  5  3
  4  0  1  5  3  7  0  2  7  0  1  3  4  5 11  0 12 12  0  2  0  0  0 11
  4 10 10  0 15 18  5 13  3  1 13 11  1  3 18  4  3 17  3  3 20  4 18 14
  4 21 18 21 28  9 15]"
11700,342,1.0,7,3,1773.2237131595612,140.027015209198,0,1497600,7680987,54724090,"[ 2  2  1  4  0  2  2  0  3  4  2  3  3  0  2  4  4  6  3  3  1  2  7  6
  5  8  3  5  3  0  0  4  6  0  1  3  1 11 13  2 10  6  0  2  0  4 13 15
  5 11  3  0 15 18  4  2 14  0 10  3  1 18 23  0 19  0  1 20 18  5  3 22
  4 21 18 21 28  9 15]"
11800,342,1.0,7,3,1788.3440849781036,151.2037181854248,0,1510400,7744791,55170931,"[ 2  2  1  4  1  2  2  0  3  2  2  1  3  1  2  4  7  6  1  6  6  0  4  5
  4  1  2  5  0  0  2 10 10  0  1  3  1  9  1  0  7 11  0  2  0  1  9 10
  1  9 11  0 15 18  5 18  1  2 13 13  3 17 18  0 23  0  1 20  3  4 19 22
  4 21 18 21 28  9 15]"
11900,342,1.0,7,3,1802.349573135376,140.0548815727234,0,1523200,7808018,55613281,"[ 5  1  3  1  3  3  2  0  3  2  2  1  3  3  0  4  7  6  5  3  3  3  7  7
  4  5  0  2  5  7  3 13  7  0  1  3  0  9  2  5 11  2  0  2  0  5 11  2
  4  2 17  0 15 18  3  1 17  3 11 11  2 20 14  2 14 23  0  0 20  1 18  2
  4 21 18 21 28  9 15]"
12000,342,1.0,7,3,1816.2108142375946,138.61241102218628,0,1536000,7871533,56058022,"[ 4  0  0  2  3  0  0  0  2  2  2  1  4  3  0  4  7  5  4  3  3  1  0  8
  4  0  0  0  4  0  4  6  2  0  1  3  0  8  2  3  6  7  0  2  0  4  2 10
  3 17 12  0 15 18  5 15  0  0  1  3  5 21 15  5  1 21  5 16  3  3 16  3
  4 21 18 21 28  9 15]"
12100,342,1.0,7,3,1831.0867261886597,148.75911951065063,0,1548800,7935000,56502282,"[ 3  1  0  2  3  0  2  0  1  2  2  1  2  1  3  4  7  5  5  0  7  4  4  4
  1  2  0  3  3  0  5  8  4  0  1  3  0 12  3  1  6  7  0  2  0  5  9  2
  4 16 14  0 15 18  5  1  0  3 16 14  5  1 22  2 23  3  0 19  2  4  3 14
  4 21 18 21 28  9 15]"
12200,342,1.0,7,3,1845.611888408661,145.2516222000122,0,1561600,7997827,56941839,"[ 2  2  3  2  3  0  2  1  1  2  2  1  0  3  1  4  7  5  3  5  0  5  0  5
  2  8  6  2  4  5  3 10  9  0  1  3  0  7  3  2  0  6  0  2  0  3 13 11
  4  9 15  0 15 18  5 13 15  3 17 16  0 18  3  2 23  1  3 14 19  3 16 14
  4 21 18 21 28  9 15]"
12300,342,1.0,7,3,1860.8222057819366,152.10317373275757,0,1574400,8061206,57386207,"[ 3  3  1  2  3  0  4  1  0  2  2  1  4  3  3  4  7  5  4  8  1  4  5  8
  1  8  0  3  6  7  4  3  7  0  1  3  4  7  3  2  7  8  0  2  0  1 11 15
  3 17  3  0 15 18  3  0  3  3  0 12  3 16 21  5 22 21  0  0 17  2  2 21
  4 21 18 21 28  9 15]"
12400,342,1.0,7,3,1876.3522136211395,155.3000783920288,0,1587200,8124039,57827021,"[ 4  2  3  2  3  0  5  1  3  2  2  1  3  1  3  4  7  5  5  6  7  4  6  2
  5  2  8  4  8  1  3  7 12  0  1  3  0  3  2  3 11  1  0  2  0  5 13  1
  1  9  9  0 15 18  2 13  2  4 18 13  1  0 22  0 21  1  0 14 15  3 19 22
  4 21 18 21 28  9 15]"
12500,342,1.0,7,3,1891.4122428894043,150.6002926826477,0,1600000,8188428,58277319,"[ 5  2  3  2  3  0  5  2  3  2  2  1  3  0  3  4  7  5  4  7  1  4  2  6
  3  3  5  2  0  5  5  0  8  0  1  3  0  4  0  3  1 12  0  2  0  0  2 17
  0 15  1  0 15 18  0  2  1  4  2 14  4 21  3  4 22  3  5  1 16  3  2 18
  4 21 18 21 28  9 15]"
12600,342,1.0,7,3,1905.9720935821533,145.59850692749023,0,1612800,8251119,58716735,"[ 0  1  3  2  3  0  5  2  1  2  2  1  2  0  2  4  7  5  5  3  3  2  0  2
  4  7  8  5  4  3  5  6  1  0  1  3  2  9 12  2 10  1  0  2  0  3 12 17
  5 18  0  0 15 18  2 15  1  1  3 12  0 14  1  3 18 20  3 20 22  4 23 14
  4 21 18 21 28  9 15]"
12700,342,1.0,7,3,1921.2363905906677,152.64297008514404,0,1625600,8314484,59160674,"[ 4  3  0  2  3  0  2  2  1  2  3  1  3  3  0  4  6  5  4  1  1  1  0  8
  5  1  4  2  3  6  5  1 10  0  1  3  1 12  0  4  5  9  0  2  0  0  2  3
  5  0 12  0 15 18  5  1  3  3 14  0  3 23  1  0 16 18  5 19 16  2 15 18
  4 21 18 21 28  9 15]"
12800,342,1.0,7,3,1937.9058611392975,166.6947054862976,0,1638400,8377076,59598158,"[ 2  2  1  2  3  0  0  0  1  5  3  2  3  3  1  4  4  5  3  2  2  1  8  7
  1  1  1  5  7  6  1 13  2  0  1  3  3  8  6  1  4  2  0  2  0  5  0  9
  4 18 15  0 15 18  1 17  1  3 15 12  4 17 18  0 16 14  3 23  3  2 23 17
  4 21 18 21 28  9 15]"
12900,342,1.0,7,3,1951.0591111183167,131.53249979019165,0,1651200,8440128,60040134,"[ 2  2  1  2  3  0  0  2  0  3  2  2  2  2  0  0  4  3  5  6  1  5  3  2
  4  5  4  0  5  6  1  3 10  0  1  3  3  6  1  4 10 10  0  2  0  0  1  1
  3 12  1  0 15 18  3  3 18  1 10 18  4 17 16  5 17 19  3 15 22  5  3 15
  4 21 18 21 28 12 15]"
13000,342,1.0,7,3,1964.0788288116455,130.19717693328857,0,1664000,8502819,60480227,"[ 2  2  1  2  3  0  2  3  2  2  3  2  5  0  1  1  8  2  2  5  0  2  7  7
  4  5  4  5  6  3  0  9  2  0  1  3  2  6 12  4  9 11  0  2  0  0  0 17
  0 16 11  0 15 18  5 15 10  4 14  3  5 20 18  0 19 21  4  3 16  0 22 20
  4 21 18 21 28 12 15]"
13100,342,1.0,7,3,1978.1542270183563,140.75398206710815,0,1676800,8566107,60923763,"[ 2  2  1  2  3  0  3  0  3  2  1  0  3  3  1  3  3  6  4  2  0  0  1  3
  4  5  4  3  8  4  1  9  1  0  1  3  1  2  0  2  8  4  0  2  0  5 17  3
  5  2 13  0 15 18  4 18  0  2 16 13  2 19  2  4 23 15  0 14  0  4 18 17
  4 21 18 21 28 12 15]"
13200,342,1.0,7,3,1993.9055235385895,157.51296520233154,0,1689600,8629843,61371176,"[ 2  2  1  0  0  0  2  2  2  2  3  0  2  1  0  3  5  6  1  8  5  0  3  5
  4  7  4  4  8  4  3  1  0  0  1  3  3  7  9  2 13  6  0  2  0  5  0 11
  5 15 13  0 15 18  2 16 12  2 13 11  1 23 20  5 15  3  0 16  1  4  1  1
  4 21 18 21 28 12 15]"
13300,342,1.0,7,3,2010.8247020244598,169.1917848587036,0,1702400,8693558,61819170,"[ 2  2  1  2  0  3  2  1  2  2  3  0  3  1  2  2  5  8  3  1  2  4  3  6
  4  7  4  2  6  3  3  1  8  0  1  3  5  7 12  3  7 11  0  2  0  2 13 16
  3 13  1  0 15 18  3 16  1  0 14  3  2 14  0  2 17 19  4  3 18  1  1  2
  4 21 18 21 28 12 15]"
13400,342,1.0,7,3,2027.5283198356628,167.03617811203003,0,1715200,8757497,62268094,"[ 4  0  1  5  2  2  3  2  0  2  3  0  2  1  2  4  3  2  0  6  1  3  1  5
  4  7  8  0  0  7  5 13  6  0  1  3  4 12  8  4 11 12  0  2  0  2 12 16
  3  2 10  0 15 18  3  3 17  2 17  0  4  0 21  1  2 19  4 21 22  0 15 16
  4 21 18 21 28 12 15]"
13500,342,1.0,7,3,2041.350746870041,138.22427034378052,0,1728000,8820130,62706780,"[ 5  1  2  1  0  1  5  0  0  2  3  0  2  1  2  4  5  2  4  3  8  1  6  2
  4  7  8  3  2  8  0  3  5  0  1  3  2  3  0  4 13  9  0  2  0  5 16 16
  4 15  1  0 15 18  3  9  3  3  3 16  2 20 15  3  1 15  2 17 22  5 19  2
  4 21 18 21 28 12 15]"
13600,342,1.0,7,3,2057.268421649933,159.17674779891968,0,1740800,8883087,63147998,"[ 2  1  1  4  0  3  1  2  0  2  3  0  2  1  2  5  1  1  3  2  7  5  5  5
  4  7  8  3  8  3  0  8  6  0  1  3  1  0  5  2  7  6  0  2  0  3  9  9
  5 15  1  0 15 18  3  1  3  5 15 13  3 18 16  4 19 21  5  1 21  5 18 22
  4 21 18 21 28 12 15]"
13700,342,1.0,7,3,2070.8304924964905,135.62070846557617,0,1753600,8946624,63593068,"[ 2  0  3  5  1  1  3  3  2  2  1  2  2  1  2  0  1  6  1  6  6  3  7  6
  4  4  7  1  1  0  1  4 13  0  1  3  1  5  4  5  7  5  0  2  0  1  3 16
  0 12  1  0 15 18  2 17  0  3 18 18  0 20  3  4 17  0  0 22  3  1 15 21
  4 21 18 21 28 12 15]"
13800,342,1.0,7,3,2085.1650936603546,143.34601163864136,0,1766400,9009821,64035775,"[ 2  0  3  3  1  3  1  3  1  0  3  3  2  1  2  5  5  6  4  8  6  2  8  6
  4  4  8  4  7  1  5 12  5  0  1  3  4 13  8  3  6 12  0  2  0  3 11 14
  2 15  0  0 15 18  2  0  1  0 15  2  4 20 17  5 15  2  5 20 17  4  0  0
  4 21 18 21 28 12 15]"
13900,342,1.0,7,3,2099.8510994911194,146.8600583076477,0,1779200,9072382,64473197,"[ 2  0  3  1  3  3  1  3  2  3  3  3  2  1  2  0  4  7  5  8  1  3  1  3
  4  4  8  0  1  8  5 12  8  0  1  3  0  5  0  1  5  5  0  2  0  3 10 15
  3  1  0  0 15 18  3 18  2  0 15  9  0 17 17  5 23 18  0 19  0  0  3 17
  4 21 18 21 28 12 15]"
14000,342,1.0,7,3,2113.800174474716,139.49074983596802,0,1792000,9135508,64914163,"[ 2  0  3  4  3  3  5  1  3  0  2  1  2  1  2  2  2  2  1  5  4  4  1  0
  4  4  8  0  1  0  5  8  9  0  1  3  1  9  0  5 10  1  0  2  0  2 18  2
  3 12  9  0 15 18  0 10 12  0 14 11  0 23 16  4 19  0  1 17 19  5 14 14
  4 21 18 21 28 12 15]"
14100,342,1.0,7,3,2126.894703388214,130.94528913497925,0,1804800,9198669,65356795,"[ 2  0  3  2  1  0  1  3  3  4  2  3  2  1  2  3  2  4  2  8  4  0  2  7
  4  4  8  1  1  5  3  0  9  0  1  3  4  4  0  0  0 11  0  2  0  4 18 15
  1 13 12  0 15 18  3  2  1  3 16 12  0 21 23  4  3 20  5  0  0  1 20  3
  4 21 18 21 28 12 15]"
14200,342,1.0,7,3,2141.919666528702,150.2496314048767,0,1817600,9262129,65800808,"[ 2  0  3  0  2  1  0  1  1  1  1  3  2  1  2  5  3  5  1  8  5  4  5  8
  4  4  8  3  2  3  4  2  2  0  1  3  1 11 10  2  7  6  0  2  0  3 11  3
  3  1  1  0 15 18  4  9 14  4 10 14  0 16 23  2  2 18  2 16 22  5  2 19
  4 21 18 21 28 12 15]"
14300,342,1.0,7,3,2157.4956934452057,155.76026916503906,0,1830400,9325241,66242498,"[ 2  0  3  1  0  2  3  2  3  0  1  3  2  1  2  2  7  3  2  5  4  0  6  8
  4  4  8  5  1  0  1 10  9  0  1  3  3  2  1  0  0  4  0  2  0  4 11 15
  1 17 16  0 15 18  3 16 15  0 15  9  3 18 14  5 18 20  1 21  1  2  0 18
  4 21 18 21 28 12 15]"
14400,342,1.0,7,3,2172.2507679462433,147.55074501037598,0,1843200,9388297,66684911,"[ 2  0  3  3  3  1  5  3  1  2  0  1  2  1  2  5  5  7  2  5  4  0  5  8
  4  4  8  4  4  6  1 10  2  0  1  3  2  7  5  3 11 11  0  2  0  2 12 17
  3  2  9  0 15 18  4 16 12  0 13  3  2 17 16  4 16 15  0  2  2  2 17 15
  4 21 18 21 28 12 15]"
14500,342,1.0,7,3,2186.189771413803,139.39003467559814,0,1856000,9450619,67122776,"[ 2  0  3  4  3  3  0  2  1  4  0  2  2  1  2  3  2  6  2  1  4  0  4  6
  4  4  8  3  5  7  2  2 12  0  1  3  3  5  8  4  1  8  0  2  0  1 10 17
  4  2 13  0 15 18  0 10 11  3 12 11  0 19  1  5  3  3  1 23 23  0 15 20
  4 21 18 21 28 12 15]"
14600,342,1.0,7,3,2200.7447867393494,145.55015325546265,0,1868800,9512767,67558825,"[ 2  0  3  1  2  0  4  0  1  4  1  3  2  1  2  1  1  7  2  1  6  3  4  3
  4  4  8  0  4  1  2  6  2  0  1  3  0 13 13  3 13  9  0  2  0  1 13 17
  5 14 13  0 15 18  2  3 11  2 10 12  4 19 21  0 21  0  4 18 23  5 23  1
  4 21 18 21 28 12 15]"
14700,342,1.0,7,3,2214.3754589557648,136.30672216415405,0,1881600,9575327,67996626,"[ 2  0  3  3  0  3  5  2  2  5  0  2  2  1  2  3  5  5  3  0  7  1  1  8
  4  4  8  2  1  2  2  1  6  0  1  3  4  8 10  0  8  0  0  2  0  1  0 16
  1  0 16  0 15 18  1 13  2  1 13 18  3 16 18  0 22 16  1 20 16  4 22 14
  4 21 18 21 28 12 15]"
14800,342,1.0,7,3,2230.741960287094,163.66501331329346,0,1894400,9638326,68439680,"[ 2  0  3  4  0  1  3  1  2  0  0  3  2  1  2  5  5  4  3  7  7  2  6  1
  4  4  8  4  4  8  0  0  9  0  1  3  5 11 11  4  4  3  0  2  0  2 18 10
  2 13 13  0 15 18  1  1  3  0  3 14  4 19  3  5  1 16  1 16 18  1 21  0
  4 21 18 21 28 12 15]"
14900,342,1.0,7,3,2246.0026881694794,152.60727882385254,0,1907200,9701293,68880340,"[ 4  3  3  1  1  1  3  3  2  2  0  3  2  1  2  5  1  7  2  2  0  4  3  6
  4  7  8  4  3  7  1  3  4  0  1  3  4  6  4  5 13  5  0  2  0  4  0 18
  5  0 15  0 15 18  2 14  1  0  1 13  5  0 20  1 19  2  0  1 14  1 20 22
  4 21 18 21 28 12 15]"
15000,342,1.0,7,3,2262.454060316086,164.51372146606445,0,1920000,9764712,69323512,"[ 2  2  0  4  0  0  3  0  2  2  0  3  2  1  2  5  2  3  0  8  0  1  4  6
  4  7  8  1  2  8  5  2 12  0  1  3  0  9  5  1  4  0  0  2  0  5  2  0
  4  0 11  0 15 18  2 13 14  4  0 11  4  2 18  4  0 15  5  3  0  2 14 23
  4 21 18 21 28 12 15]"
15100,342,1.0,7,3,2278.659096479416,162.05036163330078,0,1932800,9828244,69767496,"[ 2  1  3  4  1  3  1  1  3  2  0  3  2  1  2  0  2  3  3  4  8  2  3  0
  4  7  8  0  0  7  2  9  6  0  1  3  3 12  6  3  4 10  0  2  0  4 15  0
  4 17 14  0 15 18  4 14 16  0 15 13  5  2 20  2 15 19  5 22  1  5  0 15
  4 21 18 21 28 12 15]"
15200,342,1.0,7,3,2293.0475347042084,143.8843822479248,0,1945600,9890922,70206768,"[ 2  2  1  5  0  2  3  2  3  2  0  3  2  0  2  3  0  1  3  8  0  2  1  7
  4  7  4  0  2  1  3  7  2  0  1  3  2  8  9  1  4  3  0  2  0  2  3 14
  0 11 14  0 15 18  1 18 14  4 14 13  0 18 14  1  1 14  3 22 14  4 14  0
  4 21 18 21 28 12 15]"
15300,342,1.0,7,3,2307.7463788986206,146.98844194412231,0,1958400,9955344,70657747,"[ 2  2  1  2  1  0  0  2  3  2  0  3  2  0  3  5  0  4  5  6  0  2  2  6
  4  7  4  5  2  7  5  4  7  0  1  3  2  4  6  3  1 11  0  2  0  3 15  0
  1 11  3  0 15 18  3 16  0  2  3 18  5 18 20  1 17  1  0 18 23  2  0  2
  4 21 18 21 28 12 15]"
15400,342,1.0,7,3,2322.8155241012573,150.6914520263672,0,1971200,10019075,71103969,"[ 2  2  1  0  2  3  4  2  0  2  0  3  0  1  0  2  5  4  0  8  2  5  7  0
  4  7  4  4  6  1  4  8  9  0  1  3  4 12  7  1  4 11  0  2  0  4 13  3
  1  0 12  0 15 18  0  2  9  4 15 13  1 16  0  3 17 15  1 18  2  3  3  2
  4 21 18 21 28 12 15]"
15500,342,1.0,7,3,2337.2886168956757,144.73092794418335,0,1984000,10082801,71549327,"[ 2  2  1  2  2  1  4  2  0  2  0  3  1  0  1  1  5  3  4  8  5  4  3  2
  4  7  5  4  6  3  5  3  2  0  1  3  1 12  6  4  8 12  0  2  0  4 14 15
  3  1 15  0 15 18  0 18 12  3 18 18  5 15 23  4 14  3  5  1 15  4  2  2
  4 21 18 21 28 12 15]"
15600,342,1.0,7,3,2353.998228788376,167.09611892700195,0,1996800,10145158,71986095,"[ 2  2  1  2  1  0  1  1  1  2  0  3  0  2  0  1  6  2  0  4  4  4  0  0
  4  7  4  0  0  8  4  5  3  0  1  3  1 12 12  5  7 12  0  2  0  1 13 11
  1  0 15  0 15 18  5  1  9  2  1  3  0 17  0  4  1 14  1 17 18  3 15 20
  4 21 18 21 28 12 15]"
15700,342,1.0,7,3,2368.515520334244,145.1729154586792,0,2009600,10208498,72430010,"[ 2  2  1  4  2  2  4  2  2  2  0  3  5  3  3  4  5  6  0  4  3  5  6  6
  4  7  4  4  0  0  2  3  2  0  1  3  5  4 12  2 12  9  0  2  0  5 18 13
  2 11  9  0 15 18  5 14  0  5  9 13  0 22  3  2 17 23  5 15 20  2  2 23
  4 21 18 21 28 12 15]"
15800,342,1.0,7,3,2383.367361307144,148.5184097290039,0,2022400,10270873,72867816,"[ 2  2  1  5  1  1  3  3  0  2  0  3  0  1  1  5  2  7  0  2  0  0  6  3
  4  7  4  0  1  6  1  1  6  0  1  3  0 13 10  5  3  2  0  2  0  5 10 13
  3 12  1  0 15 18  0  9  2  3 10 10  2 22 18  3 14  1  4 21 20  0 21 16
  4 21 18 21 28 12 15]"
15900,342,1.0,7,3,2398.4388234615326,150.71462154388428,0,2035200,10334205,73311480,"[ 2  2  1  5  3  0  2  0  3  2  0  3  1  3  1  0  6  7  0  7  6  0  3  8
  4  7  4  2  3  4  2 10  9  0  1  3  5  6  0  2  0  5  0  2  0  4  9 17
  1  9 12  0 15 18  0  9  1  1 10 18  0  1 18  1 18 21  2 17 15  3 21 17
  4 21 18 21 28 12 15]"
16000,342,1.0,7,3,2413.355278968811,149.16455507278442,0,2048000,10397259,73753851,"[ 2  2  1  2  0  2  3  1  1  2  0  3  5  0  2  0  3  5  3  0  5  3  7  2
  4  7  4  3  5  2  3  9  9  0  1  3  1  1  2  5 13  9  0  2  0  0  0  9
  5  1 16  0 15 18  2  9  1  0 13 12  5 17 17  4 17 21  0 15 18  3 20  1
  4 21 18 21 28 12 15]"
16100,342,1.0,7,3,2428.077828168869,147.22549200057983,0,2060800,10459864,74193724,"[ 2  2  1  4  1  2  5  2  3  2  0  3  3  3  1  5  0  4  3  7  2  2  4  8
  4  7  4  1  7  8  4  2  2  0  1  3  0 10 12  5 11  9  0  2  0  0  3 14
  0 13  3  0 15 18  2 16  1  3 14 16  2  1 16  0 19 21  5 20 23  5  0  1
  4 21 18 21 28 12 15]"
16200,342,1.0,7,3,2444.220717906952,161.42889738082886,0,2073600,10523700,74641068,"[ 2  2  1  5  0  1  1  0  3  2  0  3  3  3  3  3  1  6  5  3  4  1  3  4
  4  7  4  4  7  8  1  7  0  0  1  3  1  6 12  4  8  4  0  2  0  0  2 15
  0 14 10  0 15 18  0 12 15  3 18  0  3 22  0  2  2  1  2 18 14  5 17  0
  4 21 18 21 28 12 15]"
16300,342,1.0,7,3,2459.1581037044525,149.3738579750061,0,2086400,10586404,75080306,"[ 2  2  1  2  1  3  5  3  0  2  0  3  2  1  3  4  6  3  0  4  5  2  3  0
  4  7  4  4  2  0  3  2 10  0  1  3  1  9  8  3  4 13  0  2  0  3  9  3
  0  9 11  0 15 18  4 10 17  2 10 14  3  2 19  2 20 20  2 22 15  0  3 18
  4 21 18 21 28 12 15]"
16400,342,1.0,7,3,2476.927346944809,177.69243240356445,0,2099200,10650207,75528846,"[ 2  2  1  2  3  0  1  2  1  1  1  0  0  0  0  4  7  0  5  2  7  3  7  0
  4  5  4  4  7  6  1  7 12  0  1  3  5  0 13  4  4 13  0  2  0  4  1  2
  2 18 15  0 15 18  1 16 16  3  1 16  5  2 16  0 23 20  2 16  1  5  2 16
  4 21 18 21 28 12 15]"
16500,342,1.0,7,3,2493.0419268608093,161.14579916000366,0,2112000,10713460,75971364,"[ 2  2  1  2  3  0  4  2  3  3  0  2  3  1  3  5  2  0  0  0  7  4  0  0
  4  5  4  5  3  1  5 13  7  0  1  3  0  5  0  3 12  5  0  2  0  0  2 17
  1 18  3  0 15 18  3  3 15  5  9  1  5  2 16  0  1  3  2 15 14  1 15 15
  4 21 18 21 28 12 15]"
16600,342,1.0,7,3,2507.2497029304504,142.07776069641113,0,2124800,10776133,76409573,"[ 2  2  1  2  3  0  2  1  0  5  1  1  5  2  2  0  6  5  5  5  0  3  2  8
  4  5  4  2  1  6  1  8  5  0  1  3  4  4  5  3  2  6  0  2  0  4 12 16
  1 13 13  0 15 18  2  0  0  4  3 10  5 14 16  3  1 21  4 20 20  5 21 21
  4 21 18 21 28 12 15]"
16700,342,1.0,7,3,2522.9963705539703,157.46667623519897,0,2137600,10839684,76854168,"[ 2  2  1  2  3  0  0  0  2  1  1  3  4  2  0  0  4  5  3  1  6  2  5  2
  4  5  4  2  7  6  3  0 11  0  1  3  2 12  8  5  8  3  0  2  0  0  2  3
  4 17  2  0 15 18  2  2 17  0 11 17  4 15 15  4 15 20  4 17 19  2 21 21
  4 21 18 21 28 12 15]"
16800,342,1.0,7,3,2536.916689157486,139.20318603515625,0,2150400,10902781,77295897,"[ 2  2  1  2  3  0  5  1  3  0  0  3  2  1  1  0  3  8  5  6  6  5  2  1
  4  5  4  3  3  3  3 10 10  0  1  3  4  9  3  2  1 13  0  2  0  1 16  1
  4  9  3  0 15 18  5  9 15  1 17  9  4  0  2  0 17 16  2  1 18  3 22 22
  4 21 18 21 28 12 15]"
16900,342,1.0,7,3,2550.6226677894592,137.05978631973267,0,2163200,10965707,77736832,"[ 2  2  1  2  3  0  1  3  0  3  2  3  0  1  1  2  8  4  2  6  2  1  1  8
  4  5  4  5  3  1  2  6 12  0  1  3  5  3  8  1 11  0  0  2  0  1 14 12
  2 18  0  0 15 18  1 15 17  4 13  3  2 19 21  3  2 18  3 15 23  3 16 23
  4 21 18 21 28 12 15]"
17000,342,1.0,7,3,2564.715662956238,140.92995166778564,0,2176000,11029720,78184260,"[ 2  2  1  2  3  0  4  1  2  0  3  0  4  2  1  2  8  8  3  8  8  0  6  4
  4  5  4  0  2  5  1  3 12  0  1  3  4  7  2  3  0  4  0  2  0  1 14 14
  3 17 10  0 15 18  1 10 12  4 10  3  5 14  3  3 18 14  2 20 22  5  0 22
  4 21 18 21 28 12 15]"
17100,342,1.0,7,3,2580.884721517563,161.69058561325073,0,2188800,11093050,78627742,"[ 2  2  1  2  3  0  1  0  2  4  1  0  1  0  3  2  4  4  0  6  1  5  0  5
  4  5  4  4  7  0  5  2 12  0  1  3  2  0 11  5 11  5  0  2  0  4  9  9
  3 11 16  0 15 18  5 11 15  3 17 12  4 18 17  3 20  3  5 19 20  3  2 22
  4 21 18 21 28 12 15]"
17200,342,1.0,7,3,2596.097007036209,152.1228551864624,0,2201600,11156288,79070837,"[ 2  2  1  2  3  0  3  0  3  0  2  1  3  3  0  1  2  8  1  3  5  5  5  3
  4  5  4  3  5  8  1  4  1  0  1  3  0  0 12  0  9  5  0  2  0  3  0  3
  2 17 16  0 15 18  1 15  0  0  0 13  5 17 15  2 21 20  5 19  3  1 21 14
  4 21 18 21 28 12 15]"
17300,342,1.0,7,3,2610.785845041275,146.88838005065918,0,2214400,11219667,79514743,"[ 2  2  1  2  3  0  4  0  3  4  2  3  0  2  0  1  2  7  5  2  3  1  7  1
  4  5  4  3  2  1  1 12 11  0  1  3  1  8  9  3  6 11  0  2  0  1 16 11
  5  9  1  0 15 18  0  2 18  4  2  9  3 23 16  4  0  3  0  0 18  4 19  1
  4 21 18 21 28 12 15]"
17400,342,1.0,7,3,2624.9786870479584,141.9284200668335,0,2227200,11281555,79948607,"[ 2  2  1  2  3  0  4  2  3  1  0  0  0  2  0  0  1  7  5  6  1  4  4  6
  4  5  4  2  8  5  2  2  4  0  1  3  2  1  7  4  9  3  0  2  0  5 10 11
  0 14  1  0 15 18  5 13  1  2  0 10  1 17  1  5 18 15  1 20 23  0 22 22
  4 21 18 21 28 12 15]"
17500,342,1.0,7,3,2640.980890274048,160.02203226089478,0,2240000,11345336,80395852,"[ 2  2  1  2  3  0  1  1  2  2  0  2  5  1  0  2  0  5  4  5  2  0  8  5
  4  5  4  5  4  5  1  4  8  0  1  3  5  2 12  3  7  4  0  2  0  2 18 16
  4  2 13  0 15 18  5  9 17  5  2  1  4 18 14  0  2 14  4 22 15  2 23 19
  4 21 18 21 28 12 15]"
17600,342,1.0,7,3,2655.5659041404724,145.8501386642456,0,2252800,11408882,80840294,"[ 2  2  1  2  3  0  5  3  3  0  2  3  2  0  0  2  5  5  2  4  6  0  1  7
  4  5  4  5  8  6  3  6  9  0  1  3  1  1 13  1  2  0  0  2  0  2  3 18
  1  2 11  0 15 18  4 15  9  4  3  9  1 17 19  1  3 20  2 21 19  5 22 21
  4 21 18 21 28 12 15]"
17700,342,1.0,7,3,2669.7783966064453,142.124924659729,0,2265600,11471267,81279041,"[ 2  2  1  2  3  0  1  3  3  5  1  2  5  2  2  1  8  7  5  5  4  4  1  5
  4  5  4  4  7  0  3  7  6  0  1  3  4  2  4  4  9  5  0  2  0  2 16  2
  4 16  3  0 15 18  3 13  3  4 17 17  3 23 20  3  2 18  0  0  1  5 14 15
  4 21 18 21 28 12 15]"
17800,342,1.0,7,3,2684.837741136551,150.5934453010559,0,2278400,11534680,81724773,"[ 2  2  1  2  3  0  2  0  2  5  0  2  1  3  3  2  5  0  0  8  7  2  4  3
  4  5  4  1  5  1  0  0 11  0  1  3  1  0 11  0  0  0  0  2  0  4  3 17
  2 12  9  0 15 18  0  3 16  3  9  2  5 19 21  3  2 14  3 16 19  4 14 15
  4 21 18 21 28 12 15]"
17900,342,1.0,7,3,2698.468509197235,136.30768060684204,0,2291200,11597921,82168094,"[ 2  2  1  2  3  0  5  1  1  1  2  1  5  3  3  1  5  7  2  4  4  4  8  6
  4  5  4  4  8  8  0  0  9  0  1  3  0  3  4  1  3  0  0  2  0  1  0  3
  5 17  0  0 15 18  5 12  0  2  0 12  2 16 14  0 14 21  3 17 14  1  0 21
  4 21 18 21 28 12 15]"
18000,342,1.0,7,3,2712.1564378738403,136.87928676605225,0,2304000,11661671,82614820,"[ 2  2  1  2  3  0  0  3  2  3  2  1  2  3  1  3  7  3  0  0  4  0  6  6
  4  5  4  1  3  1  5  2 10  0  1  3  0  7  2  3  3  2  0  2  0  2 17  3
  0 10 11  0 15 18  2 14 15  0  2  2  4  1 20  5 16 15  1  2 16  2 18 15
  4 21 18 21 28 12 15]"
18100,342,1.0,7,3,2725.0264134407043,128.69975566864014,0,2316800,11724427,83054699,"[ 2  2  1  2  3  0  0  3  2  5  1  1  0  3  2  5  8  2  2  0  2  3  8  7
  4  5  4  4  3  2  4  3  5  0  1  3  3 11  6  1 13  9  0  2  0  5 11  2
  0 11  1  0 15 18  1 11 17  0 10 10  1 14 21  4 17 20  1 22 19  2  0 17
  4 21 18 21 28 12 15]"
18200,342,1.0,7,3,2738.0666193962097,130.4020595550537,0,2329600,11786799,83492427,"[ 2  2  1  2  3  0  0  0  2  0  3  2  4  1  2  0  6  4  1  8  5  5  2  1
  4  5  4  4  7  2  0 11  6  0  1  3  0  3  1  2  4  2  0  2  0  1  9 10
  3 11 11  0 15 18  2 18 12  3  2  1  0 14  0  4 14 18  2 20 21  2 23  2
  4 21 18 21 28 12 15]"
18300,342,1.0,7,3,2751.6360952854156,135.69475889205933,0,2342400,11850160,83936772,"[ 2  2  1  2  3  0  2  3  3  0  3  1  3  3  2  1  8  8  5  0  1  4  8  6
  4  5  4  5  1  5  0 11 10  0  1  3  3  3  8  1  8  4  0  2  0  5  1  3
  2 17 10  0 15 18  1 10  9  5 11 13  0  3 15  3 14 19  4 15 15  2 18 18
  4 21 18 21 28 12 15]"
18400,342,1.0,7,3,2765.5075826644897,138.71487379074097,0,2355200,11912931,84376285,"[ 2  2  1  2  3  0  2  3  3  4  2  0  1  2  2  4  0  5  1  7  4  2  1  0
  4  5  4  2  5  8  4 10  7  0  1  3  2  1  7  1 11  8  0  2  0  2 18 11
  1 13 12  0 15 18  4 14  9  1  3 13  4 18 21  2 17 22  1 15 20  2  3 16
  4 21 18 21 28 12 15]"
18500,342,1.0,7,3,2779.805730819702,142.98148155212402,0,2368000,11974740,84809641,"[ 2  2  1  2  3  0  1  3  1  5  2  1  0  2  2  3  3  4  2  0  0  4  1  5
  4  5  4  5  3  5  2 12  2  0  1  3  0 10  9  1  2 13  0  2  0  2  0 13
  3 16  2  0 15 18  2 11 16  1 15  2  4 18 21  5 18 16  1 23 21  1  2  3
  4  2 14 21 24 12 15]"
18600,342,1.0,7,3,2794.4074082374573,146.01677417755127,0,2380800,12038539,85256498,"[ 2  2  1  2  3  0  5  1  3  5  1  0  4  0  1  0  3  6  1  5  3  5  2  2
  4  5  4  2  1  2  0  3 13  0  1  3  4  7 13  5  5  7  0  2  0  5  2 17
  0 10 11  0 15 18  4 15  9  3 16 12  4 18 21  1 18 16  1  1 22  5  1 23
  5  2 18 21 24 12 15]"
18700,342,1.0,7,3,2807.6442754268646,132.3686718940735,0,2393600,12100859,85694619,"[ 2  2  1  2  3  0  3  0  2  4  0  1  2  3  1  0  4  1  3  8  8  5  6  3
  4  5  4  1  8  8  0 12  1  0  1  3  5  7  4  2  1 10  0  2  0  5 17  1
  2  3 17  0 15 18  4 14  3  0 10  1  4 18 21  0 23 19  0 21 18  2  3 17
  4 16  2 21 24 12 15]"
18800,342,1.0,7,3,2821.021938085556,133.77662658691406,0,2406400,12164213,86137597,"[ 2  2  1  2  3  0  5  3  2  5  3  0  1  2  2  0  5  1  3  7  0  2  3  6
  4  5  4  5  1  6  0  6  5  0  1  3  4  8  6  2 11  7  0  2  0  3  3 15
  5 17 14  0 15 18  0  2 18  5 16 11  4 18 21  2 22 20  3 22 20  3  3  1
  3 23  2 21 24 12 15]"
18900,342,1.0,7,3,2834.711326122284,136.89388036727905,0,2419200,12227468,86581752,"[ 2  2  1  2  3  0  5  0  2  2  2  2  2  1  3  2  5  2  4  2  7  1  7  3
  4  5  4  4  7  8  2  1  5  0  1  3  2  7  3  0  5  2  0  2  0  5 11  1
  2 13 13  0 15 18  5 13 18  2 15  0  4 18 21  5 23 20  1 22 20  3 16  3
  5  0 16 21 24 12 15]"
19000,342,1.0,7,3,2847.6551802158356,129.43854093551636,0,2432000,12290032,87020550,"[ 2  2  1  2  3  0  1  2  1  4  2  1  0  3  1  3  7  3  5  5  7  4  7  2
  4  5  4  2  7  7  1  7 10  0  1  3  4 12 13  3  7  3  0  2  0  4 14 13
  5  9 18  0 15 18  1  1 18  1  9 13  4 18 21  3 20 15  5 16 19  4 14  3
  5 19 17 21 24 12 15]"
19100,342,1.0,7,3,2862.6064977645874,149.5131754875183,0,2444800,12352869,87461424,"[ 2  2  1  2  3  0  1  1  1  1  3  0  0  0  3  1  3  2  5  6  0  2  2  2
  4  5  4  4  6  6  2  9  3  0  1  3  2  6  9  2 13  3  0  2  0  1 16 11
  2  1 13  0 15 18  3 18 15  0 13 10  4 18 21  5  0 14  1 19  0  1  1 17
  5 19 19 21 24 12 15]"
19200,342,1.0,7,3,2875.947009086609,133.40511322021484,0,2457600,12415576,87899777,"[ 2  2  1  5  3  1  3  2  1  2  0  3  1  3  0  2  8  7  1  4  7  1  1  3
  4  7  4  0  0  3  1  5  2  0  1  3  0  3  7  4  7  3  0  2  0  3  3 18
  5  1 11  0 15 18  1 15 10  4  1 17  4 18 21  2  0 18  1 21  3  5 21 15
  5 19  0 21 24 12 15]"
19300,342,1.0,7,3,2889.7088916301727,137.61882543563843,0,2470400,12479532,88346948,"[ 2  2  1  4  3  1  2  3  1  2  0  3  0  1  2  1  0  5  5  5  2  0  8  5
  4  7  4  3  3  6  5  7  9  0  1  3  1  6  1  1 10  0  0  2  0  1  9 18
  1 15 10  0 15 18  4  9 10  4 16  9  4 18 21  3  0 17  1 20 19  0 23  1
  5 14 23 21 24 12 15]"
19400,342,1.0,7,3,2904.7804460525513,150.7155442237854,0,2483200,12542752,88790337,"[ 2  2  1  0  0  3  0  2  2  2  0  3  3  2  2  4  8  7  2  1  5  5  8  8
  4  7  4  3  6  4  2  9 11  0  1  3  0 10  9  1  5  1  0  2  0  1  0  2
  4 15 10  0 15 18  0 18  3  2 13 13  4 18 21  1  1 19  2 16 14  3 18 18
  2 16  1 21 24 12 15]"
19500,342,1.0,7,3,2918.130782842636,133.5033679008484,0,2496000,12606066,89234124,"[ 2  2  1  4  2  0  2  2  2  2  0  3  5  0  1  0  6  0  3  4  1  1  0  5
  4  7  4  1  8  0  4  4 11  0  1  3  4  2 12  4  1  2  0  2  0  1 13 13
  3 17 13  0 15 18  1  0  0  3  9  1  4 18 21  2 16 16  3 16 17  1  3 19
  3 18 20 21 24 12 15]"
19600,342,1.0,7,3,2932.4489347934723,143.18151950836182,0,2508800,12668880,89674328,"[ 2  2  1  3  0  2  3  3  1  2  0  3  5  3  0  5  8  1  4  1  5  4  5  7
  4  7  4  0  4  2  5  1  8  0  1  3  0  8  9  2  0 11  0  2  0  3 10 15
  0 18 12  0 15 18  4 12 10  3 17  2  4 18 21  5 17 14  4 17  2  1 14 17
  0 16 22 21 24 12 15]"
19700,342,1.0,7,3,2946.25022816658,138.0129337310791,0,2521600,12732288,90118780,"[ 2  2  1  2  1  1  4  1  0  2  0  3  3  2  3  1  5  6  0  6  7  3  5  7
  4  7  4  5  8  3  5  3  2  0  1  3  0  0  9  4  5  4  0  2  0  0 18 12
  2  3 11  0 15 18  0  3  1  5 15 16  4 18 21  3 15 17  1 16 22  4  2  2
  0  2 21 21 24 12 15]"
19800,342,1.0,7,3,2959.5949437618256,133.4471559524536,0,2534400,12797090,90571550,"[ 2  2  1  1  3  3  3  1  3  2  0  3  2  0  0  1  3  0  0  8  6  4  5  6
  4  7  4  3  3  3  5  1  8  0  1  3  5  9  3  3  5  5  0  2  0  0  3 10
  4 15  2  0 15 18  5 14  0  2  1 18  4 18 21  3 21 20  0 18 15  4 18  0
  5 18  0 21 24 12 15]"
19900,342,1.0,7,3,2972.7079870700836,131.13043308258057,0,2547200,12860019,91011769,"[ 2  2  1  3  2  3  0  3  3  3  0  0  2  3  0  0  3  4  2  2  4  3  5  2
  4  8  4  3  7  5  5  8  8  0  1  3  3 10  8  1  8  8  0  2  0  5  2  1
  3 13  3  0 15 18  2 14 18  2 14  3  4 18 21  2 20 23  5 20 16  3  2 19
  5 23 21 21 24 12 15]"
20000,342,1.0,7,3,2987.177474975586,144.6948790550232,0,2560000,12922434,91449786,"[ 2  2  1  1  0  3  2  2  0  2  2  2  2  3  0  2  7  8  1  5  2  0  7  7
  4  8  4  5  4  5  3 11 11  0  1  3  1  9 13  4  3 12  0  2  0  0  1 18
  4 16 17  0 15 18  0 14 10  3 14  0  4 18 21  2 17 14  5 19 21  0 16 17
  3 22 18 21 24 12 15]"
