generation,fitness,functionality,active_nodes,longest_path,time,gen_time,nc_gens,fitness_evals,graph_evals,node_evals,genotype
0,175.0,0.5,10,5,0.01155853271484375,11.554479598999023,0,0,0,0,"[ 5  3  1  0  1  1  1  0  0  2  3  1  2  3  0  1  2  1  1  2  2  1  1  7
  3  5  0  5  6  8  5 11 10  5 10 12  5  1 11  3  3  2  2  2  3  5 14 16
  3  2 18  1  3  3  5  3  1  4 17 14  0  3  2  3 19 20  1 21 19  1 21 23
  5  2 22 18  1 26  4]"
100,301.0,0.890625,9,5,0.8966944217681885,8.851313591003418,30,400,5485,40376,"[ 4  0  3  3  2  2  1  0  0  4  0  2  2  1  2  3  4  7  4  8  3  3  0  3
  2  5  0  0  1  3  0  0 10  4 12  0  0  9  9  4  9  9  1 10  2  5 17 18
  5  2 15  2  1  0  2  1  0  3 14 15  0  3  2  0  3 20  4 23  0  0  1 23
  5 22  0 27 23 23 13]"
200,309.0,0.90625,7,4,1.7247517108917236,8.28054428100586,71,800,10214,78094,"[ 1  2  3  3  3  2  5  0  2  3  3  2  1  3  3  4  0  6  1  0  3  5  3  2
  2  5  0  0  6  7  0  1  3  4 12  0  0  2 11  5 11 10  0 13  1  1 14 18
  3 14  1  2 14 16  1  2  1  3 14 15  0  1 21  5 20 23  2  2  1  3 20  1
  4 21  2 27 23 23 14]"
300,317.0,0.921875,6,2,2.4595866203308105,7.348313331604004,121,1200,15074,109030,"[ 4  3  3  3  3  1  0  3  2  2  0  2  1  0  1  4  1  5  2  0  3  5  1  2
  4  3  0  4  5  1  0  1  3  2  2  0  0  3  2  5 11  0  2 10  2  3  0  0
  3  1  3  4 15  1  4 15 17  3 14 15  0  1  2  5 20 23  5 19  1  0 20  1
  1 21  2 27 23 24 14]"
400,317.0,0.921875,6,2,3.2655630111694336,8.059732913970947,175,1600,20235,141878,"[ 2  3  2  4  1  3  1  3  1  2  1  0  1  2  1  5  8  8  5  3  4  5  7  0
  1  7  6  4  3  2  0  1  3  2  2  0  4  1 12  3  0  1  2  2  0  0  0  2
  1  2 15  1 15  3  0 16  0  3 14 15  0  1  2  4 19 22  2  0  3  0 19  1
  3 21  2 27 23 24 14]"
500,317.0,0.921875,6,2,4.094881296157837,8.293149471282959,232,2000,25235,174390,"[ 4  3  0  0  1  2  5  1  0  2  3  2  5  2  1  3  2  8  2  7  4  5  5  1
  1  7  8  0  1  4  0  1  3  2  2  0  4 11 13  0  0  9  2 12  9  0  1  3
  5  1 15  0 16  1  3 15  3  3 14 15  3  1  3  4  0 19  4  0 19  0 19  2
  5 19 22 27 23  5 14]"
600,317.0,0.921875,6,2,4.8608903884887695,7.660038471221924,277,2400,30265,206763,"[ 4  3  1  0  1  2  5  3  0  2  0  2  5  0  3  4  2  6  2  1  4  1  0  1
  1  6  3  3  2  7  0  1  3  2  2  0  4  3 12  0  9 13  1 13 12  0  1  3
  1 15  0  2  2 16  0  3 16  3 14 15  3 23  0  3  2 19  5 23 21  0 19  2
  2  3  1 27 23  5 19]"
700,320.0,0.9375,7,3,5.606974840164185,7.460813522338867,330,2800,35353,239862,"[ 4  0  0  0  1  2  4  0  2  1  0  2  2  0  0  3  4  2  5  1  7  1  7  2
  5  6  4  2  4  6  0  1  3  2  2  0  4 11  2  0 13 13  1 13  0  0  1  3
  0  2 14  3  1  1  1  0  2  3 14 15  3 21 19  4  2  3  0 23  2  0 20  0
  2 22 20 27 23  5 19]"
800,320.0,0.9375,7,3,6.375093936920166,7.681159973144531,384,3200,40340,276538,"[ 0  0  3  0  1  0  4  1  1  1  2  2  2  0  3  4  8  3  2  8  0  2  7  0
  0  4  3  4  2  4  0  1  3  2  2  0  4 13  2  1  2  9  2 13  2  0  1 14
  0  2 14  0  1  1  1 18  3  3 14 15  4 21 21  3  2 22  3  3  2  0 20  0
  3 22  2 27 23  4 19]"
900,321.0,0.9375,6,3,7.176311492919922,8.012142181396484,439,3600,45184,312183,"[ 2  0  2  0  2  0  1  1  1  1  2  2  4  0  1  4  7  6  5  8  8  2  5  3
  0  3  2  4  3  4  0  1  3  2  2  0  5 12  3  1  0  9  5  0  3  1 14 14
  0  2 14  5  1 16  5  3  3  3 14 15  2 19 21  0  1  2  3 19 23  0 20  0
  3  3 21 27 23 25 14]"
1000,321.0,0.9375,6,3,7.902637243270874,7.263221740722656,500,4000,49920,342990,"[ 3  0  1  3  2  1  3  0  2  1  3  3  4  0  0  5  3  2  2  8  8  2  8  3
  1  3  4  0  3  5  0  1  3  2  2  0  5  2  1  5  0  0  5  9 11  1 16 16
  0  2 14  2 15  2  5  2  3  3 14 15  2  3 21  0  1  2  5 22 23  0 20  0
  2  0  0 27 23 25 14]"
1100,321.0,0.9375,6,3,8.573630571365356,6.709904670715332,560,4400,54627,372910,"[ 3  3  2  3  2  0  5  0  0  5  2  3  2  1  2  4  6  3  2  8  1  4  1  4
  1  2  2  3  2  1  0  1  3  2  2  0  0  1 11  0  3  1  2  3 12  4 16 16
  0  2 14  3  2  2  4  1 14  3 14 15  1 21 20  0  1  2  5  0 21  0 20  0
  3 20  0 27 23 25 14]"
1200,321.0,0.9375,6,3,9.353065967559814,7.794320583343506,619,4800,59472,404409,"[ 3  1  1  0  2  0  3  1  3  0  0  3  2  2  0  5  0  1  2  2  3  5  3  4
  0  2  1  3  7  5  0  1  3  2  2  0  2 13  3  1  1 10  5  9 10  2  3  2
  0  2 14  2  2  2  4 15 18  3 14 15  0 23 23  0  1  2  5  3 21  0 20  0
  2 20 22 27 23 25 14]"
1300,321.0,0.9375,6,3,10.075639486312866,7.225697040557861,679,5200,64337,436243,"[ 1  2  3  5  2  0  4  1  3  2  1  3  4  2  1  0  5  1  3  2  5  1  4  1
  1  2  2  5  2  5  0  1  3  2  2  0  4 13  3  1  3  3  3  2 10  1  2 18
  0  2 14  2  1  2  2 15 16  3 14 15  5  2 23  0  1  2  5 20 23  0 20  0
  0  3 22 27 23 25 14]"
1400,321.0,0.9375,6,3,10.825504064559937,7.498612403869629,741,5600,68961,465810,"[ 0  3  3  1  2  0  2  0  0  2  1  1  4  1  0  0  2  3  5  4  5  2  3  0
  1  2  3  5  2  5  0  1  3  2  2  0  4 11 11  1 11  3  5 11 13  3  2 16
  0  2 14  2 14  3  4 15  1  3 14 15  5  3 23  0  1  2  0  3 23  0 20  0
  0 22 21 27 23 25 14]"
1500,321.0,0.9375,6,3,11.550923824310303,7.254164218902588,793,6000,73705,497290,"[ 2  2  1  1  1  1  4  3  0  3  3  1  0  1  0  0  1  0  0  6  5  5  3  0
  1  6  8  2  5  5  0  1  3  2  2  0  1 10  9  5 11  2  0  1 13  1 14 16
  0  2 14  3 14 17  3 17  1  3 14 15  5 21 21  0  1  2  5  0 22  0 20  0
  3  1  2 27 23 25 14]"
1600,321.0,0.9375,6,3,12.239029169082642,6.8810224533081055,859,6400,78445,527977,"[ 1  0  1  1  1  0  1  2  3  2  2  2  0  3  2  1  4  2  5  1  3  4  8  1
  0  6  3  4  5  5  0  1  3  2  2  0  5  9  9  5 10  2  1  0 13  2 16 14
  0  2 14  5 17 17  3 14  1  3 14 15  4 21  3  0  1  2  5 21 19  0 20  0
  1  1  3 27 23 25 14]"
1700,321.0,0.9375,6,3,12.961789846420288,7.227573394775391,918,6800,83235,558911,"[ 0  1  0  2  0  3  1  1  0  5  3  3  4  0  2  1  8  4  2  5  0  5  6  5
  4  3  3  1  1  5  0  1  3  2  2  0  1 11  0  5  3  0  3  0 11  3  3 16
  0  2 14  2  3 18  2  2 14  3 14 15  1 23  3  0  1  2  5 20 22  0 20  0
  5 23 21 27 23 25 14]"
1800,321.0,0.9375,6,3,13.663836479187012,7.020435333251953,975,7200,88033,590477,"[ 0  2  0  2  0  0  3  1  1  5  3  0  4  3  3  1  3  5  3  2  0  3  8  3
  3  7  3  1  1  5  0  1  3  2  2  0  4 11  3  0  3 13  3 12 11  1  0 16
  0  2 14  0  0 17  2 15 14  3 14 15  2 22  1  0  1  2  5  1 23  0 20  0
  3 23 22 27 23 25 14]"
1900,321.0,0.9375,6,3,14.422151803970337,7.583119869232178,1038,7600,92687,621727,"[ 5  0  1  4  3  2  3  1  2  2  2  0  1  3  0  1  6  6  3  5  8  0  8  2
  1  7  4  3  2  5  0  1  3  2  2  0  0 11 11  0  1  2  2 10  2  0  2 15
  0  2 14  5 17  3  4  1 15  3 14 15  3  0  0  0  1  2  1 19 20  0 20  0
  1 23  1 27 23 25 14]"
2000,321.0,0.9375,6,3,15.115675449371338,6.9351887702941895,1106,8000,97310,651278,"[ 3  2  2  4  3  2  3  1  2  2  2  3  4  2  2  2  4  4  3  5  5  5  7  4
  2  0  3  5  1  7  0  1  3  2  2  0  0  0 11  0  9  2  2  1  3  0  0 14
  0  2 14  5  2 16  4  0  0  3 14 15  2  1 22  0  1  2  5 19 20  0 20  0
  1 23  1 27 23 25 14]"
2100,321.0,0.9375,6,3,15.804938077926636,6.892597675323486,1166,8400,102131,682153,"[ 5  2  0  5  1  2  5  1  2  2  2  3  2  1  2  5  7  8  0  0  5  5  7  4
  0  1  4  5  6  8  0  1  3  2  2  0  5  0  2  0 10  2  2 10 13  4 15 14
  0  2 14  1  2  2  4  0  0  3 14 15  0 22  3  0  1  2  2 22  0  0 20  0
  2  1 19 27 23 25 14]"
2200,321.0,0.9375,6,3,16.602041959762573,7.971005439758301,1226,8800,106887,712880,"[ 4  2  0  5  2  2  5  1  1  3  2  2  0  0  0  5  8  8  5  5  3  5  3  4
  0  1  6  1  7  8  0  1  3  2  2  0  5 10 12  5 10 13  5  2 10  0  3  3
  0  2 14  2  2 18  4  0  0  3 14 15  5 22 21  0  1  2  2 22  1  0 20  0
  2  1 19 27 23 25 14]"
2300,321.0,0.9375,6,3,17.278102159500122,6.760571002960205,1279,9200,111649,742961,"[ 0  0  1  4  0  3  1  1  1  0  0  3  0  0  3  1  6  1  2  4  1  2  0  4
  0  7  1  1  3  0  0  1  3  2  2  0  4 11  2  5 11  0  1  2 11  0  2  2
  0  2 14  5  0 16  2  0  0  3 14 15  3  0 19  0 23 23  2 22 22  0 20  0
  1 23  1 27 23  8 14]"
2400,321.0,0.9375,6,3,17.95415735244751,6.760518550872803,1333,9600,116289,771982,"[ 1  2  0  5  1  0  1  0  1  0  3  2  0  0  3  3  0  3  1  6  1  2  0  4
  0  7  1  1  3  5  0  1  3  2  2  0  0 11  0  5 10  2  0  2 13  0  1 15
  0  2 14  5  1 16  1 18 18  3 14 15  1  0  0  2  2 22  1  1 19  0 20  0
  4  0  1 27 23  8 14]"
2500,321.0,0.9375,6,3,18.6953706741333,7.412102222442627,1391,10000,120881,801220,"[ 2  2  1  0  0  3  0  1  3  4  0  1  0  0  2  0  6  6  4  4  5  2  6  8
  1  0  1  2  3  1  0  1  3  2  2  0  5  9 11  1  2 11  0  2  0  0 15  0
  0  2 14  1 17  0  5 17  3  3 14 15  5  2  0  4 22  0  4  3  3  0 20  0
  2  1  1 27 23  5 14]"
2600,322.0,0.9375,6,2,19.351878881454468,6.565053462982178,1450,10400,125542,830588,"[ 0  1  1  0  3  3  2  3  1  1  2  1  4  3  3  4  5  5  1  0  1  0  8  4
  5  3  3  1  1  1  0  1  3  2  2  0  5  2  1  3  3 13  5  1  9  0  0  3
  0  2  1  1  3 14  2 16 14  3 14 15  1  2 22  3 22 22  4  1 20  0 20 19
  3 23 21 27 23 19 14]"
2700,322.0,0.9375,6,2,19.995689392089844,6.438074111938477,1510,10800,130153,860108,"[ 0  2  3  4  2  1  2  0  1  5  2  2  3  2  2  1  8  5  5  5  2  5  8  1
  4  7  3  0  1  1  0  1  3  2  2  0  5 13 10  1  0 12  5  9  3  0  0  3
  0  2  1  3  2  0  0 16  1  3 14 15  1  2 21  3 21 22  4  1  0  0 20 19
  4 21 20 27 23 20 14]"
2800,322.0,0.9375,6,2,20.796234607696533,8.005423545837402,1580,11200,134749,890495,"[ 0  1  3  4  0  3  4  2  1  5  2  2  3  2  2  1  6  1  3  5  2  5  8  3
  3  7  5  0  2  1  0  1  3  2  2  0  5 13 10  1  0  1  4 11  3  0  0  3
  0  2  1  0 18 16  0  1 17  3 14 15  1  2 21  1 20  1  5  1 20  0 20 19
  3 22 20 27 23 19 14]"
2900,322.0,0.9375,6,2,21.467735767364502,6.714982986450195,1644,11600,139204,919057,"[ 1  1  3  4  0  3  4  2  3  5  0  3  3  1  2  5  4  1  3  3  6  3  2  3
  3  2  3  2  5  2  0  1  3  2  2  0  4 13 11  3  3 11  3  0  0  0  0  3
  0  2  1  5  3 18  0  1  1  3 14 15  3 21 21  1  3  1  4  0  2  0 20 19
  3 22 19 27 23 19 14]"
3000,322.0,0.9375,6,2,22.177412748336792,7.096738815307617,1705,12000,143810,949234,"[ 0  0  1  5  3  2  5  2  3  2  2  2  3  1  2  5  3  1  5  7  3  3  2  6
  4  3  6  4  5  2  0  1  3  2  2  0  2 13 13  3 11 13  1  3  0  0  0  3
  0  2  1  2  1 17  4 18 17  3 14 15  0  3 21  5 19 21  5  1 20  0 20 19
  3 22  0 27 23 20 14]"
3100,322.0,0.9375,6,2,22.826513528823853,6.49097204208374,1762,12400,148373,978675,"[ 1  1  3  4  3  2  0  3  3  0  0  3  1  0  2  2  3  2  5  3  7  2  0  6
  5  4  6  0  2  2  0  1  3  2  2  0  0  1  1  3  9 13  0  3  3  0  0  3
  0  2  1  2 17 15  0 18  1  3 14 15  3 21 21  3  2 22  5  1 21  0 20 19
  3 22  0 27 23 19 14]"
3200,322.0,0.9375,6,2,23.558452606201172,7.319355010986328,1825,12800,153067,1008788,"[ 4  3  1  3  3  3  0  2  0  1  3  2  3  2  1  1  3  6  5  8  2  2  6  6
  5  1  1  4  6  8  0  1  3  2  2  0  0 11  1  3  3 13  5  3  1  0  0  3
  0  2  1  4 17 18  3  3 14  3 14 15  3 21 22  1 19 22  3 23 21  0 20 19
  3 20 22 27 23 20 14]"
3300,322.0,0.9375,6,2,24.212297916412354,6.538419723510742,1889,13200,157653,1038813,"[ 3  0  1  1  3  2  0  2  0  0  1  2  3  0  1  4  0  6  1  3  4  4  4  3
  0  2  0  5  8  5  0  1  3  2  2  0  2  2  9  3  3  9  5 10 13  0  0  3
  0  2  1  5 17  3  4 14 17  3 14 15  1  0  2  0  2  0  2  1  1  0 20 19
  3  1 22 27 23 19 14]"
3400,322.0,0.9375,6,2,24.945873260498047,7.335720062255859,1951,13600,162300,1069457,"[ 4  3  2  0  2  0  2  2  0  0  1  0  1  2  2  2  3  2  4  6  4  3  8  4
  4  8  5  3  7  0  0  1  3  2  2  0  4 11 11  3  2  9  5  0  3  0  0  3
  0  2  1  1 16 15  5 14 18  3 14 15  1 20  1  1 22  0  2  1 19  0 20 19
  2 21  3 27 23 20 14]"
3500,322.0,0.9375,6,2,25.63870143890381,6.928248405456543,2016,14000,167156,1101239,"[ 0  1  2  1  0  0  2  0  1  2  2  1  4  2  2  5  5  3  2  6  5  3  0  7
  4  5  7  4  2  8  0  1  3  2  2  0  2  0  0  5  9  0  2 11  3  0  0  3
  0  2  1  0  1 17  4 17 18  3 14 15  0 20 21  3 23 22  2 19  0  0 20 19
  4 19 20 27 23 20 14]"
3600,322.0,0.9375,6,2,26.322173833847046,6.834688186645508,2090,14400,171773,1131618,"[ 3  0  1  4  3  0  5  0  1  2  1  1  5  2  2  0  5  3  4  6  5  0  8  6
  4  5  7  5  1  7  0  1  3  2  2  0  2  0 12  5  2  9  4 13  3  0  0  3
  0  2  1  4 14 18  2  1 18  3 14 15  5 20 21  1 23 22  2 19  2  0 20 19
  4  3 20 27 23 20 14]"
3700,322.0,0.9375,6,2,27.001144647598267,6.789674758911133,2159,14800,176497,1163254,"[ 4  0  1  0  2  0  5  1  0  3  1  1  2  0  0  3  3  1  4  6  5  2  8  3
  1  2  2  3  1  8  0  1  3  2  2  0  4  0 12  5 13 11  4 13  2  0  0  3
  0  2  1  0  1  2  1  1 15  3 14 15  5 20 23  4  0 22  2  3  2  0 20 19
  0  3 22 27 23 20 14]"
3800,322.0,0.9375,6,2,27.748701333999634,7.475533485412598,2219,15200,181164,1193349,"[ 0  0  1  0  1  0  5  0  1  5  3  2  0  1  0  4  0  1  0  3  5  1  7  0
  1  0  0  3  8  1  0  1  3  2  2  0  4 11 13  3  2  9  4 11 12  0  0  3
  0  2  1  5  1  3  2  1  0  3 14 15  5 20 23  5 23 22  0 19  1  0 20 19
  2 23  3 27 23 19 14]"
3900,322.0,0.9375,6,2,28.418124198913574,6.69419527053833,2285,15600,185682,1222441,"[ 0  1  3  0  0  1  5  0  2  5  3  2  1  0  3  3  0  1  0  8  8  1  1  6
  4  3  2  3  8  5  0  1  3  2  2  0  0  0 10  0  2  2  3 11  2  0  0  3
  0  2  1  5 14  3  4  1 17  3 14 15  2 22 23  5 22  2  0 19  1  0 20 19
  1  0 19 27 23 19 14]"
4000,336.0,0.984375,7,2,29.127633333206177,7.095057964324951,2344,16000,190115,1251566,"[ 3  3  2  0  2  3  2  0  0  5  3  0  1  1  2  0  0  4  5  8  7  1  1  5
  4  7  2  0  8  4  0  1  3  2  2  0  0 11  9  0 12 10  2 11 11  0  0  3
  0  2  1  2 14  0  1  3 18  3 14 15  2 22  0  1 20  2  1 19 20  0 20 19
  5  1 21 27 23 26 14]"
4004,343,1.0,7,2,29.15061068534851,5.743622779846191,2346,16016,190260,1252597,"[ 3  3  2  0  2  3  4  0  0  5  3  0  1  1  2  0  0  4  5  8  7  1  1  5
  4  7  2  0  8  8  0  1  3  2  2  0  0 11  9  0 12 10  2 11 11  0  0  3
  0  2  1  2 14  0  1  3 18  3 14 15  3 22  0  1 20  2  4 19 20  0 20 19
  5  1 21 27 23 26 14]"
