generation,fitness,functionality,active_nodes,longest_path,time,gen_time,nc_gens,fitness_evals,graph_evals,node_evals,genotype
0,188.0,0.53125,8,4,0.006405353546142578,6.401300430297852,0,0,0,0,"[ 3  1  1  3  1  2  0  2  2  1  1  3  2  1  1  2  2  0  1  4  8  1  3  4
  3  0  8  3  3  1  1  8 11  4  5  5  4 10  2  3  7  8  0  4  5  4 15  0
  1 12 15  5  1 11  2 15 15  5  1 15  3  0  0  5  3  2  4  3 16  0 23  1
  4 14  0 28 21 21 16]"
100,320.0,0.9375,7,3,25.14084482192993,251.3443613052368,0,25600,320297,2071978,"[ 0  1  2  3  1  3  0  0  2  2  0  1  3  0  0  4  7  3  0  7  4  1  0  5
  4  5  5  5  4  0  0  5  0  3  5 13  4  9 12  0  8  4  2  1  2  0 14  3
  5  9 14  0  1  3  5  1  0  5 10  0  5  2 14  3 17  0  4 16 14  2 17  2
  4  0  0 28  6 15 21]"
200,332.0,0.96875,6,2,46.07287359237671,209.3202567100525,0,51200,578741,3724560,"[ 0  1  2  0  1  3  0  0  2  2  1  0  0  0  3  2  1  8  0  0  4  4  8  1
  5  1  5  4  2  0  1  2  8  0  2 10  4  4  8  5 12  2  5 10 10  0  1  3
  5  1 15  3  9 11  4 15 15  4 16  9  5 17  3  5 19 15  4 20  1  1 19 19
  4  0  0 28  6 16 19]"
300,335.0,0.984375,7,3,64.7566487789154,186.8377161026001,0,76800,781245,5168939,"[ 0  1  2  3  3  1  0  0  2  3  1  2  0  0  3  2  8  4  1  1  7  3  1  7
  5  4  1  4  3  5  2  7  8  4  3  7  4  4  8  0 12 10  0 12 10  0  1  3
  4 18  3  3  9 16  3 16  9  1  1 11  0 21 14  4 16  3  5  2 23  5 15  3
  0  1  2 21  6 16 19]"
358,342,1.0,7,3,75.05978512763977,177.6402243252458,0,91648,895887,5946559,"[ 0  1  2  0  1  0  0  0  2  1  2  1  0  0  3  2  0  2  0  1  1  0  4  8
  3  8  1  4  3  4  1 12  7  5  9 11  4  4  8  1  2  1  4  3  3  0  1  3
  0 10  3  3  9 13  0  1 18  4 17  3  4 18  2  5 16  3  2 15 18  0 21  2
  0  3 18 11 15 16 19]"
400,342,1.0,7,3,81.22440958023071,146.7767045611427,0,102400,956689,6372587,"[ 0  1  2  0  0  1  2  0  2  1  1  1  0  0  3  2  0  2  5  1  6  0  4  8
  4  3  3  5  4  6  3  6  9  3  9 11  4  4  8  2 12 13  1  8  0  0  1  3
  0  1  3  2  9 13  5  1 11  0 17  3  4 23 17  1 20 16  3 21 17  1 21  0
  4 17 20 11 15 16 19]"
500,342,1.0,7,3,95.81069135665894,145.86278676986694,0,128000,1099788,7376331,"[ 0  1  2  4  3  3  4  3  1  1  2  2  0  0  3  2  0  2  4  8  1  0  4  8
  0  3  8  1  4  5  5  5  3  5  9 11  4  4  8  0  5  1  0  7  7  0  1  3
  5 17  1  3 17 18  4 13  3  2 11  1  1 20 21  5 16 16  2 21  1  4 19 14
  4 16 23 11 15 16 19]"
600,342,1.0,7,3,110.6121768951416,148.01482677459717,0,153600,1245678,8401531,"[ 0  1  2  2  1  3  2  2  0  3  3  3  0  0  3  1  7  2  3  6  1  0  4  8
  2  5  2  2  4  3  3  9  9  5  6 11  4  4  8  5  7 10  3 13  5  0  1  3
  1  1 18  5  3  1  3  1 18  5 12  0  4 18 21  2 21  1  3 18 20  5 14 18
  1 17 14 11 15 16 19]"
700,342,1.0,7,3,125.63104748725891,150.18867254257202,0,179200,1395207,9450346,"[ 0  1  2  3  1  2  2  2  0  5  0  3  0  0  3  5  7  5  2  4  0  0  4  8
  5  7  2  3  0  3  4  5 13  5  6 11  4  4  8  2  7  7  1  6 10  0  1  3
  4 12  0  0 14 14  3 14 11  4 18 11  2 18 20  4  0 14  4 18 18  0 15 22
  5  1  3 11 15 16 19]"
800,342,1.0,7,3,140.6675398349762,150.36489248275757,0,204800,1545372,10502830,"[ 0  1  2  3  1  0  2  2  0  5  1  3  0  0  3  2  7  4  0  4  5  0  4  8
  4  0  7  2  6  1  3  6  9  3  6 11  4  4  8  3 13  0  4 11  7  0  1  3
  5  2  2  3 14  0  4 14  0  3  1 12  0  1  0  5 18 16  4  3 19  4  3  3
  2 16 23 11 15 16 19]"
900,342,1.0,7,3,155.6285364627838,149.60993766784668,0,230400,1694467,11546825,"[ 0  1  2  2  3  0  2  2  0  4  2  3  0  0  3  4  5  0  2  5  2  0  4  8
  5  7  0  3  1  1  1  7  0  5 13 11  4  4  8  3 11  6  4 11 10  0  1  3
  5  1  2  5 15 13  4 13 17  3 17  0  4  0 17  5 14 18  2  0 17  5 22 14
  2 18 14 11 17 16 19]"
1000,342,1.0,7,3,170.69308996200562,150.64550399780273,0,256000,1844649,12600934,"[ 0  1  2  2  2  2  2  2  0  4  1  2  0  0  3  4  5  3  2  5  3  0  4  8
  4  0  0  5  3  3  0 12  9  3  5  0  4  4  8  3 11  6  5 11 13  0  1  3
  4  1  2  5 13  1  4 11 15  2 11 14  4 21 18  3  2 18  3  0  0  4 23 16
  5 17  0 11 17 16 19]"
1100,342,1.0,7,3,185.75602006912231,150.6292724609375,0,281600,1994633,13652380,"[ 0  1  2  4  1  3  2  2  0  0  3  3  0  0  3  3  5  5  4  5  0  0  4  8
  4  2  5  0  1  5  0 10 12  5  5  5  4  4  8  5 11  6  3  7  1  0  1  3
  2 11  9  1 13 13  3 10 14  1 11 18  4 21  0  2 22 17  0 15 21  4 17  0
  2  0 20 11 17 16 19]"
1200,342,1.0,7,3,200.71309781074524,149.57074403762817,0,307200,2143751,14695672,"[ 0  1  2  4  1  3  2  2  0  1  3  2  0  0  3  3  7  5  1  4  0  0  4  8
  2  8  2  0  2  0  2  4  7  3 10  1  4  4  8  5 11  6  5  5  9  0  1  3
  0 14 18  3 10  3  5  1 15  4  0 15  0  1  1  4  2 17  4  0 19  0 16 14
  5 21  3 11 17 16 19]"
1300,342,1.0,7,3,215.69295191764832,149.79851007461548,0,332800,2292789,15740093,"[ 0  1  2  0  0  1  2  2  0  5  0  0  0  0  3  2  1  1  3  6  5  0  4  8
  4  2  2  5  2  8  5  5  0  3  3 11  4  4  8  5 11  6  1  7  4  0  1  3
  5 18  1  0 10 11  0  2 13  0  0 15  5 16 23  4 17  1  1  3 22  1 15 17
  5 20 23 11 17 16 19]"
1400,342,1.0,7,3,230.4764759540558,147.83519983291626,0,358400,2439675,16766815,"[ 0  1  2  5  1  1  2  2  0  4  2  3  0  0  3  3  5  4  5  4  5  0  4  8
  4  1  8  5  0  8  5 12 12  4 10  3  4  4  8  5 11  6  0  7 11  0  1  3
  0 15 17  3 11 15  1  3  9  3 17  2  3 16  3  3 19 14  4  0 20  0 20 19
  4 16 19 11 17 16 19]"
1500,342,1.0,7,3,245.31311297416687,148.36633920669556,0,384000,2586538,17796083,"[ 0  1  2  1  1  3  2  2  0  3  1  1  0  0  3  2  7  4  0  4  6  0  4  8
  0  3  7  1  6  3  0 12  2  4  7  1  4  4  8  5 11  6  3  7  6  0  1  3
  4 17 10  3  2 15  2 18 16  0 17 18  0 14 23  2 20  3  1 23  2  4  0 15
  2  3  3 11 17 16 19]"
1600,342,1.0,7,3,260.25441336631775,149.4129753112793,0,409600,2735636,18840056,"[ 0  1  2  0  0  1  2  2  0  3  2  3  0  0  3  4  3  5  2  8  0  0  4  8
  2  3  4  4  7  0  4 10  1  5 13 12  4  4  8  3 11  6  0  6 12  0  1  3
  5  0 12  0 14 17  0 14  0  5  2 18  0 22  1  4 20 20  3  3 17  3  0 16
  0  2 14 11 17 16 19]"
1700,342,1.0,7,3,275.2473409175873,149.92924213409424,0,435200,2884859,19885338,"[ 0  1  2  3  0  2  2  2  0  4  3  2  0  0  3  0  8  5  5  6  8  0  4  8
  4  1  5  2  3  3  0  7  7  0  8  1  4  4  8  3 11  6  1 13  2  0  1  3
  5  9 12  2  1 13  4 16 16  2  3 15  0  2 18  3 16 19  1 22 22  5 19 19
  2  3 15 11 17 16 19]"
1800,342,1.0,7,3,290.0682213306427,148.2087755203247,0,460800,3032001,20914604,"[ 0  1  2  5  0  2  2  2  0  5  2  2  0  0  3  0  7  5  1  4  2  0  4  8
  3  4  3  0  0  5  1  7  0  5  0 12  4  4  8  5 11  6  2  8  1  0  1  3
  1  9  3  5 15 16  4 13 11  2  9 15  4  1 14  1  0 15  3  1 20  3 17 14
  1  1  1 11 17 16 19]"
1858,343,1.0,7,2,298.8399522304535,151.23668621326314,0,475648,3119938,21530221,"[ 0  1  2  5  0  3  2  2  0  3  0  3  0  0  3  2  0  6  1  2  7  0  4  8
  3  3  0  0  1  3  0  7  7  4 11  1  4  4  8  3 13  6  1 10  5  0 11  3
  4 15 12  2 17 15  2  1  1  2 11 11  2 18  1  5  2 15  5  0 23  1 15 22
  1 23  1 11 17 16 13]"
