generation,fitness,functionality,active_nodes,longest_path,time,gen_time,nc_gens,fitness_evals,graph_evals,node_evals,genotype
0,212.0,0.59375,5,3,0.0060460567474365234,6.043434143066406,0,0,0,0,"[ 1  0  1  4  3  2  0  2  0  3  1  0  1  0  3  5  5  3  4  1  2  1  6  0
  1  3  7  1  2  7  2  3 13  3  7  0  2  1  5  3 12 12  4  8  5  0 15  2
  4 18 17  0  2 14  3  3 10  2 11 11  0 22  0  0 18 21  2 16  1  2 19 14
  3  1 18 10 17 13  1]"
100,315.0,0.90625,4,1,3.471574306488037,34.655258655548096,0,3200,40986,200230,"[ 4  3  1  0  0  3  4  3  3  4  1  1  1  1  2  3  7  5  3  7  1  5  7  1
  0  3  1  4  1  2  0 12  8  4 10  6  2  6  7  0  2  9  0  6  4  1 10 12
  1  3  0  3 11 15  2 15 16  4 11 16  0  2  0  3 23 19  1 14 14  0 19 21
  2 17 23  6 24  5 12]"
200,315.0,0.90625,4,1,6.672791957855225,32.012152671813965,1,6400,81332,377646,"[ 5  2  2  0  0  3  4  3  3  0  2  0  4  3  0  0  4  0  1  4  2  2  6  7
  0  3  1  4  6  3  1 10 11  3  8 13  0 12  5  0  0  1  1  3 13  5  3 10
  5 16  1  2 18  9  1  0  1  2 12  3  5  3  3  3 14 19  0 17  3  0  3 17
  3 18 21  6  7  5 12]"
300,315.0,0.90625,4,1,9.832031726837158,31.592373847961422,2,9600,122273,550628,"[ 2  2  3  0  0  3  4  3  3  0  2  0  2  2  3  0  0  2  4  3  2  1  6  3
  0  3  1  2  2  8  5 12 13  0 12  1  1 10  4  1  1 10  3 11  9  0  3 17
  1  1 12  1 13  9  5 18 12  0  9  2  2 18 16  1 19 20  1 21  3  3 16 14
  0  3 19  6  7  5 12]"
400,332.0,0.96875,6,2,12.818322658538818,29.86288070678711,2,12800,155008,729185,"[ 5  0  0  0  0  3  4  3  3  0  2  0  5  2  3  0  1  2  1  6  6  1  8  2
  0  3  1  0  1  0  0 10 11  5 13  2  4  5  9  0  7  2  2 11  8  1  2 12
  2  2 17  1 10 12  3  3 14  2 11  2  4 17  1  3 18  0  3 15  3  0  0  2
  3 20 18  6  7 16 12]"
500,337.0,0.984375,6,2,15.619941473007202,28.016164302825928,2,16000,182883,897352,"[ 2  1  0  0  0  3  2  1  0  0  2  0  1  1  3  0  1  2  1  3  3  4  4  2
  0  3  1  5  3  0  2  3 11  4  2  2  4  5  9  4 11  5  0  9  5  5 18 16
  1  1 17  5 17  3  0 18 12  4  9  2  5 17 15  4  1 15  0 18 16  3  0 14
  3 22 18 18  7 16 12]"
600,337.0,0.984375,6,2,18.144896984100342,25.249533653259277,3,19200,206588,1042727,"[ 4  0  1  0  0  3  2  2  3  0  2  0  2  2  1  0  1  2  2  0  5  0  8  5
  0  3  1  0  7  0  3  5  6  4  5  2  4  5  9  5  4  1  0  9  5  5 16 14
  3 14 13  2 15  3  1 11 18  2  9  9  4 18  3  4  1 19  5 19 19  0 20 16
  5 14  1 18  7 16 12]"
700,337.0,0.984375,6,2,20.74005365371704,25.951542854309082,3,22400,231445,1194892,"[ 2  3  2  0  0  3  5  2  3  0  2  0  2  0  0  0  1  2  2  1  2  0  4  8
  0  3  1  1  3  0  4  0  9  4  3  9  4  5  9  2  8 10  0  9  5  5  0 11
  2 18  3  1 15 12  2 17 17  2 18  9  4 14  2  4 17  1  5 20 23  5 14 20
  5 18  2 18  7 16 12]"
760,342,1.0,7,3,22.245941877365112,25.098097324371338,4,24320,245639,1282002,"[ 2  2  3  0  0  3  3  2  3  0  2  0  1  3  0  0  1  2  0  2  0  1  1  7
  0  3  1  4  5  8  4 10  8  4  7 11  4  5  9  2 13  4  0  9  5  5  0  0
  2 16 11  4 10  2  0  3 16  4 18 10  5 20 18  4 16 17  0 20 16  3 21 20
  1 14 23 18 23 16 12]"
800,342,1.0,7,3,23.11041021347046,21.61164879798889,4,25600,252490,1329788,"[ 0  1  3  0  0  3  3  1  0  0  1  0  3  1  3  0  1  2  0  2  0  4  1  7
  0  3  1  4  5  3  0  0 10  0  4  3  4  5  9  1  7  1  0  9  5  1  0 15
  2 17  1  3 13  3  0 12 16  4 18 10  2 22 18  1 16 23  2 16  0  5  1 16
  0 14 23 18 23 16 12]"
900,342,1.0,7,3,25.266925811767578,21.56512975692749,5,28800,269520,1448354,"[ 0  3  1  0  0  3  1  0  1  3  0  0  1  0  3  0  1  2  0  2  0  4  8  0
  0  3  1  3  2  5  0  9  9  0  1 12  4  5  9  0  7  7  0  9  5  1 11 17
  3 17 16  4 18 11  3  1 17  4 18 10  4 21 22  1 21 18  5  3  0  5  1 15
  2 18 18 18 23 16 12]"
1000,342,1.0,7,3,27.428722381591797,21.61794424057007,8,32000,286758,1568529,"[ 2  2  2  0  0  3  2  1  2  3  3  1  2  2  0  0  1  2  1  3  4  3  3  5
  0  3  1  0  0  2  2  6  8  3  5  9  4  5  9  0 12  2  0  9  5  4 11  1
  0 13  0  4 11 15  1 16 11  4 18 13  5 19  1  2 23  0  1 23 15  2  0 17
  0 14  0 18 23 16 12]"
1100,342,1.0,7,3,29.576542615890503,21.47818088531494,12,35200,303536,1685615,"[ 0  2  2  0  0  3  3  1  3  1  2  1  2  2  1  0  1  2  4  7  0  4  0  6
  0  3  1  0  0  2  1  1 13  0 12  6  4  5  9  2  0 13  0  9  5  5 12 10
  2 10 15  1  9 14  5  2 18  4 18 13  1  0 20  3  1  2  1 17 23  4  2  3
  5 17 20 18 23 16 12]"
1200,342,1.0,7,3,31.750165462493896,21.73619031906128,13,38400,320705,1805484,"[ 3  1  3  0  0  3  2  2  3  4  0  3  5  3  2  0  1  2  4  6  6  4  7  6
  0  3  1  0  0  2  1  0  6  4 11  8  4  5  9  0  7 12  0  9  5  4 17 17
  1  0 18  3  1  9  1  1  2  4 18 13  1  0  2  5 21 15  4 23 22  3  2  0
  2 21 16 18 23 16 12]"
1300,342,1.0,7,3,33.909162282943726,21.58994436264038,16,41600,337376,1921807,"[ 1  0  0  0  0  3  4  2  3  4  2  3  4  0  3  0  1  2  0  6  4  5  8  4
  0  3  1  0  0  2  3 10  5  2  1  3  4  5  9  5 12  3  0  9  5  5 15 12
  0  3 18  5  0 15  1 13 18  4 18 13  5 20 15  5 20  3  1 17 15  3 23  2
  2  1 22 18 23 16 12]"
1400,342,1.0,7,3,36.04282259941101,21.33657932281494,18,44800,354139,2038979,"[ 2  3  0  0  0  3  5  2  1  4  0  0  3  1  3  0  1  2  1  4  2  4  4  7
  0  3  1  0  0  2  5 11  3  4  4 12  4  5  9  1  2  5  0  9  5  5 13 17
  3 10 13  4 18  2  5 18 10  4 18 13  4  1 20  1 21 22  5 18 23  3  1 17
  1  0 23 18 23 16 12]"
1500,342,1.0,7,3,38.24650168418884,22.03676700592041,19,48000,371745,2162056,"[ 1  1  0  0  0  3  0  3  1  1  2  1  2  1  0  0  1  2  1  4  7  1  2  1
  5  1  0  0  0  2  2  6  1  0  3 12  4  5  9  2  7  6  0  9  5  3 13 10
  4  9 14  0  0 15  3  3 13  4 18 13  0  3  2  3 23 18  4  3 18  4 23 23
  0  0 17 18 23 16  6]"
1600,342,1.0,7,3,40.49351096153259,22.4700665473938,20,51200,389881,2288385,"[ 0  0  0  0  0  3  0  3  1  0  3  3  3  3  2  0  1  2  5  8  7  2  3  3
  5  7  3  0  0  2  5  5  8  4 13  7  4  5  9  0  8  2  0  9  5  1  0  9
  1  3 13  4  0 11  0 18  3  4 18 13  2  2 18  4  3  1  0  0 14  1 21 16
  4 20 16 18 23 16  6]"
1700,342,1.0,7,3,42.7405047416687,22.469916343688965,22,54400,408043,2414756,"[ 4  0  2  0  0  3  0  3  1  4  3  1  4  3  3  0  1  2  0  4  0  2  3  1
  2  7  3  0  0  2  1 12 13  4  7 10  4  5  9  1 12  0  0  9  5  5 16 14
  2  1 16  4  0 13  5 18  1  4 18 13  5 18 20  5  2  0  3  0 14  5  1 18
  1 17 14 18 23 16  6]"
1800,342,1.0,7,3,45.01321983337402,22.72712469100952,23,57600,426100,2540869,"[ 4  1  1  0  0  3  0  3  1  0  3  0  3  3  2  0  1  2  5  0  3  5  3  8
  0  4  7  0  0  2  4  5 12  5  1  6  4  5  9  0  9  1  0  9  5  2 11  0
  5 12 16  2 12 17  5 17 11  4 18 13  5 15 17  1 19 22  4  3 22  3 18 14
  3 21 20 18 23 16  6]"
1900,342,1.0,7,3,47.221811294555664,22.085888385772705,26,60800,443878,2665091,"[ 2  3  3  0  0  3  0  3  1  4  2  3  3  0  3  0  1  2  0  8  6  3  8  7
  0  7  6  0  0  2  0  9 13  4  8  7  4  5  9  2 12  8  0  9  5  3 18 12
  5 18 17  0 14 17  3  9 14  4 18 13  5 21 15  0  0 17  2 17 23  1  1 21
  2 19  2 18 23 16  6]"
2000,342,1.0,7,3,49.5048611164093,22.830474376678467,28,64000,461577,2788585,"[ 2  0  1  0  0  3  0  3  1  5  1  3  0  2  2  0  1  2  2  8  3  0  8  8
  5  1  7  0  0  2  5 12  7  4  6  6  4  5  9  1  5  5  0  9  5  3 14  3
  4  3 13  0  1 15  4 14 10  4 18 13  2  0 15  0 16 19  4 20 18  4 18  1
  0 23  0 18 23 16  6]"
2100,342,1.0,7,3,51.783310890197754,22.78446912765503,28,67200,480166,2917862,"[ 2  2  1  0  0  3  0  3  1  2  2  1  1  2  1  0  1  2  0  0  0  4  7  5
  5  6  1  0  0  2  1 11 13  2 13  8  4  5  9  4 10  7  0  9  5  3 16  1
  1 10  0  0 17 13  1 11 18  4 18 13  1  2  3  3 19 17  0 21 20  4 22 21
  3 16  0 18 23 16  6]"
2200,342,1.0,7,3,54.05379867553711,22.704851627349854,30,70400,498708,3046734,"[ 1  2  3  0  0  3  0  3  1  2  2  0  1  1  0  0  1  2  2  8  7  4  3  5
  5  3  0  0  0  2  1  7  3  2  4  3  4  5  9  3 13  4  0  9  5  4  3 17
  4 11 15  1 17 18  2  0 13  4 18 13  1 14 18  5 21 20  1  2  3  5 15 14
  3 22 22 18 23 16  6]"
2300,342,1.0,7,3,56.25548195838928,22.01680898666382,32,73600,516195,3168674,"[ 4  1  1  0  0  3  0  3  1  3  2  2  0  1  0  0  1  2  5  4  6  1  1  8
  3  5  8  0  0  2  1 12  2  3  3  1  4  5  9  4 11  2  0  9  5  1 15 11
  0  2 13  0  2 17  5  0  2  4 18 13  4  0  2  4 22 14  4 18 18  4 21 22
  5  1 15 18 23 16  6]"
2400,342,1.0,7,3,58.48595976829529,22.304751873016357,33,76800,534013,3293125,"[ 5  2  1  0  0  3  0  3  1  1  1  0  5  3  0  0  1  2  2  7  1  0  5  5
  3  7  8  0  0  2  2  3 11  4  6 11  4  5  9  1 13  8  0  9  5  1 13 14
  0  1 13  3  0 14  1 18 18  4 18 13  4 19  1  2 18 19  2 20 16  0 16 19
  2  1  2 18 23 16  6]"
2500,342,1.0,7,3,60.78755474090576,23.015928268432617,33,80000,552043,3419007,"[ 0  2  3  0  0  3  0  3  1  1  1  2  0  0  2  0  1  2  4  7  3  0  7  6
  1  8  1  0  0  2  1 13  7  4  8 11  4  5  9  5  7 11  0  9  5  1 16 11
  5 12  2  4  2  0  1 11 14  4 18 13  3  3 18  3  3 19  1 17 21  1 18  1
  2 23  2 18 23 16  6]"
2600,342,1.0,7,3,63.05518174171448,22.676243782043457,36,83200,570127,3545294,"[ 0  0  1  0  0  3  0  3  1  1  0  0  4  3  1  0  1  2  1  4  7  3  1  2
  0  8  1  0  0  2  3  5  0  4 11  6  4  5  9  2  7  5  0  9  5  1 14 15
  2  3  3  1 16  0  1 14 14  4 18 13  1  0 15  4  1 18  1  1  3  2 22 17
  0 16 22 18 23 16  6]"
2700,342,1.0,7,3,65.32956051826477,22.74376392364502,38,86400,587592,3667078,"[ 0  3  1  0  0  3  0  2  1  4  1  2  1  3  2  0  1  2  1  0  0  0  8  6
  5  4  4  0  0  2  4  6  0  5  9  1  4  5  9  5  7 11  0  9  5  4 16 15
  0  0  0  3 10 11  1 15  1  4 18 13  5  0  2  0 14 19  5 21  0  2 20  3
  1  1  2 18 23 16  4]"
2800,342,1.0,7,3,67.60481691360474,22.752535343170166,39,89600,605297,3790622,"[ 0  3  1  0  0  3  1  3  0  3  2  0  3  1  0  0  1  2  4  0  2  4  6  3
  1  7  8  0  0  2  3  7 13  2  3  0  4  5  9  3 10  0  0  9  5  1 11 10
  4 16 14  4 14  0  3 10 14  4 18 13  5 18 20  5  1 14  0  3 21  4  0 18
  3 17 21 18 23 16  4]"
2900,342,1.0,7,3,69.82346415519714,22.18644618988037,40,92800,623224,3915538,"[ 0  3  1  0  0  3  5  0  2  0  1  1  5  3  1  0  1  2  5  2  2  1  0  5
  3  4  7  0  0  2  2  1 12  1  3 11  4  5  9  5 10  5  0  9  5  5  3  3
  3 14  2  5  1  0  0 18  1  4 18 13  0 23 16  1 18 23  3  2 17  1 22 14
  5  2 21 18 23 16  4]"
3000,342,1.0,7,3,72.13988924026489,23.164222240447998,41,96000,641490,4042766,"[ 0  3  1  0  0  3  5  1  3  3  3  2  5  1  0  0  1  2  5  5  4  0  5  2
  4  5  6  0  0  2  3 12  5  5  7 11  4  5  9  4  9  3  0  9  5  5 10  9
  1  2 11  4 17 15  5 16 11  4 18 13  5  3 16  0 19 22  5  1 21  2  2  0
  3 16  0 18 23 16  4]"
3100,342,1.0,7,3,74.32982349395752,21.89931869506836,41,99200,659039,4165079,"[ 0  3  1  0  0  3  3  3  0  2  2  1  5  1  1  0  1  2  0  4  2  0  5  7
  1  3  6  0  0  2  2 13 12  2  4 11  4  5  9  3  3 13  0  9  5  3  0  9
  4  3  2  1  1 13  0 15 17  4 18 13  4  0 21  0 19 14  0 21 16  5 14  3
  3  0  0 18 23 16  4]"
3200,342,1.0,7,3,76.64239001274109,23.125638961791992,41,102400,677143,4291283,"[ 0  3  1  0  0  3  1  0  0  5  0  2  1  2  1  0  1  2  3  1  0  2  0  4
  2  7  4  0  0  2  0  7 11  2 12 11  4  5  9  0  0  1  0  9  5  4  3 11
  3 17 15  3 13  2  3 10  3  4 18 13  4 15  2  4 14 15  1 22 14  4 18  3
  3 18  1 18 23 16  4]"
3300,342,1.0,7,3,78.85851764678955,22.16125249862671,41,105600,694918,4415237,"[ 0  3  1  0  0  3  4  2  0  2  2  2  1  1  2  0  1  2  3  0  3  2  8  1
  1  4  3  0  0  2  0  6 10  1  7 11  4  5  9  1  9  1  0  9  5  4 15 12
  5 12  0  5 17  2  5 13 12  4 18 13  1 19 16  0 14 14  0 22 21  4 14 17
  2 16  1 18 23 16  4]"
3400,342,1.0,7,3,81.21549677848816,23.569765090942383,43,108800,712575,4538343,"[ 0  3  1  0  0  3  5  1  1  2  0  1  1  0  3  0  1  2  3  3  5  5  6  6
  1  0  4  0  0  2  2  2 13  2 11  6  4  5  9  5  6 10  0  9  5  4 15  1
  1  0 16  2 13 12  2 17 15  4 18 13  5  2 23  3 14 15  1  0  1  5  1  3
  1 23 22 18 23 16  4]"
3500,342,1.0,7,3,83.44758129119873,22.32081174850464,44,112000,730570,4663712,"[ 0  3  1  0  0  3  0  0  0  4  1  3  1  1  0  0  1  2  0  3  0  3  0  5
  4  3  3  0  0  2  1 11  2  3  6 10  4  5  9  1  5 13  0  9  5  2 12 11
  2 16 14  1 15 13  2 18 14  4 18 13  1 22  2  2 23  3  3  2  1  5 23  3
  4 14 22 18 23 16  4]"
3600,342,1.0,7,3,85.71512985229492,22.675459384918213,45,115200,748874,4791496,"[ 0  3  1  0  0  3  5  3  3  3  1  3  5  1  1  0  1  2  0  2  1  2  7  5
  3  7  8  0  0  2  5 10  0  0  3  7  4  5  9  0  0  4  0  9  5  3 12 11
  2  0 13  2 15  0  0 17 14  4 18 13  1  0 18  4  0 22  4 22 19  1 15 22
  4 21  3 18 23 16  4]"
3700,342,1.0,7,3,87.95948314666748,22.443506717681885,46,118400,766739,4916134,"[ 0  3  1  0  0  3  4  3  0  0  3  0  0  2  0  0  1  2  3  3  8  1  2  7
  3  4  3  0  0  2  5 12  4  5  3  4  4  5  9  3  3  5  0  9  5  0 17 14
  1 13 12  0 11  3  2  0 18  4 18 13  2  2 22  1 19 21  5 18 19  2 22  1
  3  3 17 18 23 16  4]"
3800,342,1.0,7,3,90.20138216018677,22.41896390914917,49,121600,784838,5042375,"[ 0  3  1  0  0  3  0  2  0  1  0  1  0  1  2  0  1  2  0  4  5  2  6  5
  4  3  3  0  0  2  3 12  5  5  0  4  4  5  9  1 13  2  0  9  5  3 14 17
  2  2  3  3 14 13  0 15 17  4 18 13  4 16 19  5 15 21  2 16  0  1  3 16
  4  0  3 18 23 16  4]"
3900,342,1.0,7,3,92.48041462898254,22.790303230285645,52,124800,802724,5167029,"[ 0  3  1  0  0  3  0  2  1  1  1  2  5  1  0  0  1  2  0  2  6  3  8  0
  4  5  4  0  0  2  1 12  1  4  8  8  4  5  9  2 12  1  0  9  5  1  1 10
  0  9  1  4  3 18  4 10  2  4 18 13  3 19 16  3  0  3  4  0  0  4 22 19
  1  1 19 18 23 16  4]"
4000,342,1.0,7,3,94.64546799659729,21.65050745010376,54,128000,819985,5287607,"[ 0  3  1  0  0  3  3  1  0  4  3  3  4  1  3  0  1  2  5  5  8  5  2  0
  5  2  5  0  0  2  2  0  2  5  7  3  4  5  9  0  4  9  0  9  5  5  3 15
  1  3 14  0 10 11  5 12 15  4 18 13  4  3  3  0 22 15  5 22 21  5  3 23
  1 16 22 18 23 16  4]"
4100,342,1.0,7,3,96.9677152633667,23.222451210021973,55,131200,838205,5414655,"[ 0  3  1  0  0  3  2  1  3  4  0  1  3  0  3  0  1  2  1  0  2  1  3  4
  3  3  1  0  0  2  5 13  6  5  0  2  4  5  9  4 11  3  0  9  5  4 18 16
  0  2  1  4 18 16  2 16 13  4 18 13  0  3 21  4 18  2  5 16 14  4  0  1
  2 22 17 18 23 16  4]"
4200,342,1.0,7,3,99.2307460308075,22.63028383255005,56,134400,856327,5540848,"[ 0  3  1  0  0  3  1  2  0  1  3  0  1  2  3  0  1  2  1  6  5  1  6  2
  3  7  2  0  0  2  2  8 11  4  6  1  4  5  9  5 10  9  0  9  5  1 15 15
  5  0 10  0 18 18  0  0 12  4 18 13  4  3  1  4 19  2  1 22 23  5  3 16
  3 19 14 18 23 16  4]"
4300,342,1.0,7,3,101.45495176315308,22.2420334815979,56,137600,874300,5665921,"[ 0  3  1  0  0  3  3  1  0  0  2  0  3  3  3  0  1  2  3  0  0  0  2  2
  1  5  0  0  0  2  0 11  8  2  3  0  4  5  9  3  2  9  0  9  5  5 13 15
  4 16  1  3 16 16  4 10 18  4 18 13  2  3 23  0 21 20  1 22  1  1 22  3
  5  2  2 18 23 16  4]"
4400,342,1.0,7,3,103.682133436203,22.271792888641357,57,140800,892204,5790771,"[ 0  3  1  0  0  3  4  2  2  1  3  2  2  3  3  0  1  2  5  8  6  2  3  2
  5  4  3  0  0  2  3  7  1  1 13  8  4  5  9  3  4 12  0  9  5  5  1  1
  3 15 14  0 17  2  5  2 18  4 18 13  1  1 19  1 14 21  5 16 21  1  2 23
  3 17 19 18 23 16  4]"
4500,342,1.0,7,3,105.8873074054718,22.05171823501587,58,144000,910000,5914911,"[ 0  3  1  0  0  3  0  0  0  1  3  2  1  2  1  0  1  2  2  7  4  1  3  3
  1  8  6  0  0  2  1 12  1  3 11  5  4  5  9  2  7 13  0  9  5  4 17  1
  1 17  0  2  1 10  3 13  9  4 18 13  0 15 23  5 22 23  0 19 14  3 17 18
  1  1 14 18 23 16  4]"
4600,342,1.0,7,3,108.19919681549072,23.1188702583313,59,147200,928061,6040527,"[ 0  3  1  0  0  3  2  3  2  0  1  1  3  3  0  0  1  2  4  1  5  1  0  0
  1  1  5  0  0  2  1 13  0  1  3  6  4  5  9  1  9 11  0  9  5  3 18  3
  3 11 18  4 17  0  3 16  9  4 18 13  5 17 18  1  3 18  2 14 18  2  2 20
  1 23  1 18 23 16  4]"
4700,342,1.0,7,3,110.38649249076843,21.8729305267334,60,150400,945592,6162555,"[ 0  3  1  0  0  3  4  2  3  3  3  0  5  3  0  0  1  2  4  8  0  1  7  2
  4  4  6  0  0  2  3  0  0  0  0  4  4  5  9  1  9  2  0  9  5  3 16 10
  3 16 15  3 18 13  0 14 15  4 18 13  3 18 23  3 14  0  2 20  3  2 16 14
  0  3  1 18 23 16  4]"
4800,342,1.0,7,3,112.62615609169006,22.396607398986816,61,153600,963556,6287764,"[ 0  3  1  0  0  3  3  3  2  3  2  2  0  1  2  0  1  2  3  5  6  3  5  7
  5  5  0  0  0  2  2 11 12  1  5 10  4  5  9  1  7  3  0  9  5  0  1 11
  3  2 18  1 17  9  1 16  9  4 18 13  0 20 20  2 20 21  4 19 18  0 14 14
  2  3 16 18 23 16  4]"
4900,342,1.0,7,3,114.82562375068665,21.99465274810791,62,156800,981051,6409800,"[ 0  3  1  0  0  3  5  1  3  5  3  2  5  2  3  0  1  2  0  1  5  4  8  8
  2  8  6  0  0  2  2 11  6  4 10 11  4  5  9  3 13  5  0  9  5  5 15  9
  5 18  0  1 10 16  2 16 13  4 18 13  5 15 19  0 21 21  0 14 14  1 17 19
  0 16 20 18 23 16  4]"
5000,342,1.0,7,3,117.02476978302002,21.99143648147583,63,160000,998663,6532989,"[ 0  3  1  0  0  3  5  3  2  1  2  3  3  0  1  0  1  2  0  7  2  0  5  2
  3  8  1  0  0  2  5 11 13  3  5 11  4  5  9  1  7 13  0  9  5  1 10 14
  3 16  2  0 16 14  1 15 12  4 18 13  4  2 14  4 22 18  0 17 18  3  0 16
  0  0  0 18 23 16  4]"
5100,342,1.0,7,3,119.25156807899475,22.267956733703613,65,163200,1016499,6657204,"[ 0  3  1  0  0  3  3  0  3  1  2  2  5  0  3  0  1  2  4  8  0  5  7  3
  0  4  1  0  0  2  3 12  1  2  1  0  4  5  9  0  7  9  0  9  5  4 17  9
  0  3 16  3 12  0  4  0 12  4 18 13  4  2 23  1 23 14  4 23 14  3 21  1
  4 20 16 18 23 16  4]"
5200,342,1.0,7,3,121.5125994682312,22.6102876663208,67,166400,1034905,6785666,"[ 0  3  1  0  0  3  4  3  2  2  2  0  5  3  3  0  1  2  2  0  7  3  4  8
  1  7  3  0  0  2  1  9 10  0  2  0  4  5  9  3  5 11  0  9  5  4 16 18
  0 11 12  5  0 16  4 17 18  4 18 15  1  2 17  2 20 19  3 16 17  5 19 21
  2 20  3 18 23 16  4]"
5300,342,1.0,7,3,123.66394639015198,21.513447761535645,69,169600,1051830,6903632,"[ 0  3  1  0  0  3  4  3  1  1  3  1  5  0  2  0  1  2  2  2  0  4  2  2
  3  8  5  2  6  8  5  8  3  0  2  0  4  5  9  4 13 11  0  9  5  3 14 10
  0 15 16  1 14  1  3 18 12  4 18 15  1  3 19  0  3 23  5 21  2  4 20 20
  5 16  0 18 23 16  4]"
5400,342,1.0,7,3,125.84939384460449,21.854450702667236,70,172800,1069082,7024492,"[ 0  3  1  0  0  3  3  0  3  2  3  3  3  3  0  0  1  2  3  3  3  4  0  6
  1  3  8  3  6  5  0  8  9  0  2  0  4  5  9  1  5 11  0  9  5  0 14 16
  5 14  1  4 13  3  3 17 12  4 18 15  0  2  3  5 14 23  1 15  1  4 20  3
  4 18  0 18 23 16  4]"
5500,342,1.0,7,3,127.99550437927246,21.461079120635986,72,176000,1085821,7141260,"[ 0  3  1  0  0  3  5  1  1  4  3  2  1  1  2  0  1  2  3  8  7  4  2  5
  0  0  5  2  3  4  4 10 12  0  2  0  4  5  9  3  8  6  0  9  5  1 17 13
  1  3 12  2 16  3  2 10  3  4 18 15  3 21  0  1 18 16  1 21 22  5 21  3
  5 16  3 18 23 16  4]"
5600,342,1.0,7,3,130.1545054912567,21.58998727798462,73,179200,1102461,7256882,"[ 0  3  1  0  0  3  4  0  3  3  0  2  0  0  3  0  1  2  4  4  1  1  0  5
  3  5  8  2  8  8  4  8  7  0  2  0  4  5  9  3 13  7  0  9  5  2 12  9
  1 13 11  3  9 14  0 15 14  4 18 15  4  2  0  2 19  3  0  2  1  3 18 17
  5 21 16 18 23 16  4]"
5700,342,1.0,7,3,132.3421401977539,21.876323223114014,75,182400,1120003,7378919,"[ 0  3  1  0  0  3  0  1  1  3  2  3  2  3  2  0  1  2  5  0  7  5  2  4
  5  3  5  2  7  1  1  8  3  0  2  0  4  5  9  0  1 10  0  9  5  5 10 10
  3 16 15  2  0 10  2 18  3  4 18 15  4 23 14  0 19 16  3 16 14  2 18 20
  2 21 22 18 23 16  4]"
5800,342,1.0,7,3,134.47184562683105,21.297028064727783,75,185600,1136526,7494374,"[ 0  3  1  0  0  3  4  1  2  5  3  0  0  3  1  0  1  2  5  8  4  5  0  1
  3  3  3  5  7  7  4  0 13  0  2  0  4  5  9  0  0  3  0  9  5  5 10 14
  5 11 18  0  1 13  2 18 13  4 18 15  3 15 14  4 23 18  1 21 15  5 19 14
  1 15  2 18 23 16  4]"
5900,342,1.0,7,3,136.64936757087708,21.775193214416504,75,188800,1153448,7612562,"[ 0  3  1  0  0  3  0  2  1  5  3  2  3  3  2  0  1  2  0  6  5  2  3  1
  2  4  6  5  8  7  1 11  7  0  2  0  4  5  9  2  3  6  0  9  5  5 13 18
  0 11 13  1  1  2  3 18 12  4 18 15  4 21 20  3 14 18  2 23  0  5 17  2
  4 18  1 18 23 16  4]"
6000,342,1.0,7,3,138.8261125087738,21.767423152923584,75,192000,1170586,7732205,"[ 0  3  1  0  0  3  0  0  3  4  0  2  2  1  3  0  1  2  0  2  0  4  3  5
  0  2  5  2  8  8  1  6  1  0  2  0  4  5  9  0 13  1  0  9  5  3 10 15
  1  9  0  3 17 12  4 15 17  4 18 15  0 19  3  1 22 23  3 18 21  5 18  1
  5  3 22 18 23 16  4]"
6100,342,1.0,7,3,141.04502892494202,22.189137935638428,75,195200,1188306,7855680,"[ 0  3  1  0  0  3  0  3  2  4  0  2  3  2  1  0  1  2  0  2  0  0  7  0
  0  2  2  3  0  7  0  4  4  4  2  0  4  5  9  5  5 13  0  9  5  3 14  0
  4 14  2  0  2  9  0  9  1  4 18 10  4 14 17  3  2 21  3 19 14  3 21 15
  2  0 19 18 23 16  4]"
6200,342,1.0,7,3,143.30812168121338,22.63089895248413,79,198400,1206774,7984267,"[ 0  3  1  0  0  3  2  3  1  4  2  3  5  1  2  0  1  2  0  2  0  1  1  3
  2  4  4  3  8  4  5  9 12  1 13 13  4  5  9  4  2  9  0  9  5  2 17 17
  2  2  9  4 15 14  4 12  3  4 18 10  0  2 23  1 18  1  4 23 20  5 19  0
  0 17  2 18 23 16  4]"
6300,342,1.0,7,3,145.52856612205505,22.204418182373047,80,201600,1224543,8108014,"[ 0  3  1  0  0  3  5  0  2  2  0  1  3  0  2  0  1  2  0  2  0  3  4  7
  4  5  3  0  0  1  0  3  3  5  2  7  4  5  9  3  4 13  0  9  5  1 11 17
  4  0 12  2  2 12  4  1 12  4 18 10  3 23 19  0  3  1  0  0  1  2 15 18
  4 22 18 18 23 16  4]"
6400,342,1.0,7,3,147.73322558403015,22.046570777893066,81,204800,1242302,8231893,"[ 0  3  1  0  0  3  4  0  3  5  0  3  2  1  3  0  1  2  0  2  0  2  0  4
  0  6  6  1  0  4  4  6 12  2 12  9  4  5  9  3  2  9  0  9  5  2  2  9
  3  0  1  2 10  9  4  1 13  4 18 10  3 17  3  1 18 16  0  1  3  3 21 21
  3 14 14 18 23 16  4]"
6500,342,1.0,7,3,150.01490807533264,22.816803455352783,83,208000,1260896,8361242,"[ 0  3  1  0  0  3  1  2  0  5  1  0  1  2  1  0  1  2  0  2  0  0  1  1
  5  3  1  2  3  3  3 10  4  1 10  4  4  5  9  3  4 11  0  9  5  3 17 14
  5 14  2  2 12 16  4 17 18  4 18 10  0 16 16  2  3  0  5 16  2  5 17 23
  5 15 23 18 23 16  4]"
6600,342,1.0,7,3,152.22771334648132,22.128021717071533,85,211200,1278718,8485658,"[ 0  3  1  0  0  3  0  2  2  4  3  3  5  3  2  0  1  2  0  2  0  4  0  2
  1  7  2  1  5  8  3  1  2  2  3 13  4  5  9  1  6  6  0  9  5  2 12  0
  3 17 10  0 13 16  3 16 14  4 18 10  1  1 18  0  2 22  2 23  1  1 20 21
  3  1 23 18 23 16  4]"
6700,342,1.0,7,3,154.4427888393402,22.150728702545166,86,214400,1296360,8608621,"[ 0  3  1  0  0  3  3  1  2  2  3  2  4  1  2  0  1  2  0  2  0  4  0  7
  2  1  0  0  5  2  2  5  9  0 12  4  4  5  9  2  2 11  0  9  5  4  3  1
  0 12 17  5  0  1  3  1 14  4 18 10  4 16  1  2 14 23  3 22 20  1 23 22
  3 17  3 18 23 16  4]"
6800,342,1.0,7,3,156.68140268325806,22.386112213134766,86,217600,1314280,8733528,"[ 0  3  1  0  0  3  2  1  1  0  1  2  0  2  0  0  1  2  0  2  0  4  6  2
  4  4  8  1  6  1  3  3 13  5 13 12  4  5  9  2  3  4  0  9  5  1 13 18
  2  2 11  1 15 10  0 13  9  4 18 10  0 16 18  3  2 23  2 20 18  1 17  3
  4 20 20 18 23 16  4]"
6900,342,1.0,7,3,158.89928221702576,22.178771495819092,87,220800,1332189,8858321,"[ 0  3  1  0  0  3  5  3  0  1  1  1  4  2  1  0  1  2  0  2  0  3  5  3
  3  3  0  1  4  0  3 11 10  3  4 13  4  5  9  5  9  5  0  9  5  0 11 18
  2  1 13  3  0  2  4 11  0  4 18 10  3 17  3  1  2 20  2 21 17  4 16 19
  5 22 21 18 23 16  4]"
7000,342,1.0,7,3,161.09653496742249,21.972501277923584,87,224000,1349759,8980724,"[ 0  3  1  0  0  3  5  0  0  1  2  1  0  1  2  0  1  2  0  2  0  1  6  2
  0  3  6  3  7  8  3  7  4  3  5  6  4  5  9  0 12  3  0  9  5  2 18 17
  5 17  2  2  3 14  0 13 12  4 18 10  3 15 15  2 23 17  2  2 23  2 21 18
  3 22 17 18 23 16  4]"
7100,342,1.0,7,3,163.31070351600647,22.141664028167725,88,227200,1367596,9105143,"[ 0  3  1  0  0  3  4  3  0  3  3  2  4  1  3  0  1  2  0  2  0  1  2  3
  4  4  6  2  7  4  1  7 13  1 10  2  4  5  9  4  2 12  0  9  5  4  3  9
  2 11 11  3  2  2  4 11  1  4 18 10  4 22 16  4 21 16  4 17 16  0  1 15
  0  3 15 18 23 16  4]"
7200,342,1.0,7,3,165.54381918907166,22.331132888793945,89,230400,1385517,9230080,"[ 0  3  1  0  0  3  5  2  1  5  0  3  5  1  1  0  1  2  0  2  0  4  4  4
  4  2  7  1  4  5  4  1 10  4 12  1  4  5  9  3 12 12  0  9  5  2 17 11
  0 12 16  2 18 11  2 18  3  4 18 10  4 23  2  5 21  2  5 17 14  1 17 23
  1 16 17 18 23 16  4]"
7300,342,1.0,7,3,167.761785030365,22.17963695526123,93,233600,1403415,9354947,"[ 0  3  1  0  0  3  1  0  0  3  3  2  5  0  2  0  1  2  0  2  0  4  1  4
  2  2  3  0  6  5  1  1  8  0  4  0  4  5  9  1  7  5  0  9  5  3  2  2
  4 15 18  3  3 15  0 13  9  4 18 10  3 15 16  0 18 17  2  3 16  3 15  0
  2 21  3 18 23 16  4]"
7400,342,1.0,7,3,170.00859951972961,22.46811866760254,93,236800,1421641,9481996,"[ 0  3  1  0  0  3  0  1  1  1  3  2  3  0  1  0  1  2  0  2  0  0  3  6
  3  8  0  1  2  1  1  7  7  4  5  0  4  5  9  5 11  7  0  9  5  5 10  3
  5 11 16  3  3  0  1 11 18  4 18 10  4  2  2  1 23  2  1  3  3  4 23  1
  4 19 20 18 23 16  4]"
7500,342,1.0,7,3,172.23916602134705,22.305638790130615,94,240000,1439681,9607726,"[ 0  3  1  0  0  3  1  1  3  2  1  3  4  1  1  0  1  2  0  2  0  2  8  7
  3  6  3  2  1  5  0 12  8  4  3  6  4  5  9  0  1  3  0  9  5  3  2 13
  3 11 15  3  2  0  2 12 12  4 18 10  2  1  3  2 19  1  5 21 21  5  3 17
  2  3 20 18 23 16  4]"
7600,342,1.0,7,3,174.42135000228882,21.821813583374023,95,243200,1457123,9729478,"[ 0  3  1  0  0  3  2  3  2  0  0  3  3  1  0  0  1  2  0  2  0  1  3  8
  3  8  8  0  8  1  5  9  8  1 12  7  4  5  9  0  8 13  0  9  5  4 17 17
  3  1 15  4 12 17  2 15  1  4 18 10  2  1 23  4 23 15  2 15 22  3  0  2
  2  1  1 18 23 16  4]"
7700,342,1.0,7,3,176.62186288833618,22.00510263442993,97,246400,1474470,9850385,"[ 0  3  1  0  0  3  1  0  0  3  2  2  1  2  2  0  1  2  0  2  0  2  3  7
  5  5  3  5  3  2  4  7  6  4 10  9  4  5  9  4  5  6  0  9  5  5 11  1
  0 10 10  1 12 17  4 14 15  4 18 10  4 18  3  4 15  1  5 16 15  4  2 16
  2  1  3 18 23 16  4]"
7800,342,1.0,7,3,178.81826758384705,21.964025497436523,98,249600,1492201,9974034,"[ 0  3  1  0  0  3  0  0  3  1  0  3  0  3  1  0  1  2  0  2  0  0  2  3
  0  1  1  4  2  6  1 13  0  1  5  5  4  5  9  4  1  1  0  9  5  5  9 18
  3  9  3  4 12 16  2  1 11  4 18 10  0 22 23  5  1  1  2 16 22  0 21 19
  2 20 14 18 23 16  4]"
7900,342,1.0,7,3,181.08925342559814,22.709832191467285,98,252800,1510047,10098414,"[ 3  3  3  0  0  3  4  3  1  3  0  1  0  3  1  0  1  2  0  2  0  4  6  4
  3  7  5  0  1  1  5  4  8  1 13 10  4  5  9  1  3  6  0  9  5  1  9 13
  1 17 12  2  9  1  5 14  1  4 18 10  2 16 15  3 19 23  3 21  3  0 15  2
  1 14 20 18 23 16  8]"
8000,342,1.0,7,3,183.30275583267212,22.134997844696045,102,256000,1527830,10222491,"[ 0  1  3  0  0  3  0  3  2  2  1  0  0  3  1  0  1  2  0  2  0  5  3  2
  4  6  7  1  1  5  4 12  8  0 13  1  4  5  9  1 11 12  0  9  5  5 16 10
  2  3 15  2 10 17  4 16 14  4 18 10  2  2  0  3 15 21  2 20 14  5 17  0
  1 14 18 18 23 16  8]"
8100,342,1.0,7,3,185.5861053466797,22.833471298217773,103,259200,1545846,10347882,"[ 4  3  0  0  0  3  4  2  3  4  3  3  0  3  1  0  1  2  0  2  0  3  4  3
  0  2  0  2  8  5  3 11 11  0  2  5  4  5  9  2  5  7  0  9  5  5 13  2
  1  2  0  5 13  9  1 17  2  4 18 10  4 23 20  5 23 14  2  0 20  3 21  0
  2  0 15 18 23 16  8]"
8200,342,1.0,7,3,187.77384543418884,21.877377033233643,108,262400,1563379,10469823,"[ 0  3  2  0  0  3  0  2  2  5  2  1  0  3  1  0  1  2  0  2  0  4  0  7
  5  2  0  3  7  0  2  5 11  4  0 10  4  5  9  4  6 10  0  9  5  0  1  0
  2 16  0  3 12 16  3 16  2  4 18 10  5  0 14  0 19  3  5 22  0  4  1 20
  5 23 20 18 23 16  8]"
8300,342,1.0,7,3,190.01615357398987,22.423057556152344,109,265600,1581566,10596505,"[ 3  0  1  0  0  3  2  2  3  0  1  2  0  3  1  0  1  2  0  2  0  3  5  0
  5  6  7  5  3  8  5  7 13  1  9  2  4  5  9  5 13 10  0  9  5  3 11 15
  3 10  1  4 10 17  1  9 17  4 18 10  4 22 18  1  1 21  5 21 17  2 16 17
  1  1  3 18 23 16  8]"
8400,342,1.0,7,3,192.26369667053223,22.475404739379883,111,268800,1599668,10722635,"[ 2  0  2  0  0  3  5  3  1  5  1  0  0  3  1  0  1  2  0  2  0  1  6  3
  3  0  3  1  5  3  0  9  5  2 11  8  4  5  9  1 12  5  0  9  5  0 15 11
  0  0 14  2 11 11  0  3 11  4 18 10  3 22 16  0 15 16  5  1 19  3  1 16
  4 18 15 18 23 16  8]"
8500,342,1.0,7,3,194.46454048156738,22.008414268493652,111,272000,1617421,10846373,"[ 5  2  3  0  0  3  4  3  0  0  0  0  0  3  1  0  1  2  0  2  0  1  4  1
  0  5  3  2  3  7  0  9  0  1 13  8  4  5  9  0  1  4  0  9  5  4 10 15
  3 15  0  4  2 15  3  1 12  4 18 10  4 17 17  1 15 17  5 20 16  0 14 16
  1  0 19 18 23 16  8]"
8600,342,1.0,7,3,196.7312970161438,22.66753911972046,112,275200,1635655,10973621,"[ 3  0  1  0  0  3  5  3  2  2  2  1  0  3  1  0  1  2  0  2  0  1  6  6
  5  3  7  2  1  2  3  7 13  0  1  8  4  5  9  3  0  5  0  9  5  1 10  1
  5 10  1  4  9  0  3 14 15  4 18 10  2  3 21  0 22 14  0 19  0  5 14 16
  5 20 15 18 23 16  8]"
8700,342,1.0,7,3,198.9381492137909,22.068493366241455,113,278400,1653394,11097350,"[ 0  3  2  0  0  3  2  2  0  0  3  3  0  3  1  0  1  2  0  2  0  5  2  0
  3  0  6  5  8  5  5  7 10  4  7  4  4  5  9  0  6 12  0  9  5  5 13 14
  4 10 10  2 12 17  1  9  3  4 18 10  5 21  3  1 23  0  1 20 22  2 14 19
  4 20 18 18 23 16  8]"
8800,342,1.0,7,3,201.1665163040161,22.283644676208496,114,281600,1671407,11222745,"[ 1  1  3  0  0  3  5  2  3  4  3  3  0  3  1  0  1  2  0  2  0  1  6  8
  2  1  0  5  4  5  1  4  5  1  1  3  4  5  9  5  1  1  0  9  5  2 13 18
  1 16  0  2 15 17  0  1 18  4 18 10  5 15 21  0 23  3  4  1 21  5 21 22
  1 20  1 18 23 16  8]"
8900,342,1.0,7,3,203.39913845062256,22.326195240020752,117,284800,1689342,11347968,"[ 1  1  0  0  0  3  5  3  1  5  0  2  0  3  1  0  1  2  0  2  0  0  0  6
  5  6  8  0  1  8  0  0  8  1 11 10  4  5  9  0  7  7  0  9  5  4 13 18
  5 15  3  3 18 17  1 13 11  4 18 10  5 17  2  4  0 15  4 18 15  4 15 16
  2 20 22 18 23 16  8]"
9000,342,1.0,7,3,205.6202094554901,22.210683822631836,117,288000,1706998,11471402,"[ 1  0  3  0  0  3  4  3  2  2  0  1  0  3  1  0  1  2  0  2  0  3  8  7
  5  3  5  5  1  5  3 10  8  1  3 13  4  5  9  5  9  8  0  9  5  3  0 15
  0 13 16  5 10 15  1 14 17  4 18 10  2 21 22  2  1 21  1 19  3  0 18 19
  2 18 20 18 23 16  8]"
9100,342,1.0,7,3,207.8948905467987,22.746784687042236,118,291200,1724489,11593361,"[ 1  0  3  0  0  3  4  2  3  2  0  0  0  3  1  0  1  2  0  2  0  4  2  2
  3  0  5  4  7  6  5 12 13  5  0  7  4  5  9  0  2  1  0  9  5  0 11 12
  0 16  9  4 18 15  4  9  9  4 18 10  3 19 15  5  1 19  2 21  1  4 19 21
  3 20  3 18 23 16  8]"
9200,342,1.0,7,3,210.06706261634827,21.721694469451904,119,294400,1741806,11714552,"[ 5  3  0  0  0  3  3  1  3  2  1  3  0  3  1  0  1  2  0  2  0  4  7  3
  1  7  7  5  7  2  5 13 13  2  3 11  4  5  9  5  0  6  0  9  5  2 11 10
  1 11  0  2 16 18  3 11 18  4 18 10  2 21 20  1  3 15  0 14 18  4  1 14
  0 20 15 18 23 16  8]"
9300,342,1.0,7,3,212.3722882270813,23.05222988128662,121,297600,1759908,11840943,"[ 5  3  0  0  0  3  0  1  1  3  0  1  0  3  1  0  1  2  0  2  0  3  3  5
  1  2  4  5  4  1  5 13  4  2  7  2  4  5  9  5  6  5  0  9  5  4 11 16
  1  2  9  0 15  1  2 16  0  4 18 10  3 16  2  1 14 17  3 17  1  5  1 14
  1 18 19 18 23 16  8]"
9400,342,1.0,7,3,214.5852165222168,22.12925672531128,122,300800,1777825,11965769,"[ 2  2  3  0  0  3  5  3  2  5  3  3  0  3  1  0  1  2  0  2  0  2  5  7
  4  4  1  2  4  7  2  2 13  1  9 12  4  5  9  0  5  0  0  9  5  4  1 18
  4 16 12  2 15  1  2 13  0  4 18 10  3 18 15  1 21 15  0 22 19  4 16  0
  1 19 17 18 23 16  8]"
9500,342,1.0,7,3,216.81803679466248,22.328178882598877,122,304000,1795810,12091109,"[ 2  1  2  0  0  3  2  2  2  0  2  0  0  3  1  0  1  2  0  2  0  3  6  8
  2  7  2  3  2  7  3 12 11  4  6 12  4  5  9  0 11  1  0  9  5  1  1  1
  1 13  3  0 17 16  1 10  9  4 18 10  4  3  2  2 21 15  0 14  0  4  2 16
  0 21 22 18 23 16  8]"
9600,342,1.0,7,3,219.05336904525757,22.35330104827881,122,307200,1813606,12215206,"[ 4  1  3  0  0  3  2  2  0  5  0  1  0  3  1  0  1  2  0  2  0  5  2  8
  1  5  2  3  8  2  4  8  7  4  1  6  4  5  9  4  6 11  0  9  5  2  2  0
  1 14  3  0 11 13  0  0 17  4 18 10  2 16 17  3 20 17  4 17 14  2  0 20
  1 19  2 18 23 16  8]"
9700,342,1.0,7,3,221.31747841835022,22.641069889068604,123,310400,1831745,12341427,"[ 0  0  3  0  0  3  5  0  3  0  1  1  0  3  1  0  1  2  0  2  0  0  4  5
  3  1  7  1  8  3  2 13  3  4  1  7  4  5  9  0  8  0  0  9  5  4 16 17
  0 13 11  4 11 17  2  1  2  4 18 10  0  1 17  4 22 23  0 14  0  1 14  2
  3 18 17 18 23 16  8]"
9800,342,1.0,7,3,223.54650950431824,22.290287017822266,123,313600,1849629,12466059,"[ 1  2  1  0  0  3  1  1  0  0  0  2  0  3  1  0  1  2  0  2  0  5  4  7
  4  1  7  1  8  4  4  0  9  1  5  9  4  5  9  0 13  7  0  9  5  0 16 17
  3  9 15  0 15 14  0 10  1  4 18 10  4 22  0  2 23  1  1  0  1  4  0 17
  2 19 17 18 23 16  8]"
9900,342,1.0,7,3,225.73021578788757,21.837036609649658,123,316800,1867098,12588167,"[ 5  1  0  0  0  3  3  1  2  4  3  3  0  3  1  0  1  2  0  2  0  2  4  7
  4  0  7  3  5  7  4  9 12  1 11  8  4  5  9  2 12  2  0  9  5  0 11 15
  3 12  2  2 15  3  1 18  0  4 18 10  5 17 16  1 16 23  3  1 19  5 21 15
  2 19 15 18 23 16  8]"
10000,342,1.0,7,3,227.94932103157043,22.191028594970703,126,320000,1884947,12712694,"[ 3  0  3  0  0  3  5  0  3  5  3  3  0  3  1  0  1  2  0  2  0  0  5  0
  2  6  4  1  7  2  1  7 13  4 12  4  4  5  9  1 12  7  0  9  5  0 13  9
  5 16 13  0  3 17  0 15 10  4 18 10  4  2  0  5 21 19  3 17 16  0 17 14
  0 19  0 18 23 16  8]"
10100,342,1.0,7,3,230.33856630325317,23.892428874969482,127,323200,1903377,12841509,"[ 2  0  2  0  0  3  0  0  3  1  2  2  0  3  1  0  1  2  0  2  0  1  0  0
  0  6  4  4  4  8  2  4 11  0  5 12  4  5  9  3  4  2  0  9  5  3  1 14
  1 15 14  5 17 16  4 15  2  4 18 10  3 18 18  3 22 19  4  2 15  4 20 23
  4 22  2 18 23 16  8]"
10200,342,1.0,7,3,232.57314276695251,22.345738410949707,128,326400,1921343,12966787,"[ 1  1  0  0  0  3  0  1  1  2  1  0  0  3  1  0  1  2  0  2  0  2  6  1
  0  1  3  3  5  1  2  6  3  1  2 10  4  5  9  3  8  7  0  9  5  3 12 17
  1 13 18  2 11 16  4 10 18  4 18 10  0  3 20  2 18 23  2 18 17  4 22  1
  5 18 22 18 23 16 12]"
10300,342,1.0,7,3,234.7668957710266,21.937508583068848,129,329600,1938302,13085177,"[ 3  3  1  0  0  3  2  1  2  5  3  3  0  3  3  0  1  2  0  2  0  2  4  8
  0  1  3  0  0  0  1  9  7  4  6  9  4  5  9  3 13  5  0  9  5  3 16 13
  5 17 16  5  0  0  2  0 16  4 18 10  5  2 20  0 15 23  1 21 15  1  3  1
  3 23 20 18 23 16 12]"
10400,342,1.0,7,3,236.94630360603333,21.79405450820923,130,332800,1955813,13207216,"[ 4  0  2  0  0  3  3  2  0  0  1  0  1  1  0  0  1  2  0  2  0  3  1  2
  0  1  3  1  4  5  1  0  8  3 10  8  4  5  9  4  8  7  0  9  5  0 11  0
  2 11 14  5  9  0  1 14 18  4 18 10  1 16 20  2 23  2  0  3  1  4 14 23
  1  0  3 18 23 16 12]"
10500,342,1.0,7,3,239.11252403259277,21.662180423736572,131,336000,1972621,13324532,"[ 2  0  3  0  0  3  0  0  0  2  0  2  2  1  3  0  1  2  0  2  0  3  6  6
  0  1  3  5  7  4  5  9 12  1 13  1  4  5  9  3  2  7  0  9  5  2 17 14
  2 15 17  5 16  3  2  0  3  4 18 10  3 20 22  4 20  2  5 18  3  4 15  0
  4  2 17 18 23 16 12]"
10600,342,1.0,7,3,241.2912061214447,21.786794662475586,131,339200,1989868,13444382,"[ 5  0  1  0  0  3  5  2  1  1  3  3  3  1  2  0  1  2  0  2  0  1  5  1
  0  1  3  3  2  6  1 12  9  4  7  6  4  5  9  0 13  1  0  9  5  0 12 14
  3  1 11  0  9 11  1 12 16  4 18 10  3 16  1  2 14 23  2 22 20  5 19 23
  0  2 22 18 23 16 12]"
10700,342,1.0,7,3,243.4419183731079,21.50709867477417,132,342400,2006929,13563303,"[ 1  3  3  0  0  3  3  0  3  3  1  2  2  2  2  0  1  2  0  2  0  0  2  0
  0  1  3  1  1  6  1  8  3  2 10  8  4  5  9  3 13  8  0  9  5  3  0 18
  3 16  0  5  1 11  3  1 18  4 18 10  4 16 21  4 17  2  1  1 17  5 18  0
  5  3 15 18 23 16 12]"
10800,342,1.0,7,3,245.65525460243225,22.133336067199707,135,345600,2024113,13682979,"[ 2  2  0  0  0  3  3  1  3  4  1  0  1  0  1  0  1  2  0  2  0  1  3  1
  0  1  3  3  7  6  4 11 12  1  1  3  4  5  9  3 10  1  0  9  5  4  3  1
  0  1  1  0 10 17  3 12  0  4 18 10  5 23 21  4 18 21  4 16 19  1 22 14
  5 15 21 18 23 16 12]"
10900,342,1.0,7,3,247.76187252998352,21.066157817840576,139,348800,2040658,13798706,"[ 1  0  1  0  0  3  3  2  2  3  1  2  0  2  0  0  1  2  0  2  0  0  2  2
  0  1  3  2  2  0  4 13  0  3 11  3  4  5  9  2 13  2  0  9  5  1 18 10
  4 15 11  2 13 18  0 16 15  4 18 10  5 15 20  0 20 20  4 23  0  2 20 17
  1 19 20 18 23 16 12]"
11000,342,1.0,7,3,249.95824694633484,21.963717937469482,142,352000,2058074,13920014,"[ 5  2  2  0  0  3  0  2  2  0  1  3  2  1  1  0  1  2  0  2  0  2  6  5
  0  1  3  2  7  0  1  5  2  4  6  0  4  5  9  5 10  4  0  9  5  2  2  3
  1 17 15  4  1  1  0 17 15  4 18 10  3 17 22  4 17 17  2 21 23  5 18 21
  3  3 15 18 23 16 12]"
11100,342,1.0,7,3,252.1147985458374,21.565494537353516,145,355200,2075087,14038404,"[ 3  1  1  0  0  3  2  1  0  0  3  2  0  1  3  0  1  2  0  2  0  2  3  5
  4  6  4  1  2  2  5  2  6  2  1  5  4  5  9  3  4  7  0  9  5  0 15 15
  3 15 15  0 17  0  2 16 16  4 18 10  4  3  2  5  2 18  1  3 15  3 23 19
  3 14  1 18 23 16  8]"
11200,342,1.0,7,3,254.39867067337036,22.83869504928589,146,358400,2093113,14163914,"[ 0  3  2  0  0  3  3  1  3  4  0  2  0  1  3  0  1  2  0  2  0  1  4  2
  5  5  0  2  0  0  0  9  1  4  2  7  4  5  9  0  3  0  0  9  5  2 13 10
  5 15 14  3 18 13  3 13 16  4 18 10  0 17 15  4 17 17  3 19  2  3 22 23
  2 21 23 18 23 16  8]"
11300,342,1.0,7,3,256.6973600387573,22.98686981201172,147,361600,2110652,14286188,"[ 2  1  3  0  0  3  4  3  3  4  3  1  0  1  3  0  1  2  0  2  0  5  5  2
  4  3  3  3  4  4  2  5  8  0 11  9  4  5  9  5  3  0  0  9  5  0 11  1
  5 17  2  4 12 16  4 12  1  4 18 10  1 18 19  0  1  2  3 17 19  2 22  2
  4 23 16 18 23 16  8]"
11400,342,1.0,7,3,258.9060764312744,22.08714008331299,148,364800,2128462,14410446,"[ 1  1  1  0  0  3  5  3  1  1  2  3  0  1  3  0  1  2  0  2  0  0  2  1
  2  8  3  1  6  6  1  2  0  3  0  2  4  5  9  4  9  8  0  9  5  1  1 13
  3 17 10  1  1  9  5 14 13  4 18 10  1 18 15  5 20  1  5  0 14  3 23 17
  4  1 21 18 23 16  8]"
11500,342,1.0,7,3,261.1324779987335,22.263991832733154,150,368000,2146529,14536096,"[ 1  2  0  0  0  3  2  0  0  3  0  2  0  1  3  0  1  2  0  2  0  2  2  2
  4  3  7  2  0  6  4  4  4  0 12  3  4  5  9  2 13  4  0  9  5  2  1 14
  0  9 12  4 15 17  1 12  9  4 18 10  1 19 17  2 17 22  2 14 21  0  1 18
  2 23  2 18 23 16  8]"
11600,342,1.0,7,3,263.3751480579376,22.426674365997314,153,371200,2164881,14664215,"[ 0  3  2  0  0  3  4  2  1  4  2  0  0  1  3  0  1  2  0  2  0  0  4  4
  0  2  0  3  3  4  5  6  7  4  7  7  4  5  9  5  3  9  0  9  5  4 16 10
  1 14 10  1  1 11  0 15  3  4 18 10  2 22 14  1  0 16  0 20 17  4 15 14
  5 14 15 18 23 16  8]"
11700,342,1.0,7,3,265.6421093940735,22.669591903686523,154,374400,2182634,14788031,"[ 0  1  0  0  0  3  0  2  0  2  3  2  0  1  3  0  1  2  0  2  0  3  1  1
  2  8  1  3  2  3  2  3  8  3 10  9  4  5  9  3  0  4  0  9  5  0 12 14
  0 14 17  1 16 12  3  0  9  4 18 10  1 19 14  5 19  1  3 16 20  5  3  2
  0 19 14 18 23 16  8]"
11800,342,1.0,7,3,267.8695282936096,22.274153232574463,154,377600,2200594,14913071,"[ 2  3  0  0  0  3  1  0  2  4  0  2  0  1  3  0  1  2  0  2  0  1  0  4
  2  6  3  4  0  0  0  1  1  2  6  8  4  5  9  1  2 11  0  9  5  1  3 13
  4 12 10  0  0 11  5  1 11  4 18 10  5  2 20  0 20 16  3  1 15  0 18 16
  5 19 16 18 23 16  8]"
11900,342,1.0,7,3,270.1215772628784,22.520463466644287,156,380800,2218682,15039464,"[ 0  0  2  0  0  3  3  3  2  1  2  2  0  1  3  0  1  2  0  2  0  4  4  1
  3  0  6  2  4  4  5 10  4  1  6  8  4  5  9  1  9 11  0  9  5  3  9 14
  3 12 15  2 15  0  1 13 10  4 18 10  3 21 18  0 14 17  1 21 16  2  2 17
  1 14  2 18 23 16  8]"
12000,342,1.0,7,3,272.3504910469055,22.289116382598877,157,384000,2236550,15164062,"[ 0  1  2  0  0  3  2  3  1  0  2  2  0  1  3  0  1  2  0  2  0  0  4  7
  5  1  2  0  4  5  0  3  4  5  1  6  4  5  9  2  8  0  0  9  5  3  9 12
  4 15 12  1 13 16  3 15 13  4 18 10  4 23 15  4 23  3  0 16 23  3 21 16
  4 17 17 18 23 16  8]"
12100,342,1.0,7,3,274.55517768859863,22.04684019088745,158,387200,2254296,15287803,"[ 4  0  3  0  0  3  2  3  3  3  1  2  0  1  3  0  1  2  0  2  0  2  2  6
  4  6  5  0  6  0  5  1  9  2  9  7  4  5  9  2  9  6  0  9  5  0 18 12
  2 16  3  5 15  3  2  2 16  4 18 10  3 21  1  3  0 19  4 21 17  4 22 21
  3  3 14 18 23 16  8]"
12200,342,1.0,7,3,276.7715790271759,22.163989543914795,159,390400,2271848,15410589,"[ 4  3  2  0  0  3  1  0  3  3  1  1  0  1  3  0  1  2  0  2  0  3  0  4
  3  8  6  2  7  7  5 12  9  1  7  6  4  5  9  5  1  9  0  9  5  0  0 17
  5  3  3  3 15  1  4 12 10  4 18 10  3 21 23  0 20 19  2  3 14  0 17 21
  1 19 17 18 23 16  8]"
12300,342,1.0,7,3,278.9837553501129,22.121737003326416,161,393600,2289641,15534360,"[ 4  1  3  0  0  3  5  3  0  5  2  2  0  1  3  0  1  2  0  2  0  4  7  0
  2  0  2  2  6  8  3  5 13  4  1  1  4  5  9  4  7 13  0  9  5  4 14  0
  1 10 14  1 16 17  5  9 10  4 18 10  1 17  2  0 20 23  3 15 17  3 23 17
  3 23 21 18 23 16  8]"
12400,342,1.0,7,3,281.2224712371826,22.38713264465332,165,396800,2307698,15660151,"[ 0  0  0  0  0  3  4  0  3  1  1  2  0  1  3  0  1  2  0  2  0  1  5  3
  3  4  2  2  7  8  1 11  4  0  8  1  4  5  9  5  7 13  0  9  5  1 11 16
  4 13  1  2  0 16  3 14 11  4 18 10  5  3  2  0 23 18  0 14 23  0 17 18
  0 19 16 18 23 16  8]"
12500,342,1.0,7,3,283.5125651359558,22.900917530059814,165,400000,2325677,15785652,"[ 4  3  2  0  0  3  2  1  0  1  0  3  0  1  3  0  1  2  0  2  0  3  3  4
  2  1  8  4  5  0  5 12  7  2  5  1  4  5  9  3  6  1  0  9  5  5 14 11
  0  9 16  4 18 14  4  2 10  4 18 10  1 22 17  4  2  3  4 23 17  4 14 22
  0 20 15 18 23 16  8]"
12600,342,1.0,7,3,285.72388911247253,22.113218307495117,166,403200,2343596,15910430,"[ 0  3  3  0  0  3  5  1  1  5  3  2  0  1  3  0  1  2  0  2  0  5  6  6
  0  4  3  1  1  7  3  1 11  5 11  6  4  5  9  2  1 13  0  9  5  5 14  3
  1 18 12  2 17 18  5 13  9  4 18 10  4 14 16  3 18 17  5  1 17  3 23 14
  3 17  2 18 23 16  8]"
12700,342,1.0,7,3,287.92438411712646,22.004926204681396,169,406400,2361096,16032790,"[ 5  2  3  0  0  3  3  1  3  1  3  3  0  1  3  0  1  2  0  2  0  1  8  3
  1  6  2  3  8  7  2  2 11  2 11 10  4  5  9  1  5  6  0  9  5  3 10 12
  5 15  0  4 17  0  3 15 14  4 18 10  4  0  0  0 15 19  2 21 18  4 20  2
  2 20 21 18 23 16  8]"
12800,342,1.0,7,3,290.1513042449951,22.26917266845703,171,409600,2379062,16157966,"[ 4  2  0  0  0  3  4  0  0  1  2  1  0  1  3  0  1  2  0  2  0  2  8  2
  0  8  2  0  7  7  0 13 13  4 12  6  4  5  9  4  0  1  0  9  5  5 11  9
  2 16  0  3 11 17  3 10 10  4 18 10  5  1 19  2  2 19  3 22 23  0  3 20
  1 22 15 18 23 16  8]"
12900,342,1.0,7,3,292.4467625617981,22.954559326171875,173,412800,2397323,16284966,"[ 5  0  3  0  0  3  4  3  2  2  2  1  0  1  3  0  1  2  0  2  0  4  2  2
  0  2  0  1  4  5  1 13  0  2  5  5  4  5  9  1 13  6  0  9  5  1 11  9
  4 14 18  5 13 10  0  0  9  4 18 12  0  1 19  0  0 19  2 14 19  1  3 17
  5 18  1 18 23 16  8]"
13000,342,1.0,7,3,294.82501769065857,23.782525062561035,176,416000,2415141,16409126,"[ 3  1  1  0  0  3  3  1  1  4  2  3  0  1  3  0  1  2  3  2  3  5  0  2
  0  2  0  4  4  0  5  8  4  4  8  6  4  5  9  0  0  2  0  9  5  0  3  3
  5  9 11  2  2  9  0  0 12  4 18 17  1 15 20  0 21 17  4  3 14  4  1 18
  3 20  2 18 23 16  8]"
13100,342,1.0,7,3,296.9661531448364,21.411333084106445,177,419200,2432121,16527804,"[ 2  1  3  0  0  3  0  3  2  3  1  3  0  1  3  0  1  2  2  4  5  3  7  5
  4  2  6  5  8  8  5 10 12  4  5  6  4  5  9  0  0  2  0  9  5  0  3 17
  4  1  9  1 12  0  3 16 18  4 18 17  1  1  0  5 23 18  2 17 23  5 19 17
  4 20 21 18 23 16  8]"
13200,342,1.0,7,3,299.1851615905762,22.19006061553955,178,422400,2448899,16645147,"[ 3  3  3  0  0  3  1  3  0  5  0  1  0  1  3  0  1  2  0  4  2  0  4  2
  0  3  2  2  6  3  2  2  6  0  9  9  4  5  9  0  0  2  0  9  5  4 16 14
  0 11  2  4  2  0  5 12  2  4 18 17  1 23 20  3  2 23  1  1 16  5 16 20
  2 22 19 18 23 16  8]"
13300,342,1.0,7,3,301.32537937164307,21.402153968811035,178,425600,2465772,16762887,"[ 4  3  3  0  0  3  3  1  2  5  3  0  0  1  3  0  1  2  5  4  5  2  6  8
  1  6  1  2  0  8  5  7 13  4 13 12  4  5  9  0  0  2  0  9  5  3  1  3
  0 16  9  3  0  2  5 18 12  4 18 17  4 22 20  1 15 17  5 14 19  3 22 18
  0 22  3 18 23 16  8]"
13400,342,1.0,7,3,303.49974393844604,21.743624210357666,179,428800,2482904,16882265,"[ 5  2  2  0  0  3  1  3  3  5  2  2  0  1  3  0  1  2  0  3  0  2  8  5
  4  6  4  2  5  6  4  1  3  2  3  8  4  5  9  0  0  2  0  9  5  2 10  3
  0  1 18  2 15 13  0  3 13  4 18 17  5 16  1  0 16 22  4 16 22  4 16  3
  2 19 19 18 23 16  8]"
13500,342,1.0,7,3,305.7394392490387,22.396929264068604,181,432000,2500938,17008255,"[ 3  3  2  0  0  3  0  1  1  5  1  2  0  1  3  0  1  2  2  8  2  5  4  7
  4  0  1  2  5  0  5 10  0  2  3 11  4  5  9  0  0  2  0  9  5  5  1 14
  0  1 13  5 15 13  2  2  2  4 18 17  0  0 18  5 23  2  3 15  1  5  3 22
  0 19 14 18 23 16  8]"
13600,342,1.0,7,3,308.0045065879822,22.650647163391113,182,435200,2518347,17129727,"[ 0  0  1  0  0  3  0  2  1  4  2  2  0  1  3  0  1  2  2  6  5  2  7  0
  2  2  0  1  6  0  2  4 11  0 12 10  4  5  9  0  0  2  0  9  5  0  0 15
  3 10 10  5 15  1  0 17 13  4 18 17  3 21 19  0 18 19  0 14 15  3 20 20
  5 14 14 18 23 16  8]"
13700,342,1.0,7,3,310.2140197753906,22.095110416412354,183,438400,2535315,17248699,"[ 4  1  1  0  0  3  5  2  1  0  3  1  0  3  3  0  1  2  5  6  3  5  8  1
  1  1  7  1  0  0  2  8  6  4  1 12  4  5  9  0  0  2  0  9  5  1  9  0
  0 17  1  5 11 15  1 16 10  4 18 17  3  2  2  0 19 18  2 18  0  4 15  2
  1  2  1 18 23 16  7]"
13800,342,1.0,7,3,312.3353023529053,21.212804317474365,184,441600,2552067,17365761,"[ 1  0  1  0  0  3  4  1  3  0  3  1  2  1  3  0  1  2  5  0  6  1  7  2
  1  3  3  1  0  6  3  6  9  2  9  5  4  5  9  0  0  2  0  9  5  3 15 17
  5 17  3  2 11 17  3 13 18  4 18 17  3 23  1  0 14 23  1 14  1  4 23 20
  1 22 17 18 23 16  7]"
13900,342,1.0,7,3,314.47687578201294,21.41571044921875,186,444800,2568815,17482542,"[ 1  2  0  0  0  3  1  2  1  0  3  1  2  2  2  0  1  2  0  5  1  4  0  1
  1  2  8  0  2  5  4  5  9  0  1  2  4  5  9  0  0  2  0  9  5  0  3  2
  4 17  0  2 13 13  5 17 11  4 18 17  4 22  0  3 22 16  5 18 14  5  2 17
  3 20  2 18 23 16  7]"
14000,342,1.0,7,3,316.6584634780884,21.815853118896484,188,448000,2586281,17604173,"[ 3  0  3  0  0  3  4  2  0  0  3  1  1  1  2  0  1  2  4  8  6  2  7  2
  5  8  6  3  4  6  0  1 11  3  4  9  4  5  9  0  0  2  0  9  5  5  2 16
  2 18 10  1  1  3  5 12 11  4 18 17  4 16  2  0 23  1  2 16  3  5 17 20
  3 15 17 18 23 16  7]"
14100,342,1.0,7,3,318.8534326553345,21.949667930603027,189,451200,2603753,17725895,"[ 3  0  1  0  0  3  3  1  2  0  3  1  1  0  0  0  1  2  0  7  7  3  4  4
  4  3  7  4  1  6  3  1  0  1 10 11  4  5  9  0  0  2  0  9  5  4 17 18
  1 13  3  4  0  3  0  9  0  4 18 17  4  0 15  3 21 15  4  0 23  5  2 15
  2 18 20 18 19 16  7]"
14200,342,1.0,7,3,320.9864594936371,21.330242156982422,189,454400,2620421,17842352,"[ 4  0  3  0  0  3  1  2  3  0  3  1  2  2  2  0  1  2  1  4  2  3  7  0
  5  3  5  1  0  2  2  6  7  0  6  0  4  5  9  0  0  2  0  9  5  4 17 18
  5 13 14  2 11 11  1 12  1  0  9  3  2 20 16  1 18 14  2 22 16  3  1  2
  2  3 23 18 19 16  7]"
14300,342,1.0,7,3,323.1461229324341,21.59661054611206,190,457600,2637412,17961127,"[ 1  2  0  0  0  3  5  3  0  0  3  1  3  3  1  0  1  2  3  5  4  4  7  4
  0  3  0  1  8  6  5  4  5  1 12  8  4  5  9  0  0  2  0  9  5  4 17 18
  2 14  0  3 12 14  3 12 10  5 18  0  4  2 19  4 17 23  1 21 19  5 22 16
  4 21 16 18 19 16  7]"
14400,342,1.0,7,3,325.3236634731293,21.775379180908203,191,460800,2654647,18081355,"[ 3  0  3  0  0  3  0  1  1  0  3  1  4  0  2  0  1  2  1  2  5  5  6  3
  1  1  8  1  3  6  1 13 13  4  4 11  4  5  9  0  0  2  0  9  5  4 17 18
  3 12 12  5 12 18  5 11 12  1 15  0  4 20 17  1 14 21  3 14 20  1  1  1
  1 16  2 18 19 16  7]"
14500,342,1.0,7,3,327.4591360092163,21.35469913482666,192,464000,2671509,18199056,"[ 3  0  1  0  0  3  1  0  2  0  3  1  0  0  0  0  1  2  2  1  7  4  1  5
  3  4  3  3  1  3  3  8  9  2 10  8  4  5  9  0  0  2  0  9  5  4 17 18
  4  9 11  1  0 18  2 18  2  0 11  1  1 20 17  2 22 18  4 15 20  5 20  2
  2 21 14 18 19 16  7]"
14600,342,1.0,7,3,329.70750737190247,22.483692169189453,193,467200,2688532,18317883,"[ 1  1  3  0  0  3  3  1  3  0  3  1  3  1  1  0  1  2  4  1  5  0  2  1
  2  0  7  4  7  5  2 13 12  4 10  0  4  5  9  0  0  2  0  9  5  4 17 18
  2 15  0  0 14 16  0  3  2  5 13 13  2 15 21  2  3  0  5 17 15  2 20  0
  2 21 18 18 19 16  7]"
14700,342,1.0,7,3,331.80073499679565,20.932250022888184,194,470400,2704996,18432640,"[ 0  3  1  0  0  3  1  2  1  0  3  1  3  0  2  0  1  2  3  0  8  1  7  0
  5  4  3  5  2  6  0 13 13  2  5  7  4  5  9  0  0  2  0  9  5  4 17 18
  3 11 13  1  1 17  3  3 11  4 17 15  3 15 19  4 20  1  2 15  1  0 18  3
  1 15 22 18 19 16  7]"
14731,343,1.0,7,2,332.53710651397705,23.753835308936335,195,471392,2710326,18469810,"[ 0  1  2  0  0  3  1  3  0  0  3  1  2  0  2  0  1  2  2  0  2  1  6  5
  5  6  3  5  4  0  0  2  0  3  8  7  4  5  9  0  0  2  0  9  5  4 17 18
  4  2 13  2  1 17  3 18 11  4 15 18  3 22 19  3  2  2  4 15  1  0 19  3
  1 15  0 18 15 16  7]"
