generation,fitness,functionality,active_nodes,longest_path,time,gen_time,nc_gens,fitness_evals,graph_evals,node_evals,genotype
0,254.0,0.71875,14,4,0.023450613021850586,23.445606231689453,0,0,0,0,"[ 2  1  1  1  3  1  0  0  2  3  1  2  1  1  0  1  0  0  1  2  3  2  0  5
  1  4  7  4  9  6  4  3  9  3  0  7  0  1  0  4  3 11  4  9 13  1 12 12
  1  5  9  3  9  8  4 13 11  1 16 16  3 11  3  1 19 11  0 15 21  4  8 20
  5 10  4  1 11 17  4 14 22  5  4 11  2  1 17  2 12  4  2 15 27  5 18 19
  5 20  3  2 26 11  1  2 28  4 22 31 18 26 30  3]"
100,292.0,0.8125,7,3,1.6134703159332275,15.900151729583742,32,400,5624,61616,"[ 5  1  1  1  3  2  1  2  0  3  0  3  1  3  0  4  2  2  2  3  3  4  0  5
  1  4  8  4  8  2  4  0  0  3  0  3  1 15  9  0  3 11  3 14  1  5 12  2
  1  2 10  3  8  3  4 13 11  2 19 16  5  3 15  1 11  1  0  8 21  2  8 14
  5  6  4  0 11 25  1 19 22  5  4 27  2 25 17  2 14 21  3  0 17  5 18 15
  4 20 16  2 21 22  0  2 24  1 22  2 26 26 22  1]"
200,304.0,0.84375,5,3,2.7839114665985107,11.704373359680176,83,800,11054,94618,"[ 1  1  1  1  1  3  1  2  1  3  1  2  5  3  3  1  0  3  4  6  3  4  0  6
  4  4  0  0  4  2  4  2  0  2  2  1  1 15  3  1  2  1  0 11  6  1  9  9
  2  0  0  5  3  3  0  2  4  1 12 14  3  3 15  5  3 15  3  2 16  4 15  4
  5 16  5  0  0 25  0 19 19  4 11 11  2 17  9  5  5  4  3 28 16  1 30 21
  1 20  0  1 22  2  4 10 24  4 26  2 26 26 29  1]"
300,310.0,0.875,8,4,3.71140718460083,9.274916648864746,137,1200,16166,126230,"[ 1  3  3  5  0  3  4  1  2  3  3  3  4  1  3  0  3  0  5  0  3  3  0  6
  4  8  3  0  5  6  4  3  5  2  2  1  1 15  0  1 13  2  3 11  7  1  2  7
  1  4  0  3  5 13  5  0  7  4 12  0  2  3  6  5  3 15  3  1 16  3 15  4
  4 21 11  0  0 25  5  0 16  3  8 22  3 10  8  5 25 27  4 18 14  0 16  3
  0  0 23  0 19 29  2 25 19  1 22 12 26 37 29  3]"
400,312.0,0.875,7,3,4.67033576965332,9.589252471923828,200,1600,21431,169123,"[ 5  1  1  0  0  2  4  3  2  4  0  0  2  3  3  5  3  1  5  0  2  3  6  6
  4  6  5  1  8  6  4  6  5  2  2  1  0 15  2  5 13  3  2 11  8  0  2  2
  1  7  5  3  5 13  2 16  7  5  8 12  2 20 13  5  3 15  3 19 15  3 13  9
  1 15 14  0  0 25  5 20 20  4  8 22  4 10  8  5 25 27  2 16 27  0 26  3
  1  0 24  0 10 19  1 25 14  4 25 12 26 37 29  1]"
500,313.0,0.875,6,3,5.77974271774292,11.094040870666504,269,2000,26686,207471,"[ 0  0  3  5  3  0  1  3  3  2  0  0  2  0  3  5  1  1  3  5  0  4  3  7
  3  5  0  2  2  5  4  6  1  2  2  1  0 15  9  5 14  6  2 11  8  0  2  2
  3  0  6  5  4 13  2 16 19  5  8 12  1 20 12  5  3 15  3 19 15  2 13  9
  4 15 14  0  0 25  1  5  7  4 14 22  3 11  2  3 22 27  4 16 26  5 25 24
  1 16 32  0  0 19  1 12 20  2 26 21 26 37 29  1]"
600,314.0,0.875,5,3,6.859891414642334,10.801448822021484,336,2400,31901,242324,"[ 0  2  3  3  2  1  0  1  1  2  0  0  4  0  1  5  0  0  2  4  3  4  0  7
  1  2  7  4  1  3  4  9  1  2  2  1  1 13  9  2 14  5  1 11  5  5  4  2
  3  4 12  4  3 13  2  7 19  1  1 12  2  2 16  5  3 15  3  2 15  5  5  3
  4 13  1  0  0 25  5 27  7  3 27 22  0 13  6  1 24 22  4 16 10  1 25  3
  2 20  1  0  0  2  5 28 27  1 24 19 26 37 29  1]"
700,322.0,0.90625,7,3,7.89223051071167,10.323355197906494,400,2800,36881,274280,"[ 3  3  1  3  3  0  3  2  0  3  2  0  2  2  3  5  0  1  2  5  5  1  7  2
  0  2  1  2  9  6  3  6  3  2  2  1  2  9  0  2  5  3  4  4 12  4  4  7
  3 13 10  4 14  2  2  9 20  4  3 20  2  9  8  5  3 15  3 14 15  5 10  8
  0 14 18  0  0 25  5 15 20  5  3 13  0 20 14  0 12  5  0  0 16  1 25  3
  2  0 11  0  0  2  4 28 27  4 31 28 26 37 29 26]"
800,322.0,0.90625,7,3,8.807806491851807,9.155728816986084,452,3200,41366,308470,"[ 3  3  3  1  3  1  0  0  2  3  2  3  3  3  3  5  0  1  2  2  2  0  8  9
  0  4  1  2  9  6  3  7  3  2  2  1  0  8  6  3  8  3  4  4 12  3  8  1
  3  9 13  4 14  2  2 16 15  1 15  3  2  1  7  5  3 15  3 14 15  1  1 11
  0 15  1  0  0 25  1  1  4  4  3 21  0 23 16  0 12 17  0 19  2  1 13 28
  0 16 27  0  0 14  4 15 20  1 31 19 26 37 29 26]"
900,322.0,0.90625,7,3,9.617754459381104,8.099446296691895,513,3600,45727,341527,"[ 3  3  2  3  3  1  5  0  0  5  3  2  2  2  0  1  0  2  5  4  2  3  0  2
  0  3  6  2  9  1  3  4  3  2  2  1  0  2 14  3  3 10  1  4  9  2  9  7
  2 10 14  0 11  4  0 19  1  5  5  4  5  5 20  5  3 15  3 14 15  5 11  2
  4 15  7  0  0 25  4 18 25  0  2 13  5  7 25  5 19 15  4 29 20  1 25 15
  0 29 16  0  0 14  2 31  2  3 28 29 26 37 29 26]"
1000,322.0,0.90625,7,3,10.704814434051514,10.870552062988281,570,4000,50079,374696,"[ 3  1  3  4  0  3  3  0  0  2  3  0  0  0  1  4  0  2  0  7  8  3  8  1
  4  4  1  3  7  2  5  4  3  2  2  1  4  1  1  0  0 10  1  0 11  5 13 12
  5  3 15  4  7  4  5  4 11  2  2  4  3 13 18  5  3 15  3 14 15  2 15  3
  5  2 12  0  0 25  5 17 25  5  2 26  5 19 25  3 17  2  0 26 20  2 11 20
  1  0 22  0  0  2  0 18  2  2 11 29 26 37 29 26]"
1100,323.0,0.90625,6,3,11.503836154937744,7.990183830261231,637,4400,54732,406563,"[ 3  1  2  0  2  3  3  1  0  3  3  3  0  0  1  4  0  2  0  7  6  3  4  5
  4  4  1  3  1  2  3  3  3  2  2  1  5  1  1  0  6 10  2  6  5  5  5  1
  5  3  7  4  7  5  3 10 11  2  4  4  2  6 13  5  3 15  3  7 15  3  0  3
  5  2 12  0  0 25  5 17 25  0  6 16  5 27 15  5 26  7  2 16 12  2 28 12
  1 29 20  0  0  2  5 18  2  1  0 29 26 37 29 26]"
1200,333.0,0.9375,6,3,12.382658004760742,8.788177967071533,683,4800,59340,437520,"[ 3  1  1  0  1  3  1  3  3  4  2  2  3  0  1  4  2  2  1  9  8  4  4  5
  4  5  1  2  7  2  4  0  7  2  2  1  3 11  9  0  1 10  4 15 14  3 15 11
  0  6 11  2  1  7  0  2 11  2 15  3  4 17 21  5  3 15  3 12 20  3  4  3
  5  4 14  0  0 25  5 24 14  5 20 21  5 14  0  2 13 16  4 16 30  0 28 20
  1 18 25  0  0  2  3 16 19  1 15 14  7 37 29  5]"
1300,333.0,0.9375,6,3,13.353255033493042,9.705934524536133,740,5200,63794,466461,"[ 5  2  3  0  1  3  1  1  3  4  2  2  1  2  0  4  1  3  5  2  4  1  9  5
  0  7  1  3  5  1  1  7  6  2  2  1  2  3  3  2  0  2  0 11 14  3  8 12
  4  5 11  1  1 15  3 12 17  2  5  9  1  3 12  5  3 15  0 13 18  2  5 17
  3  7 19  0  0 25  5  1  2  5  6  4  2 14  6  3 24 19  4 25 12  2 10 31
  5 32 18  0  0  2  5 15 13  1  0 12  7 37 29  5]"
1400,333.0,0.9375,6,3,14.210938692092896,8.57680082321167,802,5600,68245,494524,"[ 3  2  1  0  1  3  4  3  3  4  2  2  3  0  1  3  0  1  5  2  4  1  9  7
  0  1  1  3  5  1  1  5  1  2  2  1  4  5  4  2  0  2  5 11  3  3 10  6
  5 14  2  0 15 12  1 12 12  1  6  2  1 12 12  5  3 15  2  2 18  2  5 19
  0 15 18  0  0 25  5 17  2  0  4 15  4 14  1  4 14 26  4 25 19  2 32 31
  1 19 29  0  0  2  5 19 21  3 29 15  7 37 29  5]"
1500,333.0,0.9375,6,3,15.193659782409668,9.827160835266113,867,6000,72652,522630,"[ 3  1  2  0  1  3  0  3  1  4  2  2  3  1  3  1  3  3  1  3  2  5  9  3
  4  4  1  5  1  1  1  5  6  2  2  1  4 15 15  5  0  1  1  5  8  0  7  3
  5 14 14  1  5 12  2  0 11  4  2  7  4  9 18  5  3 15  2 17  8  2  1  4
  5 18  8  0  0 25  5 10  3  0 26 24  3 14  1  4 14 12  4  1 30  1 18 23
  1 19 30  0  0  2  1 31 21  4  2 18  7 37 29  5]"
1600,333.0,0.9375,6,3,16.171629905700684,9.779665470123291,929,6400,77099,551288,"[ 2  1  2  0  1  3  2  2  2  4  2  2  3  3  0  1  0  3  1  1  5  2  6  3
  3  4  2  2  9  4  1  8  9  0  6  5  3  7 12  5  8  5  2  6  5  0 14 14
  5 14 15  3 12 12  2 15 16  5 19  6  2  6  7  5  3  4  3  1 15  3  1  8
  2 13  8  0  0 25  4  1  1  0 11 17  3 15  1  4 24 14  3  2 29  4 18 21
  2 15 16  0  0  2  5 31 10  2 10 13  7 37 29  5]"
1700,333.0,0.9375,6,3,16.894917964935303,7.232842445373535,987,6800,81409,578774,"[ 2  1  2  0  1  3  3  2  0  4  2  2  0  2  2  1  2  1  3  0  0  0  6  3
  1  8  3  2  0  5  1  8  3  3  6  2  3  7 13  1 14 12  4  4  3  5 14 14
  4 14 15  3 12 12  2  9 21  4  3  0  5 21 18  5  3  4  0  8 12  2  1 18
  4 27  8  0  0 25  4 12  8  2  2 17  1 25 14  4 23 13  3 21  3  4 31 21
  2 32 27  0  0  2  0 10  3  1 31 27  7 37 29  5]"
1800,333.0,0.9375,6,3,17.87174892425537,9.768261909484863,1050,7200,85878,607549,"[ 2  1  2  0  3  1  0  2  0  4  2  2  5  2  1  1  1  0  4  1  3  0  1  3
  0  8  7  4  4  4  1  5  9  4  2  2  3  9  7  1  2  3  4  7  4  0  6 14
  0 13  6  3  9  8  5  8 21  5 17  7  5 20 18  5  3  4  0  4  9  2  5  7
  0 27 26  0  0 25  3  1  8  4  6 12  1 25 14  5  8 14  2 26 27  4 20 22
  4 23 27  0  0  2  3 18  2  3 31  2  7 37 29  5]"
1900,333.0,0.9375,6,3,19.001858472824097,11.30103588104248,1108,7600,90299,636399,"[ 2  1  2  0  3  1  4  2  2  4  2  2  5  3  1  1  3  3  1  2  7  2  2  6
  0  6  5  4  4  8  1  5  2  4  9  0  2  9  9  2 13 13  4  4  6  1 12  6
  0  4 13  5 15  8  5  4 21  2 18  7  5 20  4  5  3  4  1  4  9  5 19 13
  5 27 26  0  0 25  1  6 17  4 20 12  0  7 16  0  4 22  2 11 11  3 29 10
  1 20  1  0  0  2  0 18 23  5 17 29  6 37 29  5]"
2000,333.0,0.9375,6,3,19.854247093200684,8.52384328842163,1163,8000,94869,664898,"[ 2  1  2  0  3  1  4  2  2  4  2  0  4  0  3  3  3  3  1  3  7  1  3  8
  0  3  5  4  1  8  1  7  5  0  9  6  2 13  9  5  0 12  2  0  1  4  5  8
  1  7  7  3  3  3  5 18 21  5 10 12  3  8  2  5  3  4  3  2  9  2 20  7
  2  5  7  0  0 25  2 18 17  4  0 12  0 11 16  5 12 23  4 20 11  0 11 11
  3 13  1  0  0  2  1 23  0  0 31 33  6 37 29  5]"
2100,333.0,0.9375,6,3,20.774041175842285,9.19790506362915,1226,8400,99307,693340,"[ 2  1  2  0  3  1  4  2  2  4  2  2  4  0  3  5  0  3  1  2  4  0  3  6
  1  1  0  4  1  8  1  4  7  1  5  6  2 14  9  5  5 12  4  2  1  4  9 12
  1  3  7  1  6  0  5  0  8  3 10 12  1 12  2  5  3  4  0 16  4  1  4  6
  0  6  7  0  0 25  0 12  6  4  7 17  0  4 24  4 10 23  5 26 10  5  0 26
  3 13 12  0  0  2  5  3 26  0 29 14  6 37 29  5]"
2200,336.0,0.953125,8,3,21.81773090362549,10.436861515045166,1277,8800,103705,728427,"[ 2  1  2  0  3  1  4  2  2  4  0  1  3  0  3  4  0  2  3  7  9  0  3  9
  3  8  7  2  4  0  1  4  5  5  6  1  4 14 12  5  3  7  2 15  1  5  6  7
  1  1 11  4  6  0  0 14  8  1 14 21  4 12 17  5  3  4  5 14  7  1  8  0
  2 26  7  0 27 25  5  8  6  2 25 20  5 23 23  0  3 12  5 19 29  0  0 27
  1 23 22  0  0  2  4 10 31  0  3 25  6 37 29  5]"
2300,341.0,0.96875,8,3,22.585106372833252,7.6737141609191895,1325,9200,107326,757803,"[ 2  1  2  0  3  1  5  2  1  5  2  0  2  3  3  1  1  2  2  2  4  3  2  4
  2  5  0  2  4  6  0  8  0  5  6  4  0  3 12  4  3 13  2 15  1  5 11 10
  4 12 14  0  9  0  3  9  4  0  4  1  0 12  6  5  3  4  1  0  3  1  8  0
  0  9 12  5 27 25  4  1  6  5  5  7  0 20  3  3 11  7  4 16 20  2 18 27
  2 14 14  0  0  2  4 15  3  0 15 31 11 37 29  5]"
2400,341.0,0.96875,8,3,23.41695761680603,8.318479061126709,1380,9600,110766,786075,"[ 2  1  2  0  3  1  5  2  2  2  1  0  2  3  3  1  3  3  5  2  1  3  2  4
  3  5  5  5  4  6  2  5  0  3  6  4  2  0 12  0 13  0  1  8 12  2  1  4
  4 10  2  5 11 14  1 17 19  1  0 19  0 20  6  5  3  4  3  0  3  1  8  0
  2 18 27  5 27 25  4  9 17  5  5  7  1 17  6  3 20 15  4  2 29  5 16 21
  3 18 21  0  0  2  3 14  3  0 15 31 11 37 29  5]"
2500,341.0,0.96875,8,3,24.193076133728027,7.7611517906188965,1433,10000,114263,814625,"[ 2  1  2  0  3  1  4  0  1  5  0  0  2  3  3  2  0  1  2  8  1  3  1  4
  3  2  6  5  3  8  2  1  8  2  5  9  2  0  4  0  6 15  5  6  1  2  2  0
  5  0  2  5  9  2  1 17  7  0  0 19  2 19  6  5  3  4  4  0 20  1  8  0
  5 15 13  5 27 25  3  7 21  3 24  7  5 14 27  2 20 11  2  2  0  2 11 11
  4 18 12  0  0  2  0 14  0  0 15 23 11 37 29  5]"
2600,341.0,0.96875,8,3,24.96797251701355,7.748928070068359,1486,10400,117665,842502,"[ 2  1  2  0  3  1  4  0  2  3  0  2  3  3  0  2  3  3  3  7  8  3  1  4
  4  6  2  1  2  7  1  1  4  1  3  0  2  0 14  4  3  0  4  6  1  0 15  0
  5  3 12  4  9  5  4 16 19  3  0 19  2 13  3  5  3  4  4  0 20  4  8  0
  5 14 21  5 27 25  0  6 21  5 24 22  1  9  3  2 20 11  4 23 14  0 26 11
  5 18 24  0  0  2  3 14 23  1 19 23 11 37 29  5]"
2700,341.0,0.96875,8,3,25.974828481674194,10.06852388381958,1536,10800,121122,871015,"[ 2  1  2  0  3  1  2  1  0  5  0  2  3  3  0  2  2  1  5  7  9  3  2  4
  5  3  2  4  1  6  1  6  4  4  1  3  4 14  1  3  3  3  4  6  5  1 10  0
  3 13  2  3  4 10  0  2  3  3 14 20  1 15 10  5  3  4  5  7 20  1  8  0
  2 11 21  5 27 25  0 27 23  2 16 10  0 11 14  1  2 24  0 19 14  4 10 26
  5 12 19  0  0  2  0 14 27  3 20  2 11 37 29  5]"
2800,341.0,0.96875,8,3,26.845649480819702,8.708176612854004,1592,11200,124520,899142,"[ 2  1  2  0  3  1  1  1  0  3  3  2  2  3  3  2  3  1  4  4  5  3  1  4
  5  2  8  0  4  1  1  6  2  1  9  2  4 14  1  3  3  3  5  2 15  1 10  8
  2 13 13  4 13 10  1 17 20  3  0  7  1 20 10  5  3  4  5 16 15  1  8  0
  3  3 21  5 27 25  0 24 11  4 16  2  3 20  0  1 18  0  1  3 24  4 13  3
  3 32 19  0  0  2  3 28 27  2 32 23 11 37 29  5]"
2900,341.0,0.96875,8,3,27.541513919830322,6.958599090576172,1643,11600,127854,926727,"[ 2  1  2  0  3  1  2  1  0  3  1  2  3  3  0  2  3  1  4  4  5  3  2  4
  5  6  9  4  7  1  3  6  0  1  0  8  5 10  4  1  3  5  0 15 14  5 10  0
  0  9 13  5  5  2  4 17  6  4 18 15  4 20 10  5  3  4  2  9  8  4  8  0
  3  5 12  5 27 25  3 24 25  3  2  2  2 20  9  0  3  0  4  1 17  3 17  1
  3 21 19  0  0  2  3 20 16  2  2 20 11 37 29  5]"
3000,345.0,0.984375,9,3,28.29745626449585,7.559390068054199,1696,12000,131026,954038,"[ 2  1  2  0  3  1  2  3  0  4  1  1  2  3  3  3  1  2  4  4  5  3  6  4
  4  5  4  4  3  1  2  8  3  0  8  4  0  0  7  5  3  2  3  0 14  5  8  1
  3  8 13  5  6  2  4  1  8  2 11 13  4  9 10  5  3  4  4 20  2  1  8  0
  3  5 23  5 27 25  5 24 18  4 27 19  4 20 24  5  2  4  4  1 22  3 25 32
  5 14 14  0  0  2  4 12 16  2 12 24 11 37 29  5]"
3100,345.0,0.984375,9,3,29.044129848480225,7.466685771942139,1754,12400,134047,981171,"[ 2  1  2  0  3  1  2  3  0  4  1  1  2  3  3  2  3  2  4  4  8  3  6  4
  2  8  4  5  3  7  1  4  3  1  9  4  0 10 15  5  3  2  0 15 10  4 15 12
  3  1 11  0  6  2  4  1  8  1  9 13  3  0  1  5  3  4  4 18 12  1  8  0
  3  5 23  5 27 25  2 16 17  4 25 26  4 20 16  3  2 19  4 25  1  2 11 32
  5 14  3  0  0  2  2 24 13  5 19  0 11 37 29  5]"
3200,345.0,0.984375,9,3,29.849419593811035,8.052849769592285,1806,12800,137134,1009147,"[ 2  1  2  0  3  1  2  3  0  2  1  0  5  3  0  2  3  3  5  6  8  3  6  4
  0  4  0  4  3  7  5  0  5  0  7  0  0  2  6  1  3  2  1 15  5  4 13 12
  1  8 10  3 15  9  5 12  2  1  6  7  3  0  2  5  3  4  3 19  8  1  8  0
  2  0  0  5 27 25  3  5 19  0 25 26  0 17 25  0 26 23  4 18 13  5 17  0
  5 14 16  0  0  2  3 21 13  5 18 32 11 37 29  5]"
3300,345.0,0.984375,9,3,30.5528244972229,7.034015655517578,1863,13200,140093,1036155,"[ 2  1  2  0  3  1  2  3  0  5  0  2  5  3  0  0  3  1  5  6  8  3  6  4
  0  9  0  4  3  2  4  8  1  0  7  7  2  7 13  5  1  8  1  5 12  2 13 14
  0  3  6  3 10  5  3  4 11  0  4 13  5 17  2  5  3  4  0 19  8  1  8  0
  2 17  0  5 27 25  3 25  6  2  8 26  1 16  1  5 19 20  4  1 21  3 11 10
  2 13 12  0  0  2  0 18 12  2 18 14 11 37 29  5]"
3400,345.0,0.984375,9,3,31.37234354019165,8.19514513015747,1930,13600,142981,1062370,"[ 2  1  2  0  3  1  2  3  0  4  0  2  3  3  0  0  0  1  2  1  6  3  6  4
  3  9  0  4  3  8  4  9  6  5  4  3  2  7 13  1 10  9  2  4  6  2  4 10
  0  6  7  4 10 11  2  7 11  0  4 15  2 20  2  5  3  4  4  8  8  4  8  0
  1  7  6  5 27 25  3 25  6  0  4 17  0 16  1  5 19 20  4  1 21  3 17 10
  5 22 12  0  0  2  0 23 33  5 18 25 11 37 29  5]"
3500,345.0,0.984375,9,3,32.03887319564819,6.665248870849609,1979,14000,146060,1090270,"[ 2  1  2  0  3  1  2  2  3  4  2  1  3  3  0  2  0  3  3  6  6  3  9  4
  0  8  8  5  3  0  2  0  3  5  1  0  3  0 15  2 15  1  2 13  5  5 15  9
  3 12 15  3  9 12  2 10 14  5 17 13  3  4  8  5  3  4  1  0  7  4  8  0
  4  3 11  5 27 25  3 26  3  4  4 17  5 10 20  4 21 20  4 27 18  1 28 28
  2 33 11  0  0  2  0 16 30  1 25 27 11 37 29  5]"
3600,345.0,0.984375,9,3,32.87558126449585,8.367035388946533,2036,14400,149021,1117388,"[ 2  1  2  0  3  1  1  0  1  4  1  0  5  0  3  2  0  3  3  7  7  3  9  4
  1  6  8  0  9  0  2  0  5  3  5  9  2 14  6  2  8 14  4 14  0  1 12  4
  3 12 15  3  7 13  4 18 14  3 20 11  3  1  1  5  3  4  3 14  7  1  8  0
  5 25  1  5 27 25  2 17  5  2 11  2  5  1 19  1  1 20  0 23 32  3 15 28
  2 12 28  0  0  2  0 20 12  3 20 32 11 37 29  5]"
3607,347,1.0,12,5,32.98183536529541,15.178680419921875,2037,14428,149277,1119733,"[ 2  1  2  0  3  1  1  0  1  4  2  1  5  0  3  2  0  3  3  7  8  3  9  4
  2  2  8  0  9  0  2  0  5  3  5  9  2 14  6  2  8 10  4 14  0  1  8  4
  3 12  4  3  7 13  4 18  2  1 20 11  3  1 12  5  3  4  3 14 18  1  8  0
  5 25  1  5 27 25  2 17  5  2 23  2  3  1  9  1  9 20  0 23 32  3 15 28
  0 12 28  0 22  2  0 20 28  3 17 32 11 37 29  5]"
3700,347,1.0,12,5,33.716312885284424,7.897556469004641,2084,14800,151630,1147665,"[ 2  1  2  0  3  1  2  3  3  0  2  2  5  0  3  2  0  3  0  8  5  3  9  4
  5  4  8  0  5  8  4  5  0  3  2  2  0 14 15  0  4  9  2 14  0  0 13  0
  3 15  4  0  7  9  2 18  2  2 20  7  3  0 20  5  3  4  0 17 18  1  8  0
  5 25 15  5 27 25  1 13 15  5 19  2  4 24 26  4  6  9  0 23 27  5 14 28
  4 14  2  5 22  2  0 32 23  2  2 32 11 37 29  5]"
3800,347,1.0,12,5,34.476898431777954,7.6058220863342285,2143,15200,154078,1176544,"[ 2  1  2  0  3  1  2  3  3  0  2  2  5  0  0  2  0  3  4  4  2  3  9  4
  2  4  9  0  9  6  4  5  0  0  2  2  2 14 15  2 14 13  2 14  0  0  9  8
  3  9 15  0  5  5  4 18  2  0  5  7  3  0 16  5  3  4  0 20 18  1  6  0
  2 20  1  5 27 25  1 27 10  5 24  2  4 15  7  0  6  9  4 27 27  5  0 14
  1  0 19  0 22  2  3 32 23  4 27 11 11 37 29  5]"
3900,347,1.0,12,5,35.18372440338135,7.068226337432861,2192,15600,156609,1206528,"[ 2  1  2  0  3  1  2  0  0  5  3  2  5  0  3  2  0  3  4  4  2  3  9  4
  4  2  6  3  4  3  2  5  2  3  9  0  4 14 15  2  9 14  2 14  0  4  9  2
  4  9 15  0 13  2  4 18  2  0  9 11  3 20  4  5  3  4  0  3  5  1  8  0
  3 23 23  5 27 25  4 27 10  5 13  2  3 15 14  1  6 18  4 27 23  3  0 27
  1 21 19  0 22  2  0 19 14  4 15 20 11 37 29  5]"
4000,348,1.0,12,4,36.089640855789185,9.059126377105713,2242,16000,159218,1237349,"[ 2  1  2  0  3  1  2  0  3  5  1  2  5  0  3  2  0  3  0  4  2  3  9  4
  4  0  1  3  8  3  2  3  1  2  4  8  4 14 15  3  9  8  2 14  0  5 10  8
  3  9  8  2  8  2  2 18  2  5  9 11  1 20  9  5  3  4  5 11  5  1  8  0
  3 21 23  5 27 25  4 27 10  3  0 25  5 13 14  0  6  9  0 27 23  2  0 27
  1 28 19  0 22  2  0 26 16  4  0 25 11 37 29  5]"
4100,348,1.0,12,4,36.948864459991455,8.59220027923584,2299,16400,161613,1265598,"[ 2  1  2  0  3  1  2  0  3  5  1  0  5  0  3  2  0  3  0  4  1  3  6  4
  4  9  9  0  8  3  2  3  1  1  2  8  4 14  3  3 12  5  2 14  0  5  0  6
  3 13 14  2  1  6  2 18  2  0  9  5  1 20 19  5  3  4  5  8  5  1  8  0
  3  3 14  5 27 25  4 17  4  3 10  0  4 13 12  1  6  1  3 29 13  1  0 13
  1 26 26  0 22  2  0 22 16  1 15 33 11 37 29  5]"
4200,348,1.0,12,4,37.760765075683594,8.118958473205566,2349,16800,164088,1294896,"[ 2  1  2  0  3  1  2  0  3  5  1  1  5  0  3  2  0  3  0  2  0  3  9  4
  4  5  2  0  7  3  2  3  1  3  2  4  4  9  2  5 12  5  2 14  0  5  0  6
  3  5  8  0 10  6  4 18  2  0 16 12  1  4  2  5  3  4  5  8  5  1  8  0
  3  3  7  5 27 25  0 24  4  3 22  0  3  7 14  1 12  1  3 30 16  1 23 20
  1 26 23  0 22  2  4 18 15  1 14 21 11 37 29  5]"
4300,348,1.0,12,4,38.60467052459717,8.439016342163086,2403,17200,166432,1322510,"[ 2  1  2  0  3  1  2  0  3  2  3  1  2  3  3  2  0  3  4  4  6  3  9  4
  4  5  2  4  7  9  2  3  1  4  7  8  4 10  4  2  2  2  2 14  0  5  0  2
  3 12  0  5 14  6  2 18 18  0 13 13  1 17 14  5  3  4  2 20  1  1  8  0
  5  3  0  5 27 25  2 27 20  3 22  0  3  7 23  3  5 10  0 11  3  3 23 28
  2 26 23  0 22  2  4 18 11  1 32 24 11 37 29  5]"
4400,348,1.0,12,4,39.57137632369995,9.667022228240967,2455,17600,168893,1351542,"[ 2  1  2  0  3  1  2  1  3  5  3  0  2  3  3  2  0  3  0  5  6  3  9  4
  5  5  5  4  7  9  2  3  1  4  7  8  1 10 15  2  7  5  2 14  0  0  9 10
  3  5  8  5  9  9  3 18  5  2  7 13  1 19 15  5  3  4  2 13 16  1  8  0
  4  3  0  5 27 25  4 27  7  3 22  0  3  7 23  2 21 10  1 11 22  3 23 21
  2 21 11  0 22  2  3 18 12  3 27 31 11 37 29  5]"
4500,350,1.0,11,3,40.50209999084473,9.307188987731934,2504,18000,171284,1378393,"[ 2  1  2  0  3  1  2  2  0  3  1  0  5  3  0  2  0  3  5  5  3  3  9  4
  3  1  7  4  6  1  4  9  1  3  3  9  1 10  5  2  5  0  4  2  0  5  0 15
  3 12 15  5  9 13  3 18  5  2 20 13  4 20 14  5  3  4  1  2 16  1  8  0
  4  0  6  5 27 25  4 21 24  5 14 18  0  7  6  5  8 20  1  2 18  0 18 21
  0 25 24  0 22  2  2 17 12  0 25 12 11 37 29  5]"
4600,350,1.0,11,3,41.17349600791931,6.713910102844238,2561,18400,173379,1401300,"[ 2  1  2  0  3  1  5  0  1  0  2  3  3  3  3  2  0  3  1  8  3  3  9  4
  5  2  8  4  6  1  4  9  2  4  6  2  3  9  1  2 14  2  2  2  0  0 14  3
  3 13 15  3  9 14  3 18  5  4 21  9  4 16  4  5  3  4  1  2 20  1  8  0
  1  4 23  5 27 25  4 21 20  5 14 23  0  7 14  3  8 10  1 22 26  0 28 21
  0 18 24  0 22  2  2 17 24  0 25 10 11 37 29  5]"
4700,350,1.0,11,3,41.699729204177856,5.262296199798584,2618,18800,175473,1424180,"[ 2  1  2  0  3  1  5  3  1  5  2  3  3  3  3  2  0  3  1  2  3  3  9  4
  5  9  7  1  9  8  5  9  4  3  6  8  2  8  8  4  1 12  3  0  0  2 14  1
  5  5 15  5  9  6  3 18  5  3  4 18  4 15  4  5  3  4  5 15 14  1  8  0
  1 10 13  5 27 25  2 15 20  2 14 22  5 10 10  3  7 10  3 22  2  3 28  0
  2 18 24  0 22  2  3 24 28  5 25 33 11 37 29  5]"
4800,350,1.0,11,3,42.41549110412598,7.157573699951172,2665,19200,177836,1449889,"[ 2  1  2  0  3  1  2  1  2  2  3  0  3  0  3  2  0  3  1  4  3  3  7  4
  1  5  2  1  9  3  1  0  4  3  4  1  2  8  8  4  5  9  2  0  0  3  0 13
  3  0  8  5  9  6  3 18  5  1  8 11  4 14 15  5  3  4  5  8 14  4  8  0
  1  0 14  5 27 25  5 18 20  1 26  6  3 27  5  3 16 21  3 22 29  2 28 16
  5 18 18  0 22  2  2 19  0  2 33 19 11 37 29  5]"
4900,350,1.0,11,3,43.212050676345825,7.965550422668458,2724,19600,179978,1473093,"[ 2  1  2  0  3  1  4  1  2  2  3  0  3  0  3  2  1  2  5  3  5  3  7  4
  1  4  2  1  9  1  4  3  4  2  4  6  0  8  2  2  7 12  4  0  2  3  0 13
  2 10 14  5  9 13  3 18  5  1  8  1  4  9  8  5  3  4  3  2  9  1  8  0
  3  3 14  5 27 25  5 18 13  1 25  6  1 27  3  3 25 14  1 18 29  5 28 29
  2 26 30  0 22  2  2 21 18  1 31 19 11 37 29  5]"
5000,350,1.0,11,3,43.80256915092468,5.905137062072754,2780,20000,182118,1496386,"[ 2  1  2  0  3  1  4  0  3  2  3  0  3  3  3  2  2  3  3  3  3  3  7  4
  5  3  7  2  3  1  4  3  1  2  6  9  0 10 10  3  7  8  2  0  2  1  3 13
  2 10  9  5  2 13  3 18  5  1 20  1  2  9  8  5  3  4  3  2  1  1  8  0
  3  7 14  5 27 25  3 18  9  1 27 27  1 27  4  1 14 22  1 18 25  5 19 25
  0 26 14  0 22 22  4 12  0  1 10 11 11 37 29  5]"
5100,351,1.0,10,3,44.48431396484375,6.817412376403809,2825,20400,184461,1521392,"[ 2  1  2  0  3  1  1  2  3  2  3  0  2  3  3  2  1  2  5  6  3  3  7  4
  5  7  1  3  7  4  4  6  9  2  1  6  2 10  6  5  7 12  2  0  2  1  1 13
  2  7 15  5  2  3  3 18  5  1 16  5  3  1 11  5  3  4  3  4  1  1  8  0
  5 21 22  5 27 25  1 17 13  5 27 21  4 21  1  0 24  3  0 19 30  2  1 22
  0 17 14  5 22  0  4 12 27  2  2 11 13 22 29  5]"
5200,351,1.0,10,3,45.15569806098938,6.713805198669434,2869,20800,186845,1545090,"[ 2  1  2  0  3  1  5  3  0  2  3  0  3  3  3  3  1  3  2  6  5  5  6  4
  0  6  5  3  7  4  3  4  3  3  3  4  2 10  5  4  7 12  2  0  2  0 13  8
  2 14  5  4  1  7  3 18 13  3  5 17  4 14 21  5  3  4  0  3  1  1  8  0
  5 10 22  5 27 25  5 17 13  2 17 25  2 21 25  2 12 18  2 23 15  0 31 27
  0 23 14  5 33 11  4 12 27  5  1 11 13 22 29  5]"
5300,351,1.0,10,3,45.86654472351074,7.108414173126221,2928,21200,188900,1565603,"[ 2  1  2  0  3  1  5  0  1  2  3  0  5  3  0  1  3  3  1  0  5  5  5  1
  0  3  2  3  7  4  3  1  1  3  3  1  2 10 11  3  6 12  2  0  2  4 13  8
  4  0  6  4  1  7  3 18  5  3  1  9  2 14 12  5  3  4  1  3  0  1  8  0
  5  6 27  5 27 25  4 17 13  3 23 25  2  9  4  4 12 14  2 23  3  2 13 27
  0 30 25  5 28  3  4 24 23  2 15 27 13 22 29  5]"
5400,351,1.0,10,3,46.45277810096741,5.862298011779785,2985,21600,191002,1586436,"[ 2  1  2  0  3  1  5  2  1  2  3  0  3  3  0  2  3  3  1  0  5  0  5  8
  2  0  7  3  7  4  3  1  5  0  3  1  3 11 11  0  4  8  2  0  2  4 13 11
  4  6 13  4  6 15  3 18  5  3 14  8  4  3  5  5  3  4  1  3 15  4  8  0
  0 16 27  5 27 25  5 17 14  0 23  2  4  9 22  4 12  8  0 23 14  3 20 26
  2 14 17  5 31 27  4  0 26  5 23 25 13 22 29  5]"
5500,351,1.0,10,3,47.125773668289185,6.729922294616699,3037,22000,193157,1607848,"[ 2  1  2  0  3  1  4  2  0  2  3  0  3  3  0  2  3  0  3  0  3  0  0  0
  3  0  9  3  9  4  3  8  1  4  0  6  3 11  2  4  2 10  2  0  2  2 13  1
  1 11  7  1  6 15  3 18  5  2 14  8  4 15  0  5  3  4  5  3 12  4  8  0
  3  7 27  5 27 25  1 17  7  0 23 10  4  5  5  2  7 22  0 14 11  4 11 18
  1 14 17  4 24 24  1  3 27  2 27 25 13 22 29  5]"
5600,351,1.0,10,3,47.891828775405884,7.660515308380127,3087,22400,195362,1629890,"[ 2  1  2  0  3  1  1  2  0  1  1  2  2  3  3  2  3  0  5  4  5  2  3  6
  3  2  2  3  9  4  3  2  5  2  4  7  3 10  2  0  0  8  2  0  2  3  1  8
  1 15  6  1 13  7  3 18  5  3  7  5  2 15  4  5  3  4  4  7 13  1  8  0
  3 11 20  5 27 25  1 17  5  0 23 10  3  4  5  2  7 20  4 14 23  0  3  1
  1 14 13  4 33 31  5 12 16  1 28 16 13 22 29  5]"
5700,351,1.0,10,3,48.6330029964447,7.411706447601318,3138,22800,197696,1652957,"[ 2  1  2  0  3  1  2  3  0  1  3  1  3  3  3  2  3  0  4  3  6  3  7  7
  2  1  6  3  9  4  5  4  9  2  8  5  3 10  2  0  0  9  2  0  2  3  6 12
  1  3 14  0 13  7  3 18  5  4 12 13  5 14  4  5  3  4  5  6  0  1  8  0
  4  5 25  5 27 25  1 20 18  0  9 24  4  4  5  0  2 13  4 11 23  3  2 19
  5 15 21  2 19 31  3 10 16  5 25 27 13 22 29  5]"
5800,351,1.0,10,3,49.61175084114075,9.787445068359375,3190,23200,199877,1674629,"[ 2  1  2  0  3  1  4  0  1  1  3  0  5  3  0  2  3  0  2  6  4  5  7  4
  2  9  3  3  9  4  5  4  3  2  8  5  3 14  5  0 12  6  2  0  2  5  9 12
  1  3 14  0 13  4  3 18 13  4  9 13  5 15 15  4  3  4  3  5 14  1  8  0
  4 13 25  5 27 14  3 15 18  1  9 23  4  4 24  3 12 13  4 26 30  2  2 32
  5 10 21  2 26 13  3 10  1  3  3  3 13 22 29  5]"
5900,355,1.0,7,2,50.307313442230225,6.955578327178955,3243,23600,202118,1693173,"[ 2  1  2  0  3  1  1  0  2  0  1  3  3  3  2  2  3  0  4  7  7  3  9  5
  0  9  8  3  9  4  5  2  5  4  6  6  1 14 13  4 12 11  2  0  2  5 14 10
  2 10  5  4 10 10  3 18  5  2 18 12  5  9 16  4  9  4  4  1 21  0  2  0
  3 14 11  5 21 14  3 21  7  1 20 12  4  6 14  1 14  0  2 12 25  1  2  2
  0 18 10  1 11 13  4 32 33  4  3 25 13 22 25  5]"
