generation,fitness,functionality,active_nodes,longest_path,time,gen_time,nc_gens,fitness_evals,graph_evals,node_evals,genotype
0,276.0,0.78125,3,1,2.6081197261810303,2608.1197261810303,250,1024,8972,60833,"[ 1  1  3  4  0  0  1  0  2  4  3  0  3  2  2  4  3  3  2  4  5  2  2  7
  0  8  6  2  1  0  1  6 11  4  2  1  1  3  3  4  5  9  0  8  8  3 16 12
  5  9 14  1  3 15  4 13  2  0 11 15  5 16 16  0 20 18  1 20  1  2  3 21
  1 16 21  5  9  4  9]"
100,293.0,0.84375,5,2,3.3308284282684326,7.227087020874023,292,1424,14379,86677,"[ 0  1  2  4  0  0  3  0  1  1  0  2  2  0  2  4  0  0  0  2  1  3  8  3
  3  8  7  4  0  7  5  5 11  5  8  9  2  1  4  3 11 12  2  6  3  0 14 12
  1  9 15  2  0  1  5 16  9  4 15  0  5 21 14  2  3  3  1  0 16  4 16 19
  5 16 19  5 15  4  5]"
200,294.0,0.84375,4,2,4.0257203578948975,6.948919296264648,336,1824,19951,110275,"[ 0  1  2  4  0  0  5  3  1  2  1  3  2  0  2  1  3  8  2  3  0  3  4  8
  5  3  5  4  8  7  0  8 12  4 13  1  0  4  2  4 11 11  5 10  7  3 14 16
  5 18  0  3 15  3  5 12 12  3 15  1  4 22 23  4 19  0  3 23 19  1  2 14
  4 21 18  5 11  4  3]"
300,313.0,0.90625,5,2,4.705380439758301,6.796600818634033,386,2224,25023,134133,"[ 0  1  3  4  0  0  4  3  0  0  1  3  2  0  2  0  2  0  3  1  6  3  8  7
  3  2  8  5  7  8  5 11  3  1  3 12  0 11  3  2  9  2  0  8  5  3 15  0
  1 17 17  4  3 14  4 17  0  2 18  1  4 18 15  4 21 23  4 23  1  0  2  1
  3  1 17  5 11 11  4]"
400,314.0,0.90625,4,2,5.302786588668823,5.974061489105225,436,2624,29480,154510,"[ 0  1  3  4  0  0  3  1  1  3  2  0  2  0  2  5  1  7  4  4  7  3  8  4
  4  3  7  0  2  4  0 11  9  0 10  5  4  2  7  1 13 13  5 11 11  1  9  1
  3  0 17  5 10 18  2  3  2  1 18 13  4 22 15  2 14 16  0  1 23  2 19 20
  2 23 17  5 11 11  4]"
500,318.0,0.921875,5,2,5.914554595947266,6.117680072784424,487,3024,33996,175770,"[ 0  1  3  4  0  0  3  2  1  2  3  1  2  0  2  4  2  2  5  1  8  3  8  4
  3  2  4  0  5  3  1  3  1  1  1  2  2  4  1  2  9  3  4  7  4  0 16  1
  3 18  2  4  0 15  4 17 18  1  2 13  4  2 21  2  3 22  0  1  2  3  3 19
  2 22 17  5 11 26  4]"
600,318.0,0.921875,5,2,6.590467929840088,6.759133338928223,535,3424,38886,201177,"[ 0  1  3  4  0  0  3  2  0  5  2  3  2  0  2  4  2  7  0  6  7  3  8  4
  2  4  8  4  7  2  2  3  8  4 10  2  4  9 13  1  0  8  5  6 11  0 16 12
  2 15 16  2  9 17  3  1 12  2 16 10  0 17 15  5 22  2  0  1  2  5  0 22
  5  1  0  5 11 26  4]"
700,318.0,0.921875,5,2,7.260056018829346,6.695880889892578,598,3824,43654,225876,"[ 0  1  3  1  1  0  4  1  1  5  2  2  2  0  2  4  2  3  1  0  7  3  8  4
  0  2  8  0  1  2  4  2  8  1 13 10  4  7 12  5  0 12  1  5  8  5 12 10
  5  3 17  2  1 16  2 10  2  1  3 18  1 16 19  3 22 23  4 14 23  5 14 15
  3  0 22  6 11 13  4]"
800,318.0,0.921875,5,2,7.9371657371521,6.771097183227539,648,4224,48555,250936,"[ 0  1  3  0  0  1  4  1  1  4  2  3  2  0  2  4  1  6  2  0  1  3  8  4
  2  7  8  0  1  2  4  2  8  5  3  8  0 12  4  2  0 12  1 11  0  4 10  1
  0  2  2  4 14  3  2 10  9  0  9 16  2 21 18  4 16 18  2 16 18  3  3 16
  4 21  2  6 11 13  4]"
900,318.0,0.921875,5,2,8.600014448165894,6.6284871101379395,699,4624,53291,275558,"[ 0  1  3  0  0  3  4  1  1  4  1  1  2  0  2  5  8  7  2  8  7  3  8  4
  0  7  8  0  1  0  0  9  9  0  4  0  3  6  3  2 10  4  2  1 13  3 10  1
  4 13 16  0  9 15  1 16 13  3 12 17  2 22 18  0 16 18  1  0 16  3  2 16
  4  3 14 15 11  5  4]"
1000,318.0,0.921875,5,2,9.281286239624023,6.812717914581299,739,5024,58169,300713,"[ 0  1  3  0  0  3  0  0  0  5  2  3  2  0  2  4  2  0  5  4  0  3  8  4
  2  5  3  2  0  7  3  1  5  0  4  5  3  9  8  5  4  9  0  7  1  3 12  9
  4 18 11  2  0 15  2  2 16  3 12  3  2  1 18  1 16 20  0  1 19  5 22 19
  2  0 19 15 11  5  4]"
1100,318.0,0.921875,5,2,9.948445081710815,6.67158842086792,787,5424,62866,325239,"[ 0  1  3  0  0  3  2  3  2  1  0  3  2  0  2  1  0  2  0  5  7  3  8  4
  5  8  1  0  2  0  3  8  2  0  5  2  1  9 11  5  1  9  2  7  4  1 12 14
  2 16 13  1  2 17  5  9 17  4  0  9  2 21 19  0  3 22  3 18  2  4 18 23
  5 16 19 15 11  5  4]"
1200,322.0,0.9375,6,2,10.65978455543518,7.113394737243652,849,5824,67490,351990,"[ 0  1  3  0  0  3  2  1  2  1  1  3  2  0  2  4  0  1  4  6  7  3  8  4
  3  5  1  0  2  1  4  2  9  0  5 13  2  9  0  5  1 13  1  8  4  1 12 16
  2  2  1  0 11  9  4 11 17  4  0  1  3 21 19  2 22 22  0 18  1  4 14 23
  3 22 17 15 11  5  4]"
1300,322.0,0.9375,6,2,11.383324384689331,7.235398292541504,893,6224,72166,380518,"[ 0  1  3  0  0  3  4  2  2  3  3  0  2  0  2  0  0  4  4  3  3  3  8  4
  0  6  0  0  2  1  0  8  4  0  5 13  0  6  9  2  1 10  3  9  7  3  9 16
  0 16 12  2  3 12  2 14 15  2 13  1  5 21 15  3 14 22  4 21 22  4 15 18
  1 14 17 15 11  5  4]"
1400,322.0,0.9375,6,2,12.111504316329956,7.28179931640625,948,6624,76885,408909,"[ 0  1  3  0  0  3  1  2  1  0  1  2  2  0  2  0  5  2  0  0  5  3  1  7
  0  6  1  0  2  1  3  8  4  0  5  7  1  3  1  3 13  6  5  9 11  4 13 18
  4 11 12  4 18 12  2 14  0  4 13  1  0 18 21  4 20 21  0 23 15  4 18 18
  1 18 14 15 14  5  4]"
1500,322.0,0.9375,6,2,12.856599569320679,7.450952529907227,995,7024,81735,438329,"[ 0  1  3  0  0  3  2  2  1  0  1  2  2  0  2  4  7  4  3  4  5  3  0  2
  2  5  1  3  3  0  3  8  4  0  5  7  1  3 10  1 13 10  0  2  2  0 10 11
  1  0 12  4  9 15  4 18 15  4 18 15  0 18 18  3  0 22  2 19 17  1  0  2
  0 18 20 15 14  5  4]"
1600,322.0,0.9375,6,2,13.58760929107666,7.3100972175598145,1048,7424,86508,467380,"[ 0  1  3  0  0  3  2  1  0  0  1  2  2  0  2  4  7  4  5  8  5  1  8  2
  5  5  7  5  6  2  3  8  4  0  5  7  2  3  0  1  1 10  1  3  2  1 15 11
  2  0 16  5  1  2  4 18  9  4  2 11  0 18 21  3 21 16  0 22 17  5 19 22
  3 23 15 15 14  5  4]"
1700,322.0,0.9375,6,2,14.333019018173218,7.454097270965576,1098,7824,91218,495924,"[ 0  1  3  0  0  3  2  1  0  0  1  2  2  0  2  4  6  6  1  5  5  0  6  1
  3  0  7  2  6  8  3  8  4  0  5  7  2  9  7  1  1 12  2  5  7  4  3 17
  0  0  3  0 10  3  0  9  2  5  0 11  0  0 14  0 15 23  4  0 19  4 22  3
  3 18 22 15 14  5  4]"
1800,322.0,0.9375,6,2,15.066553831100464,7.335348129272461,1150,8224,95923,524725,"[ 0  1  3  0  0  3  4  1  3  0  1  2  2  0  2  1  5  6  2  3  6  2  7  7
  2  2  2  4  2  5  3  8  4  0  5  7  5 13  7  5  2  2  1  5  3  0 11 14
  0 13  3  1 12 17  4 13  2  0  9 10  4  1 23  0  0  0  4 20 18  0 22 16
  2 21 19 15 14  5  4]"
1900,322.0,0.9375,6,2,15.807232856750488,7.406790256500244,1193,8624,100814,554407,"[ 0  1  3  0  0  3  4  3  0  0  1  2  2  0  2  5  2  7  0  2  7  5  2  3
  2  7  3  4  3  7  3  8  4  0  5  7  0 11 12  5  3  2  4  8 11  1 14  1
  4  2 18  4 14 18  1 14 10  0 16 10  3 18  2  2 16 22  5 20 22  5  1 16
  0 17 15 15 14  7  4]"
2000,322.0,0.9375,6,2,16.55119752883911,7.4396467208862305,1247,9024,105722,584105,"[ 0  1  3  0  0  3  5  3  3  0  1  2  2  0  2  5  1  1  4  6  7  3  6  2
  4  7  0  1  7  7  3  8  4  0  5  7  2  8  8  3 13  1  4  5 12  4  0 10
  4  0 13  4 16  0  3 13 12  1  1  1  5 21 20  5  3 17  2 14 18  0 21 16
  0 14  2 15 14  7  4]"
2100,322.0,0.9375,6,2,17.317707300186157,7.665097713470459,1294,9424,110685,614204,"[ 0  1  3  0  0  3  0  3  3  0  1  2  2  0  2  1  4  1  4  7  4  4  3  6
  4  5  8  2  2  1  3  8  4  0  5  7  3  4  8  1  2  1  5 11 12  4  3 18
  1 16 10  2  1 14  1 10  2  0 14  3  3 21 23  3 20  3  1  2 17  0 17 17
  5 14 16 15 14  7  4]"
2200,322.0,0.9375,6,2,18.0557804107666,7.380731105804443,1352,9824,115576,643871,"[ 0  1  3  0  0  3  0  1  2  0  1  2  2  0  2  3  4  1  4  1  5  3  8  6
  1  5  8  0  3  3  3  8  4  0  5  7  0  4 13  1  2  1  4  5  1  0 12  2
  1  0 16  0  1  2  1 10  0  3 11 17  4 18 18  3  1 16  3 14  3  5 21 19
  5 21  0 15 14  7  4]"
2300,322.0,0.9375,6,2,18.7966251373291,7.408447265625,1403,10224,120481,673263,"[ 0  1  3  0  0  3  5  1  0  0  1  2  2  0  2  5  7  3  4  1  8  5  2  0
  1  0  3  0  4  3  3  8  4  0  5  7  2  7  0  0 12  3  5  5 13  1 11  2
  5  2  2  0  1 14  1  1 11  2 11 10  5 17 22  2 19 19  3 14 20  1 21 21
  2  0 16 15 14  7  4]"
2400,322.0,0.9375,6,2,19.60821843147278,8.115932941436768,1455,10624,125274,702390,"[ 0  1  3  0  0  3  0  2  1  0  1  2  2  0  2  4  6  3  2  2  8  4  3  8
  2  6  3  1  5  0  3  8  4  0  5  7  3  9  4  5  7 10  1 10 12  1 10  2
  5 17  2  0  9 11  3 11 14  4 17 16  3 17 20  0 19 20  2  1 16  1 18 20
  3 16 22 15 14  7  4]"
2500,322.0,0.9375,6,2,20.376158475875854,7.679400444030762,1505,11024,130193,732446,"[ 0  1  3  0  0  3  0  1  2  0  1  2  2  0  2  4  7  1  0  4  3  3  3  1
  2  7  5  2  4  8  3  8  4  0  5  7  2  5 12  0 13 10  5  5  2  2  1 11
  5  2 16  2 17  2  3 17 15  1 17 17  2  3 15  3  3 17  1 19  0  0  1 21
  3 16 17 15 14  7  4]"
2600,322.0,0.9375,6,2,21.110159873962402,7.3400139808654785,1564,11424,134929,761175,"[ 0  1  3  0  0  3  3  3  0  0  1  2  2  0  2  3  7  7  0  5  5  2  5  2
  4  6  0  2  1  4  3  8  4  0  5  7  2 12 12  3  1 13  2  8  2  2  2 11
  0  9 12  0 10 10  5 16 18  1 15 13  2  3  3  0  3  2  2 23  0  2  1  0
  4 16 17 15 14  5  4]"
2700,322.0,0.9375,6,2,21.837501525878906,7.273416519165039,1623,11824,139556,789093,"[ 0  1  3  0  0  3  1  3  3  0  1  2  2  0  2  0  8  5  1  0  0  1  5  8
  0  7  4  3  6  1  3  8  4  0  5  7  2  0  6  2  8  2  2  8  7  1  3  3
  2  9  3  1  1 17  5  9 13  4 14 15  4 18  1  1 21 14  2 23 14  2  3 20
  4 19 21 15 14  5  4]"
2800,322.0,0.9375,6,2,22.56338858604431,7.258870601654053,1662,12224,144329,817747,"[ 0  1  3  0  0  3  1  3  2  0  1  2  2  0  2  5  3  4  1  6  1  1  5  3
  1  7  6  0  6  5  3  8  4  0  5  7  4  8  0  1  6 13  1  8 11  3  3 14
  2  0  2  2  2 10  3 16  0  3  3  1  4 18  1  1 19 14  0 15 20  4  3  3
  3 14  1 15 14  7  4]"
2900,322.0,0.9375,6,2,23.303754329681396,7.40365743637085,1708,12624,149174,847140,"[ 0  1  3  0  0  3  4  2  0  0  1  2  2  0  2  2  4  1  2  3  7  2  5  5
  0  3  8  3  4  3  3  8  4  0  5  7  5  6  5  1  9 13  4  8 11  1  1  3
  4 16 13  2  9  1  0 10  1  4  0 11  3  0 16  0 20 21  2  0 17  2  0  3
  0 18 16 15 14  7  4]"
3000,322.0,0.9375,6,2,24.02078151702881,7.170271873474121,1760,13024,153844,875550,"[ 0  1  3  0  0  3  2  0  0  0  1  2  2  0  2  5  2  1  4  1  0  3  8  4
  0  8  8  2  5  5  3  8  4  0  5  7  1  6  7  5  9 13  1 12  7  1 18 16
  5  9 16  3  9 17  5  0 10  2  0 13  2 20 23  5  3  1  5 14 17  2  0 22
  1 17  2 15 14  5  4]"
3100,322.0,0.9375,6,2,24.760910034179688,7.401285171508789,1799,13424,158613,904452,"[ 0  1  3  0  0  3  0  3  0  0  1  2  2  0  2  3  3  5  0  4  8  1  3  8
  1  2  4  1  1  6  3  8  4  0  5  7  1 10 13  5 12 13  3  9  0  1 11 16
  5 17  0  1  9 18  1 14 10  0 14 10  5  2  0  1  2 17  1  3 18  1 20 21
  2 23 16 15 14  5  4]"
3200,322.0,0.9375,6,2,25.484557390213013,7.236473560333252,1852,13824,163325,933472,"[ 0  1  3  0  0  3  4  3  2  0  1  2  2  0  2  3  3  5  3  4  6  1  1  3
  2  5  0  3  0  7  3  8  4  0  5  7  5  5  6  1 12  2  5  2  0  0 12 12
  2 10 16  4  0 10  5 13 16  4 14  1  5 17  1  2 16 22  5 22 20  2 18 21
  5 18 14 15 14  5  4]"
3300,322.0,0.9375,6,2,26.20325016975403,7.186927795410156,1901,14224,168043,962000,"[ 0  1  3  0  0  3  0  3  3  0  1  2  2  0  2  1  0  6  3  7  0  4  8  2
  4  5  8  4  5  7  3  8  4  0  5  7  3  5  3  2  3  5  5  8  6  0 17 16
  5 17 16  4  3 13  3 17 14  4 15  1  4  1 21  0 19 22  0 22 21  1  2 22
  0  3 23 15 14  7  4]"
3400,322.0,0.9375,6,2,26.964285612106323,7.610354423522949,1945,14624,172959,992131,"[ 0  1  3  0  0  3  0  3  2  0  1  2  2  0  2  5  7  0  1  2  4  4  6  5
  1  5  1  0  4  3  3  8  4  0  5  7  3 11 12  1 11  9  4  6  0  1  0 16
  4 12 13  5  0 17  4  1  0  3 12  9  2 17  0  1 16 19  4  0 18  1 14 14
  5 20 19 15 14  7  4]"
3500,322.0,0.9375,6,2,27.692404747009277,7.281191349029541,2000,15024,177716,1021149,"[ 0  1  3  0  0  3  1  0  0  0  1  2  2  0  2  5  2  0  3  5  1  4  8  1
  0  7  2  2  2  0  3  8  4  0  5  7  2 11  4  0 11  8  1  6  8  4 15 16
  1 17  9  2  2  2  4 17 15  3 12 14  3 18 16  4 23 17  3 23  1  1 15 14
  2 20 19 15 14  7  4]"
3600,322.0,0.9375,6,2,28.423351526260376,7.309467792510986,2061,15424,182545,1050529,"[ 0  1  3  0  0  3  0  1  0  0  1  2  2  0  2  0  2  0  1  7  2  3  8  1
  5  7  3  3  2  0  3  8  4  0  5  7  1  6  4  0 11  7  4  6  0  5  9 18
  1 17 14  2  2  2  0  9  0  3 13 13  5 18 15  3 14 16  5  3 23  1 23 14
  4 20 19 15 14  5  4]"
3700,322.0,0.9375,6,2,29.155812740325928,7.324612140655518,2113,15824,187306,1079440,"[ 0  1  3  0  0  3  2  2  0  0  1  2  2  0  0  2  5  1  3  2  0  0  6  5
  3  8  7  5  3  1  3  6  4  0  5  7  0  6  4  2  9 12  3  6  8  3 11 16
  0 11 11  1  2 12  5 10  0  3  0 10  0 17 15  4 16  3  3 21 23  1  1 14
  4 21 18 15 14  5  4]"
3800,322.0,0.9375,6,2,29.892224550247192,7.3641180992126465,2158,16224,192085,1108462,"[ 0  1  3  0  0  3  2  2  0  0  1  2  3  1  1  2  0  7  1  2  0  2  0  5
  1  8  7  0  1  2  3  6  4  0  5  7  0  2  6  5  0  5  3  0  9  3 10  1
  5  1 14  1  0 14  5  0  1  5 12 17  0 20 15  5 20 20  1  1 21  5  0 15
  4 19 22 15 14  5  4]"
3900,322.0,0.9375,6,2,30.609527111053467,7.173025608062744,2214,16624,196730,1136894,"[ 0  1  3  0  0  3  2  2  0  0  0  0  3  1  3  1  0  0  1  2  3  2  8  5
  0  1  6  0  1  2  3  6  4  0  5 13  1  2 12  2  0 11  1  0  7  1 10 15
  1 11 14  0  0 11  1  0  2  5 12 17  0 22 17  4  0  2  1  1 22  4 21  1
  4 19  0 15 14  5  4]"
4000,322.0,0.9375,6,2,31.335183143615723,7.256560325622559,2274,17024,201391,1165377,"[ 0  1  3  0  0  3  2  2  0  4  0  2  3  2  0  1  8  0  4  7  3  2  6  1
  2  7  3  0  1  2  3  6  4  0  5 13  1  2 12  1 11 11  3  0  4  3 16 15
  1  2 14  3  1  2  2  0 11  3 12 17  0 19  0  2  2 14  4 21  0  4 14  1
  4 21 18 15 14  5  4]"
4100,322.0,0.9375,6,2,32.03857707977295,7.033939361572266,2326,17424,205928,1192903,"[ 0  1  3  0  0  3  2  2  0  4  0  3  2  3  3  3  7  6  1  6  2  2  4  1
  3  6  0  0  1  2  3  6  4  0  5 13  1 12  7  2  4  2  5  0  1  3 18 10
  2  0 13  5 11 13  5 14  1  0  0  9  0 19 14  5 18 23  0 21  1  2 18  0
  5 21  2 15 14  5  4]"
4200,322.0,0.9375,6,2,32.74314570426941,7.0456862449646,2381,17824,210558,1220983,"[ 0  1  3  0  0  3  2  2  0  1  1  1  3  2  3  4  1  6  1  5  1  4  0  3
  0  5  0  0  1  2  3  6  4  0  5 13  2 13 11  1  8 10  5 13  9  5 13 14
  3 10  3  3 16  3  2 15  2  5 12 13  1 19 23  2 17 15  0 23  1  3 18  0
  4 16  2 15 14  5  4]"
4300,322.0,0.9375,6,2,33.48839569091797,7.452499866485596,2434,18224,215341,1250258,"[ 0  1  3  0  0  3  2  2  0  4  2  2  2  1  2  4  6  7  1  0  8  2  5  5
  0  8  1  0  1  2  3  6  4  0  5 13  1  6 11  4  3  0  4 10  9  5  1 14
  3 12 12  2 16  1  1 14  1  5  9 11  0 19 17  5  3 22  0 23  0  1 20 21
  4  3 23 15 14 13  4]"
4400,322.0,0.9375,6,2,34.239696979522705,7.513012886047363,2492,18624,220217,1279765,"[ 0  1  3  0  0  3  2  2  0  1  0  0  5  1  1  4  6  1  0  2  5  2  3  6
  0  6  3  0  1  2  3  6  4  0  5 13  1  1 11  4 11  8  3  4  2  0  1 14
  2 12  9  1 15 14  2  3 13  1  2  2  1 15  3  1  2 23  2  0 22  1 17 18
  0 18 21 15 14 13  4]"
4500,322.0,0.9375,6,2,34.99910116195679,7.59404182434082,2549,19024,225087,1309706,"[ 0  1  3  0  0  3  2  2  0  1  0  0  5  0  3  4  4  0  0  1  5  0  3  8
  2  6  8  0  1  2  3  6  4  0  5 13  1  5 11  2 12 12  3  8  2  5 18 13
  2 14 10  0  2 11  5 16  2  4  2 13  1 17 21  0 17 23  0  0  1  0 19 23
  1 18 16 15 14  5  4]"
4600,322.0,0.9375,6,2,35.73782539367676,7.387242317199707,2599,19424,229954,1339323,"[ 0  1  3  0  0  3  2  2  0  1  1  0  1  2  1  2  8  2  4  4  5  4  6  1
  1  4  6  0  1  2  3  6  4  0  5 13  1  6  4  5 12  1  5  8  5  5 16 13
  4 14 10  5 15 11  3 12 14  0  1 13  5 17 21  0  3  1  4  0 23  0 15 20
  2 17 17 15 14  5  4]"
4700,322.0,0.9375,6,2,36.45528507232666,7.174596786499023,2657,19824,234550,1367246,"[ 0  1  3  0  0  3  2  2  0  4  1  2  5  3  1  3  0  4  3  4  6  4  8  0
  0  4  7  0  1  2  3  6  4  0  5 13  1 10  2  5  8  7  1  2  9  3  0 15
  1 12 10  5 15 18  4 12 11  2 18 13  5  0 21  2 21 15  5 16 23  4 23 22
  2  2 21 15 14  5  4]"
4800,322.0,0.9375,6,2,37.17157697677612,7.162919044494629,2713,20224,239195,1395604,"[ 0  1  3  0  0  3  2  2  0  4  2  1  2  2  2  1  6  4  0  0  6  1  2  8
  2  3  2  0  1  2  3  6  4  0  5 13  4  1 12  5 11 13  2  2 10  4 18 13
  5 12 13  5 15  1  4  9  0  2  0 13  0 19 17  5 23 18  4 16  2  2 23 23
  2 17  2 15 14  5  4]"
4900,322.0,0.9375,6,2,37.89977979660034,7.2820281982421875,2770,20624,243931,1424401,"[ 0  1  3  0  0  3  2  2  0  4  1  2  2  1  2  4  0  0  5  8  7  2  2  3
  4  3  3  0  1  2  3  6  4  0  5 13  4  6  6  5  7 13  2  2 10  2 14  3
  5  1 13  5 14  1  4  3 10  0  0 11  0  3 15  3 15 17  1 19  1  3 23 23
  3  2 22 15 14  5  4]"
5000,322.0,0.9375,6,2,38.65732145309448,7.575416564941406,2829,21024,248823,1454030,"[ 0  1  3  0  0  3  2  2  0  3  0  1  4  2  1  1  2  1  4  6  8  2  3  0
  4  6  2  0  1  2  3  6  4  0  5 13  0 11  6  5  6  3  1  5  6  5  9 15
  5 15 17  0 12 17  3 15  3  4 12  3  0 17  0  1  2 16  4  3 21  5 21 21
  0 23 16 15 14 13  4]"
5100,322.0,0.9375,6,2,39.37687087059021,7.195494174957275,2884,21424,253498,1482399,"[ 0  1  3  0  0  3  2  2  0  4  2  0  0  0  0  3  1  3  0  5  3  0  6  7
  1  4  4  0  1  2  3  6  4  0  5 13  1  9  6  1 13 11  1  1  6  2  9 14
  4  9 14  0  9 12  4 16  2  3 11 17  2 15  0  2 15 16  5  3 14  0 15 17
  0 21 16 15 14  5  4]"
5200,322.0,0.9375,6,2,40.085832357406616,7.0896148681640625,2941,21824,258061,1510117,"[ 0  1  3  0  0  3  2  2  0  1  2  2  0  0  0  2  7  4  1  7  6  5  4  1
  4  4  3  0  1  2  3  6  4  0  5 13  1  0  0  4  2  4  1  1  1  5 16 14
  1  3 13  1 12 11  4  1 17  1  1 13  3 18  3  1 19  0  5 17  1  1  0  0
  4  2 23 15 14 13  4]"
5300,322.0,0.9375,6,2,40.817002296447754,7.311699390411377,2997,22224,262861,1539090,"[ 0  1  3  0  0  3  2  2  0  5  2  2  2  3  0  4  7  4  5  2  6  0  4  8
  5  1  7  0  1  2  3  6  4  0  5 13  1 13  1  1  9  2  4 13  4  2  2 17
  1 15 17  0 12  1  1 12 17  3  1  3  0  2 21  4 17  3  1 19 23  5  0  0
  1 14 19 15 14  5  4]"
5400,322.0,0.9375,6,2,41.544699907302856,7.276976108551025,3056,22624,267523,1567509,"[ 0  1  3  0  0  3  2  2  0  1  1  1  5  1  1  1  5  5  1  7  3  0  1  8
  2  0  7  0  1  2  3  6  4  0  5 13  3 11  8  1 13 13  4  8  4  5 17 18
  1  2  2  2 12  2  5  3 14  1 14  3  2 20  3  5 23 21  3  3 21  0 21  0
  3 21 21 15 14  5  4]"
5500,322.0,0.9375,6,2,42.256197929382324,7.114980220794678,3109,23024,272169,1595678,"[ 0  1  3  0  0  3  2  2  0  5  1  1  5  1  1  3  5  2  1  2  3  2  2  0
  5  4  3  0  1  2  3 11  4  0  5 13  5 11  7  3  5  8  5  2  7  0 17  2
  1 11  2  1  9 10  3 12 17  2  0 14  5 21 19  5 15  2  1 16 14  1 23 20
  4 17 19 15 14 13  4]"
5600,322.0,0.9375,6,2,42.99574422836304,7.395462989807129,3154,23424,277005,1625181,"[ 0  1  3  0  0  3  0  0  0  1  2  2  2  1  2  2  6  4  0  5  2  2  2  0
  3  6  0  0  1  2  3 11  4  0  5 13  5 12  7  4  5  0  1 13  4  4  9  9
  0  3 13  1  9 16  2 14  9  2  2 15  5  3  2  4 16 20  0  3 14  5 17  1
  3 21  0 15 14 13  4]"
5700,322.0,0.9375,6,2,43.738961935043335,7.4321770668029785,3205,23824,281835,1654522,"[ 0  1  3  0  0  3  4  3  0  0  2  1  5  0  1  2  8  1  2  4  8  2  2  0
  5  2  1  0  1  2  3 11  4  0  5 13  2  5 12  4  2  5  3  5  9  4 17 15
  3  2  1  3 15 14  5 16  1  1 10 12  1 23 18  4 16 16  0  1 22  5 14 15
  2  2  3 15 14  5  4]"
5800,322.0,0.9375,6,2,44.46863079071045,7.296688556671143,3261,24224,286544,1683137,"[ 0  1  3  0  0  3  4  0  3  2  3  2  5  3  3  2  6  2  5  4  2  2  2  0
  0  2  6  0  1  2  3 11  4  0  5 13  2  5  3  4  5  0  0  9  5  5 15 14
  4 13  1  5 14  0  2  2  9  3 13 11  3 21 14  0 23 21  5 23  1  4 15 15
  2 20  0 15 14 13  4]"
5900,322.0,0.9375,6,2,45.22568321228027,7.570524215698242,3318,24624,291410,1712979,"[ 0  1  3  0  0  3  2  0  3  1  3  0  3  1  3  2  8  2  2  1  3  2  2  0
  2  0  3  0  1  2  3 11  4  0  5 13  5  1  3  4  8 10  1  7  3  0 17 17
  0  9 13  5 14  2  5 16 12  3 11  9  4 14 15  1  3 14  2 23  1  0 21 20
  5  2 14 15 14  5  4]"
6000,322.0,0.9375,6,2,45.986677169799805,7.6099395751953125,3375,25024,296289,1743145,"[ 0  1  3  0  0  3  1  0  1  1  3  0  2  1  2  1  8  3  2  1  1  2  2  0
  0  0  7  0  1  2  3 11  4  0  5 13  5  3  3  0  4  2  0 13  1  4 10 17
  1 17 18  5  1 18  4 13 14  2 11  9  4 23 19  2  1  1  1 15 23  3 14 20
  5  2 20 15 14 13  4]"
6100,322.0,0.9375,6,2,46.84422469139099,8.575475215911865,3431,25424,301102,1772928,"[ 0  1  3  0  0  3  5  2  2  3  0  1  4  1  3  4  5  8  1  3  7  2  2  0
  4  1  4  0  1  2  3 11  4  0  5 13  0 11  9  4  7  8  5 12  1  0 11  1
  2 13  9  5 18 17  4 13  9  4 10  1  1 18 22  2 16 23  2 19 21  3 21 16
  0 15 22 15 14 13  4]"
6200,322.0,0.9375,6,2,47.57529425621033,7.310695648193359,3491,25824,305802,1802057,"[ 0  1  3  0  0  3  1  3  3  3  1  2  2  1  3  4  6  8  1  3  6  2  2  0
  3  7  1  0  1  2  3 11  4  0  5 13  5  7  9  3  2  8  5  4  3  2 16 11
  1 13 10  5 15 18  0 15 16  3  1 17  1 15 21  4 21 23  5 19 22  3 17 16
  0  1  3 15 14 13  4]"
6300,322.0,0.9375,6,2,48.37171769142151,7.964234352111816,3542,26224,310703,1831849,"[ 0  1  3  0  0  3  1  3  3  0  2  2  3  0  3  1  6  8  1  2  5  2  2  0
  3  5  6  0  1  2  3 11  4  0  5 13  4  4 13  4  3  3  3  2  5  2 13 11
  3  1 15  1 17 16  3  9  0  5  0  3  1 15 18  4  3 17  0 22 22  3 16 14
  4 23 20 15 14 13  4]"
6400,322.0,0.9375,6,2,49.12120032310486,7.494826316833496,3600,26624,315465,1860888,"[ 0  1  3  0  0  3  5  1  1  0  0  0  2  0  2  1  5  7  5  2  0  4  8  0
  4  0  3  0  1  2  3  8  4  0  5 13  5 10  5  0  0  9  1  7 13  3 17 10
  3 17 15  1 16 12  3 13 14  2  3 17  1 17 20  1 21 18  3 17  3  0 20 20
  4 17 16 15 14  5  4]"
6500,322.0,0.9375,6,2,49.84645104408264,7.252507209777832,3651,27024,320095,1889184,"[ 0  1  3  0  0  3  5  3  0  3  0  0  2  0  2  2  2  8  4  2  8  4  3  4
  5  3  1  0  1  2  3  8  4  0  5 13  5  5  2  4  0 12  5  6  1  4  2 11
  5 16  9  1 12  0  0 15  3  3 15 17  1 16 14  1  2  3  5 19  2  0  0 17
  0 21 22 15 14  5  4]"
6600,322.0,0.9375,6,2,50.58745527267456,7.4100422859191895,3698,27424,324902,1918398,"[ 0  1  3  0  0  3  5  2  2  3  3  2  2  0  2  5  2  3  4  5  2  3  3  6
  4  5  1  0  1  2  3  8  4  0  5 13  5 10  1  2  8  5  4  7  1  3  9 10
  1 18 13  2  0  2  1  9 15  5 14  9  3 23 20  4 21 14  5 16 15  3 21 23
  2 17  2 15 14 13  4]"
6700,322.0,0.9375,6,2,51.35603404045105,7.685787677764893,3753,27824,329851,1948868,"[ 0  1  3  0  0  3  0  0  3  4  3  3  2  0  2  0  6  1  3  3  2  5  7  2
  4  0  1  0  1  2  3  8  4  0  5 13  2  9 13  4  9 12  4  2 12  2 12  2
  0 18 14  4 17  2  5 18 15  3  9  3  0  2 23  0 20 19  4  1  1  3  3  3
  3 23 15 15 14 13  4]"
6800,322.0,0.9375,6,2,52.09912657737732,7.430925369262695,3813,28224,334706,1978301,"[ 0  1  3  0  0  2  0  0  3  2  2  3  2  0  2  3  4  1  3  7  1  5  8  3
  4  0  8  0  1  2  3  8  4  0  6 13  2  0 11  4  9  1  0 13  3  2 12  2
  4  3 14  3 17  1  5  0  0  5  9 12  0 14 17  2 20 19  4 16  3  0  0  3
  1  1 14 15 14 13  4]"
6900,322.0,0.9375,6,2,52.921000719070435,8.218741416931152,3873,28624,339606,2008169,"[ 0  1  3  5  3  1  0  0  3  1  1  3  2  0  2  4  1  8  1  1  8  0  8  8
  2  5  0  0  1  2  3  8  4  0  6 13  2  1  3  4 13  1  3 10  9  2 10 13
  4  3 18  3  9  1  5  0  0  0  2 14  0  1 18  5 23 16  0 22 20  1 20 18
  3 17 19 15 14 13  4]"
7000,322.0,0.9375,6,2,53.75398015975952,8.32979440689087,3930,29024,344320,2036966,"[ 0  1  3  5  3  1  0  0  3  5  0  3  2  0  2  5  3  8  4  8  4  0  8  7
  2  8  5  0  1  2  3  8  4  0  6 13  4  0  3  1 13 12  1 10  5  0 18 16
  5  9 16  0  3  0  3 18  0  1  0 13  1  2 16  5 23 21  3 15 20  5  3 22
  3 22 19 15 14 13  4]"
7100,322.0,0.9375,6,2,54.58886766433716,8.348875045776367,3982,29424,349101,2066190,"[ 0  1  3  2  3  3  0  0  3  3  0  1  2  0  2  5  5  2  2  6  2  0  6  3
  1  8  0  0  1  2  3  8  4  0  6 13  1  7 11  4  8  8  1  9 12  5 18  2
  5 12  3  4 12  0  3 12 14  2  1 11  1 19 14  1 15  0  3  3  0  5 16 15
  3 22 15 15 14 13  4]"
7200,322.0,0.9375,6,2,55.328392028808594,7.3952436447143555,4041,29824,353739,2094571,"[ 0  1  3  2  0  3  0  0  3  1  3  3  2  0  2  5  5  8  2  2  2  1  7  0
  1  1  1  0  1  2  3  8  4  0  6 13  5  7 13  4  2  8  4  0 12  4 14 15
  1  1 10  5  1 11  3 15 11  1 18 14  3 18  3  5 18 15  1 22  0  3  1 15
  5 16 16 15 14  6  4]"
7300,322.0,0.9375,6,2,56.07126712799072,7.428750991821289,4102,30224,358495,2123558,"[ 0  1  3  5  0  3  0  0  3  5  2  3  2  0  2  5  5  8  3  8  4  1  0  6
  1  1  1  0  1  2  3  8  4  0  6 13  2  3  3  4 11  8  4  0 12  1  3 18
  0  1 11  4  2 14  3  3 12  5 10 17  3 21 21  2 22 16  2 23 14  0 21 14
  4 16 16 15 14  6  4]"
7400,322.0,0.9375,6,2,56.76922798156738,6.979608535766602,4157,30624,362978,2151112,"[ 0  1  3  0  2  3  0  0  3  1  0  3  2  0  2  5  8  7  4  2  5  1  0  0
  0  5  1  0  1  2  3  8  4  0  6 13  0  2  3  3  1  8  4  0  4  3 10  9
  3  2 14  4 15 14  2  3 17  0  2 17  0 23 21  3 18 16  2 15 14  0 18 19
  3 16 19 15 14  6  4]"
7500,322.0,0.9375,6,2,57.5108118057251,7.415838241577148,4206,31024,367770,2180376,"[ 0  1  3  0  1  1  0  0  3  3  2  1  2  0  2  0  6  5  1  3  1  5  3  4
  3  5  4  0  1  2  3  8  4  0  6 13  2 10  2  1  1 12  1  5  4  3  0 17
  2 12 16  1 10 17  3  0 18  2 13  1  5 20  0  5  3 21  3 19 15  4 16  0
  0 16 18 15 14 13  4]"
7600,322.0,0.9375,6,2,58.265095233917236,7.542834281921387,4258,31424,372631,2210443,"[ 0  1  3  5  0  1  0  0  3  3  2  3  2  0  2  1  6  5  3  2  4  0  3  5
  3  6  3  0  1  2  3  8  4  0  6 13  0  4 13  4 10  3  1 11  5  4  9  1
  0 12  3  0  0 10  3  9 10  1 12 12  4  2 23  5 19  0  4 16 18  4  1 23
  4 16 18 15 14 13  4]"
7700,322.0,0.9375,6,2,59.01403570175171,7.489404678344727,4310,31824,377444,2240043,"[ 0  1  3  5  2  1  0  0  3  0  2  3  2  0  2  5  2  8  2  2  4  3  5  2
  1  1  8  0  1  2  3  8  4  0  6 13  3  8 13  2 10  2  3 13  5  2 11 11
  1 11 11  0  0 10  2  2 15  2 12 18  2 19 23  2 23 15  3 15 22  5  1  2
  4  2 20 15 14  6  4]"
7794,340,1.0,9,3,59.70768356323242,7.379232568943754,4360,32200,381792,2268079,"[ 0  1  3  0  0  0  0  0  3  5  0  3  2  0  2  5  7  6  2  2  2  3  5  5
  0  6  5  0  1  2  3  8  4  0  6 13  1  3  0  4 11  1  0  3  5  5 18  2
  1 14 18  5  0 17  4  2 15  4 13 18  5  0  0  5 16 15  3 15 22  5  1 20
  3  0 22 15 14 23  4]"
7800,340,1.0,9,3,59.746604681015015,6.486852963765462,4362,32224,381971,2269679,"[ 0  1  3  0  0  0  0  0  3  3  0  3  2  0  2  5  7  6  2  3  2  5  5  5
  0  6  5  0  1  2  3  8  4  0  6 13  1  3  0  4  4  1  0  3  5  5 18  2
  1 14 18  5  0 17  4  2 15  4 13 18  5  0  0  5 16  3  3 15 22  5 17 20
  3  0 22 15 14 23  4]"
7900,342,1.0,8,2,60.28981280326843,5.43208122253418,4417,32624,384538,2290700,"[ 0  1  3  3  0  1  0  0  3  5  0  3  2  0  2  4  2  0  3  3  8  1  2  1
  5  7  5  0  1  2  3  8  4  0  6 13  0  3  0  0  0  5  0  3  0  5 10 18
  2 14  1  2 10  3  0  1 15  4 13 18  5  0 22  1 15 17  0 23 14  3 14 20
  1 23 20 15 14 23  4]"
8000,342,1.0,8,2,60.77416944503784,4.843566417694092,4480,33024,386734,2308085,"[ 0  1  3  3  1  1  0  0  3  4  0  1  2  0  2  0  5  2  1  4  8  3  2  1
  5  8  3  0  1  2  3  8  4  0  6 13  3 10  0  2 11  5  0  3  0  2  3  9
  0 14 15  3 10  3  0 18  0  4 13 18  0  0 22  2  3 16  4  1  1  5  2 20
  0 21  0 15 14 23  4]"
8100,342,1.0,8,2,61.2696852684021,4.955158233642578,4538,33424,389062,2326489,"[ 0  1  3  4  0  3  0  0  3  5  2  2  2  0  2  5  4  2  2  6  0  0  8  6
  0  8  6  0  1  2  3  8  4  0  6 13  3  3 13  1 10  2  0  3  0  3 18 14
  0 11 12  3 10  3  4  1 16  4 13 18  2 19  2  3 19 16  4 18 17  4 22 20
  0  3 16 15 14 23  4]"
8200,342,1.0,8,2,61.763654470443726,4.93969202041626,4603,33824,391325,2344333,"[ 0  1  3  1  3  1  0  0  3  5  2  2  2  0  2  2  4  4  0  0  5  0  8  6
  0  1  6  0  1  2  3  8  4  0  6 13  3 12  1  4 10  9  0  3  0  3  9 14
  0 11 12  3  2 16  2 11 16  4 13 18  3  3 14  5 19  2  1 18 23  1 16 15
  1 18  2 15 14 23  4]"
8300,342,1.0,8,2,62.31953144073486,5.558769702911377,4661,34224,393786,2363706,"[ 0  1  3  1  2  3  0  0  3  5  1  0  2  0  2  2  5  0  0  3  3  0  3  5
  0  1  3  0  1  2  3  8  4  0  6 13  2 12  7  4 13  9  0  3  0  5  9 17
  1 14  3  5  2 11  2 11  0  4 13 18  3 14  1  0 21 19  3 22  2  0 18 19
  1 18  0 15 14 23  4]"
8400,342,1.0,8,2,62.87203907966614,5.525076389312744,4711,34624,396446,2384756,"[ 0  1  3  3  3  3  0  0  3  5  0  0  2  0  2  4  6  0  0  0  0  3  3  2
  5  1  2  0  1  2  3  8  4  0  6 13  2  4 13  4 13 13  0  3  0  2 16 16
  0 11 18  5  2 11  3 16  1  4 13 18  2 14  1  3 21  3  3 20 18  0 15 19
  3 16 14 15 14 23  4]"
8500,342,1.0,8,2,63.37653470039368,5.044956207275391,4766,35024,398776,2403171,"[ 0  1  3  2  3  3  0  0  3  2  0  2  2  0  2  2  0  0  4  7  5  3  3  6
  4  5  2  0  1  2  3  7  4  0  6 13  1  8 13  4 11  8  0  3  0  2 13 17
  4 14  3  3 12 11  2 10 16  4 13 18  4 14  2  0  0 20  3 17  0  1 19 22
  3 15 22 15 14 23  4]"
8600,342,1.0,8,2,63.85933232307434,4.827976226806641,4824,35424,401007,2420869,"[ 0  1  3  3  0  0  0  0  3  2  0  2  4  2  0  2  8  1  3  3  7  2  7  2
  2  5  0  0  1  2  3  7  4  0  6 13  3  8  2  1 11  7  0  3  0  0 13  0
  2 11  3  0 10 11  2 17 15  4 13 18  3 18 18  5 17 18  4 20  0  0 16 17
  3 15 22 15 14 23  4]"
8700,342,1.0,8,2,64.41642475128174,5.570924282073975,4881,35824,403270,2438760,"[ 0  1  3  1  1  1  0  0  3  2  0  2  4  3  0  5  8  1  3  6  1  2  7  1
  2  3  8  0  1  2  3  7  4  0  6 13  3  8  5  4  4  6  0  3  0  4 13 10
  1 14  2  2 12  3  1  9 11  4 13 18  0 23 16  5 21 14  5 22 23  0 20 16
  1 15 23 15 14 23  4]"
8800,342,1.0,8,2,64.9598958492279,5.43471097946167,4931,36224,405826,2458961,"[ 0  1  3  4  0  2  0  0  3  2  0  2  2  0  1  2  8  3  4  6  2  3  5  2
  4  1  6  0  1  2  3  7  4  0  6 13  5 10  5  4  4  8  0  3  0  5 13  9
  2 14 17  2 12 14  1 12 10  4 13 18  4 16 22  5  0 20  3  1 20  2  2 20
  5 15  1 15 14 23  4]"
8900,342,1.0,8,2,65.47875595092773,5.188601016998291,4989,36624,408177,2477528,"[ 0  1  3  2  2  0  0  0  3  2  0  2  2  2  1  1  5  5  0  8  4  3  5  5
  0  1  8  0  1  2  3  7  4  0  6 13  0  4  5  5  6 13  0  3  0  4 13  9
  2 14  3  1 12 14  1 12 14  4 13 18  1 19 23  5 22 20  4 18  2  2 18 17
  1 15 21 15 14 23  4]"
8939,343,1.0,7,2,65.67354273796082,4.994533000848232,5009,36780,409116,2484947,"[ 0  1  3  2  3  0  0  0  3  2  0  2  3  2  1  1  1  7  0  4  4  3  8  3
  5  6  6  0  1  2  3  7  4  0  6 13  0  4  5  4  6 13  0  3  0  2  0  9
  5  1  3  3 12 14  2 12 11  4 13 18  1 23  3  2  2 16  3 15  2  2 18  1
  1 16 21 15 14 17  4]"
