generation,fitness,functionality,active_nodes,longest_path,time,gen_time,nc_gens,fitness_evals,graph_evals,node_evals,genotype
0,216.0,0.625,10,4,0.04708218574523926,47.08218574523926,0,8,120,815,"[ 1  3  2  4  3  3  0  2  0  1  3  0  2  2  3  2  3  7  1  7  8  2  4  6
  5  0  0  0  2  1  0  2  6  0  6  2  2  7  1  1  8 10  0  8  6  3 13  3
  5 13  1  4  3 16  1  0 13  0 14  0  0  2 18  3 17 14  1  3 14  2  2 19
  0 22  3 22 25 22  4]"
100,307.0,0.90625,9,4,0.906804084777832,8.597218990325928,39,408,5402,41053,"[ 3  1  2  5  2  1  1  2  2  4  1  1  2  0  2  5  8  7  1  0  2  5  8  6
  2  7  3  0  2  1  0  9  3  3  4  1  0 10 13  1  8  8  1  1  6  3 13 13
  5 10 17  0  0 14  4 14 13  0  3  1  5  2 20  3 17 14  0 14 14  0  2 18
  5 23  3 13 25 22 23]"
200,328.0,0.984375,13,4,1.7973837852478027,8.905797004699707,83,808,9264,86349,"[ 1  1  2  2  2  2  0  2  2  4  1  1  2  0  0  5  8  7  2  1  7  1  8  6
  1  2  3  0  6  1  0  9  3  3  4  1  5  7  0  1  5  8  3  6 13  3  2 13
  3 10  9  1 16 14  4 14 13  0  3  1  5  2 18  3 17 23  3  0 16  3 15 16
  2 16  2 20 25 22 23]"
300,332.0,0.984375,10,3,2.5161826610565186,7.187988758087158,135,1208,12339,120240,"[ 4  2  1  2  2  2  2  3  2  0  2  2  2  0  2  2  8  0  4  2  5  4  5  3
  0  0  3  0  2  1  0  0  3  4  5  8  1  7  4  1  5  8  2  3  2  3  2 15
  3 10  1  0 16 16  4 14 13  0  3  1  5 15 18  3 17 23  3  3 16  4 16  3
  1 16 21 20 25 22 23]"
400,332.0,0.984375,10,3,3.1729371547698975,6.567544937133789,181,1608,15500,152192,"[ 2  2  2  3  0  0  2  2  2  3  0  2  5  2  0  0  4  4  1  2  5  4  3  7
  5  1  1  0  2  1  0  0  3  1  5  0  5  0 12  1  5  4  5  0  5  0  2 15
  3  0 10  1  2 15  4 14 13  0  3  1  5 18 20  3 17 23  0 23 19  3 20  3
  1  1 19 20 25 22 23]"
500,334.0,0.984375,8,3,3.797938108444214,6.250009536743164,233,2008,18657,180143,"[ 4  3  1  2  2  0  2  2  1  1  3  0  5  2  1  1  7  0  5  4  1  5  3  7
  5  7  1  0  2  1  0  0  3  3 11  0  4 12  3  1  5  5  3  6  4  3  2 16
  3 12 17  3 11 14  4 14 13  0  3  1  0  2 14  3 17 23  5 15 19  2  1 23
  4  1  1 28 25 22 23]"
600,334.0,0.984375,8,3,4.297947883605957,5.000097751617432,298,2408,21138,200945,"[ 3  3  1  2  2  0  3  2  1  0  3  1  4  2  1  1  7  8  0  7  6  5  4  1
  5  0  1  0  2  1  0  0  3  2 11  0  3 12  8  0  5  5  3  0 12  0 16 16
  5 12  2  3  9 13  4 14 13  0  3  1  4 22  3  3 17 23  2 15  0  2  1 15
  4  1  1 28 25 22 23]"
700,334.0,0.984375,8,3,4.844821929931641,5.468740463256836,357,2808,23872,223776,"[ 3  1  1  2  2  0  0  2  2  3  1  1  2  0  1  4  2  8  2  8  0  5  1  1
  5  0  5  0  2  1  0  0  3  2  7  9  0 12  8  0  5  5  4  6 12  0  9 14
  3 12 12  4  9 13  4 14 13  0  3  1  4 15  3  3 17 23  1 16 23  1  3 21
  4  1  1 28 25 22 23]"
800,334.0,0.984375,8,3,5.392504453659058,5.47682523727417,415,3208,26772,247694,"[ 2  1  2  2  2  0  1  0  3  5  2  2  5  1  2  5  7  8  5  8  1  2  2  3
  5  0  5  0  2  1  0  0  3  5  7 10  4  0  0  1  5  5  5  8  9  0  9 14
  3 12 11  4  2 12  4 14 13  0  3  1  4 15  3  3 17 23  4  2  0  4  3 14
  4  1  1 28 25 22 23]"
900,334.0,0.984375,8,3,5.908168792724609,5.156643390655518,470,3608,29385,269303,"[ 1  2  2  2  2  0  0  2  2  5  0  3  5  0  1  3  7  8  5  8  7  2  0  7
  1  3  5  0  2  1  0  0  3  0  7  5  0  2  0  0  5  5  5  8  9  0 14 15
  4  3  0  3 16 12  4 14 13  0  3  1  0 15 18  3 17 23  1  2  2  4 23 20
  4  1  1 28 25 22 23]"
1000,334.0,0.984375,8,3,6.455395698547363,5.472269058227539,542,4008,32108,291968,"[ 4  2  2  2  2  0  3  1  3  2  2  3  5  1  0  0  5  5  3  8  7  2  6  2
  1  5  5  0  2  1  0  0  3  0  7  1  5  3  3  0  5  5  5  2  0  0  2 12
  4  3 15  5 16 14  4 14 13  0  3  1  2 15 18  3 17 23  1  2  0  1 20 14
  4  1  1 28 25 22 23]"
1100,334.0,0.984375,8,3,6.986693382263184,5.312976837158203,605,4408,34962,315398,"[ 4  2  2  2  2  0  2  3  0  5  2  2  1  0  0  4  5  8  3  7  2  1  8  2
  0  5  8  0  2  1  0  0  3  4  1  4  5  3  4  1  5  4  3 13 10  4 12 12
  3 10 14  5 18  2  4 14 13  0  3  1  0  1 21  3 17 23  1 18 17  3 23 16
  5  2  0  4 25 22 23]"
1200,334.0,0.984375,8,3,7.518445253372192,5.317518711090088,663,4808,37805,338454,"[ 4  2  2  2  2  0  2  3  3  5  3  1  4  3  1  3  5  8  4  7  1  3  8  2
  3  1  4  0  2  1  0  0  3  2  6  6  5  3  4  0  5  5  4  4  0  4 11 15
  3 10 16  2  9  1  4 14 13  0  3  1  1 16 16  3 17 23  1 18  0  0 20 20
  0 20 16  4 25 22 23]"
1300,334.0,0.984375,8,3,8.049694776535034,5.312495231628418,721,5208,40640,361494,"[ 4  2  2  2  2  0  5  2  3  0  3  0  4  3  1  2  8  8  4  7  1  4  4  4
  0  1  5  0  2  1  0  0  3  2  7  6  4 11  1  1  5  4  4 11  4  1  9 16
  5  1 16  5  9  9  4 14 13  0  3  1  1  1  0  3 17 23  4  0 14  4 14 23
  2 14 22  4 25 22 23]"
1400,334.0,0.984375,8,3,8.612205028533936,5.625102519989014,773,5608,43535,385172,"[ 4  2  2  2  2  0  3  2  3  5  3  3  0  0  1  4  1  4  1  4  2  2  4  7
  2  2  0  0  2  1  0  0  3  3  6  7  4 11  1  1  5  5  4  2  1  5 18 16
  5 16  2  0  0 13  4 14 13  0  3  1  3 14  1  3 17 23  4 18 21  5 17 18
  1 14 20 21 25 22 23]"
1402,341,1.0,8,3,8.627831220626831,7.813096046447754,773,5616,43618,385847,"[ 4  2  2  2  2  0  3  2  3  5  3  3  0  0  1  4  1  4  1  4  2  2  4  7
  2  2  0  0  2  1  0  0  3  3  6  7  4 11  1  1  5  5  4  2  1  5 18 16
  5 16  2  0 14 13  4 14 13  0  3  1  3 14  1  3 17 23  4 18 21  5 17 18
  1 14 20 21 25 22 23]"
1500,341,1.0,8,3,9.03411865234375,4.145790119560397,835,6008,45571,401575,"[ 4  0  2  2  2  0  3  2  1  0  3  3  0  3  3  2  3  1  1  4  1  1  1  1
  1  6  1  0  2  1  0  0  3  3  6 13  5  1  1  1  5  5  4  5  0  5 18 16
  5 18 10  0 14 13  4 14 13  0  3  1  4 14  1  5 17 21  0 14 21  5 17 23
  1 21 19 21 25 22 23]"
1600,341,1.0,8,3,9.440372467041016,4.062538146972656,895,6408,47531,417211,"[ 3  3  0  2  2  0  0  3  1  0  1  3  0  3  3  3  3  3  0  4  1  5  4  4
  0  6  4  0  2  1  0  0  3  0  8  6  3 11  5  1  5  5  1 13 10  0 18  9
  5 15  0  0 14 13  4 14 13  0  3  1  4 23 17  5 17 21  2 20 21  5 17 23
  1 22 19 21 25 22 23]"
1700,341,1.0,8,3,9.893775224685669,4.534027576446533,950,6808,49679,434450,"[ 1  0  0  2  2  0  0  3  2  0  2  2  3  1  1  3  6  2  4  1  0  5  4  8
  2  3  6  0  2  1  0  0  3  0  8  6  2  7 13  1  5  5  5 11  4  0 10  9
  1  2  1  0 14 13  4 14 13  0  3  1  5  1 17  5 17 21  2 19 19  0 17  0
  1 22 19 21 25 22 23]"
1800,341,1.0,8,3,10.30002498626709,4.062497615814209,1011,7208,51594,449831,"[ 3  2  0  2  2  0  0  3  2  4  2  1  2  2  1  3  6  2  3  1  1  5  5  3
  2  3  4  0  2  1  0  0  3  2  4  9  0  7 13  0  5  5  5  7  4  4 17 17
  3  0  9  0 14 13  4 14 13  0  3  1  1 22 17  3 17 21  5 22 22  5 23 21
  5 20 17 21 25 22 23]"
1900,341,1.0,8,3,10.721900224685669,4.218752384185791,1070,7608,53601,465893,"[ 2  2  3  2  2  0  1  1  2  3  1  3  2  0  1  3  6  2  5  0  1  4  4  0
  2  3  2  0  2  1  0  0  3  2  9  8  0  8  8  1  5  5  3  5  8  3 17 14
  3 11 10  0 14 13  4 14 13  0  3  1  5 15 17  3 17 21  5 22 22  4 20  2
  4 22 23 21 25 22 23]"
2000,341,1.0,8,3,11.144176959991455,4.222767353057861,1132,8008,55559,481384,"[ 2  2  1  2  2  0  4  1  2  0  1  3  2  2  1  3  3  2  0  0  5  3  0  1
  3  3  2  0  2  1  0  0  3  5  9  8  0  0  8  1  5  5  3  5  6  3  3  3
  3 11 15  0 14 13  4 14 13  0  3  1  5 17 16  3 17 21  5 19 21  4 23  2
  5 16 15 21 25 22 23]"
2100,341,1.0,8,3,11.550426244735718,4.062492847442627,1188,8408,57515,496942,"[ 2  2  1  2  2  0  3  2  2  0  3  3  2  1  3  1  3  4  1  0  2  1  0  1
  3  8  2  0  2  1  0  0  3  5 13  8  4  0  8  0  5  5  3  5  6  4  3 12
  3 12 15  0 14 13  4 14 13  0  3  1  5 17  2  5 17 21  3 21 16  4 22  2
  5 15 14 21 25 22 23]"
2200,341,1.0,8,3,11.957111597061157,4.0668535232543945,1254,8808,59393,511975,"[ 1  0  3  2  2  0  3  2  2  0  3  0  1  1  3  1  7  2  0  3  2  1  0  1
  1  2  5  0  2  1  0  0  3  0 13  8  0  0  6  0  5  5  5  5  6  1  0 12
  3 10 11  0 14 13  4 14 13  0  3  1  5 20  2  3 17 21  3 22  1  1 22 20
  5 15 15 21 25 22 23]"
2300,341,1.0,8,3,12.363350629806519,4.062390327453613,1314,9208,61396,528052,"[ 2  3  3  2  2  0  2  0  1  0  3  3  2  2  3  2  4  7  4  1  5  1  6  0
  4  4  1  0  2  1  0  0  3  1  8  2  2  6  6  1  5  5  3  9 13  5  0 18
  1 18 10  0 14 13  4 14 13  0  3  1  5 15  0  3 17 23  3 22  1  2 16  0
  5 15 22 21 25 22 23]"
2400,341,1.0,8,3,12.769603729248047,4.062530994415283,1377,9608,63255,543151,"[ 5  2  1  2  2  0  2  0  1  3  3  3  4  2  2  5  0  0  3  6  1  3  6  3
  2  4  8  0  2  1  0  0  3  0  7 10  1  9  8  1  5  5  1  3 12  3 18 18
  5 15  0  0 14 13  4 14 13  0  3  1  0  1  2  3 17 23  3 23 16  0 20 23
  4  0 23 21 25 22 23]"
2500,341,1.0,8,3,13.160271406173706,3.906676769256592,1443,10008,65033,557400,"[ 5  0  1  2  2  0  2  2  2  2  3  3  0  0  3  1  0  2  4  6  6  1  3  5
  4  4  8  0  2  1  0  0  3  4  4 10  1  5  0  1  5  5  2 13  5  5 18 18
  5 18  0  0 14 13  4 14 13  0  3  1  0 15  0  5 17 21  2  2 16  2  2 21
  1 18 23 21 25 22 23]"
2600,341,1.0,8,3,13.566481351852417,4.062099456787109,1505,10408,66894,572271,"[ 4  1  3  2  2  0  2  2  0  2  0  0  2  0  0  4  0  2  1  8  7  2  0  5
  4  0  0  0  2  1  0  0  3  2 11  7  4  8 10  1  5  5  2  0  0  5 18 12
  4 18 11  0 14 13  4 14 13  0  3  1  0 20  3  3 17 21  2 15 18  2  2 23
  2 19  0 21 25 22 23]"
2700,341,1.0,8,3,13.988736629486084,4.22255277633667,1570,10808,68861,588065,"[ 3  0  3  2  2  0  2  2  0  2  0  2  2  0  0  3  0  2  3  4  7  2  0  6
  4  8  0  0  2  1  0  0  3  5 11 11  0  5 12  1  5  5  4  5  5  5  0 17
  4  2 18  0 14 13  4 14 13  0  3  1  3 20  3  3 17 21  1 15 18  0 14 23
  5  2 16 21 25 22 23]"
2800,341,1.0,8,3,14.426862955093384,4.381263256072998,1627,11208,71026,605414,"[ 0  0  3  2  2  0  2  2  2  1  3  3  1  3  1  5  4  8  3  2  1  2  8  6
  3  6  1  0  2  1  0  0  3  2  3  9  2 12 11  1  5  5  3 13  7  3  2  3
  2  2 16  0 14 13  4 14 13  0  3  1  0 16  3  3 17 23  1  1 15  0 20 18
  5  3 14 21 25 22 23]"
2900,341,1.0,8,3,14.833060503005981,4.061975479125977,1692,11608,72908,620471,"[ 5  0  0  2  2  0  2  2  2  5  3  1  1  3  1  0  0  0  3  3  1  2  7  6
  3  6  1  0  2  1  0  0  3  2 13  9  2 12 12  1  5  5  3  4  0  1 14 18
  2 15 12  0 14 13  4 14 13  0  3  1  0 16  0  3 17 23  1  1 23  1 21 18
  5 19  1 21 25 22 23]"
3000,341,1.0,8,3,15.254936456680298,4.218759536743164,1757,12008,74904,636470,"[ 4  0  3  2  2  0  0  0  2  3  3  3  1  1  2  1  1  0  1  1  8  2  7  6
  3  6  5  0  2  1  0  0  3  4  8  9  1  3 10  1  5  5  0  2  9  1 16  0
  0 15 12  0 14 13  4 14 13  0  3  1  4 19 22  3 17 23  4 18 20  1 20  0
  5 16  1 21 25 22 23]"
3100,341,1.0,8,3,15.661184549331665,4.062480926513672,1814,12408,76874,652293,"[ 5  0  0  2  2  0  3  2  3  3  0  0  1  0  1  5  5  8  1  4  8  5  8  6
  1  0  0  0  2  1  0  0  3  4  8  9  2  3  6  0  5  5  2 10  0  3 14  0
  4 17 14  0 14 13  4 14 13  0  3  1  4 22 14  3 17 21  3 23  0  1 20  3
  4 16 23 21 25 22 23]"
3200,341,1.0,8,3,16.06782603263855,4.066414833068848,1877,12808,78721,667121,"[ 5  0  3  2  2  0  3  3  3  4  2  1  0  2  3  4  5  8  1  6  4  4  8  0
  4  3  1  0  2  1  0  0  3  5  2 13  0  5  5  1  5  5  4  4  0  4 10 15
  4 17  3  0 14 13  4 14 13  0  3  1  4 22 14  3 17 21  4 16  0  2 20 20
  1 16 22 21 25 22 23]"
3300,341,1.0,8,3,16.53657627105713,4.687502384185791,1941,13208,80785,683594,"[ 5  0  3  2  2  0  5  2  3  1  2  3  5  1  2  2  4  6  2  6  4  5  0  2
  1  0  1  0  2  1  0  0  3  2  6 13  1  7 11  1  5  5  2  4 12  4 14 15
  3  1 13  0 14 13  4 14 13  0  3  1  4 23 20  3 17 23  5 16  2  2 19 15
  4  0 22 21 25 22 23]"
3400,341,1.0,8,3,16.927760362625122,3.9118409156799316,2008,13608,82610,698210,"[ 2  1  2  2  2  0  3  2  3  0  3  3  0  1  2  3  2  0  4  2  4  2  3  6
  0  8  1  0  2  1  0  0  3  5  3  1  5 11 11  0  5  5  1 13  6  5 10 15
  1 13  0  0 14 13  4 14 13  0  3  1  4 19 18  5 17 21  5 16 22  2 23 16
  0  0 22 21 25 22 23]"
3500,341,1.0,8,3,17.35003900527954,4.2227864265441895,2061,14008,84533,713541,"[ 0  2  1  2  2  0  3  2  3  2  3  1  0  3  2  3  6  8  4  4  3  5  2  6
  0  8  1  0  2  1  0  0  3  3  0  7  2  2 13  0  5  5  0 13  5  5 15 17
  1  2 12  0 14 13  4 14 13  0  3  1  3 21 15  3 17 21  1 19  1  3 23 19
  0 19  1 21 25 22 23]"
3600,341,1.0,8,3,17.7563374042511,4.062983989715576,2119,14408,86511,729412,"[ 0  1  3  2  2  0  5  1  2  4  0  2  1  2  2  0  0  7  4  4  3  0  1  4
  5  8  1  0  2  1  0  0  3  3 11  2  4  2  2  0  5  5  4  5  4  5 14 11
  1 10  0  0 14 13  4 14 13  0  3  1  0 21  3  3 17 23  1 19 15  0 23 19
  0 18  0 21 25 22 23]"
3700,341,1.0,8,3,18.16258955001831,4.062521457672119,2186,14808,88448,744784,"[ 3  3  2  2  2  0  5  1  3  4  2  2  2  3  2  4  4  2  4  3  3  1  8  6
  5  8  1  0  2  1  0  0  3  3 11  2  0  3 10  1  5  5  0  4  6  5 17  1
  5 10 15  0 14 13  4 14 13  0  3  1  0 18 19  3 17 23  1 19  3  4 23 19
  0 18 21 21 25 22 23]"
3800,341,1.0,8,3,18.568798780441284,4.062092304229736,2256,15208,90363,760130,"[ 5  3  2  2  2  0  4  0  3  1  2  2  1  3  3  0  1  0  5  3  3  3  0  6
  5  4  1  0  2  1  0  0  3  1  1  8  2  3  1  1  5  5  0  1  7  5 15 12
  4 10 15  0 14 13  4 14 13  0  3  1  4  3  1  3 17 21  0 21 17  1 23 19
  0 15 16 21 25 22 23]"
3900,341,1.0,8,3,18.991126775741577,4.22327995300293,2320,15608,92298,775573,"[ 0  3  2  2  2  0  4  0  0  4  2  2  2  1  3  0  4  0  5  3  1  3  0  5
  5  4  8  0  2  1  0  0  3  1  7  0  4  5 13  0  5  5  2  1  8  5 10  3
  4 16  0  0 14 13  4 14 13  0  3  1  1 20 16  3 17 21  0 21  2  2 17  1
  4 23 14 21 25 22 23]"
4000,341,1.0,8,3,19.397369146347046,4.0624237060546875,2376,16008,94315,791748,"[ 4  3  2  2  2  0  3  0  0  3  2  1  2  2  2  1  6  0  4  0  6  3  3  4
  5  4  8  0  2  1  0  0  3  3 10  0  1  5 13  1  5  5  5  4  4  5 16 16
  4 17 17  0 14 13  4 14 13  0  3  1  1  2 16  3 17 21  2 21  2  0  3 19
  2 23 16 21 25 22 23]"
4100,341,1.0,8,3,19.803616762161255,4.06247615814209,2442,16408,96158,806506,"[ 4  2  2  2  2  0  3  2  0  3  2  3  3  2  1  0  7  4  2  6  6  4  2  7
  3  4  8  0  2  1  0  0  3  3 11  5  1  5  6  1  5  5  2  4  4  5 12  0
  4 16 15  0 14 13  4 14 13  0  3  1  4 19 16  5 17 21  4 19 16  3  3  3
  3 17  3 21 25 22 23]"
4200,341,1.0,8,3,20.225494861602783,4.218780994415283,2500,16808,98241,823177,"[ 2  2  2  2  2  0  3  2  1  3  1  1  3  0  1  5  6  4  2  2  0  4  3  0
  3  4  8  0  2  1  0  0  3  3  0 13  5  7  6  1  5  5  2 10  6  5 12 10
  5 16 15  0 14 13  4 14 13  0  3  1  1 18  1  5 17 21  4  2 16  5  2  2
  5 16 18 21 25 22 23]"
4300,341,1.0,8,3,20.647319078445435,4.218242168426514,2554,17208,100171,838736,"[ 4  2  2  2  2  0  0  0  1  4  0  2  3  0  1  2  6  8  2  1  4  5  5  6
  1  4  7  0  2  1  0  0  3  3  4 13  3 11  6  0  5  5  3  8  9  4  9  9
  2  9  0  0 14 13  4 14 13  0  3  1  1 16  1  5 17 21  4  3  1  2 14  1
  5 20  2 21 25 22 23]"
4400,341,1.0,8,3,21.0535786151886,4.062595367431641,2620,17608,102076,854039,"[ 5  0  2  2  2  0  3  0  0  4  1  0  3  3  1  1  8  8  2  5  3  5  5  3
  1  8  5  0  2  1  0  0  3  5  1  2  3 11 12  1  5  5  0 10 10  4 18  9
  2  2  1  0 14 13  4 14 13  0  3  1  1  0 15  3 17 23  5  3 14  5 17 16
  1 20  0 21 25 22 23]"
4500,341,1.0,8,3,21.491509199142456,4.379305839538574,2679,18008,104187,870890,"[ 5  2  1  2  2  0  5  1  2  2  0  0  0  3  0  1  6  8  1  7  4  3  1  1
  2  4  5  0  2  1  0  0  3  3  7  1  2 13  1  0  5  5  0 11 10  4  1  1
  3 10 13  0 14 13  4 14 13  0  3  1  1 19  2  3 17 23  1 14 17  0 17 16
  1 16  3 21 25 22 23]"
4600,341,1.0,8,3,21.91337823867798,4.218690395355225,2741,18408,106129,886361,"[ 2  0  1  2  2  0  5  0  1  3  2  0  0  1  1  2  6  4  0  2  3  3  1  1
  2  3  5  0  2  1  0  0  3  3  1  3  2  5  1  1  5  5  5 11  7  3  9 13
  3 10 10  0 14 13  4 14 13  0  3  1  2 17 18  3 17 23  4 14 16  0 20  3
  1  1  3 21 25 22 23]"
4700,341,1.0,8,3,22.350883960723877,4.375057220458984,2797,18808,108214,902950,"[ 0  3  0  2  2  0  0  1  1  3  0  3  0  3  0  3  6  8  3  5  5  0  1  6
  0  8  5  0  2  1  0  0  3  0  1  3  5  9  8  1  5  5  5 11  0  5 11 13
  3 10  0  0 14 13  4 14 13  0  3  1  3 17 19  3 17 23  4 22  3  0 14  0
  3  1 17 21 25 22 23]"
4800,341,1.0,8,3,22.7884259223938,4.375419616699219,2848,19208,110365,920141,"[ 0  0  0  2  2  0  5  3  3  5  0  1  5  1  1  2  1  2  1  3  0  3  1  6
  5  8  5  0  2  1  0  0  3  3  7  3  5  1  6  0  5  5  5  1  6  5 11 13
  3 10 16  0 14 13  4 14 13  0  3  1  2  2 18  3 17 21  3 16 20  1 14  3
  3  1 16 21 25 22 23]"
4900,341,1.0,8,3,23.19467282295227,4.062469005584717,2902,19608,112279,935400,"[ 1  0  1  2  2  0  1  3  3  3  0  1  4  3  2  2  7  5  1  3  2  4  1  4
  1  8  4  0  2  1  0  0  3  2  4 10  2  8 12  1  5  5  5 11  3  4 17  3
  1 10 10  0 14 13  4 14 13  0  3  1  5 18 15  5 17 21  3 21 21  1 14 17
  3 16 19 21 25 22 23]"
5000,341,1.0,8,3,23.601482391357422,4.068095684051514,2963,20008,114198,950865,"[ 5  3  1  2  2  0  1  3  1  2  1  3  1  0  2  2  1  5  1  8  4  0  1  6
  5  8  5  0  2  1  0  0  3  3 10 10  2  8  1  0  5  5  3 11  0  3  3  1
  1  2 12  0 14 13  4 14 13  0  3  1  1 19  0  5 17 21  0  3  1  2  2  3
  1 16  1 21 25 22 23]"
5100,341,1.0,8,3,24.00768542289734,4.06203031539917,3027,20408,116122,966247,"[ 1  2  3  2  2  0  1  3  3  0  2  3  2  2  2  4  1  5  3  8  6  0  5  6
  5  2  5  0  2  1  0  0  3  3  8 12  5  8  1  1  5  5  1  0  0  3  3 16
  2 14 12  0 14 13  4 14 13  0  3  1  1 19  1  5 17 21  3 14  1  4  2  1
  0 16 15 21 25 22 23]"
5200,341,1.0,8,3,24.42954993247986,4.218645095825195,3087,20808,118029,981554,"[ 5  1  2  2  2  0  3  3  3  0  2  1  3  2  3  3  1  5  3  8  7  4  5  6
  5  2  8  0  2  1  0  0  3  4 12 12  3  8  6  1  5  5  0  5 12  0  3  3
  2 14  9  0 14 13  4 14 13  0  3  1  4 19 17  3 17 21  5 14 23  3 19 16
  0 15  1 21 25 22 23]"
5300,341,1.0,8,3,24.820175170898438,3.9062523841857906,3152,21208,119902,996591,"[ 5  2  1  2  2  0  3  1  3  5  2  2  1  2  0  4  3  5  0  8  5  5  1  6
  2  2  7  0  2  1  0  0  3  3 13  4  2  6  2  0  5  5  0  4 12  3 10  1
  2 12  9  0 14 13  4 14 13  0  3  1  4 16  2  3 17 23  4 21 17  2 18 16
  0  3 20 21 25 22 23]"
5400,341,1.0,8,3,25.242101669311523,4.219264984130859,3217,21608,121849,1012171,"[ 4  1  1  2  2  0  2  0  3  5  2  2  0  0  2  5  2  4  1  3  3  5  1  6
  4  0  5  0  2  1  0  0  3  0  6  4  3  6  2  0  5  5  4  0  9  0 10  3
  2 17  9  0 14 13  4 14 13  0  3  1  5 16 14  3 17 23  1 21 19  2 21 16
  0  3 20 21 25 22 23]"
5500,341,1.0,8,3,25.61711359024048,3.750119209289551,3284,22008,123634,1026405,"[ 4  1  3  2  2  0  3  0  1  0  1  2  4  1  2  0  1  6  3  0  3  5  6  7
  2  3  0  0  2  1  0  0  3  5  6 11  0  6  6  0  5  5  4 12  7  5 10  1
  3 17 18  0 14 13  4 14 13  0  3  1  5 16 14  3 17 23  1 23 17  2 21 21
  0 23  0 21 25 22 23]"
5600,341,1.0,8,3,26.05489993095398,4.37786340713501,3342,22408,125465,1041089,"[ 5  1  3  2  2  0  3  1  0  3  1  2  1  2  2  4  3  5  0  3  0  5  7  5
  2  7  2  0  2  1  0  0  3  3  6 11  2  5 10  0  5  5  2 12 10  5 12 12
  2 18  2  0 14 13  4 14 13  0  3  1  1 18  3  3 17 23  5 23 23  0 17 22
  1 14 22 21 25 22 23]"
5700,341,1.0,8,3,26.492444038391113,4.375441074371338,3401,22808,127460,1057107,"[ 0  1  1  2  2  0  3  3  1  5  1  3  4  2  2  1  4  7  4  5  0  5  2  6
  1  7  4  0  2  1  0  0  3  4  6 13  3  4  6  0  5  5  3  3  7  5  9  2
  4  0 10  0 14 13  4 14 13  0  3  1  1 18 23  3 17 23  5 23  0  4  2 15
  1  0 17 21 25 22 23]"
5800,341,1.0,8,3,26.88303017616272,3.9058613777160645,3467,23208,129327,1071994,"[ 1  1  1  2  2  0  3  3  1  5  1  0  4  2  3  5  6  0  5  3  0  3  1  3
  4  6  4  0  2  1  0  0  3  5 13  4  1  9  5  1  5  5  3  7  1  5  1  2
  3  1 10  0 14 13  4 14 13  0  3  1  0 18 23  3 17 23  5  3 20  0 18 18
  5 22 17 21 25 22 23]"
5900,341,1.0,8,3,27.28932809829712,4.062979221343994,3532,23608,131233,1087307,"[ 0  3  1  2  2  0  3  0  3  5  3  0  2  2  0  1  0  0  2  3  0  0  1  3
  1  3  6  0  2  1  0  0  3  1 13  9  4 10 13  1  5  5  3  3  4  3 16 18
  0 11 10  0 14 13  4 14 13  0  3  1  4 19 23  3 17 23  5  3 19  0  2 18
  5 22 18 21 25 22 23]"
6000,341,1.0,8,3,27.727181911468506,4.378538131713867,3591,24008,133273,1103681,"[ 0  2  3  2  2  0  4  2  1  5  1  2  1  1  1  3  5  0  4  4  7  1  4  5
  3  1  6  0  2  1  0  0  3  3  6  1  5 13  4  0  5  5  0  2  2  5 16  1
  1  9 10  0 14 13  4 14 13  0  3  1  1 19 14  5 17 21  4 15 21  1  2 17
  1 14 22 21 25 22 23]"
6100,341,1.0,8,3,28.14905595779419,4.218740463256836,3646,24408,135312,1120006,"[ 4  1  1  2  2  0  2  2  3  2  1  2  4  2  3  2  6  4  3  1  7  1  2  4
  2  7  6  0  2  1  0  0  3  1  0  7  4  3  1  1  5  5  4  3  4  3  1  3
  2 15 10  0 14 13  4 14 13  0  3  1  1  1 23  5 17 21  2 17 19  2 18  2
  5  3 21 21 25 22 23]"
6200,341,1.0,8,3,28.570903539657593,4.218475818634033,3699,24808,137365,1136486,"[ 5  2  0  2  2  0  2  3  3  5  1  2  4  2  0  1  4  7  3  4  4  0  7  1
  2  4  0  0  2  1  0  0  3  1  0  7  4  6  8  1  5  5  5  3 12  4  1 16
  0 17 11  0 14 13  4 14 13  0  3  1  1  2 16  3 17 23  1 15 18  5  1  1
  0 20  0 21 25 22 23]"
6300,341,1.0,8,3,28.992734909057617,4.218313694000244,3755,25208,139401,1152966,"[ 5  2  0  2  2  0  3  3  3  2  3  0  3  2  3  1  0  6  3  0  6  3  7  2
  2  2  0  0  2  1  0  0  3  1 10 12  2 10  3  0  5  5  5 11 12  0 10 11
  3 13 11  0 14 13  4 14 13  0  3  1  1 14 16  3 17 21  2 15 18  0 23 21
  0  0 19 21 25 22 23]"
6400,341,1.0,8,3,29.398984670639038,4.062497615814209,3813,25608,141298,1168102,"[ 5  1  3  2  2  0  3  3  1  4  3  0  1  2  2  1  0  6  0  5  6  4  2  2
  4  8  0  0  2  1  0  0  3  2  2 13  4  0  7  0  5  5  1  2 12  4 10 10
  4 18 18  0 14 13  4 14 13  0  3  1  0 23 19  5 17 21  0  0 18  5 17  2
  2  0  2 21 25 22 23]"
6500,341,1.0,8,3,29.789609670639038,3.90625,3880,26008,143065,1182278,"[ 0  2  2  2  2  0  0  3  0  1  1  0  5  2  2  1  8  8  5  5  6  4  0  2
  3  6  1  0  2  1  0  0  3  0 13 13  4  0  9  1  5  5  5  9  7  5 11 10
  4 14 10  0 14 13  4 14 13  0  3  1  2 20 15  5 17 21  3  0  0  4 22  2
  5 21 21 21 25 22 23]"
6600,341,1.0,8,3,30.211484909057617,4.218752384185791,3934,26408,145050,1198184,"[ 5  0  0  2  2  0  1  3  0  0  0  3  5  1  0  5  8  8  2  5  3  4  2  3
  1  3  4  0  2  1  0  0  3  4 13  9  4 13  9  0  5  5  5  9  7  5 11 10
  5 16 11  0 14 13  4 14 13  0  3  1  0 20 15  3 17 23  2  3 23  4 21 22
  3 21 15 21 25 22 23]"
6700,341,1.0,8,3,30.618205070495605,4.067201614379883,3992,26808,146989,1213608,"[ 3  1  0  2  2  0  1  3  0  3  0  0  3  1  0  1  8  4  0  5  1  2  3  3
  4  5  1  0  2  1  0  0  3  4  0  6  1 13  8  0  5  5  5 11  7  1 12 15
  1 17  1  0 14 13  4 14 13  0  3  1  0 20 15  3 17 21  0  3  1  4 20  2
  2 21 22 21 25 22 23]"
6800,341,1.0,8,3,31.04008197784424,4.218769073486328,4046,27208,149004,1229738,"[ 3  3  0  2  2  0  1  3  3  1  0  0  1  0  1  5  6  4  0  5  5  5  1  8
  4  2  8  0  2  1  0  0  3  2  0  1  1 12  5  0  5  5  4  4  7  1  1  0
  1 18 14  0 14 13  4 14 13  0  3  1  0 20 15  3 17 21  0 23  1  5 18 20
  0 21 21 21 25 22 23]"
6900,341,1.0,8,3,31.446333169937134,4.062511920928955,4112,27608,150884,1244831,"[ 3  1  0  2  2  0  2  3  3  4  0  2  1  2  0  4  2  7  4  4  6  1  2  8
  5  1  8  0  2  1  0  0  3  2  5 12  5  9 11  0  5  5  1 10  7  5 12  9
  0 10  2  0 14 13  4 14 13  0  3  1  3 20  3  5 17 21  0 15 15  5 18 20
  0 21 21 21 25 22 23]"
7000,341,1.0,8,3,31.852542638778687,4.062094688415527,4175,28008,152734,1259804,"[ 0  0  1  2  2  0  2  0  2  4  2  3  1  1  1  2  2  1  3  8  6  1  2  5
  4  5  3  0  2  1  0  0  3  2  1  4  0 11  5  1  5  5  3 11  5  5 12  9
  0  9  2  0 14 13  4 14 13  0  3  1  5 21  3  5 17 21  5 17  0  3 18 15
  2 21 22 21 25 22 23]"
7100,341,1.0,8,3,32.258846044540405,4.0630340576171875,4238,28408,154667,1275144,"[ 0  0  0  2  2  0  2  0  3  5  2  3  0  1  1  1  2  1  3  5  2  1  2  5
  2  5  3  0  2  1  0  0  3  2  1  4  4 12  8  1  5  5  3 11  6  5  0 10
  5  9 16  0 14 13  4 14 13  0  3  1  4  1 18  5 17 21  5  0 23  5  0  1
  2 21 19 21 25 22 23]"
7200,341,1.0,8,3,32.680705070495605,4.218590259552002,4294,28808,156711,1291419,"[ 1  3  1  2  2  0  4  2  3  4  0  1  1  0  1  0  3  5  3  7  2  0  4  2
  1  5  3  0  2  1  0  0  3  3  7  3  3 12 11  1  5  5  3 10  6  0 18 17
  4  9 16  0 14 13  4 14 13  0  3  1  3  1  2  5 17 21  5 15 17  2 19  1
  1 23 22 21 25 22 23]"
7300,341,1.0,8,3,33.087459087371826,4.067540168762207,4358,29208,158582,1306406,"[ 1  2  2  2  2  0  4  2  3  4  0  0  1  0  1  5  3  4  0  7  3  0  6  1
  1  5  3  0  2  1  0  0  3  3  7  7  1  7 13  1  5  5  3 11  6  5  3 13
  3  9 17  0 14 13  4 14 13  0  3  1  1 19  2  5 17 21  3 15  2  1 16  0
  1 19 20 21 25 22 23]"
7400,341,1.0,8,3,33.49371910095215,4.062600135803223,4422,29608,160535,1322002,"[ 1  0  0  2  2  0  5  2  3  4  0  0  5  0  1  5  5  7  4  8  3  0  8  1
  1  4  3  0  2  1  0  0  3  3 11  7  3 11  9  1  5  5  0 11 10  2  3 13
  3 11 17  0 14 13  4 14 13  0  3  1  2  1 21  5 17 21  3 15  2  3 17  2
  1 19 15 21 25 22 23]"
7500,341,1.0,8,3,33.900009870529175,4.062907695770264,4477,30008,162357,1336738,"[ 1  0  3  2  2  0  2  0  2  1  0  0  5  2  0  1  4  5  4  5  7  2  5  6
  0  1  3  0  2  1  0  0  3  0 11 11  3 10  9  0  5  5  3 10  6  4  3 11
  1 17 15  0 14 13  4 14 13  0  3  1  2 22 21  3 17 21  3 19 21  5  1 17
  1 15  0 21 25 22 23]"
7600,341,1.0,8,3,34.29063582420349,3.906259536743164,4539,30408,164117,1350954,"[ 4  3  3  2  2  0  4  2  3  1  3  0  5  2  3  3  4  7  4  5  4  2  4  2
  1  8  3  0  2  1  0  0  3  4 11  9  0  7 12  0  5  5  4  9  6  4 13  0
  1 18 15  0 14 13  4 14 13  0  3  1  2 22 16  5 17 21  4 21 20  4  0 22
  3 16 22 21 25 22 23]"
7700,341,1.0,8,3,34.69684410095215,4.062082767486572,4595,30808,166084,1366638,"[ 2  3  1  2  2  0  1  0  1  2  2  0  5  1  3  3  4  3  4  5  4  1  0  4
  1  8  8  0  2  1  0  0  3  2 11  9  0  9 10  0  5  5  1  9 12  1 16  0
  0 11 14  0 14 13  4 14 13  0  3  1  3 14  3  3 17 21  4 21 20  4  2  0
  3  1 16 21 25 22 23]"
7800,341,1.0,8,3,35.134345293045044,4.375011920928955,4649,31208,168093,1382738,"[ 2  0  0  2  2  0  3  0  2  2  2  0  0  1  3  5  5  8  0  1  1  0  0  4
  4  8  7  0  2  1  0  0  3  2  1 13  2  9 10  1  5  5  4 13  9  0 16  0
  3 18 14  0 14 13  4 14 13  4  3 16  3 14  1  3 17 21  4 14 18  1  2 16
  3  0 18 21 25 22  8]"
7900,341,1.0,8,3,35.55665111541748,4.223058223724365,4706,31608,170204,1399616,"[ 4  2  0  2  2  1  3  3  0  2  2  0  0  1  3  5  5  3  0  8  1  0  0  7
  2  0  5  0  2  1  0  0  3  5 12  2  2  8 12  1  7  8  4 13  9  5 13 15
  5  9 11  0 14 13  4 14 13  4  3 18  3  0  1  2 17 17  2 14 19  1 20 14
  1 19  2 21 25 22  8]"
8000,341,1.0,8,3,35.99419355392456,4.375424385070801,4760,32008,172383,1417045,"[ 0  2  0  3  0  1  3  1  3  2  2  0  0  1  3  3  6  3  0  5  8  3  7  7
  2  8  2  0  2  1  0  0  3  0 10  5  4  4 13  1  7  8  2  4 11  5  9 15
  5  9  3  0 14 13  4 14 13  2 13 14  1 15  1  2 17 17  0 14  3  1 15 14
  2 14 18 21 25 22  8]"
8100,341,1.0,8,3,36.43169021606445,4.374966621398926,4819,32408,174544,1434277,"[ 3  2  0  1  1  2  1  3  0  2  2  0  0  1  3  3  6  4  0  5  8  1  8  7
  3  1  2  0  2  1  0  0  3  3 12  6  2  2  2  1  7  8  5  4  0  1  1 15
  5  9  3  0 14 13  4 14 13  2 13  1  1 16  2  2 17 17  0  0 21  1 16 14
  4 14 18 21 25 22  8]"
8200,341,1.0,8,3,36.83788990974426,4.061996936798096,4885,32808,176508,1449981,"[ 5  1  0  4  0  0  1  0  0  2  2  0  0  1  3  1  4  1  3  5  2  2  6  5
  2  4  8  0  2  1  0  0  3  3  9 11  1  2 13  1  7  8  5  6  0  4  1 15
  4  2  3  0 14 13  4 14 13  0  2  1  3 20 22  2 17 17  0  0  0  2 16  0
  4 19 23 21 25 22  8]"
8300,341,1.0,8,3,37.25976514816284,4.218752384185791,4942,33208,178462,1465724,"[ 5  3  0  1  1  0  1  2  0  2  2  0  0  1  3  2  6  1  3  7  7  2  6  0
  2  5  2  0  2  1  0  0  3  5  7  4  1  2  4  1  7  8  0  6  0  4  3 18
  4  2  3  0 14 13  4 14 13  5 12 11  4 20 19  3 17 21  0 18  1  5  2  2
  1 18 19 21 25 22  8]"
8400,341,1.0,8,3,37.68209934234619,4.223341941833496,4998,33608,180540,1482449,"[ 1  2  1  2  2  0  2  0  0  2  2  0  0  1  3  5  6  6  5  3  7  2  0  5
  5  4  6  0  2  1  0  0  3  1  5  4  4  2  5  0  7  7  4  9  6  5  3 12
  0  2  1  0 14 13  4 14 13  5 12 14  5 18 22  3 17 21  4 17  3  4 21 15
  2 15 19 21 25 22  8]"
8500,341,1.0,8,3,38.1039719581604,4.21872615814209,5057,34008,182485,1497996,"[ 1  1  1  1  2  0  5  3  0  2  2  0  0  1  3  4  6  6  0  7  7  4  7  7
  5  2  6  0  2  1  0  0  3  3  9  4  3  2  5  0  7  7  5  9 11  5  3 15
  0  3  2  0 14 13  4 14 13  5  2  1  4 18 19  5 17 21  5 20  0  1 21 15
  0 14 19 21 25 22  8]"
8600,341,1.0,8,3,38.49460005760193,3.9062809944152836,5120,34408,184341,1512739,"[ 2  3  1  1  3  2  5  3  0  2  2  0  0  1  3  5  4  3  0  0  6  4  5  5
  3  2  3  0  2  1  0  0  3  2  4  4  5  0  4  0  7  7  5  9  6  3 13 10
  0 15  2  0 14 13  4 14 13  4  1 10  4 18 21  5 17 21  0  2  0  1 17 14
  4  0 19 21 25 22  8]"
8700,341,1.0,8,3,38.9088180065155,4.142179489135742,5179,34808,186285,1528267,"[ 1  0  1  2  0  2  0  3  2  2  2  0  0  1  3  5  4  3  0  3  6  2  3  8
  3  2  5  0  2  1  0  0  3  4  7 13  1  0 11  1  8  7  5 11  3  1  1 18
  4 16  2  0 14 13  4 14 13  5 10 10  3 18  2  3 17 21  3 21  0  1 21 16
  3  1 14 21 25 22  8]"
8800,341,1.0,8,3,39.33873271942139,4.299147129058838,5236,35208,188377,1545015,"[ 4  0  1  5  0  2  0  0  3  2  2  0  0  1  3  5  3  6  4  3  6  0  3  0
  2  2  5  0  2  1  0  0  3  3  0  5  0  2 11  1  8  7  3  2 10  0 13  3
  0  0  2  0 14 13  4 14 13  2 10 12  2 23 22  3 17 21  5 18 18  1 21 14
  3 19 16 21 25 22  8]"
8900,341,1.0,8,3,39.77682447433472,4.380917549133301,5293,35608,190431,1561394,"[ 2  0  1  4  1  0  0  2  3  2  2  0  0  1  3  0  8  7  1  3  1  5  6  0
  1  2  8  0  2  1  0  0  3  2 10 10  4  4  2  1  8  7  1 11 10  2 13  3
  0  2 14  0 14 13  4 14 13  2 12 12  2 19 22  3 17 17  2 14 15  0 14  2
  1 15 23 21 25 22  8]"
9000,341,1.0,8,3,40.198652267456055,4.218277931213379,5343,36008,192594,1578643,"[ 5  1  2  1  3  2  4  0  2  2  2  0  0  1  3  5  0  2  4  3  3  5  8  6
  1  2  4  0  2  1  0  0  3  2  9  9  4  4  2  1  8  7  5  7 12  5 13 10
  5  1 18  0 14 13  4 14 13  3  9 12  0 21 14  2 17 17  2 14 22  4 15  2
  1 17  2 21 25 22  8]"
9100,341,1.0,8,3,40.62053728103638,4.218850135803223,5403,36408,194616,1594796,"[ 5  3  0  1  2  0  0  0  0  2  2  0  0  1  3  0  2  6  3  4  3  4  2  4
  4  8  7  0  2  1  0  0  3  5  5  4  4  7  0  1  8  7  5  7  4  0 13 15
  0 10 10  0 14 13  4 14 13  0  3 11  5 21 17  3 17 17  4 14 15  4  3 19
  2 17 20 21 25 22  8]"
9200,341,1.0,8,3,41.0736620426178,4.531247615814209,5457,36808,196913,1613058,"[ 1  2  3  4  3  0  0  3  3  2  2  0  0  1  3  2  8  1  5  2  3  1  6  7
  4  4  6  0  2  1  0  0  3  5 12  8  1  3  0  1  8  7  1  5 12  0  9 18
  0 18 10  0 14 13  4 14 13  1  0  2  3 16 20  2 17 17  2 17  1  2  3 19
  2 15  3 21 25 22  8]"
9300,341,1.0,8,3,41.51116228103638,4.375002384185791,5515,37208,198966,1629513,"[ 1  1  3  0  3  2  1  3  3  2  2  0  0  1  3  2  0  5  2  2  7  1  6  7
  5  2  2  0  2  1  0  0  3  0  3  5  2 11  4  1  8  7  2  0 11  0  9 18
  0 15  1  0 14 13  4 14 13  4 18 12  3 16 19  3 21 17  2 17  1  2  3 17
  5  1 21 21 25 22  8]"
9400,341,1.0,8,3,41.93343782424927,4.222755432128906,5574,37608,201046,1646118,"[ 1  1  1  5  3  1  0  3  0  2  2  0  0  1  3  4  0  3  1  7  3  1  4  8
  0  6  2  0  2  1  0  0  3  0 12  5  2 10 10  1  8  7  1  2  5  0  9 18
  0 11  9  0 14 13  4 14 13  4  1  2  0 15 21  3 21 17  0  3  1  0 17 17
  4  1 16 21 25 22  8]"
9500,341,1.0,8,3,42.3867404460907,4.533026218414307,5630,38008,203265,1663844,"[ 1  0  2  0  0  2  3  0  0  2  2  0  0  1  3  2  7  8  1  4  8  0  7  8
  0  5  8  0  2  1  0  0  3  2  6  5  5 10  2  1  7  7  1  1  5  0 15  9
  5  3 17  0 14 13  4 14 13  1 17 18  2 21  1  5 21 17  1 15 23  3 19  0
  3 15 16 21 25 22  8]"
9600,341,1.0,8,3,42.824647426605225,4.379069805145264,5679,38408,205429,1681135,"[ 4  3  2  3  1  0  5  0  3  2  2  0  0  1  3  3  3  8  2  8  8  3  8  4
  0  6  8  0  2  1  0  0  3  0  4  2  5  0  9  0  7  7  1  3  5  0 17 18
  5 11  1  0 14 13  4 14 13  3 17  3  5  3 15  5 21 17  0 15 17  3 19 17
  3  1 20 21 25 22  8]"
9700,341,1.0,8,3,43.27781844139099,4.531710147857666,5727,38808,207645,1698830,"[ 3  2  2  5  0  1  0  0  1  2  2  0  0  1  3  4  3  1  2  4  2  1  8  7
  2  4  1  0  2  1  0  0  3  1  9 12  5  9 12  1  7  7  4  6 12  0 10  3
  4 12 13  0 14 13  4 14 13  2  9  1  5 22 16  3 21 17  5 23 17  2 22  3
  5 14 20 21 25 22  8]"
9800,341,1.0,8,3,43.7152783870697,4.374599456787109,5776,39208,209803,1716070,"[ 3  1  3  5  1  1  0  0  3  2  2  0  0  1  3  4  8  1  0  4  5  1  2  7
  3  3  2  0  2  1  0  0  3  1 12  8  4  1 13  1  7  7  0  6 12  1 10  0
  3  0 18  0 14 13  4 14 13  4 14  2  5 22  1  3 21 17  0 15  2  5  1 18
  5 17 15 21 25 22  8]"
9900,341,1.0,8,3,44.13714361190796,4.218652248382568,5833,39608,211802,1732121,"[ 2  1  1  4  0  3  0  1  3  2  2  0  0  1  3  3  0  1  5  3  5  1  8  4
  1  7  5  0  2  1  0  0  3  2 11  0  1  1 13  0  7  7  1  6  6  3 10 17
  2  0  2  0 14 13  4 14 13  4 12  2  5 21 16  3 21 17  0  1 16  0 14  1
  4 14 19 21 25 22  8]"
10000,341,1.0,8,3,44.544211864471436,4.070682525634766,5894,40008,213707,1747425,"[ 4  3  1  4  2  0  1  3  0  2  2  0  0  1  3  3  7  5  2  1  5  5  4  5
  1  7  4  0  2  1  0  0  3  2 11  0  0  5 11  1  7  8  4  6  9  3 10 11
  2  0  1  0 14 13  4 14 13  2 12  2  1 18  0  3 21 17  1  1 18  3 23 17
  4 20 19 21 25 22  8]"
10100,341,1.0,8,3,44.95091390609741,4.067020416259766,5959,40408,215618,1762802,"[ 4  1  2  3  2  1  4  3  2  2  2  0  0  1  3  3  2  5  4  0  5  5  4  5
  1  2  4  0  2  1  0  0  3  2 11  6  5  2  4  0  7  7  3  6 12  5 10 11
  2 12  1  0 14 13  4 14 13  3 12  2  1 14  0  3 21 17  1  1 18  3 23 17
  4 18 18 21 25 22  8]"
10200,341,1.0,8,3,45.40403699874878,4.531230926513672,6016,40808,217773,1780056,"[ 5  2  1  5  1  0  3  0  0  2  2  0  0  1  3  0  6  6  4  7  6  1  6  3
  5  2  2  0  2  1  0  0  3  4  1 13  2 12  6  1  8  7  3  9 13  3 13  3
  0 15 17  0 14 13  4 14 13  0 12  3  3 15 14  3 21 17  3 14 19  3 16  0
  4 17 15 21 25 22  8]"
10300,341,1.0,8,3,45.84149670600891,4.374597072601318,6075,41208,219949,1797415,"[ 5  0  3  4  1  1  5  2  3  2  2  0  0  1  3  0  6  3  0  2  7  5  1  3
  5  2  2  0  2  1  0  0  3  0  1 13  2  3  4  1  8  7  3 10  6  2 13  3
  1  3 17  0 14 13  4 14 13  5  3 15  4 21 14  2 17 17  2  3 14  1  1  0
  4  1 18 21 25 22  8]"
10400,341,1.0,8,3,46.24774670600891,4.0625,6142,41608,221896,1812923,"[ 5  1  1  4  2  1  0  2  2  2  2  0  0  1  3  0  6  4  2  6  8  4  5  3
  5  6  0  0  2  1  0  0  3  2  1 13  3  3  4  1  8  7  1  2  6  2 13 14
  1  2 11  0 14 13  4 14 13  5 15 15  4 22 20  3 17 17  2 18 15  0  1  0
  1  1 16 21 25 22  8]"
10500,341,1.0,8,3,46.65399646759033,4.062497615814209,6206,42008,223838,1828452,"[ 2  3  1  4  2  1  1  3  2  2  2  0  0  1  3  0  7  4  2  3  7  4  3  3
  0  6  0  0  2  1  0  0  3  4 11  6  4 11  3  1  8  7  3  5  1  1 13 14
  3 16 14  0 14 13  4 14 13  3  9 16  2 22  1  3 21 17  2 17 15  0 20  0
  1 21 23 21 25 22  8]"
10600,341,1.0,8,3,47.09188985824585,4.378933906555176,6257,42408,225869,1844804,"[ 3  3  2  4  3  2  5  3  2  2  2  0  0  1  3  3  8  4  1  7  7  2  4  1
  2  8  1  0  2  1  0  0  3  4 11 10  5  1 11  1  7  8  1 12  9  1 11 14
  3 11 10  0 14 13  4 14 13  3 12 14  5  0 15  3 21 17  5 16 20  4 22  2
  2 23 18 21 25 22  8]"
10700,341,1.0,8,3,47.49813795089722,4.062480926513672,6314,42808,227861,1860733,"[ 2  2  0  4  3  3  5  0  2  2  2  0  0  1  3  3  8  3  1  7  0  3  4  7
  2  5  2  0  2  1  0  0  3  4  3  3  0  3 11  1  7  8  2  6  0  1 11 17
  1 10 17  0 14 13  4 14 13  5 12  2  5 18 14  3 21 17  4 16 20  4 22 18
  5 23 14 21 25 22  8]"
10800,341,1.0,8,3,47.935585737228394,4.374477863311768,6363,43208,229946,1877399,"[ 2  2  0  4  0  2  4  1  0  4  0  0  0  1  3  3  8  4  1  3  0  5  3  6
  4  5  2  0  2  1  0  0  3  1  8  1  5  3  5  1  8  4  2  6  0  2 16 10
  4 15 17  0 14 13  4 14 13  5 11  2  2 18  0  3 17 17  0 23 22  4 23  1
  1  1  0 21 25 22  8]"
10900,341,1.0,8,3,48.34183645248413,4.062507152557373,6429,43608,231815,1892316,"[ 2  2  0  4  3  1  0  0  3  3  0  3  0  1  3  4  0  4  1  5  1  0  0  8
  3  4  8  0  2  1  0  0  3  4  1  1  2  9  5  1  8  4  0 13  3  2  0 10
  3  1 16  0 14 13  4 14 13  0 14  2  3 18 20  3 21 17  1 18  2  1 15 15
  0 19 18 21 25 22  8]"
10911,343,1.0,7,2,48.38871192932129,4.2614069851962,6435,43652,232036,1894082,"[ 2  2  0  4  3  1  0  0  3  3  0  3  0  1  3  4  0  4  1  5  1  0  0  8
  3  4  8  0  2  1  0  0  3  4  3  1  2  9  5  1  8  4  0  9  3  2  0 10
  3  1  3  0 14 13  4 14 13  0 14  2  3 18 20  3 21 17  1 18  2  1 15 15
  0 19 18 21 12 22  8]"
