generation,fitness,functionality,active_nodes,longest_path,time,gen_time,nc_gens,fitness_evals,graph_evals,node_evals,genotype
0,135.0,0.328125,9,3,0.017194032669067383,17.194032669067383,0,0,0,0,"[ 4  3  1  2  1  0  3  0  0  2  2  1  2  0  3  2  1  0  0  5  3  2  1  1
  2  1  1  0  8  7  2  6  3  4  2  5  3  2  3  2  4 12  4  4  9  4 14 13
  4 15 10  2  4 12  0  5 15  2 16 20  1  6 17  3 10 16  5 15 16  2 12 13
  5 23 15  2  1 10  2  3 16  0 23 14  2  1 25  5  0 14  2  0 29  4 30 17
  0 17 25  0 24 32  5 32  2  5 29 24 21 19  8  7]"
100,314.0,0.875,6,2,1.0463128089904785,10.291187763214111,24,400,5576,38371,"[ 1  3  1  4  0  2  4  1  2  0  3  1  0  0  3  0  2  1  2  5  6  4  7  1
  5  8  0  5  1  3  4  9  6  2  7  8  4 14  7  0 14 14  3 14  9  0  0  6
  4  0  7  4 13 13  5  4 21  2  5  7  4 11  7  4 10 21  4 10 17  4 10  1
  5 24 15  1  1 12  3 21  2  0 26 24  1 17  0  5 16 19  3  2 22  3 16 28
  0  3 23  1 17 20  5 30 26  1 33 17 21 19  8  7]"
200,316.0,0.875,4,2,1.7552525997161865,7.08939790725708,67,800,10804,63431,"[ 4  3  3  1  3  0  4  3  2  0  3  1  0  0  3  1  2  0  3  8  8  4  8  2
  1  8  6  2  0  2  0  6  3  1  3  3  5  9 14  4  2 14  1  5  5  0  5 12
  1  7  2  4 13 13  4 15 18  4 15  7  5  9  1  2  8  2  0  7 15  4 14  8
  4 13 12  2 23 20  4 12 20  3 17 22  4 23 13  5 11  0  5 26 20  4  1 21
  3 22 23  1 32 16  3 17  2  5 26 22 21 21  8  7]"
300,316.0,0.875,4,2,2.475090980529785,7.198383808135986,105,1200,16169,87894,"[ 1  1  1  4  0  3  5  1  1  0  3  1  0  0  3  1  2  3  4  4  3  4  0  8
  3  1  4  3  3  0  3  6  7  4  2  7  0 10  5  2  5 11  3  9  9  5  9  9
  2  2  5  4 13 13  5 15  2  0 11 17  5 19 17  5 14 14  5 15  1  0 14  0
  0  3 13  1 25 12  1  2 24  0 13  2  1 25 18  1 27 11  1  3  2  5 22 24
  2  2 21  5 20 25  3 19 18  4 23 17 21 21  8  7]"
400,316.0,0.875,4,2,3.2680954933166504,7.9300451278686515,158,1600,21050,110345,"[ 1  1  3  1  3  3  1  1  0  0  3  1  0  0  3  4  2  3  3  4  0  3  4  9
  3  0  9  0  3  0  2  1  5  2  0  6  3 10  6  2 12 14  4  5  9  5  0  5
  2 13  5  4 13  8  2  3  8  1 15  3  1  3 12  3  1  9  0  3  5  2  3 20
  2 12  1  3 17 15  4 27  3  4  1 22  3 17 25  0 27 20  0 29 31  0 32 29
  2 24  1  3 25 26  1 27 30  1 31  1 21 21  8  7]"
500,316.0,0.875,4,2,3.8994789123535156,6.313834190368652,194,2000,26017,132940,"[ 3  1  3  2  3  2  2  3  2  0  3  1  1  0  2  4  2  3  1  0  4  1  8  8
  5  0  5  0  2  0  3  9  4  2  5  3  5 14  1  4  9 12  4 10  5  1  5  9
  4 10 11  4  8  8  2  5  0  1 12  3  4  6 15  3 17 13  0 20  7  2  8 18
  0 17 17  2 26 23  4 20 24  5 19 26  2 18 13  2 16 22  0 31  0  3 21 20
  5 27  2  3  1 23  1 33  2  2  2 26 21 13 13  7]"
600,320.0,0.90625,8,4,4.90007209777832,10.005931854248047,226,2400,31335,168337,"[ 3  0  1  2  0  0  1  1  2  0  3  1  5  2  0  2  2  3  0  5  1  1  6  1
  0  3  5  0  8  0  4  6  3  4  0  0  3  8  8  3  0  1  2  9  9  5  2  8
  2 11 14  4  8  8  0 11  0  2  4 13  1 10 13  5  0  6  4  8  0  2  4  6
  4 14 12  1 16 25  5  2 16  3 19 26  3 21 23  5 24  2  0 31  1  5 19 20
  5 32 33  4 25 21  3 22 27  4 22  3 21 13 34  7]"
700,321.0,0.90625,7,4,5.884135484695435,9.840633869171143,274,2800,36433,206755,"[ 4  0  0  1  2  2  1  2  0  0  3  1  5  2  0  4  0  3  0  5  5  3  6  7
  3  5  1  0  0  2  1  7  8  5  0  6  5  1 12  1  0  9  5  9 10  5  3  8
  0  5  9  4  8  8  4 16 11  0  2  0  2  9  8  4 20 21  0  8  0  5  2  1
  1 27 12  1  1 20  5 17 21  3 19 13  3  1 22  3 20 18  0 31  3  0 17  3
  5 18 24  3 18 20  1 22 27  2 16 16 21 13 34  7]"
800,325.0,0.90625,5,2,6.68390154838562,7.997660636901856,310,3200,41674,236044,"[ 3  1  0  0  3  3  1  2  2  0  3  1  5  1  1  0  1  2  4  3  2  1  0  4
  2  1  2  0  0  2  0  6  6  0  1  8  4 11 15  2  7  3  5  5  6  1  4  7
  1  3  6  4  8  8  4 20 10  4 18 10  2 21 10  4  5  0  0 18  0  5  2 17
  3  0 26  4  1 16  1 21  0  5 18 13  1 17 27  5 14 21  5  0  3  1  2  3
  3 22 20  4 26 25  3 25  2  2 30 22 21 13  9  7]"
900,325.0,0.90625,5,2,7.5317702293396,8.478686809539795,343,3600,46998,264341,"[ 0  0  1  4  2  1  0  2  1  0  3  1  0  1  2  0  1  2  5  6  0  4  6  7
  2  6  5  0  0  2  4  6  3  1  6  0  0  3  8  2 13  5  0 10 14  1  1  6
  2  5  7  4  9  8  4  0 16  3 15 18  3 14 10  0 20  8  2 21 14  5  4 16
  3 23  2  5 22 19  0  2 25  0 12 25  3 22 13  3  2  2  4 29  3  5 26 30
  3 23 30  1 18 18  1  0  2  0 26 19 21 13  9  7]"
1000,344.0,0.96875,6,2,8.231786966323853,7.000167369842529,383,4000,51638,290355,"[ 5  1  2  4  0  0  5  3  1  0  3  1  2  2  1  0  3  0  3  7  9  2  3  2
  3  2  5  0  0  2  0  5  4  1  7  3  4  2  0  2 10  6  2  3  0  4  8  7
  2 13 12  4  8  8  5 14 18  4  8  8  2  9 12  4  8 18  3 13  6  1  0  9
  1 26 11  1 14  0  4 21 13  2 13 26  2 15 17  2 27 27  2 22 17  5 29  2
  5 22 27  1 28 27  4 33 31  3 24 28 21 13 25  7]"
1100,344.0,0.96875,6,2,8.840816020965576,6.090290546417236,434,4400,55023,311614,"[ 0  2  2  4  2  3  5  1  2  0  3  1  2  2  1  3  2  0  2  3  2  1  3  0
  4  7  8  0  0  2  1  1  3  1  7  6  1  5 13  3 12  5  2  3  0  5  5  8
  5  8 15  4  8  8  1 14 11  3  9 15  5  9  4  4  8 18  4 12  2  5 10 20
  1 13 23  1  2  0  3  1 14  5 27 26  0 22  2  5 26 27  5 31 18  5 29 26
  1 22 29  5 27  3  2  2 20  3 29 28 21 13 25  7]"
1200,344.0,0.96875,6,2,9.389466524124146,5.486505031585693,500,4800,58410,332489,"[ 1  0  0  2  2  3  5  1  3  0  3  1  2  2  1  3  0  0  5  3  2  2  3  0
  4  2  8  0  0  2  1  1  1  1  1  0  3 11  3  4 10  2  2  3  0  1  5 14
  4  4  2  4  8  8  1 19 18  2  9 13  5  6 20  4  8 18  1 18 19  1 21 10
  0 14 25  1  2  0  5 15 14  0 21  3  0  3 26  5  2 10  5 31 23  1 18 30
  1 18 22  4 27  3  0  2 18  4 20  3 21 13 25  7]"
1300,344.0,0.96875,6,2,10.045761823654175,6.562952995300293,562,5200,61583,352278,"[ 1  3  2  4  1  1  1  2  3  0  3  1  2  2  1  5  0  1  4  2  8  4  8  5
  0  0  8  0  0  2  1  1  1  5  1  2  2  0 10  3 10  4  2  3  0  4 14  3
  1  1  8  4  8  8  1 17 20  4 11  9  0 17 20  4  8 18  1 16 11  5 21 12
  1  3 25  4 24 10  5  0 25  2  2  2  4 17 12  5 25  0  3 26 30  4 18 22
  3 18 31  4 24  3  1 32 19  0 26  3 21 13 25  7]"
1400,344.0,0.96875,6,2,10.664387702941895,6.186258792877197,622,5600,64978,373843,"[ 1  3  2  4  1  1  1  0  0  0  3  1  2  2  1  5  1  2  5  3  8  4  8  5
  4  7  8  0  0  2  3  5  8  4  1  3  0  0  2  2  1 12  2  3  0  1  8  1
  1  8  8  4  8  8  1 18  9  4 14  1  0 11 17  4  8 18  1 10 20  2  5 19
  1  3 23  1  2 10  1  3 24  5 27  2  0  3 24  3 10 13  2 32 27  4 19 25
  4 23 32  0 26 21  4 32 29  0 23 29 21 13 25  7]"
1500,344.0,0.96875,6,2,11.314132690429688,6.49744987487793,674,6000,68532,395913,"[ 1  2  0  5  3  3  1  0  1  0  3  1  2  2  1  3  0  1  4  0  2  4  0  5
  4  0  5  0  0  2  1  7  2  2  1  1  2 11 11  5 14 13  2  3  0  2 10  9
  3  7  2  4  8  8  1 19  3  0 15 19  5  0  3  4  8 18  1  3  0  3 13 19
  4 23 18  3 21 16  0 18 10  4 12 23  4 12 13  0 25  2  2 33 28  5  0 24
  5  2  1  2 25 21  0 31 18  4 22 33 21 13 25  7]"
1600,344.0,0.96875,6,2,12.006389617919922,6.922569274902344,727,6400,72040,417636,"[ 3  2  3  5  3  0  5  3  2  0  3  1  2  2  1  2  3  2  1  0  7  2  4  8
  0  5  0  0  0  2  0  3  1  2  2  3  5  7  8  1 10 11  2  3  0  1 10  0
  1  6  2  4  8  8  4 21  3  3  5 10  4 19 20  4  8 18  0  3  0  0  7  1
  1 11 18  4 27 19  1 18 24  5  0 23  0 12 19  5 24 15  5 18 21  3 23 23
  2 27  1  2 24 23  0 32 29  0 30 18 21 13 25  7]"
1700,344.0,0.96875,6,2,12.721532583236694,7.151429653167725,788,6800,75523,439523,"[ 4  3  3  5  1  3  5  3  3  0  1  1  2  2  1  2  3  1  0  9  1  1  4  6
  0  5  4  0  0  7  0  3  1  0  2  0  2 11 15  2 14  4  2  3  0  2  5  7
  3  2  8  4  8  8  4  0  3  1  4 21  4 18 18  4  8 18  0  4  2  5  2  8
  0 10 17  5 15 23  4 26 15  3 21 14  3 19 16  1 25 10  4 21 17  1 23 28
  4 23 18  1 23 23  0 23 16  2 31 23 21 15 25 14]"
1800,344.0,0.96875,6,2,13.414255142211914,6.927225589752197,844,7200,78993,461041,"[ 3  2  1  0  1  1  1  0  1  4  1  2  2  2  1  2  3  0  0  9  9  4  4  2
  5  1  0  4  5  2  0  3  1  0  2  0  2  3 15  5  7  4  0  9  0  1 13 14
  5 12  8  4  8  8  5  2  3  1 12  0  1 16 18  4  8  9  4  6  8  5 11 15
  4  0 20  2 19 23  3 22 15  5 20 10  0  3 26  3  3 18  4 27 17  1 25 28
  4 23 28  3 25 16  2 29 27  2 19 23 21 15 25 14]"
1900,344.0,0.96875,6,2,13.969834327697754,5.555791854858398,904,7600,82186,481058,"[ 3  3  1  4  0  0  1  2  3  0  2  2  2  2  1  2  3  0  2  3  6  4  2  2
  3  0  1  5  7  0  0  3  1  0  2  0  3 13 15  2 12 15  0  4  7  4 11  8
  2 10  2  4  8  8  0  2  7  1 20 18  4  3 18  4  8  9  3  6 11  2  0 15
  1 19 20  2 14 19  3 22 16  5 11 25  5 13 11  3 23 18  2  1 29  0 25 29
  4 28 28  4 25 21  2 31 32  2 22 28 21 15 25 14]"
2000,344.0,0.96875,6,2,14.63833236694336,6.684980392456055,958,8000,85547,501744,"[ 5  1  0  4  0  2  5  2  1  2  3  1  2  2  1  2  3  0  5  3  6  4  3  2
  0  0  5  0  7  0  0  3  1  0  2  0  3  7  4  1  6  5  2  4 13  4  5 11
  1 10  3  4  8  8  0  8 10  0  9 20  5  7  5  4  8  9  0 10 14  3 11 19
  1 19 19  0 24 18  0 15 14  1 11 25  0 24 11  2 23 18  1 20 18  0 26 18
  4 33 18  4 24 19  2  2 22  2 16  3 21 15 25 14]"
2100,344.0,0.96875,6,2,15.229841232299805,5.915088653564453,1019,8400,88920,522640,"[ 4  1  1  4  2  0  3  2  1  3  3  1  2  2  1  2  3  0  3  3  7  0  4  4
  4  9  8  4  0  1  0  3  1  0  2  0  3  7  4  1  5  5  5  4  4  4  1 10
  0 12  3  4  8  8  3 20  9  3 18 20  0  0  2  4  8  9  4 14  3  3  8  4
  3 15  0  0  1 18  2  2  2  2 10 14  1 24  2  2 23 27  1 16 33  3 20 19
  0 25 21  5 24 33  4  2 22  2 33  3 21 15 25 14]"
2200,344.0,0.96875,6,2,15.83347463607788,6.036334037780762,1073,8800,92284,543475,"[ 1  2  1  4  2  1  2  2  1  1  3  2  2  2  1  2  3  0  1  5  8  0  3  1
  4  6  4  4  3  7  0  3  1  0  2  0  5 14  2  4  7  5  0  4 10  1  1  6
  4 12  9  4  8  8  0  7  9  4 18 20  1  6 15  4  8  9  5 14  6  1 19  1
  1 11  0  2 22 15  2 20 14  2 10 17  1 25 25  4 18  2  2 33 16  3 20 31
  3 17 20  1  0 21  3 23 18  1 19 32 21 15 25 14]"
2300,344.0,0.96875,6,2,16.445605516433716,6.12130880355835,1129,9200,95839,565463,"[ 1  3  1  3  0  1  2  0  1  0  3  2  2  2  1  2  3  0  2  7  8  0  6  4
  5  6  6  5  1  7  0  3  1  0  2  0  4 10  2  1  2 11  2  4 10  5  0  7
  3 12 13  4  8  8  5  4 13  3  6  0  4 13  6  4  8  9  4  6  4  4 14  0
  0  3  0  3 21  3  4 12 26  4  2 16  5 14 19  5 22  2  0 20 17  1 19 17
  3 32  1  1 30 21  5  2 22  3 24  1 21 15 25 14]"
2400,344.0,0.96875,6,2,17.078828811645508,6.33223295211792,1192,9600,99129,585949,"[ 1  1  1  5  2  2  3  2  0  4  3  3  2  2  1  2  3  0  5  4  8  0  5  1
  5  3  0  0  1  3  0  3  1  0  2  0  4  4  2  4  2  8  2  4  1  5  9  4
  3  3  7  4  8  8  5  4 13  3  6  0  1 13  0  4  8  9  2 10 15  3 16  0
  4  3 26  5  0  1  0 25 12  4 15 15  3 14 19  0 22  2  0 26 17  2 19 23
  3  2  1  1 30  3  5 23 22  3 31 19 21 15 25 14]"
2500,344.0,0.96875,6,2,17.640185117721558,5.613563060760498,1247,10000,102576,607009,"[ 1  0  2  2  3  3  0  1  0  4  0  0  2  2  1  2  3  0  3  5  8  0  5  9
  1  3  0  1  4  7  0  3  1  0  2  0  5  6  3  1  2 12  4  5  1  3 10 11
  5  4 15  0  4  8  2  4  7  5  2 14  2  4  2  4  8  9  5  4 15  0 21 12
  4 20 13  2 22 24  2 25 20  4 15 15  1 21 16  0  2 14  0 20 22  1 27 27
  1 25 20  3 30 28  5 28 26  5 31 17 31 15 25 14]"
2600,344.0,0.96875,6,2,18.310607194900513,6.704220771789551,1312,10400,105904,627808,"[ 1  3  2  2  3  1  1  1  2  4  0  3  2  2  1  2  3  0  3  1  8  0  2  8
  1  0  6  1  4  2  0  3  1  0  2  0  3  3  5  1  7 15  4  8  3  3  3 10
  4 10 14  0  2 10  1  2 15  5  2 11  0 14  2  4  8  9  5  1 20  3  2 12
  4 16 20  2 22 21  1 14 18  4 15 15  0 27 25  0  2  2  0 20 22  3 27 27
  4 25 16  4 33 17  3 20 22  5  0 17 31 15 25 14]"
2700,349.0,0.984375,6,2,18.891852855682373,5.8124566078186035,1358,10800,108916,646503,"[ 0  2  2  2  1  2  1  3  0  1  0  2  2  2  1  2  3  0  3  9  8  5  9  6
  1  8  6  2  5  3  0  3  1  0  2  0  0 12  0  1  8 15  0  4  2  3  6  9
  4  1  9  5  3 10  4  8  8  0  8  6  5  9  0  4  8  9  0 17 16  1 18 20
  3 12 22  0 20  2  3 22 18  1 15 12  5 26 14  1 12 20  2 27 21  0 17  1
  3 31 30  4  3 17  1 27 26  3  1  0 10 15 25 14]"
2800,349.0,0.984375,6,2,19.40752410888672,5.156712532043457,1419,11200,111725,664095,"[ 0  2  3  3  1  2  2  2  0  5  0  2  2  2  1  2  3  0  3  9  8  5  5  6
  2  6  4  5  2  4  0  3  1  0  2  0  0  5  0  0  9  3  0  8  1  4 12 13
  1 11 13  0  3 10  4  8  8  3 18  2  2  9 11  4  8  9  0 17 13  4 18 20
  4 14 18  2 18 12  3 22 18  4 15 19  5 17 13  5 14 19  3 29 26  5 30 25
  0 31 30  2 25 32  2  0 28  0  1 17 10 15 25 14]"
2900,349.0,0.984375,6,2,20.01555895805359,6.080348491668701,1477,11600,114562,681888,"[ 3  3  2  5  2  0  0  0  3  2  1  2  2  2  1  2  3  0  3  9  8  0  5  2
  5  9  3  5  4  1  0  3  1  0  2  0  0  1 12  5  9  4  4  8 14  1 10 11
  2  9  9  2  6  6  5  8 12  4 11  1  4 21 13  4  8  9  3  1  0  5  5  0
  4 14  0  2 19  0  2  1  0  0 27 19  5 19  1  1 14 13  0 23 27  2 26  2
  2 29  3  0 25 18  5  0 24  3  1 17 10 15 25 14]"
3000,349.0,0.984375,6,2,20.595386505126953,5.798275470733643,1536,12000,117353,699356,"[ 1  3  1  1  1  3  2  2  3  5  2  1  2  2  1  2  3  0  3  9  8  0  0  2
  3  1  5  0  4  5  0  3  1  0  2  0  3  6 11  5  9 13  4 13  1  5 12  7
  5  0 12  0  7 11  5  3 12  3 11  3  3  0 16  4  8  9  3 12 13  2 17  9
  4  2 11  2 23 17  2 22  2  3 11  2  0 27  1  3  2 13  0  0 32  2 33 27
  3 25 28  1 23 33  2 29 29  3 21 17 10 15 25 14]"
3100,349.0,0.984375,6,2,21.087701559066772,4.923150539398193,1599,12400,120129,716643,"[ 0  3  0  5  3  0  3  1  3  1  0  3  2  2  1  2  3  0  3  9  8  3  0  3
  3  3  5  1  6  5  0  3  1  0  2  0  5  0  3  3 15  0  0 13 15  2  6  6
  3  0  1  4  7  8  4 21 10  1  9  3  2  8  3  4  8  9  3 15  5  0  3  9
  3 11 11  2 22 22  1 27 16  0 10  0  1 18 11  5 25 20  0 17 20  5 16 17
  4  2  3  3 29 22  0 18 26  5  2  0 10 15 25 14]"
3200,349.0,0.984375,6,2,21.638748168945312,5.5104660987854,1661,12800,122941,734342,"[ 4  3  0  0  3  0  0  0  2  1  0  3  2  2  1  2  3  0  3  9  8  0  7  5
  1  3  0  1  9  1  0  3  1  0  2  0  5  1  4  3 12 11  5 13  2  5 11  7
  3  0  7  2 14  7  4 18 17  3 17  3  4  8  3  4  8  9  2 15  2  2 13 21
  3 16 16  2 27 21  4 19 22  4 10 16  3 17 20  3 25 20  5 27  0  2 33 17
  4 26 28  3 32  3  0 18 28  4 31  3 10 15 25 14]"
3300,349.0,0.984375,6,2,22.214076280593872,5.753281116485596,1732,13200,125500,750368,"[ 3  3  0  0  2  0  0  1  2  5  0  0  2  2  1  2  3  0  3  9  8  2  6  5
  0  3  7  1  2  1  0  3  1  0  2  0  0  3  4  3  0 11  0  4 13  1 11 13
  3  6 12  1  4  5  4 18  6  0 17  0  1 21 21  4  8  9  2 15  2  0 13 12
  1 16  0  3 20 21  4 19 22  4 12 27  1 17 12  3 16 20  3 19 23  2 16 17
  0  3 28  4  2 26  0 27 31  1 24 31 10 15 25 14]"
3400,349.0,0.984375,6,2,22.842032432556152,6.279561519622803,1794,13600,128319,768200,"[ 4  1  0  0  1  2  0  3  2  1  0  1  2  2  1  2  3  0  3  9  8  2  6  1
  5  9  3  2  0  4  0  3  1  0  2  0  1  4 10  2 14  2  1 12  5  1 11 15
  1  0  2  4 15  7  1 19  1  0 15  6  4 21 18  4  8  9  0 14  6  0 16  6
  0 20 20  1 24 21  4 19 18  1 13 10  3 12 23  5 24 24  1 33 23  2 19 25
  2 29 16  2 31 32  0 27  1  2  0 21 10 15 25 14]"
3500,349.0,0.984375,6,2,23.471477508544922,6.294450759887695,1850,14000,131114,785741,"[ 4  2  0  4  0  1  3  3  2  1  1  2  2  2  1  2  3  0  3  9  8  2  7  1
  2  4  0  5  0  7  0  3  1  2  2  6  1  5  5  2 14 10  4 12  0  3  6  1
  0  0  6  4  9  7  5  0  5  2 15  9  4 17 18  4  8  9  3  1  3  3 13 13
  5  3 20  0 24 11  0 19 25  0 11 24  0  2  0  5 27 19  1 33 17  1 20 19
  1  1 19  5 24 20  0  1 20  2  3 24 10 32 25 14]"
3600,349.0,0.984375,6,2,24.026031017303467,5.545535087585449,1908,14400,134023,804227,"[ 4  1  1  4  0  2  3  3  3  3  2  1  2  2  1  2  3  0  3  9  8  5  5  5
  2  6  9  3  2  1  0  3  1  3  5  5  4  5 11  5  3 14  2 12 12  3 11 12
  5  5  0  0 15 10  2 16 13  0 18  1  3 13  7  4  8  9  2 14 20  4  2  1
  5  0 17  5  1 11  4  2 25  2 16 14  0  2  0  0  0 19  0 24 22  0 28 19
  3 28 32  5  1 25  3  1 17  4 27 23 10 32 25 14]"
3700,349.0,0.984375,6,2,24.613017559051514,5.869865417480469,1965,14800,136936,822957,"[ 5  0  3  1  0  2  3  3  2  3  2  3  2  2  1  2  3  0  3  9  8  2  4  7
  5  0  7  1  2  0  0  3  1  3  8  5  3 15  5  5  9  9  0 14  0  3  8 12
  2 11  2  1  7 10  2  1 11  0  0 13  5  6  4  4  8  9  0  5  6  3 10 15
  4 24 17  3  3 11  3 11 23  3 27 26  0  2  0  5 27 19  1 18 19  0 23 24
  3 31 21  5  3 25  1  1  3  5 29 17 10 32 25 14]"
3800,349.0,0.984375,6,2,25.127954721450806,5.14937162399292,2029,15200,139679,840523,"[ 5  0  3  0  0  1  3  3  2  4  3  1  2  2  1  2  3  0  3  9  8  2  4  4
  1  6  4  3  5  3  0  3  1  3  7  5  0  0  5  1  8  2  0 14 14  5 14 12
  3  5  0  2 11 13  3 11 11  0  0  2  1  3 21  4  8  9  1  4  6  0 10 15
  1 12 18  3 17 25  3 25 23  0  3 18  0 26  0  1 18 12  4 18 18  4 23 22
  2  3 25  2 19 25  5  2  0  3 25 17 10 23 25 14]"
3900,349.0,0.984375,6,2,25.681870460510254,5.539157390594482,2088,15600,142581,858781,"[ 0  3  2  2  3  0  0  3  3  5  0  0  2  2  1  2  3  0  3  9  8  0  5  1
  3  0  0  4  9  8  0  3  1  2  9  8  0 13  9  5  3  7  3 14 12  5  6 13
  0  1  7  2  1  4  5  5  6  0  0  2  3 19 21  4  8  9  1 21 16  5  6 10
  1 16 24  1 10 14  3  0  1  0  3 20  0 17  0  1 27 12  4 20 24  0  1 22
  4 22 26  5 26 33  2 20 28  5 25  2 10 23 25 14]"
4000,349.0,0.984375,6,2,26.238184213638306,5.563137531280518,2152,16000,145256,875750,"[ 0  3  1  2  2  0  5  3  2  4  1  1  2  2  1  2  3  0  3  9  8  5  5  0
  2  6  0  4  9  8  0  3  1  3  9  7  0  6  8  2  4 10  2 11 10  5  8 13
  1 10  0  2  1  2  5 13 15  0  0  2  5 19 16  2  7  9  1 18 20  5 14 10
  1 16 19  2 26 24  0 26  1  4  3 19  3 17  0  3  1 13  2 26 24  1  1 22
  1 27 16  5 26 27  5 28 29  2 25  1 10 23 13 14]"
4100,349.0,0.984375,6,2,26.771080493927002,5.328962802886963,2213,16400,148057,893323,"[ 0  3  0  2  2  0  0  3  2  5  2  1  2  2  1  2  3  0  3  9  8  2  3  0
  4  7  0  4  9  8  0  3  1  3  9  2  4 13 10  5  4  8  0  6  8  1 14 13
  4 15  9  3  8 15  0  6 17  0  0  2  1 11 20  0  7  3  1 17  2  5 12 18
  0 27 22  2  0 21  2 12  1  2  0 16  3 15  0  3 16 13  2 31 24  1 17 22
  5  2  0  0  1 27  2 20 25  2  0  1 10 23 13 14]"
4200,349.0,0.984375,6,2,27.51667022705078,7.455897331237793,2275,16800,150647,909497,"[ 3  2  0  5  1  3  0  0  3  3  2  1  2  2  1  2  3  0  3  9  8  0  4  4
  4  1  9  4  9  8  0  3  1  3  6  2  5 14  7  3 15  7  3  0  2  3  6 12
  4  9 10  2  3  7  0 13  4  0  0  2  1 19 14  1 20 14  3 17 18  2 12  2
  3 10 16  4 20  3  2  0 21  3  0 15  0 17 25  3  1 17  0 21 33  1  2  3
  2 32  2  4 16 33  2 22 25  0 21  1 10 23 13 14]"
4300,349.0,0.984375,6,2,28.048340559005737,5.3167033195495605,2342,17200,153530,927491,"[ 0  0  0  0  1  3  0  2  2  2  3  1  2  2  1  2  3  0  3  9  8  1  4  6
  4  8  9  1  9  8  0  3  1  3  9  0  5  5 13  0 15  2  2  0  2  1  9  0
  0  2  0  1 13  6  2 12  7  1  0  2  0 16  0  0 11 17  4 17  4  0 18 17
  4 13 19  0 20 14  0  0 10  4 25 23  0 15 18  3 23 18  0 21 24  2 17  3
  2 24 17  4 18 24  5 22 16  2 26 26 10 20 12 14]"
4400,349.0,0.984375,6,2,28.565007209777832,5.166666507720947,2401,17600,156421,945548,"[ 0  0  0  5  3  1  0  2  2  2  3  1  2  2  1  2  3  0  3  9  8  5  0  9
  4  8  9  1  9  6  0  3  1  5  7  0  5 10 14  1  3 13  0  7  4  0 15  1
  0  2  0  3  6 10  2 12  3  2  8  5  5 14 15  2  1  5  3  4  2  2 20  3
  1 22 24  2 25 17  5 15 13  2 26  0  0 10  2  2  1  3  2  0 19  5 17  3
  3 19 27  2 28 29  5 31 31  3  1  3 10 20 12 14]"
4500,349.0,0.984375,6,2,29.233522653579712,6.685154438018799,2451,18000,159471,964903,"[ 2  3  2  1  3  2  4  3  3  3  2  1  2  2  1  2  3  0  3  9  8  0  5  6
  4  8  9  1  3  7  0  3  1  3  6  3  5 10 14  0  8  4  4  5  4  2 12  3
  0  2  0  0  7 14  1  6  8  4 18  7  3 14 10  2  8 16  1  9 15  2  8 10
  4 22 24  1 19 14  1 13 11  5 26 10  4 10 17  1 17  3  4 16 19  1 26 20
  3 31 16  4 28  2  0 31 17  0 23 20 10 20 12 14]"
4600,349.0,0.984375,6,2,29.86896848678589,6.354458332061768,2512,18400,162260,982182,"[ 3  2  2  2  0  3  3  2  0  4  2  1  2  2  1  2  3  0  3  9  8  5  6  9
  4  8  9  1  3  6  0  3  1  3  6  8  3  2  2  5  0  9  5  3 10  2  5 13
  0  2  0  1  7  9  2  5  8  1  0  1  2  5 10  5  8  8  1  6 13  2  2 14
  2 22 18  4  0 16  1 23 23  3 16 10  4 13  0  1 17 13  5 33 26  3 28 23
  2 30 26  4 31 28  0 18  2  5 20 27 10 20 12 14]"
4700,349.0,0.984375,6,2,30.49066424369812,6.2169575691223145,2572,18800,165193,1000224,"[ 4  2  1  0  0  2  2  2  0  0  3  2  2  2  1  2  3  0  3  9  8  3  6  8
  4  8  9  3  3  3  0  3  1  2  5  3  2  9  2  4 15 12  0 12  6  3 10 14
  0  2  0  1  7  9  2 12  4  3  8 13  2 13 13  3 16 20  3 19  2  1  2  2
  2  1  3  1  0  1  5  2 23  5 22 14  5  1 17  5  3  3  1 19  3  2 28 20
  0 33  1  4 17 30  0 17 16  5 31  1 10 20 12 14]"
4800,349.0,0.984375,6,2,31.10311508178711,6.124508380889893,2636,19200,167966,1017688,"[ 1  0  0  5  2  3  0  0  1  1  1  2  2  2  1  2  3  0  3  9  8  4  5  2
  4  8  9  0  3  2  0  3  1  2  6  3  1 15  2  3 15 11  2  3  0  5 10  9
  0  2  0  4  5  9  1  2  3  1  7 13  2 13 21  3 14 16  4 20  2  4 12 13
  0 17  3  4 11  1  0 10 21  1 27 21  3 11 22  5  3  2  5 16  3  2 30 20
  2  3 28  0 16  0  3 21  2  1 24 16 10 20 12 14]"
4900,349.0,0.984375,6,2,31.662340879440308,5.592257976531982,2688,19600,171033,1036901,"[ 5  2  0  5  1  2  0  2  0  0  2  1  2  2  1  2  3  0  3  9  8  3  6  4
  4  8  9  2  3  5  0  3  1  5  6  8  5  6 15  3 13 13  5  8  7  4  0 11
  0  2  0  3 12  0  5 20  3  4  8  0  3  3  8  0  8  8  0 19  0  0 15  3
  2 22 18  3 11 18  3 21 10  5  3 23  2 11 15  1 23  0  1 31 23  5 21 33
  5  0 28  3 33 33  0 24  2  2 21 22 10 20 12 14]"
5000,349.0,0.984375,6,2,32.2555718421936,5.932309627532959,2744,20000,173945,1055081,"[ 0  2  0  1  2  0  3  2  2  2  0  1  2  2  1  2  3  0  3  9  8  0  4  8
  4  8  9  2  0  9  0  3  1  2  8  8  1  8 15  4 13 14  2  3  7  0  0  6
  0  2  0  0 13 11  1  1  2  4  8  6  4 16  2  5 21  6  0 19 11  0  1  3
  2 22 25  4 11 13  1 13 21  2 22  1  5 11 11  1 21 13  5 16 23  5 27 20
  2  3 26  1  1 17  5 24  2  4 27 29 10 20 12 14]"
5100,349.0,0.984375,6,2,32.82588338851929,5.703115463256836,2802,20400,176859,1073193,"[ 0  2  0  1  1  0  3  1  3  0  3  0  2  2  1  2  3  0  3  9  8  4  0  8
  4  8  9  4  0  8  0  3  1  2  6  8  1 12 15  4 13 11  2  2  7  0  0  6
  1 11  0  1 13  2  0  1  2  4 19  6  0 10  0  5 17  1  4  2 16  2 20 17
  3 23 25  2 22 17  1 11 21  2 11 21  5 11 11  3 17  2  1 17 16  5 32 33
  2  3 22  3 23 16  5 31 31  3 27 18 10  4 12 14]"
5200,349.0,0.984375,6,2,33.47124218940735,6.453588008880615,2843,20800,179979,1092363,"[ 0  2  0  2  2  1  4  1  2  4  1  0  2  2  1  2  3  0  3  9  8  4  7  7
  4  8  9  4  0  6  0  3  1  2  4  6  1  2  5  1  2  4  2  0  0  4  1 11
  0  0  0  3 10  9  4 16 11  4 10  6  1 18  5  2 21 17  5 16 14  3  2 15
  4  1  1  2 20 16  3 20 16  3  0 14  0 23 16  3 11 21  4 20 28  0 16 17
  3 22 29  4 26  0  3 26 17  5 24 16 10  4 12 14]"
5300,349.0,0.984375,6,2,33.979615449905396,5.083732604980469,2892,21200,182861,1110081,"[ 0  2  0  3  0  1  4  1  2  4  2  2  2  2  1  2  3  0  3  9  8  5  8  6
  4  8  9  5  9  2  0  3  1  4  9  6  2 10  3  3 13  3  2  8 15  5 12 12
  2  1  3  3 10  9  5 20  2  0 20 19  5 21 12  3  8  3  5 19  8  5  7 21
  0 27 14  5 20 20  1  3 20  0 23 14  1  0 16  0 16 21  5 23  1  2 23 16
  4 31  1  5 31 30  5 22 29  3 22 20 10  4 12 14]"
5400,349.0,0.984375,6,2,34.60620880126953,6.265933513641357,2948,21600,185665,1127467,"[ 0  2  0  0  3  2  4  0  2  0  3  1  2  2  1  2  3  0  3  9  8  0  9  3
  4  8  9  2  1  9  0  3  1  0  6  3  4  9  6  5  9 15  0 14  0  0 14 13
  2  3  8  1  2  9  4 11 13  1 18  2  4 12 17  5 18 15  5  4  1  4 16 15
  2 27 27  4 20  1  3 10 11  4 23 27  3 27 22  5 15  2  2 23  1  5 21  0
  3 26 18  0 19 31  1 31  0  4 27 19 10  4 12 14]"
5500,349.0,0.984375,6,2,35.15965032577515,5.534415245056152,2998,22000,188666,1145958,"[ 0  2  0  4  2  2  3  0  1  1  1  2  2  2  1  2  3  0  3  9  8  5  2  4
  4  8  9  2  1  7  0  3  1  0  1  0  0  9  7  5  1  2  0  6 10  4  1  3
  3 13  2  4  4  7  0 16  0  4  5  0  4 14  4  5  5  3  4  3  2  1  7 12
  2 24 18  5 10 15  0 13  2  2 22 15  1 25  3  3 25 14  2 22 20  2 27  0
  3 16 29  5 25 31  0 33 29  5 25 17 10  4 12 14]"
5600,349.0,0.984375,6,2,35.77997922897339,6.203289031982422,3057,22400,191536,1163705,"[ 0  2  0  3  0  3  4  1  3  3  0  3  2  2  1  2  3  0  3  9  8  1  4  7
  4  8  9  5  8  9  0  3  1  3  0  0  2  9 13  1  1 13  4 10  8  2 13  9
  2 10  2  3  1  2  5  3  8  4 19 14  4 15 21  5 11  5  4  3  8  2  8 20
  1 19 19  0 17 23  2  3 22  1 26 23  1 20  0  4 18 14  1 22 18  0  2 24
  1 22 32  2 16 16  5 21 16  5 32  2 10  4 12 14]"
5700,349.0,0.984375,6,2,36.30689716339111,5.269179344177246,3107,22800,194415,1181360,"[ 0  2  0  2  0  0  2  1  1  2  1  3  2  2  1  2  3  0  3  9  8  2  0  0
  4  8  9  0  2  7  0  3  1  4  1  7  1 10  5  1  2  9  4  5  6  2 13  6
  2 10  6  4  4  7  3 18  9  1 20 10  3  3 10  5  4  1  5 17  6  2 15 20
  3 24  3  2 13 20  1 19 19  3  2 22  4 19 14  2 17 14  0 22 28  5 28 23
  3 28  0  3 16  2  5  3  2  4 26 29 10  4 12 14]"
5800,349.0,0.984375,6,2,36.906012773513794,5.991156101226807,3171,23200,197211,1198508,"[ 0  2  0  2  2  3  2  1  2  4  1  2  2  2  1  2  3  0  3  9  8  1  7  0
  4  8  9  0  4  7  0  3  1  1  1  7  1 10 15  5 13  7  0  5  6  3  0  3
  0 15 14  0  4  6  5 18  7  4 15 10  1  3 10  2  3  1  1  0  3  3  1 12
  1 16 12  3 24 25  4  2  1  0 22 24  5 19 11  5 22 18  5  3 28  3  1 29
  3 28 23  1 31 28  1 32  2  2 19 29 10  4 12 14]"
5900,349.0,0.984375,6,2,37.45689511299133,5.508823394775391,3225,23600,200011,1215638,"[ 0  2  0  4  3  3  5  1  0  2  0  3  2  2  1  2  3  0  3  9  8  0  4  9
  4  8  9  5  3  6  0  3  1  0  0  6  1  1  8  0 13  2  1  2  4  0  8  9
  3 11  7  2  7  5  2 17 16  2  9 11  2  3 10  2  3  0  5  4 17  4 21  7
  0 24 12  4 10 24  3 12 14  2 11 12  2 17 24  4 19 17  5 18 29  4 33 30
  5  3 25  0 22 19  5  2 19  5  3 26 10  4 12 14]"
6000,349.0,0.984375,6,2,38.02865934371948,5.717642307281494,3276,24000,203074,1234360,"[ 0  2  0  0  2  0  3  3  1  1  2  2  2  2  1  2  3  0  3  9  8  0  6  9
  4  8  9  1  2  7  0  3  1  0  6  0  4  9  1  5  5  1  2 12 10  0  4  9
  0  1 13  5  1  5  2  5  4  2 15 18  5  1 21  5  7  2  4  4 21  2 13 12
  3 22 18  4 14 15  1 24 21  2 21 17  2 17 24  4 26 12  5 18 21  1 33 18
  5 26  1  0 29 25  0 33 19  2 27 27 10  4 12 14]"
6100,349.0,0.984375,6,2,38.52429747581482,4.956381320953369,3331,24400,206087,1252755,"[ 0  2  0  0  2  2  3  3  1  4  0  3  2  2  1  2  3  0  3  9  8  0  2  5
  4  8  9  1  1  7  0  3  1  4  6  6  0  5 12  1  0  1  2 10 10  2  4  3
  1  5  6  3 13 12  2  5 10  2  6  8  5  1 14  1  7  3  2  6  1  0  9 14
  3 19 20  0 12 12  0 24 16  0 15  0  2 17 24  2 26 25  5  2  0  2 29 18
  3 32  1  0 20 28  0 33 30  5 30 27 10  4 12 14]"
6200,349.0,0.984375,6,2,39.15814256668091,6.338450908660889,3378,24800,209114,1271297,"[ 0  2  0  1  1  0  1  3  1  3  1  2  2  2  1  2  3  0  3  9  8  4  1  5
  4  8  9  1  1  8  0  3  1  4  2  5  4  8  6  4  0  1  2  9 15  2  8  1
  1 11 13  4  6  7  5 19 15  4  5  5  5  5 11  3 16  0  0 17 14  0  4 12
  0 10  2  5 13 21  2 24 23  0 10 19  1 18 18  3 26 15  0  2 17  0 33 30
  5  1  1  0 24 31  3  3  2  5 27 24 10  4 12 14]"
6300,349.0,0.984375,6,2,39.71220850944519,5.540659427642822,3435,25200,212101,1289688,"[ 0  2  0  4  1  3  1  1  3  2  1  2  2  2  1  2  3  0  3  9  8  3  8  1
  4  8  9  0  5  7  0  3  1  2  4  1  2  5  6  3 14  1  5 11 14  2  8  9
  2  8  1  4 15 15  5  7 18  1 17  6  5 21 20  4 16  6  0 12  0  3 20  8
  0 13  3  2 18 27  4 16  3  1 18 19  2 13 16  3 17 15  1 33 16  0 28 18
  5 30 19  0 31 17  3  3 21  5 26 33 10  4 12 14]"
6400,349.0,0.984375,6,2,40.24394917488098,5.31740665435791,3489,25600,214938,1307168,"[ 0  2  0  0  0  3  4  2  0  3  3  3  2  2  1  2  3  0  3  9  8  5  0  3
  4  8  9  5  3  1  0  3  1  2  0  4  3 11  9  1 10  0  1  1  7  3 12  9
  2 13  3  5  4  5  3  3  4  3 15  7  1  7 11  5  6 12  0 11 17  3  1 20
  1 27 26  2  0 20  5 21 20  0 18 16  4 17  1  1 26 18  1 32 32  0  3 22
  1  0 24  3 22 27  5  3 17  1 19 16 10  4 12 14]"
6500,349.0,0.984375,6,2,40.85218930244446,6.082401275634766,3545,26000,217964,1325799,"[ 0  2  0  0  0  2  1  1  1  0  0  3  2  2  1  2  3  0  3  9  8  2  9  5
  4  8  9  5  6  9  0  3  1  2  2  4  3  3  9  4 12 12  2  1  7  0  9  6
  1 12 15  0  3 13  3  5  4  0  1 12  2  9  6  5 12 14  1 10  7  5 18  5
  1 19 25  3 26 23  4 27 27  0 18 16  4 23  1  2 12 19  1 16 19  3 33  1
  0 21 29  5  3 21  4 33 27  1  1 16 10  4 12 14]"
6600,349.0,0.984375,6,2,41.36850619316101,5.163168907165527,3592,26400,221010,1344339,"[ 0  2  0  0  1  0  4  0  0  0  1  3  2  2  1  2  3  0  3  9  8  1  1  2
  4  8  9  1  2  2  0  3  1  4  1  6  4 15 13  3  2 12  4  7  9  2  5 13
  0  6 15  3 10  1  0  4  4  3  1  3  4 19 11  2  8  6  2  3 13  4  3  8
  4 10  0  3 24 20  2 14 14  4  3 17  0  2 23  2 25 18  1  3 19  5 17 30
  2  3 29  1  3 18  4 17 27  1 16 18 10  4 12 14]"
6700,349.0,0.984375,6,2,41.9140260219574,5.455198287963867,3650,26800,223865,1361848,"[ 0  2  0  2  3  1  4  3  0  2  1  3  2  2  1  2  3  0  3  9  8  4  9  9
  4  8  9  0  3  2  0  3  1  4  9  4  4  2  7  3  1  7  1  7 14  5 14  4
  2  8  7  5 11  3  5 11 11  3 20 12  3 20  7  3 16  2  4 15  0  4 11  8
  0 22 21  3 16 19  2 11 15  0 24 27  3 16 16  4 27 22  1 21 27  1 20  2
  4 17 26  1 24 20  1 33 17  2 31 18 10  4 12 14]"
6800,349.0,0.984375,6,2,42.463053703308105,5.49027681350708,3710,27200,226715,1379411,"[ 0  2  0  1  3  1  4  3  2  2  1  3  2  2  1  2  3  0  3  9  8  3  1  7
  4  8  9  1  3  6  0  3  1  5  8  0  4 14  7  1  1  6  0  4 10  3  7  9
  3  4  2  5  3  3  4 21 11  3  2 14  1 21  7  5 14  2  5 21  0  4 20  9
  0 27 25  4 10 13  4 19  3  5 19 17  3 16 24  3  3 22  5 26 27  5 29  2
  4 23 26  5 18 33  2 24  3  2 32 18 10  4 12 14]"
6900,349.0,0.984375,6,2,43.01435661315918,5.513029098510742,3762,27600,229621,1397439,"[ 0  2  0  1  2  1  2  1  0  1  0  3  2  2  1  2  3  0  3  9  8  0  6  7
  4  8  9  1  4  2  0  3  1  1  4  5  4 11  8  3  0  9  3  9 15  2 12  0
  5  7  6  3 15 12  3 19  0  1  9  4  0 21 19  3  4  7  4 14 21  1 17  6
  0 14 26  0 23 23  4 24 27  1 21 19  3 27 21  0 21  2  2 29 27  2 29 26
  1 28 25  3 20 16  1 27 30  2 31 23 10  4 12 14]"
7000,349.0,0.984375,6,2,43.61397671699524,5.996201038360596,3817,28000,232522,1415367,"[ 0  2  0  5  0  3  0  2  0  2  2  2  2  2  1  2  3  0  3  9  8  0  6  5
  4  8  9  1  7  2  0  3  1  1  4  7  5 11  3  2  3  2  5 14  9  1 12 15
  1  9 15  1  7 11  0 13  0  3 16  2  3 19 16  3 11  7  0 10 16  0 21 21
  3 14 25  2 23 19  0 21 25  1 18 20  3 19 18  4 20 17  1 25 32  2 24 25
  1 17 25  3 28 21  5 21  1  4 27 33 10  4 12 14]"
7100,349.0,0.984375,6,2,44.19776511192322,5.837883949279785,3873,28400,235423,1433347,"[ 0  2  0  3  1  3  4  0  0  0  3  1  2  2  1  2  3  0  3  9  8  4  8  2
  4  8  9  4  8  2  0  3  1  5  1  5  0  5  6  1  9  6  4 11 12  1  4  1
  4 13 15  1  5 11  0  4 11  4 13  3  0 20  7  0 15 12  2 19 16  0  6 18
  5  3  1  4  3  2  2 21 19  1 14 20  3 25 27  3 14 18  4 30  3  0 32 22
  3  3 18  5 25 20  5 32 18  4 24 26 10  4 12 14]"
7200,349.0,0.984375,6,2,44.74787926673889,5.501141548156738,3923,28800,238307,1451063,"[ 0  2  0  4  3  1  3  0  3  1  3  2  2  2  1  2  3  0  3  9  8  3  8  5
  4  8  9  1  9  6  0  3  1  3  8  1  1  8  7  1  7  2  0 14 12  0  0  5
  0  3  7  1 10  6  2  6 11  1 19  0  5  4  4  1 14 12  1  5  4  0  6  0
  1  0 12  2  2 25  1 27 18  4 15 18  3 24 22  2 27 26  3 26 24  3 24 29
  0 24 21  0 21 20  0 16 18  0 24 29 10  4 12 14]"
7300,349.0,0.984375,6,2,45.38090372085571,6.330244541168213,3970,29200,241278,1469404,"[ 0  2  0  2  2  1  5  1  2  3  1  2  2  2  1  2  3  0  3  9  8  3  4  8
  4  8  9  3  6  2  0  3  1  5  4  5  3  3  7  4  7  7  2 14  3  4 13  4
  4  6 10  3  6  4  2 11 11  4  7  7  5  7  0  2 18  2  2  7 13  2  8  6
  3 21 12  1  1 15  4  1 13  2 22 22  1 17 15  0 27 17  0  3 31  3 24 27
  5 30 21  4 21 24  5 19  0  3  0 29 10  4 12 14]"
7400,349.0,0.984375,6,2,45.92217445373535,5.412707328796387,4028,29600,244125,1487024,"[ 0  2  0  3  0  1  4  1  2  3  1  0  2  2  1  2  3  0  3  9  8  0  4  1
  4  8  9  1  4  7  0  3  1  2  7  0  0  3  2  2 13  1  5 15  9  1  6  3
  5  9  0  2 11  8  2 11 15  5 11 16  2 17 13  4  7  9  3  7 13  0 16 12
  3 13 14  3  1 25  4  1 20  1 21  1  2 17 14  2 26 17  5 24 20  3 24 17
  3 30 21  5 18 31  4 29  0  1  1 22 10  4 12 14]"
7500,349.0,0.984375,6,2,46.51036858558655,5.881941318511963,4091,30000,246889,1504054,"[ 0  2  0  5  3  3  4  2  3  4  2  1  2  2  1  2  3  0  3  9  8  0  0  3
  4  8  9  1  4  5  0  3  1  2  6  2  4  3  9  2  2  1  0 15 13  1  1  8
  5 12  0  2  1 13  4  8  2  5  7 16  1 17 13  4  9 17  5  7  9  4 16 14
  0 12 15  4 17 25  0 16 20  3 21 15  2  2 14  5 15  0  2 25 20  1 30 27
  0 25 30  4 18 24  5 29  0  4  1 22 10  4 12 14]"
7594,353,1.0,8,3,47.07880187034607,6.047162603824697,4142,30376,249500,1520014,"[ 0  2  0  4  2  2  1  1  1  2  2  0  2  2  1  2  3  0  3  9  8  2  9  3
  4  8  9  1  0  2  0  3  1  1  8  9  0  3  3  1  2 12  0 15 13  0  8  0
  2 10  9  2  2  8  3  8 20  3 12  8  1  6 15  3  9 15  1 20  9  4 15  7
  0 16 14  1 13 25  1 17 24  3 22 24  3 18 14  4  0 11  0  2 20  2 22 18
  2 25 30  2  1 22  1 17 30  5  1 30 10 27 12 14]"
7600,353,1.0,8,3,47.11303353309631,5.70527712504069,4147,30400,249639,1521142,"[ 0  2  0  4  2  2  1  1  1  2  2  0  2  2  1  2  3  0  3  9  8  2  9  3
  4  8  9  1  0  2  0  3  1  1  8  9  0  3  3  1  2 12  0 15 13  0  8  0
  2 10  9  2  2  8  3  8 20  3 12  8  1  6 15  3  9 15  1 20  9  4 15  7
  0 16 14  1 13 25  1 17 24  3 22 24  3 18 14  4  0 11  0  2 20  2 22 18
  2 25 30  2  1 22  1 17 30  5  1 30 10 27 12 14]"
7700,353,1.0,8,3,47.77273607254028,6.597025394439697,4195,30800,252147,1541141,"[ 0  1  3  4  3  1  0  3  2  2  2  0  2  2  1  2  3  0  3  9  8  2  8  0
  4  8  9  3  7  6  0  8  1  1  8  9  5  3  0  5 10 11  1  1 14  4  8  0
  4  8  7  1  6  8  5  7 16  0 21 16  2  0 15  3  9  5  3 20 15  4 15  7
  1 19 23  1 13 12  1 14 24  3 25 16  3 18 14  4 24  2  0  2 18  1 20 18
  2  1  1  1 27 22  1 17 24  5 31 30 10 27 12  4]"
7800,353,1.0,8,3,48.38406705856323,6.113309860229492,4247,31200,254535,1560247,"[ 0  1  3  4  2  1  1  0  3  2  2  0  2  2  1  2  3  0  3  9  8  0  0  0
  4  8  9  5  0  9  1  7  8  1  8  9  5  7 14  5 10  7  5  9  7  1 14  0
  1  8 11  1 11 11  3 18 21  0 21 19  3 10  9  5 19  5  4  7 15  4 15  7
  0 19 15  3 26 16  5 26 22  2 27 22  2 20 11  2 26 11  0 28 29  4 24 31
  0 28 26  1  2 33  5 26 24  2 31 31 10 27 12  4]"
7900,353,1.0,8,3,48.968669176101685,5.8460211753845215,4308,31600,256985,1579743,"[ 0  1  3  2  2  1  1  0  0  2  2  0  2  2  1  2  3  0  3  9  8  5  3  1
  4  8  9  3  0  7  2  7  8  1  8  9  5  7  9  3 14  7  2  5  1  1 14  5
  2  8 12  0  0 11  0 18 21  5 13 19  0 10 21  3  0  4  4  7 12  4 15  7
  2 19 25  5  3 22  5 26 22  3 27 10  0 24 15  2 26  0  2  0 23  4  0 31
  4 28 26  1 33 33  2 26 33  0 33 31 10 27 12  4]"
8000,353,1.0,8,3,49.55997014045715,5.9130096435546875,4354,32000,259657,1601035,"[ 0  1  3  5  3  2  0  0  1  2  2  0  2  2  1  2  3  0  3  9  8  2  1  8
  4  8  9  3  8  3  2  7  5  1  8  9  4  4  1  3 10  8  2  2  1  5 13  5
  1  8  0  4 15  0  0 15  7  2 21 13  1 14  7  5  9  9  5  6 18  4 15  7
  2  3 20  5 21 19  3 23 14  5 27 19  2 13 27  0 19 17  3 29  1  4 32 23
  4 29 28  0  2 23  2 29 16  4 33 24 10 27 12  4]"
8100,353,1.0,8,3,50.0769567489624,5.16986608505249,4409,32400,262173,1621062,"[ 0  1  3  3  1  0  2  0  1  2  2  0  2  2  1  2  3  0  3  9  8  5  1  9
  4  8  9  3  5  9  1  3  5  1  8  9  3  6  7  1  2 13  5 14  1  4 13  3
  1  1 13  5  6  4  0  4 16  0 21  6  0 21 10  1 19 18  5  1 15  4 15  7
  2 21 21  5 21 11  4 24 16  5 27 11  5 13 21  1  1 18  0 29  1  4 32 30
  0 29 28  0 23  0  0 30  3  1 33 32 10 27 12  4]"
8200,353,1.0,8,3,50.68553304672241,6.085762977600098,4457,32800,264693,1641137,"[ 0  1  3  0  3  2  1  3  3  2  2  0  2  2  1  2  3  0  3  9  8  4  6  3
  4  8  9  4  3  4  3  6  8  1  8  9  5  6 12  1 11 11  5 14  1  1 12  0
  1  1  5  2  6 12  2 14 12  1 21 18  4  0 10  2  4  2  1  8 18  4 15  7
  4 17 16  2  2  3  2 22 21  1 27 11  1 23 24  4  0 23  4 23  1  4 20 18
  5 28 33  2  3 21  4 25  3  2 22 29 10 27 12  4]"
8300,353,1.0,8,3,51.27232837677002,5.867953300476074,4511,33200,267180,1660989,"[ 0  1  3  2  1  3  4  0  2  2  2  0  2  2  1  2  3  0  3  9  8  2  3  0
  4  8  9  3  4  3  3  2  8  1  8  9  5 11  7  2  5 11  2  8  4  4 10 11
  3  6 13  2  5  0  2 10  4  1 21  9  4 15  6  0 18 15  4  4  3  4 15  7
  5 13  0  2  2 14  3  2 26  3  3 13  5 13 12  4 12 16  5 23 30  0 32 20
  3  2 30  0 23 21  4 26 19  2 16 33 10 27 12  4]"
8400,353,1.0,8,3,51.788865089416504,5.165367126464844,4562,33600,269702,1681064,"[ 0  1  3  5  0  3  5  1  2  2  2  0  2  2  1  2  3  0  3  9  8  4  7  9
  4  8  9  3  4  8  5  9  8  1  8  9  0 11 14  0  5 10  2 12  4  2  0  4
  0  2 10  0  1  2  0  9  6  5  6  9  4 15 17  5 20 15  0  4 12  4 15  7
  4 13  1  2 17 11  2 16 13  3 23  1  1 27 13  4 10 17  5 23 17  4 32  0
  3 24 19  4 23 31  1 26 30  5 24  1 10 27 12  4]"
8500,353,1.0,8,3,52.36687207221985,5.780069828033447,4611,34000,272331,1702030,"[ 0  1  3  3  3  0  2  0  1  2  2  0  2  2  1  2  3  0  3  9  8  5  7  6
  4  8  9  0  4  1  2  4  7  1  8  9  1  3  4  4  6  5  5  2  6  1  5 12
  5  2 10  3  9  2  0 18 13  4 11  6  2 15 17  4  2 15  0 10 12  4 15  7
  4 27 16  0 22 14  1 27 23  2 12  2  1 12 24  4 11 17  1 23 19  0 32 20
  2  3 33  5 33 21  1 20 19  3  1 25 10 27 12  4]"
8600,353,1.0,8,3,52.928587436676025,5.617153644561768,4669,34400,274798,1721694,"[ 0  1  3  5  3  0  3  3  1  2  2  0  2  2  1  2  3  0  3  9  8  3  9  6
  4  8  9  4  4  1  4  7  9  1  8  9  0 14  4  3  9  5  2 12  4  2 12 14
  4 14 10  3  8 12  1 13 15  4  2  2  1  5 10  3  2  3  3 18 12  4 15  7
  1 27  3  3 22 12  2 10 19  4 12 24  0 16  0  1 11 16  1 32 18  5 32 24
  0 31 29  2 33 21  4 30 25  2  1 27 21 27 12  4]"
8700,353,1.0,8,3,53.48410367965698,5.55516242980957,4730,34800,277086,1739957,"[ 0  1  3  2  3  0  5  3  0  2  2  0  2  2  1  2  3  0  5  0  2  2  9  3
  4  8  9  0  0  8  3  4  5  1  8  9  0 14  2  3  3  5  1  3  6  2  6  7
  1 14  6  3  8 15  4 16 17  4 21  2  1  5 10  3  0  9  3 15 10  4 15  7
  1 13 24  3 26 14  2 16 19  0 12 24  4 19 18  5 13 14  0 32 22  0 31 31
  1 18 22  5 27 19  3 30 25  4 31 27 21 27 12  4]"
8800,353,1.0,8,3,54.181286573410034,6.971828937530518,4785,35200,279471,1759097,"[ 0  1  3  0  3  3  4  1  0  2  2  0  2  2  1  2  3  0  4  0  7  2  9  8
  4  8  9  2  0  9  4  8  9  1  8  9  0 12  7  3 14 11  4 13 15  1  6  9
  1  1  5  3 15  7  0 16 16  2 14 21  3 20  7  3  0 18  0 17  0  4 15  7
  5  0  3  2 23 10  5 21 23  1 14 21  3 26 19  4 23  2  4 30  0  4 31 19
  4 23 27  1 21 19  4 33 24  4 31 27 21 27 12  4]"
8900,353,1.0,8,3,54.74678707122803,5.655004978179932,4836,35600,281916,1778685,"[ 0  1  3  0  3  3  1  2  1  2  2  0  2  2  1  2  3  0  5  6  5  3  8  2
  4  8  9  5  4  0  5  2  5  1  8  9  0  3  7  1  4  2  5 13  2  3  7  6
  4  1 13  3  8 15  0 16  1  5  6 10  3 16 14  2 16  4  2 17 20  4 15  7
  5 18 13  0  0 14  0 27  2  2 16 23  0 11 13  0  0 12  2 16 21  1 24 30
  4 23  0  1 21 19  4 23  1  1 23 27 21 27 12  4]"
9000,353,1.0,8,3,55.24353766441345,4.967505931854248,4891,36000,284188,1796878,"[ 0  1  3  2  1  0  1  2  2  2  2  0  2  2  1  2  3  0  0  6  6  3  2  8
  4  8  9  1  8  5  1  9  5  1  8  9  3  5  7  4  3  2  5 13  5  5 10 15
  5 14 13  3  9 15  0 12  1  5  1 20  0  8 15  2 16  0  2 14  8  4 15  7
  0 26 17  0 22  3  2 27 19  2 16 18  1 19 13  2 19 12  1 16 24  4 24 27
  3 23 22  1 17 19  0  2  1  0 30 29 21 27 12  4]"
9100,353,1.0,8,3,55.79883933067322,5.553016662597656,4942,36400,286676,1816778,"[ 0  1  3  1  1  0  1  0  2  2  2  0  2  2  1  2  3  0  0  0  7  2  2  7
  4  8  9  1  8  7  3  2  8  1  8  9  3 14 13  4  3  8  3  7  2  5 15 12
  4  3 13  3 15  7  2 13  8  4  5 20  0 17  5  1  0  1  2 14 13  4 15  7
  3 26 18  2 17 11  2 22 27  2 16 18  2 19 13  2 23 12  4  0 27  3 22 16
  2 23 20  3 25 19  3 29  1  1 30 29 21 27 12  4]"
9200,353,1.0,8,3,56.3612859249115,5.6244659423828125,4995,36800,289073,1835964,"[ 0  1  3  1  3  2  5  2  2  2  2  0  2  2  1  2  3  0  0  0  9  1  7  2
  4  8  9  3  6  4  5  9  2  1  8  9  2 12 13  3  5  8  0  8 14  5  6  0
  0 11  0  3  8 15  3 11  8  1  4 19  5  4  5  5  0  1  5  7 21  4 15  7
  4 26  2  0 19 16  0 20 27  2 10 26  4 26 18  3 25  2  2 30 23  2 22 16
  0 23  2  2 32 26  1 19  3  4 24  0 21 27 12  4]"
9300,353,1.0,8,3,57.03138518333435,6.700992584228516,5042,37200,291583,1856030,"[ 0  1  3  3  1  2  5  1  2  2  2  0  2  2  1  2  3  0  5  0  7  4  7  2
  4  8  9  0  4  1  2  8  2  1  8  9  5  4 11  3 10 13  3  2 14  5  8  5
  3  4  8  3  9 12  1 16  8  4 15 12  0  9  5  0 19 14  0  2  2  4 15  7
  5 12  0  0 15 14  4 20 27  4 12 27  0 10 22  5 23 13  2 21 30  5  1 21
  5 23  2  3 32 25  4  1 23  0  2  0 21 27 12  4]"
9400,353,1.0,8,3,57.62651443481445,5.951292514801025,5093,37600,293894,1874508,"[ 0  1  3  4  3  0  2  2  3  2  2  0  2  2  1  2  3  0  4  5  2  0  0  0
  4  8  9  2  9  7  2  5  3  1  8  9  5 12 11  1  5 13  0  6 11  5  8  1
  3  1 12  3  9 12  2 16  2  1 10 12  2  9  7  0 19 14  0 18 14  4 15  7
  5 12 25  4 15 12  4 18 27  4  1 16  0 14 27  0 10 19  4 27 30  5 30 19
  0 24  2  2 32 25  5 31 22  0 25 25 21 27 12  4]"
9500,353,1.0,8,3,58.239248752593994,6.12734317779541,5152,38000,296204,1893015,"[ 0  1  3  2  2  1  4  2  3  2  2  0  2  2  1  2  3  0  2  5  9  0  7  8
  4  8  9  1  4  5  2  5  3  1  8  9  5  0  3  4 15  2  0 10 10  5 14  0
  3  3 14  3  8 15  1 16  2  5 17 13  3 18 20  4 12  3  0 18 20  4 15  7
  4 24 14  4 23 13  1 24 15  5 24 27  3 17 12  5 20 23  3  0  3  3  2 18
  5 22 32  1 32 31  5 18 22  0 25 25 21 27 12  4]"
9600,353,1.0,8,3,58.78995728492737,5.50708532333374,5207,38400,298811,1913866,"[ 0  1  3  2  3  1  4  2  3  2  2  0  2  2  1  2  3  0  0  3  6  1  7  2
  4  8  9  3  4  6  0  3  8  1  8  9  5  8  5  2  9  9  3 10 12  1 15 12
  1  3  8  3  7 15  4  7 14  5 14  7  2 17  8  2  6  7  1  6  7  4 15  7
  3 17 14  4 24 13  0 17  1  2 22  2  4 26 27  2  2 22  3 26 32  4 33  3
  1  1 20  1 25  0  5 25 20  1 17 33 21 27 12  4]"
9700,353,1.0,8,3,59.297791957855225,5.0783467292785645,5259,38800,301041,1931703,"[ 0  1  3  3  3  2  0  1  2  2  2  0  2  2  1  2  3  0  2  5  6  1  7  4
  4  8  9  0  8  3  3  2  2  1  8  9  0  4 14  3  9  8  3  1  0  1 11 12
  2 11  7  3 12  8  3 14 21  3 21  9  2 12  1  4 11  6  4  3 16  4 15  7
  3 17 21  4 11 12  1 11 25  5  3  2  1 11 20  2 22  3  3 16 32  1 21 23
  1  2  2  4 23 26  5 25 20  0 22 25 21 27 12  4]"
9800,353,1.0,8,3,59.90965533256531,6.11863374710083,5304,39200,303682,1952783,"[ 0  1  3  3  0  0  4  3  2  2  2  0  2  2  1  2  3  0  3  7  3  1  4  1
  4  8  9  0  2  6  3  4  1  1  8  9  4 10  6  3 12  4  0  1  7  0 13  2
  0 15 11  3  9 15  0 14 21  0 11  9  2 14  4  4 11  6  4 12  4  4 15  7
  4 10 21  2 24  2  3 11 24  3  3 26  5 14 27  1 22 11  3 16  2  5 20 32
  3 25 29  1 31 17  2 26 23  0 22 24 21 27 12  4]"
9900,353,1.0,8,3,60.50288462638855,5.932292938232422,5357,39600,306157,1972580,"[ 0  1  3  5  2  3  4  0  3  2  2  0  2  2  1  2  3  0  3  7  0  5  5  1
  4  8  9  3  7  4  4  4  1  1  8  9  2 15  6  3 10  3  0  1  7  5 13  3
  5  1 14  3  9  8  2  4  1  0  1 11  4  9 18  5  3  9  3  8 17  4 15  7
  1  1 10  5 24  2  4 20 20  4  3 24  4 16 27  0  2 19  2 16  2  1 33  1
  3 20 29  1 31  0  2 20 23  0 22 24 21 27 12  4]"
10000,353,1.0,8,3,61.04423689842224,5.413522720336914,5402,40000,308610,1992151,"[ 0  1  3  3  0  1  1  0  2  2  2  0  2  2  1  2  3  0  2  5  0  5  8  9
  4  8  9  0  3  4  4  4  9  1  8  9  4  9  2  2  5  3  5  1 13  2  7 14
  3  4  5  3 12 15  0 19 12  3  3 18  5 21 18  3 20 11  1  6 16  4 15  7
  2  1 11  0 26 24  4 14  3  1 18  0  2 15  2  3  3 20  0 31 33  3 31  1
  1 16  3  4 33 31  2 21 23  3 22 31 21 27 12  4]"
10100,353,1.0,8,3,61.62522006034851,5.809831619262695,5451,40400,311051,2011658,"[ 0  1  3  2  0  2  4  0  2  2  1  0  2  2  1  2  3  0  2  5  0  3  5  9
  4  8  9  0  8  4  4  0  9  1  8  9  4  0  4  0 14  3  5  1 15  2  8  9
  3  4  1  3 15  9  1 13  7  2  3 15  4 16 20  3  6  0  1  6  6  4 15  5
  3  2  0  2 15 16  2 14 23  1 13 10  5 15 23  1 21  0  0 31 25  3 29 20
  4 19 17  2  3 22  2 20  3  1 24 31 21 27 12  4]"
10200,353,1.0,8,3,62.19677186012268,5.715517997741699,5504,40800,313492,2031184,"[ 0  1  3  2  0  2  0  2  0  3  0  1  2  2  1  2  3  0  1  5  7  4  5  1
  4  8  9  3  1  6  4  5  7  1  8  9  4  8  1  0 14  2  5 13  1  5  2 15
  1 12 13  3 15  5  4  4 19  4 18 11  4 19 20  1  2  2  1  3  6  4 15  5
  0 26  0  2 15 16  4 23  0  5  2 14  1 14 26  1 20 21  1  0 32  3 30 22
  4 17 33  2 29 17  4 20 19  4  3 26 21 27 12  4]"
10300,353,1.0,8,3,62.78614044189453,5.893685817718506,5556,41200,316006,2051347,"[ 0  1  3  2  0  2  0  2  3  0  0  1  2  2  1  2  3  0  4  5  7  0  8  1
  4  8  9  5  0  6  4  8  8  1  8  9  5  8  6  3  9  2  5  1  6  2 12 15
  5 13 15  2 15 15  0 18 10  3 18 14  0  9  6  4 17 11  0  3  6  4 15  5
  0 26  0  2 15 16  2 13 22  0  1 12  1 16 26  4 20 21  3  2 32  5 16 22
  4 20 29  2  2 19  5 16  1  0 18 27 21 27 12  4]"
10400,353,1.0,8,3,63.465614795684814,6.794743537902832,5609,41600,318457,2070961,"[ 0  1  3  2  0  2  3  2  0  1  3  0  2  2  1  2  3  0  2  7  1  0  0  2
  4  8  9  1  2  2  4  9  5  1  8  9  3  8  1  2  3 13  4 14  9  2  5  5
  2 14 15  3  8 12  0 20 10  3 12  1  1  9  3  2  7 19  0  0 16  4 15  5
  1 26  3  1  1 10  0 23 20  3 18  3  3 10  0  1 20 23  5 24  0  4 32  3
  4 26 16  2 29 20  4 21 28  0 30 33 21 27 12  4]"
10500,353,1.0,8,3,64.04561400413513,5.799992084503174,5662,42000,320799,2089708,"[ 0  1  3  2  0  2  5  2  0  5  0  0  2  2  1  2  3  0  4  7  4  4  6  2
  4  8  9  2  0  5  4  9  5  1  8  9  1  5 13  2 14  4  4  7  9  2  7  5
  4 11 15  3  5 15  1 20 10  5  8 12  5 20 10  2  2 19  2 20 15  4 15  5
  1 24  3  5 14 27  5 23 10  4 21  3  5 15  0  0 24 23  2 31 32  2 32 21
  3 26 28  5 30  1  4 26 29  4 30 28 21 27 12  4]"
10600,353,1.0,8,3,64.59134149551392,5.457274913787842,5712,42400,323156,2108598,"[ 0  1  3  2  0  2  4  0  3  0  1  1  2  2  1  2  3  0  2  7  8  3  6  5
  4  8  9  4  9  8  1  6  8  1  8  9  5  5 13  0 11 12  5  6  5  2 11  6
  3  0  5  3 15  9  4  2  4  1  1  3  3  3 13  5  4  9  3 18 15  4 15  5
  4  2 25  0 14 15  1 14  2  4 24  3  5  1 12  0 26 20  1 26 33  2 20 24
  3 32 26  2 25 23  2 26 20  1  1 21 21 27 12  4]"
10700,353,1.0,8,3,65.15947675704956,5.681352615356445,5760,42800,325571,2127965,"[ 0  1  3  2  0  2  5  0  1  4  0  0  2  2  1  2  3  0  2  7  8  3  1  4
  4  8  9  2  9  9  5  2  9  1  8  9  3 10 15  3 10  5  5  3  1  3  4  8
  3  7  2  3 15  9  2 11 19  0 21 15  2 12 18  2  0  9  2  2 21  4 15  5
  3 21 20  4 11 26  3 18  2  1  3  3  1 11 25  4 26 19  2 24  1  3 23 22
  5 18 25  2 25 33  0  3 18  0  1 22 21 27 12  4]"
10800,353,1.0,8,3,65.7696008682251,6.101241111755371,5804,43200,328088,2148044,"[ 0  1  3  2  0  2  1  1  3  4  0  2  2  2  1  2  3  0  2  3  8  1  2  4
  4  8  9  2  0  5  3  5  6  1  8  9  3  4  6  5 10 15  2  3  7  3  9  3
  3  1  8  3 15  8  3 19 18  3  0  9  4  7 13  4  0 20  3 13 21  4 15  5
  5 21 20  3 11  2  1 19 15  3  3  3  1 10 20  4  1 25  1 22 31  4 17 19
  5  3 27  4 25 21  1 21 18  0  1 22 21 27 12  4]"
10900,353,1.0,8,3,66.47003984451294,7.004389762878418,5852,43600,330720,2169119,"[ 0  1  3  2  0  2  3  2  1  3  1  2  2  2  1  2  3  0  2  3  3  2  8  1
  4  8  9  2  0  7  0  8  4  1  8  9  4  4  9  5  0  0  1 10 15  0 11  5
  2 14  2  3  9  8  3 19 10  4  0 10  4  7  9  1  0 14  2  1 16  4 15  5
  3 16 23  3 16 17  1 22 15  1  1  3  3  3 13  4 22 11  2  3 18  3 16 30
  4  1 19  0 21 17  0 22 18  2 30 17 21 27 12  4]"
11000,353,1.0,8,3,67.07434606552124,6.043062210083008,5903,44000,333175,2188709,"[ 0  1  3  2  0  2  0  2  3  3  1  2  2  2  1  2  3  0  2  3  2  4  8  2
  4  8  9  2  0  8  5  1  0  1  8  9  5  4  9  1  1 15  3 14  9  2 11 14
  4  2  7  3  9 12  1 15 10  5  0 10  0 16  9  3  0  8  1  5 13  4 15  5
  2  3 10  0 14 14  1 10 20  3 17  3  3  3 14  5 16 10  3 18 18  3 16 28
  0 17 19  0  1 26  4 24 18  3 32 17 21 27 12  4]"
11100,353,1.0,8,3,67.62771582603455,5.533697605133057,5956,44400,335413,2206502,"[ 0  1  3  2  0  2  3  1  3  3  1  3  2  2  1  2  3  0  2  8  9  4  0  6
  4  8  9  5  1  0  3  1  0  1  8  9  0  0 11  1  1  4  3  4 15  5  6 13
  1  3 13  3  8  9  3  0 11  0  1 10  4 17  2  5  9 21  4 13 13  4 15  5
  1 26 20  2 15 12  3  2 24  0 19 17  4 14 23  2 17 10  2 18 18  3 23 23
  3 17  2  5 24 23  4 25 18  1 33 18 21 27 12  4]"
11200,353,1.0,8,3,68.27299666404724,6.452808380126953,5995,44800,338042,2227518,"[ 0  1  3  2  0  2  5  3  3  5  1  1  2  2  1  2  3  0  4  8  7  1  8  5
  4  8  9  4  2  6  4  2  7  1  8  9  1  8  3  1  0  7  5 14  1  4  7  0
  0  5 13  3 12  9  2  9  8  0 17  7  0  7  2  2  9 11  4  9 10  4 15  5
  4 19 22  5 15 27  5 26 15  1  0  1  2 18 22  2 12 19  0 26 20  1 30 31
  2 22 30  1  3 32  3  3 21  0 29 30 21 27 12  4]"
11300,353,1.0,8,3,68.89553475379944,6.225380897521973,6046,45200,340434,2246652,"[ 0  1  3  2  0  2  0  1  3  0  3  1  2  2  1  2  3  0  5  4  7  5  8  7
  4  8  9  0  6  6  0  3  7  1  8  9  0 12  3  3 14  6  3 14 12  1  1  1
  3 15  4  3 15  9  3 21 19  2 11  8  5  1  2  2 20 12  2 14  7  4 15  5
  4  2 13  2 21 27  5 15 11  1 26  1  2 18 11  5 13 14  4  0 18  5  3  2
  2 21 27  5  2 19  3 27 33  2 26 30 21 27 12  4]"
11400,353,1.0,8,3,69.5624749660492,6.669402122497559,6099,45600,342963,2266823,"[ 0  1  3  2  0  2  4  3  0  0  0  3  2  2  1  2  3  0  1  9  4  0  3  5
  4  8  9  4  4  2  5  3  7  1  8  9  3 12 13  3 14  7  2 14  2  1  8 12
  1 12  4  3 15  9  5 21 20  2 11  5  5 21 13  5 20 11  2  1 13  4 15  5
  3  0 19  2 19 18  2 15 22  4 26 18  2 26 16  1 18 16  0 23 28  3 33 22
  3 17 27  5 29 32  5 27 23  4 18 26 21 27 12  4]"
11500,353,1.0,8,3,70.20010590553284,6.376309394836426,6139,46000,345571,2287649,"[ 0  1  3  2  0  2  4  1  1  0  0  3  2  2  1  2  3  0  0  9  1  0  2  3
  4  8  9  5  3  5  2  3  8  1  8  9  5  4  0  5 14  0  0  8  2  0  3 12
  2 12  7  3 15 15  4 18  4  3  0  5  1 15  5  1  0  2  4 11 11  4 15  5
  4 25 13  3 27 27  0 24 10  5 26 11  2 26 17  0  2 26  2 32 24  5 17  2
  5  3 26  3 21 20  3 19 21  2  0 31 21 27 12  4]"
11600,353,1.0,8,3,70.72581434249878,5.257084369659424,6189,46400,347998,2307005,"[ 0  1  3  2  0  2  1  0  0  0  2  0  2  2  1  2  3  0  0  2  3  1  0  0
  4  8  9  5  3  0  3  2  0  1  8  9  1 11  0  0  7 11  1  6  3  1 14  2
  0  3  3  3  8 12  3 15  6  2  6 16  1  9  2  1 17  2  2 11  1  4 15  5
  0 19 27  5 22 14  3 19 23  3 26  3  3 21 20  2 13  0  5 32 24  2  3 17
  1  3 26  1 26 32  3 24 29  3  1 32 21 27 12  4]"
11700,353,1.0,8,3,71.31934976577759,5.935354232788086,6247,46800,350449,2326569,"[ 0  1  3  2  0  2  2  1  2  0  0  0  2  2  1  2  3  0  0  2  3  3  9  0
  4  8  9  5  3  0  3  8  4  1  8  9  1 14  4  0  7 10  0 14 10  4 14 11
  0  3 14  3  8  9  0 15  4  3  0  0  5  9  2  1  1  2  4 19  0  4 15  5
  3 21 27  5 20 13  5  0 23  1 12 11  2 22 20  3  0 14  5  2 19  0 28 27
  5 18 17  5 26 31  3  3  0  4 17 20 21 27 12  4]"
11800,353,1.0,8,3,71.84266400337219,5.233142375946045,6296,47200,352865,2345713,"[ 0  1  3  2  0  2  4  3  2  3  2  3  2  2  1  2  3  0  2  1  9  1  6  1
  4  8  9  0  6  9  3  9  5  1  8  9  4 14  4  0  7 15  5  8 10  2 14  0
  1 12  1  3 12  8  5 15  0  0 18  8  1  8  7  3  1  2  4 19 15  4 15  5
  3 21 14  5 23 10  2 18 23  1 10 18  0  3 16  5 10 17  2  2 24  0 27 29
  3 18 24  2 26 30  2  3  0  3 31 30 21 27 12  4]"
11859,355,1.0,7,2,72.11578583717346,4.629183623750331,6332,47436,354206,2356274,"[ 0  1  3  2  0  2  3  2  2  2  2  2  2  2  1  2  3  0  2  2  9  0  8  8
  4  8  9  0  6  2  3  4  5  1  8  9  4  3 10  0  7  4  5 14  3  2  1  4
  0 12  8  3  9  8  5 15  0  3  9  5  4  8  7  0 16  2  4 19  0  4 15  5
  3 21 14  3 23 17  2  1 23  1 21 19  0  3 16  5 10  2  3 18 22  0 31 29
  3 30 30  2 25 30  1  3  0  3  3 30 21 14 12  4]"
