generation,fitness,functionality,active_nodes,longest_path,time,gen_time,nc_gens,fitness_evals,graph_evals,node_evals,genotype
0,196.0,0.5,4,2,0.016112804412841797,16.112804412841797,0,0,0,0,"[ 5  3  0  5  0  1  2  0  0  1  1  3  3  1  2  4  2  1  5  7  9  1  3  9
  2  8  4  5  5  3  4  4  0  3  5  9  5  1  3  1  2  7  3  6  2  5  8 13
  4  9  1  3  3 12  3 16  5  1  0  6  4  2 15  4 21 16  3 13  9  3 17 21
  0 18 11  0 27 18  0 23 19  0  3 21  5 16 21  3 23 19  4 16 25  0 31 33
  5 22 29  4  0 23  5 24 18  2 23 19  5 16  3 17]"
100,294.0,0.8125,5,3,0.9730134010314941,9.569005966186523,38,400,5789,36190,"[ 3  0  3  5  0  1  0  1  0  2  1  0  0  1  3  4  3  3  3  6  9  5  0  2
  2  3  9  5  9  1  1  5  2  3  5  0  5  8 12  2  4  7  3  6  6  2  1  1
  4  5 10  4 10  0  1 16 13  3  1  2  0  2 15  1  4 10  3  7 13  3  2 11
  0 17 18  3 27 18  0 23 15  0 20 13  5  3 17  5 17 19  2 24 25  5 27 23
  4 22 23  2 21  2  5 28 29  5 22  0 30 30 24  1]"
200,324.0,0.90625,6,2,2.015174627304077,10.42161226272583,76,800,11484,70242,"[ 5  0  0  0  1  0  1  1  2  5  3  1  5  3  0  3  1  2  0  2  2  2  5  7
  2  7  9  4  3  0  0  1  3  3  4  0  5  3  0  1  7 11  3 14  7  4  2 12
  2  4  3  2  4 12  0 15 16  5 18  6  0 10  1  0  3 15  0  5 19  5 21 20
  1 22 10  4 11  1  0  0 10  0 26 22  5 17 26  0  2 21  0  0 29  4  2  3
  0 18 33  4 29 31  0 18  1  0 17 18 15 30 24 14]"
300,324.0,0.90625,6,2,3.0468175411224365,10.316429138183594,127,1200,16869,105086,"[ 2  0  2  1  3  0  1  0  3  2  0  1  1  3  3  3  2  2  5  2  1  0  5  7
  1  4  0  5  5  2  0  1  3  3  4  2  1 11  7  1  9  8  3  3 12  1  5 11
  2  7  9  1 11  0  3 12  4  3  3 16  0 10  1  5 11 18  4  0  6  5  3  0
  2 26 11  1 19 26  0  0  2  5 16 19  4 18 19  4 22 10  1 19 29  5  2 25
  1  3 18  2  1 24  1  0 24  5 30  3 15 30 24 14]"
400,325.0,0.90625,5,2,4.0294508934021,9.82633352279663,176,1600,22194,136868,"[ 2  2  3  0  2  1  3  0  2  4  3  1  4  2  2  5  0  0  3  9  7  3  7  0
  2  4  8  1  0  8  0  1  3  3  9  1  0 11  7  5  2 10  0 14 12  5  4  4
  3  6  5  3 13 15  5 16  9  0  7 14  0  2  1  0 15 17  3  0 20  5 14  4
  3 24  3  3  0 26  2  2 18  0 18 19  2  0  3  5 15 16  4 26 25  0  2  0
  1  3 18  1 22  1  1 19 26  4  1 22 15 35  5 14]"
500,327.0,0.90625,4,1,4.954377889633179,9.249269962310791,237,2000,27370,161691,"[ 2  2  0  0  2  1  2  0  3  0  0  0  4  2  2  3  0  2  5  9  6  1  8  5
  5  4  7  4  8  3  0  1  3  5  3  9  3 11 14  0  5 12  0 13  7  1 10 10
  1  3 13  2  8  4  1 20  7  1  4 14  3  2  5  5 13  2  4 16 11  4  3  4
  4  0 15  1 25 25  5 21 17  1 22  3  3 19  3  5 19 17  5 17  2  0  2  0
  3 24  3  4 16 27  3 22 17  0 17 31  8 35  5 14]"
600,327.0,0.90625,4,1,5.780041217803955,8.256633281707764,293,2400,32531,186051,"[ 1  2  3  0  2  1  4  0  3  0  3  2  4  2  2  2  3  2  3  3  6  5  0  6
  1  5  1  3  1  7  0  1  3  3  7  5  2  0  3  3  5  4  1  5  2  1  1  5
  3 10  3  1  3 13  3  4 12  1 21  1  5  0 21  3  6  2  5 21 14  3 16 20
  3 10 14  1 12 24  1 17 27  0 27  0  2 21 16  2 24 14  2  0 27  0  2  0
  5 33  1  1 21 31  4 29 30  0 17  1  8 35  5 14]"
700,327.0,0.90625,4,1,6.4772868156433105,6.972455978393555,349,2800,37683,209574,"[ 0  2  0  0  2  1  5  1  1  4  3  3  4  2  2  2  2  2  4  3  2  5  9  9
  3  2  6  0  4  1  0  1  3  0  8  5  3  8  2  0  6  8  0 12 10  4  8  4
  0 13  5  1  9 14  4  0  5  1  6  4  0 17 16  4  6  4  0 21  8  3 10 18
  5  3 23  0 17 27  5 13 18  2 26  0  2 24 16  4 26 14  3  0  3  0  2  0
  5 31 33  2 16 21  4 17 30  0 27 30  8 35  5 14]"
800,327.0,0.90625,4,1,7.1444056034088135,6.671187877655029,413,3200,42770,233626,"[ 1  0  1  0  2  1  1  1  0  5  0  3  4  2  2  2  0  1  4  1  6  1  0  9
  0  7  1  3  0  2  0  1  3  5  8  9  4 11 15  1  5  3  3 15 10  0  8  0
  0  6 14  2 13  9  1  0  7  5  2  4  4 17  5  3  6 19  2 19  8  3 16  7
  5 17 26  1 17 19  5  2 27  2 26  1  2 17 16  4  2 26  5  0  2  0  2  0
  3 32 24  0  0 33  2 17 28  3 27 24  8 35  5 14]"
900,327.0,0.90625,4,1,7.945626735687256,8.012211322784424,476,3600,47833,257509,"[ 1  1  3  0  2  1  3  1  0  4  0  2  4  2  2  4  2  0  3  2  4  1  0  0
  0  7  1  2  9  0  0  1  3  5  8  2  0  3 15  5 12  0  3  2 10  0  4  3
  0 15  4  2  3  9  1 18 16  5  2 10  0 12  2  5  8 19  2 15  8  3 21  5
  5 16  1  2 16  3  2  2 21  2 27  3  4 26 16  4 26 17  4 16  1  0  2  0
  3 18 20  0 31 33  5  2 26  2 18 24  8 35  5 14]"
1000,327.0,0.90625,4,1,8.888858318328857,9.432315826416016,538,4000,52876,281565,"[ 5  3  3  0  2  1  1  0  1  3  2  1  4  2  2  4  2  1  3  0  4  2  9  3
  0  6  5  4  9  1  0  1  3  3  3  8  0  9 15  4  6  0  1  6  0  2  2  9
  5 15  6  0  3  2  3 20  8  0 11  9  0 12  7  5 15  2  1  5  8  2 12  6
  2 16 20  0 16 24  1 19 21  3 27 16  2 11  2  0 16 16  4 30 21  0  2  0
  2 28 21  5 32 19  5 25 26  2 27 30  8 35  5 14]"
1100,327.0,0.90625,4,1,9.63090181350708,7.420434951782227,600,4400,57955,305954,"[ 4  3  3  0  2  1  3  2  3  5  1  0  4  2  2  2  0  2  4  3  1  1  8  8
  2  8  4  3  6  1  0  1  3  2  3  0  3  1  6  1  0  6  0  5 15  4  4  9
  5 15  1  1 15 14  0 11 12  1 11  3  3  5 14  4  8  2  3 16  8  5  7 19
  0 16 18  5  1 11  1 10 27  0  2 18  5 21  2  4 18  3  4 20 23  0  2  0
  3 19 21  1 19 33  4 25 28  0 29 23  8 35  5 14]"
1200,327.0,0.90625,4,1,10.353643655776978,7.227418422698975,660,4800,62993,329764,"[ 4  0  1  0  2  1  2  3  1  4  0  1  4  2  2  3  3  1  1  4  2  2  8  5
  2  0  1  3  0  8  0  1  3  2  0  0  5 14  2  4 10 10  0  5  1  1 14  1
  2 15  1  4  2 10  1  9  3  0  8 15  2 10 14  3  8 14  5 18 18  5 18 18
  1 12 20  5 25 19  4 17 21  4 11 24  5 25 15  2 13 25  5 29 18  0  2  0
  4  2 18  0 16  2  5 32 17  5 29 33  8 35  5 14]"
1300,327.0,0.90625,4,1,11.102770328521729,7.49126672744751,713,5200,68090,353864,"[ 0  2  3  0  2  1  5  3  0  0  3  3  4  2  2  1  3  0  0  5  6  5  4  1
  1  4  6  4  5  5  0  1  3  4  3  6  5 14 10  4 15  7  0  6  6  5 14 10
  1  2 12  0  6 11  5 21  3  4  7  0  0 10 11  5  8  8  1  0 12  3  0  1
  1 10 15  4  3  3  4 11 20  1 17 27  3  1 11  1 14 13  0 32 28  0  2  0
  1 28 27  4 26  2  0 23 29  0 25 18  8 35  5 14]"
1400,327.0,0.90625,4,1,11.785160064697266,6.823897361755371,773,5600,73164,378544,"[ 1  0  1  0  2  1  1  2  0  3  3  1  4  2  2  3  3  3  5  2  6  5  0  3
  5  9  3  0  7  9  0  1  3  1  3  7  4  0 13  4  8 13  5 11 12  0 14 10
  1 11 10  5  6  5  5 11 17  2  9 16  2  5 14  5 14 15  1 21 13  0 10 10
  0 18 26  0  3 21  5  0 12  0 16 23  1 13 26  3 14 16  5 27  3  0  2  0
  2 30 30  2 19 23  5 16 19  3  0 22  8 35  5 14]"
1500,327.0,0.90625,4,1,12.52537751197815,7.402174472808838,825,6000,78259,403045,"[ 3  1  1  0  2  1  0  0  1  3  3  0  4  2  2  1  3  0  2  5  4  2  9  4
  0  0  2  3  5  0  0  1  3  1  2  4  0  4 11  5  6 15  0  9  3  3 11  9
  2  2  1  2 12  4  1 15  2  3  5  8  1 12  0  0 15  8  0  4 17  1  8  3
  4  1 22  0 20 16  4 22 18  0 22 21  0 23 26  4 17  2  4  2 33  0  2  0
  4 20 26  0 33 30  2 21 20  5 33 26  8 35  5 14]"
1600,327.0,0.90625,4,1,13.376088380813599,8.507108688354492,880,6400,83309,426655,"[ 4  3  0  4  1  1  1  0  0  4  1  1  3  2  0  0  3  0  2  7  7  2  3  1
  0  0  1  1  5  1  0  1  3  2  0  2  2 11  2  0 14  2  5  3 11  2 11  7
  3 15  0  3  3  2  0  7  9  5 20  1  3 13 21  2 20  8  4 21  3  3  4  5
  4  2  2  2 10 17  5 12 13  0 18 11  3  1 17  3 23 19  5  1 32  0  2  0
  2 16 24  5 16 21  2 32 27  5 18 21  7 35  9 14]"
1700,327.0,0.90625,4,1,14.119857549667358,7.437691688537598,923,6800,88343,449939,"[ 5  2  2  4  1  3  3  0  1  4  1  1  5  2  3  0  3  0  3  8  6  5  6  3
  3  6  2  0  3  1  0  1  3  1  3  8  4 15  5  3 12  0  3 14  4  1 15 13
  5 13 10  1  5 10  0 13  9  4 19  0  2 16 18  1  5 20  1  9  9  5 10  3
  4 15 24  2 19  0  4  0 24  1  0 24  2 15 11  1 24 27  2  2 25  0  2  0
  4 17 31  1 26 28  5  1 28  4 17 22  7 35  9 14]"
1800,327.0,0.90625,4,1,14.846834182739258,7.269766330718994,984,7200,93290,473222,"[ 3  1  1  5  0  2  3  1  0  4  1  1  5  3  2  0  3  0  3  2  0  4  6  5
  5  7  6  2  3  3  0  1  3  2  6  0  4  6  8  3  3  3  3  0 10  0  9 13
  5  7 15  4  0  4  4 20 10  3  6 14  0  6 13  3  1 11  1  1  8  1 10  5
  3 15 23  1 12 11  0 10 16  1  0 14  4 15 27  4 23 23  2  2 32  0  2  0
  5 27  1  4  2  1  0 21 31  1  3 27  7 35  9 14]"
1900,327.0,0.90625,4,1,16.631876707077026,17.850425243377686,1036,7600,98363,497972,"[ 2  1  0  1  0  3  0  3  3  4  1  1  4  0  2  0  3  0  0  2  3  0  8  0
  1  6  1  3  5  2  0  1  3  3  4  0  4  4  5  2  6 15  3  2 15  1 13  4
  4  4  1  5 15  7  5 12  5  2 20  9  2  0 13  5  4  0  2  4 21  1 16 11
  2 24 22  4 27  0  3 27 22  3  3 22  5 14  3  0 11 15  5 29  3  0  2  0
  4 31  1  4 27 25  3 16 17  1 28 18  7 35  9 14]"
2000,327.0,0.90625,4,1,17.770625829696655,11.387491226196289,1103,8000,103333,521353,"[ 3  0  0  3  3  1  4  3  2  4  1  1  3  1  2  0  3  0  3  9  4  0  2  4
  1  9  5  5  5  2  0  1  3  2  0  4  4  3  9  1  7 14  1  4  6  0  6 13
  4  2  0  0  6  3  1 20 19  4 13 19  0  6 11  0 13  7  4  1 10  3  2  2
  0  3 12  2 12 23  0 26  1  4 14 22  0 18 10  2 13 12  5 29  3  0  2  0
  0 22  0  4 32 30  4 19 32  0 26 21  7 35  9 14]"
2100,327.0,0.90625,4,1,18.995039701461792,12.244138717651367,1161,8400,108361,545089,"[ 5  0  3  3  1  3  3  2  3  4  1  1  4  1  1  0  3  0  5  8  6  1  6  4
  0  1  5  1  3  0  0  1  3  3  2  4  5  3 15  4  7  1  1 10 11  2  2  9
  5  9  3  0  9  9  1  1 12  4 11 17  0  1 21  0 13 19  2  1 18  2  9 11
  2 17 15  4  1 23  5 14 21  1 19 24  3 12 25  4 13 16  5 26 19  0  2  0
  1 22 22  4 31 29  4 19 27  5 27 25  7 35  9 14]"
2200,327.0,0.90625,4,1,19.99384593963623,9.988062381744385,1231,8800,113417,568653,"[ 0  2  0  5  0  3  5  3  2  4  1  1  5  1  1  0  3  0  0  2  7  1  8  3
  0  1  2  0  3  0  0  1  3  3  7  9  5  4  1  3 11  4  1 10  0  2  2  9
  5 14  8  3  9  9  5  2  7  2 20  0  2  1 16  1 11  9  1  1  1  0 14  6
  4 11 13  3  3 13  3  2 23  0 17 15  2 12 25  1  1 16  0  3 17  0  2  0
  0 25 23  2 31 28  1 21 16  2 27 21  7 35  9 14]"
2300,327.0,0.90625,4,1,21.00208044052124,10.082345008850098,1284,9200,118351,590424,"[ 0  2  0  5  2  1  4  3  2  4  1  1  1  3  0  5  1  0  3  4  1  1  8  1
  0  3  0  5  9  5  0  1  3  0  0  2  4  8 10  2 10 15  5  7 13  3  0 13
  1  4 12  4  9  5  5 17 13  1 17  2  2 12  1  2 11  1  1  4 14  0  5  6
  0 16 16  2 25 13  0 23 23  5 21 19  5  2 15  5 16 12  1  0 27  3  2  1
  2 23 33  2 19  2  5 32  1  4 21 24  7  4 12 14]"
2400,327.0,0.90625,4,1,21.77422785758972,7.7214741706848145,1337,9600,123434,613088,"[ 0  2  0  5  2  1  4  0  0  4  1  1  4  1  1  2  3  0  4  4  6  0  8  2
  0  3  0  0  6  8  0  1  3  0  2  2  3 12 14  2 15  7  1  3  9  4  0  2
  4  6  7  5  6  4  0 16  9  4 16  4  3 10  1  1  1  5  2  4 11  1 15  6
  5 19 27  0 11 16  4 11 13  1 21 19  0 17 22  3 18 21  4 24 17  3 31 28
  5 32  0  1 18  2  1 17 28  3 21 24  7  4 12 14]"
2500,327.0,0.90625,4,1,22.581495761871338,8.072679042816162,1402,10000,128354,635139,"[ 0  2  0  5  0  1  1  1  2  3  2  0  3  1  0  3  0  0  4  2  2  4  5  2
  0  3  0  4  1  8  0  1  3  3  5  5  3 15  9  2  7 15  4 13  7  4 14 15
  5  8  3  5  6  4  0 14 17  5  7  4  3  0 12  4  3  2  2  3 21  1  7  0
  5 27 18  5 11 13  4 18 24  3 15  3  4 17 20  3 23 23  2 28 17  2  2  0
  5 25 33  3 27  2  2  1 33  4 19 17 10  4 12 14]"
2600,327.0,0.90625,4,1,23.2642765045166,6.827807426452637,1466,10400,133357,657668,"[ 0  2  0  0  0  0  0  1  3  3  3  0  5  2  2  1  2  1  4  2  2  3  8  4
  0  3  0  1  1  1  0  1  3  3  5  2  5  1 12  3 14 14  4 10  7  5  6 12
  3  8 13  4 12  9  3 21  0  2 16  9  5 19  3  5  2 12  4  7  0  1  8 16
  2 21  3  5 22 21  0 18 13  2 17 22  3  0 20  4  2 21  3 23 20  1 30 26
  5 17  3  4 16 29  2 19 33  5 29 32 10  4 12 14]"
2700,327.0,0.90625,4,1,23.909740447998047,6.454639434814453,1538,10800,138185,679310,"[ 0  2  0  0  3  0  5  1  1  5  0  1  5  2  3  5  1  2  4  2  2  3  8  4
  0  3  0  1  1  1  0  1  3  3  6  8  3  1  0  4  4 14  4  6 10  3 12 12
  5  0  4  5  1  2  3 21  0  2  4 13  5 21 20  5  2 11  4  9  5  2  8  7
  2 21  2  1 22 12  3 18 22  2 25 26  3 24 22  3 25 27  1 23 20  1 30 26
  5 17  3  4 16  3  2 19 25  2  1 33 10  4 12 14]"
2800,327.0,0.90625,4,1,24.65432596206665,7.445855140686035,1596,11200,143120,701064,"[ 0  2  0  0  3  0  3  3  0  5  0  2  2  2  1  4  2  3  4  2  2  2  8  3
  0  5  8  1  5  9  0  1  3  0  6  8  0  6  3  1  1  0  2  3 14  1 15 13
  3  3  6  1  9 12  0  4 11  2 11  3  5  0 20  3  2  3  3  2  2  0 16 14
  5  0 25  1 11 24  3 19 22  3  0 17  3 19 16  5 10 27  5 27 20  2 23 26
  4 29 22  1 20  3  4  0 18  5 18 19 10  4  5 14]"
2900,327.0,0.90625,4,1,25.29950976371765,6.45183801651001,1654,11600,148151,723023,"[ 0  2  0  0  3  0  1  3  2  0  0  0  4  0  3  2  2  3  4  2  2  0  6  2
  4  7  9  1  9  2  0  1  3  3  1  9  3  6  8  0 14  8  0  3 12  0 12 12
  3  9 12  0 15  5  2 12  8  2 11  4  4 17 17  2  2  5  3 12 17  2 10 21
  2 13  0  1 10 10  4  3 23  3 10  1  4 21 13  3 10 26  2  3 16  2 28 17
  2 21 22  5 20 17  5  2 18  0  2  1 10  4  5 14]"
3000,327.0,0.90625,4,1,25.95494508743286,6.5543532371521,1715,12000,153124,745041,"[ 0  2  0  0  3  0  3  0  2  0  2  0  5  2  2  1  0  3  4  2  2  2  5  3
  1  1  5  5  4  4  0  1  3  4  1  8  3 13  8  0 12  8  0  3 14  1  9  0
  5  9 12  4 12  1  1 18  8  4 13  6  4 19 17  2 16  3  3  4 19  2  1 14
  2 11 15  0 26  3  1  2  3  2 26 22  2 23 14  0 10  3  1 20 18  5  0 23
  1 33 28  4 26  1  5 25 18  4  1  1 10  7  5 14]"
3100,327.0,0.90625,4,1,26.59291434288025,6.379692554473877,1773,12400,158084,766408,"[ 0  2  0  0  3  0  3  2  3  4  2  3  3  1  1  2  0  0  4  2  2  2  5  6
  5  0  4  2  6  8  0  1  3  0  9  8  1  0 11  1  9 10  0  6  8  4  9  6
  3 14  9  3 15  4  0 18 10  3  3  6  4 19  8  4  1  7  5  0 11  1  8  4
  5  3 12  0 10 22  5  3 21  4  0 22  1 23 23  5 16 13  2 23  2  1 23 17
  4  3 29  1 19 30  5 29 31  1 22 22 10  4  5 14]"
3200,327.0,0.90625,4,1,27.271644353866577,6.787300109863281,1830,12800,163137,788545,"[ 0  2  0  0  3  0  0  2  1  5  3  2  3  3  1  1  3  1  4  2  2  1  0  2
  3  6  1  2  1  4  0  1  3  2  0  8  0  5 12  3  2  7  1  1  2  4 12  4
  3  6 12  3  0  9  5 20  3  3  9 12  5 17  8  5 13  1  3 19  9  3  1  1
  1 15 20  5 10 10  0 21 20  1 18  0  3 25 11  3 18 13  4 32 25  0 26 18
  4 32 22  4 33 27  3 22 18  5 18 24 10  4  5 14]"
3300,327.0,0.90625,4,1,27.99486517906189,7.232208251953125,1894,13200,168052,810136,"[ 0  2  0  0  3  0  2  1  1  4  0  1  4  0  1  1  1  0  4  2  2  4  3  3
  4  2  9  3  7  8  0  1  3  3  8  4  2  4  5  0  5 13  2 12  6  4 10  6
  4 13  1  3 11 15  5 21 21  5  8 12  0 13 21  0  5 12  4  0  2  3 13  2
  0 22 20  5  1  2  4 26 20  3 18 21  1 16 22  3  3 13  0 20 23  2 33 18
  0 31 31  5 25 23  4 27 20  0 18 26 10  4  5 14]"
3400,327.0,0.90625,4,1,28.655272245407104,6.604070663452148,1952,13600,172963,831954,"[ 0  2  0  0  3  0  3  0  2  2  2  2  4  0  1  5  1  0  4  2  2  5  3  6
  0  3  6  4  7  6  0  1  3  2  0  1  0  5  0  5 10  4  0 11  1  5  3 10
  4  2  0  3  6 15  5 21  7  5  2 20  0 15  3  0  5 15  5 19  2  5  9  7
  3 18 12  3 20 16  0 20 10  2 14  0  3  0 15  3  2 13  3  3  0  4 29 25
  0 28 31  2 27  0  5 19 33  2 23  1 10  4  5 14]"
3500,327.0,0.90625,4,1,29.297719478607178,6.424472332000732,2006,14000,178050,854306,"[ 0  2  0  0  3  0  3  0  0  2  1  3  0  0  2  2  3  0  4  2  2  2  3  1
  5  9  6  0  2  8  0  1  3  3  5  6  1 12  0  5  9 10  2  4 11  1  1  2
  5  2 14  0 14 13  5  9  0  0  4 18  5 18  8  2 17  3  5 21 10  0 13  3
  2  2 21  2 20 20  5 16 27  2 17 11  4 20 15  2 26 16  1 18 19  1 16 24
  0 23  1  5 24 19  3  0 33  4 23 33 10  4  5 14]"
3600,327.0,0.90625,4,1,30.046713829040527,7.489943504333496,2058,14400,183146,876446,"[ 0  2  0  0  3  0  2  1  2  3  3  2  1  1  2  3  0  0  4  2  2  0  5  8
  4  3  0  4  8  0  0  1  3  3  9  1  0  2  6  4  6  0  1  3  1  4  5  2
  1  6 14  0  9  2  0 18 11  5 21 18  5 15  2  4 18  7  1 21  0  3  1 12
  0 26 18  5 13 22  0 18 12  2 21 23  1 18 11  2 12 13  5  2 21  4 25 21
  1  1  0  5 33 25  3  3  2  3 19 32 10  4  5 14]"
3700,327.0,0.90625,4,1,30.78957748413086,7.42863655090332,2104,14800,188110,898191,"[ 0  2  0  0  3  0  3  1  1  4  0  2  5  0  0  1  3  0  4  2  2  3  2  7
  0  9  8  4  3  5  0  1  3  0  7  3  1  7  4  0  6 10  4  9  0  0 10  2
  4  7 13  2 13 10  1 12 17  0  8 16  2  1  8  4 19  8  5 20  4  2 14 21
  0 19 15  3 24 25  2 22 10  3 14 24  1 25  2  2  0 24  0  2 27  3 27 21
  3 30 31  5 16 31  1 27 31  0 21  1 10  4  5 14]"
3800,327.0,0.90625,4,1,31.48602032661438,6.964428424835205,2155,15200,193027,919770,"[ 0  2  0  0  3  0  5  1  0  5  1  2  1  1  3  3  0  3  4  2  2  0  2  0
  5  1  8  4  9  4  0  1  3  1  8  3  2  9  9  1  8  4  3 10  6  2  5 15
  4  6 11  5 13  5  3 10 18  3 14 16  5  1  1  2 13 17  0  2 17  2 11  2
  5 14 13  0 24 16  5 20 22  2 12 26  2  3 26  0  0 24  5 33  1  5 24 21
  0 16 33  4 27  3  1 21 27  3 17 16 10  4  5 14]"
3900,327.0,0.90625,4,1,32.17166328430176,6.856429576873779,2214,15600,198033,941858,"[ 0  2  0  0  3  0  1  3  1  0  1  3  1  3  3  2  3  3  4  2  2  2  9  7
  4  7  4  2  0  5  2  4  1  0  8  1  4 12  7  2  4 12  5  6 12  1  8 13
  3 15  5  4 15  1  3 14 18  1 15  9  1  6 15  0 21  0  2 21 17  2 17  3
  2 26 25  4 22  0  2 26 24  2 17 22  1 11 16  0 23 22  5 31  1  3 24 21
  0 33 16  3 32 27  1  1 31  2 33 21 10  4  5  7]"
4000,327.0,0.90625,4,1,32.840688943862915,6.690256595611572,2264,16000,203006,963146,"[ 0  2  0  0  3  0  1  1  0  0  1  3  5  3  1  1  1  3  4  2  2  2  0  1
  3  6  7  2  4  2  5  0  7  1  3  9  4  1 11  4 11 10  3 12  4  0 10 15
  3 13  6  3  3  1  0 15 21  1 13 18  4 18  5  4 20 21  5  8 19  4  1  7
  4 27 18  2 26 20  5 23 25  5 20 23  5 13 10  2 21 22  2  1  3  2 18 27
  4 22 20  3 17 20  2  1 20  4 33 33 10  4  5  7]"
4100,327.0,0.90625,4,1,33.57474613189697,7.340571880340576,2304,16400,208013,984340,"[ 0  2  0  0  3  0  3  0  0  0  1  3  5  2  2  4  2  2  4  2  2  3  0  5
  0  1  0  2  8  7  5  7  6  0  5  0  1  7 12  4 13  3  0  9  5  5 11 10
  4  5 14  3  7  4  4 19  4  2  8  1  5 18  6  5 19 20  0  8  1  0  6 16
  5 15 11  2 27 24  1 11 25  5 26 13  0  3  3  1 23  3  5 25 19  5 27 18
  2 21 24  0 17  2  1 31 32  5 17 31  9  4  5  7]"
4200,327.0,0.90625,4,1,34.359519243240356,7.847731113433837,2359,16800,213164,1006200,"[ 0  2  0  0  3  0  2  1  2  0  1  3  0  3  3  4  2  2  3  6  5  2  2  9
  0  8  5  5  8  9  3  1  7  0  5  4  3  4  3  4  1 15  3  9  1  0  9 10
  2 14 11  0  3  2  1 13  2  2  5 14  3  1  1  2  3 13  3 11  4  0 12 17
  4 26 25  3 19 24  4 18 20  1 20 22  3 16 22  3 21 20  5 17 18  2 16 28
  4 31 27  0 17 23  0 31 32  5  2 17  9  4  5  7]"
4300,327.0,0.90625,4,1,35.195902824401855,8.36383581161499,2401,17200,218340,1029015,"[ 0  2  0  0  3  0  2  3  0  4  2  2  0  3  1  4  2  2  5  4  7  3  9  2
  3  7  6  1  4  4  4  3  1  1  8  9  2  3  6  5 14 12  2  7  2  2  2  6
  1  6  5  4  2  3  1 16  2  3  1 15  5 14 15  0 15 11  4 13 10  3  5 13
  4 26  2  1 25 11  2 11 23  1  1 27  3  1 21  4 24 20  4 20  0  2 22 20
  5 31 32  3 18 28  4 16  0  3  1 26  7  4  5  8]"
4400,327.0,0.90625,4,1,35.880019664764404,6.841168403625488,2449,17600,223452,1050969,"[ 0  2  0  0  3  0  3  2  3  4  2  2  0  3  1  1  2  0  2  4  1  2  5  2
  1  3  1  3  0  3  4  0  3  1  9  7  3  8 15  2  5  0  0 14 10  2  2 13
  5  9 13  5  2  2  0  1 10  5  1 15  3 12 10  3 18 11  5  6  0  5 13 15
  0 26 13  3 16  3  0  3 25  3 12 15  2  2 13  2 22 22  0 30 30  0 24 23
  5 33 29  5  3 22  1 21  0  3  3  3  7  4  5  8]"
4500,327.0,0.90625,4,1,36.697115659713745,8.170959949493408,2492,18000,228643,1073527,"[ 0  2  0  0  3  0  5  0  2  4  2  2  0  3  1  0  3  0  4  1  2  1  5  2
  1  8  8  5  8  5  1  0  1  4  3  3  0  9  4  0  4  8  5 15 13  5  6  5
  3 14  2  0 10 15  0 12  9  3 18 10  5 11  0  2  0  4  3 10 19  5 10  7
  2 26 22  0 10 21  2  1  0  2 10 11  5 26 27  0 18 18  3 18 24  0 31 22
  0 27  1  0 16 29  0  2 20  5 25 31  7  4  5  8]"
4600,327.0,0.90625,4,1,37.399468660354614,7.023530006408691,2543,18400,233842,1095651,"[ 0  2  0  0  3  0  3  0  0  4  2  2  0  3  1  2  3  2  2  0  2  4  9  1
  0  3  7  1  6  8  2  6  4  5  4  3  0  4  1  1 12  2  5 15  1  5  7  5
  2 11  4  4  0  1  2  7 12  2 11  3  4 14 15  2  8  9  4 10  4  0  2  7
  3 17 21  1  0  2  0 19  0  0  1 11  3 20  1  1 24 21  5 18 18  3 19 33
  0 18  1  2 18 27  3 19 20  0 16 20  7  4  5  8]"
4700,327.0,0.921875,7,3,38.27117323875427,8.717045783996582,2607,18800,238630,1124350,"[ 0  2  0  0  3  0  5  2  3  4  2  2  0  3  1  0  1  2  4  7  2  2  9  5
  3  1  0  2  3  6  3  9  7  5  5  8  5  8 11  0 11  3  4 15 13  0  7 11
  5 11  4  2  5  5  5 14 17  2  7  1  0 10  8  2 20 10  2 10 10  3 18  1
  3 22 12  2 24  2  5 18 16  3 14  3  5 27 25  1 24 19  4  3 18  0 31 17
  3 18 31  5 18 17  2 19 30  3 16 21  7 20  5  8]"
4800,327.0,0.90625,4,1,39.037466049194336,7.662928104400635,2659,19200,243669,1147056,"[ 0  2  0  0  3  0  0  2  1  4  2  2  0  3  1  1  2  2  4  3  2  2  9  1
  0  8  5  3  8  0  1  0  7  5  2  5  5 10 10  4  8 11  1  8 12  5  1 12
  2  7  9  5  2  3  0 20 13  0  4  5  4  6 12  1  6 14  3 21  8  4 17 21
  3 27  2  2  1 23  3 26 20  3  1 13  3  2 19  2 26 13  5 30 28  1 21 16
  5 19 16  5 32  1  1  0 32  5 27 33  7  4  5  8]"
4900,327.0,0.90625,4,1,39.81443524360657,7.7696919441223145,2705,19600,248753,1169257,"[ 0  2  0  0  3  0  5  1  3  4  2  2  0  3  1  3  1  2  2  4  7  5  4  3
  5  3  6  0  8  7  5  1  2  5  9  2  2 10  1  2  2 11  4  0 12  2 13 11
  1  0 12  5 12  8  0 20 18  4 15 14  0  0 14  2  9  8  4  7  8  0 16 21
  3 12 14  0 16 11  1  3 22  5 19 25  0 21 24  5 12  2  3  3 19  0 30 19
  5 32 28  0 26 23  3 22 28  5 27 17  7  4  5  8]"
5000,327.0,0.90625,4,1,40.476876735687256,6.624414920806885,2744,20000,253874,1191429,"[ 0  2  0  0  3  0  0  3  2  4  2  2  0  3  1  1  1  0  3  8  9  5  8  8
  0  9  6  5  7  3  3  3  4  2  1  2  5  9  0  0  8 11  2 14 13  5  9 11
  5 15  5  0 10  2  0  4  2  4  4 20  2 14 17  4 12  9  4 13  8  0  1 18
  0 21 22  4 17 19  4 24 10  4 18 22  4 25 20  3 24 26  1 33 19  5 26 28
  4 31 18  1  1  3  0 23  0  1 17 25  7  4  5  8]"
5100,327.0,0.90625,4,1,41.235740184783936,7.588634490966797,2787,20400,258943,1213384,"[ 0  2  0  0  3  0  0  0  0  4  2  2  0  3  1  0  2  1  2  9  6  4  4  8
  3  7  5  3  4  6  3  2  9  0  1  1  5  7  7  2  8  1  4  3  5  3  0  3
  1  9  1  5 12  5  4 20 20  3 14  6  1 12  8  2  0 18  4 15 19  1 10  5
  5  2 18  0 11 10  5 24 22  0 24 10  2  0  2  5 10 20  5 23 25  3 29 26
  4 30 24  5 26 22  1 19 19  1 27 30  7  4  5  8]"
5200,330.0,0.921875,5,2,42.02461099624634,7.888708114624023,2840,20800,264005,1237548,"[ 4  2  2  0  2  2  2  0  2  4  2  2  0  3  1  0  2  1  0  8  1  1  9  8
  3  4  8  3  4  4  3  6  2  4  2  4  3  1  7  2 12  7  5  1  5  2 11  5
  0  8  2  4  7 12  4  9 12  3  6  8  2 16 11  3  1 18  5  5 13  3 15 17
  3  1  3  4 25 15  0 23 18  5 13 14  2 10 23  5 27 12  3 20 26  3  3 20
  0 25 30  2  0 25  2 22 22  0 23 25  7 23  9  8]"
5300,330.0,0.921875,5,2,42.84731364250183,8.227026462554932,2887,21200,268957,1264313,"[ 4  1  2  4  1  0  2  0  2  4  2  2  0  3  1  0  2  1  1  7  2  0  6  8
  0  9  5  2  1  5  1  3  3  5  5  5  1  5  8  4 15 13  5  0 11  2  8  7
  4 15  6  4 10  2  4 17 15  3  6  8  2 16  8  1 11  4  5  0  1  3  8 14
  5 18 20  4  0 26  3 23 14  5 19 17  5 19 15  5 17 13  0 33 33  0 33 16
  4  1 24  2  2  2  1 19 29  0 31 19  7 23  9  8]"
5400,330.0,0.921875,5,2,43.693995237350464,8.466815948486328,2932,21600,273791,1290191,"[ 1  3  2  0  0  3  2  0  2  4  2  2  0  3  1  0  2  1  4  1  3  3  4  5
  2  4  5  2  2  9  2  0  0  4  0  9  4  1 10  4  4  6  5 11 11  1 12  1
  2  6 12  4  0 13  3 17 20  3  6  8  0 11  2  5 11  7  2 17  4  4  7 15
  0 23 16  3 15  0  4 10 18  2 11 18  3 19 17  1 17 24  3 26  0  2  0 23
  3  2 30  2 21  0  0 24 18  3 16 28  7 23  5  8]"
5500,330.0,0.921875,5,2,44.52411413192749,8.301188945770264,2980,22000,278601,1316229,"[ 5  0  3  0  0  3  2  0  2  4  2  2  0  3  1  5  2  0  2  4  7  4  7  9
  3  2  6  0  2  7  1  2  9  3  7  1  0  5 14  3  9  6  0  1 15  1  7  8
  2  7 10  0  7 13  2 20 20  3  6  8  0  5  2  5  8 13  5  4  3  4 21 14
  1 21 23  4 23  3  0 17 13  2 22 14  1  1 25  0 17 16  2 23 29  2 27 29
  0  2 21  0 25 27  3 30  3  0 31 30  7 23  5  8]"
5600,330.0,0.921875,5,2,45.346319913864136,8.222057819366455,3024,22400,283284,1341315,"[ 2  2  1  0  0  3  2  0  2  4  2  2  0  3  1  1  3  3  0  6  0  4  4  3
  2  6  4  5  8  6  3  9  1  0  4  9  1 14 14  5 11  2  5 11 15  2 12 13
  3  5  3  2  1  2  2 20 15  3  6  8  0 15 21  5 20 16  1 16  2  1 16 20
  1  2 22  5 14 12  4  0  2  1 23 14  4 24 21  0 25 10  5  1  1  4 24 31
  4  2  2  1 20 27  4  0  1  0  0 24 36 23  5  8]"
5700,330.0,0.921875,5,2,46.147151470184326,8.008315563201904,3076,22800,287818,1366247,"[ 0  2  2  0  0  3  2  0  2  0  0  0  0  3  1  1  2  1  4  0  0  0  7  2
  0  6  2  4  3  6  4  9  6  1  9  1  3  2 15  3 12  0  5  8 10  0  2  6
  3 11  9  4 15 14  2  9 21  3  6  8  2  5 16  2 14 17  0  3  0  1 16 10
  1  2 18  4 26 19  1 27  2  2 11 13  5 12 21  5 23 15  1 30 29  3 24 18
  2  2  2  2  2 27  2 26  2  2 24 23 10 23  5  8]"
5800,330.0,0.921875,5,2,47.02588367462158,8.787322044372559,3105,23200,292582,1391306,"[ 4  2  2  0  0  3  2  0  2  0  3  0  0  3  1  2  2  3  5  7  3  4  8  6
  3  9  6  2  8  4  5  5  7  4  7  8  5 11 15  0  5 15  2 10  6  0  1  8
  4  9 14  0  1  3  1 14 20  3  6  8  0 18  2  3  5 12  1 17 20  4  8 13
  0 13  0  0 22 17  2  2 20  1  2 12  4  0 23  1 10 19  3 25 33  1 25  3
  1 18 17  5  3 18  2 16 17  2 20 17  4 23  5  8]"
5900,330.0,0.921875,5,2,47.86737298965454,8.41489315032959,3163,23600,297293,1416231,"[ 4  2  2  0  0  3  2  0  2  5  3  0  0  3  1  3  1  1  5  5  4  1  3  6
  4  6  7  2  4  0  0  9  2  5  5  9  1  4  4  0  4 15  5  8  7  2  3  1
  5 15  4  2 14  3  5  2  6  3  6  8  0  1  3  2 18 21  3 14 15  4 10  6
  0 26  0  1 22 16  2  2 20  0 19  3  2 19  2  3 14 26  4 22 23  5 23  3
  4 18 26  1 31 26  5 23 25  1 25 33  4 23  5  8]"
6000,330.0,0.921875,5,2,48.64014792442322,7.727749347686768,3215,24000,301956,1441235,"[ 4  2  2  0  0  3  2  0  2  5  3  0  0  3  1  2  1  0  1  3  6  0  5  0
  0  5  3  0  4  3  3  4  1  4  8  5  2  5  5  0 14 11  5  7  4  4  4  4
  1  0  5  2  5  6  1  1 11  3  6  8  3  1  3  5 11 16  3 14 17  4  6 10
  5  2 18  2 10 18  3 24 19  3 22 22  0 19 17  2 14 23  0 22 32  4 30  0
  0 22 21  1 31 26  4  2 32  3  1 21  4 23  5  8]"
6100,330.0,0.921875,5,2,49.41938066482544,7.792327404022217,3257,24400,306775,1466460,"[ 4  2  2  0  0  3  2  0  2  1  0  0  0  3  1  0  1  1  2  1  5  0  0  3
  2  7  0  5  1  0  4  0  7  0  4  4  4 12 11  1 15 15  1  6  5  4  7  3
  4  3 14  2 14 14  0 17 11  3  6  8  4  0 13  5 10 15  0 10 15  5 21  0
  5 18 18  0 14 23  4 16 14  1 24 18  1 22 19  5 21 11  4 22 26  5  1 26
  0 25 16  2 17 28  3 18 31  0 23 19  4 23  5  8]"
6200,330.0,0.921875,5,2,50.233365297317505,8.139846324920654,3307,24800,311570,1491968,"[ 4  2  2  0  0  3  2  0  2  1  3  2  0  3  1  1  2  1  4  7  4  2  0  1
  4  2  5  1  2  0  3  1  5  2  7  2  4  1 15  5  7 14  1  4  6  4  7 12
  1  6  6  0  7  5  4 21 16  3  6  8  4 20  4  1 16  8  0 21 17  4 12  9
  5  0 20  3 26 16  1 19 16  5  2 14  3 18 24  5  1 27  4 30 33  0 31 26
  0 24  1  4 19 22  5 27 31  4 25 26  4 23  5  8]"
6300,330.0,0.921875,5,2,51.02859926223755,7.9523396492004395,3348,25200,316454,1517853,"[ 4  2  2  2  2  3  2  0  2  0  0  3  0  3  1  3  2  3  5  0  7  5  6  5
  4  0  0  5  9  3  5  1  4  0  0  5  4 14  4  4 13  9  0 13 10  1  6  0
  1  4 13  3  8  5  4  1 16  3  6  8  4 14 16  4  7  9  4 13 16  4 20 16
  4 18 10  3 26 12  4 16 26  5  2 27  0  2 11  2 20 18  4  0 29  3 26 21
  1 31 17  3 16 19  0 23 24  1 21 25  4 23  7  8]"
6400,330.0,0.921875,5,2,51.7785906791687,7.499914169311523,3390,25600,321234,1543732,"[ 4  2  2  0  3  2  2  0  2  0  0  3  0  3  1  0  2  1  1  2  1  2  2  7
  4  7  4  5  1  1  5  1  1  1  3  9  4  9 14  3  9 14  4  2 10  0  9  9
  4  5  9  5  2  5  4  1 17  3  6  8  5  4  6  4  7 11  3  5  8  0 20 16
  1 10 26  3  0 25  5 19 24  1 22 27  3 11  2  4 17  3  2 16 26  1 31 23
  4 27  0  5 28 19  5 26 30  1 21 28  4 23  7  8]"
6500,330.0,0.921875,5,2,52.49821090698242,7.196202278137207,3439,26000,325954,1568559,"[ 4  2  2  2  3  2  2  0  2  0  0  3  0  3  1  5  0  3  5  1  8  2  4  0
  4  6  4  5  1  9  0  1  8  0  4  1  0  0 10  3  9  5  3  7  2  0  1  7
  0  2  6  5  8  5  2 17 20  3  6  8  3 19 16  4  1 12  2  5 13  4  5  2
  5 20 26  2  0 26  5 24 14  3 11 10  0 23 13  4 10 25  4 27 26  1 19 16
  5 22 26  0 33 17  5 26 29  5 16 32  4 23  7  8]"
6600,330.0,0.921875,5,2,53.163140296936035,6.649293899536133,3493,26400,330533,1592722,"[ 4  2  2  4  3  1  2  0  2  0  0  3  0  3  1  3  2  2  0  3  0  3  1  6
  0  2  3  3  9  3  1  9  2  4  8  6  4 12  9  2 12 12  1  2  1  5 14 15
  0  2 15  2  9  4  2  3  1  3  6  8  1  5  7  1  6 17  2  5 20  5 12  7
  4 13 18  4 25 27  0 18 19  0  3 16  4  0 24  1  3 16  4 16 26  2 20 17
  3 22 16  1 21  0  5  0  1  0  2  3  4 23  7  8]"
6700,330.0,0.921875,5,2,53.938191652297974,7.750513553619385,3536,26800,335393,1618263,"[ 4  2  2  4  3  1  2  0  2  0  0  3  0  3  1  1  3  3  2  6  0  5  7  2
  1  6  1  1  7  0  2  9  6  4  8  6  4  1  2  2  0  1  1  7 11  3  1 10
  5 11  3  0 14 10  3 14 10  3  6  8  3  8  7  2 12 14  1 18 21  5  7 14
  2  0 25  4 14 27  0 27 27  0 10 17  0 15  1  2 23  2  4  1 26  0 26  3
  2 29 24  2 29 31  4 27 27  4  0  1  4 23  7  8]"
6800,330.0,0.921875,5,2,54.65104675292969,7.128551006317139,3592,27200,340075,1642942,"[ 4  2  2  3  2  3  2  0  2  0  0  3  0  3  1  2  1  1  5  3  9  1  1  6
  2  3  9  0  2  3  1  1  7  2  6  6  3 14  2  2  0 14  1  6  4  3  8 10
  4  1  0  3 14  6  5 19  6  3  6  8  2 10 10  3 13 15  2  3 10  0  0 19
  2 25 17  1 27 14  3 27 23  0 17  2  3 12 23  2  2 25  0  1  1  1 20 33
  2 23  3  1 21 32  1 23 27  1 33 21  4 23  7  8]"
6900,330.0,0.921875,5,2,55.529903173446655,8.788564205169678,3638,27600,344719,1667433,"[ 4  2  2  5  2  3  2  0  2  0  0  3  0  3  1  1  2  1  2  5  2  3  0  2
  0  4  5  4  1  0  3  9  0  3  6  8  2 10 15  4  3  0  2  5  0  5 10  5
  1 14  4  4 14  0  0 13 12  3  6  8  0 10 13  0  5  8  4  1  6  2 17 19
  3 13 17  4 16  2  4 26 17  4 10 23  1 10 15  0 19 11  2 31  1  0 23 17
  1  2  1  2 25 25  5 21 24  5 21 25  4 23  7  8]"
7000,330.0,0.921875,5,2,56.3437385559082,8.138353824615479,3677,28000,349399,1692060,"[ 4  2  2  5  1  3  2  0  2  0  0  3  0  3  1  1  2  3  4  1  0  1  8  5
  5  5  4  2  8  0  2  3  0  1  1  3  3  6  6  4  4 14  3  8  0  1 10 13
  4  8  1  4  4 14  1 13 21  3  6  8  4  5 19  2  6  8  4  2  2  1 15  7
  5 13 17  1 25 21  3  2 19  1 13 25  3  0 11  0 15 11  4  0 28  3 31 21
  1 19 17  1 33 18  5 33 19  1 27 30  4 23  7  8]"
7100,330.0,0.921875,5,2,57.02834415435791,6.84605598449707,3727,28400,354126,1717412,"[ 1  2  3  0  1  0  2  0  2  0  0  3  0  3  1  5  2  1  1  4  8  4  9  2
  0  4  4  5  1  8  5  8  4  5  0  0  1  7  3  3  6  0  0 13  0  0  5 14
  1  6  3  4 14  5  4 21 21  3  6  8  3 10 18  2 17 17  4  2  2  1 15  8
  2 15 11  3  0 11  2 21 15  2 24 24  0 19 11  3 25  1  3 27 31  5 30 21
  0  1 20  0  3 25  1  2  2  1 16 23 26 23  7  8]"
7200,330.0,0.921875,5,2,57.7504608631134,7.221167087554932,3789,28800,358716,1742758,"[ 3  3  0  4  1  2  2  0  2  0  0  3  0  3  1  4  3  2  1  3  7  0  9  6
  4  4  4  3  6  9  3  8  2  1  8  8  1  3 13  2  2 15  3  5 14  1  6  9
  0  6 14  4 14 12  1  2 10  3  6  8  4 10 18  0 18  8  4  2  2  3 21 20
  4 12 11  1 17  0  5  1  1  0 18 15  1 13  3  4 27 10  3 27 25  3 16 27
  0  1 20  3 21 17  2  0  0  2 17 21 26 23  7  8]"
7300,330.0,0.921875,5,2,58.50569272041321,7.552318572998047,3848,29200,363405,1768453,"[ 5  2  2  2  2  1  2  0  2  0  0  3  0  3  1  3  0  0  1  4  7  3  1  4
  2  7  0  0  6  0  2  9  0  2  3  5  4  8  2  0  6 12  4  1  3  1 11  5
  5  2  4  3 10 12  1  2 10  3  6  8  3 19 17  4  5  5  4  2  2  3  2  2
  0 27 21  1 17 11  2 21 26  1 13 26  3  3 13  4 19 23  5 28 30  2 20  0
  0 23 29  3 27 23  4 33 24  0 20 30 26 23  7  8]"
7400,330.0,0.921875,5,2,59.21866512298584,7.129724025726318,3907,29600,368092,1793727,"[ 5  2  2  5  2  3  2  0  2  0  0  3  0  3  1  2  3  2  2  4  0  3  2  1
  0  7  2  0  7  9  4  0  9  5  7  5  4  2  4  0  3  2  1  0  2  4  3  9
  5  3 14  3 15 10  0  8 10  3  6  8  5 19  2  3  6  3  4  2  2  0  2 10
  3 27 22  2  0 14  5 12 15  1 13 18  4  3 19  4 19 22  3  2 26  4  1  3
  1 21 25  1 16 23  0 26 24  2 21 27 26 23  7  8]"
7500,330.0,0.921875,5,2,60.01319718360901,7.945320606231689,3963,30000,372662,1818852,"[ 5  3  3  1  3  1  2  0  2  0  0  3  0  3  1  0  2  2  0  7  8  1  9  3
  0  7  2  2  0  8  0  0  2  1  0  5  3  3 10  3  5  3  0 11 14  0 14 15
  2 14 14  3  0  2  2  3 11  3  6  8  5  2  2  4  1  9  4 14 11  3 14  1
  0  1 15  0 27  0  4 22 25  1  3  0  2 13 10  1 26 16  4 22 26  3 21 32
  2 23  0  5 26 32  4 26 21  3 31 27 10 23  7  8]"
7600,330.0,0.921875,5,2,60.85615825653076,8.42961072921753,4013,30400,377489,1844727,"[ 4  1  2  1  3  1  2  0  2  0  0  3  0  3  1  0  3  2  0  0  8  3  1  5
  1  4  9  5  5  2  0  5  5  3  8  8  2 13 12  0  4 15  0  9  9  0 14 15
  3  9  3  2  7  3  3  3  3  3  6  8  1  4  9  5 11  0  1  6 19  3 17  0
  0 11 25  0 27  3  1 19 22  4 22 15  3 27 13  1 14 21  4 28 19  4 18 32
  2 16 20  5 24 26  3 24 32  4  1 30 10 23  7  8]"
7700,330.0,0.921875,5,2,61.61067771911621,7.545194625854492,4072,30800,382244,1870214,"[ 3  2  1  3  3  1  2  0  2  0  0  3  0  3  1  2  2  3  0  7  1  5  5  9
  0  5  8  5  9  9  1  1  9  2  3  8  0 12  5  5  2  0  2  0  2  0  5 15
  0  9  6  2  0  8  1 12  7  3  6  8  0  7 14  2 11 10  4  1  0  3 17 21
  0 10 19  0 20 21  3 17 22  1 25 15  3 18  2  1 14  2  2 28 18  1 17 28
  1 16 33  5  1 30  2 17 23  5  0  0 10 23  7  8]"
7800,330.0,0.9375,9,3,62.465237855911255,8.54560136795044,4117,31200,387109,1902200,"[ 0  2  1  1  3  0  2  0  2  0  0  3  0  3  1  4  3  2  0  2  1  3  9  3
  5  0  1  0  9  6  1  1  9  5  8  7  3  1  1  4  6  1  2  7  4  5  7  6
  1  9  6  1 12  9  1  8  4  3  6  8  1 21 10  0 11 10  0  1  5  5 21 19
  1 18 27  2 16 27  1 11 17  1 18  0  3 18 20  2 12  3  3  1 20  3 25 28
  1 16  0  1  1 22  2 21 22  3  0 29 32 23  7  8]"
7900,331.0,0.9375,7,4,63.58516192436218,11.199240684509277,4165,31600,391795,1941117,"[ 3  1  2  2  3  3  2  0  2  0  0  3  0  3  1  1  2  1  2  1  1  4  5  3
  0  0  1  0  9  6  1  5  5  0  0  6  0  7  5  4  5  7  2  5  0  2  7  7
  1  4  6  5  9  9  1  8 18  3 20  8  3 12 21  0 19 18  3  5  5  4 16 17
  1 26 19  1 16 27  1 27 25  5 18 23  3 23 20  4  1  3  0  1 20  5 17 30
  1  0 23  2 25  3  5 29  2  3 29 23 32 23  7  8]"
7941,352,1.0,8,4,63.951597452163696,8.937451897597894,4180,31764,393642,1953870,"[ 1  2  0  1  2  2  2  0  2  0  0  3  0  3  1  5  1  0  2  4  1  2  5  5
  0  1  2  0  7  2  3  4  3  0  0  3  0  7  9  4 12  7  2  7  3  1 14  9
  1  6  6  5 12 11  0  8  6  3 20  8  4  0 13  3 11  5  3 16  3  4 12 15
  3 17 24  4 10 14  3 27 25  5 18  1  3 23 20  5  1 12  0 25 17  5  3 33
  1 22 22  0 25 32  5 28  2  5 23 23 32 23 17  8]"
8000,352,1.0,8,4,64.33341193199158,6.471431861489506,4205,32000,395180,1966184,"[ 5  3  1  4  3  3  2  0  2  0  0  3  0  3  1  5  1  2  3  9  1  5  6  8
  0  1  2  0  7  2  1  0  3  1  8  8  3 11  5  4 12  7  1 13  7  1 14  9
  1  6  6  3 13 11  5 16 10  3 20  8  4  0 11  3 11  6  5 16 10  0 12 14
  3 17 24  4 17  2  5 10 16  5 10  1  3 23 20  5  3 20  3  3 21  5  3 18
  4 22 33  5 25 16  1 17  1  3  0 28 32 23 17  8]"
8100,353,1.0,8,3,64.97926259040833,6.4585065841674805,4260,32400,397575,1985384,"[ 5  3  1  5  3  1  2  0  2  0  0  3  0  3  1  1  1  2  5  9  4  1  2  4
  0  1  2  0  0  2  0  3  3  2  7  8  3 14  4  4 12  7  4 15 13  4  7 12
  1  6  6  5  5  9  4 16 13  3  6  8  1  0 11  0  4 15  4 16  4  0 10 11
  5 17 21  5 26  2  5 26  2  3 21 13  3 23 20  5 21 11  0 20 19  2  3 24
  1 24 33  1 17 25  1 20 24  1 31 30 32 23 17  8]"
8200,353,1.0,8,3,65.5151059627533,5.358433723449707,4320,32800,399655,2001945,"[ 1  2  3  4  3  1  2  0  2  0  0  3  0  3  1  4  2  0  5  4  1  3  2  5
  0  1  2  5  8  4  4  3  0  5  2  2  3  8  8  4 12  7  4 12 14  3  5 12
  0  6  6  5  5  1  5 12 13  3  6  8  0  0 11  0  8 15  4 16  4  0 20 11
  2 22 25  5 26 17  3 22  2  5  1 14  5 23 20  4 21 26  0 20 29  2  3 20
  1 25 19  5 22 25  0 32 26  1 31  0 32 23 17  8]"
8300,353,1.0,8,3,66.12107515335083,6.059691905975342,4367,33200,401886,2019760,"[ 3  1  3  2  3  0  2  0  2  0  0  3  0  3  1  1  0  1  1  6  7  0  3  6
  0  1  2  3  6  1  1  5  0  0  1  0  3  8 14  4 12  7  5 14  8  1 10  5
  1  6  6  0 12  5  3 12  9  3  6  8  4 14 17  2  2 14  0  2  7  1  2  2
  1 13 23  3 17 22  4  0  3  0 24 24  3 23 20  3  1 11  3 24  1  3  1  0
  1 27 21  1  3 17  1 19 29  0 30 17 32 23 17  8]"
8400,353,1.0,8,3,66.63504242897034,5.139672756195068,4418,33600,404036,2036906,"[ 5  1  3  5  0  3  2  0  2  0  0  3  0  3  1  1  0  1  1  0  4  0  2  9
  0  1  2  3  5  9  5  5  5  3  2  2  2  6  6  4 12  7  5  0  4  5  3  1
  0  6  6  4 13  5  4 10 15  3  6  8  2  3  3  4 19  5  0  9 10  4 16  3
  1 13 17  3 22  3  0 25 10  1 24 16  3 23 20  3  0 21  2  0 16  0 20 29
  1 16  0  2  1 25  0 19 29  3 30  1 32 23 17  8]"
8500,353,1.0,8,3,67.23405456542969,5.990121364593506,4467,34000,406374,2055729,"[ 2  1  3  2  0  3  2  0  2  0  0  3  0  3  1  1  2  1  2  9  7  4  2  2
  0  1  2  3  4  9  4  1  2  4  9  0  2 12  6  4 12  7  1  5  3  3 12  9
  1  6  6  1  4 12  1 15  1  3  6  8  3 13 13  5 19  3  0  5 12  0 20  4
  4 22 25  2  0 19  0 20 27  1  2 18  3 23 20  0 13  2  3 31 21  0  1 30
  1 25 33  0 22 25  0 32 31  3 21 33 32 23 17  8]"
8600,353,1.0,8,3,67.7243869304657,4.903323650360107,4519,34400,408702,2074359,"[ 1  0  3  2  3  3  2  0  2  0  0  3  0  3  1  1  2  3  4  9  7  3  2  4
  0  1  2  2  8  8  5  0  9  5  8  8  4 12  3  4 12  7  0  3 11  0  0 15
  1  6  6  0  9  6  5 21 11  3  6  8  2 13 14  5 19 10  0 18  2  1  8 11
  5 19 23  5 22 11  3 25 22  1  3 27  3 23 20  3 13 25  3 23 17  1  1  1
  2  2 33  2 18 23  3 32  3  3 21 29 32 23 17  8]"
8700,353,1.0,8,3,68.20550656318665,4.811196327209473,4575,34800,410814,2091255,"[ 2  0  1  1  2  2  2  0  2  0  0  3  0  3  1  1  3  3  4  3  7  5  7  4
  0  1  2  4  0  8  5  9  9  4  5  9  1  5  0  4 12  7  5  3  0  0  0  7
  1  6  6  0 15  6  2  2 11  3  6  8  2  2 20  5 19 17  5 18 14  2 19  8
  4 24 15  3 22 20  2 12 22  5 12 26  3 23 20  1 13 25  1 22 33  2 31 21
  2 18 24  0 18 32  3  3 20  2 18 18 32 23 17  8]"
8800,353,1.0,8,3,68.78968286514282,5.841763019561768,4627,35200,412864,2107631,"[ 2  0  3  0  3  2  2  0  2  0  0  3  0  3  1  1  2  3  5  6  0  5  9  9
  0  1  2  2  5  0  5  9  8  3  5  3  0 15  0  4 12  7  3  8  6  3  0  1
  1  6  6  2  4 13  4 12 11  3  6  8  2  8  8  5 19 17  0  8  3  3 10  3
  1 24 15  2  1  3  0 11 11  2 17  3  3 23 20  1 11 25  0 22 20  0 31 21
  1 18 24  5 23 32  0  0 16  1 18 30 32 23 17  8]"
8900,353,1.0,8,3,69.31809782981873,5.284149646759033,4685,35600,414873,2123671,"[ 2  0  2  2  2  0  2  0  2  0  0  3  0  3  1  0  1  1  3  4  9  5  9  3
  0  1  2  0  9  3  2  2  3  3  2  5  0 12  0  4 12  7  0  8  0  2 15  9
  1  6  6  0 10  6  3  0 20  3  6  8  3  0  2  4 20 17  5 10  4  2 18  3
  4 15 18  2 19 26  5 20  2  1 15  0  5 23 20  5 11 25  2  0 20  1  3 30
  1 18  0  5 29 29  3  0 17  1 22 30 32 23 17  8]"
9000,353,1.0,8,3,69.97353720664978,6.554393768310547,4734,36000,417215,2142386,"[ 3  0  0  5  2  0  2  0  2  0  0  3  0  3  1  4  1  3  5  4  1  0  9  9
  0  1  2  0  0  1  2  2  2  3  6  5  0  1  8  4 12  7  0 14 15  2 10  0
  0  6  6  2 14  9  4 17 13  3  6  8  3  9 14  2  6  1  5  7 12  2  3  5
  4 14 16  2  0  2  0 15 23  5 23 13  5 23 20  5 22  0  4 28 30  1  0  3
  1 19  3  5 28 29  5 21 24  4 23 25 32 23 17  8]"
9100,353,1.0,8,3,70.5299277305603,5.563905239105225,4793,36400,419303,2159095,"[ 0  2  2  2  1  1  2  0  2  0  0  3  0  3  1  5  0  0  4  4  4  0  9  3
  0  1  2  1  0  1  2  0  0  3  6  5  1  1  3  4 12  7  4  6 15  5 15  0
  1  6  6  4  8 13  0  4 17  3  6  8  4  9 21  2  6  1  3 14 15  2  7  5
  4 14 14  0 15  0  2 12  2  0 13 12  5 23 20  5  2 17  5  2 30  1  2 16
  1 19 20  0 20 29  4 21 19  2  1  1 32 23 17  8]"
9200,353,1.0,8,3,70.9930248260498,4.6309709548950195,4851,36800,421413,2175958,"[ 2  2  2  2  3  1  2  0  2  0  0  3  0  3  1  5  0  3  0  4  4  0  6  0
  0  1  2  1  0  1  0  0  5  3  6  5  0  1  3  4 12  7  3 15 12  2 11  8
  0  6  6  4 12 10  0  5 14  3  6  8  1 15 16  1  5 14  1 14 12  2 13  5
  4 14 14  2 23  0  2 12 10  0 25 10  5 23 20  1  3 19  5  2 30  5  2 32
  1 23 30  0 20 26  0 22 19  5 19 29 32 23 17  8]"
9300,353,1.0,8,3,71.47026824951172,4.772434234619141,4905,37200,423585,2193297,"[ 2  2  3  4  0  1  2  0  2  0  0  3  0  3  1  5  2  3  5  5  4  0  8  3
  0  1  2  4  3  9  0  0  7  5  8  5  0  8 10  4 12  7  3 15  5  2 13  8
  1  6  6  4  0  7  0  2  1  3  6  8  0  7  9  5  5  5  2  4  5  1 21 13
  2 12 11  2 23 15  3 11 17  3 17 10  5 23 20  2 20 27  2 29 25  1  0 32
  2 24 21  5 25 20  0 30 17  0 22  1 32 23 17  8]"
9400,353,1.0,8,3,72.0151162147522,5.448479652404785,4960,37600,425808,2210917,"[ 4  0  3  0  0  2  2  0  2  0  0  3  0  3  1  3  3  1  4  7  2  3  8  7
  0  1  2  1  3  6  3  1  3  3  2  2  4 14  9  4 12  7  2 13  1  2 12  6
  0  6  6  4 12  8  4  2  3  3  6  8  0 21  2  5 13  9  2  4 17  1 10  8
  5 27 13  1 23 15  3 11 17  3 15 10  5 23 20  5 14 27  2 29 26  2 32  3
  0 23 21  1 25 32  4 28 17  0 23  3 32 23 17  8]"
9500,353,1.0,8,3,72.5007061958313,4.855899810791016,5023,38000,427651,2225713,"[ 1  2  3  2  0  1  2  0  2  0  0  3  0  3  1  1  1  3  4  9  2  3  7  8
  0  1  2  5  8  3  2  9  4  1  2  2  4 14  2  4 12  7  2 12  1  4  4  1
  0  6  6  4 14  8  2 16  4  3  6  8  0 13  9  4 17 16  2  4 17  2  0  8
  4 10 11  3 23  0  4 10  2  2 15 24  5 23 20  5 24 14  2 29 26  0 27  2
  4  3 29  5 25 22  2 19 27  5 23 18 32 23 17  8]"
9600,353,1.0,8,3,73.01397967338562,5.132734775543213,5072,38400,429789,2242872,"[ 0  1  0  2  3  3  2  0  2  0  0  3  0  3  1  3  0  1  5  4  2  0  7  4
  0  1  2  4  2  3  2  9  4  1  7  6  0 14  0  4 12  7  2  6  1  4  1  1
  0  6  6  3 10 13  1  7  4  3  6  8  4 21 13  5  5 12  2  2 18  2 11 17
  4 13 26  0 12  1  1 10  2  2  0 18  5 23 20  4 24 11  3 20 19  0 19 29
  5  0 21  0 22 22  2 32 27  4 21 24 32 23 17  8]"
9700,353,1.0,8,3,73.61900329589844,6.050236225128174,5127,38800,431987,2260557,"[ 2  1  2  2  3  2  2  0  2  0  0  3  0  3  1  5  3  2  3  8  2  0  4  9
  0  1  2  2  0  5  2  1  4  3  5  9  3 12 10  4 12  7  4  2  8  0  0 12
  0  6  6  0 10 13  2  3  6  3  6  8  3  7 12  0  6  9  3 11  7  3 11  3
  1 21 26  3  2  2  5 10  2  0 27 22  3 23 20  0 24 16  3 33 24  0 20 18
  4  0 27  0 24 30  2 19  1  5 29 28 32 23 17  8]"
9800,353,1.0,8,3,74.194659948349,5.756566524505615,5181,39200,434140,2277836,"[ 4  1  2  1  0  1  2  0  2  0  0  3  0  3  1  2  2  1  3  2  2  1  7  0
  0  1  2  5  4  7  3  0  4  5  5  3  3 13 14  4 12  7  4  2  7  3  0 12
  0  6  6  0 10  2  2  3  6  3  6  8  3 15  1  0  6 17  0 19 14  1 13  8
  4 12 21  5  2  2  0 10 21  5 14 12  5 23 20  4 16 16  2  0  0  2 22 24
  5 25 27  2 20 18  4 30  0  2 29 33 32 23 17  8]"
9900,353,1.0,8,3,74.67384886741638,4.791889190673828,5235,39600,436265,2294820,"[ 5  0  3  5  0  3  2  0  2  0  0  3  0  3  1  1  3  3  3  2  9  3  2  0
  0  1  2  1  4  7  2  3  8  2  5  9  4  6  6  4 12  7  0 12  9  3  3 12
  0  6  6  5 10 12  1  9  7  3  6  8  2  6 21  1  9 16  4  2 13  5 18  9
  4 27  2  3 25  2  1 24  2  4 26 12  5 23 20  0 26 20  2 28 16  5 22  1
  5  1 27  1 31 18  5 26 28  2 26 18 32 23 17  8]"
10000,353,1.0,8,3,75.31342148780823,6.395726203918457,5289,40000,438602,2313471,"[ 4  1  2  0  0  1  2  0  2  0  0  3  0  3  1  1  2  3  3  5  6  3  1  4
  0  1  2  4  8  7  2  4  8  2  5  4  2  1 14  4 12  7  1 12  9  3 11  9
  1  6  6  1  2 12  5 17  0  3  6  8  2  0 18  3  6 10  4  9  5  2  3  6
  4 15 24  4 27 12  4 10 26  4 16 16  3 23 20  2 23 20  0 28 16  4  0 23
  1 19 27  4 23 18  0 26 22  4 30 33 32 23 17  8]"
10100,353,1.0,8,3,75.81798243522644,5.045609474182129,5342,40400,440826,2331247,"[ 4  1  2  3  3  1  2  0  2  0  0  3  0  3  1  2  3  2  2  5  3  5  3  4
  0  1  2  4  8  2  2  8  8  3  0  8  2  1 12  4 12  7  4 13  9  4  8  9
  0  6  6  5  2  4  4 20  2  3  6  8  5  9 13  5  6 10  4  7 17  0  3  7
  5 27 24  2 10 25  3 21  2  2 22 27  5 23 20  4 27 22  5  0 16  1  0 27
  4 19 27  2 18  2  0  3 29  1 32 32 32 23 17  8]"
10200,353,1.0,8,3,76.27742624282837,4.594438076019287,5398,40800,442837,2347319,"[ 0  3  2  3  0  2  2  0  2  0  0  3  0  3  1  1  3  2  4  4  2  0  0  2
  0  1  2  0  2  1  2  8  8  3  0  0  2 15  0  4 13  7  2  6  9  1  3  9
  1  6  6  4  6  4  1 16  2  3  6  8  1  9 21  2 11 10  4  9 17  0 11  6
  1 27 24  5 18  3  5 21 18  3 16 27  5 23 20  3 17 22  4 33  3  2  0 32
  4 17 16  4 18 21  0  2 32  0 23 32 32 23 17  8]"
10300,353,1.0,8,3,76.84522891044617,5.6780266761779785,5445,41200,445102,2365412,"[ 1  0  3  3  2  2  2  0  2  0  0  3  0  3  1  5  3  1  0  6  2  1  0  2
  5  1  7  0  2  1  1  0  8  2  3  0  4  5  6  4 13  7  2  2  9  1  0 12
  1  6  6  1  9  2  4  9  2  3  6  8  1 19  8  5  5  1  1  3  1  2 18 21
  3 27 20  4 26 17  3 13 18  2 11 23  5 23 20  0 14 27  2 33 26  0 24 28
  3 22 32  0 28 18  2 21 29  1 28 33 32 23 17  8]"
10400,353,1.0,8,3,77.32362174987793,4.783928394317627,5494,41600,447366,2383531,"[ 3  0  3  3  3  3  2  0  2  0  0  3  0  3  1  0  3  0  1  9  4  1  7  0
  0  8  7  0  2  1  1  3  6  3  2  3  4 12 14  4 13  7  5 12 12  4  7 12
  1  6  6  1 15  8  4 14 21  3  6  8  2 10  2  5 21  6  0 14  1  2 18 20
  3 12 18  3 10  2  2  2 18  0 24  3  5 23 20  4 24  1  4 21 23  0 24 24
  2 17 18  0 18 18  0 28 24  0  3 27 32 23 17  8]"
10500,353,1.0,8,3,77.8595244884491,5.35902738571167,5549,42000,449661,2401861,"[ 3  0  3  2  1  2  2  0  2  0  0  3  0  3  1  0  3  3  5  4  5  1  3  0
  4  8  6  0  2  1  1  4  6  3  5  6  2  5  7  4 13  7  2  2 12  4  4  5
  0  6  6  1 15  2  0  1 17  3  6  8  3 14 16  5 18  3  0 14 20  2  6  6
  0 21 16  3 10  2  2 22 21  0  3 10  3 23 20  5 24 22  0 21  0  0  1 24
  5 28 18  5 18 18  0 28 25  0 32 26 32 23 17  8]"
10600,353,1.0,8,3,78.35551524162292,4.959907531738281,5617,42400,451474,2416436,"[ 0  2  3  0  1  2  2  0  2  0  0  3  0  3  1  5  3  0  3  4  1  2  3  4
  4  1  0  3  2  1  4  4  6  3  5  9  2  4 15  4  5  7  3 10 11  4 15  5
  0  6  6  1  2  0  2  3 17  3  6  8  2 15 16  3 10  3  5  3 16  2  6  7
  0 20 16  5 10 15  4 20 21  4 24 22  5 23 20  3 13  1  0 23 17  0  1 24
  4  3  0  0 17 30  0 29 25  0 32  2 32 23 17  8]"
10700,353,1.0,8,3,78.88125562667847,5.25740385055542,5667,42800,453733,2434461,"[ 4  0  0  0  1  2  2  0  2  0  0  3  0  3  1  3  1  0  5  5  0  2  3  6
  4  8  1  4  6  1  3  3  3  3  6  9  4 15  9  4  5  7  4  3  6  3 15 11
  0  6  6  0  2 11  2  8 17  3  6  8  2  5 20  4  5 11  4  8 12  5 12  7
  0 16 24  5 24 26  5  3 21  0  3 13  5 23 20  1 16  1  0 16 33  2 25 19
  3 27  0  4 19 23  3 29 25  0 18  2 32 23 17  8]"
10800,353,1.0,8,3,79.45795226097107,5.766966342926025,5713,43200,456146,2453730,"[ 5  2  1  0  1  2  2  0  2  0  0  3  0  3  1  1  1  3  2  6  0  0  3  4
  4  8  1  1  2  9  0  7  8  2  1  0  5 10 14  4  5  7  5  7 11  0  8  0
  0  6  6  0 10 11  3  8  7  3  6  8  2  5 20  4 20 11  4  8  7  5  8 15
  1 22 18  0 12 14  3 21 21  0 23 21  3 23 20  1 16 11  0 21 28  1 16 21
  0 27  1  0 32 23  3 30  1  1 18  0 32 23 17  8]"
10900,353,1.0,8,3,80.00614929199219,5.481970310211182,5768,43600,458370,2471499,"[ 2  0  1  0  1  2  2  0  2  0  0  3  0  3  1  1  0  3  3  6  8  1  5  6
  5  6  9  3  5  5  0  2  4  3  4  3  5  0  9  4  5  7  5  6 10  2 13  0
  0  6  6  0  1 13  1 17 18  3  6  8  2 13 20  4 14 16  4 16 17  3  8 16
  1 22 26  4 18  1  3  1 22  0 20 17  3 23 20  2 20  0  0  3 24  1 31 21
  4  1 30  2 29 29  1 33 28  2 18  0 32 23 17  8]"
11000,353,1.0,8,3,80.63184261322021,6.256933212280273,5822,44000,460625,2489547,"[ 5  0  2  0  1  2  2  0  2  0  0  3  0  3  1  3  3  3  4  3  7  2  2  7
  4  1  9  3  6  1  2  4  2  3  5  0  2  9  5  4  5  7  1 12 10  0 13 13
  1  6  6  5  0  1  4 15  8  3  6  8  1  8  8  1  4 16  4 17 17  3  8 10
  1 10 25  1 18  2  1 26 15  4  0 26  5 23 20  2 20 27  0 31 24  1 19 24
  4 29 33  2 20 25  0 31  3  5 25  0 32 23 17  8]"
11100,353,1.0,8,3,81.28995370864868,6.581110954284668,5874,44400,462677,2506019,"[ 1  0  0  0  1  2  2  0  2  0  0  3  0  3  1  0  3  3  4  1  7  3  1  9
  1  3  0  4  3  3  1  4  2  2  2  9  1  4  1  4  5  7  1  7 10  3  8  9
  0  6  6  2 15  4  2  4 11  3  6  8  1  3  4  2 16 21  0 19  2  1  8  5
  5 23  1  4 18 21  3 26  0  3 19 26  5 23 20  2  2  3  0 26 31  1 27 28
  4 18 33  4 19 27  3 19 23  5 25  1 32 23 17  8]"
11200,353,1.0,8,3,81.87152028083801,5.8156657218933105,5920,44800,464976,2524452,"[ 0  2  3  0  1  2  2  0  2  0  0  3  0  3  1  3  2  3  3  2  7  5  6  7
  4  0  2  5  0  4  3  9  6  0  6  3  5 11  6  4  5  7  5  7 10  3 13  9
  0  6  6  2  6 14  2  6 13  3  6  8  4  1  3  4 15 20  0 19  4  4 15  0
  5  3  1  3 23 18  3 18  0  2 19 11  3 23 20  2 18  2  0 20 31  2 27 32
  2 27 26  3 19 33  1 19 25  2 23  2 32 23 17  8]"
11300,353,1.0,8,3,82.40020966529846,5.286893844604492,5971,45200,467384,2543714,"[ 0  1  2  0  1  3  2  0  2  0  0  3  0  3  1  0  0  2  3  2  7  4  5  4
  2  6  2  2  1  4  3  6  6  0  8  6  3  8  0  4  4  7  5  7 10  3 10  9
  0  6  6  0 15 14  2 12  7  3  6  8  1 11  3  4  9  4  2 10  4  2 15 21
  4  3 14  3 12 27  1 15 17  5 21 25  5 23 20  5 14  1  4 17 25  5 27 31
  1 27 22  5 27 21  0 26  2  1 23 24 32 23 17  8]"
11400,353,1.0,8,3,82.91286063194275,5.126509666442871,6024,45600,469710,2562289,"[ 0  1  2  0  0  2  2  0  2  0  0  3  0  3  1  1  3  1  3  5  9  5  5  3
  2  1  2  4  3  4  2  9  6  0  8  6  2 15  0  4  4  7  0  8  3  2 13  9
  1  6  6  3  5 13  2 16  4  3  6  8  1 11 10  3  8 12  4 10 17  5 12 15
  0 19 25  1 19 15  2 13  0  4 21 25  5 23 20  4 15 11  4 17 18  3 27 24
  2 31  0  5 27 23  4 19 20  3 28 32 32 23 17  8]"
11500,353,1.0,8,3,83.4270613193512,5.142006874084473,6075,46000,471816,2579104,"[ 0  1  2  1  2  2  2  0  2  0  0  3  0  3  1  1  2  1  3  5  3  2  4  8
  4  1  2  0  1  9  2  2  5  5  8  5  2  3  7  4  4  7  0  3  2  5  5 14
  0  6  6  2 11 13  5 19  4  3  6  8  5  5  2  5 20 19  4 10  0  0  6 13
  0 13 26  5 27 18  2 23 27  5 21 16  5 23 20  5 25 12  4 33 29  4 27 24
  2  3  3  5 28 26  4 19 20  0 29 32 32 23 17  8]"
11600,353,1.0,8,3,83.92613816261292,4.9907684326171875,6127,46400,473912,2595832,"[ 0  1  2  5  1  3  2  0  2  0  0  3  0  3  1  2  3  0  0  3  9  2  2  7
  4  5  9  5  3  0  1  9  8  0  4  9  0  7 13  4  4  7  2  2  9  0  2  1
  1  6  6  0  8 13  3 14 20  3  6  8  1 15 10  4  9 15  5 19  3  3  8  5
  4 24 20  2 27 11  2 16  1  2 20 16  3 23 20  4  0 10  1 17 31  2 27 25
  0 23  2  5  3 17  3 30 29  4  3 19 32 23 17  8]"
11700,353,1.0,8,3,84.49887990951538,5.727417469024658,6185,46800,476019,2612696,"[ 0  1  2  5  0  2  2  0  2  0  0  3  0  3  1  4  3  3  1  8  3  5  2  7
  5  2  2  2  3  6  4  2  8  4  7  9  0  7  7  4  4  7  1  3  7  2 10  1
  1  6  6  2  9 13  4 10 20  3  6  8  0  7 10  2  9  4  3 18 16  3 10  4
  4 16 24  3 15 22  1 16  1  0 14 11  5 23 20  4 18 10  3 25  2  2  1 27
  0 32 30  1 33  1  1  2 27  1  3 25 32 23 17  8]"
11800,353,1.0,8,3,85.06473994255066,5.658600330352783,6238,47200,478294,2630802,"[ 0  1  2  0  0  3  2  0  2  0  0  3  0  3  1  4  1  2  2  2  2  2  0  2
  3  3  4  2  3  2  4  2  1  2  5  5  5  7  7  4  4  7  3  9  8  1  6  2
  0  6  6  1  7 12  0 10 10  3  6  8  2 13 14  3  3 15  2  3 16  5 10  0
  4 16 13  2 15 20  2 16 25  1 21 10  5 23 20  4 18 27  3 23 18  2 18  1
  5 32 30  4 16 30  1  2  2  5 30 26 32 23 17  8]"
11900,353,1.0,8,3,85.5938880443573,5.291481018066406,6295,47600,480413,2647774,"[ 0  1  2  1  0  3  2  0  2  0  0  3  0  3  1  0  0  0  2  9  0  2  0  2
  2  4  9  0  0  2  2  7  1  0  5  5  0  9  2  4  4  7  1  9  0  1  2  1
  0  6  6  5 10 12  5 17 10  3  6  8  2 13 14  5 11 21  2  0 12  3  1 12
  1  0 22  2 22 13  5 16  1  2 10  3  5 23 20  5  3 27  3 23 17  4 33 17
  5  2 16  5 16 24  1  3  2  4 26 23 32 23 17  8]"
12000,353,1.0,8,3,86.21944212913513,6.25554084777832,6343,48000,482518,2664523,"[ 0  1  2  2  2  1  2  0  2  0  0  3  0  3  1  3  1  0  1  0  9  5  0  5
  0  4  4  2  3  6  5  2  6  4  8  7  5  2 15  4  4  7  1  5 15  3  6 11
  0  6  6  0  9  8  1  5 14  3  6  8  5 11 14  0 11 14  4 18  1  4 12 12
  0  0 17  2  3 22  3 11 11  4 10  1  3 23 20  2  0 19  3  2 20  4 30 28
  5 28 19  5  2 26  1 21 29  0  1 21 32 23 17  8]"
12100,353,1.0,8,3,86.727854013443,5.084118843078613,6400,48400,484650,2681495,"[ 0  1  2  2  0  0  2  0  2  0  0  3  0  3  1  0  1  0  0  0  1  0  2  4
  4  4  7  3  9  0  2  4  8  1  4  3  3 10  7  4  4  7  1  5 15  1  9  2
  0  6  6  0 13 15  0 13  2  3  6  8  5  1 14  5  2 18  0 18  6  4  2 13
  5 19 17  2 12 22  3 19  1  5 19 23  5 23 20  2 19 26  3  2 20  2 17 28
  2 28  1  5 20 25  5 26 20  1  1 19 32 23 17  8]"
12200,353,1.0,8,3,87.19367361068726,4.658195972442627,6457,48800,486828,2698863,"[ 0  1  2  0  0  3  2  0  2  0  0  3  0  3  1  0  1  0  0  0  4  3  1  1
  4  2  0  2  4  0  3  2  8  2  7  3  0  3  7  4  4  7  1 11  4  2  9  6
  0  6  6  2 13 13  3  5  2  3  6  8  4 12 17  5 12 18  0 19  6  1  2 14
  5 19  3  5 14 22  2 26 26  3 14 23  3 23 20  2 11 26  3 24 20  2 24 28
  5  1  2  5 19 25  5 27 16  2  2 19 32 23 17  8]"
12300,353,1.0,8,3,87.64477920532227,4.511055946350098,6515,49200,488755,2714224,"[ 0  1  2  0  0  3  2  0  2  0  0  1  0  3  1  0  1  0  4  9  4  0  3  1
  4  0  3  5  2  4  3  5  8  2  8  3  5 11  7  4  4  5  1  2  6  1  6  2
  0  6  6  0  0  8  5 17  9  3  6  8  2  2 19  4  4 18  4 15 20  1 13 14
  0 20 24  3 24 12  2 24 26  3 19 23  5 23 20  2 23 26  1 24  3  5 19 28
  2  1 26  4 18 29  5  0  2  4 16  2 32 23 17  8]"
12400,353,1.0,8,3,88.17678475379944,5.3200554847717285,6570,49600,491188,2733660,"[ 0  1  2  0  0  3  2  0  2  5  3  1  0  3  1  0  0  0  4  9  4  0  2  0
  3  0  5  2  9  6  4  5  9  1  5  5  3 11  0  4  4  5  0 10  6  0 13  6
  1  6  6  0  9  7  4  3  9  3  6  8  2  8 19  4 12 19  4 15  7  3 13  3
  0  2 23  4 24 12  2 17 27  3 11 21  3 23 20  4 19 14  4 24 30  5  2 28
  5  1 29  0 18 23  2 21  2  5 29  2 32 23 17  8]"
12500,353,1.0,8,3,88.77583146095276,5.990467071533203,6623,50000,493586,2752797,"[ 0  1  2  0  0  3  2  0  2  1  0  2  0  3  1  2  1  0  1  4  3  4  7  7
  3  7  9  1  9  6  0  2  9  4  3  9  5  9  2  4  4  5  5 10  0  3  4 12
  1  6  6  0  5  8  1  3  9  3  6  8  2 19  3  2  9  7  4  0  2  0 13 20
  0 21  0  3 26  3  0 20 12  2 26 15  5 23 20  5 12 21  2 33  3  4 24 28
  0 19  2  0 20 23  4 30 26  4 22  2 32 23 17  8]"
12600,353,1.0,8,3,89.29009675979614,5.142652988433838,6674,50400,495847,2770833,"[ 0  1  2  0  0  3  2  0  2  1  0  2  0  3  1  5  3  1  1  4  3  2  2  7
  5  1  1  3  0  6  0  3  2  4  8  2  1  3 14  4  4  5  5  1 11  1  4  5
  1  6  6  0  5  8  1  7  8  3  6  8  2 20  6  1 20  7  5 17 12  2 15 17
  3 21 27  3 20 25  2 20 22  0 19 13  3 23 20  2 12 21  0 29  3  4 24  0
  0 31 24  3  2 29  3 30 24  5 26 27 32 23 17  8]"
12700,353,1.0,8,3,89.85163140296936,5.615346431732178,6725,50800,498336,2790636,"[ 0  1  2  0  0  3  2  0  2  4  1  2  0  3  1  5  3  1  4  5  4  3  5  8
  1  1  6  2  0  4  5  9  9  0  6  8  5  2  5  4  4  5  5  9 11  4 14  1
  1  6  6  0  3 11  0  5  8  3  6  8  0 17 19  3  9 18  2  4  8  3 11  0
  5 12  3  2 20 20  4 20 10  4 20 19  5 23 20  1 26 20  3 21 23  3 23 29
  5 29 24  3 16 27  4 25 30  3 25 29 32 23 10  8]"
12800,353,1.0,8,3,90.33474850654602,4.831171035766602,6785,51200,500348,2806645,"[ 4  1  2  0  0  3  2  0  2  4  2  2  0  3  1  0  2  1  4  5  9  1  8  4
  1  2  9  4  3  4  5  7  9  5  5  5  5  2  2  2  6  5  5  3 11  0  0  0
  0  6  6  0  3  6  2 11  8  3  6  8  0  1 10  1  9  5  2  8 10  3 11  3
  3 12 16  4 22 14  4  1 17  4 20 24  3 23 20  1 22 26  3  2 31  1 23 17
  4 31 19  3 32 21  3  0 18  3  1  1 32 23 10  8]"
12900,353,1.0,8,3,90.86354422569275,5.287957191467285,6840,51600,502508,2823878,"[ 5  1  2  0  0  3  2  0  2  5  3  2  0  3  1  0  2  1  4  5  9  5  1  1
  4  9  1  4  3  4  3  0  4  4  3  7  2  8 13  3  3 10  1  5 10  0  3  6
  0  6  6  0 13  4  4 17  1  3  6  8  4 17 18  4  1 14  1  7  8  5 19 19
  5  1 17  1 23 12  1 27 26  4 10 24  5 23 20  1  0 17  0 30 21  5 17 16
  1 28 22  5  0  3  4 27 18  3 18 18 32 23 10  8]"
13000,353,1.0,8,3,91.44670629501343,5.831620693206787,6893,52000,504834,2842455,"[ 4  1  2  0  0  3  2  0  2  5  3  2  0  3  1  0  2  1  4  5  9  1  9  5
  4  1  4  4  5  7  0  4  4  4  6  9  1 15  8  2  3  2  5 12 13  2  7 13
  1  6  6  0  2  2  4 12  9  3  6  8  4 11 18  0 16 16  3  7 11  5 11 14
  0  1 23  1 15 12  1 27 26  1 26 20  5 23 20  1 19 17  1 29 17  5 17 16
  0 17 19  4  0 24  2 27 27  1 23 22 32 23 10  8]"
13100,353,1.0,8,3,92.03600835800171,5.8930206298828125,6945,52400,507104,2860509,"[ 4  2  2  0  0  3  2  0  2  2  2  2  0  3  1  0  2  1  4  5  9  2  9  6
  3  7  3  4  3  9  0  4  5  5  1  5  1  3  8  0 11  0  1 12 12  2  5  0
  1  6  6  3  2  4  1 15  9  3  6  8  4 17  9  0 21 19  4  7 11  4 11 14
  4 14 23  1 17  3  1 17 20  5 16 10  5 23 20  2 19 17  0 32 22  0 23 32
  0 17 33  4  3 22  2 16  0  5 33 22 32 23 10  8]"
13200,353,1.0,8,3,92.56696438789368,5.309560298919678,7003,52800,509368,2878458,"[ 2  2  2  0  0  3  2  0  2  2  2  2  0  3  1  0  2  1  4  5  9  1  2  6
  3  7  9  0  8  3  0  5  5  3  1  8  1  7  6  2  0  0  2  1  2  3 10  0
  1  6  6  5  2  0  1 15  6  3  6  8  0  6  0  0 13  8  2 17  3  4 11 14
  3 13 22  3 13 14  1 19 21  3 16 27  3 23 20  3 14 11  0  3 29  4 23 32
  2 29 17  4 19 22  2 16 19  1 19 32 32 23 10  8]"
13300,353,1.0,8,3,93.08957147598267,5.226070880889893,7060,53200,511594,2896143,"[ 5  3  2  0  0  3  2  0  2  2  1  2  0  3  1  0  2  1  4  5  9  0  4  4
  3  4  6  5  3  2  1  5  4  5  8  4  1  7  5  0  0  0  4  5  2  4 10  6
  0  6  6  5 14  0  3 11  2  3  6  8  2  3  1  5  4  2  3  1  1  4  1 14
  3  0 24  4 21 19  3  2 15  0 20  0  5 23 20  3 14  0  2 19 29  4 23 32
  3 18 25  0  3 31  2 16 27  2 19 33 32 23 10  8]"
13400,353,1.0,8,3,93.6061224937439,5.165510177612305,7114,53600,513714,2913070,"[ 0  2  0  0  0  3  2  0  2  0  1  2  0  3  1  0  2  1  4  5  9  0  2  7
  1  8  8  4  7  4  1  9  7  0  8  6  1  7 10  2 10  0  5  9  2  2 10  5
  0  6  6  4  6  0  2 11  2  3  6  8  2  3 18  0  8  2  5 16  6  0 14 14
  3 22 21  3 16 17  5 14 17  1 14 11  5 23 20  1 27 16  3  2 17  1  0 31
  3 22 21  0 30 19  5 22 20  2  3 24 32 23 10  8]"
13500,353,1.0,8,3,94.15346312522888,5.4734063148498535,7162,54000,516102,2932061,"[ 1  0  0  0  0  3  2  0  2  1  2  0  0  3  1  0  2  1  4  5  9  0  7  3
  5  1  7  1  8  3  0  1  1  0  9  1  5  4  2  2  8 10  1  9  1  2 15  4
  1  6  6  4  0  0  1 21 12  3  6  8  2 12  5  3  2  2  5  9 14  1  9 17
  1 21 11  1 19  3  4 15 27  4 14 13  3 23 20  3 27 22  3 29 22  0  3  1
  4 20  1  1 22 32  2 22 19  2 29 19 32 23 10  8]"
13600,353,1.0,8,3,94.74420809745789,5.907449722290039,7212,54400,518470,2950906,"[ 2  1  0  0  0  3  2  0  2  5  2  1  0  3  1  0  2  1  4  5  9  1  2  8
  4  0  1  4  1  8  4  1  1  4  1  3  0 14  4  3  7  4  0  2  0  3 12 15
  1  6  6  2 15 12  1  4 12  3  6  8  0 15 11  3  1  2  0  9 15  3 20  8
  1 22 12  5  0  2  4 17  3  5 14 20  3 23 20  3 13  3  2 33 20  0 31 27
  0 31 27  4 32 23  2 26 25  1 29 19 32 23 10  8]"
13678,355,1.0,7,2,95.11853957176208,4.799121465438452,7252,54712,520179,2964508,"[ 2  1  3  0  0  3  2  0  2  5  1  1  0  3  1  0  2  1  4  5  9  0  8  8
  4  8  1  4  1  7  0  2  8  0  1  5  3 14  4  1  7  2  2 12  4  3  3  3
  0  6  6  2  6 12  1  7  1  3  6  8  5 15 11  3  1  9  0  9  5  3  0  8
  5 18 12  1 12  2  4 10 20  2 14 20  3 23 20  2 10 12  1 33 20  4 22 28
  5 19 27  4 32 18  2 24 32  0  3  0 26 23 10  8]"
