generation,fitness,functionality,active_nodes,longest_path,time,gen_time,nc_gens,fitness_evals,graph_evals,node_evals,genotype
0,256.0,0.75,10,4,0.18311238288879395,183.11238288879395,16,64,648,4637,"[ 0  0  2  2  0  2  0  0  3  1  1  1  0  0  2  0  6  2  4  3  3  0  0  6
  3  5  5  2  6  2  4  3 10  1 11  7  2 10  8  5  7 12  0  2 11  1  3 10
  3 11 18  4 12 15  0 13 12  5 17  2  4  3 14  3 15 16  2 21 15  2 16 17
  3 22 21 25 12  2  0]"
100,307.0,0.890625,6,2,1.049074649810791,8.65962266921997,49,464,6123,39925,"[ 0  3  2  2  0  2  0  3  1  1  0  3  0  1  0  4  3  0  0  8  4  4  3  7
  3  5  5  5  6  3  3 10 13  3 12 13  2 11  9  0  4  8  0  0  2  2 16 10
  3 14 13  0  0 16  2  1 11  4 15  9  0 16 18  3  0  1  0  2 18  4 23 22
  2 22 17 17 12  2  6]"
200,317.0,0.921875,6,2,1.7952337265014648,7.461590766906738,90,864,11065,69969,"[ 0  0  1  2  0  2  0  3  1  1  1  1  0  1  2  1  8  1  5  8  2  4  2  6
  3  6  5  2  7  0  0  1 13  5  0  2  0 13  2  0  4  2  5  0  8  5 17  0
  4 12 11  4  1  9  4 11 17  4 11  2  0 21 14  0 18  1  1 16 18  0  1 20
  1 16 14 17 12  8  6]"
300,318.0,0.921875,5,2,2.514019727706909,7.187860012054443,132,1264,16004,98632,"[ 0  0  1  2  0  2  0  3  1  2  1  1  0  1  2  5  3  8  3  6  0  3  8  3
  3  6  5  4  8  5  3  0  5  4  4  6  0  0  1  0  8  6  3 12  2  5  3 10
  0 12 16  2 14 11  4 12 13  0 16 18  0  0 14  4 19 21  0  1  2  0  1  3
  5 16 14 17 12  8  6]"
400,318.0,0.921875,5,2,3.1896846294403076,6.756649017333984,181,1664,20923,124514,"[ 3  0  3  2  0  2  0  3  1  4  1  3  0  1  2  3  1  8  1  6  0  3  4  1
  3  6  5  1  8  6  0  6  3  4  6  6  3 11 10  0  8  3  4  2 12  0 10 18
  2 12  1  1 10 11  5 10 10  0 12 16  2 17 14  1 17 23  5 15 17  0 17  2
  5 18 23 17 12  8  6]"
500,318.0,0.921875,5,2,3.856086254119873,6.664016246795654,240,2064,25641,148771,"[ 0  3  0  2  0  2  0  3  1  1  2  3  0  1  2  2  4  6  4  4  6  2  4  8
  3  6  5  0  7  6  0 10 11  3 10  4  0  7  6  0  0  6  4  1  4  2 12 14
  1 16  1  3 15 13  5 15 10  0 10 15  5 20 20  3  0 16  2 19 22  1  0  1
  2 18 21 17 12  8  6]"
600,318.0,0.921875,5,2,4.513297080993652,6.572108268737793,286,2464,30408,173913,"[ 3  3  1  2  0  2  0  3  1  5  1  2  0  1  2  5  6  6  1  5  1  1  3  1
  3  6  5  1  5  8  1  0  1  3  9  4  1 11 13  0  2  6  4 11  9  4 13  1
  3 13 11  2 12  3  2  2 15  2  0 14  5 21  1  1 22  0  3 15 16  3 16 19
  5  2 18 17 12  8  6]"
700,321.0,0.9375,6,3,5.204176187515259,6.9087910652160645,335,2864,35254,200792,"[ 5  0  2  2  0  2  0  3  1  1  1  3  0  1  2  0  8  1  0  3  4  5  1  5
  3  6  5  4  5  6  2  8  7  2  9  7  1  1  2  0 13  6  4  5  6  4 10  1
  4 11  1  5 13 18  5  0 12  4 14 13  0 23  1  4 17  0  4 14 21  4 17  3
  5  2 16 17 12  8  6]"
800,321.0,0.9375,6,3,5.910109281539917,7.059330940246582,386,3264,39883,228906,"[ 2  1  1  2  0  2  0  3  1  4  1  3  0  1  2  1  6  6  5  5  1  4  1  5
  3  6  5  2  5  3  0  7 12  3  5 13  4  6  9  0 13  6  4  1  6  4  2 12
  4 11 14  3 18 12  5  9 12  4  9 18  4 20  2  3 17 23  2 19 19  3 17  1
  3 15 14 17 12  8  6]"
900,321.0,0.9375,6,3,6.642745018005371,7.326357364654541,443,3664,44702,258241,"[ 0  3  1  2  0  2  0  3  1  5  1  3  0  1  2  4  7  7  5  8  7  3  8  5
  3  6  5  4  5  3  2 11 12  3  9  1  1  6  3  0 13  6  5  1 13  0 17 12
  2 16 14  0  0 17  4 13 10  3  2 14  4  0 19  2  0  2  2 17 19  3 17 18
  0 18 14 17 12  8  6]"
1000,321.0,0.9375,6,3,7.368173360824585,7.254283428192139,489,4064,49444,287137,"[ 5  3  0  2  0  2  0  3  1  5  1  0  0  1  2  4  2  4  5  8  7  1  6  2
  3  6  5  3  5  5  2 13  3  2  5  1  2  5  3  0 13  6  3  7  2  2  1 18
  3 17 14  4 14  1  5  3 12  1 14 13  5  3 15  2 16  1  4 17 17  2  0  2
  4 17 16 17 12  8  6]"
1100,321.0,0.9375,6,3,8.11580204963684,7.476286888122559,533,4464,54426,317231,"[ 2  0  0  2  0  2  0  3  1  3  2  1  0  1  2  0  8  4  0  1  0  1  6  4
  3  6  5  4  5  3  1  0 10  1  2 13  5  7  2  0 13  6  3  7 11  0  1 18
  2  3 14  4  2 11  3 13  2  0  3 13  1  1  3  2 19 19  4 16  3  2 19 17
  5 22 18 17 12  8  6]"
1200,321.0,0.9375,6,3,8.85123324394226,7.354311943054199,579,4864,59301,346877,"[ 4  0  0  2  0  2  0  3  1  3  3  2  0  1  2  0  3  2  0  8  0  1  7  4
  3  6  5  4  5  3  5  2  6  5  6  1  4  6  3  0 10  6  0  7 13  4 17 14
  1  1  2  4 14  1  1 15 14  5 17 13  5  2 15  4 19  2  0 16 15  4 19 17
  3 15 16 17 12  8  6]"
1300,322.0,0.9375,6,2,9.579026699066162,7.277934551239014,628,5264,64232,376653,"[ 3  0  0  2  0  2  0  3  1  3  1  0  0  1  2  3  5  3  0  2  0  1  5  4
  3  6  5  0  1  6  0  0  5  3 13 11  2  6  7  0 10  6  0  4  5  5 11 14
  3 15 13  2 13  2  0  1  3  5  3 13  2 23 15  4  2 14  1 21  0  5  2 22
  2 15 23 17 12  8  6]"
1400,322.0,0.9375,6,2,10.325818300247192,7.467916011810303,677,5664,69238,406497,"[ 4  3  2  2  0  2  0  3  1  3  1  1  0  1  2  1  2  0  0  2  0  1  5  4
  3  6  5  3  6  2  5 13  6  0  5  7  2  9  2  0 10  6  0 12 11  2 14 12
  1 17  0  1  1 12  2  1 13  1  1 18  0  3 15  4  3  0  3 23 23  0 15  1
  4  1 21 17 12  8  6]"
1500,322.0,0.9375,6,2,11.067988395690918,7.421700954437256,721,6064,74198,436445,"[ 1  1  3  2  0  2  0  3  1  3  3  3  0  1  2  2  4  7  0  2  0  3  4  0
  3  6  5  3  1  6  1 11 12  5  3 13  2 13  0  0 10  6  2  1  1  3 11 11
  1 13  9  3  3  3  4 16  9  2  9 16  3 15 18  4  2 17  4 21 14  2  3 21
  2 23 23 17 12  8  6]"
1600,322.0,0.9375,6,2,12.012426137924194,9.444377422332764,765,6464,79287,467102,"[ 3  0  0  2  0  2  0  3  1  3  2  1  0  1  2  4  4  7  0  2  0  2  3  3
  3  6  5  0  0  0  1  9  2  0  9  9  1  7  4  0 10  6  0 10  8  5 13 14
  0  9  1  0 12 17  3 12  1  5 10  2  5  3  1  3 17 19  3 23 23  0 20 17
  1  2  0 17 12  8  6]"
1700,322.0,0.9375,6,2,13.10788869857788,10.954625606536865,823,6864,84255,497435,"[ 5  0  1  2  0  2  0  3  1  2  2  1  0  1  2  4  4  7  0  2  0  3  3  4
  3  6  5  1  6  3  4  0  0  3 12  2  0  2 13  0 10  6  4  8 12  3  1  2
  2 13 12  1  2 14  1 12  2  2 13  2  4  3  3  1 20  1  4  1 22  2 15 16
  5  2  3 17 12  8  6]"
1800,322.0,0.9375,6,2,14.21925163269043,11.113629341125488,872,7264,89062,526252,"[ 2  2  0  2  0  3  0  3  1  1  2  0  0  1  2  5  0  0  0  2  0  2  7  2
  3  6  4  3  0  1  5 11 10  0  5 11  1  2  0  0 10  6  4  9  0  1 10 11
  1  0  3  0  1  9  1 14 10  0  3 18  1  3 16  0 15 19  2 23 22  1 23 20
  5 14  1 17 12  8  6]"
1900,322.0,0.9375,6,2,15.15626072883606,9.370090961456299,928,7664,93935,555792,"[ 2  2  0  0  0  3  0  3  1  1  3  3  0  1  2  2  7  0  0  2  0  2  3  5
  3  6  4  5  0  1  4 11  3  4 10 11  4  6  5  0 10  6  2  5 10  1 11 11
  4 17  0  5  1  0  1  3 14  2 15 18  1  0 21  5 23 21  2 22  1  4 20  1
  4 14 14 17 12  8  6]"
2000,322.0,0.9375,6,2,16.29991102218628,11.436502933502197,986,8064,98583,584056,"[ 2  2  0  1  0  1  0  3  1  1  0  3  4  3  2  5  0  0  0  2  0  2  5  7
  3  6  4  4  0  8  3  1  3  0  0  3  2 10  3  0 10  6  2 12 13  1 17 17
  3  9 15  0  1  3  1 11 17  3  1 16  1 14 16  3 14 21  2 14 18  5 20  1
  1 14 17 17 12 15  6]"
2100,322.0,0.9375,6,2,17.16593909263611,8.660280704498291,1045,8464,103304,612742,"[ 2  2  0  1  3  1  0  3  1  1  0  1  4  1  2  3  7  6  0  2  0  5  2  7
  3  6  4  4  0  5  2  1  3  0  0  3  2 10  3  0 10  6  2 13  2  4 17  2
  1 17 15  2  2  2  4  9  3  3  1  0  1 16  2  4 15 17  3 21 14  1 15  1
  5 23 20 17 12 15  6]"
2200,327.0,0.953125,6,2,17.797218084335327,6.3127899169921875,1099,8864,107157,636935,"[ 2  2  0  5  0  1  0  3  1  1  1  2  0  3  1  1  5  8  0  5  6  2  2  7
  3  6  4  2  7  5  4 12 11  0  0  3  2  8 12  0  2  1  1  9 10  4  2  2
  2 15 10  0 12 13  5 10  3  3 16  2  5 16  2  4 15 17  5 21 22  1 16  3
  2 15 20 17 12 25  6]"
2300,327.0,0.953125,6,2,18.3774356842041,5.802175998687744,1161,9264,110520,657785,"[ 2  2  0  3  2  1  0  3  1  3  2  0  0  2  1  1  0  0  4  8  6  3  1  6
  3  6  4  4  3  5  2  4 12  0  0  3  1 11  9  0  2  1  3  9 10  0 18  3
  1 12 12  5 12 12  1 10 16  2 16 18  1 21 17  4 15 17  4 17 23  2  2 21
  2 19 20 17 12 25  6]"
2400,335.0,0.984375,8,2,19.217097520828247,8.396618366241455,1211,9664,113904,680715,"[ 2  2  0  3  2  3  0  3  1  5  3  2  4  3  2  0  7  6  3  0  8  3  4  4
  3  6  4  4  7  5  3  2  9  0  0  3  0  6  5  0  2  1  0  3  9  2  3  2
  2 12  2  4  3  3  1 10 15  0 13 18  3  0 15  4 15 17  4 18 18  0  2 22
  1  1  2  9 12 25  6]"
2500,336.0,0.984375,7,2,19.793226718902588,5.761291980743408,1267,10064,116608,700348,"[ 2  2  0  3  0  3  0  3  1  2  1  0  4  3  3  0  0  4  5  5  5  5  5  5
  3  6  4  4  5  4  3 12  5  0  0  3  5  1  5  0  2  1  0  7 13  2 14  1
  1  3  2  1 12  3  1  0 15  0 10 14  0 23 15  4 15 17  0 18 19  4 16  3
  2  1 16  8 12 25  6]"
2600,336.0,0.984375,7,2,20.320194482803345,5.269677639007568,1324,10464,119286,719288,"[ 2  2  0  3  2  1  0  3  1  4  3  0  4  3  3  0  0  4  1  6  0  1  2  6
  3  6  4  4  6  0  5  0  2  0  0  3  5  3  9  0  2  1  1  3 13  2 14  1
  3  3 18  0  3  0  1 10 13  5 10 13  5  3 15  4 15 17  4  3 15  2 23 14
  1 22 16  8 12 25  6]"
2700,336.0,0.984375,7,2,20.9220609664917,6.018664836883545,1376,10864,122094,738880,"[ 2  2  0  1  3  2  0  3  1  2  2  1  4  3  3  2  3  4  3  2  0  4  3  1
  3  6  4  5  6  1  5  0  2  0  0  3  3  2 12  0  2  1  0  6 11  0 15 15
  3  1 12  1  9  9  1  9 16  0 16 14  1 20  3  4 15 17  4 17 22  2 19 14
  3  2 23  8 12 25  6]"
2800,336.0,0.984375,7,2,21.49307942390442,5.710184574127197,1421,11264,124999,759464,"[ 2  2  0  4  3  2  0  3  1  2  2  0  4  3  3  5  0  8  0  2  0  4  5  5
  3  6  4  5  8  0  1  5  7  0  0  3  1  9 12  0  2  1  0  0  4  5 11  2
  0 16 12  1 11  2  1  2 15  1  1 13  3 14 23  4 15 17  0  0  0  1 16  2
  3 21 23  8 12 25  6]"
2900,336.0,0.984375,7,2,22.035504579544067,5.424251556396484,1472,11664,127894,780199,"[ 4  2  0  4  2  0  0  3  1  2  2  0  4  3  3  0  2  6  1  0  0  4  5  2
  3  6  7  2  1  1  3  0  1  0  0  3  2  0  4  0  2  1  3 10 12  2 10 15
  0 15 15  2 18 17  0 12 15  0 13  9  1 17  3  4 15 17  0 21 18  0 21 18
  5 23 22  8 12 25  6]"
3000,336.0,0.984375,7,2,22.578339338302612,5.428347587585449,1529,12064,130763,800595,"[ 2  0  3  4  2  0  0  3  1  2  2  0  4  3  3  0  2  6  5  0  4  4  8  0
  3  6  7  1  5  3  0  0  1  0  0  3  2  0  5  0  2  1  1 10  0  0 10  0
  0 17 15  5  0 17  0 12 14  4  3 11  0 17  3  4 15 17  3 21 15  1 20 18
  0 23 23  9 12 25  6]"
3100,336.0,0.984375,7,2,23.11854386329651,5.402045249938965,1582,12464,133630,820959,"[ 0  2  0  3  3  1  0  3  1  2  2  0  4  2  3  0  2  6  5  6  2  4  4  6
  3  6  7  2  6  5  5  6  3  0  0  3  1 13  8  0  2  1  5 13  0  4 10 13
  0  2 11  4 12 12  3 11 14  3 11  0  4  1 16  4 15 17  3  1  0  4 19  1
  4 17 22  9 12 25  6]"
3200,336.0,0.984375,7,2,23.682257413864136,5.6371355056762695,1638,12864,136704,843016,"[ 2  1  3  4  1  1  0  3  1  2  2  0  3  2  1  0  0  6  4  0  2  2  8  1
  3  6  7  2  7  5  5  6  3  0  0  3  4 13  8  0  2  1  5 13  1  3  1 13
  0  3  0  4  2 12  4 12  1  5 18  0  0  1 16  4 15 17  3 23 17  2 19 21
  3 19 18  9 12 25  6]"
3300,336.0,0.984375,7,2,24.21735906600952,5.351016521453857,1692,13264,139554,863160,"[ 2  3  1  4  0  1  0  3  1  2  2  0  4  3  1  0  2  6  4  0  7  2  8  3
  3  6  7  5  7  3  2 10  2  0  0  3  3  3  8  0  2  1  5 13  6  1 13 16
  3  0  3  2 11 18  4  2 16  3 13 17  0 18 16  4 15 17  0  1 20  4 19 19
  3 17 18  9 12 25  6]"
3400,336.0,0.984375,7,2,24.737976551055908,5.206174850463867,1754,13664,142262,882453,"[ 2  3  2  3  1  0  0  3  1  2  2  0  4  2  1  0  2  6  2  2  4  3  6  3
  3  6  7  0  8  3  3  0  0  0  0  3  4 11  8  0  2  1  0 11  6  3  0 16
  5 13  3  0 10 10  1 18 12  3 13 17  3 21  2  4 15 17  0 23 17  3 18  1
  4 20 18  9 12 25  6]"
3500,336.0,0.984375,7,2,25.27269220352173,5.347156524658203,1809,14064,145136,902919,"[ 4  3  2  5  1  1  0  3  1  2  2  0  2  3  2  0  2  6  2  6  0  5  5  2
  3  6  7  1  0  0  2  8  8  0  0  3  5 13  9  0  2  1  0  5  3  3  0 15
  1  0 11  2  0  0  4  0 14  0 18 17  4 18 19  4 15 17  4 18 18  0 17 21
  0 19 18  9 12 25  6]"
3600,336.0,0.984375,7,2,25.78713583946228,5.144436359405518,1872,14464,147813,921848,"[ 4  2  0  4  0  1  0  3  1  2  2  0  2  2  2  0  0  6  1  1  3  1  8  7
  3  6  7  2  0  6  2 10 11  0  0  3  5  2 12  0  2  1  4  2  2  3 10  3
  0 17  9  5  0  0  4  0  1  1  0 11  0 20  1  4 15 17  3 18 19  1  1  1
  5 21 14  9 12 25  6]"
3700,336.0,0.984375,7,2,26.279671907424927,4.925360679626465,1936,14864,150435,940397,"[ 5  2  2  5  0  2  0  3  1  2  2  0  2  0  2  4  6  2  1  5  5  4  8  8
  3  6  7  2  2  8  2  2  6  0  0  3  2 10  8  0  2  1  4  2  2  2 10 18
  0  3  9  5  9  0  3 10 15  5 10 11  0 20  1  4 15 17  4 19 16  0  1  1
  2  2 22 18 12 25  6]"
3800,336.0,0.984375,7,2,26.781862020492554,5.0219011306762695,2003,15264,152984,958527,"[ 5  1  2  5  3  0  0  3  1  2  2  0  0  3  3  4  1  6  3  5  1  0  4  8
  3  6  7  2  3  8  2  8  6  0  0  3  2  4  4  0  2  1  4  2  2  2  0 14
  5  3  9  2 11  0  3  3 15  5  9  3  5 22  3  4 15 17  3  1 16  1  1 20
  2  2 22 18 12 25  6]"
3900,336.0,0.984375,7,2,27.316388845443726,5.345268249511719,2054,15664,155861,978957,"[ 5  0  2  5  3  3  0  3  1  2  2  0  0  3  3  3  1  6  2  8  2  1  7  4
  3  6  7  4  3  6  1  9  3  0  0  3  2 11  4  0  2  1  4  2  2  0 11 18
  0  3  9  0  2  3  2 12 10  4 12  2  2 22 16  4 15 17  0  1  0  1 18 20
  2  2 22 18 12 25  6]"
4000,336.0,0.984375,7,2,27.888709545135498,5.723206996917725,2104,16064,158733,999444,"[ 0  0  0  4  1  3  0  3  1  2  2  0  0  1  3  5  3  6  4  5  8  5  8  5
  3  6  7  2  0  1  3  9  0  0  0  3  0  7  2  0  2  1  4  2  2  1 15  0
  3  2 11  5 13 11  3 17 17  3 15 15  0 19 16  4 15 17  2  3 19  1 16 20
  0 14 19 18 12 25  6]"
4100,336.0,0.984375,7,2,28.38616418838501,4.974546432495117,2172,16464,161362,1017966,"[ 5  3  1  2  1  2  0  3  1  2  2  0  3  0  3  5  3  7  0  1  8  5  2  5
  3  6  7  1  0  1  3  7  0  0  0  3  5 11  2  0  2  1  4  2  2  3  9  3
  5  2  1  5 16 17  0 18  9  3 15 11  1 19  1  4 15 17  4 17 19  3 20 23
  3 19  2 18 12 25  6]"
4200,336.0,0.984375,7,2,28.925439834594727,5.392756462097168,2234,16864,164123,1037619,"[ 2  3  1  3  0  1  0  3  1  2  2  0  4  0  3  5  4  1  5  0  2  1  1  8
  3  6  7  4  0  8  0 10 13  0  0  3  5  0  1  0  2  1  4  2  2  3  1  3
  3 18  0  3 12 17  0 14 17  5 10  2  1  3 17  4 15 17  4  2 15  0 22 18
  3 19 18 18 12 25  6]"
4300,336.0,0.984375,7,2,29.464987754821777,5.395479202270508,2291,17264,167021,1058036,"[ 5  1  0  3  3  3  0  3  1  2  2  0  4  0  2  3  5  6  4  2  6  4  3  4
  3  6  7  2  3  2  2  3  6  0  0  3  1 12  1  0  2  1  4  2  2  5  0 14
  5 13 18  4  1 10  0  0 18  5  3  3  5 16  1  4 15 17  4  0 16  5 22 18
  2 21 20 18 12 25  6]"
4400,336.0,0.984375,7,2,29.97665023803711,5.11662483215332,2346,17664,169700,1077063,"[ 0  3  0  3  0  0  0  3  1  2  2  0  4  2  2  2  7  4  4  8  8  3  4  4
  3  6  7  5  3  0  1  7 13  0  0  3  2  7 10  0  2  1  4  2  2  4  0  1
  2 13 12  3  1  2  1 10 13  5  3 18  3 21  1  4 15 17  4  0 15  2  2 17
  1 21 22 18 12 25  6]"
4500,336.0,0.984375,7,2,30.49458909034729,5.179388523101807,2408,18064,172452,1096462,"[ 5  0  0  3  2  3  0  3  1  2  2  0  0  1  3  2  3  4  3  5  1  1  4  2
  3  6  7  4  3  2  4  2  8  0  0  3  2  6  0  0  2  1  4  2  2  0 17 12
  0 13 14  0 11 13  2 14  9  5 11 11  2  2  1  4 15 17  4 15 14  1  2 20
  1 19 22 18 12 25  6]"
4600,336.0,0.984375,7,2,31.016681671142578,5.220925807952881,2466,18464,175259,1116381,"[ 1  0  2  3  2  2  0  3  1  2  2  0  5  1  2  3  8  4  3  7  4  0  0  3
  3  6  7  4  6  1  2  0  1  0  0  3  4  2  0  0  2  1  4  2  2  0 15  1
  4 10 17  1 11 11  2  9 16  1 14 15  5  1  1  4 15 17  4 15 15  4 17 20
  1 20 22 26 12 25  6]"
4700,336.0,0.984375,7,2,31.555390119552612,5.387084484100342,2529,18864,178119,1136783,"[ 4  0  0  3  0  2  0  3  1  2  2  0  5  2  0  0  6  8  5  7  7  1  0  3
  3  6  7  0  6  3  2  0  8  0  0  3  4 13 12  0  2  1  1  6  1  4  9 18
  2 15 17  2  9 18  2 18  2  1 17 10  4 17  1  4 15 17  4 15 15  0 22 17
  1 20 14 26 12 25  6]"
4800,336.0,0.984375,7,2,32.0710825920105,5.156924724578857,2590,19264,180775,1155939,"[ 4  1  1  1  0  2  0  3  1  2  2  0  1  2  0  0  6  5  1  2  2  1  4  4
  3  6  7  0  6  2  2 11 10  0  0  3  4 13 10  0  2  1  1 10 12  5  9 18
  3  9 17  4  1 14  3  1 16  5 17 10  2 21  3  4 15 17  4 15 15  5 19 20
  1 22 14 26 12 25  6]"
4900,336.0,0.984375,7,2,32.588603019714355,5.175204277038574,2650,19664,183492,1175375,"[ 1  3  3  0  3  2  0  3  1  2  2  0  5  2  2  5  3  5  5  6  8  2  4  4
  3  6  7  4  6  2  5  1  2  0  0  3  4  9  5  0  2  1  1  9  8  4  9 14
  0  0  3  5  1  2  0  1  3  2 17  0  4  3 16  4 15 17  4 15 15  1 21 16
  2  1 19 26 12 25  6]"
5000,336.0,0.984375,7,2,33.106974840164185,5.183718204498291,2708,20064,186296,1195091,"[ 1  0  1  3  2  2  0  3  1  2  2  0  2  2  0  4  4  2  3  6  8  5  0  4
  3  0  8  0  1  7  0  9 13  0  0  3  5  9  4  0  2  1  1  6  9  5 14  0
  3  3  0  5  1 15  3 12  1  5 10  0  4 21  3  4 15 17  4 15 15  5 14 16
  0 15 19 26 10 25  6]"
5100,336.0,0.984375,7,2,33.67647409439087,5.694992542266846,2758,20464,189340,1216915,"[ 0  1  0  2  2  2  0  3  1  5  2  2  2  2  0  4  3  8  3  6  8  3  2  2
  1  3  1  1  2  3  1 13 13  0  0  3  2  5  6  0  2  1  5  5  9  4 16 14
  4  1 16  5  1 12  4  2 10  4 16 11  2  1  3  4 15 17  4 15 15  4 21  0
  4 14  3 26 10 25  6]"
5200,336.0,0.984375,7,2,34.187135457992554,5.106613636016846,2813,20864,192051,1236154,"[ 1  1  0  4  2  2  0  3  1  1  2  3  2  2  0  4  2  4  3  6  8  1  1  6
  5  0  4  1  5  5  4 13 13  0  0  3  3  9 10  0  2  1  4  8 11  4 15 14
  1  0  2  1  2 17  2  2  3  3 12  0  5 18 15  4 15 17  4 15 15  0 23  1
  4 15 20 26 10 25  6]"
5300,336.0,0.984375,7,2,34.7321081161499,5.449726581573486,2880,21264,194797,1255910,"[ 1  0  0  4  2  1  0  3  1  1  2  3  2  2  0  1  3  5  3  6  8  1  8  8
  1  0  4  1  7  5  2 13  5  0  0  3  3  9 13  0  2  1  4  7 11  2 14  1
  5 16 14  1  2 17  2 13 17  5 12 13  1 19  1  4 15 17  4 15 15  0 17 15
  4 15 14 26 10 25  6]"
5400,336.0,0.984375,7,2,35.270179748535156,5.380716323852539,2940,21664,197543,1275640,"[ 3  0  0  2  1  2  0  3  1  1  3  0  2  2  0  1  0  5  3  6  8  1  8  7
  3  0  4  3  6  2  4 13  7  0  0  3  3 11  2  0  2  1  1  6 11  4 13 13
  5 16 16  0  2  0  4  0 17  5 10 15  1 22  1  4 15 17  4 15 15  0 23 22
  5 15  0 26 10 25  6]"
5500,336.0,0.984375,7,2,35.778849840164185,5.086700916290283,2998,22064,200210,1294695,"[ 0  1  1  2  3  1  0  3  1  1  3  3  2  2  0  2  7  8  3  6  8  1  3  3
  5  2  8  5  3  6  4  8  7  0  0  3  5 10  5  0  2  1  0  2 11  5 11 11
  4 16  0  0 16  3  2  9 14  4 17 11  1 21 21  4 15 17  4 15 15  3 23 23
  0  2 22 26 10 25  6]"
5556,340,1.0,8,4,36.07976984977722,5.373571600232806,3028,22288,201856,1306474,"[ 0  1  1  2  1  0  0  3  1  1  3  3  2  2  0  4  6  8  3  6  8  1  5  3
  3  3  4  2  3  5  0  2  0  0  0  3  5 10  6  0  2  1  0  2 11  5 11 14
  4 10  0  0 13 13  1  9  2  4 11  1  3  1 21  4 15 17  5 17 15  3 18 17
  0  2 20 28 10 25  6]"
5600,340,1.0,8,4,36.29762125015259,4.9511681903492315,3046,22464,202906,1314688,"[ 0  0  1  1  1  0  0  3  1  1  3  1  2  2  0  4  3  8  3  6  8  1  3  3
  4  3  4  2  1  8  1  2  1  0  0  3  4 10  0  0  2  1  4  7 11  4 12 15
  4 10  0  1  9 13  5  9  2  1 11  1  5 22 21  4 15 17  5 18  2  3 22 16
  0  2 20 28 10 25  6]"
5700,340,1.0,8,4,36.80872631072998,5.111050605773926,3104,22864,205168,1332732,"[ 4  1  1  5  2  2  0  3  1  2  0  1  2  2  0  4  1  7  3  6  8  3  0  2
  2  3  2  2  1  8  3  2  6  0  0  3  4 10  6  0  2  1  4  4  5  4  0  2
  4 10  0  1 10 11  5  0  2  0 10 13  4 22 17  4 15 17  0  0 17  5 15 22
  0 17 20 28 10 25  6]"
5743,343,1.0,7,2,37.0427680015564,5.442830019218977,3126,23036,206324,1341848,"[ 0  1  1  5  1  0  0  3  1  1  0  0  2  2  0  4  1  4  3  6  8  3  0  2
  2  3  7  2  1  2  5  2  6  0  0  3  2 10  6  0  2  1  4 12  5  4  0  2
  4 10  0  0 10 11  5 10 17  3 10 13  0 22 19  4 15 17  0 14 17  5 15 22
  0 17 15 28 10 25  6]"
