generation,fitness,functionality,active_nodes,longest_path,time,gen_time,nc_gens,fitness_evals,graph_evals,node_evals,genotype
0,213.0,0.59375,5,2,0.017182111740112305,17.177581787109375,0,0,0,0,"[ 3  1  1  2  1  2  4  2  1  5  0  0  0  0  2  3  3  7  2  5  7  5  5  0
  3  5  6  3  3  0  5  8 12  1  2  6  0  7  4  0  9 10  0  5  7  4 14 10
  4  0  7  5 10 11  3  8  7  1  3  6  0 17  6  5  9  4  3  8  1  1  1 18
  5  9  7 12  7  1 10]"
100,302.0,0.875,6,2,0.9582867622375488,9.411003589630127,34,400,5414,36997,"[ 3  1  0  2  3  1  0  2  1  5  0  0  1  2  1  3  4  8  3  5  5  1  5  2
  3  7  2  1  6  4  1  1  7  2  6  8  5 13  2  5  2  8  1 11 10  5 16  1
  4 13  4  5  0  4  3  2  7  0  0 13  0  6 11  1 17  0  3  8 12  4 14 15
  5  7  3 12 22  6 10]"
200,303.0,0.875,5,2,1.871635913848877,9.133446216583252,73,800,10635,65487,"[ 3  2  1  2  3  1  0  2  1  5  0  0  0  1  0  3  3  3  2  5  7  5  4  6
  3  0  7  0  5  3  3 13  5  1  0  0  3  3  0  5 12  0  4  7 12  0 11  1
  3 18 14  4  0 15  2 15  7  3  5  5  0 16  5  5  9 19  1  1 23  4  3  7
  5 12 23 12 12  6 23]"
300,304.0,0.875,4,2,2.682478427886963,8.108377456665039,128,1200,15785,89399,"[ 5  0  0  2  3  1  0  2  1  5  2  2  0  3  3  3  3  0  3  3  7  4  7  7
  3  5  1  5  7  4  5  0 13  5  3  1  4  7  7  2  0 12  1  0  1  0 11 13
  5  9 16  3  4  2  2  8  3  3  5  5  0 21  9  1 17 19  1 20 14  0  5  7
  4 12 23 12 12  6 23]"
400,304.0,0.875,4,2,3.3968136310577393,7.143282890319824,166,1600,20973,112069,"[ 4  3  3  2  3  1  0  2  1  4  0  0  0  2  1  0  8  2  3  3  2  1  3  2
  3  5  3  0  7  3  3  7 12  4  7  3  3 11  9  0 11  6  0  2  5  3 12 16
  4  2  4  1 14  4  2 10  3  3  5  5  4  6 13  5 22  3  1  4 16  4 10  5
  3 21 21 12 12  8 23]"
500,307.0,0.890625,6,2,4.291979789733887,8.9516019821167,205,2000,26317,142590,"[ 5  0  0  2  3  1  4  1  1  1  0  3  0  2  1  0  1  2  0  2  2  0  3  0
  2  5  8  2  3  8  1  7  3  5  8  1  3  0  9  0  0 11  0  5  2  1  5  4
  5  6  2  5 10  4  4  6 12  2  5  5  1 12 22  0  9 11  2  2 22  0 13 12
  2  5  3 25 18  9 23]"
600,307.0,0.890625,6,2,5.23751974105835,9.45535659790039,258,2400,31449,175515,"[ 4  2  2  2  3  1  0  2  2  4  1  3  5  2  0  0  1  2  1  3  2  0  3  0
  2  3  7  1  5  1  1  3  0  4  4  8  2  4 10  3 12 11  0  9  0  4  6 13
  4 11 11  5 13 16  4  3  3  2  5  5  1 19 10  0  9 11  2  0 22  4 23  9
  3 14 18 25 22  9 23]"
700,314.0,0.921875,8,3,6.061596632003784,8.240723609924316,313,2800,36605,211939,"[ 0  0  1  2  3  1  4  2  2  4  1  2  0  2  2  0  1  2  2  8  7  0  3  0
  5  5  7  5  3  8  0  3  7  4  4  2  5  4  7  3  2  2  1  7  8  4  8 12
  3 10 10  2  2 11  4  3  3  3  5  5  1 21 13  0  9 11  5 15 20  5 21  9
  0 14  1 25 22 27 23]"
800,323.0,0.953125,9,3,7.07513427734375,10.135335922241211,357,3200,41162,255490,"[ 2  0  1  2  3  1  4  2  2  4  0  1  3  2  0  0  1  2  2  8  3  0  3  0
  1  1  7  0  8  4  1  2  0  4 10 13  5 13 11  1  4 12  1  4  9  0  3 10
  4  0  8  2 14 11  5 17  7  5  5  6  0  2  0  0  9 11  0  0  0  5 21  9
  5 16 22 25  6 27 23]"
900,324.0,0.953125,8,3,7.914937257766724,8.39794635772705,406,3600,45317,293099,"[ 1  0  2  2  3  1  4  2  2  0  0  1  5  3  0  0  1  2  0  5  6  0  3  0
  3  8  7  5  8  4  1  2  0  1 10 13  0 10 11  4  8  7  1  6  5  1 12  4
  5 18  8  3 11 11  0 14 16  3  5  6  2  0  9  0  9 11  5 21  9  5 21  9
  0 12 17 25  6 27 23]"
1000,324.0,0.953125,8,3,8.652174234390259,7.372314929962158,459,4000,49187,325275,"[ 1  3  3  2  3  1  4  2  2  4  3  1  3  3  2  0  1  2  1  1  6  0  3  0
  3  3  7  4  8  2  1  9  8  0  3 13  3 13 11  0  8  2  0 13  1  1  9  4
  1 10  0  3 11 11  2  5 16  5  5  6  1 11  1  0  9 11  1  0  9  5 21  9
  2 12 11 25  6 27 23]"
1100,324.0,0.953125,8,3,9.351816415786743,6.9963836669921875,514,4400,52978,356562,"[ 3  3  2  2  3  1  4  2  2  2  1  3  3  0  0  0  1  2  5  5  2  0  3  0
  0  8  6  1  4  2  4  4  0  1 11  5  1  8  7  2  8  5  4  5  8  1  9 13
  1 10 12  3 11  6  4 14  2  3  5  6  1  8  4  0  9 11  5 20 14  5 21  9
  2  3 23 25  6 27 23]"
1200,324.0,0.953125,8,3,10.084912061691284,7.330913543701172,568,4800,56966,389337,"[ 0  3  2  0  3  1  4  2  2  2  1  3  5  0  2  0  1  2  1  7  0  0  3  0
  0  3  4  1  0  1  3 11 11  1  8 13  5  8  7  3  8  2  2  5  9  4  5 12
  3 16 14  3  5 11  5 12  9  5  7  6  1 11 11  0  9 11  3 11  6  5 14  9
  2 20 13 25  6 27 23]"
1300,324.0,0.953125,8,3,10.847668886184692,7.6274871826171875,631,5200,60817,421583,"[ 0  3  3  1  3  1  4  2  2  2  1  3  1  0  0  0  1  2  0  7  3  0  3  0
  0  3  4  1  0  6  2  0 11  1  8  3  0  8 12  5 13  1  3 10  3  2 17 17
  3  9  3  3 15 17  5 15  9  3  7  6  2 11 11  0  9 11  3 11 15  5 14  9
  2  2 10 25  6 27 23]"
1400,324.0,0.953125,8,3,11.734898805618286,8.872232437133789,683,5600,65076,456711,"[ 0  3  1  1  3  1  4  2  2  2  1  3  5  0  3  0  1  2  5  6  0  0  3  0
  0  3  1  1  1  1  2 11 11  3  7 11  3 10  9  4 13  3  3 10  3  1 17  4
  3 15  3  5 10 17  4 15  3  3  7  6  3  0 13  0  9 11  0 21 15  5 14  9
  0 22 10 25  6 27 23]"
1500,325.0,0.953125,8,2,12.568592548370361,8.336896896362305,735,6000,69094,489496,"[ 3  3  1  1  3  2  4  2  2  2  1  3  1  0  3  0  1  2  4  0  5  0  3  0
  4  8  4  4  1  3  2  3  0  5  3 13  3 11  9  2  3  2  4  0  8  2 17  4
  5  5  3  5 10 16  4  5  8  2  7  7  3 15 13  0  9 11  0 21  8  5 14  9
  0 22 10 25  6 27 23]"
1600,326.0,0.953125,7,2,13.276533126831055,7.079367637634277,788,6400,73156,518861,"[ 0  3  1  3  2  2  4  2  2  1  1  2  2  0  3  0  1  2  1  7  2  0  3  0
  4  4  7  5  6  5  2  3  0  1  5 12  2  3  7  1 13  6  2 12 12  2 16 18
  3 10  9  5 18 15  2  0 17  2  7  7  3 15 19  0  9 11  5 21 13  5 14  9
  4  5  4 25  6 27  4]"
1700,326.0,0.953125,7,2,14.0351402759552,7.586030960083008,840,6800,77281,548589,"[ 0  3  1  2  0  2  4  2  2  1  2  3  3  3  3  0  1  2  0  8  0  0  3  0
  3  4  0  5  4  7  2  3  0  1 13 12  0  9  7  3 13  6  5 10  2  2  2 11
  3  1 14  1  8  6  2  0 17  5 12  5  3 10 19  0  9 11  5 23 10  5 14  9
  3  9 15 25  6 27  4]"
1800,326.0,0.953125,7,2,14.810081720352173,7.749354839324951,898,7200,81345,578138,"[ 0  3  1  3  0  1  4  2  2  1  3  0  2  2  2  0  1  2  1  3  1  0  3  0
  3  3  3  4  5  1  2  3  0  2  1  5  0  9  7  0 13  7  5 10 13  0 18 11
  3  4 14  2 13  6  3 16  1  3  4  5  1 12 22  0  9 11  4  3  5  5 14  9
  3  2  5 25 20 27  4]"
1900,326.0,0.953125,7,2,15.560712099075317,7.506241798400879,953,7600,85368,607743,"[ 0  3  1  5  0  2  4  1  2  2  2  2  2  2  1  0  1  2  0  0  1  0  3  0
  1  2  7  1  6  8  2  3  0  3  6  5  4 10  3  0  4  0  5  0 13  4 15  1
  3 11 14  5 15  1  4  1  2  3  2  2  0 20 22  0  9 11  5 17  5  5 14  9
  3 11  5 25 20 27  4]"
1941,339,1.0,10,3,15.91184401512146,8.56364064100312,976,7764,87023,620259,"[ 0  3  1  5  2  2  4  1  1  5  1  2  2  0  2  0  1  2  0  0  1  0  3  1
  1  2  7  3  6  8  2  3  0  0  4  8  5 10  4  2  5  5  3  0  0  4  2  1
  3 11  8  5 10  4  4 13  4  3  2  2  0 20 22  0 13 11  3 17  4  5 14  9
  5 12  7 25 20 27  4]"
2000,339,1.0,10,3,16.44406032562256,9.02049016144316,1000,8000,88806,637850,"[ 0  3  1  3  1  3  4  3  1  5  2  2  2  0  2  0  1  2  0  0  1  0  3  1
  3  4  0  3  5  8  2  3  0  5 10 10  5  4  9  4  5  7  3  3  2  3 14  8
  3 11  8  2 18  4  4 11 17  3  2 12  0 20  1  0 13 11  5 22 15  5 14  9
  5  3  5 25 20 27  4]"
2100,340,1.0,9,3,17.219019174575806,7.749528884887695,1038,8400,91801,666462,"[ 0  3  1  4  3  3  2  1  1  1  1  3  2  0  2  0  1  2  0  3  7  0  3  0
  2  0  0  3  6  8  2  3  0  5  7  4  0  9  5  2  0  9  4  7  1  5 15  3
  3  4  8  2  4  7  2  9  3  4  2  7  2  8 16  0 13  3  1 23 15  5 14  9
  4  1 10 25 20 27  4]"
2200,340,1.0,9,3,17.89482831954956,6.758053302764893,1085,8800,94431,689756,"[ 0  3  1  3  1  0  2  2  3  1  3  1  2  0  2  0  1  2  4  1  5  5  4  0
  1  0  8  3  6  8  2  3  0  3  6 11  1  8  6  5  2  9  2  8  4  0 15  3
  3  4  8  0 16  2  0 17  3  5  6 16  2 15 14  0 13  1  4 23  0  5 14  9
  0  5  3 25 20 27  4]"
2300,340,1.0,9,3,18.490793228149414,5.959596633911133,1135,9200,97136,713676,"[ 0  3  1  1  2  3  4  1  0  2  3  3  2  0  2  0  1  2  3  0  4  3  1  8
  5  6  8  3  6  8  2  3  0  3  8  6  1  8 13  5  2  9  2 11  6  0  3 10
  3  4  8  5  4  2  1 17  3  4  6  6  1  4 14  0 13  3  5 23 13  5 14  9
  0  0  3 25 20 27  4]"
2400,340,1.0,9,3,19.124433517456055,6.336357593536377,1187,9600,99862,737802,"[ 0  3  1  5  2  1  2  3  0  3  1  3  2  0  2  0  1  2  3  2  5  3  8  0
  1  1  0  3  6  6  2  3  0  2  6  5  4  8  8  0 11  0  1 13 12  3 17  5
  3  4  8  1  3 14  1  3  3  5 12 11  1 10 12  0 13  9  2 21 13  5 14  9
  0 17 22 25 20 27  4]"
2500,340,1.0,9,3,19.69224739074707,5.678098201751709,1248,10000,102392,760184,"[ 0  3  1  5  1  3  2  3  0  0  2  3  2  0  2  0  1  2  1  4  4  3  7  0
  0  7  1  2  6  6  2  3  0  2  6  2  3  6 10  2 11  9  5  8  7  2 12  4
  3  4  8  1  3 13  2 11  8  5  1 14  2 10  5  0 13  9  1 21  9  5 14  9
  5 14  2 25 20 27  4]"
2600,341,1.0,8,3,20.22460651397705,5.323545932769775,1308,10400,104650,778455,"[ 0  3  1  5  2  2  2  3  0  5  2  1  2  0  2  0  1  2  3  6  5  3  1  7
  3  5  4  3  8  6  3  5  9  1  8 11  3  0  4  1 13  2  1  7  7  2 16  0
  3  4  8  0  2 17  0 11  8  1  9  7  2  5  5  0 13  9  1  0  0  5  6  9
  3  2  3 25 20 27  4]"
2700,341,1.0,8,3,20.787582635879517,5.629720687866211,1360,10800,107109,797969,"[ 0  3  1  5  2  1  2  3  0  5  1  0  2  0  2  0  1  2  3  6  5  2  3  6
  3  2  4  2  6  6  0 11  9  1 11  0  5  0  5  1 11  3  5  7  7  2 13  0
  3  4  8  0 10 14  2 11  1  5 11 16  2  5  3  0 13  9  2  0  5  5  6  9
  4  2  3 25 20 27  4]"
2800,341,1.0,8,3,21.37232732772827,5.8473801612854,1415,11200,109475,816787,"[ 0  3  1  1  3  2  2  3  0  0  3  2  2  0  2  0  1  2  3  4  0  4  5  5
  0  2  3  4  6  1  2 10  8  1  3  5  2 12  9  2 12  6  2  1  7  4  7 14
  3  4  8  0 16 13  2  8 17  1  9 18  5 20 15  0 13  9  5 15  6  5  6  9
  4 20 21 25 20 27  4]"
2900,341,1.0,8,3,21.911141395568848,5.388078689575195,1481,11600,111509,833045,"[ 0  3  1  1  1  3  2  3  0  0  0  3  2  0  2  0  1  2  1  5  4  4  7  8
  0  6  3  4  6  2  0  7  9  1  3  8  2 12  5  3 12  6  1  1  7  2 10  6
  3  4  8  1  7 16  5 17 17  0  5 18  5 20 15  0 13  9  2 15  6  5  6  9
  1 23 21 25 20 27  4]"
3000,341,1.0,8,3,22.529945135116577,6.1879754066467285,1532,12000,113855,851731,"[ 0  3  1  1  3  3  2  3  0  0  2  1  2  0  2  0  1  2  2  5  4  3  7  8
  4  7  6  1  7  2  4  6 12  1  7 11  1  9  8  4  6  1  3 10  6  5  5  8
  3  4  8  3  7  8  5 18 14  5  5 18  5 12 15  0 17  9  3 16 13  5  6  9
  5 23 14 25 20 27  4]"
3100,341,1.0,8,3,23.099326610565186,5.6937575340271,1584,12400,116288,871084,"[ 0  3  1  2  0  3  2  3  0  0  3  3  2  0  2  0  1  2  5  5  3  2  5  0
  1  7  8  1  3  1  4  7  1  2  5 11  1 11  1  3  6  6  3  4  0  5 11 17
  3  4  8  0  5  5  4 11  6  4  1 13  0 12  9  0 17  9  5 12  2  5  6  9
  1 18 10 25 20 27  4]"
3200,342,1.0,8,2,23.67431616783142,5.749838352203369,1640,12800,118775,890786,"[ 0  3  1  3  2  1  2  3  0  0  3  0  2  0  2  0  1  2  5  0  3  1  4  8
  4  7  2  5  3  1  0  0  1  5  5 11  5  9  9  3  0  6  5  2 10  5 13  1
  3  4  8  4 17  7  0  2  0  0 10 18  0 12  7  0  7  9  1 21  9  5  6  9
  2 12 16 25 20 27  4]"
3300,342,1.0,8,2,24.281285524368286,6.069626808166504,1698,13200,121251,910377,"[ 0  3  1  3  3  0  2  3  0  0  3  0  2  0  2  0  1  2  0  6  8  0  3  1
  4  7  6  5  3  1  4  1 13  1  5  0  5 13  5  3  4 13  1 12 10  3  0  6
  3  4  8  3  5  1  5  2  0  4  4 18  1  7  0  0  7  9  5 16  9  5  6  9
  2  1 16 25 20 27  4]"
3400,342,1.0,8,2,24.825793027877808,5.4450178146362305,1746,13600,123744,930123,"[ 0  3  1  3  0  0  2  3  0  0  3  0  2  0  2  0  1  2  4  8  5  4  5  1
  3  4  6  3  7  7  5 11 10  3  5  9  0 13  5  1  4  8  2 12  6  5 11  6
  3  4  8  3 13  3  5 10  6  5 16 13  2 16 23  0  7  9  1 20  6  5  6  9
  5 17 16 25 20 27  4]"
3500,342,1.0,8,2,25.374803066253662,5.490057468414307,1812,14000,126039,948363,"[ 0  3  1  3  0  0  2  3  0  0  3  0  2  0  2  0  1  2  4  4  5  1  0  0
  3  4  3  3  8  7  0 11 10  1  1  1  3 13  5  2  5  8  1  2 13  0 15 17
  3  4  8  3  7  3  1 13  6  4  1  1  2 16 23  0  7  9  1  2 23  5  6  9
  0 20  8 25 20 27  4]"
3600,342,1.0,8,2,25.945250034332275,5.704400539398193,1857,14400,128444,967526,"[ 0  3  1  0  2  3  2  3  0  0  3  0  2  0  2  0  1  2  4  3  5  5  5  1
  3  4  8  3  2  6  2  8 10  2 11  5  5  3 10  2  5 12  2  5 12  5  1  1
  3  4  8  3 10  5  1 13  0  0  2  1  0  6 21  0  7  9  0  5 16  5  6  9
  1  9 16 25 20 27  4]"
3700,342,1.0,8,2,26.544569969177246,5.99315881729126,1916,14800,130821,986351,"[ 0  3  1  0  3  3  2  3  0  0  3  0  2  0  2  0  1  2  4  3  5  5  5  1
  3  3  5  3  2  1  5  0  7  2 11  9  4  2 10  4  5  8  4  2 11  2 10  6
  3  4  8  5 11  7  3  2  0  1  2  2  3 12  4  0  7  9  0  5  4  5  6  9
  4  6  9 25 20 27  4]"
3800,342,1.0,8,2,27.155085802078247,6.105098724365234,1975,15200,133179,1004962,"[ 0  3  1  3  1  1  2  3  0  0  3  0  2  0  2  0  1  2  1  1  5  4  4  1
  5  6  5  2  8  7  3  5  6  3 13  6  3  2  9  1  5  7  0 10 11  4 15  9
  3  4  8  0 11  3  5  2  5  1 12  7  3 13 11  0  7  9  3 20  4  5  6  9
  4 16  9 25 20 27  4]"
3900,342,1.0,8,2,27.740181922912598,5.850920677185059,2032,15600,135610,1024102,"[ 0  3  1  3  3  1  2  3  0  0  3  0  2  0  2  0  1  2  1  2  4  4  2  6
  2  0  5  2  8  7  3  7  1  3 10  0  1 11  8  4 10  1  3 10 12  4 11  2
  3  4  8  0 11  3  5 18  6  1 12  7  3 22 13  0  7  9  3 16 17  5  6  9
  4 16  8 25 20 27  4]"
4000,342,1.0,8,2,28.26368999481201,5.235013961791992,2095,16000,137836,1041764,"[ 0  3  1  4  0  0  2  3  0  0  3  0  2  0  2  0  1  2  1  1  4  4  2  6
  1  8  5  4  2  7  1  3  1  2 11  0  3  3 13  4 10 12  4 13 11  1 14 18
  3  4  8  0 14 16  1 18  6  4 18 18  5  3 16  0  7  9  4  5 15  5  6  9
  0  0 17 25 20 27  4]"
4100,342,1.0,8,2,28.96324920654297,6.995527744293213,2141,16400,140234,1060755,"[ 0  3  1  0  3  1  2  3  0  0  3  0  2  0  2  0  1  2  1  1  8  3  8  1
  1  8  5  4  4  4  5  1  1  1  7  0  2 10  8  3  4 12  4  5  8  3  4  8
  3  4  8  1 14 16  1 18 16  0 15 18  4  1  3  0  7  9  1  5 15  5  6  9
  0  3 10 25 19 27  4]"
4200,342,1.0,8,2,29.57254934310913,6.092944145202637,2202,16800,142642,1079768,"[ 0  3  1  0  1  1  2  3  0  0  3  0  2  0  2  0  1  2  4  3  8  0  8  1
  0  6  4  1  4  4  5  0  3  4  3 10  4  5  9  2  4  0  3  2  7  3  4  8
  2  4 13  1 17 16  0 18  8  5 17  8  0  5 13  0  7  9  4  5 15  5  6  9
  2 16 22 25 19 27  4]"
4300,342,1.0,8,2,30.17839288711548,6.058380603790283,2254,17200,145095,1099206,"[ 0  3  1  1  1  2  2  3  0  0  3  0  2  0  2  0  1  2  5  2  8  5  0  0
  3  2  5  3  8  3  0  0  2  4  3 11  1 11  3  2  7  8  0  6  9  3  4  8
  2  4 13  1 17 16  4 18 17  3  7  5  0  1  5  0  7  9  2  9 15  5  6  9
  5  5 22 25 19 27  4]"
4400,342,1.0,8,2,30.758105754852295,5.797061920166016,2302,17600,147531,1118439,"[ 0  3  1  5  2  1  2  3  0  0  3  0  2  0  2  0  1  2  3  2  8  1  0  0
  0  0  7  4  8  7  0  7  2  2  1  8  0  7  1  1  8  8  2 13  4  3  4  8
  3  8 12  0  9  7  0  2  9  3 14 11  3 16  5  0  7  9  1 13  5  5  6  9
  2 14 22 25 19 27  4]"
4500,342,1.0,8,2,31.340601205825806,5.824916362762451,2358,18000,149884,1137002,"[ 0  3  1  5  1  3  2  3  0  0  3  0  2  0  2  0  1  2  3  3  7  1  5  7
  4  7  6  1  8  8  2 11  2  1  6 12  0  0 13  4  8  2  0  5  4  3  4  8
  1 17 12  0 10  7  4  9 14  3 16 16  2  3  5  0  7  9  5 13 23  5  6  9
  1 17 11 25 19 27  4]"
4600,342,1.0,8,2,31.937259435653687,5.966546535491943,2418,18400,152254,1155826,"[ 0  3  1  1  2  3  2  3  0  0  3  0  2  0  2  0  1  2  2  7  6  5  2  1
  5  0  4  0  5  5  3  9  4  5  6  6  0  0 11  4  8  1  1  5  0  3  4  8
  2 17  0  0 11  7  2 18  5  2  2 10  5 11  5  0  7  9  4 11  5  5  6  9
  2  6 11 25 19 27  4]"
4700,342,1.0,8,2,32.54974913597107,6.124832630157471,2480,18800,154624,1174643,"[ 0  3  1  3  2  2  2  3  0  0  3  0  2  0  2  0  1  2  2  1  3  0  8  0
  3  7  4  0  0  5  3  9  9  1  2  6  0  0 11  0  7  3  4  5  0  3  4  8
  2 12  5  0 13  7  2 18  3  5  2 15  1 11  4  0  7  9  2  3 17  5  6  9
  2 15 17 25 19 27  4]"
4800,342,1.0,8,2,33.15012788772583,6.003727912902832,2528,19200,157189,1194905,"[ 0  3  1  1  2  3  2  3  0  0  3  0  2  0  2  0  1  2  1  2  1  0  8  1
  3  0  2  0  0  8  2 10  9  3 11  8  0  4  9  0  9  5  1  5 12  3  4  8
  1  1 17  0 15 11  3 18  3  5  0  9  3  0  5  0  7  9  4  5 23  5  6  9
  2 12 17 25 19 27  4]"
4900,342,1.0,8,2,33.73798441886902,5.8785200119018555,2581,19600,159701,1214768,"[ 0  3  1  5  3  3  2  3  0  0  3  0  2  0  2  0  1  2  1  6  0  0  4  1
  2  5  1  2  7  8  2  3  1  5 10  8  3  5  8  4  2  1  3  9 12  3  4  8
  3  6  2  2 15  1  3 16  1  1  0 10  2 12  3  0  7  9  5  9 23  5  6  9
  5 12 17 25 19 27  4]"
5000,342,1.0,8,2,34.301233530044556,5.632452964782715,2638,20000,162138,1233983,"[ 0  3  1  2  1  2  2  3  0  0  3  0  2  0  2  0  1  2  4  6  1  2  6  1
  4  5  1  3  5  8  3  0  5  0  7  8  2  5  6  5  2 12  3 10 12  3  4  8
  0 15  2  5  8 15  4  4  0  2 13  6  4  5  4  0  7  9  4 11 23  5  6  9
  4  3  0 25 19 27  4]"
5100,342,1.0,8,2,34.88346195220947,5.822234153747559,2694,20400,164515,1252836,"[ 0  3  1  2  0  2  2  3  0  0  3  0  2  2  0  0  1  2  4  7  1  4  7  6
  5  5  2  0  5  0  3  0 10  0  9  1  1  5  8  4  8  5  3  9  4  3  4  5
  0  3 17  3  8 15  0  3 16  2  7 10  4  5  6  0  7  9  4 11 10  5  6  9
  4 10  9 25 19 27  4]"
5200,342,1.0,8,2,35.40249800682068,5.19028902053833,2742,20800,167015,1272685,"[ 0  3  1  2  0  2  2  3  0  0  3  0  1  3  3  0  1  2  4  8  3  4  8  3
  2  5  4  4  3  0  3  0  7  5  3  1  5  5  0  4  8  5  3  9  4  3  4  5
  3  7  5  3 12 15  5 11 16  2  7 17  0  6  9  0  7  9  2 23 14  5  6  9
  3  4  6 25 19 27  4]"
5300,342,1.0,8,2,35.98898768424988,5.864841938018799,2790,21200,169546,1292749,"[ 0  3  1  2  0  2  2  3  0  0  3  0  5  1  2  0  1  2  4  7  1  4  0  8
  2  0  4  3  3  6  3  3  7  5  3  5  5  5  8  4  8  5  3  9 13  3  4  5
  4  7 18  0  6 18  2 17 16  1 14 17  1  3  3  0  7  9  5  2 14  5  6  9
  4 15  3 25 19 27  4]"
5400,342,1.0,8,2,36.69720911979675,7.082157135009766,2838,21600,172078,1312745,"[ 0  3  1  2  0  2  2  3  0  0  3  0  1  1  3  0  1  2  5  6  1  4  3  7
  2  2  5  2  4  3  3  1  9  2  1  2  1  4  1  0  8 12  1  4  2  3  4  5
  5  6 18  4  6  4  1 11  2  1 12  1  5 10 21  0  7  9  5 12  1  5  6  9
  2 21  3 25 19 27  4]"
5500,342,1.0,8,2,37.369003772735596,6.71788215637207,2889,22000,174476,1331781,"[ 0  3  1  2  0  2  2  3  0  0  3  0  1  1  0  0  1  2  2  6  8  3  6  7
  2  8  5  5  4  6  2 13 10  2 11 12  2 12  9  5  8 12  5  6  2  3  4  5
  0 17  8  4  6  2  1  5 10  5 12  8  3  9  2  0  7  9  0 21 13  5  6  9
  4 23  3 25 19 27  4]"
5600,342,1.0,8,2,38.00884509086609,6.398367881774902,2946,22400,176892,1351016,"[ 0  3  1  2  0  2  2  3  0  0  3  0  2  1  2  0  1  2  1  6  1  2  7  7
  2  4  5  3  6  8  2  2 13  4 11  8  2 12  7  5  8  4  5  6  2  3  4  5
  5 16  3  1  6 15  0 13 18  1 12 15  1 10 13  0  7  9  3 21 23  5  6  9
  4  3 22 25 19 27  4]"
5700,342,1.0,8,2,38.51006865501404,5.012197494506836,3005,22800,179144,1369069,"[ 0  3  1  2  0  2  2  3  0  0  3  0  3  3  1  0  1  2  3  6  8  2  2  4
  2  7  4  3  0  8  3  6 13  5  1  4  4  4 13  1 12  1  3  6 12  3  4  5
  5  3 17  1  5  1  4 13 18  3  5  4  1 13 10  0  7  9  0 12 18  5  6  9
  4 14  7 25 19 27  4]"
5800,342,1.0,8,2,39.059738874435425,5.496640205383301,3051,23200,181635,1388807,"[ 0  3  1  2  0  2  2  3  0  0  3  0  3  1  1  0  1  2  3  1  6  0  5  8
  0  5  1  1  5  7  4  3  0  5  9  2  2 11  1  2  2  9  1  6  8  3  4  5
  1 10 11  2 15 17  2 13 17  3  3 17  2 20 15  0  7  9  3 20 14  5  6  9
  4 23  8 25 19 27  4]"
5900,342,1.0,8,2,39.646453857421875,5.867094993591309,3099,23600,184174,1408970,"[ 0  3  1  2  0  2  2  3  0  0  3  0  5  1  1  0  1  2  3  6  0  2  5  2
  3  2  1  5  3  7  0  3  6  1  6  1  1 11  7  2 10 13  4  5  0  3  4  5
  1 10  1  4  5 17  5 13 17  2 10 13  3 15  8  0  7  9  3 20 14  5  6  9
  4 23  8 25 19 27  4]"
6000,342,1.0,8,2,40.25520324707031,6.0874247550964355,3158,24000,186530,1427647,"[ 0  3  1  2  0  2  2  3  0  0  3  0  3  1  2  0  1  2  3  3  3  5  1  0
  0  2  4  5  0  2  2  5  3  4 12 13  1  0  7  2  1  4  1  7  2  3  4  5
  1  3 17  5  5 17  0 15 16  2 10 12  3 15  8  0  7  9  2 19 13  5  6  9
  4 23 23 25 19 27  4]"
6100,342,1.0,8,2,40.802834033966064,5.476248264312744,3209,24400,189134,1448219,"[ 0  3  1  2  0  2  2  3  0  0  3  0  5  1  2  0  1  2  4  3  5  5  7  5
  0  6  0  1  4  8  5  8  3  3 10  0  3 10  9  2  6  5  0  7  9  3  4  5
  1 15 11  0 16  3  0 14  8  1  2  7  0 15  8  0  7  9  4 15 10  5  6  9
  0  8 17 25 19 27  4]"
6200,342,1.0,8,2,41.32631754875183,5.234782695770264,3264,24800,191480,1466810,"[ 0  3  1  2  0  2  2  3  0  0  3  0  5  2  2  0  1  2  5  4  1  5  7  5
  0  0  0  1  7  5  3 13  9  2 13  6  3 11  2  5  2  3  4 11  9  3  4  5
  3 10 11  0 12 11  0 18  8  0 10  7  4 15  8  0  7  9  1 15 10  5  6  9
  2  3  0 25 19 27  4]"
6300,342,1.0,8,2,41.83909296989441,5.127708911895752,3322,25200,193883,1485842,"[ 0  3  1  2  0  2  2  3  0  0  3  0  2  0  3  0  1  2  5  7  1  5  2  5
  4  3  8  1  1  7  4 13  0  1  5  6  3  8  6  5 12  5  0  6  9  3  4  5
  3 10  7  1 12  1  0  4  9  0  4 17  4 15 19  0  7  9  1 21  0  5  6  9
  4  5  4 25 19 27  4]"
6400,342,1.0,8,2,42.38076138496399,5.4166364669799805,3381,25600,196254,1504600,"[ 0  3  1  2  0  2  2  3  0  0  3  0  2  1  3  0  1  2  2  0  7  5  2  2
  5  3  2  4  0  7  0 11  4  3  9  3  2  6 11  3  7  8  2  9  9  3  4  5
  1 10 16  2  3 18  5 17  9  0 18 10  0 11 23  0  7  9  0  4  0  5  6  9
  1  5 12 25 19 27  4]"
6500,342,1.0,8,2,42.90885257720947,5.28085470199585,3429,26000,198621,1523363,"[ 0  3  1  2  0  2  2  3  0  0  3  0  1  1  3  0  1  2  5  7  8  5  2  1
  5  6  2  3  3  5  4  8  7  3  9 12  5  4  1  0  6  8  4  1 11  3  4  5
  4 17  4  5 16 11  5 17 15  5 12  6  3 11 10  0  7  9  1 23  0  5  6  9
  2 14 12 25 19 27  4]"
6600,342,1.0,8,2,43.46422576904297,5.553684234619141,3482,26400,201080,1542774,"[ 0  3  1  2  0  2  2  3  0  0  3  0  4  1  0  0  1  2  4  7  8  2  0  8
  5  4  3  3  2  3  5  6  9  0 12  9  5 12  2  5  6  5  4 12 11  3  4  5
  4 17  0  5  9  7  0  4  1  4 18 17  4 23 23  0  7  9  0 19  1  5  6  9
  1  8 16 25 19 27  4]"
6700,342,1.0,8,2,44.07658004760742,6.123485565185547,3534,26800,203490,1561872,"[ 0  3  1  2  0  2  2  3  0  0  3  0  4  3  0  0  1  2  2  5  6  4  1  3
  2  0  3  0  8  0  5  6  1  2  9 13  1 12  5  4  7  3  3  5  7  3  4  5
  4 11  0  2 10  7  1 17 11  0 14  4  0  8 12  0  7  9  5 18 15  5  6  9
  1  0 17 25 19 27  4]"
6800,342,1.0,8,2,44.6971230506897,6.2053608894348145,3587,27200,206026,1581992,"[ 0  3  1  2  0  2  2  3  0  0  3  0  1  1  0  0  1  2  5  5  6  2  8  2
  2  3  8  1  0  5  4  5  4  5  5  1  4  7  5  3  4  3  5  2 12  3  4  5
  1 12  5  0 14  3  1 15 10  3 13  2  3  8 10  0  7  9  5  0 10  5  6  9
  3 17 18 25 19 27  4]"
6900,342,1.0,8,2,45.228843450546265,5.3171539306640625,3634,27600,208445,1601293,"[ 0  3  1  2  0  2  2  3  0  0  3  0  0  0  0  0  1  2  4  8  1  4  8  2
  0  3  8  2  7  8  4  4 11  1  7  9  4  7 10  4  1  1  3  4 12  3  4  5
  3  2  5  0 14 10  0 13  3  1 11  2  0  4 10  0  7  9  0  1  9  5  6  9
  4 19  4 25 19 27  4]"
7000,342,1.0,8,2,45.76438856124878,5.355391502380371,3684,28000,210959,1621190,"[ 0  3  1  2  0  2  2  3  0  0  3  0  0  3  2  0  1  2  0  4  4  5  6  7
  1  3  6  5  2  5  0  4  2  3  8 11  5  7  9  1 13  6  3  9 12  3  4  5
  4  2 16  5 14 10  0  3  1  1  9  3  5 23  0  0  7  9  5  1  0  5  6  9
  1  8  4 25 19 27  4]"
7100,342,1.0,8,2,46.265735149383545,5.013408660888672,3745,28400,213138,1638454,"[ 0  3  1  2  0  2  2  3  0  0  3  0  1  0  2  0  1  2  0  6  6  0  6  8
  2  5  5  4  0  1  0  4  5  5 13 11  3  2  9  4 11 13  4  8  3  3  4  5
  1  8  6  1  4 10  4  3  8  2 11  4  5  3 11  0  7  9  2  1  6  5  6  9
  1 18  7 25 19 27  4]"
7200,342,1.0,8,2,46.765854835510254,5.001120567321777,3803,28800,215287,1655557,"[ 0  3  1  2  0  2  2  3  0  0  3  0  5  2  3  0  1  2  1  0  8  4  2  8
  1  7  5  4  0  8  5 10 10  5  9  6  3  7 10  1  7 13  4 12  0  3  4  5
  4  5  8  5  7 12  3 18 13  1  7  4  0  3  3  0  7  9  2 21  6  5  6  9
  5  9  8 25 19 27  4]"
7300,342,1.0,8,2,47.23741054534912,4.7155022621154785,3861,29200,217423,1672516,"[ 0  3  1  2  0  2  2  3  0  0  3  0  4  2  3  0  1  2  5  1  8  0  8  8
  1  1  5  0  8  8  5 10 11  0 11 13  4  7 13  1 13 13  4 13  0  3  4  5
  1  5  9  1  0 10  4 10 13  0 14  4  4  3  8  0  7  9  2  4  5  5  6  9
  0 20  8 25 19 27  4]"
7400,342,1.0,8,2,47.77761387825012,5.401976108551025,3907,29600,219875,1692012,"[ 0  3  1  2  0  2  2  3  0  0  3  0  4  1  3  0  1  2  5  1  5  2  5  0
  0  4  5  4  0  8  1  8  7  2  5  0  2  2  6  0 11 11  0  7  7  3  4  5
  1 15 17  0 12  4  4  3 17  5 14  3  3 15 11  0  7  9  2 17  6  5  6  9
  2 16  3 25 19 27  4]"
7500,342,1.0,8,2,48.36392259597778,5.863044261932373,3967,30000,222243,1710719,"[ 0  3  1  2  0  2  2  3  0  0  3  0  5  2  3  0  1  2  2  8  1  3  8  5
  1  7  3  4  0  8  1  7  7  2  5  2  2  4  8  4  7  9  4  0  4  3  4  5
  4 14 17  0 12 18  3  0  5  5 15  9  5 18 11  0  7  9  5 17  9  5  6  9
  5 16  0 25 19 27  4]"
7600,342,1.0,8,2,48.861246824264526,4.973199367523193,4020,30400,224635,1729776,"[ 0  3  1  2  0  2  2  3  0  0  3  0  3  1  3  0  1  2  4  7  6  2  3  4
  5  7  1  0  4  2  5 10  7  3  7  4  2  7  8  5  2 12  1 10  3  3  4  5
  2  0  3  0 12 18  3 11 15  5 18  3  2 12 22  0  7  9  4 18 23  5  6  9
  5 14 10 25 19 27  4]"
7700,342,1.0,8,2,49.44460320472717,5.8335065841674805,4075,30800,227126,1749547,"[ 0  3  1  2  0  2  2  3  0  0  3  0  2  2  3  0  1  2  4  7  7  4  6  4
  4  2  0  0  0  8  2  2 12  3  5  4  2  7  5  5  5 11  2 13  0  3  4  5
  2  7  1  4 12 11  3 10  2  5 12 18  4  3 17  0  7  9  0 22 16  5  6  9
  0  2  7 25 19 27  4]"
7800,342,1.0,8,2,49.953373193740845,5.087652206420898,4136,31200,229471,1768148,"[ 0  3  1  2  0  2  2  3  0  0  3  0  2  1  0  0  1  2  4  4  7  4  3  6
  4  0  0  4  8  1  2 11  6  3  5  8  2  5  3  5  5  5  2  7  3  3  4  5
  3  1 12  3  1  0  1  9  2  4 15 18  4  9  2  0  7  9  5  3 18  5  6  9
  0  3 12 25 19 27  4]"
7900,342,1.0,8,2,50.46357703208923,5.101983547210693,4192,31600,231890,1787280,"[ 0  3  1  2  0  2  2  3  0  0  3  0  5  0  1  0  1  2  3  2  0  4  7  8
  5  2  1  3  5  8  4 11  5  3  5 10  0  5  3  5  5  7  1  3  4  3  4  5
  4  1 17  3  4  0  5  2  5  1 15 18  2  9 19  0  7  9  1  0  6  5  6  9
  2  3  2 25 19 27  4]"
8000,342,1.0,8,2,50.94798398017883,4.844028949737549,4244,32000,234323,1806626,"[ 0  3  1  2  0  2  2  3  0  0  3  0  1  2  1  0  1  2  1  5  6  5  7  1
  1  0  1  0  5  0  2  0  6  3  6  1  2 11  6  5  0  1  1  3 13  3  4  5
  4 16 17  4  4 18  5 12  5  0 13  9  2  8 19  0  7  9  5 21  4  5  6  9
  2  8 20 25 19 27  4]"
8100,342,1.0,8,2,51.44794201850891,4.999542236328125,4299,32400,236828,1826479,"[ 0  3  1  2  0  2  2  3  0  0  3  0  0  0  1  0  1  2  2  3  2  0  5  1
  3  3  2  4  8  0  3  0 10  3  6  7  1  8 11  3  1  1  0  6  8  3  4  5
  0 16  9  0  7 13  3 12  5  2 17  9  1  8  6  0  7  9  5 20 13  5  6  9
  1  4 16 25 19 27  4]"
8200,342,1.0,8,2,52.04016971588135,5.922105312347412,4360,32800,239206,1845280,"[ 0  3  1  2  0  2  2  3  0  0  3  0  3  0  0  0  1  2  3  6  4  3  7  7
  3  0  0  2  0  8  1 12  2  3  6  7  1  3 12  3  6  2  0  6  5  3  4  5
  1  3  9  4  3 18  4 12  5  2  4  9  0 17  6  0  7  9  3  4  1  5  6  9
  5 16 15 25 19 27  4]"
8300,342,1.0,8,2,52.60521697998047,5.6504130363464355,4413,33200,241637,1864588,"[ 0  3  1  2  0  2  2  3  0  0  3  0  0  2  3  0  1  2  1  1  2  2  6  6
  3  5  5  2  1  2  1 12  2  3  8  5  2  3  8  3  0 13  0  6  6  3  4  5
  3  6  9  4  1 18  0 12  6  2 11  5  2 19 13  0  7  9  4 19  7  5  6  9
  3  6 21 25 19 27  4]"
8400,342,1.0,8,2,53.14354109764099,5.383179187774658,4464,33600,243900,1882505,"[ 0  3  1  2  0  2  2  3  0  0  3  0  1  2  1  0  1  2  3  3  4  0  7  0
  2  8  3  4  5  2  5 11  8  2  9 13  2  2  8  5  5 13  1  9  3  1 15  5
  3 15  8  2  5 18  3  5  4  1 15  5  1 11 11  0  7  9  3 14  7  5  6  9
  3  4  4 25 22 27  4]"
8500,342,1.0,8,2,53.70016694068909,5.5661773681640625,4525,34000,246267,1901327,"[ 0  3  1  2  0  2  2  3  0  0  3  0  1  1  1  0  1  2  2  3  8  3  6  7
  1  8  3  3  5  2  5  1  9  3  2 13  3 11  2  5 12 13  2  7  3  1  9  5
  3 13  8  2 17 18  3  5  4  1 13  3  5 16 18  0  7  9  3 14 11  5  6  9
  4  4 21 25 22 27  4]"
8600,342,1.0,8,2,54.23291730880737,5.32745361328125,4575,34400,248509,1919164,"[ 0  3  1  2  0  2  2  3  0  0  3  0  1  1  3  0  1  2  5  3  8  3  2  7
  4  2  0  3  2  0  0  2  8  0  2  5  3  5  8  2  2  5  4  6  2  0 16  5
  2  8 18  5 18 10  3  5  4  3 10 16  0 18 16  0  7  9  2 12 10  5  6  9
  4  5 21 25 22 27  4]"
8700,342,1.0,8,2,54.772507429122925,5.395848751068115,4631,34800,250768,1937098,"[ 0  3  1  3  2  3  2  3  0  0  3  0  4  1  2  0  1  2  5  0  3  3  0  4
  3  1  0  2  2  0  0  7  8  5  1 11  0  5 12  2  2  6  1  6  4  0 10  8
  3  4  5  1 11 13  3 13  4  4  7  4  3  0 11  0  7  9  3  7  8  5  6  9
  4  0  4 25 22 27  4]"
8800,342,1.0,8,2,55.330260038375854,5.5774664878845215,4695,35200,253084,1955526,"[ 0  3  1  3  2  2  2  3  0  0  3  0  4  3  2  0  1  2  4  4  1  4  2  0
  3  1  4  2  2  0  2  4  7  5  0 11  3 13 12  5  6 12  2  7  2  1 16  5
  0 17 17  1  3 11  3 13  4  4 14 15  5  9 19  0  7  9  3  7  8  5  6  9
  4 18  0 25 22 27  4]"
8900,342,1.0,8,2,55.8778657913208,5.4759931564331055,4756,35600,255205,1972223,"[ 0  3  1  5  2  1  2  3  0  0  3  0  1  3  0  0  1  2  5  4  7  0  2  0
  3  4  7  2  2  0  2  4  7  5  9 11  5  7 10  0  6  4  4 10  2  4 16  6
  0 11 17  0  3 11  3 13  4  3  4 17  5 14  5  0  7  9  3 22  0  5  6  9
  3 15 20 25 22 27  4]"
9000,342,1.0,8,2,56.52014207839966,6.42270565032959,4817,36000,257518,1990466,"[ 0  3  1  5  3  3  2  3  0  0  3  0  1  3  2  0  1  2  5  0  6  0  1  6
  4  4  7  2  2  0  2  3  7  1  9  9  2  2 10  0  7  4  1  3  2  0  8  7
  0  9 15  2 10  8  3 13  4  3 11 15  4 17  5  0  7  9  3  1 18  5  6  9
  2 15 20 25 22 27  4]"
9100,342,1.0,8,2,57.18392038345337,6.637721061706543,4864,36400,259991,2010032,"[ 0  3  1  4  1  2  2  3  0  0  3  0  5  0  0  0  1  2  4  3  2  0  1  0
  3  5  3  2  2  0  3  9  9  1  7  1  5  1 11  0  5 12  3  5  3  2 10  7
  0  2 14  4  4  8  3 13  4  3 14  1  4 14 23  0  7  9  0 18  4  5  6  9
  3  5 15 25 22 27  4]"
9200,342,1.0,8,2,57.73353409767151,5.496091842651367,4926,36800,262112,2026838,"[ 0  3  1  4  3  1  2  3  0  0  3  0  3  0  0  0  1  2  5  3  2  3  0  4
  3  5  4  2  2  0  3 11  1  2 11  4  1  6  7  3  9  9  5  5  2  5 18 16
  0  5 14  2  4  9  3 13  4  2  8 14  4 23 16  0  7  9  2  9  4  5  6  9
  3  5 15 25 22 27  4]"
9300,342,1.0,8,2,58.27531147003174,5.417690277099609,4987,37200,264230,2043672,"[ 0  3  1  5  0  0  2  3  0  0  3  0  3  3  1  0  1  2  5  3  3  3  6  7
  5  1  0  2  2  0  3 11  4  2  1  5  5 11  7  3  9  4  5  4  2  4  9 13
  2  6 14  2 14  9  3 13  4  1 12 16  5 10 12  0  7  9  0 23  4  5  6  9
  3 15 16 25 22 27  4]"
9400,342,1.0,8,2,58.87047982215881,5.9516215324401855,5038,37600,266557,2062236,"[ 0  3  1  0  0  2  2  3  0  0  3  0  5  3  1  0  1  2  3  6  3  0  6  1
  5  5  0  2  2  0  3 11  4  2  6  0  4  1  3  4  9  4  5  4 10  4 18  6
  4  6 11  2 13 10  3 13  4  0  0  8  1  2  2  0  7  9  0 13  4  5  6  9
  5 15 16 25 22 27  4]"
9500,342,1.0,8,2,59.46358108520508,5.930943489074707,5098,38000,268667,2078903,"[ 0  3  1  0  2  2  2  3  0  0  3  0  5  3  1  0  1  2  3  8  0  1  1  6
  0  4  2  2  2  0  4  5  3  0  6  7  4  7  3  4  3  4  5  4 10  0  8 15
  2 14  3  2 16  0  3 13  4  1  1  8  0  7 18  0  7  9  5 13  4  5  6  9
  0 15 16 25 22 27  4]"
9600,342,1.0,8,2,60.103376626968384,6.39789342880249,5151,38400,270987,2097361,"[ 0  3  1  0  0  3  2  3  0  0  3  0  5  2  1  0  1  2  4  2  0  4  3  7
  5  4  2  2  2  0  0  5  3  0 10  5  4  7  3  4  2 12  5 13  4  4 13 15
  4  5  7  3 17  7  3 13  4  3  0 17  0 16  1  0  7  9  4 13  4  5  6  9
  4  6 13 25 22 27  4]"
9700,342,1.0,8,2,60.67414093017578,5.707595348358154,5214,38800,273281,2115522,"[ 0  3  1  0  2  1  2  3  0  0  3  0  5  3  0  0  1  2  1  4  2  4  5  1
  5  4  4  2  2  0  4  3  2  3  9  9  1 12 11  3  2 11  1 13  4  3 13  6
  2 12 18  1 17 17  3 13  4  3 11  8  3 16  1  0  7  9  0 13  6  5  6  9
  5 16  8 25 22 27  4]"
9800,342,1.0,8,2,61.28671979904175,6.125748157501221,5276,39200,275540,2133393,"[ 0  3  1  1  3  0  2  3  0  0  3  0  2  3  2  0  1  2  1  4  3  0  3  4
  4  2  4  2  2  0  1  9  4  4  3  2  3 12 10  3  4 11  5  7 12  5  4 15
  4 12 15  4  9 14  3 13  4  1  5  8  2 19 16  0  7  9  3 12 22  5  6  9
  5 12 12 25 22 27  4]"
9900,342,1.0,8,2,61.80691862106323,5.2019524574279785,5331,39600,277845,2151675,"[ 0  3  1  4  2  2  2  3  0  0  3  0  5  2  1  0  1  2  0  7  2  5  7  4
  4  2  7  2  2  0  1  9 12  2  3  1  3  7 10  0  4 11  2  7 10  1  9 14
  0 13 15  4 11 17  3 13  4  1 13  9  3  6 16  0  7  9  3 10  8  5  6  9
  5  4  6 25 22 27  4]"
10000,342,1.0,8,2,62.32421660423279,5.172932147979736,5385,40000,280019,2168903,"[ 0  3  1  5  3  2  2  3  0  0  3  0  5  2  1  0  1  2  5  3  0  1  4  2
  4  2  4  2  2  0  1  9 11  4  3 10  1  0  6  0  4  5  3  9  1  0  3  7
  2 14  3  4  7 17  3 13  4  4  6 11  2  5  6  0  7  9  3  0 12  5  6  9
  2 18 11 25 22 27  4]"
10100,342,1.0,8,2,62.928274393081665,6.040539741516113,5441,40400,282383,2187680,"[ 0  3  1  2  1  2  2  3  0  0  3  0  2  1  2  0  1  2  4  2  2  1  5  3
  3  2  1  2  2  0  1  5  8  4  3  0  1  2  1  0  8  1  3  9  5  5 17  6
  2 14  3  1 18 17  3 13  4  4  6 16  4 13  0  0  7  9  1 23 20  5  6  9
  4  1  8 25 22 27  4]"
10200,342,1.0,8,2,63.46439743041992,5.361175537109375,5497,40800,284569,2205088,"[ 0  3  1  4  2  0  2  3  0  0  3  0  0  1  3  0  1  2  4  8  2  0  5  2
  0  5  2  2  2  0  2  0  8  4  7 13  1  0  9  3  1 11  3 12  7  5 17 10
  0 10  9  4  2 13  3 13  4  4 15  4  0 13  1  0  7  9  3  4 20  5  6  9
  1  1  9 25 22 27  4]"
10300,342,1.0,8,2,64.07234358787537,6.079390048980713,5552,41200,286819,2222962,"[ 0  3  1  2  0  2  2  3  0  0  3  0  2  0  0  0  1  2  4  2  1  0  4  8
  0  7  5  2  2  0  4  5 10  0  0  1  2  5  5  3  1  5  2  3  7  0 11  3
  3 12 11  2  2  8  3 13  4  4 15  1  3 10  5  0  7  9  0  9 14  5  6  9
  2 13  3 25 22 27  4]"
10400,342,1.0,8,2,64.73678636550903,6.6443634033203125,5608,41600,289312,2242663,"[ 0  3  1  0  2  0  2  3  0  0  3  0  2  0  0  0  1  2  4  5  2  5  8  8
  2  0  5  2  2  0  5  5 10  0  0  1  5  5  0  3 12  8  1  2  7  2 11 18
  0  7 11  3  4  2  3 13  4  5 15 12  1  5 14  0  7  9  1  9 13  5  6  9
  5 18 16 25 22 27  4]"
10500,342,1.0,8,2,65.38691973686218,6.501274108886719,5665,42000,291564,2260560,"[ 0  3  1  4  2  1  2  3  0  0  3  0  0  3  0  0  1  2  4  4  2  1  4  8
  0  0  5  2  2  0  0  9 10  4  8  1  3  5 10  3 12  2  3  9  4  3 11  2
  3  7 11  0 18  2  3 13  4  1  5 15  4 17 13  0  7  9  0 23 13  5  6  9
  5 14 19 25 22 27  4]"
10600,342,1.0,8,2,65.95264339447021,5.65718412399292,5726,42400,293734,2277698,"[ 0  3  1  1  2  0  2  3  0  0  3  0  0  3  2  0  1  2  4  2  1  1  4  8
  1  3  3  2  2  0  5  9  4  0  8  1  3  6 11  2 12  2  1 13  4  5 16  2
  2  7  1  0  1  6  3 13  4  1  5 17  2 17 13  0  7  9  3 10  1  5  6  9
  4 14  2 25 22 27  4]"
10700,342,1.0,8,2,66.4861228466034,5.334742069244385,5776,42800,296135,2296729,"[ 0  3  1  1  2  3  2  3  0  0  3  0  3  3  3  0  1  2  5  4  3  5  5  6
  1  2  3  2  2  0  3  7 11  0  8 13  5  8 11  3 10  6  2  1  1  2 12  7
  3  7  2  1  8  7  3 13  4  1  2  9  4 10 22  0  7  9  4 13 16  5  6  9
  2  6 10 25 22 27  4]"
10800,342,1.0,8,2,66.99519491195679,5.090675354003906,5832,43200,298295,2313889,"[ 0  3  1  4  1  3  2  3  0  0  3  0  4  3  3  0  1  2  4  3  3  2  2  3
  2  7  2  2  2  0  3  7 10  0  6 10  1 13  6  3  1  9  3 12  9  5  3  7
  2  7  0  5  4  7  3 13  4  2 18  9  3  6 23  0  7  9  4  8 16  5  6  9
  3  6 10 25 22 27  4]"
10900,342,1.0,8,2,67.50409007072449,5.088913440704346,5892,43600,300474,2331068,"[ 0  3  1  3  3  3  2  3  0  0  3  0  1  3  3  0  1  2  4  0  8  3  2  4
  2  2  1  2  2  0  3 11 10  0  6 10  5  8  6  2 13  9  1  7  9  5  3  7
  2  0  9  3  0 15  3 13  4  1  9  1  3 16 23  0  7  9  2 22 16  5  6  9
  3 17  2 25 22 27  4]"
11000,342,1.0,8,2,68.14410066604614,6.400060653686523,5944,44000,302806,2349558,"[ 0  3  1  5  3  3  2  3  0  0  3  0  5  0  1  0  1  2  4  0  4  2  5  2
  3  2  8  2  2  0  3  3  3  0 10  9  0  6  6  3  8 10  1  7  9  4  3  7
  0 15  6  0 14 16  3 13  4  1  6 11  5  6 23  0  7  9  2 22  7  5  6  9
  3  5 17 25 22 27  4]"
11100,342,1.0,8,2,68.6429488658905,4.988424777984619,6008,44400,304952,2366595,"[ 0  3  1  3  2  1  2  3  0  0  3  0  5  1  1  0  1  2  4  2  6  0  5  5
  3  6  4  2  2  0  2  4  9  2 11 13  0  6 12  0  8  2  5  1 11  4 11  1
  0  4  8  0 17  5  3 13  4  4  6 15  5  0 14  0  7  9  5 17  7  5  6  9
  0  0 10 25 22 27  4]"
11200,342,1.0,8,2,69.2147490978241,5.71793794631958,6061,44800,307334,2385541,"[ 0  3  1  5  3  0  2  3  0  0  3  0  3  1  1  0  1  2  0  2  6  0  0  4
  5  6  3  2  2  0  2  5  9  4 11  0  4  8 12  5 11  2  3 12 11  4 14  7
  5  4 18  0 15  0  3 13  4  4  6  1  5  4  7  0  7  9  0 13 22  5  6  9
  1  0 10 25 22 27  4]"
11300,342,1.0,8,2,69.88874769210815,6.73994779586792,6121,45200,309638,2403716,"[ 0  3  1  0  3  0  2  3  0  0  3  0  2  1  1  0  1  2  5  3  8  5  0  5
  2  6  4  2  2  0  2  0  9  5 10  0  5  5  3  1 11  2  3 12  2  1  4 10
  1  4  3  3  1 18  3 13  4  0  6  1  1 17 17  0  7  9  4 11 22  5  6  9
  2 16 10 25 22 27  4]"
11400,342,1.0,8,2,70.4354567527771,5.46703577041626,6176,45600,311840,2421238,"[ 0  3  1  1  1  1  2  3  0  0  3  0  4  1  2  0  1  2  1  2  3  5  0  2
  4  1  1  2  2  0  3  2  8  5 10  4  5 10 12  3  0  2  3 12 11  4 18 10
  1  4 14  1 17  7  3 13  4  0  6  2  2 18 14  0  7  9  4  0 22  5  6  9
  0  3 21 25 22 27  4]"
11500,342,1.0,8,2,70.96489930152893,5.294349193572998,6230,46000,314087,2439036,"[ 0  3  1  3  1  3  2  3  0  0  3  0  5  3  0  0  1  2  1  4  7  4  2  5
  0  1  1  2  2  0  4  9  3  5 10  4  5 12  6  0  3  6  0 13  7  4  3 17
  4  0  5  0 16 17  3 13  4  3  2  2  1 11  1  0  7  9  4 16 20  5  6  9
  5  3 11 25 22 27  4]"
11600,342,1.0,8,2,71.53286862373352,5.679638385772705,6287,46400,316317,2456650,"[ 0  3  1  4  1  3  2  3  0  0  3  0  5  2  0  0  1  2  1  8  2  4  8  6
  2  0  2  2  2  0  4  6  3  5 10  4  3  1 12  0  7  1  3  3  7  3  5 17
  1 12  2  0 15 17  3 13  4  3 15  2  3 11 11  0  7  9  3 21 14  5  6  9
  4 20 11 25 22 27  4]"
11700,342,1.0,8,2,71.99098706245422,4.581141471862793,6353,46800,318511,2473929,"[ 0  3  1  4  3  1  2  3  0  0  3  0  1  2  0  0  1  2  1  1  8  3  2  2
  5  7  2  2  2  0  0  6  3  1 12  7  3  3 13  5 12  5  3 13 13  3  0  5
  5 12  2  5 15  3  3 13  4  3 13 11  0 18 23  0  7  9  4 19 18  5  6  9
  3 20  2 25 22 27  4]"
11800,342,1.0,8,2,72.5366461277008,5.456547737121582,6412,47200,320850,2492548,"[ 0  3  1  0  2  1  2  3  0  0  3  0  1  2  1  0  1  2  2  6  5  2  4  0
  0  7  7  2  2  0  0  3 11  1  6  7  3  7  5  0 12  8  0 13  1  2  8  5
  5  8 14  0 15 15  3 13  4  4  1 18  0  2 19  0  7  9  2  3 18  5  6  9
  3  8  2 25 22 27  4]"
11900,342,1.0,8,2,73.03884077072144,5.0219035148620605,6471,47600,322947,2509245,"[ 0  3  1  0  2  1  2  3  0  0  3  0  0  1  3  0  1  2  4  7  5  2  7  3
  5  7  8  2  2  0  0  6 11  0 13 11  3 11  1  5 12  2  0  6  1  2  8 18
  0  0  6  0 11 15  3 13  4  0  1 15  0  4 14  0  7  9  0  3 18  5  6  9
  0  8 14 25 22 27  4]"
12000,342,1.0,8,2,73.61158275604248,5.727376937866211,6529,48000,325207,2527080,"[ 0  3  1  0  3  2  2  3  0  0  3  0  2  1  1  0  1  2  4  5  2  1  7  4
  3  7  2  2  2  0  3 11  3  3  4 11  1 11 13  5 12  2  0 12 11  2 12 15
  1  2  6  0  2  8  3 13  4  0  4 18  0 14  7  0  7  9  0 12 18  5  6  9
  0 19 17 25 22 27  4]"
12100,342,1.0,8,2,74.14561986923218,5.340332984924316,6595,48400,327397,2544476,"[ 0  3  1  0  3  3  2  3  0  0  3  0  2  3  1  0  1  2  4  1  6  4  6  8
  3  3  5  2  2  0  3 11  0  3 10  1  1 11 13  5  9  2  0  7 11  3 17 10
  1 16  2  4  2 14  3 13  4  0  4 10  2  7  9  0  7  9  1  0 18  5  6  9
  0 23  5 25 22 27  4]"
12200,342,1.0,8,2,74.72006583213806,5.7444000244140625,6646,48800,329588,2561830,"[ 0  3  1  3  3  1  2  3  0  0  3  0  4  3  2  0  1  2  3  0  5  0  6  0
  4  1  2  2  2  0  2  5  2  5  2  1  3 11 13  0  9  2  5  0 11  4  2  6
  4 16  1  2 14  3  3 13  4  4  4 10  3 10 23  0  7  9  4  5  1  5  6  9
  1 23 21 25 22 27  4]"
12300,342,1.0,8,2,75.24234867095947,5.222787857055664,6700,49200,331908,2580198,"[ 0  3  1  3  0  0  2  3  0  0  3  0  4  0  0  0  1  2  2  7  0  2  6  2
  3  8  2  2  2  0  1  5  2  5 11  1  4 13 13  4  9 10  3 12 11  5  1  6
  4  1  1  1 18  3  3 13  4  0  4 10  3  8 11  0  7  9  2 22 12  5  6  9
  3 14  2 25 22 27  4]"
12400,342,1.0,8,2,75.98880863189697,7.464540004730225,6755,49600,334259,2598853,"[ 0  3  1  3  0  1  2  3  0  0  3  0  4  2  3  0  1  2  0  7  8  4  1  6
  5  0  6  2  2  0  4  5  7  5 13 11  3 11 13  0  4 12  3  3  1  4  0 11
  4  1  2  4  6  3  3 13  4  3 11  4  1  4  4  0  7  9  2 16 10  5  6  9
  4 13 13 25 22 27  4]"
12500,342,1.0,8,2,76.6064465045929,6.176323890686035,6806,50000,336616,2617450,"[ 0  3  1  3  0  1  2  3  0  0  3  0  4  1  1  0  1  2  0  3  2  0  1  0
  4  1  4  2  2  0  4  8 10  0 13  5  2  3  8  2  2  6  4 11 13  1 11 14
  3  2  9  0 15 12  3 13  4  3 13 18  1  4  4  0  7  9  2  6 23  5  6  9
  0 13  4 25 22 27  4]"
12600,342,1.0,8,2,77.17028522491455,5.638322830200195,6855,50400,338883,2635503,"[ 0  3  1  3  3  3  2  3  0  0  3  0  2  2  1  0  1  2  1  6  6  2  5  7
  1  3  6  2  2  0  1  9 10  0 12  5  5  3 13  1  8  3  1 11 11  4 14  7
  2  4 16  0 15 16  3 13  4  5  1  3  0  4 14  0  7  9  5  6  9  3 12 23
  1 14 16 25 22 26  4]"
12700,342,1.0,8,2,77.75143051147461,5.811409950256348,6904,50800,341245,2654225,"[ 0  3  1  4  2  0  2  3  0  0  3  0  5  3  1  0  1  2  0  5  2  2  0  8
  5  5  6  2  2  0  1 10  3  3  5  6  4 12  9  4  8  9  0 11 11  3  4  9
  1  4 16  5 15  4  3 13  4  5  1 16  5  4 13  0  7  9  5  6  9  3  1  6
  5  4 17 25 22 26  4]"
12800,342,1.0,8,2,78.36087250709534,6.0943603515625,6958,51200,343504,2672230,"[ 0  3  1  0  0  1  2  3  0  0  3  0  2  0  2  0  1  2  2  8  4  3  3  4
  5  5  2  2  2  0  1 13  9  5  2 13  1  5 12  4  1  4  1  2  9  2  7 10
  5  4  1  3 18 13  3 13  4  5  1 18  5 23  7  0  7  9  5  6  9  1  6 16
  2 12 17 25 22 26  4]"
12900,342,1.0,8,2,78.94709038734436,5.862100124359131,7024,51600,345704,2689663,"[ 0  3  1  5  1  0  2  3  0  0  3  0  4  2  3  0  1  2  4  6  4  3  3  0
  5  5  6  2  2  0  1 13 13  2  2  2  3  8  6  4  9  3  1 11  9  0 18 16
  1 11  1  1 18  4  3 13  4  5 14 18  3 23  3  0  7  9  5  6  9  1  6  0
  5 12 17 25 22 26  4]"
13000,342,1.0,8,2,79.57068872451782,6.235926151275635,7082,52000,347891,2707088,"[ 0  3  1  5  1  0  2  3  0  0  3  0  4  2  3  0  1  2  5  1  4  2  3  0
  5  5  8  2  2  0  1  5 13  1  7 12  5  8  9  4  2  4  1 10  5  5 15 16
  0 16  1  4  8  4  3 13  4  5 13  7  4 23  3  0  7  9  5 11  9  2 10  8
  5 12 17 25 22 26  4]"
13100,342,1.0,8,2,80.36008501052856,7.893908023834228,7142,52400,350017,2724017,"[ 0  3  1  5  1  0  2  3  0  0  3  0  4  3  1  0  1  2  1  1  4  2  6  3
  3  4  8  2  2  0  5  5  8  5  9  1  5  5  9  2  2  2  1  8  5  5 14  2
  5 16  4  1  2  4  3 13  4  5 13  6  5 22  3  0  7  9  5  6  9  2 16  8
  5  7 17 25 22 26  4]"
13200,342,1.0,8,2,81.06991362571716,7.098217010498047,7195,52800,352285,2742082,"[ 0  3  1  5  1  1  2  3  0  0  3  0  5  1  0  0  1  2  1  0  6  0  1  0
  2  5  1  2  2  0  2  5 10  5 13  8  4 12 11  3  5  2  1  7 12  5 16  2
  1  0 15  5  1 17  3 13  4  1  0  6  4 22  4  0  7  9  5  6  9  0 16 10
  3  1  8 25 22 26  4]"
13300,342,1.0,8,2,81.84856796264648,7.7864885330200195,7245,53200,354523,2759860,"[ 0  3  1  4  0  1  2  3  0  0  3  0  0  1  3  0  1  2  5  5  8  3  1  7
  1  5  6  2  2  0  5  6  2  5  4  2  4 13  3  1 13  7  3  5  6  1 14  7
  4 11  4  3  1  3  3 13  4  1  0 14  0 13 11  0  7  9  5  6  9  0 16 21
  3  1  7 25 22 26  4]"
13400,342,1.0,8,2,82.57370686531067,7.251338958740234,7304,53600,356736,2777287,"[ 0  3  1  4  0  2  2  3  0  0  3  0  0  1  3  0  1  2  2  5  2  4  1  8
  1  7  5  2  2  0  2  6  8  4  8  2  4 12  4  1 13  0  3  4  6  1  8  3
  4 12  4  0 11  8  3 13  4  4  2 13  2 22 11  0  7  9  5  6  9  0 23  6
  2  1  7 25 22 26  4]"
13500,342,1.0,8,2,83.25959420204163,6.85882568359375,7354,54000,359054,2795720,"[ 0  3  1  4  0  2  2  3  0  0  3  0  5  3  1  0  1  2  2  5  1  4  1  8
  0  5  5  2  2  0  0  4  1  4  4  5  1  5  3  1 13  0  1  5 11  1  9  3
  3 16  2  4 11  4  3 13  4  2 15 14  2  7 11  0  7  9  5  6  9  5 23 12
  4 22  7 25 22 26  4]"
13600,342,1.0,8,2,83.87618136405945,6.165816783905029,7412,54400,361329,2813663,"[ 0  3  1  0  1  2  2  3  0  0  3  0  0  2  0  0  1  2  2  8  1  3  2  6
  0  6  6  2  2  0  0  4  6  0 11  6  0  6 11  3  0  0  1  8  0  1 14  4
  1 10  2  3  6 15  3 13  4  4  5 14  2 16 11  0  7  9  5  6  9  3  1 15
  1  3 13 25 22 26  4]"
13700,342,1.0,8,2,84.52130460739136,6.451177597045898,7469,54800,363596,2831663,"[ 0  3  1  3  1  2  2  3  0  0  3  0  2  2  3  0  1  2  0  7  4  3  2  6
  2  6  6  2  2  0  2  4  2  2  6  5  1  6 12  3  0  0  1 13  4  1  2  5
  4  5 18  2 14 15  3 13  4  4 16 17  2 16 13  0  7  9  5  6  9  5  2 13
  4  3 13 25 22 26  4]"
13800,342,1.0,8,2,85.18052363395691,6.592123508453369,7523,55200,365860,2849648,"[ 0  3  1  0  1  2  2  3  0  0  3  0  2  2  2  0  1  2  1  7  6  3  2  2
  1  6  6  2  2  0  0  4  7  4  6  2  3  6  7  3  0  3  5  1  4  3 11  5
  4  9 18  4 14 15  3 13  4  5 18  1  0 22 13  0  7  9  5  6  9  5 12 13
  3 23 13 25 22 26  4]"
13900,342,1.0,8,2,85.86971664428711,6.8918681144714355,7585,55600,368209,2868257,"[ 0  3  1  3  1  2  2  3  0  0  3  0  4  2  1  0  1  2  1  7  8  4  3  5
  4  8  8  2  2  0  2  3 13  4 11  2  3  8 13  3  7  5  1 12  0  5  0 11
  3  0  7  1  5 17  3 13  4  5 15 10  4  2 20  0  7  9  5  6  9  0 13 17
  3  9 15 25 22 26  4]"
14000,342,1.0,8,2,86.53072690963745,6.6100263595581055,7639,56000,370483,2886280,"[ 0  3  1  4  3  0  2  3  0  0  3  0  3  3  2  0  1  2  1  3  5  2  6  5
  2  2  8  2  2  0  0  3  1  0  2  4  4 13 13  4 11 12  0  5  9  3 15 11
  0  5  5  5 14 17  3 13  4  5 15 15  1  9  0  0  7  9  5  6  9  4 22 13
  2 10 17 25 22 26  4]"
14100,342,1.0,8,2,87.1202027797699,5.894718170166016,7702,56400,372714,2903959,"[ 0  3  1  5  1  2  2  3  0  0  3  0  2  3  3  0  1  2  2  7  6  4  6  5
  4  2  2  2  2  0  3 13  6  4  2  1  0 13 13  1  6 12  4  1 13  1 15  3
  3 14 14  2 18  6  3 13  4  3 12 10  1  9  0  0  7  9  5  6  9  5 13 13
  2 16  5 25 22 26  4]"
14200,342,1.0,8,2,87.63754510879517,5.173380374908447,7755,56800,374982,2921928,"[ 0  3  1  5  1  3  2  3  0  0  3  0  2  3  2  0  1  2  2  3  3  3  6  8
  4  1  7  2  2  0  3  7  3  5 12  2  2 13  6  2  6  8  5  0 13  4 15  7
  4  9  4  1 18  3  3 13  4  3 12 10  1  6  5  0  7  9  5  6  9  1  0 13
  5 11  1 25 22 26  4]"
14300,342,1.0,8,2,88.22767639160156,5.901272296905518,7802,57200,377319,2940498,"[ 0  3  1  5  0  3  2  3  0  0  3  0  2  1  2  0  1  2  2  1  0  1  1  1
  4  1  7  2  2  0  1  9  2  5 13  2  1  9  6  1  0  4  5 12  7  2  5  5
  4  3  9  1 16  3  3 13  4  2  6 10  5  7  5  0  7  9  5  6  9  1 11 13
  0  4  1 25 22 26  4]"
14400,342,1.0,8,2,88.77984762191772,5.521655082702637,7850,57600,379613,2958638,"[ 0  3  1  2  0  3  2  3  0  0  3  0  3  2  3  0  1  2  5  7  7  0  8  6
  0  7  7  2  2  0  1  4  0  3  2 10  1  9 12  2 10 10  3  4  7  2 17  1
  1 17 16  3 16  7  3 13  4  0  6 13  5 21  3  0  7  9  5  6  9  4 17 10
  3  2  1 25 22 26  4]"
14500,342,1.0,8,2,89.43974757194519,6.598963737487793,7902,58000,382024,2977804,"[ 0  3  1  1  2  3  2  3  0  0  3  0  3  0  3  0  1  2  5  6  2  0  1  5
  3  1  7  2  2  0  1 10  1  3 13  7  1 13 12  0  9  4  3  4  7  2 14  4
  1 16 16  4 16  8  3 13  4  1  0 14  1 14 14  0  7  9  5  6  9  2 16 10
  1  6 11 25 22 26  4]"
14600,342,1.0,8,2,89.92374157905579,4.839897155761719,7957,58400,384384,2996577,"[ 0  3  1  1  2  3  2  3  0  0  3  0  3  1  3  0  1  2  2  8  6  5  1  5
  4  4  2  2  2  0  1 11  0  0 12  0  1 13  2  0 10  4  1  0  7  2 14 12
  0  3 12  0 16 14  3 13  4  1  3 14  1 20 19  0  7  9  5  6  9  2  2  0
  2  8 22 25 22 26  4]"
14700,342,1.0,8,2,90.40535950660706,4.816126823425293,8015,58800,386519,3013539,"[ 0  3  1  5  2  0  2  3  0  0  3  0  3  3  0  0  1  2  3  6  6  5  1  7
  0  2  5  2  2  0  3  6  8  2  1  7  5  7  6  5  4 11  2 11 11  2 14 18
  0  3  6  0 12  7  3 13  4  0  1 11  0  6 19  0  7  9  5  6  9  5 10 17
  1 19 14 25 22 26  4]"
14800,342,1.0,8,2,90.92680788040161,5.214295387268066,8069,59200,388869,3032317,"[ 0  3  1  4  3  0  2  3  0  0  3  0  1  3  0  0  1  2  5  4  8  5  7  7
  0  1  5  2  2  0  3  0 10  3  1 10  5  8  6  4  4  8  0 11  1  3 14 18
  2  0  7  1 12 12  3 13  4  2 11 13  2  0 19  0  7  9  5  6  9  2 10 23
  0 19 11 25 22 26  4]"
14900,342,1.0,8,2,91.45955300331116,5.327396392822266,8127,59600,391017,3049403,"[ 0  3  1  4  2  0  2  3  0  0  3  0  3  2  2  0  1  2  0  2  5  4  0  8
  1  7  5  2  2  0  3  0  7  5  7  1  5  2  8  3  8 11  3 11  1  3 18 16
  4  3  9  1 12 18  3 13  4  1  9 16  2 21 19  0  7  9  5  6  9  1 10 13
  4  8  0 25 22 26  4]"
15000,342,1.0,8,2,92.03475022315979,5.751914978027344,8191,60000,393419,3068336,"[ 0  3  1  0  1  2  2  3  0  0  3  0  3  0  3  0  1  2  5  2  3  4  0  1
  0  7  0  2  2  0  3  7  6  1  7  7  1  2  8  4  3 11  2 13  6  3  6 16
  2  2  9  2 12 16  3 13  4  1  9  0  2  8  7  0  7  9  5  6  9  1 10 15
  5  4  0 25 22 26  4]"
15100,342,1.0,8,2,92.6283917427063,5.9363555908203125,8243,60400,395645,3085967,"[ 0  3  1  2  1  0  2  3  0  3  3  3  0  0  3  0  1  2  0  1  5  4  0  3
  4  4  6  2  2  0  5  7  3  0  7  7  0  7  3  4 10 11  0 13 11  5 11 16
  5 10  9  2  3  5  3 13  4  2  0 11  1 20 17  0  8  9  5  6  9  5  3 22
  4  4  5 25 22 26  4]"
15200,342,1.0,8,2,93.22988677024841,6.014878749847412,8294,60800,398031,3104951,"[ 0  3  1  2  3  0  2  3  0  3  0  0  0  0  3  0  1  2  2  1  8  3  7  3
  1  2  0  2  2  0  4  7  7  1  6  3  0  7  4  1  6  1  4  6  6  5  9 13
  4  0  0  5  6 11  3 13  4  2 16  1  1 20 17  0  8  9  5  6  9  3 10 16
  2  0  5 25 22 26  4]"
15300,342,1.0,8,2,93.75668549537659,5.267927646636963,8351,61200,400280,3122828,"[ 0  3  1  2  2  0  2  3  0  3  1  3  0  0  3  0  1  2  2  5  8  0  5  6
  0  1  4  2  2  0  0  8  6  4  4  6  2  6  4  1  6  2  4  6 13  3  9 13
  1 17 16  1 18 14  3 13  4  3 16  6  2 13  1  0  8  9  5  6  9  0 10 16
  0 17  5 25 22 26  4]"
15400,342,1.0,8,2,94.29948878288269,5.427994728088379,8403,61600,402520,3140675,"[ 0  3  1  0  2  3  2  3  0  1  0  2  0  0  3  0  1  2  5  1  0  2  7  2
  4  1  4  2  2  0  1 12 13  4  9  5  1  6  4  0  4  1  0  0 13  1  8 13
  3 12 16  1  3  6  3 13  4  1 16  5  1  6  1  0  8  9  5  6  9  0 20 17
  0  2 10 25 22 26  4]"
15500,342,1.0,8,2,94.8908166885376,5.913224220275879,8452,62000,404825,3158994,"[ 0  3  1  5  2  1  2  3  0  2  3  1  0  0  3  0  1  2  2  3  8  1  2  5
  0  1  6  2  2  0  5  2  8  1  6  2  4  1 10  0 10  3  1 11 10  5 11 10
  1  0  6  1  3 12  3 13  4  1 10  6  3 16  1  0  8  9  5  6  9  0 17 20
  5  2 21 25 22 26  4]"
15600,342,1.0,8,2,95.43095326423645,5.401279926300049,8500,62400,407138,3177311,"[ 0  3  1  5  2  0  2  3  0  5  0  2  0  0  3  0  1  2  3  5  8  4  0  2
  4  1  8  2  2  0  2 11  9  5  6 12  4 12  8  4  7  5  1 10 12  5 12  3
  5  4  6  4 17 12  3 13  4  5 18 18  3 17  1  0  8  9  5  6  9  3  2 17
  5  2 18 25 22 26  4]"
15700,342,1.0,8,2,95.95978307723999,5.288262367248535,8555,62800,409555,3196536,"[ 0  3  1  1  0  3  2  3  0  3  0  3  0  0  3  0  1  2  4  6  8  0  0  3
  4  1  8  2  2  0  4 11  5  2  3 12  0  4 13  0  7  4  1  7  6  2 12  8
  1 17  3  2 17 14  3 13  4  4 11 18  2 13 10  0  8  9  5  6  9  1 20  4
  4  2  2 25 22 26  4]"
15800,342,1.0,8,2,96.49896836280823,5.391814708709717,8612,63200,411944,3215540,"[ 0  3  1  3  0  3  2  3  0  4  1  3  0  0  3  0  1  2  0  8  8  3  6  2
  1  4  4  2  2  0  4 11  5  0  3 12  2  4 13  0  4  4  1 13  2  0  6  9
  1 17 11  0  2  7  3 13  4  4 17 10  2  8  2  0  8  9  5  6  9  0 14  4
  3  8  2 25 22 26  4]"
15900,342,1.0,8,2,96.96003603935242,4.610626697540283,8670,63600,414088,3232575,"[ 0  3  1  0  0  2  2  3  0  5  1  0  0  0  3  0  1  2  5  8  6  3  5  2
  5  8  4  2  2  0  4 11 13  0  9 12  4 10 13  4  2  4  1 13  3  5  7  5
  3  3 11  0 18  7  3 13  4  4 14 10  4 11  4  0  8  9  5  6  9  0 14 10
  3  8 15 25 22 26  4]"
16000,342,1.0,8,2,97.47992753982544,5.198872089385986,8728,64000,416299,3250108,"[ 0  3  1  1  0  2  2  3  0  0  0  3  0  0  3  0  1  2  5  5  1  1  7  5
  2  5  4  2  2  0  0  9  4  4 10  5  4  0  3  2  1  9  3  5  5  5  7  6
  3  3 10  2 11 12  3 13  4  4  6 12  0 12  4  0  8  9  5  6  9  0 14  3
  2 13 21 25 22 26  4]"
16100,342,1.0,8,2,97.97747921943665,4.975471496582031,8782,64400,418683,3269077,"[ 0  3  1  4  0  2  2  3  0  2  1  0  0  0  3  0  1  2  5  0  1  3  7  7
  4  8  8  2  2  0  2 10  6  3  7  7  2 13  2  2  6  9  0  5  5  5 16 17
  4  2  5  2 11  4  3 13  4  0  3  6  2 12 15  0  8  9  5  6  9  0 14  3
  3  4  0 25 22 26  4]"
16200,342,1.0,8,2,98.48329043388367,5.058071613311768,8840,64800,420832,3286194,"[ 0  3  1  4  2  3  2  3  0  5  1  0  0  0  3  0  1  2  3  0  1  4  7  3
  5  8  8  2  2  0  0  1  7  1  4  0  4  9  2  2  2  4  3  5  5  4 13 14
  4  1  2  2 11  6  3 13  4  0  2  6  5  1 12  0  8  9  5  6  9  0  6  3
  2 17  0 25 22 26  4]"
16300,342,1.0,8,2,99.02855682373047,5.452628135681152,8907,65200,423029,3303575,"[ 0  3  1  2  2  3  2  3  0  5  1  1  0  0  3  0  1  2  1  0  7  1  4  3
  5  3  8  2  2  0  5  8 10  1  4  9  4  4 12  5 13  3  1  5  5  2 14  9
  4  1 14  4 18  6  3 13  4  0 10  7  5  1 20  0  8  9  5  6  9  1 18  0
  2 17 18 25 22 26  4]"
16400,342,1.0,8,2,99.56426858901978,5.357072353363037,8961,65600,425265,3321360,"[ 0  3  1  5  2  2  2  3  0  5  1  3  0  0  3  0  1  2  1  8  0  1  8  2
  5  5  2  2  2  0  5 13 12  1  4  9  3  4  2  5 11 10  5  0  1  2 14  9
  2  6 16  5  4  6  3 13  4  3  2  3  5  7 20  0  8  9  5  6  9  2 18  0
  2  6 12 25 22 26  4]"
16500,342,1.0,8,2,100.0976312160492,5.333569049835205,9015,66000,427569,3339578,"[ 0  3  1  0  2  0  2  3  0  5  3  2  0  0  3  0  1  2  1  3  4  1  1  6
  2  5  6  2  2  0  5 10  1  0 13  3  2  2  4  5 13 13  3  9 10  2 14  9
  5  6 15  4  6 14  3 13  4  3  9  3  5  6  3  0  8  9  5  6  9  3  8 16
  4  5 12 25 22 26  4]"
16600,342,1.0,8,2,100.58861184120178,4.909765720367432,9075,66400,429734,3356708,"[ 0  3  1  1  1  2  2  3  0  5  3  1  0  0  3  0  1  2  4  3  0  5  6  6
  3  4  2  2  2  0  1 10  9  0 13  3  2  2  7  5 12 13  3  9 10  3 13 10
  1 16  5  1 16  7  3 13  4  3 11  5  5  6  3  0  8  9  5  6  9  0  8 12
  1  5 20 25 22 26  4]"
16700,342,1.0,8,2,101.02699995040894,4.383833408355713,9130,66800,431978,3374448,"[ 0  3  1  5  1  1  2  3  0  5  3  2  0  0  3  0  1  2  4  0  2  4  1  6
  3  4  6  2  2  0  4  2 10  4  1  6  5  2  3  2  3  8  3 10  8  3  9 11
  0 16  5  2  7  7  3 13  4  3 18  7  5  6  6  0  8  9  5  6  9  0 21 21
  1  7 23 25 22 26  4]"
16800,342,1.0,8,2,101.49076008796692,4.637560844421387,9191,67200,434440,3393792,"[ 0  3  1  4  0  1  2  3  0  2  3  2  0  0  3  0  1  2  0  0  2  5  3  8
  3  0  8  2  2  0  4 13  2  2  1 11  5  2  8  3 10  8  3 11  7  3  5 11
  1 16 13  2  7  3  3 13  4  3 18 14  2 21  6  0  8  9  5  6  9  2 21 13
  1 13 23 25 22 26  4]"
16900,342,1.0,8,2,101.96775031089783,4.769852161407471,9237,67600,436900,3413257,"[ 0  3  1  3  3  2  2  3  0  1  2  3  0  0  3  0  1  2  0  2  4  1  8  4
  4  7  6  2  2  0  4 11  6  2  1  0  5  8  2  2 13  8  3 13 11  2 14 13
  1  0 13  1 15  6  3 13  4  0 18 14  3  3  2  0  8  9  5  6  9  2  7  4
  1 19 19 25 22 26  4]"
17000,342,1.0,8,2,102.45604467391968,4.882907867431641,9288,68000,439147,3431050,"[ 0  3  1  5  3  0  2  3  0  2  2  2  0  0  3  0  1  2  0  7  4  3  1  8
  5  7  1  2  2  0  4 11  0  3  2 10  1 13  9  2  9  1  3 13 11  5 14  8
  1  3 15  5  5 13  3 13  4  1 13 17  2 12  3  0  8  9  5  6  9  2 15 16
  2 18 17 25 22 26  4]"
17100,342,1.0,8,2,102.94440841674805,4.883596897125244,9337,68400,441404,3449011,"[ 0  3  1  3  3  2  2  3  0  5  2  0  0  0  3  0  1  2  0  8  7  4  5  3
  0  5  1  2  2  0  4 10  6  4  9 11  4  7 10  3  7  6  5  5  4  3 17 11
  1  9 16  3  8  4  3 13  4  4 13 13  2  6 12  0  8  9  5  6  9  3  9  3
  1  6  8 25 22 26  4]"
17200,342,1.0,8,2,103.4469165802002,5.025038719177246,9391,68800,443807,3468071,"[ 0  3  1  3  3  2  2  3  0  5  2  0  0  0  3  0  1  2  4  7  2  4  6  0
  4  5  1  2  2  0  5 10  6  2  0  3  4 10 12  5  7  5  5  5  4  1 12 11
  1 12  8  3 13  0  3 13  4  4  5  9  2  6 15  0  8  9  5  6  9  3  7  3
  4 18  3 25 22 26  4]"
17300,342,1.0,8,2,103.94240498542786,4.954836368560791,9447,69200,446103,3486297,"[ 0  3  1  3  0  2  2  3  0  4  3  0  0  0  3  0  1  2  0  0  4  4  0  8
  2  5  1  2  2  0  5 12  1  5  5  9  3 10  1  5  7 12  5  9  9  1  3  1
  1 17 17  5 13  7  3 13  4  1  5 10  2  6 22  0  8  9  5  6  9  3 20  6
  4 14 21 25 22 26  4]"
17400,342,1.0,8,2,104.50941300392151,5.670042037963867,9507,69600,448343,3504046,"[ 0  3  1  1  0  3  2  3  0  5  1  0  0  0  3  0  1  2  1  5  4  1  4  2
  0  4  3  2  2  0  5 11  5  5  7  1  0  5  1  2  5  2  2  6 11  5 10 12
  2  4 17  2 13  3  3 13  4  5  9 15  1 19 22  0  8  9  5  6  9  4  1 11
  1 15  9 25 22 26  4]"
17500,342,1.0,8,2,105.03358888626099,5.241718292236328,9568,70000,450521,3521299,"[ 0  3  1  1  2  2  2  3  0  4  1  3  0  0  3  0  1  2  1  7  3  1  3  5
  3  6  3  2  2  0  1 11  5  5  3 11  5  5  0  3  5  1  3  7 11  3  9  6
  2  4 14  2 13  7  3 13  4  1 13 15  4 15  0  0  8  9  5  6  9  4  1 21
  3  9 14 25 22 26  4]"
17600,342,1.0,8,2,105.70212817192078,6.685326099395752,9618,70400,452838,3539759,"[ 0  3  1  1  3  3  2  3  0  0  1  1  0  0  3  0  1  2  2  6  5  3  7  8
  3  8  2  2  2  0  1 12  3  5  8 12  5  5  0  2  1  4  3  7  4  3  9  3
  1  0 14  3 12  4  3 13  4  1 13 15  0  7 11  0  8  9  5  6  9  1 22 20
  3  9 14 25 22 26  4]"
17700,342,1.0,8,2,106.34903860092163,6.469061374664307,9671,70800,455213,3558490,"[ 0  3  1  4  3  3  2  3  0  2  2  0  0  0  3  0  1  2  1  4  8  3  8  7
  3  3  2  2  2  0  1  5  1  4 12  1  4 10  0  2  8  4  3  3  4  3  9  8
  0 15 14  2 12  6  3 13  4  1 13 16  1  0 14  0  8  9  5  6  9  1  3 23
  2  9 15 25 22 26  4]"
17800,342,1.0,8,2,106.82400965690613,4.749653339385986,9727,71200,457455,3576246,"[ 0  3  1  0  2  3  2  3  0  5  3  2  0  0  3  0  1  2  1  4  8  0  8  4
  3  3  2  2  2  0  4  0 13  2  4  9  0  6 11  1 12  1  1  3  4  3 14  7
  0 18 14  5 18  6  3 13  4  1 13 18  1  2 20  0  8  9  5  6  9  3 16 13
  0  9 23 25 22 26  4]"
17900,342,1.0,8,2,107.32315993309021,4.991462230682373,9780,71600,459837,3595188,"[ 0  3  1  5  3  2  2  3  0  4  2  2  0  0  3  0  1  2  1  3  7  5  7  8
  3  1  2  2  2  0  5  1  8  2  4 12  3  4 12  1  6  1  2  8  4  4 14 17
  2  5  2  4 18  9  3 13  4  5 13 18  1  2 20  0  8  9  5  6  9  0 14 23
  3 20 23 25 22 26  4]"
18000,342,1.0,8,2,107.83571171760559,5.125463008880615,9836,72000,462020,3612587,"[ 0  3  1  3  2  3  2  3  0  4  0  0  0  0  3  0  1  2  0  6  1  5  4  2
  5  2  5  2  2  0  0  0  2  2  8 12  2  0  9  3  6  5  2  9  9  4 10  7
  1  5  2  4 18  9  3 13  4  1 13 10  2  3 15  0  8  9  5  6  9  3 14 12
  5 17 22 25 22 26  4]"
18100,342,1.0,8,2,108.34801864624023,5.123004913330078,9893,72400,464333,3630966,"[ 0  3  1  5  0  2  2  3  0  5  0  2  0  0  3  0  1  2  5  8  1  5  0  5
  5  1  5  2  2  0  3  9  2  0  8  0  5  9  4  1 13  7  5  3  1  4 18 10
  4 18  6  4  7 16  3 13  4  0  7 13  2  4 15  0  8  9  5  6  9  0 22 17
  2 20 10 25 22 26  4]"
18200,342,1.0,8,2,108.87152528762817,5.235028266906738,9947,72800,466842,3650841,"[ 0  3  1  4  0  1  2  3  0  5  0  0  0  0  3  0  1  2  2  0  3  2  4  2
  2  1  3  2  2  0  3  9  2  3  2  3  0  5  4  2 13 11  5  4 12  4 10 13
  1  3 15  1  2 13  3 13  4  4  2  9  1 14  0  0  8  9  5  6  9  5  5 19
  4 11 21 25 22 26  4]"
18300,342,1.0,8,2,109.35248279571533,4.809529781341553,10004,73200,469146,3669118,"[ 0  3  1  5  3  1  2  3  0  3  3  0  0  0  3  0  1  2  5  1  6  5  4  6
  1  1  3  2  2  0  3  2  2  5 13  3  4  5  9  2  2  6  4 10 10  4  5  8
  2  6  7  3  3 17  3 13  4  4  2  2  5 14 11  0  8  9  5  6  9  1 10 19
  4 11  6 25 22 26  4]"
18400,342,1.0,8,2,109.84841871261597,4.959313869476318,10055,73600,471604,3688605,"[ 0  3  1  4  2  3  2  3  0  3  0  3  0  0  3  0  1  2  0  0  7  5  0  2
  1  4  2  2  2  0  3  5  2  5  3 12  5  9  3  1 13  2  0  0 10  3  5 11
  1 18  7  2 15  2  3 13  4  1 15  3  2 14  3  0  8  9  5  6  9  4 10  6
  2 11  6 25 22 26  4]"
18500,342,1.0,8,2,110.29323840141296,4.44814920425415,10105,74000,473841,3706311,"[ 0  3  1  5  0  0  2  3  0  3  0  1  0  0  3  0  1  2  5  4  6  5  0  6
  3  3  2  2  2  0  4  7 11  5 10 11  2  9  2  1  0  5  0  1  4  5 12  9
  4 11 10  1 13 11  3 13  4  1 12  3  0 21  3  0  8  9  5  6  9  3  3 12
  2  5 16 25 22 26  4]"
18600,342,1.0,8,2,110.8717429637909,5.78500509262085,10144,74400,476465,3727178,"[ 0  3  1  2  3  1  2  3  0  2  1  2  0  0  3  0  1  2  1  3  8  4  7  4
  1  1  6  2  2  0  2  5 10  2  7  8  3 13 11  1  5  7  4  6 13  3 14  6
  1  0  5  1 13  1  3 13  4  0 10  3  1  4  1  0  8  9  5  6  9  1  3 11
  4 14  9 25 22 26  4]"
18700,342,1.0,8,2,111.38977789878845,5.1802897453308105,10202,74800,478667,3744481,"[ 0  3  1  3  3  0  2  3  0  1  3  2  0  0  3  0  1  2  1  7  1  2  6  4
  5  8  6  2  2  0  2  0 12  2  7  8  3  0  7  2  8 12  3  3 12  3 10 13
  2  6  7  3 16  8  3 13  4  1 14 10  0  4  5  0  8  9  5  6  9  1 11  7
  4 10 15 25 22 26  4]"
18800,342,1.0,8,2,111.89993953704834,5.101556777954102,10257,75200,480858,3761820,"[ 0  3  1  5  3  0  2  3  0  3  1  2  0  0  3  0  1  2  2  7  0  2  4  4
  5  5  4  2  2  0  4  5 12  2 11  8  3  0  7  2  8  7  3 13 12  3  6  6
  3  5 17  0 18  8  3 13  4  3 14 10  0 13  1  0  8  9  5  6  9  2 22 13
  4 10  1 25 22 26  4]"
18900,342,1.0,8,2,112.37474226951599,4.747984409332275,10308,75600,483133,3779863,"[ 0  3  1  3  2  1  2  3  0  2  3  3  0  0  3  0  1  2  5  0  2  1  4  4
  1  8  6  2  2  0  1  5  1  5 12  9  2 12  1  2  3  7  4  1 10  3 17 11
  3  5 17  3  6  7  3 13  4  0  0  1  1 20 23  0  8  9  5  6  9  2  5 12
  0 22 18 25 22 26  4]"
19000,342,1.0,8,2,112.89301180839539,5.182647705078125,10359,76000,485427,3798006,"[ 0  3  1  3  3  1  2  3  0  0  0  0  0  0  3  0  1  2  3  2  7  1  5  0
  1  3  4  2  2  0  1 13  8  3  9  8  4  2  3  2  6  0  0 12 13  1 17  9
  4 11  2  3  2 17  3 13  4  2 12 18  5  9 19  0  8  9  5  6  9  4 22 20
  2 11 17 25 22 26  4]"
19100,342,1.0,8,2,113.31602096557617,4.230051040649414,10421,76400,487602,3815232,"[ 0  3  1  2  2  3  2  3  0  0  2  0  0  0  3  0  1  2  1  8  5  1  2  6
  3  3  5  2  2  0  3  7  8  4  9  8  2  6  7  5  6  0  3 11  2  3 17  9
  4 18  2  3  7 17  3 13  4  4  3  8  5  9  1  0  8  9  5  6  9  4  4 15
  2 21 14 25 22 26  4]"
19200,342,1.0,8,2,113.78041744232178,4.643912315368652,10474,76800,490033,3834454,"[ 0  3  1  5  2  0  2  3  0  5  2  2  0  0  3  0  1  2  1  8  5  5  0  5
  3  6  5  2  2  0  1  0  9  0 11  1  3  6  7  2  1  9  4 12  0  1 11  7
  4 18  6  0  6 17  3 13  4  4  8  8  5 16 20  0  8  9  5  6  9  2  2 10
  2 22 14 25 22 26  4]"
19300,342,1.0,8,2,114.24579334259033,4.653711318969727,10536,77200,492337,3852749,"[ 0  3  1  0  0  3  2  3  0  2  2  2  0  0  3  0  1  2  1  3  2  5  0  5
  3  6  8  2  2  0  1  0  2  3 11 11  0  7  5  2  4  9  1 12 12  0  9  7
  3 16  6  4  6 17  3 13  4  3  8  5  5 22 20  0  8  9  5  6  9  4 13 22
  2 22 17 25 22 26  4]"
19400,342,1.0,8,2,114.75495886802673,5.091588497161865,10591,77600,494915,3873099,"[ 0  3  1  1  2  3  2  3  0  2  0  2  0  0  3  0  1  2  0  8  0  3  7  5
  5  6  4  0  5  7  3  9  6  5 11  6  1  7  7  0  4  5  4  6  2  2  9  3
  5 13 14  5 13  2  3  7  4  5  6  5  4  7 16  0  8  9  5  6  9  4 13 12
  1  9 17 25 22 26  4]"
19500,342,1.0,8,2,115.26154112815857,5.065762996673584,10637,78000,497505,3893669,"[ 0  3  1  2  1  2  2  3  0  2  0  2  0  0  3  0  1  2  3  2  3  3  0  7
  2  2  8  0  3  1  5  5 11  0 12 13  2 11  3  0  3  8  4  2  7  5 17 18
  5  9  4  3  9  4  3  7  4  0  6 16  0 13 11  0  8  9  5  6  9  4 13  2
  1  3 23 25 22 26  4]"
19600,342,1.0,8,2,115.79113960266113,5.2959370613098145,10693,78400,499936,3912822,"[ 0  3  1  3  3  0  2  3  0  2  0  2  0  0  3  0  1  2  1  2  3  1  3  7
  2  2  8  0  2  8  5  5 11  1 12 13  5 11  3  0 11  8  4 10  7  5 17 17
  1  9 17  4 14 18  3  7  4  0 17 18  0 13  5  0  8  9  5  6  9  4  2 21
  3  0  8 25 22 26  4]"
19700,342,1.0,8,2,116.28484106063843,4.93696928024292,10749,78800,502168,3930588,"[ 0  3  1  3  3  0  2  3  0  2  0  2  0  0  3  0  1  2  1  2  3  5  0  4
  2  2  4  5  8  3  0  0 11  4  6  0  5  8  8  0 11  8  2 13  7  5  4  9
  1  4 10  2  1 18  3  7  4  3  7 18  3 13 16  0  8  9  5  6  9  5 21 19
  3 20  8 25 22 26  4]"
19800,342,1.0,8,2,116.81636619567871,5.315208435058594,10802,79200,504522,3949302,"[ 0  3  1  3  3  0  2  3  0  2  0  2  0  0  3  0  1  2  2  3  3  5  0  8
  2  1  8  1  8  4  5  0 11  1  6  7  5 11  6  1  4 10  5  3  0  5 10  9
  0  6 13  4  9  1  3  7  4  0 15 18  1 19 15  0  8  9  5  6  9  5 16 16
  0  1 18 25 22 26  4]"
19900,342,1.0,8,2,117.2918119430542,4.7544074058532715,10856,79600,506957,3968656,"[ 0  3  1  1  0  3  2  3  0  2  0  2  0  0  3  0  1  2  0  4  3  0  8  7
  3  3  5  0  2  6  0  0  9  2  6  7  1  9  9  5  5  9  2  2  0  5 14  9
  5 18  0  2 14  3  3  7  4  0 17 15  5 19 21  0  8  9  5  6  9  5 23  3
  2  1 16 25 22 26  4]"
20000,342,1.0,8,2,117.78817319869995,4.96356725692749,10912,80000,509263,3986888,"[ 0  3  1  1  0  3  2  3  0  2  0  2  0  0  3  0  1  2  3  7  8  0  4  7
  3  6  1  3  7  6  0 11 10  2  8  8  1  9  9  3  0  2  5  2  7  0  1  0
  0 18  0  0  6 14  3  7  4  4  1 11  5 23 10  0  8  9  5  6  9  3 23  8
  2 13 18 25 22 26  4]"
20100,342,1.0,8,2,118.29473972320557,5.06561279296875,10962,80400,511878,4007657,"[ 0  3  1  1  2  1  2  3  0  2  0  2  0  0  3  0  1  2  1  6  7  0  4  0
  3  5  2  3  3  6  1  0  8  0  6 12  0  3  9  0  4 10  4  0 13  2  1 10
  2  3  0  0  4  5  3  7  4  3 10  6  2  4  7  0  8  9  5  6  9  5 14  5
  5  0 10 25 22 26  4]"
20200,342,1.0,8,2,118.78123617172241,4.864919185638428,11009,80800,514418,4027798,"[ 0  3  1  4  2  2  2  3  0  2  0  2  0  0  3  0  1  2  5  1  1  0  4  1
  2  3  2  1  4  5  4  5  0  2 12  8  5  7  5  3  2  0  0  9 12  1 11 10
  2  3 17  3  9  2  3  7  4  1 10 12  3 12 21  0  8  9  5  6  9  5  0  5
  3  3  4 25 22 26  4]"
20300,342,1.0,8,2,119.26532506942749,4.840826988220215,11057,81200,516955,4047863,"[ 0  3  1  5  2  3  2  3  0  2  0  2  0  0  3  0  1  2  5  7  2  2  2  0
  2  3  3  5  8  1  4  8  6  2 12  1  0  8  4  2  2 13  0  3  6  1  9 10
  2  3 18  4  1  2  3  7  4  1  7  2  3  8  4  0  8  9  5  6  9  2  0 12
  0 18 21 25 22 26  4]"
20400,342,1.0,8,2,119.6843593120575,4.190301895141602,11119,81600,519058,4064538,"[ 0  3  1  5  2  3  2  3  0  2  0  2  0  0  3  0  1  2  0  0  8  2  6  5
  3  3  3  0  8  7  4 11  2  3 12  1  1  5  4  2  6 11  0  1 13  2 11  3
  1  3  4  2 15 12  3  7  4  1  7  0  4 10  0  0  8  9  5  6  9  2  6 12
  5  6  9 25 22 26  4]"
20500,342,1.0,8,2,120.19323134422302,5.088658332824707,11176,82000,521490,4083873,"[ 0  3  1  3  2  2  2  3  0  2  0  2  0  0  3  0  1  2  1  0  7  3  2  6
  3  0  4  1  8  6  4 11  5  4 11 10  2  5  4  5  6 11  1  9 12  4 11  7
  4  1 15  0  5 16  3  7  4  1  8  9  4 10 17  0  8  9  5  6  9  3  7 12
  5  3  5 25 22 26  4]"
20600,342,1.0,8,2,120.82479667663574,6.315603256225586,11228,82400,523781,4102106,"[ 0  3  1  2  2  0  2  3  0  2  0  2  0  0  3  0  1  2  1  3  1  1  6  7
  0  0  6  2  1  3  1 10 10  4  2 13  0 10 12  5 11  1  5  9  3  3 14 13
  3 13 11  2 15  4  3  7  4  1  5  0  4 12  5  0  8  9  5  6  9  0  7 12
  5  3  4 25 22 26  4]"
20700,342,1.0,8,2,121.29430079460144,4.694981575012207,11286,82800,526124,4120683,"[ 0  3  1  4  1  2  2  3  0  2  0  2  0  0  3  0  1  2  0  3  5  1  7  7
  1  0  6  2  8  4  5 10  4  4  2  1  0 10 12  4 11 13  5 13  3  1 15  0
  3 11  4  5 11  7  3  7  4  3  7 13  1  6  2  0  8  9  5  6  9  1  6 15
  5  7 17 25 22 26  4]"
20800,342,1.0,8,2,121.76894521713257,4.746394157409668,11340,83200,528675,4140853,"[ 0  3  1  4  3  0  2  3  0  2  0  2  0  0  3  0  1  2  2  1  8  0  3  5
  2  2  4  1  0  2  5  8  2  4  4  1  3  9  9  0  4 12  3  3  7  1  2 13
  0 11 10  2  3  6  3  7  4  0  5  3  5  1 18  0  8  9  5  6  9  1  2  9
  3  8 12 25 22 26  4]"
20900,342,1.0,8,2,122.31917095184326,5.502204895019531,11391,83600,531118,4160181,"[ 0  3  1  4  2  2  2  3  0  2  0  2  0  0  3  0  1  2  0  7  8  0  4  6
  5  4  6  4  0  1  4  8  0  3  4  5  4 13  5  2  4  2  5  9  7  3  5 18
  4  5  2  5  3  9  3  7  4  5  5 17  5 18  5  0  8  9  5  6  9  2  3 12
  4 19 22 25 22 26  4]"
21000,342,1.0,8,2,122.9612467288971,6.420714855194092,11444,84000,533535,4179317,"[ 0  3  1  3  3  2  2  3  0  2  0  2  0  0  3  0  1  2  0  7  1  0  3  7
  3  4  5  0  1  3  2  1  0  3  3  0  4 13  5  5  4  0  3  3  0  2  5 12
  3  7  2  4  3  1  3  7  4  3 12 17  0  6 17  0  8  9  5  6  9  5  3  1
  0 22 22 25 22 26  4]"
21100,342,1.0,8,2,123.60311079025269,6.418583393096924,11497,84400,536040,4199132,"[ 0  3  1  1  1  2  2  3  0  2  0  2  0  0  3  0  1  2  0  5  1  3  4  7
  1  4  5  5  2  4  2  4  0  0  4  0  3 12  3  5  5  0  5  3  2  2  5  3
  0  4  6  4 18 13  3  7  4  2  9  0  1  5 19  0  8  9  5  6  9  0  6 21
  1  2  1 25 22 26  4]"
21200,342,1.0,8,2,124.15881562232971,5.557000637054443,11552,84800,538263,4216715,"[ 0  3  1  3  3  1  2  3  0  2  0  2  0  0  3  0  1  2  0  4  1  5  4  6
  5  0  8  5  0  0  4  3  0  1  6  6  5  6  7  5  8  9  0  3 13  2 17 14
  3  4  4  4 16  2  3  7  4  4  1 14  1  5  4  0  8  9  5  6  9  2 11 21
  1 21 16 25 22 26  4]"
21300,342,1.0,8,2,124.75896406173706,6.001427173614502,11606,85200,540656,4235696,"[ 0  3  1  2  2  3  2  3  0  2  0  2  0  0  3  0  1  2  5  2  2  0  5  0
  5  0  4  3  6  0  1  9  2  1  0  5  1  6  5  5  8 11  2  9 12  1  1 15
  5  9 18  4 11 10  3  7  4  5 12 14  1 12  6  0  8  9  5  6  9  3 18 20
  2  9  6 25 22 26  4]"
21400,342,1.0,8,2,125.37901258468628,6.200437545776367,11650,85600,543252,4256274,"[ 0  3  1  2  1  0  2  3  0  2  0  2  0  0  3  0  1  2  4  6  7  3  4  0
  2  4  4  0  7  0  1  9  2  5  9 11  3  8  0  5 11  2  3 11  6  0 17 11
  2  7 18  2 18 18  3  7  4  2  7  2  0 14 23  0  8  9  5  6  9  5 12  5
  5 16 13 25 22 26  4]"
21500,342,1.0,8,2,125.95054411888123,5.715236663818359,11719,86000,545432,4273484,"[ 0  3  1  2  1  0  2  3  0  2  0  2  0  0  3  0  1  2  5  3  1  3  4  3
  2  4  4  4  5  0  1 12  9  4  5 11  2  8  7  3  6  3  3 11  6  0  7 11
  4  0  8  2  6 18  3  7  4  0  1  3  0  2 23  0  8  9  5  6  9  1 12  1
  3 16 13 25 22 26  4]"
21600,342,1.0,8,2,126.59631943702698,6.457693576812744,11771,86400,547800,4292308,"[ 0  3  1  2  3  1  2  3  0  2  0  2  0  0  3  0  1  2  1  5  1  3  4  2
  0  0  7  5  2  6  5  8 11  0  6  3  2  2 13  1  1 12  3  9  9  0 16  0
  0  1 16  2 15  3  3  7  4  2 17  3  4 12  4  0  8  9  5  6  9  5 17 18
  5 11 19 25 22 26  4]"
21700,342,1.0,8,2,127.27486777305603,6.785430908203125,11824,86800,550213,4311445,"[ 0  3  1  2  3  2  2  3  0  2  0  2  0  0  3  0  1  2  5  7  4  2  1  8
  0  8  2  3  8  6  5  8 11  2  6 10  2  4  8  2 10  9  2  6  6  4  8 16
  5  3  4  5  9 18  3  7  4  3  4  7  4 13  4  0  8  9  5  6  9  0  3 18
  0 11 23 25 22 26  4]"
21800,342,1.0,8,2,127.91132760047913,6.364529132843018,11876,87200,552866,4332460,"[ 0  3  1  2  3  0  2  3  0  2  0  2  0  0  3  0  1  2  2  8  6  4  3  1
  0  8  6  3  2  2  3 11  7  0  4  6  0  8  8  3 10  7  2 13  8  1  4  9
  3  6 13  5 17  7  3  7  4  1 14 13  4 19  0  0  8  9  5  6  9  5 10 19
  5 11 11 25 22 26  4]"
21900,342,1.0,8,2,128.44834661483765,5.370137691497803,11925,87600,555374,4352376,"[ 0  3  1  0  1  3  2  3  0  2  0  2  0  0  3  0  1  2  0  1  7  4  3  8
  1  0  2  1  4  5  3 13  9  0  4  6  1 10  1  3  1  7  3  7  1  5  8  5
  3 13  8  3 17 14  3  7  4  1  8  9  1 19 10  0  8  9  5  6  9  3  3 14
  3 18 21 25 22 26  4]"
22000,342,1.0,8,2,128.96021723747253,5.11866569519043,11976,88000,557784,4371378,"[ 0  3  1  0  1  1  2  3  0  2  0  2  0  0  3  0  1  2  1  4  0  4  0  8
  2  6  1  2  4  4  1  0  9  3  8  6  2 13  6  5  2  1  4  7 11  4 10  7
  5 18  5  1  9 13  3  7  4  2  2  3  2 13 22  0  8  9  5  6  9  5  6  8
  0  8  3 25 22 26  4]"
22100,342,1.0,8,2,129.46417689323425,5.039544105529785,12033,88400,559976,4388715,"[ 0  3  1  4  2  1  2  3  0  2  0  2  0  0  3  0  1  2  4  3  4  1  5  8
  5  7  2  5  3  2  2  5  9  4  0  6  3 10  6  1  3 10  0 12  7  4 13  8
  5 15  1  0 17 16  3  7  4  1  5  3  1 13 21  0  8  9  5  6  9  0  1  8
  0 18 22 25 22 26  4]"
22200,342,1.0,8,2,129.98514485359192,5.209619998931885,12091,88800,562176,4406149,"[ 0  3  1  4  2  1  2  3  0  2  0  2  0  0  3  0  1  2  1  3  2  2  6  3
  5  8  2  4  8  8  3  5  6  2  0  6  5 10  6  5 10  0  5  6  6  4 12  6
  5 11  1  5 11 18  3  7  4  5 16 16  0 15  6  0  8  9  5  6  9  0 10 11
  0 23 22 25 22 26  4]"
22300,342,1.0,8,2,130.56945705413818,5.843064785003662,12145,89200,564634,4425540,"[ 0  3  1  0  1  0  2  3  0  2  0  2  0  0  3  0  1  2  0  3  2  3  5  8
  5  7  7  0  4  8  2 13 11  1  0  2  0 10 13  4  8  3  1 12 11  5  9  2
  0  9  1  1  3 18  3  7  4  1  5 11  4 15  8  0  8  9  5  6  9  4 16  7
  3  5 21 25 22 26  4]"
22400,342,1.0,8,2,131.03453087806702,4.650688171386719,12205,89600,566955,4443980,"[ 0  3  1  0  0  1  2  3  0  2  0  2  0  0  3  0  1  2  4  2  3  1  1  3
  5  2  7  5  1  7  4  8  9  2  0  6  0 10 13  1  9  3  1  3 11  5  9  9
  4 10  1  3 10 18  3  7  4  0  6  8  4 15  4  0  8  9  5  6  9  4 16  7
  4 12 21 25 22 26  4]"
22410,343,1.0,7,2,131.076669216156,4.213404655456543,12211,89640,567196,4445852,"[ 0  3  1  0  1  1  2  3  0  2  0  2  0  0  3  0  1  2  4  2  3  1  1  3
  0  2  7  5  1  7  4  8  9  2  0  6  3 10 13  1  9  3  1  3 11  5  9  9
  4 10  1  3 10 18  3  7  4  0  6 17  4 15  4  0  8  9  5  6  9  4 16 14
  4 12  1 25 22 14  4]"
