generation,fitness,functionality,active_nodes,longest_path,time,gen_time,nc_gens,fitness_evals,graph_evals,node_evals,genotype
0,205.0,0.546875,8,4,0.008728265762329102,8.724212646484375,0,0,0,0,"[ 3  1  0  3  0  0  3  2  0  5  1  0  2  3  0  3  1  2  5  3  9  4  5  4
  5  3  1  4  4  7  0  7  1  5  6  0  3 11  2  3  6 12  0  1  1  0  0 12
  3  7  0  5  6  0  0 21 14  4  1  3  2 17 10  3 18 14  0  3 18  4 16 18
  0 17  1  2  3 25  0 25 19  0 26 24  5 26 25  3 23 16  4 22 22  0 27 28
  0 29 24  2 24 29  3 28  2  0 28 31  7  6 33  6]"
100,290.0,0.8125,9,3,0.6072072982788086,5.984764099121094,41,400,5847,47063,"[ 3  1  0  3  0  0  5  1  0  3  2  0  2  3  0  5  1  3  5  5  0  4  4  5
  5  8  7  5  2  8  0  7  8  3  5  5  1  4  7  4 12 10  0  2 11  5  9  9
  3 10  4  4  9 13  3 12 12  3  2  3  0 12 14  3 19 14  5 14 19  0  2 15
  5 18 17  2 24 19  0 24 26  4 23 20  5 26 17  3 23 16  2 27 28  5 22 30
  0 29 25  4  3 29  0  1  1  2 29  3 23 27 33 11]"
200,303.0,0.859375,10,4,1.292809009552002,6.8559980392456055,65,800,11379,107017,"[ 3  1  0  3  0  0  1  2  2  3  2  3  2  0  0  2  2  1  3  4  1  2  4  3
  2  1  7  5  9  7  0  2  8  3  5  3  1  4  7  1 14  2  3 14 11  1  9  0
  0 14 13  2 15  4  4 12 12  4 19 19  2 20 11  1 20 18  5 14 17  0  2 15
  4 18  3  2 18  3  3  2 24  0 24 23  3 24 16  5 23 16  4 30 22  4 24 23
  4 29 28  1 24  0  1  0 25  2 24  0 23 27 33  3]"
300,310.0,0.875,8,4,1.8485288619995117,5.5571770668029785,111,1200,16562,151425,"[ 3  0  1  3  1  0  4  3  2  5  2  3  2  2  0  2  1  3  5  4  1  2  0  7
  1  5  7  5  3  2  0  8  8  2  4  4  1  4  7  1  0  9  2 13  7  3  2  4
  0  0 13  5  2  7  4 17 12  4 19 19  3 19 11  5 16 14  5 11 17  0  2 10
  4 25 25  2  3  1  3 22 25  0 18  1  2 24  0  5 27 16  3 30  0  2 24 23
  2 23 28  4 28 31  0 27 29  0 25 31 23 27 33 23]"
400,310.0,0.875,8,4,2.390434741973877,5.419034957885742,151,1600,21613,193553,"[ 3  1  0  2  3  1  2  0  3  5  2  3  2  1  3  2  1  0  5  4  1  5  8  0
  1  0  7  1  9  5  1  8  6  2  6  6  1  4  7  1  1  9  2  0  1  3  0  3
  4  9 12  5  2  7  4 17  3  4 19 19  1  0  3  0 16 16  1 11  2  0  2 10
  0 18 24  3 24 20  4  0 26  1  3 27  2 23 17  5 27 16  2 29 23  3 27 29
  4  0 31  2 23 23  2 23  2  2 26 26 23 27 33  3]"
500,310.0,0.875,8,4,2.8844964504241943,4.940595626831055,205,2000,26178,231437,"[ 3  0  1  2  2  0  0  1  0  5  2  3  1  2  3  0  2  0  5  4  1  5  0  2
  2  0  4  1  0  8  0  3  3  2  6  6  1  4  7  4 13  2  1  8  3  5 10 10
  5  4 11  3  2 14  2 13 11  3 19  3  1 11  3  0 19 16  1 18 21  0  2 10
  0 18  3  4  3 21  4 27 16  1  3 18  1  2  2  5 27 16  2 30 23  2 31  1
  4 24 27  5 32 26  1 28 24  5  0 26 23 27 33  3]"
600,310.0,0.875,8,4,3.4201033115386963,5.356049537658691,261,2400,31160,273618,"[ 3  0  0  1  3  0  0  1  0  5  2  3  2  1  0  4  0  3  3  4  1  2  1  6
  0  0  6  2  0  2  4  5  3  0  5  2  1  4  7  0  8  1  1 12  5  5 10 10
  5  3  3  3 11  9  2 18 18  3 19  1  2 11 12  3  1 14  1 14 19  0  2 10
  3 16 27  3  0  3  4 22 16  0 23 18  1 19 20  5 27 16  2 31 28  1 30  1
  0 25  1  5 32 27  1 32 24  5  0 32 23 27 33  3]"
700,311.0,0.875,7,4,3.8929014205932617,4.727952480316162,320,2800,35504,308896,"[ 4  3  0  1  1  0  2  2  0  5  2  3  2  3  2  3  1  2  5  4  1  2  1  2
  4  8  0  3  4  8  5  3  1  5  3  7  1  4  7  2  3  8  1 13 12  5  6  0
  5  8  9  4 11  9  5  1  0  5 19  1  1 18 12  4 20 21  2 21  3  0  2 10
  4 16 16  1 22 16  2 22 21  5 23  1  1 17 20  5 27 16  4 33 27  0  3 28
  0 29 33  3  2 26  0 32 24  4 33 32 28 27 33  3]"
800,311.0,0.875,7,4,4.354389190673828,4.614853858947754,379,3200,39876,342106,"[ 2  3  0  0  1  0  3  2  1  0  2  3  5  3  3  3  3  3  5  4  1  2  7  1
  2  7  1  2  0  8  3  7  7  5  1  6  1  4  7  4 13  8  1 10  1  4  2  7
  3  8  7  1  4  1  5  2 11  2 14  3  1 18 20  4 20 10  3 18  3  0  2 10
  4 16 16  1 22 25  2 22 18  5 26 26  1 17 20  5 27 16  4 33 27  0 29  1
  3 31 28  5  3 24  4  1 24  3  2 32 28 27 33 28]"
900,311.0,0.875,7,4,4.83232569694519,4.779343605041504,434,3600,44641,377714,"[ 4  3  0  1  1  0  3  0  1  5  2  3  3  0  3  3  1  1  5  4  1  5  8  1
  4  2  2  2  3  8  4  7  7  1  3  4  1  4  7  4  5 14  3  3 12  4 14 12
  3  7 10  2  4  9  2  0 10  5 14  2  1  0 14  2 12 17  3  0 13  0  2 10
  4 16 16  3 18 26  0 18  3  1 18  2  2 17  3  5 27 16  0 24 27  2 31 28
  3 31 29  1 31 31  1  0 33  5 33 27 28 28 33  3]"
1000,311.0,0.875,7,4,5.303399085998535,4.710714817047119,488,4000,49371,412281,"[ 2  0  3  4  2  3  2  1  1  5  2  0  3  1  3  3  0  3  5  4  1  5  8  7
  0  2  1  2  7  3  2  7  0  2  7  6  1  4  7  3  6 10  0  3 10  0  7  8
  5  7 10  4 13  0  2 21 10  3 15 11  0 14  0  1 13 19  4 14 13  0  2 10
  4 16 16  3 16 26  2 16 21  5 22 27  1 20  2  5 27 16  2 23 24  5 32 28
  0 27  1  4  1 31  3  0 29  0 23 26 28 28 33  3]"
1100,311.0,0.875,7,4,5.785083770751953,4.816827774047852,544,4400,54108,448106,"[ 2  3  0  2  3  3  3  1  1  5  2  0  0  2  1  3  1  3  5  4  1  5  1  3
  4  4  9  2  7  8  3  7  0  5  7  9  1  4  7  1  7  2  5 10 13  1  2  0
  2 12  5  1 15 14  0  3 10  2 20 11  5 14 21  5 15 12  4  1 17  0  2 10
  4 16 16  4 17 26  0 24 26  4 24  1  5 24 23  5 27 16  2 33 28  5  0 26
  0 22 32  5 32 29  3 24 23  1 23 31 28 28 33  3]"
1200,311.0,0.875,7,4,6.248450517654419,4.63364839553833,596,4800,58600,482404,"[ 4  3  0  5  3  2  3  1  1  5  2  0  2  0  1  4  1  3  5  4  1  1  9  5
  4  4  6  2  8  5  4  0  6  5  2  7  1  4  7  3 14  5  1 10 10  5  3 11
  5  7  9  4  2 15  2  1  0  2 20 21  0 10 21  5 20 10  4 16 11  0  2 10
  4 16 16  1 18 22  2 16  2  4 19  2  5 23 26  5 27 16  2 24 31  5  1 22
  3  1 23  0 33  0  2  3 22  3 32 32 28 27 33  3]"
1300,312.0,0.875,6,4,6.72562313079834,4.771699905395508,642,5200,63252,517774,"[ 2  3  0  5  0  2  3  1  2  0  1  0  5  2  0  5  0  0  5  4  1  1  2  9
  0  9  9  3  1  5  4  7  6  2  4  3  1  4  2  0 12 12  3  0  8  3 15  8
  3  3 10  1  3 15  0 19 15  3 20  0  0 19 12  5 17 11  3 11 11  0  2 10
  4 16 16  0 25 20  5 17 18  2  3 24  5 24  0  5 27 16  4 22 28  4 32 29
  4  3 31  2 30  0  5 23 22  3 32  3 28 28 33 28]"
1400,312.0,0.875,6,4,7.154020071029663,4.283952713012695,710,5600,67579,547869,"[ 2  3  0  5  2  0  2  0  0  0  1  3  5  0  3  5  0  0  5  4  1  1  2  0
  4  3  9  3  4  8  0  6  6  2  1  3  1  4  2  0 12 14  3  9 10  3  6  1
  3  5  6  1 14 11  4 19 15  3 13 12  3 18 12  5  0  2  4 11 17  0  2 10
  4 16 16  5 21 16  4 17 20  2 18 27  5 21 26  5 27 16  4 22  3  4 30  3
  4 26  3  4 22  0  5 33 28  5 27  3 28 27 33  3]"
1500,312.0,0.875,6,4,7.599884986877441,4.458627700805664,771,6000,71959,578694,"[ 2  3  0  3  3  3  2  2  3  4  1  0  2  1  2  3  1  3  5  4  1  4  3  4
  4  5  0  3  8  3  2  5  4  2  0  5  1  4  2  2 12 15  3  2  4  0  5 15
  1 15  5  0 14  6  2 20 16  1  3  1  5 13 13  3 19 13  4 17 15  0  2 10
  4 16 16  3 21 16  1 17  3  1 17 18  5  3 26  5 27 16  3 33 28  4  0 25
  5 26 25  3 22 23  2 31 28  0 33 23 28 27 33 28]"
1600,312.0,0.875,6,4,8.124602794647217,5.247151851654053,830,6400,76505,609900,"[ 2  3  0  0  0  1  1  1  2  5  2  2  1  3  2  3  0  3  5  4  1  4  3  3
  3  2  5  3  8  0  1  5  6  2  0  6  1  4  2  2  2  1  4  0  3  1  2  0
  1  7  5  0  9 15  5  2 18  1 14 12  2 19 12  5 21 16  0 19  2  0  2 10
  4 16 16  2 21  0  1 26 18  0 16  3  5  2 26  5 27 16  0 32 28  3 28 25
  1 23 23  5  1  3  0 25 27  0  0  1 28 27 33 28]"
1700,312.0,0.875,6,4,8.556965112686157,4.323599338531494,897,6800,80942,640512,"[ 2  3  0  0  0  2  1  2  2  5  2  2  4  1  1  2  3  3  5  4  1  3  2  3
  2  4  8  3  8  9  4  9  6  2  9  8  1  4  2  5  1  7  2  2  3  4 14 14
  1  7  4  1 13 15  2 11 11  2 16 20  2 12 18  1 15 16  0 12 12  0  2 10
  4 16 16  5  3 19  5 27 23  0 22 27  3  1 26  5 27 16  4 32 27  3 32 30
  4 24 24  4 24  3  5 30 27  2 22 31 28 27 33 28]"
1800,312.0,0.875,6,4,8.990017890930176,4.330508708953857,974,7200,85277,671457,"[ 2  3  0  0  2  3  4  0  0  2  3  2  4  2  1  3  3  3  5  4  1  3  8  4
  1  4  8  1  5  1  4  9  6  2  9  8  1  4  2  5  1  7  0  2  3  4 14  3
  1 15 13  4 13 15  2 15 11  0 16 20  1 12  1  1 15 16  0 12 11  0  2 10
  4 16 16  0 23 25  5 26 20  1 22 25  0  1 26  5 27 16  4 32 27  3 32 30
  4 22 30  4 24 30  5 30 27  5 22  3 28 27 33 28]"
1900,312.0,0.875,6,4,9.423629999160767,4.33610200881958,1032,7600,89786,701843,"[ 2  3  0  4  0  3  5  0  3  2  3  2  3  2  0  0  3  1  5  4  1  3  8  7
  1  5  8  0  4  6  2  6  1  0  7  8  1  4  2  1  1  5  5  2 10  4  6  4
  5  8 12  1 13 15  2 10 20  5 16 16  0  0 17  4 15 12  1 12  3  0  2 10
  4 16 16  2 23 25  5 20  0  3 22 25  0 16 20  5 27 16  1 32  3  1 26 30
  0 22 30  4  1 24  2 28 29  1 22 24 28 27 33  3]"
2000,312.0,0.875,6,4,9.835837364196777,4.122054576873779,1102,8000,94008,730419,"[ 2  3  0  2  0  1  2  2  3  2  3  2  3  2  0  5  1  1  5  4  1  3  3  4
  4  9  9  4  6  1  2  0  6  0  8  6  1  4  2  1  1  2  5  2 14  0  4 15
  5  9  0  1 10 12  2 18 18  2 20 12  0 13  3  2  3 20  1  0  3  0  2 10
  5 16  0  5 21 22  5 25 19  0 22 25  5  1 27  5 27 16  2 28  3  1  3  3
  0  0 30  5  0 28  3 22 25  1 22 24 11 27 33  3]"
2100,312.0,0.875,6,4,10.247583866119385,4.117445945739746,1164,8400,98331,758622,"[ 2  3  0  0  3  1  2  3  0  1  2  2  3  2  2  4  2  1  5  4  1  3  3  4
  1  2  6  5  6  4  2  5  0  2  8  3  1  4  2  1 12 10  2  7  8  5 13  4
  1  3  1  1  6 10  2  3 16  0 20 10  1 14 14  2 20 20  4  0 17  0  2 10
  2 16 27  3 19  0  0 25 24  3  1  3  2 17  0  5 27 16  5 28  2  3  0  1
  0 27 30  1 31 24  3 31 31  4 23 28 11 27 33  3]"
2200,312.0,0.875,6,4,10.668777465820312,4.21191930770874,1227,8800,102757,787989,"[ 2  3  0  1  2  1  2  1  3  1  0  3  5  2  2  4  1  2  5  4  1  3  3  4
  4  8  2  5  1  1  2  2  0  2  5  2  1  4  2  1 10  5  0  1  9  2  0  4
  0 11 15  0 13 10  4  3 10  0  3  2  1 14 11  5  1 18  4 17 17  0  2 10
  3  0 16  3 20 21  2 20 19  3 17  3  1 17  0  5 27 16  1 27  2  1 24 24
  0 24 31  4 26  3  5 24 23  2  3 29 11 27 33  3]"
2300,321.0,0.90625,7,4,11.086942434310913,4.181632995605469,1290,9200,106866,817796,"[ 2  3  0  0  2  1  2  0  0  1  2  0  4  3  3  1  1  2  5  4  1  3  3  4
  0  7  2  3  2  5  2  2  6  2  4  2  1  4  2  3 10  4  2  6  2  1 10 14
  0 11  8  0 13  2  1 13 14  0 20 14  2 21  2  5 11 11  2 17 14  0  2 10
  5 23 16  3 19  3  4 19 23  3 24  3  3  1 27  5 27 16  5 23 28  2  1 25
  2  2  1  0 26  3  2 25 31  4 33 30 11 27 33 17]"
2400,321.0,0.90625,7,4,11.511471271514893,4.245266914367676,1356,9600,110901,848061,"[ 2  3  0  1  2  1  5  3  2  0  1  0  3  1  2  2  2  2  5  4  1  3  3  4
  5  7  8  5  0  2  5  2  6  3  0  1  1  4  2  3 10  4  1  1  4  0 10 11
  1  3  0  2 13  2  1 13 14  0 14 15  3 21  2  3  3 18  5 14 14  0  2 10
  5 23 16  4 19 27  0 20 16  5 24 24  3 21 18  5 27 16  5 31 28  2  0 28
  1  2 23  4 26 31  2 27 31  3  3 23 11 27 33 17]"
2500,325.0,0.921875,8,4,11.951400756835938,4.399268627166748,1410,10000,115012,879884,"[ 2  3  0  1  0  2  5  2  1  5  0  3  2  1  2  1  2  2  5  4  1  3  8  4
  1  7  3  4  0  2  5  0  1  2  0  3  1  4  2  3 10  4  3  3 15  1  6 11
  5  3  0  3  1 11  3 20  0  0 11 15  0 20  0  2  3 16  0 16 14  0  2 10
  5 21 23  0 19 27  5 24 23  1 16  0  5 22 17  5 27 16  2 30 33  1 32 28
  4 27 33  0 26  1  2 24 24  1 30  0 11 27 33 17]"
2600,335.0,0.953125,8,4,12.459586143493652,5.081827640533447,1456,10400,118901,921127,"[ 2  3  0  2  1  0  5  3  3  1  0  3  2  1  2  5  3  2  5  4  1  3  8  4
  1  5  3  4  2  2  5  0  7  3  4  0  1  4  2  0  9  6  2  5  2  1  3  6
  1  5  3  0  2  3  1 12  0  0 11 17  1 20 12  2  2 21  0 14 14  0  2 10
  4 21 26  5  1 21  0 16 17  0 27  0  5 22 19  5 27 16  4 25  2  1 23 26
  4 31 23  0  3  1  2 28 24  1  1  1 11 27 33 37]"
2700,335.0,0.953125,8,4,12.864455223083496,4.048669338226318,1513,10800,122451,950728,"[ 2  3  0  2  1  2  0  3  3  2  2  3  2  1  2  2  1  2  5  4  1  3  8  4
  1  5  7  3  2  6  4  7  1  3  4  1  1  4  2  4  9  6  2  5  0  1  1  6
  2  2  9  5  0  6  1  1 14  5 10 19  5 20 18  2  2 21  0 17 18  0  2 10
  0 22  0  5 19 22  1 16 27  0 26 20  5 19 19  5 27 16  5 23  2  1 31 26
  4 23 25  0  3  1  2 28 24  1 24  0 11 27 33 37]"
2800,335.0,0.953125,8,4,13.273350238800049,4.088931083679199,1569,11200,126043,980652,"[ 2  3  0  2  1  2  5  3  3  5  3  3  2  1  2  4  3  1  5  4  1  3  5  4
  0  5  5  5  2  2  5  4  5  3  7  1  1  4  2  4  5 15  2  5 10  1  1  5
  2  2  1  2  0  6  5 12 14  1 10  1  3 14 18  2 10 16  4 21 18  0  2 10
  0 24 19  5 19 27  0 16 18  3 23 17  1 18 27  5 27 16  2 22 28  1 32  2
  3 23 26  0  3  1  2 26 29  1  3  0 11 27 33 37]"
2900,335.0,0.953125,8,4,13.665004968643188,3.9165282249450684,1634,11600,129524,1008890,"[ 2  3  0  2  1  2  2  0  2  1  3  2  4  1  1  4  3  1  5  4  1  3  5  4
  2  2  3  1  1  7  3  5  1  3  5  2  1  4  2  1  5 15  2  4 10  1  1  5
  3  0  9  2  2  6  5 19 14  1 20 19  3 11 15  5 10 21  4  3 19  0  2 10
  0 21  0  2 19 18  2  1 24  2  0 17  1 16 24  5 27 16  3 22 28  0 22  2
  0 24 25  0  3  1  5  1 28  0  0  0 11 27 33 37]"
3000,335.0,0.953125,8,4,14.064377546310425,3.9937043190002446,1692,12000,132952,1037224,"[ 2  3  0  2  1  2  2  0  2  1  2  0  4  1  1  4  0  0  5  4  1  3  5  4
  2  4  1  2  2  4  3  1  3  2  7  5  1  4  2  1 11 13  5  9 14  3  1 10
  3  1 15  2  3  6  5  2 11  2 20  1  3  0 21  3  3 18  4 15 18  0  2 10
  4  1 19  2 19  0  0  1 24  1 26 22  5 16  1  5 27 16  3  0 29  0 32 24
  2 32 25  0  3  1  5  1 28  0  0  0 11 27 33 37]"
3100,335.0,0.953125,8,4,14.47122597694397,4.068465232849121,1753,12400,136485,1067016,"[ 2  3  0  2  1  2  4  2  0  1  0  1  4  1  1  3  0  0  5  4  1  3  5  4
  2  5  1  2  2  1  1  1  8  2  6  6  1  4  2  0 12  4  2  5  7  3  0 10
  3  6  9  1  1  6  5 13 19  1 16  1  1 13 17  0 21 18  5 14 10  0  2 10
  4 23 18  2 20  3  0 22 24  1 22 22  5 20  3  5 27 16  0  0  3  0 32 24
  2 29 25  0  3  1  4 26 32  2  0  2 11 27 33 37]"
3200,342.0,0.984375,11,4,14.910148620605469,4.389209747314453,1816,12800,139915,1101400,"[ 2  3  0  2  1  2  4  2  0  3  0  1  5  1  3  3  2  2  5  4  1  3  5  4
  5  0  1  4  4  9  3  0  3  5  8  2  1  4  2  0  6 14  1 13  5  2  0  6
  3  6  9  1  1 10  3 13 11  1 17  0  3  2 17  0 16 12  4 15 10  0  2 10
  3 22  1  5 24  3  5 22  2  5 19  3  2 17  0  5 27 16  0 33 23  3 25 22
  2  2 29  0  3  1  0 26 32  1 27  2 11 20 33 37]"
3229,350,1.0,10,4,15.0537428855896,4.95143594412968,1830,12916,140958,1112727,"[ 2  3  0  2  1  2  4  0  2  4  0  1  5  2  3  2  2  0  5  4  1  3  5  4
  4  0  1  4  4  8  3  2  9  5  8  2  1  4  2  4  6 14  1 10  9  2 12  3
  3 11  9  1  1 11  0 13 11  4 17  0  4  2 17  4 16 12  3  1 10  0  2 10
  3 23  1  5  3 26  5 22  2  1 19  3  2  0  0  5 27 16  2 27 23  3 25 22
  2 24 24  0  3  1  0 26 32  3 27 33 11 20 33 37]"
3300,350,1.0,10,4,15.292165040969849,3.3580249464008167,1869,13200,142656,1129593,"[ 2  3  0  2  1  2  2  0  2  2  2  2  2  1  3  2  2  3  5  4  1  3  5  4
  1  0  1  4  4  8  2  2  4  5  8  2  1  4  2  4  6 14  1  7  4  5  5 12
  5 11  6  5  1 15  0  1 11  2  1 16  4  2 17  2 16  3  3 16 10  0  2 10
  3 19 25  5  3 26  4 24  2  1 19 21  5  0  3  5 27 16  5 23 23  1  2 33
  5  0 30  0  3  1  0 28  3  2 33  0 11 20 33 37]"
3400,350,1.0,10,4,15.610846281051636,3.186779022216797,1922,13600,144852,1151359,"[ 2  3  0  2  1  2  2  0  2  3  0  2  5  0  3  2  1  0  5  4  1  3  5  4
  1  5  5  4  1  8  0  2  1  4  8  1  1  4  2  4  0 14  3 14  3  4  9  4
  5 11  6  2  1 15  0 15 11  0 17 10  3 20 16  2 12  1  4 20 10  0  2 10
  3 17 25  5 16 26  4 16 24  0 21 21  2 16 23  5 27 16  4 30  2  1 26 33
  0  0 23  0  3  1  3 28  3  3 27 33 11 20 33 37]"
3500,350,1.0,10,4,15.953888893127441,3.4303998947143555,1981,14000,147247,1175168,"[ 2  3  0  2  1  2  2  0  2  3  0  1  4  2  3  2  0  0  5  4  1  3  5  4
  3  6  5  4  2  8  0  2  1  4  5  7  1  4  2  0  0  3  3  5  3  4  9  7
  3 11  6  0  0 15  3 16 20  4 10 20  4 17 17  0 10  1  4 16 13  0  2 10
  5 20 25  5 16  2  4  1 17  2 16 21  3 24 22  5 27 16  4 30  0  2 27 30
  1 31  2  0  3  1  3 33 26  1  2 26 11 20 33 37]"
3600,350,1.0,10,4,16.278263092041016,3.243722915649414,2041,14400,149507,1197556,"[ 2  3  0  2  1  2  2  0  2  4  2  1  3  1  0  1  2  1  5  4  1  3  5  4
  2  6  5  0  2  0  0  8  1  4  5  7  1  4  2  3 14 15  2 10  4  4  9  7
  5 11  6  1  0 10  3 16 20  4 10 20  2 17 16  0 10 19  0 17 15  0  2 10
  2 25 27  5 16 24  4  2 16  3 16 19  5 21 25  5 27 16  3 23 33  5 24 23
  1  3 32  0  3  1  3 30 26  1 30 22 11 20 33 37]"
3700,350,1.0,10,4,16.631879568099976,3.5361409187316895,2092,14800,152070,1223051,"[ 2  3  0  2  1  2  2  0  2  2  2  1  1  1  0  1  1  2  5  4  1  3  5  4
  5  4  7  4  2  0  5  6  1  4  3  8  1  4  2  0  6  5  3 10  4  0 11  9
  3 11  6  1  3  7  3 16 20  0 15 11  2 19 16  0 10 20  1 16 21  0  2 10
  1  0 16  5 19 20  2  2 27  3 24 16  5 23 25  5 27 16  5 28  0  1 23  3
  2 27 31  0  3  1  0  2 26  4 31  3 11 20 33 37]"
3800,350,1.0,10,4,16.975258588790894,3.4337687492370605,2149,15200,154547,1247511,"[ 2  3  0  2  1  2  2  0  2  3  1  3  1  0  0  2  1  2  5  4  1  3  5  4
  5  9  2  4  8  3  1  6  0  1  3  6  1  4  2  0  6 12  3  4  8  0  5  8
  3 11  6  1  5  6  1 11 20  2 15 20  1 19 12  0 16 21  3 21 11  0  2 10
  1 20 18  5 17 26  2 19 21  5  0 19  5 17 24  5 27 16  2  0 24  3  2 23
  2 25 31  0  3  1  0 27 26  4 30  3 11 20 33 37]"
3900,350,1.0,10,4,17.31040096282959,3.3514046669006348,2206,15600,156939,1271268,"[ 2  3  0  2  1  2  2  0  2  0  1  0  2  0  0  2  1  1  5  4  1  3  5  4
  2  9  0  4  8  4  1  6  0  2  3  6  1  4  2  0  6  2  0 14  0  4  5  8
  5 11  6  0 12  6  4 11 11  2 15 13  1 15 12  1 14  1  0 21 13  0  2 10
  1 20 18  3 20 27  2 19 21  5  0 19  5 17  3  5 27 16  2 30 24  0 23 23
  3 25 32  0  3  1  0 33  3  4 30  3 11 20 33 37]"
4000,350,1.0,10,4,17.635732173919678,3.253293037414551,2270,16000,159203,1293860,"[ 2  3  0  2  1  2  2  0  2  0  0  0  2  2  1  0  2  1  5  4  1  3  5  4
  2  9  6  1  8  2  4  6  0  2  2  9  1  4  2  4 13 14  5  8  0  0  5  3
  5 11  6  1  9 12  0 10  3  2 15 21  1 13 12  0 19  1  1 21 13  0  2 10
  2 20 22  3 20 23  2 21 17  0 23 26  4  2 19  5 27 16  5 30 22  0 22 29
  4 33 22  0  3  1  0 33  3  4 30  3 11 20 33 37]"
4100,350,1.0,10,4,17.98115038871765,3.454165458679199,2322,16400,161700,1318611,"[ 2  3  0  5  0  2  2  0  2  0  2  0  2  2  1  1  3  1  5  4  1  3  8  4
  4  9  1  1  1  2  2  0  0  2  8  3  1  4  2  1 10  9  4 14 10  2  2  3
  5 11  6  1  4 10  1 14 16  2 10 17  4 13 12  4 10  1  1  3 17  0  2 10
  5 26 25  3 18 23  5 21 17  0  1 25  5 16 25  5 27 16  5 33 22  1 31 32
  2 22 31  0  3  1  1 32 33  4 22  1 11 20 33 37]"
4200,350,1.0,10,4,18.310128450393677,3.289761543273926,2375,16800,164021,1341741,"[ 2  3  0  5  2  1  2  0  2  0  2  0  2  2  1  1  2  1  5  4  1  3  8  4
  0  5  1  3  3  9  2  2  0  2  7  0  1  4  2  3 13 13  4  5 10  1 15  3
  5 11 14  1  4  2  5 19 19  2 10 12  2  3 19  5  0 21  5 14 17  0  2 10
  1 18 25  3 24 23  1 16 19  3 19 21  2 20 19  5 27 16  0 28  3  5 31 32
  1  0 33  0  3  1  1 26 33  0 30 27 11 20 33 37]"
4300,350,1.0,10,4,18.654393911361694,3.4426355361938477,2430,17200,166487,1366378,"[ 2  3  0  5  2  1  2  3  0  1  2  0  2  2  1  1  2  1  5  4  1  3  8  4
  5  1  4  4  7  9  2  2  0  4  7  2  1  4  2  3 13  3  4  4 10  3 10  3
  3 11 14  3  2 13  0  0  0  1 15 16  2 20 16  0  0  2  0 14 16  0  2 12
  1 26 25  3 24 27  4 25 19  5 25  0  4 20 23  5 27 16  3 28 23  5 31 33
  3 31 27  0  3  1  3 32 25  5 25 27 11 20 33 37]"
4400,350,1.0,10,4,18.97387933731079,3.1948351860046387,2487,17600,168725,1388515,"[ 2  3  0  3  0  1  3  2  3  0  0  0  2  2  1  3  3  1  2  4  1  3  8  4
  5  1  4  4  4  5  2  2  0  2  8  2  1  4  2  2  2  3  0  2 10  2 13  5
  5 11 14  3  2 13  5 12 18  1  1 16  2 15 16  4 15  2  1 15  1  0  2 12
  1 25 25  3 24 23  4 25 20  3 27 16  4 20 23  5 27 16  1 26  0  5 30 33
  1 31 27  0  3  1  5 32 25  3 32 27 11 20 33 37]"
4500,350,1.0,10,4,19.309087991714478,3.352062702178955,2547,18000,171048,1411604,"[ 2  3  0  5  1  1  5  1  3  3  0  3  2  2  1  3  3  2  2  4  7  3  8  4
  5  1  4  1  3  5  2  2  0  4  7  2  1  4  2  4  5  2  1 13  3  0  0  7
  3 11 14  5  6 13  1 17 18  1 20 16  2 17 16  4 19 17  1  3 10  0  2 12
  1 25 25  4  2 24  4 21 24  2 25 23  4  3 20  5 27 16  0 26  0  5 30 28
  4 33 27  0  3  1  3 23 25  0 32 27 11 20 33 37]"
4600,350,1.0,10,4,19.642391204833984,3.333008289337158,2601,18400,173367,1434574,"[ 2  3  0  5  0  1  5  2  2  3  1  3  2  2  1  3  0  0  5  0  9  3  8  4
  5  1  4  1  0  5  2  2  0  2  0  1  1  4  2  1  0  4  2 13 13  0  6  7
  5 11 14  0  0  7  1 17 18  5 20 16  4 13 16  4 14 18  1  3  1  0  2 12
  1 25 26  0  2  1  0 26 24  5 23  0  3  3 17  5 27 16  0  2 26  3 27 29
  1  0 30  0  3  1  2 23 22  0 26 28 11 20 33 37]"
4700,350,1.0,10,4,19.971699476242065,3.2930588722229004,2664,18800,175629,1457004,"[ 2  3  0  0  0  1  2  2  2  2  2  1  2  2  1  5  1  0  3  0  6  3  8  4
  5  1  4  3  0  9  2  2  0  4  3  1  1  4  2  2  0  0  2 13 10  1  8  7
  5 11 14  0  5  3  5 17  3  5 20 20  4 13 12  2 10 18  1 14 10  0  2 12
  2 23 26  5 20  3  4 26 24  1 23  0  3  3 21  5 27 16  3  2 30  3 32 28
  1 30  3  0  3  1  2 23 22  0  2 23 11 20 33 37]"
4800,350,1.0,10,4,20.281471967697144,3.097705841064453,2720,19200,177746,1478109,"[ 2  3  0  5  0  1  1  1  2  2  3  1  2  2  1  4  1  3  0  2  7  3  8  4
  5  1  4  3  6  5  2  2  0  4  5  8  1  4  2  0  0  0  1  1  6  0 12 13
  5 11 14  0 11  3  5 11 11  4 14 15  0 12  2  2 20 18  1 14 10  0  2 12
  2 21 26  2 24  0  4 26 19  3 24 26  3  3 26  5 24 16  3 28 24  3  3 28
  3 29 33  0  3  1  4 31 33  5 24 33 11 20 33 37]"
4900,350,1.0,10,4,20.614685535430908,3.3321142196655273,2780,19600,180071,1501287,"[ 2  3  0  3  0  0  0  1  1  4  3  2  2  2  1  3  1  2  2  6  7  3  8  4
  5  1  4  0  6  5  2  2  0  4  5  8  1  4  2  3  2  1  2  1  6  5  1 11
  5 11 14  0  2  3  2 14  2  2 10 21  0 12  2  1 19 19  5 12 14  5 11 12
  3 21 26  2 24 27  4 18 19  3 24 24  3  3  3  5 24 16  2 27 24  0 30 30
  2 24  1  0  3  1  3 29 31  5 24  3 11 20 33 37]"
5000,350,1.0,10,4,20.936609268188477,3.2192182540893555,2845,20000,182322,1523594,"[ 2  3  0  3  0  2  0  1  1  3  1  2  2  2  1  3  3  1  2  1  7  3  8  4
  5  1  4  3  2  8  2  2  0  4  5  4  1  4  2  3  2  1  2  1 15  3  1 10
  5 11 14  2  1 15  0 14  0  4 11 21  0 12  2  0 19 12  5 12  2  5  1 12
  3 21 16  2 21 27  2 18 19  1 24 18  2  3 25  5 24 16  2 31 24  1 25 30
  2 24 25  0  3  1  3 29 31  5 31 30 11 20 33 37]"
5100,350,1.0,10,4,21.251203775405884,3.145925998687744,2911,20400,184478,1545015,"[ 2  3  0  3  2  1  5  1  3  2  1  2  2  2  1  4  2  1  4  1  7  3  8  4
  5  1  4  1  2  8  2  2  0  4  2  6  1  4  2  4  2 12  3  1  1  3  4 15
  3 11 14  3  1  0  0 14 12  5 11 18  0 12  2  3 17 20  5 19  2  5 14 12
  5 16  0  4 21 18  1 21  0  4 25 16  0  3  1  5 24 16  2  1 24  1 25 25
  2 24 25  3  3  1  3 29 32  4 30  2 11 20 33 32]"
5200,350,1.0,10,4,21.588085412979126,3.3687973022460938,2963,20800,186861,1568738,"[ 2  3  0  0  3  1  0  3  2  2  1  0  2  2  1  5  0  1  5  2  2  3  8  4
  5  1  4  4  6  0  2  2  0  1  2  5  1  4  2  1  8  9  0  9 11  2  1  9
  3 11 14  5  1  0  1 17 15  3 11 18  0 12  2  1 18 18  1 19  2  3  2 17
  5 16  0  1 23 27  2  1  2  3 17 16  4 20  1  5 24 16  0 24 24  4 26 27
  2 28 25  0  3 27  2 29 31  2 27  2 11 20 33  5]"
5300,350,1.0,10,4,21.937472343444824,3.4938478469848633,3023,21200,189392,1593827,"[ 2  3  0  0  3  1  0  3  1  1  1  0  2  2  1  1  0  3  5  0  3  3  8  4
  5  1  4  4  3  8  2  2  0  2  4  5  1  4  2  1  4 10  3  9  9  2  7  9
  3 11 14  5 12  0  4 17 15  1 11 18  0 12  2  2  3 20  0  0  2  4 19 19
  5  1 18  1 24 20  2 23  3  0 17  3  5 20  2  5 24 16  3 24 24  1 26 27
  2 28  0  2 31  2  5 29 31  2  1  2 11 20 33  5]"
5400,350,1.0,10,4,22.2798171043396,3.4234237670898438,3078,21600,191825,1618030,"[ 2  3  0  0  3  1  0  2  1  5  3  0  2  2  1  1  0  3  5  2  3  3  8  4
  5  1  4  5  0  7  2  2  0  1  4  6  1  4  2  1 14 10  0 10  6  5  7  7
  3 11 14  4 12  0  4 20 15  2 11  3  0 12  2  2 14 20  0 20  2  2 19 12
  2  1 18  1 25 20  0 24 24  3 17  3  3 20  2  5 24 16  4  3  2  1 26 27
  2  2  1  2 31  2  3 29 29  2 24  2 11 20 33  5]"
5500,350,1.0,10,4,22.633166074752808,3.533473014831543,3133,22000,194411,1643620,"[ 2  3  0  0  3  1  0  3  3  5  1  0  2  2  1  2  1  1  3  1  7  3  8  4
  5  1  4  0  0  4  2  2  0  1  3  6  1  4  2  3  8 10  3 14 13  5  9  7
  5 11 14  3  0  4  0 20  0  2 15 11  0 12  2  4  0 14  0 19  0  0 19 21
  0 17 20  3  0 23  2 20 22  2 25  3  3 16 19  5 24 16  4  1  0  0 25 33
  1  2 23  1  1  0  5 33 29  2 24 22 11 20 33  5]"
5600,350,1.0,10,4,22.96742558479309,3.342568874359131,3194,22400,196725,1666653,"[ 2  3  0  0  3  1  5  2  0  0  1  2  2  2  1  2  1  0  1  5  7  3  8  4
  5  1  4  0  1  4  2  2  0  3  0  4  1  4  2  2  4 10  3 10 13  3 13  3
  5 11 14  0  0 10  4 14  0  5 10  2  0 12  2  2  0 14  1 12 19  4 19 20
  4 17 26  4  0 22  2 16  3  2 25  3  4  2 19  5 24 16  3  1  2  1 27 33
  1 25 23  1  2  2  3 30 29  4 24 22 11 20 33  5]"
5700,350,1.0,10,4,23.307743072509766,3.403136730194092,3255,22800,199154,1690654,"[ 2  3  0  0  3  1  5  2  1  0  1  2  2  2  1  2  1  0  2  9  1  3  8  4
  5  1  4  0  1  3  2  2  0  1  0  5  1  4  2  3  4 11  3  4  7  3 13  3
  3 11 14  4  0 11  4 15 10  5 11 18  0 12  2  1 15 14  0  0 19  0 17 21
  1 17 24  3 25 22  0 16  3  1 22  3  5  2 22  5 24 16  1  1 30  1  3 28
  1 25  2  2 24 31  5 23 28  1 30 30 11 20 33  5]"
5800,350,1.0,10,4,23.642359256744385,3.3461403846740723,3314,23200,201487,1713720,"[ 2  3  0  0  3  1  2  1  2  0  1  1  2  2  1  2  0  0  2  8  2  3  8  4
  5  1  4  0  1  3  2  2  0  1  0  5  1  4  2  2  5  3  3  4  7  3  7 11
  3 11 14  4  6 12  2  0 19  5 20 21  0 12  2  1 10 14  3  0 20  0 17 17
  0  2 24  0 20  2  3 22 21  1  2 25  3  2 22  5 24 16  4  3 32  5  3  1
  1 24 26  4 24 31  2 23 28  5 25 30 11 20 33  5]"
5900,350,1.0,10,4,23.97740626335144,3.3504462242126465,3366,23600,203892,1737595,"[ 2  3  0  0  3  1  0  1  2  3  0  2  2  2  1  2  1  2  2  8  7  3  8  4
  5  1  4  1  3  6  2  2  0  3  6  3  1  4  2  0 11  3  3  0 14  3 15  2
  3 11 14  4  3  4  3  1 15  0 12  1  0 12  2  1  0 15  3 10  3  1 10  1
  3  3 16  0  0  0  1  3 22  0 16 21  4 25  1  5 24 16  2  3  0  5 22 31
  5  2 28  1 24 31  1 22  1  5  2  3 11 20 33  5]"
6000,350,1.0,10,4,24.315170764923096,3.3776235580444336,3430,24000,206340,1761710,"[ 2  3  0  0  3  1  0  1  2  4  0  3  2  2  1  2  1  2  0  8  2  3  8  4
  5  1  4  5  5  3  2  2  0  2  7  0  1  4  2  1  2 10  1 11 11  3  9  7
  3  5 14  4  0  4  5 11  1  2 11 13  0 12  2  1  0 13  5 19  3  1 12  1
  3 22  0  0  2  0  1 23 23  4 16 24  4  1 24  5 24 16  1  0  0  1 25 27
  2 22 30  1 29 31  0 22  1  5 24  3 11 20 33  5]"
6100,350,1.0,10,4,24.642109155654907,3.269364833831787,3488,24400,208653,1784578,"[ 2  3  0  0  3  1  0  2  3  4  0  3  2  2  1  5  1  1  0  8  4  3  8  4
  5  1  4  5  2  8  2  2  0  2  7  6  1  4  2  5  8 10  0  6 15  3  9  6
  3  5 14  0 14  4  3 11 14  1 14 13  0 12  2  0  0 17  5 19 18  3 20 12
  3 22  0  0  2 22  1 23 23  4 16 24  0  0 24  5 24 16  1  3  0  3 25 33
  5  3 24  1 29 33  2 22  1  5 28 27 11 20 33  5]"
6200,350,1.0,10,4,24.975142240524292,3.3303046226501465,3547,24800,211011,1808000,"[ 2  3  0  0  3  1  0  2  0  4  2  3  2  2  1  5  3  1  0  8  5  3  8  4
  5  1  4  2  6  8  2  2  0  2  7  5  1  4  2  5  5 15  4 12  4  1  1 13
  2  9 14  0 11  4  5 11 14  2 14 13  0 12  2  0  0 17  5 11 20  3 14 10
  3  1  2  5 24 25  1 27 19  0 21 19  3  0 24  5 24 16  1 28  1  3  0 27
  4  1  3  2 30 33  4 26  1  2  0  3 11 22 33  5]"
6300,350,1.0,10,4,25.31559133529663,3.4044694900512695,3605,25200,213454,1832191,"[ 2  3  0  0  3  1  1  2  0  2  1  2  2  2  1  5  0  1  4  7  5  3  8  4
  5  1  4  0  3  9  2  2  0  2  0  5  1  4  2  1  1 15  4  5 10  1  1  7
  3  8  6  3 12  2  5 11 14  2 20  2  0 12  2  0  0  3  4  1 20  3 14 13
  1  1  2  2 19  0  1 18  2  1 25 19  3 21 16  5 24 16  3 28 33  4 32 27
  4 23 26  3 26  2  3 28 30  3 30  0 11 22 33  5]"
6400,350,1.0,10,4,25.664878368377686,3.4928488731384277,3654,25600,216020,1857516,"[ 2  3  0  0  3  1  5  0  2  0  1  1  2  2  1  2  2  1  2  7  0  3  8  4
  5  1  4  0  3  2  2  2  0  2  0  5  1  4  2  1  7 11  5  9  8  4 12 14
  3 13 15  4 11  2  5 11 14  2  3 10  0 12  2  1  0 15  3 15 19  3  2 14
  1  1  0  3  1 23  1  1  2  1  2  2  3 21 16  5 24 16  5  1 22  4 32 24
  4 23 33  2 24  2  3  2 25  1 23 31 11 22 33  5]"
6500,350,1.0,10,4,25.99386167526245,3.289813995361328,3709,26000,218357,1880578,"[ 2  3  0  0  3  1  5  1  2  0  2  1  2  2  1  2  0  1  1  0  0  3  8  4
  5  1  4  2  3  2  2  2  0  5  0  6  1  4  2  1  7 12  5  4  8  0 12 14
  3  8 11  4 11  7  5 11 14  1 12 21  0 12  2  1  0 15  2 15 13  1  2 15
  1  3  0  3  1  2  1  3  2  1  1 25  5 19 16  5 24 16  5 32 24  0 25 24
  4 23 27  1 24  3  3 25 28  5  2 31 11 22 33  5]"
6600,350,1.0,10,4,26.32821011543274,3.3434677124023438,3770,26400,220742,1904216,"[ 2  3  0  0  3  1  5  2  2  2  0  3  2  2  1  2  3  1  4  8  1  3  8  4
  5  1  4  2  3  9  2  2  0  0  6  6  1  4  2  2  3  5  1  4  8  0 12  2
  4 15 13  3  3  0  3 11 14  1 15 21  0 12  2  3  0 10  2  1 12  1  2 12
  3 24 18  4 22 27  1 17 19  0 18 19  2 19 25  5 24 16  5 25 24  5  3  1
  0 24 27  1 30 28  2  3 28  3 27 23 11 22 33  5]"
6700,350,1.0,10,4,26.67057967185974,3.4236764907836914,3828,26800,223215,1928767,"[ 2  3  0  0  3  1  5  3  2  2  1  1  2  2  1  3  3  1  4  3  1  3  8  4
  5  1  4  2  3  9  2  2  0  0  4  6  1  4  2  2  3  5  3 13  8  0 15  9
  5  7  5  5  3 10  3 11 14  5 14 21  0 12  2  3  0 10  5  0 12  1 15 21
  3  2 21  4 22 27  1 23 17  1 24 24  2 26  3  5 24 16  5 25 29  3  3  1
  0 25 24  3 30 25  0  3 26  1 27 23 11 22 33  5]"
6800,350,1.0,10,4,27.010419845581055,3.3983731269836426,3882,27200,225566,1952172,"[ 2  3  0  0  3  1  5  3  1  1  1  2  2  2  1  5  0  1  3  8  1  3  8  4
  5  1  4  0  0  9  2  2  0  0  4  5  1  4  2  3 13  5  3 11  5  5 13  2
  5  1  1  4 13 13  3 11 14  1 11  1  0 12  2  4 18 10  1  3 12  2 20 18
  3 23 21  3 17  1  5 23 22  3 24 21  0 17  3  5 24 16  5 25 29  3 30 32
  2 22 24  1 24 25  0 23 32  0 27 23 11 22 33  5]"
6900,350,1.0,10,4,27.354429483413696,3.440070152282715,3934,27600,227991,1976342,"[ 2  3  0  0  3  1  4  1  0  1  3  3  2  2  1  5  2  1  3  6  8  3  8  4
  5  1  4  4  7  8  2  2  0  0  4  2  1  4  2  0  1  6  4 15 13  5 14  2
  5 12  1  0 15  9  5 11 14  2 13 10  0 12  2  2 17 10  0 16 10  4 14 14
  3 27 16  5 17 22  5 24 22  1  3  2  1 23 26  5 24 16  5  0 26  4 27  2
  4 22 31  5  0 25  5  1 22  3 27 23 11 22 33  5]"
7000,350,1.0,10,4,27.692832469940186,3.3840060234069824,3994,28000,230360,1999961,"[ 2  3  0  0  3  1  2  1  0  3  3  0  2  2  1  5  2  3  4  6  8  3  8  4
  5  1  4  2  7  1  2  2  0  4  2  0  1  4  2  4  1  2  1 15  8  0 14  5
  3  5 11  5 14  9  5 11 14  0 13  1  0 12  2  2 19 19  5  3 10  4 14  0
  0 20  0  2 17 22  1 17 22  1  0  2  2 23  3  5 24 16  1 26 24  4 23 29
  3  0  0  2  0 32  3  1 22  5 27 25 11 22 33  5]"
7100,353,1.0,8,3,28.045464515686035,3.526298999786377,4039,28400,232960,2025460,"[ 2  3  0  0  3  1  2  1  2  5  1  0  2  2  1  3  2  1  4  8  8  3  8  4
  4  8  4  0  9  0  2  2  0  0  1  7  1  4  2  4  4  6  1 14  2  2  2 13
  4  1 11  4  6  2  3 11 14  0 13 17  0 10  2  5 17 14  5 19 12  3 16 11
  2  1  0  2 16 25  0 24 16  5 19 20  2 22 23  5 24 16  0 24 29  4 26  2
  3 23 32  0  0 31  0  1 23  5 29 25 11 22 17  5]"
7200,353,1.0,8,3,28.37205958366394,3.2659316062927246,4087,28800,235761,2047865,"[ 2  3  0  0  3  1  2  1  2  3  0  2  2  2  1  3  1  2  5  0  1  3  8  4
  4  1  5  3  9  0  2  2  0  0  1  9  1  2 15  4  4  6  1 15  0  4 13 10
  3 13 11  1  6  1  3 11 14  4 12  1  3 16  0  3 11 21  2  0 16  5  2 20
  5 24 19  1  3 25  5 18 19  5 23 20  2 22  1  0  3 17  3 26  0  5 23  2
  4 22 26  5  0 31  5 30 32  0 30  1 11 22 17  5]"
7300,354,1.0,7,3,28.666860818862915,2.947990894317627,4138,29200,238288,2066624,"[ 2  3  0  0  3  1  2  1  2  3  2  2  2  1  1  3  1  1  0  0  0  3  6  4
  0  3  0  2  7  3  2  2  0  1  3  3  0 14  6  4  4  6  2  5  2  0 13  1
  3  8 15  0 15  2  3 11 14  4 18  0  5  2  0  3 13 16  0 16 11  3 21 16
  2 24 27  3  3 24  2 18 19  4  2 20  4 22 19  0 21  1  5 27 30  1 30 28
  2 22  0  2 32 31  0 32 23  3 23  0 11 22 17  5]"
7400,354,1.0,7,3,28.93596076965332,2.6909828186035156,4191,29600,240568,2082703,"[ 2  3  0  0  3  1  2  1  2  3  1  2  1  1  0  1  0  1  0  4  2  3  6  4
  2  7  6  4  5  8  2  2  0  3  3  2  2  6 10  4  4  6  3  6  8  1 13 13
  3  8 12  0  8  2  5 11 14  2  0 10  3 20  0  4 13 14  0  0 11  0 13 18
  2  3 25  1 16 25  1 22 21  3  3 20  2 22 25  0 19 18  5  2 30  0 30 31
  0 30 30  3 31 26  2 31 23  5 28 24 11 22 17  5]"
7500,354,1.0,7,3,29.191084146499634,2.5512146949768066,4252,30000,242678,2097558,"[ 2  3  0  0  3  1  2  1  2  0  1  2  0  0  1  0  3  1  0  4  7  3  6  4
  5  7  1  4  0  8  2  2  0  0  3  4  4  3  3  4  4  6  1 12  1  5  8 10
  5 11  1  0  5 13  5 11 14  2 15 10  3  3 11  1 16 16  4  3 11  1 11 16
  4 27 18  5  0  3  3 20 21  2 16 16  5 22 17  0 25 21  5 30 30  2 30  2
  1  2 26  2 27  2  3 23 22  5 28 26 11 22 17  5]"
7600,354,1.0,7,3,29.463271379470825,2.721855640411377,4300,30400,244992,2113836,"[ 2  3  0  0  3  1  2  1  2  3  3  2  5  3  0  3  3  0  4  4  0  3  6  4
  3  2  1  3  4  8  2  2  0  5  3  8  5  3  5  4  4  6  0  8 12  2  9  6
  5  9  9  3  1  3  5 11 14  2  2 16  1 13 11  5 12 19  1  3  2  5 18 15
  2 25 20  2 19  0  3 18 26  2 16 27  0 18 17  2  3 23  5  3 22  5 30 23
  5 32 27  2 27  1  5 23 23  5  0 30 11 22 17  5]"
7700,354,1.0,7,3,29.73665738105774,2.7338409423828125,4355,30800,247341,2130355,"[ 2  3  0  0  3  1  2  1  2  2  1  0  0  0  0  2  3  0  4  4  2  3  6  4
  3  2  1  3  0  0  2  2  0  4  3  4  0  6  5  4  4  6  0 10 10  5  9  7
  2  3  9  0  1  6  5 11 14  2 18 21  1 13 18  5 20 21  3 19  2  5 11 13
  2 25 27  2  3 20  1 27 26  5 25 23  5 25  3  4 24 23  4  2  3  4 27 29
  5  1 25  2 27  1  2 24 25  5  0  3 11 22 17  5]"
7800,354,1.0,7,3,30.00939106941223,2.7273178100585938,4415,31200,249674,2146810,"[ 2  3  0  0  3  1  2  1  2  2  2  0  0  1  1  5  3  2  5  3  2  3  6  4
  3  3  4  0  1  0  2  2  0  5  7  4  0 14  5  4  4  6  1  2  0  3 15 10
  5  3  6  3  8  5  3 11 14  4 12  3  3 14  0  5  2 21  1 16 18  5 20 11
  2 26 19  0 26 24  1 26  1  4 25 22  4  2 17  2 16  0  1 33  1  1 24 29
  0 23  1  3 26 22  2 32 25  4 26  3 11 22 17  5]"
7900,354,1.0,7,3,30.27410125732422,2.647080421447754,4468,31600,251892,2162445,"[ 2  3  0  0  3  1  2  1  2  2  1  3  2  1  0  2  2  0  1  2  9  3  6  4
  2  6  4  0  1  6  2  2  0  4  7  1  1 14  2  4  4  6  1  4  4  4  2 14
  0  6  4  4  8 10  3 11 14  0 17 13  1 14 13  5 14 21  1 11 15  5 15 14
  5 26 18  5 26 18  5 17  3  3  0 24  3  1 21  2 16 19  1 24 27  2  0 22
  1 23  1  0 28 32  1 30 23  3 26 31 11 22 17  5]"
8000,354,1.0,7,3,30.53959846496582,2.6549410820007324,4521,32000,254045,2177706,"[ 2  3  0  0  3  1  2  1  2  2  3  2  3  1  0  2  0  3  2  2  7  3  6  4
  4  6  2  4  9  2  2  2  0  3  7  7  0 12 14  4  4  6  3  0  6  4  9  0
  2  9  4  2  1  0  3 11 14  0 18 15  4  0 16  5 14  0  5 20 14  0 21 11
  1 16 25  0 16 24  5 18 17  4 18 26  1 24 20  3 27 19  1 27 28  4 26 33
  5 32  1  4 33  0  1 24  2  3 25 32 11 22 17  5]"
8100,354,1.0,7,3,30.813955783843994,2.743546962738037,4571,32400,256275,2193468,"[ 2  3  0  0  3  1  2  1  2  4  1  1  3  0  0  0  2  3  5  8  7  3  6  4
  5  4  3  3  9  6  2  2  0  1  7  0  4  4  7  4  4  6  1 13  6  4 14  0
  0  9 14  1  1  1  5 11 14  4 11 12  2 10  1  3 16  3  1 21 14  2 21 13
  3 17 22  4 16 27  2 16  1  2  1 18  4 20  0  1 19 18  5  3 28  2 30 23
  2 32  2  3 29 32  3 24 29  0  2 31 11 22 17  5]"
8200,354,1.0,7,3,31.074307203292847,2.603487968444824,4627,32800,258393,2208378,"[ 2  3  0  0  3  1  2  1  2  2  2  2  0  3  1  4  1  0  2  4  6  3  6  4
  1  4  3  3  5  8  2  2  0  0  4  9  1  5  6  4  4  6  2  7  6  4  4  6
  0 13  8  3 12  8  5 11 14  0 19 17  0 12  1  3 19 15  3 21  1  1 14 12
  5 21 22  5  3  1  3 23 23  2 26 18  4 26 21  1 27 19  3 32 28  0 23  1
  0 32 33  3 29 28  3 27 29  1 22 26 11 22 17  5]"
8300,354,1.0,7,3,31.345224142074585,2.7091455459594727,4681,33200,260650,2224230,"[ 2  3  0  0  3  1  2  1  2  5  3  2  0  3  3  2  1  0  1  7  6  3  6  4
  1  9  3  3  3  8  2  2  0  0  7  4  1 10  3  4  4  6  3  3  2  3  2  1
  0 11  9  3 14  7  3 11 14  5  3 12  2 12 15  0  3 15  0 15 20  5 16 17
  5 21 18  5  2 23  3 23 22  0 26  2  2 16 21  2 17 18  5 24 24  4 25  1
  2  1  1  0 31  0  0 27 22  1 22  2 11 22 17  5]"
8400,354,1.0,7,3,31.61051607131958,2.65289306640625,4737,33600,262848,2239687,"[ 2  3  0  0  3  1  2  1  2  3  1  2  5  1  3  2  0  0  1  1  2  3  6  4
  4  9  0  3  4  8  2  2  0  2  5  8  5  6  6  4  4  6  2  3  4  3  7  1
  4 11  7  5 13  2  5 11 14  2 14  0  0 11 11  2  3 19  3 12  2  0 17 14
  5  1 20  3 26 17  3 27 19  0 21 18  4  1 19  4 17 27  5 24 30  4 31  3
  3  0  1  4 32  0  0  3  3  2  0  2 11 22 17  5]"
8500,354,1.0,7,3,31.886163473129272,2.7564501762390137,4780,34000,265222,2256361,"[ 2  3  0  0  3  1  2  1  2  5  3  3  2  1  1  2  0  0  1  1  2  3  6  4
  4  7  2  4  4  9  2  2  0  3  0  2  2  7 15  4  4  6  3 13  5  3  5  8
  3 11  7  2 10  0  3 11 14  1 14 21  1  2 13  3 11 15  4 19 11  1 10 16
  3  1 23  1 26  0  3 17 17  0  3  0  4 21 25  3 18 27  5  1 26  5  3 32
  3  0 26  0  0  0  1  0 31  5 31  2 11 22 17  5]"
8600,354,1.0,7,3,32.139458656311035,2.532927989959717,4838,34400,267247,2270669,"[ 2  3  0  0  3  1  2  1  2  1  3  0  2  3  3  5  2  0  1  7  2  3  6  4
  4  7  2  1  0  4  2  2  0  5  6  2  1 12  0  4  4  6  2 14  8  1  9  8
  1  0  7  2  3  9  5 11  0  4  2 21  3  2 13  3 11 14  4 19 19  0 10 16
  5  1 23  1  1  0  3 17 17  5 19  0  1 16  2  3 17 27  5 22  1  5  3 26
  1 26 26  0 26 30  0 27  1  2 22 33 11 25 17  5]"
8700,354,1.0,7,3,32.41053605079651,2.710752487182617,4891,34800,269559,2286895,"[ 2  3  0  0  3  1  2  1  2  2  3  1  0  1  2  5  0  2  4  0  6  3  6  4
  2  8  5  0  0  1  2  2  0  2  6  1  0  1  0  4  4  6  2 10  1  4  6 14
  3  8  7  0 11  7  1 11 10  3 10 10  2  2 13  3 11 14  4 19 15  3  3  0
  5  1  2  4 22 26  3 20 25  5 21 16  1  2  1  3 26 25  5 22 32  5  2 23
  2  0 23  0 22 30  4 22  1  4 26 29 11 25 17  5]"
8800,354,1.0,7,3,32.67609143257141,2.6555323600769043,4949,35200,271765,2302406,"[ 2  3  0  0  3  1  2  1  2  1  3  1  0  1  1  2  0  3  1  3  6  3  6  4
  1  9  1  2  1  9  2  2  0  5  9  6  5 12  8  4  4  6  2 11  1  4  6 13
  3  5  5  4  4 11  2 16  3  0  3 14  1 19  0  3 11 14  1 12  1  2  3 14
  2 26 20  4 26  2  3  2 26  4  1 23  0 27 27  2  3 25  5  1 32  1  2 31
  4 33 26  3  3 32  4 25 25  4 22 30 11 25 17  5]"
8900,354,1.0,7,3,32.938403367996216,2.6230978965759277,4997,35600,273979,2317911,"[ 2  3  0  0  3  1  2  1  2  0  1  1  0  1  0  5  3  3  2  6  1  3  6  4
  0  9  5  1  6  9  2  2  0  2  3  3  2  0  3  4  4  6  1  2  8  5  9 10
  3  8  2  1 11  0  2  2 15  4 10 13  4 12 12  3 11 14  1  2  1  3 12 14
  4 26 20  2 21 18  4  2 16  0  1 23  0 27 26  2  2  0  3 26  2  3  0 31
  3 23 33  3 23 32  4 23 26  3  3  2 11 25 17  5]"
9000,354,1.0,7,3,33.20269203186035,2.6428699493408203,5049,36000,276220,2333621,"[ 2  3  0  0  3  1  2  1  2  5  3  1  0  1  1  2  0  3  2  8  9  3  6  4
  3  3  9  2  6  1  2  2  0  2  3  3  0 15  5  4  4  6  0 14  5  3  9  4
  3 14 14  4  2 11  5  2 11  5  1 12  4  3 18  3 11 14  1 11  1  2 16 18
  1 26 25  2 22  3  3  2  0  0 25 20  1 27 23  2 19  0  0 26  2  1 33  2
  3 23 31  4 27 29  4 29 31  4 30 29 11 25 17  5]"
9100,354,1.0,7,3,33.46462798118591,2.619342803955078,5101,36400,278385,2348942,"[ 2  3  0  0  3  1  2  1  2  3  3  0  5  1  0  0  2  0  5  8  9  3  6  4
  0  3  6  3  1  1  2  2  0  2  5  6  1  5  9  4  4  6  3 12  6  0  3 14
  5  5 14  0  7 11  4  2 10  5  1 14  2 10 13  5 11 14  1 11 13  2 16 10
  2 26  0  2 19 21  5 24  0  3  2 26  2 27 27  4 16 18  4 31 32  0 26 27
  5 24 28  4  0 25  5 32  0  4 27 33 11 25 17  5]"
9200,354,1.0,7,3,33.728219747543335,2.6358985900878906,5150,36800,280548,2364216,"[ 2  3  0  0  3  1  2  1  2  3  3  3  1  0  0  0  1  2  5  6  9  3  6  4
  3  7  6  3  4  4  2  2  0  2  9  9  3  5  7  4  4  6  3  2  6  0  0 14
  4  1  3  0  0 10  3 21 21  2 11  3  2 10 13  5 11 14  1 21 21  2 20 18
  5  2  0  0 22 21  5 18  1  0 17 27  2 20 21  1 18 24  4 32 27  0 30 32
  5 29  0  5 22  2  0  1 22  3 28 27 11 25 17  5]"
9300,354,1.0,7,3,33.98501253128052,2.567908763885498,5207,37200,282653,2378990,"[ 2  3  0  0  3  1  2  1  2  1  2  3  5  3  0  1  2  1  1  0  3  3  6  4
  2  5  9  3  4  0  2  2  0  4  8  9  1  8  9  4  4  6  2  9 14  4 11 10
  2 11  9  5 14 14  3 11  2  2 16 11  3  2 21  5 11 14  1 17  2  4 15  0
  4 21 17  0  3 17  3 21 22  2 17 23  0  1 24  1 21 21  2  2 26  0 30 32
  5  3  0  0 30 23  5  1 29  0 31 24 11 25 17  5]"
9400,354,1.0,7,3,34.23686861991882,2.5185441970825195,5263,37600,284693,2393336,"[ 2  3  0  0  3  1  2  1  2  2  3  3  5  2  2  1  1  3  1  5  4  3  6  4
  2  0  9  3  5  0  2  2  0  0  8  9  1  1  1  4  4  6  5  9  0  0  3  4
  5  7 13  5 12 14  3 11  2  3 11 16  2 12 20  3 11 14  0  1  2  5 12 12
  2 21  0  5 21 19  2 18 22  5 25 16  2 16 24  4  2 17  4  2 27  0 23 29
  5 24 22  4 24  0  3 31 30  3 31  1 11 25 17  5]"
9500,354,1.0,7,3,34.505675315856934,2.6880383491516113,5319,38000,286907,2408958,"[ 2  3  0  0  3  1  2  1  2  2  0  3  1  2  3  5  0  3  5  7  6  3  6  4
  0  4  8  3  0  3  2  2  0  0  1  1  2 15  4  4  4  6  5  8 12  2 13  0
  1 15  5  5 10 10  5 14  2  4 14 16  2 19 17  5 11 14  3  1 20  4 15 17
  1 26 25  4 23 18  2 23 24  5 26 25  0 25 20  4 21 17  0  2 27  4 29 32
  0 22 25  4 29  0  3 29 23  2 27 22 11 25 17  5]"
9600,354,1.0,7,3,34.7726686000824,2.6698946952819824,5375,38400,289136,2424670,"[ 2  3  0  0  3  1  2  1  2  2  1  2  3  0  2  3  1  2  2  7  0  3  6  4
  0  3  1  0  3  8  2  2  0  0  1  1  4 15 15  4  4  6  2 14 12  2  2 12
  1 11  5  1  6  1  0  2  2  3  2 18  0 13 11  5 11 14  3  1 20  1  3 17
  4 21 18  4  1 18  0  3 19  2 18 20  0 24 20  5 21 23  0 29  0  0 29 25
  3 24 33  4 24  1  4  1  0  2 25 22 11 25 17  5]"
9700,354,1.0,7,3,35.04423713684082,2.7156591415405273,5429,38800,291368,2440379,"[ 2  3  0  0  3  1  2  1  2  2  1  2  4  0  2  1  2  3  3  7  0  3  6  4
  4  3  4  2  0  4  2  2  0  4  1  8  4 15  6  4  4  6  4 15 13  5  0  5
  2  5 11  4  6  6  0  2  0  1  0 18  1 11 11  5 11 14  3  3 18  1 12 14
  4 25 27  5  3 21  0 27 27  2 24 21  0 21 22  4  0 23  0  0 24  1  3 28
  2 24  0  3 24  1  4 23 25  4  1 31 11 25 17  5]"
9800,354,1.0,7,3,35.309351205825806,2.6511216163635254,5484,39200,293602,2456065,"[ 2  3  0  0  3  1  2  1  2  3  3  1  3  1  1  2  2  1  2  7  0  3  6  4
  2  6  4  0  0  3  2  2  0  5  1  8  3  5  6  4  4  6  0 13 13  5  0 12
  4  5  9  4 12 13  4  2  3  1 14 20  5 16 19  3 11 14  0  1  0  5  3 13
  4 21  3  1  3 26  0  0  3  1 17 16  2 20 19  4  0 24  5  1  2  5 22  0
  3 24  0  2  1  1  4 23 25  0 27 26 11 25 17  5]"
9900,354,1.0,7,3,35.576870918273926,2.675175666809082,5537,39600,295851,2471818,"[ 2  3  0  0  3  1  2  1  2  2  0  1  1  2  1  5  1  1  3  9  9  3  6  4
  5  5  1  4  3  3  2  2  0  5  4  8  2  8  5  4  4  6  1  9  5  5  2  5
  5 10  8  4 10 13  3 11  2  1 20  3  2 16 18  5 11 14  5 19 14  2 12  1
  0 21 27  5  3 19  3 20  0  4 23 17  5 16 24  2 19  2  3 31 30  0 33 33
  0  1 30  2  1 33  4 25 28  0 24 24 11 25 17  5]"
10000,354,1.0,7,3,35.85248827934265,2.7561545372009277,5596,40000,298223,2488494,"[ 2  3  0  0  3  1  2  1  2  5  1  0  1  2  1  0  3  0  3  9  4  3  6  4
  0  5  2  4  9  3  2  2  0  5  4  1  0  0  0  4  4  6  4 10 14  5  2 14
  3  4 11  1 14 11  5 12 14  1 20 21  0  2 21  5 11 14  3 15 12  0 15 16
  1 21  1  1 22  2  3 23 22  1 24  3  2 24 27  0 17 16  1 33 23  0 29 23
  0 23 23  1 22  1  3 27 27  2 30 25 11 25 17  5]"
10100,354,1.0,7,3,36.11564660072327,2.631559371948242,5655,40400,300410,2503889,"[ 2  3  0  0  3  1  2  1  2  4  1  3  5  1  0  0  3  1  3  7  4  3  6  4
  4  2  4  5  0  0  2  2  0  5  7  1  5 13  0  4  4  6  0  0  9  5 12 14
  3 15 11  2 13 10  2 16 10  1 15 21  0 19 21  3 11 14  5  0  0  5 15  2
  5 21 24  4 27  2  2  2 22  1 16 21  0 27  0  0 16 16  4 30 28  2 30  1
  0 30 24  0 24 23  0 27 26  5  2 25 11 25 17  5]"
10200,354,1.0,7,3,36.378369092941284,2.6272034645080566,5716,40800,302593,2519247,"[ 2  3  0  0  3  1  2  1  2  4  1  0  0  1  2  1  3  2  3  6  0  3  6  4
  0  1  1  5  5  0  2  2  0  4  9  9  0  3  0  4  4  6  0  0  6  2  7 12
  3 13  5  5 13  6  2 15 15  1 15  0  2 10 13  3 11 14  0 13 19  3  1 20
  2 21  0  5 22  2  1 20  1  0  2 21  1 20  0  4 26 27  5 31 28  2  2 28
  0 31  1  3 27 32  4 28 32  1  3 30 11 25 17  5]"
10300,354,1.0,7,3,36.65312099456787,2.747499942779541,5764,41200,304954,2535892,"[ 2  3  0  0  0  0  2  1  2  2  0  2  0  3  1  2  1  0  2  9  1  3  6  4
  3  4  5  2  7  0  2  2  0  4  1  6  3  6  7  4  4  6  3  8  6  1 10 11
  1  8 15  5  7  6  0 18 13  0 15 15  1 18 19  5 11 14  5 13  2  2 12 20
  5 23  1  2 19 24  3 20 19  4  2  1  4  2  0  1 26 17  5 30 28  4 30  1
  0 32 26  2 28 22  4  2 30  1 28  0 11 25 17  8]"
10400,354,1.0,7,3,36.9310827255249,2.7795982360839844,5810,41600,307362,2552799,"[ 2  3  0  3  2  0  2  1  2  2  3  2  0  3  1  2  2  1  3  0  6  3  6  4
  2  5  4  1  9  1  2  2  0  2  7  1  4  3 10  4  4  6  3 11  1  4  7  7
  0  7 13  0 10 14  4 20 19  0 15 17  0 17 19  5 11 14  0 11  2  2 15  3
  5 23  1  5 23 22  3  0  2  2 20 20  4  2  0  3 26  1  4 23 26  0 30 26
  4 32 28  0 26  1  4 28 30  4 28 33 11 25 17  8]"
10500,354,1.0,7,3,37.20280146598816,2.717158794403076,5864,42000,309661,2569001,"[ 2  3  0  4  3  3  2  1  2  5  0  3  0  3  1  1  3  0  5  7  6  3  6  4
  0  1  4  1  6  1  2  2  0  3  7  8  5  9  2  4  4  6  3  9  6  0 11  6
  1  4 12  3  2  8  0  0 12  3 17  0  3  3 15  5 11 14  3 15 11  4 16 17
  3 27  1  5 25 18  2  2 16  0 17 20  3 23  0  3 26 25  1 33 26  0 30 24
  1 32 28  5 24 22  3 31 25  4 28  0 11 25 17  8]"
10600,354,1.0,7,3,37.47383975982666,2.7103590965270996,5920,42400,311990,2585422,"[ 2  3  0  4  2  1  2  1  2  5  1  0  0  3  1  4  3  2  2  7  6  3  6  4
  4  6  1  4  7  3  2  2  0  3  7  1  4 11  9  4  4  6  0 11  8  0 13 12
  0  4 10  5  1  6  3 18  3  3 19 12  3 16  1  3 11 14  2  3 21  1  3 20
  2 22 26  4 20 16  2  1 16  3 17 19  4  1 18  1  1 19  1 33 31  1 33 24
  3  2 28  0 24 26  1 32 29  2  2 33 11 25 17  8]"
10700,354,1.0,7,3,37.73721218109131,2.6337027549743652,5974,42800,314192,2600905,"[ 2  3  0  2  1  2  2  1  2  5  0  0  0  3  1  4  0  2  2  8  8  3  6  4
  0  6  4  4  1  5  2  2  0  2  9  8  4 14 12  4  4  6  4  4  7  1 11 13
  3  9 10  3  8  6  0 19  3  2 21 19  3 11 20  3 11 14  2 14 21  2 11 20
  4 17 26  5 27 21  2  1 16  4 18 18  3 26 18  3 18 19  1 33 22  0  0 24
  2 33 23  0 22 30  5  2 24  4  0 33 11 25 17  8]"
10800,354,1.0,7,3,37.99753475189209,2.6032042503356934,6032,43200,316378,2616244,"[ 2  3  0  2  2  1  2  1  2  1  2  0  0  3  1  3  1  3  5  7  2  3  6  4
  0  6  3  4  7  5  2  2  0  1  5  7  4  9  5  4  4  6  5 15  1  1 11  3
  2 11  3  2  8  6  5 18 10  2 13 13  3 12 18  5 11 14  3 14 11  1 21 12
  4 17 26  1 27  2  4  1 17  3 24 17  3 26 18  3 22 26  1 22 30  0 33 24
  2  1 27  0  2 26  5 25 30  4 29 32 11 25 17  8]"
10900,354,1.0,7,3,38.26675057411194,2.692129611968994,6084,43600,318574,2631710,"[ 2  3  0  4  3  0  2  1  2  0  2  0  0  3  1  2  2  2  5  2  5  3  6  4
  5  3  0  0  4  4  2  2  0  2  6  7  0  6 15  4  4  6  4  5  5  1  5  3
  0 13 10  5  8  6  5 20 10  1 13 12  1 15 14  5 11 14  5 14 11  4 11 17
  4 17  0  1 27  2  0 23 16  3 23  1  3 21 27  3 20 26  0 22 22  2 23  3
  1 22 32  5 22 32  2 25 25  0 29  1 11 25 17  8]"
11000,354,1.0,7,3,38.53821921348572,2.7146553993225098,6135,44000,320837,2647686,"[ 2  3  0  4  1  1  2  1  2  3  2  0  0  3  1  2  0  2  1  2  5  3  6  4
  2  5  8  4  4  6  2  2  0  4  8  8  4  1 13  4  4  6  4 12 14  3  6 13
  1 13  4  3  5  4  2  2 12  0 19 16  0  0 14  3 11 14  0 14 19  2 17 11
  5 24  0  4 22 23  4  1 27  1 20  1  1 25 27  5 18 24  4 33  1  2  2 22
  0 33 30  4 22 28  4 28 30  5 31 28 11 25 17  8]"
11100,354,1.0,7,3,38.81468081474304,2.764594554901123,6183,44400,323173,2664138,"[ 2  3  0  3  1  0  2  1  2  3  0  3  0  3  1  2  1  2  1  8  7  3  6  4
  1  5  1  2  4  0  2  2  0  4  8  8  4  7  4  4  4  6  4  8  9  3  9  6
  5 15  9  3  2  6  2 13  0  0 20 16  0  0  3  5 11 14  0 14 12  4 17 11
  4 24 17  1 22 23  4 21 26  1 20 21  5  0 27  4  1 24  4 33 32  2 31 29
  3 33  1  4 22 30  2 28 29  5 25 28 11 25 17  8]"
11200,354,1.0,7,3,39.087621450424194,2.7293872833251953,6232,44800,325503,2680504,"[ 2  3  0  3  3  0  2  1  2  5  0  3  0  3  1  4  1  1  1  6  0  3  6  4
  2  8  2  2  2  5  2  2  0  5  0  3  3  8  6  4  4  6  5  8 11  4  9  6
  2 15 14  3  2 12  4  1 10  1 20 10  2  0 21  5 11 14  2  2 14  4 10 21
  0 20 17  5 16 25  3 21 16  5 20 20  0  2 23  4 16 24  0 32 24  3 31 29
  3  2 30  5 33  0  0  0 28  4 32  1 11 25 17  8]"
11300,354,1.0,7,3,39.34206485748291,2.54441499710083,6297,45200,327560,2695016,"[ 2  3  0  3  3  1  2  1  2  4  2  3  0  3  1  0  2  3  2  6  0  3  6  4
  0  1  2  2  9  8  2  2  0  2  7  5  3  3  6  4  4  6  0 14  9  0  9  9
  5  7 10  3  5 13  2 14  0  0 20 10  5  0  0  5 11 14  5 15 14  5 17  3
  0 20 27  0 22 26  3 18 20  3  0 20  3  3  3  2 27 24  2 32 24  0 31 31
  3 27 31  4 33 22  0  0 33  3 30  1 11 25 17  8]"
11400,354,1.0,7,3,39.627506732940674,2.8543996810913086,6347,45600,330039,2712496,"[ 2  3  0  1  2  1  2  1  2  1  3  0  0  3  1  0  3  3  2  5  4  3  6  4
  1  5  1  3  2  9  2  2  0  1  8  2  5 13  9  4  4  6  2 14 12  4  0  2
  2 15 13  3  0 14  0 14 17  0 17 19  4 10 17  5 11 14  0 10 16  1  3 18
  2 23 27  0 22 27  5 27  0  2  2 18  5 23  3  3 17 19  1 31 25  4 31 25
  4 30 31  4  0 30  1  2  0  3 30  1 11 25 17  8]"
11500,354,1.0,7,3,39.88695001602173,2.5944113731384277,6408,46000,332158,2727562,"[ 2  3  0  5  2  1  2  1  2  1  1  0  0  3  1  3  2  3  5  7  7  3  6  4
  3  5  3  4  6  5  2  2  0  2  6  5  4  9  9  4  4  6  3  6 11  4  9  7
  2  5  9  3  0  2  0 20 17  5  3 20  1 20 17  3 11 14  0 12  1  1 21  3
  1 23 16  0 21 18  5  1 25  5  3  3  2 23  3  3 21 19  2 31 25  3 23 28
  1 30 29  0 23 30  1 28 27  3 27 32 11 25 17  8]"
11600,354,1.0,7,3,40.143858432769775,2.5690650939941406,6467,46400,334270,2742454,"[ 2  3  0  2  1  2  2  1  2  2  0  0  0  3  1  2  0  1  0  5  1  3  6  4
  0  6  8  2  9  4  2  2  0  5  6  0  2  9 13  4  4  6  3  6 11  0  2 14
  4  0  4  0 15  9  0 19 17  5  0 20  1 17 17  3 11 14  5 12  1  0 19 19
  5 23 26  4 17 18  0 20  3  0  1 25  2 21  3  2 27 23  2 26 25  0 33 32
  5 29 29  1 23 27  4 26 27  4 27 30 11 25 17  8]"
11700,354,1.0,7,3,40.421706199645996,2.778458595275879,6514,46800,336656,2759290,"[ 2  3  0  5  2  2  2  1  2  0  3  2  0  3  1  1  3  3  1  4  6  3  6  4
  1  9  0  2  7  1  2  2  0  5  0  0  5 10  4  4  4  6  3  3 11  4  6  8
  3 10 13  0  5  2  4 20 13  0  0 20  5  0 18  3 11 14  1 13  1  2  0 16
  5 23  3  5 16  3  3 20 18  0 16  1  0 27 19  3 22 20  2  0 27  0 29 25
  0 33 27  4 23 33  4 27 32  3  3 27 11 25 17  8]"
11800,354,1.0,7,3,40.689677000045776,2.6796913146972656,6565,47200,338913,2775200,"[ 2  3  0  1  0  0  2  1  2  0  0  3  0  3  1  2  3  1  0  0  5  3  6  4
  1  7  0  0  6  8  2  2  0  5  5  3  4 14  1  4  4  6  3 11  2  1  9  8
  3 10 10  2 14  4  2 20  2  0  1 15  5  0 11  3 11 14  1 20  1  2  3 16
  2 23 21  0 16 27  3 20 21  0 17  1  0 27  0  1 22 17  1 28 30  3  2  1
  0 28 27  0 29 27  1 27 27  4  0 30 11 25 17  8]"
11900,354,1.0,7,3,40.958884954452515,2.6920604705810547,6619,47600,341151,2790970,"[ 2  3  0  4  3  3  2  1  2  5  0  2  0  3  1  5  3  1  4  1  5  3  6  4
  0  7  8  1  6  4  2  2  0  4  7  9  4  2  2  4  4  6  3 14  6  4  1  5
  2  1  1  5 13 11  4 20 17  3  0 17  5 17  0  5 11 14  0  2 13  3  0 20
  2  0 25  3 16 21  3 26 18  4 23 23  5  0 18  3 25 17  1 28 27  3 31  0
  2 32 30  3 22 33  1 28 25  1 31 29 11 25 17  8]"
12000,354,1.0,7,3,41.22177743911743,2.628905773162842,6675,48000,343336,2806407,"[ 2  3  0  2  1  1  2  1  2  4  3  2  0  3  1  5  0  3  5  1  5  3  6  4
  2  3  0  0  6  7  2  2  0  1  7  9  2  9  2  4  4  6  2 12  6  0  3  5
  3  1 13  2 13 10  5  2 16  3  0 16  5 18 21  3 11 14  4 12 17  2  0 14
  2  0 25  5 16 23  5 19 27  1 23 23  5 21 18  1 26 23  1 30  0  1 31  0
  2  0 30  4 27  1  1  1 29  4 31 29 11 25 17  8]"
12100,354,1.0,7,3,41.48538565635681,2.6360630989074707,6731,48400,345550,2821943,"[ 2  3  0  4  1  3  2  1  2  1  1  2  0  3  1  2  1  2  5  1  0  3  6  4
  1  0  6  0  8  4  2  2  0  3  4  8  2 14  2  4  4  6  2  9  9  0  1  4
  4  1  9  2  7  2  0  0 20  1  0  0  5  3  0  5 11 14  0 12 16  0 11  1
  4 26  3  4 16 16  0  2  2  3 21 18  3 22 19  3 20 23  4 28 22  0 30  0
  3 23  0  5  0  1  5 32 32  4 31  3 11 25 17  8]"
12200,354,1.0,7,3,41.74480938911438,2.5942182540893555,6787,48800,347687,2837006,"[ 2  3  0  4  3  3  2  1  2  1  2  1  0  3  1  1  3  3  5  0  1  3  6  4
  0  1  8  1  5  8  2  2  0  3  4  8  4 14  2  4  4  6  2  8 10  0  2  9
  4  0  7  2  7  6  0 16 10  1  2 18  1 11 21  5 11 14  3 17 16  0 12  1
  1 23  1  3 17 22  5 20  1  1 26 26  2 18  1  2 20 24  3 28 22  2  1 28
  3 22 33  4  2 23  5 28 24  5 23  2 11 25 17  8]"
12300,354,1.0,7,3,42.016072511672974,2.7126002311706543,6840,49200,349921,2852730,"[ 2  3  0  0  2  3  2  1  2  1  3  3  0  3  1  2  0  1  4  5  6  3  6  4
  0  7  0  1  4  3  2  2  0  1  5  8  4 11  0  4  4  6  0  7 14  4  2  9
  4  5  6  2  7  6  0 19 20  5 14  1  2 11  2  3 11 14  2 18 11  1 15 17
  4 25 17  1  3 24  5 17  0  1 26 24  2 18 16  4 19 26  3 23 22  2  1 32
  0 27 33  4 26 30  2 30 24  4 31  2 11 25 17  8]"
12400,354,1.0,7,3,42.26886010169983,2.5278449058532715,6898,49600,351945,2866971,"[ 2  3  0  0  0  1  2  1  2  4  0  1  0  3  1  0  0  3  0  1  6  3  6  4
  0  1  6  0  0  8  2  2  0  3  3  2  5 12 14  4  4  6  5 10 12  3  2  0
  3  7  6  1 15  9  0 19 17  4  1 19  1  3  0  5 11 14  1 20 12  5 20 13
  5 25 20  0 23 26  5  1 20  1 26 22  2  1 16  4 22 24  0 26 22  5  1  1
  3 27 33  4 26 23  5  3 29  0 23 24 11 25 17  8]"
12500,354,1.0,7,3,42.5329225063324,2.6405978202819824,6953,50000,354145,2882461,"[ 2  3  0  0  0  1  2  1  2  0  2  1  0  3  1  1  3  3  3  0  9  3  6  4
  4  1  3  0  7  9  2  2  0  1  3  3  4 13  4  4  4  6  0 15 12  3 11  2
  4  6  0  0 15  5  3 18 16  0 12  1  1  3  0  5 11 14  5 20  2  5 20 13
  4 19 27  5 20 21  1  3  0  1  1  2  0 17 19  2  2  3  3 33 29  0 22 25
  4 31  0  1  3 23  0  2  2  1 33 24 11 25 17  8]"
12600,354,1.0,7,3,42.78846287727356,2.555382251739502,7005,50400,356251,2897253,"[ 2  3  0  4  2  1  2  1  2  5  0  2  0  3  1  1  3  2  2  0  4  3  6  4
  0  2  8  2  0  0  2  2  0  4  5  3  1 13 11  4  4  6  0 12  7  3  3  5
  1 15  1  0 15  1  3 21 16  3 15 11  4 18 11  5 11 14  5  0 19  1 20  1
  5 24 20  2  1 21  0  0 16  4 20 27  2 17 19  4  0  2  5  3 32  0 30 25
  3 23  3  1  1 25  3  3 28  4 26 27 11 25 17  8]"
12700,354,1.0,7,3,43.05789375305176,2.6942873001098633,7060,50800,358510,2913095,"[ 2  3  0  0  2  1  2  1  2  4  3  0  0  3  1  2  0  0  3  4  9  3  6  4
  1  0  9  0  4  6  2  2  0  4  7  3  0 14 14  4  4  6  1 12  8  2 14  9
  2  1  9  5  0  4  4  1 16  3  3 11  0 18 18  3 11 14  0  1 19  1 11 15
  3 24 18  2 18 21  0 26 18  4 16  0  4  0 19  2 17 24  5 30 32  0 23 32
  1  2  2  2 26 33  5  3  0  0  2 31 11 25 17  8]"
12800,354,1.0,7,3,43.32297682762146,2.6508116722106934,7115,51200,360759,2928824,"[ 2  3  0  1  2  1  2  1  2  4  1  3  0  3  1  4  3  3  3  1  7  3  6  4
  1  0  4  0  9  4  2  2  0  3  6  8  0 11 14  4  4  6  1  4  8  5 14 15
  2  1 15  3  6 10  3 11 13  3  3 16  0 18  0  3 11 14  1 17 17  3  0 21
  1 17 23  0 18 23  5 25 21  3 24  0  4  2  2  0 19 24  5 24 27  4 23 30
  3  2 28  4  0 25  3  0 24  1 29 23 11 25 17  8]"
12900,354,1.0,7,3,43.58661198616028,2.6363301277160645,7167,51600,362951,2944260,"[ 2  3  0  0  3  1  2  1  2  0  0  3  0  3  1  5  3  0  0  5  4  3  6  4
  3  4  7  5  5  9  2  2  0  0  6  6  1  0 14  4  4  6  4 10  9  5  8  3
  4  5  8  2 13 13  3 19  2  3 19 20  2 19  3  5 11 14  1 16  3  0 19 18
  3 27 22  0 20 16  0 23 21  5 25 19  4 21 16  3 19 19  5 30 33  5 30 28
  0 32  1  1  0  2  4  3 23  0  1 27 11 25 17  8]"
13000,354,1.0,7,3,43.85064935684204,2.64035701751709,7218,52000,365175,2959889,"[ 2  3  0  4  3  2  2  1  2  3  3  1  0  3  1  1  0  0  4  7  1  3  6  4
  4  6  5  3  2  2  2  2  0  5  9  4  5  2 14  4  4  6  4  7  6  5 11  7
  0  3  4  1 13  9  0 11 12  4 18  0  5 19  3  3 11 14  5 14  3  2  0  3
  3  0  0  0 20  0  5 16 23  2 23  3  5 26  0  2 25  3  0  0 29  4 30 26
  4  0 28  4 26 33  3 24 32  5 32 30 11 25 17  8]"
13100,354,1.0,7,3,44.12243366241455,2.7178215980529785,7266,52400,367493,2976187,"[ 2  3  0  4  2  1  2  1  2  0  3  2  0  3  1  1  0  1  2  7  6  3  6  4
  2  6  1  1  5  9  2  2  0  3  3  5  5  1 11  4  4  6  3 14  3  1  9  6
  4  3  0  4 13  9  1 21 13  4 18 15  1 20 12  5 11 14  2 17  3  4 12 13
  3  1  0  3 25  0  4 18 23  3 19 24  0 16  0  3 17 17  2 22 31  5 30 33
  5 28 31  0 25  3  0 28  3  1 22 27 11 25 17  8]"
13200,354,1.0,7,3,44.375751972198486,2.5331640243530273,7324,52800,369532,2990627,"[ 2  3  0  4  0  1  2  1  2  5  3  2  0  3  1  5  3  2  4  5  0  3  6  4
  1  8  7  0  4  9  2  2  0  2  1  6  5  3  9  4  4  6  3 13 12  3  9 15
  1  1  2  2  2  3  0 18  0  3 21 13  1  2 12  3 11 14  4 20 14  1 12 17
  3 27 18  3  1  0  2 25 25  5  2 24  4 16 19  4 26 26  2 26 32  2 33 27
  0 33 25  2  2 25  0 23 22  1 29 26 11 25 17  8]"
13300,354,1.0,7,3,44.65392065048218,2.781667709350586,7371,53200,371923,3007505,"[ 2  3  0  4  0  3  2  1  2  0  3  2  0  3  1  5  3  2  4  5  1  3  6  4
  0  9  4  5  4  9  2  2  0  5  5  1  1  7  9  4  4  6  4  8 15  5  9  5
  4  1  5  1  0  7  1  3  0  5 21  3  3 12 10  3 11 14  2  2  0  0 18 12
  3 24 25  2  1  0  2  3 17  4 18 24  0 16  1  1  2 17  3 26 26  2 29 27
  5 26  2  2  1 23  0 29 30  1  3  0 11 25 17  8]"
13400,354,1.0,7,3,44.92218852043152,2.68265962600708,7424,53600,374187,3023396,"[ 2  3  0  2  0  3  2  1  2  1  0  1  0  3  1  5  3  2  1  5  1  3  6  4
  5  7  6  4  4  3  2  2  0  5  8  1  5  1  2  4  4  6  2  7  8  3  9 14
  0  4 10  3  3  1  1 10 13  5 21 17  0 12  0  5 11 14  3  2  1  3 11 13
  2  3  1  4 25 22  5  2 26  0 18 24  0 27 19  1 22 19  3 26 24  0 28 22
  4 24  2  2  0 23  5 25 31  2 24 31 11 25 17  8]"
13500,354,1.0,7,3,45.18718338012695,2.6499271392822266,7481,54000,376411,3039007,"[ 2  3  0  2  3  3  2  1  2  1  3  1  0  3  1  4  3  2  5  1  1  3  6  4
  5  7  1  4  9  8  2  2  0  0  7  4  1  2 15  4  4  6  4  7  5  0  8 14
  1 12  9  0 15  8  1 18 13  1  1 18  2 16  0  5 11 14  3 13 19  4 13 13
  0 16  0  4 27  2  1 27 20  0  3 25  0  1 20  4 21 26  4 29  1  0 32 26
  5 31  1  4  0 32  4 25  0  3 25  0 11 25 17  8]"
13600,354,1.0,7,3,45.43903470039368,2.518494129180908,7537,54400,378470,3053515,"[ 2  3  0  4  3  2  2  1  2  1  0  1  0  3  1  4  2  2  5  1  1  3  6  4
  1  7  9  4  9  9  2  2  0  0  9  3  1  8 15  4  4  6  3  3  5  1  5  9
  1 12  5  5  0  3  4 10 13  4 11  0  4 11  0  3 11 14  2 18 10  4 13 19
  0 27  0  0 17  1  2  0 20  2 17 24  4 23 20  5 21 19  2 29 33  2 22 31
  3 26 32  4 26 32  0 23  0  0 25 26 11 25 17  8]"
13700,354,1.0,7,3,45.74886679649353,3.098292350769043,7592,54800,380704,3069185,"[ 2  3  0  3  3  3  2  1  2  2  0  2  0  3  1  4  2  0  3  6  3  3  6  4
  4  9  9  0  3  9  2  2  0  1  9  7  1  4  0  4  4  6  2 14 14  0 14  4
  2  7  3  3  0 11  5 10 20  1  2  0  1 17 14  3 11 14  2 21 20  2 13 11
  3 24  0  1 16 18  0 25 20  5 17 27  4  0 26  4 24  1  5  2  0  3 27 33
  3 27 29  4 26 24  0 29 22  1 32 31 11 25 17  8]"
13800,354,1.0,7,3,46.04995584487915,3.010859489440918,7644,55200,382869,3084417,"[ 2  3  0  5  2  0  2  1  2  3  0  1  0  3  1  5  3  2  4  1  3  3  6  4
  4  6  9  1  4  2  2  2  0  0  2  0  1  0  6  4  4  6  4  8  8  0  5  4
  2  8  3  0  0  2  4 10 10  2 17  0  3 20  3  5 11 14  3 19  1  5 11 19
  4  1 18  0  2 22  4 21 17  1 16 19  3 27 19  3 21 25  4 32 33  0 32  2
  4  2 23  2  3  1  2  2 29  2 26  3 11 25 17  8]"
13900,354,1.0,7,3,46.32625699043274,2.7629852294921875,7693,55600,385152,3100539,"[ 2  3  0  2  0  3  2  1  2  5  3  2  0  3  1  1  3  2  3  2  1  3  6  4
  3  4  2  3  7  2  2  2  0  5  4  3  5  3  3  4  4  6  3 11  8  3  0  4
  4  3  0  4  4  2  4 14 15  2 13 10  0  1 21  5 11 14  2 19 16  5 15 10
  4 20 19  4 22 23  5 21 26  5 24 23  4 21 22  4  3 27  1  0 22  4 32  0
  5 23 31  3  3 32  2 26 31  4 26 28 11 25 17  8]"
14000,354,1.0,7,3,46.59833836555481,2.720792293548584,7745,56000,387465,3116774,"[ 2  3  0  4  3  3  2  1  2  1  0  2  0  3  1  2  3  2  3  4  6  3  6  4
  0  4  2  4  4  4  2  2  0  3  6  8  5  6 12  4  4  6  3  3 15  5 13 14
  4  8  4  2  0 10  4 17 14  1 16 19  3 15 10  5 11 14  1 19  2  5 16 15
  2 20 25  5 27 26  1 17 24  5 20 19  5 18 27  4 16  0  5  3 30  3 23 33
  5 23  1  2 26 26  2 26 29  4 26 26 11 25 17  8]"
14100,354,1.0,7,3,46.86141395568848,2.630734443664551,7796,56400,389652,3132198,"[ 2  3  0  1  3  0  2  1  2  4  0  2  0  3  1  1  3  2  3  4  1  3  6  4
  2  8  4  1  2  8  2  2  0  4  2  3  3  1 10  4  4  6  3  5 11  1  9  3
  5  4  4  2 12  1  4  2 15  1 16  2  3 15 10  3 11 14  5 19 10  5  0 15
  3  2 25  5 27  3  2 17 24  5  1 19  3 18 16  2 25 26  5 25 27  5 32 33
  5 22  0  2 26 30  1 33 29  4 25 27 11 25 17  8]"
14200,354,1.0,7,3,47.12478280067444,2.6336669921875,7852,56800,391843,3147642,"[ 2  3  0  3  3  0  2  1  2  5  0  3  0  3  1  3  1  2  2  5  5  3  6  4
  4  8  3  1  5  7  2  2  0  1  2  3  3  1 14  4  4  6  4  5  7  3  2  3
  4  5 15  3  3 12  4 20  0  4 17  2  3 15 13  3 11 14  0  3 17  4  0 15
  4  3 21  1 27 23  4  1 24  0  1 25  1 24 24  3 19  0  5 26 26  5 28 33
  0 32  0  3 26  3  1 23 33  1 25  2 11 25 17  8]"
14300,354,1.0,7,3,47.393269300460815,2.6848459243774414,7908,57200,394152,3163845,"[ 2  3  0  5  3  1  2  1  2  1  1  2  0  3  1  0  1  2  3  3  2  3  6  4
  4  1  1  5  5  4  2  2  0  1  1  7  1  9  9  4  4  6  4 10 15  3  5  2
  4  4 13  3  1  1  4 11 19  0 15  0  0 13 11  5 11 14  0 20 20  1 16 10
  3  3 17  1 19 20  4  2 22  2 23  2  5 24 16  4 19 22  1  2  2  3 28 33
  0  3  0  4 25  0  1  2 32  1 25 24 11 25 17  8]"
14400,354,1.0,7,3,47.65489745140076,2.616262435913086,7966,57600,396330,3179116,"[ 2  3  0  1  3  3  2  1  2  2  0  2  0  3  1  1  0  0  3  3  9  3  6  4
  0  9  6  1  2  3  2  2  0  2  1  4  2  3 13  4  4  6  1  0 15  3 14  2
  2  4 13  1  1 15  4 17 10  0 20  0  3 11  0  5 11 14  3 11 18  5 19  3
  2  3 17  4  1 20  0  3 27  3 21 24  5 24 19  1 20 22  1 28  2  3 28 28
  0 33  0  4 25 25  0  2 28  5 24 27 11 25 17  8]"
14500,354,1.0,7,3,47.899495363235474,2.44596004486084,8031,58000,398285,3192847,"[ 2  3  0  3  0  3  2  1  2  1  3  2  0  3  1  3  2  1  0  1  7  3  6  4
  1  2  7  1  5  3  2  2  0  1  8  4  2  3  3  4  4  6  1  1 15  2 14  4
  2  9 14  3 11  0  0 12 10  2  0 17  3 21 17  5 11 14  3 20 15  1 21 12
  2 19 26  2  3  2  5  1 24  5 21 20  3 23 17  3 25 23  1 28  2  1 27 30
  3 32 32  0 31 32  3 31  3  5 24  3 11 25 17  8]"
14600,354,1.0,7,3,48.17177176475525,2.7227401733398438,8080,58400,400506,3208492,"[ 2  3  0  4  0  3  2  1  2  3  2  2  0  1  1  4  1  2  0  1  7  3  6  4
  3  6  5  5  5  3  2  2  0  5  3  5  0 15  3  4  4  6  0  1  3  0 15  4
  1  9  7  5 14  0  3 14 15  5  3  3  1 14  0  5 11 14  3 18 14  5 11  2
  5 19  1  1 18 22  1 27 27  0 16 24  0 26 27  0 23  2  3 24 25  3 24  1
  3 32 29  0  3 32  0 30  2  5 24 28 11 25 17 18]"
14700,354,1.0,7,3,48.420079946517944,2.483060359954834,8139,58800,402488,3222457,"[ 2  3  0  1  0  3  2  1  2  3  0  2  0  0  0  4  1  2  2  1  1  3  6  4
  1  6  5  5  0  7  2  2  0  3  3  0  4 10  3  4  4  6  0  1  3  4  6  4
  2  9  2  2 12 12  1 17 20  5 19 17  1  2 11  5 11 14  3 19 14  2 20  1
  0 26 18  4  1 22  2 26 21  3 17 16  4  1  1  4 23 16  2 33 29  0 24 31
  1 24 30  0 25 27  0  0 32  4 26 27 11 25 17 18]"
14759,355,1.0,7,2,48.57676863670349,2.6557041426836436,8174,59036,403793,3231692,"[ 2  3  0  1  0  2  2  1  2  2  0  2  1  2  2  4  1  2  3  8  1  3  6  4
  3  6  7  5  7  7  2  2  0  3  3  1  4 14  3  4  4  6  0  1  3  3 13  4
  5  5  2  0 12 14  1 17 20  5 19 21  1  2 12  3 18 14  3 16 16  5 20 16
  1 26 16  4 25 22  2 25 21  3 17 16  4  1  1  4 26  2  3  2 29  0 25 31
  3 24 31  4 26 27  3  0  1  5 26 27 11 25 17 18]"
