generation,fitness,functionality,active_nodes,longest_path,time,gen_time,nc_gens,fitness_evals,graph_evals,node_evals,genotype
0,182.0,0.53125,5,3,0.016043424606323242,16.036033630371094,0,0,0,0,"[ 2  3  3  5  2  3  2  3  3  4  2  2  5  0  5  0  5  5  4  2  0  2  2  1
  3  4  8  5  6  1  3  7  9  0  7  6  1 15  3  0 12  1  0 13 11  3 13 15
  4  0 18  2]"
100,312.0,0.9375,6,2,1.223146677017212,12.070980072021484,28,400,5521,42721,"[ 2  3  3  2  1  3  2  3  0  0  0  2  3  1  5  2  7  1  2  2  1  0  2  1
  0  8  6  5  4  1  3  5  5  5 11  6  0 15 14  4 12 15  1  1 11  2  3 11
  8  8 15 14]"
200,312.0,0.9375,6,2,1.9903538227081299,7.672033309936523,71,800,9897,69072,"[ 5  3  2  2  1  3  2  3  0  4  3  2  3  3  6  2  4  4  4  1  0  0  2  1
  0  8  8  5  2  9  3  5  5  5 11  6  2 10 11  5 12  9  4  8  0  3  1 15
  8  8 15 14]"
300,312.0,0.9375,6,2,2.763871192932129,7.735137939453125,120,1200,14173,94859,"[ 4  1  0  2  1  3  2  3  0  1  2  0  3  3  5  2  6  4  0  7  0  0  2  1
  3  1  1  1  1  3  3  5  5  5 11  6  0  8 10  3 12 15  5  3 13  3 11 14
  8  8 15 14]"
400,312.0,0.9375,6,2,3.5278666019439697,7.639889717102051,175,1600,18237,119279,"[ 5  1  0  2  1  3  2  3  0  5  2  3  3  1  5  1  7  3  4  7  0  0  2  1
  5  3  4  4 11  3  2  5  5  5 11  6  5 10  1  1  3 15  4 14 13  0  2  0
  8  8 15 14]"
500,321.0,0.96875,7,2,4.275487422943115,7.476143836975098,215,2000,22100,144969,"[ 1  3  3  2  1  3  2  3  0  0  2  3  3  3  5  1  7  6  4  0  0  0  2  1
  5  2  1  4  5  0  2  5  5  5 11  6  5 14 11  5 14  9  5  1 13  0  2  0
  8 19 15 14]"
600,321.0,0.96875,7,2,5.113029956817627,8.375368118286133,270,2400,25698,170016,"[ 3  3  1  2  1  3  2  3  0  4  1  1  3  6  0  0  7  6  0  0  7  0  2  1
  5  1  6  5  7  0  2  5  5  5 11  6  1 13  8  1 14  9  3  8  9  0  2  0
  8 19 15 14]"
700,321.0,0.96875,7,2,5.9685797691345215,8.55543851852417,323,2800,29382,195981,"[ 2  3  0  2  1  3  2  3  0  4  3  0  3  6  5  3  4  6  5  5  0  0  2  1
  0  7  3  5 11  6  2  5  5  1 10  2  1 13  8  2  8 15  0 11 10  0  2  0
  8 19 13 14]"
800,321.0,0.96875,7,2,6.895795106887817,9.27211046218872,372,3200,33140,222314,"[ 1  3  0  2  1  3  2  3  0  1  2  3  3  6  3  3  5  4  2  4  5  0  2  1
  3  8  8  5 11  6  3  5  5  2  7 11  0  2  3  5 10 15  5 10  8  0  2  0
  8 19 13 14]"
900,322.0,0.96875,6,2,7.821462392807007,9.25661325454712,424,3600,36972,248826,"[ 1  1  1  2  2  2  2  3  0  0  2  0  3  6  0  4  7  6  3  3  5  0  2  1
  3  5  0  5 11  6  2  5  5  1  4  4  0  1  3  5 10  9  0 13  8  1  2 15
  8  7 13 16]"
1000,322.0,0.96875,6,2,8.455219745635986,6.337532997131348,480,4000,40475,269927,"[ 0  3  2  5  3  0  2  3  0  0  2  0  3  6  0  1  1  1  0  7  6  0  2  1
  3 10 10  5 11  6  2  5  1  0 11  2  0  1  3  1  9 13  1  2  8  1 15 15
  8  7 13 16]"
1100,322.0,0.96875,6,2,9.170541763305664,7.153158187866211,532,4400,44206,292221,"[ 4  1  0  5  1  3  2  3  0  0  2  0  4  5  7  1  1  4  0  7  1  0  2  1
  0 10  6  5 11  6  5  5  8  0 10  8  0  1  3  2  9  2  4  0  9  2  2  2
 10  7 13 16]"
1200,323.0,0.984375,9,3,10.078608512878418,9.080593585968018,582,4800,47967,320339,"[ 5  0  0  2  1  3  2  3  0  0  3  3  3  1  7  0  2  5  3  7  6  0  2  1
  4  2  4  5 11  6  4  7  1  0  8  8  0  1  3  1 10  0  0  0  9  4  9  1
 10 18 13 16]"
1300,324.0,0.984375,8,3,10.979210615158081,9.005982875823975,627,5200,51385,348177,"[ 3  3  0  2  1  3  2  3  0  0  2  0  4  2  5  0  2  5  3  5  6  0  2  1
  5 10  0  5 11  6  4  0  6  1  7  2  0  1  3  3  9 15  0  0  9  2  9  0
 10 18 13 16]"
1400,324.0,0.984375,8,3,11.850828409194946,8.716115951538086,675,5600,54901,376109,"[ 2  1  1  2  1  3  2  3  0  1  3  0  0  1  5  0  2  5  3  0  6  0  2  1
  0  4  6  5 11  6  4  2  0  2  6  1  0  1  3  1  2 12  0  0  9  4  9 13
 10 18 13 16]"
1500,324.0,0.984375,8,3,12.81412386894226,9.632866382598877,736,6000,58231,402176,"[ 3  3  2  2  1  3  2  3  0  5  3  2  3  7  0  0  2  5  3  0  6  0  2  1
  4  4  3  5 11  6  4  1  1  2  6  4  0  1  3  5  9  8  0  0  9  4 12  8
 10 18 13 16]"
1600,324.0,0.984375,8,3,13.745919227600098,9.317913055419922,791,6400,61759,429787,"[ 2  3  2  2  1  3  2  3  0  0  1  3  2  1  5  0  2  5  3  0  6  0  2  1
  0  9  3  5 11  6  0  5  6  1 11  4  0  1  3  4  8 13  0  0  9  4 12 12
 10 18 13 16]"
1700,325.0,0.984375,8,2,14.787867546081543,10.419423580169678,842,6800,65118,456487,"[ 3  2  2  2  1  2  2  3  0  1  3  3  2  1  6  5  2  0  3  5  6  0  2  1
  1  8  4  5 11  6  1  0  9  1  3  8  0  1  3  5  8 10  0  2  9  3 12 12
 10 18 13 16]"
1730,329,1.0,9,4,15.011309385299683,7.447870572408041,857,6920,66037,463450,"[ 3  2  2  2  1  2  2  3  0  3  3  2  2  0  6  5  6  0  3  5  6  0  2  1
  5 10  4  5 11  6  1  0  7  3  8  8  0  1  3  3  8 10  0 12  0  3 11 13
 10 18 13 16]"
1800,329,1.0,9,4,15.690763473510742,9.706391607012067,896,7200,68161,482103,"[ 2  2  2  2  1  2  2  3  0  3  3  2  2  1  6  1  3  1  3  5  6  0  2  1
  3 10  4  5 11  6  1  0  7  3  8  9  0  1  3  2  8 10  0 12  0  1 11 13
 10 18 13 16]"
1900,329,1.0,9,4,16.536170482635498,8.454005718231201,950,7600,71055,507630,"[ 2  2  2  2  1  2  2  3  0  4  2  0  2  1  3  1  1  2  3  5  6  0  2  1
  5 10  4  5 11  6  4 11  7  4  5  1  0  1  3  2  8  8  0 12  0  1  0 13
 10 18 13 16]"
2000,329,1.0,9,4,17.438761711120605,9.025859832763672,998,8000,74135,534873,"[ 1  1  0  2  1  2  2  3  0  2  2  0  1  1  5  1  1  2  3  5  6  0  2  1
  5 10  7  5 11  6  5  2  8  4  5  4  0  1  3  1 13  1  0 12  0  1  1  8
 10 18 13 16]"
2100,329,1.0,9,4,18.247447729110718,8.08680772781372,1042,8400,77110,560895,"[ 2  1  0  2  1  2  2  3  0  3  0  0  0  0  4  5  3  3  3  5  6  0  2  1
  5 10  7  5 11  6  5  2  4  1  5 10  0  1  3  4 13 12  0 12  2  0 10  8
 10 18 13 16]"
2200,329,1.0,9,4,19.004010677337646,7.565586566925049,1090,8800,79936,585760,"[ 5  3  0  2  1  2  2  3  0  4  0  2  4  0  6  0  6  4  3  5  6  0  2  1
  3 10  7  5 11  6  1 11  5  1 11 10  0  1  3  4  2  3  0 12  2  5 14  9
 10 18 13 16]"
2300,329,1.0,9,4,19.684080839157104,6.800639629364014,1149,9200,82607,609423,"[ 2  3  0  2  1  2  2  3  0  4  0  2  4  7  3  5  0  4  3  5  6  0  2  1
  5 10  7  5 11  6  3 11  0  1  3  9  0  1  3  4 14 10  0 12  0  2 12 12
 10 18 13 16]"
2400,329,1.0,9,4,20.365424871444702,6.813385486602783,1201,9600,85594,635967,"[ 3  3  0  2  1  2  2  3  0  2  0  2  4  7  2  0  0  5  3  5  6  0  2  1
  5 10  7  5 11  6  3 11  5  1  3  0  0  1  3  5  9 10  0 12  2  2 12 12
 10 18 13 16]"
2500,329,1.0,9,4,21.055134773254395,6.897039413452148,1262,10000,88190,658900,"[ 3  3  0  2  1  2  2  3  0  4  0  2  1  7  6  2  5  4  3  5  6  0  2  1
  5 10  7  5 11  6  3  1  9  3  4  0  0  1  3  3  9 10  0 12  0  2 10 13
 10 18 13 16]"
2600,329,1.0,9,4,21.780606269836426,7.254676818847656,1311,10400,91288,686112,"[ 1  3  0  2  1  2  2  3  0  4  0  2  3  7  6  2  2  3  3  5  6  0  2  1
  5 10  7  5 11  6  3  5  4  4  7  4  0  1  3  2  3 11  0 12  0  1 15 10
 10 18 13 16]"
2700,329,1.0,9,4,22.465462684631348,6.8485331535339355,1358,10800,94323,712891,"[ 3  1  2  2  1  2  2  3  0  2  0  2  3  2  6  3  2  6  3  5  6  0  2  1
  5 10  7  5 11  6  1  5  3  0  9  1  0  1  3  2 11 11  0 12  2  3  3 10
 10 18 13 16]"
2800,329,1.0,9,4,23.087318897247314,6.218500137329102,1408,11200,97360,739537,"[ 4  1  1  2  1  2  2  3  0  2  0  2  3  2  0  5  2  3  3  5  6  0  2  1
  3 10  7  5 11  6  5  4  4  4 11 11  0  1  3  5 12  0  0 12  0  0  3  0
 10 18 13 16]"
2900,329,1.0,9,4,23.81973648071289,7.324130535125732,1457,11600,100375,766138,"[ 4  2  2  2  1  2  2  3  0  2  2  0  3  2  0  1  4  1  3  5  6  0  2  1
  5 10  7  5 11  6  4  2  1  0  3 11  0  1  3  2 12  9  0 12  0  0  8  9
 10 18 13 16]"
3000,329,1.0,9,4,24.625291347503662,8.055479526519775,1511,12000,103536,793782,"[ 5  2  2  2  1  2  2  3  0  4  2  0  2  7  0  1  0  7  3  5  6  0  2  1
  5 10  7  5 11  6  1 10  1  2  1 11  0  1  3  1 11  9  0 12  0  3  8  0
 10 18 13 16]"
3100,329,1.0,9,4,25.233803272247314,6.085066795349121,1557,12400,106530,820315,"[ 1  1  2  2  1  2  2  3  0  4  2  0  2  1  0  4  4  5  3  5  6  0  2  1
  3 10  7  5 11  6  2  7 10  3  7  8  0  1  3  1  0 13  0 12  2  0 11  0
 10 18 13 16]"
3200,329,1.0,9,4,25.840708017349243,6.068446636199951,1617,12800,109262,844263,"[ 1  1  1  2  1  2  2  3  0  4  2  0  2  1  6  0  0  2  3  5  6  0  2  1
  3 10  7  5 11  6  0 10 10  2  5  8  0  1  3  3  0  0  0 12  0  2 15  3
 10 18 13 16]"
3300,329,1.0,9,4,26.51627540588379,6.755611896514893,1668,13200,112527,873242,"[ 3  3  3  2  1  2  2  3  0  2  2  0  2  3  5  2  1  2  3  5  6  0  2  1
  3 10  7  5 11  6  4  9 10  2  5  0  0  1  3  5  0 15  0 12  0  5 15  3
 10 18 13 16]"
3400,329,1.0,9,4,27.213506937026978,6.972250938415527,1717,13600,115428,898879,"[ 1  2  2  2  1  2  2  3  0  4  2  0  2  5  5  0  1  2  3  5  6  0  2  1
  5 10  7  5  8  6  1  9 10  2  5 10  0  1  3  2 13 15  0  2 12  0  2 10
 10 18 13 16]"
3500,329,1.0,9,4,27.87079930305481,6.572880744934082,1753,14000,118170,923157,"[ 3  1  3  2  1  2  2  3  0  2  0  0  2  5  5  4  2  0  3  5  6  5  0  7
  5 10  7  5  8  6  3  6 11  4  2  4  0  1  3  3  9 12  0  2 12  2  2  2
 10 18 13 16]"
3600,329,1.0,9,4,28.39224123954773,5.214364528656006,1805,14400,120609,944748,"[ 2  3  2  2  1  2  2  3  0  4  0  2  3  5  5  1  1  6  3  5  6  1  0  5
  5 10  7  5  8  6  1  7 10  2  1  3  0  1  3  3  9 12  0  2 12  2  2  3
 10 18 13 16]"
3700,331,1.0,8,3,28.949044466018677,5.567989349365234,1857,14800,123167,967318,"[ 2  3  2  2  1  2  2  3  0  2  2  0  2  5  5  1  5  4  3  5  6  1  0  7
  3 10  7  5  8  6  0  7  3  2  5  0  0  1  3  5 11  8  0 12 11  2 10  3
 10 12 13 16]"
3800,331,1.0,8,3,29.48248291015625,5.334339141845703,1901,15200,125736,987719,"[ 5  1  2  2  1  2  2  3  0  2  2  0  3  5  5  1  6  3  3  5  6  0  5  0
  3  6  4  5  8  6  3  7 10  0  0 11  0  1  3  1  9  8  4 15 11  2  2 13
 10 14 13 16]"
3900,331,1.0,8,3,30.018115520477295,5.35628080368042,1954,15600,128230,1007458,"[ 5  1  1  2  1  2  2  3  0  2  2  0  3  5  5  3  5  3  3  5  6  1  2  0
  2  3  2  5  8  6  5  7 10  5  5 10  0  1  3  2  1 10  0  3 15  4  2 11
 10 14 13 16]"
4000,331,1.0,8,3,30.624793529510498,6.066737174987793,1998,16000,130951,1028937,"[ 0  2  1  2  1  2  2  3  0  2  2  0  2  5  5  3  1  3  3  5  6  1  1  7
  4  0  2  5  8  6  3  7 10  5  5 10  0  1  3  0 10 10  0  0  0  5 13  3
 10 14 13 16]"
4100,331,1.0,8,3,31.147287845611572,5.224885940551758,2050,16400,133329,1047736,"[ 4  0  2  2  1  2  2  3  0  2  2  0  3  5  5  1  7  4  3  5  6  5  7  7
  1  0 11  5  8  6  5  7 10  2 10  0  0  1  3  1 10 10  3 13  2  3 12 11
 10 14 13 16]"
4200,331,1.0,8,3,31.643261909484863,4.959695339202881,2104,16800,135778,1067191,"[ 4  0  2  2  1  2  2  3  0  2  2  0  2  5  5  1  3  3  3  5  6  2  2  0
  3  0  5  5  8  6  3  7 10  0  7  0  0  1  3  3 15 10  2 11  2  2  3  8
 10 14 13 16]"
4300,331,1.0,8,3,32.23767304420471,5.944046974182129,2148,17200,138454,1088381,"[ 2  0  2  2  1  2  2  3  0  0  2  1  2  5  5  0  6  1  3  5  6  2  2  0
  5 10  7  5  8  6  5  4 10  5  8  9  0  1  3  2  1 10  1  8  2  0 11  0
 10 14 13 16]"
4400,331,1.0,8,3,32.93781590461731,7.001371383666992,2197,17600,140817,1107094,"[ 2  0  1  2  1  2  2  3  0  5  2  1  3  5  5  2  7  1  3  5  6  2  2  0
  0  5  6  5  8  6  3 11 10  4  9  6  0  1  3  2 13 10  2 12  2  0 11  0
 10 14 13 16]"
4500,331,1.0,8,3,33.544132232666016,6.063125133514404,2254,18000,143240,1126269,"[ 5  2  1  2  1  2  2  3  0  2  2  3  2  5  5  2  6  3  3  5  6  2  2  0
  0  7  6  5  8  6  3 11 10  5 10  9  0  1  3  2 12  8  5  2 12  4 10 11
 10 14 13 16]"
4600,331,1.0,8,3,34.15106439590454,6.069250106811523,2307,18400,145754,1146170,"[ 5  2  1  2  1  2  2  3  0  3  2  1  3  5  5  4  5  3  3  5  6  2  2  0
  3  4 10  5  8  6  5 11 10  5  1  9  0  1  3  3 12 12  0 15  0  2 13  0
 10 14 13 16]"
4700,331,1.0,8,3,34.668418884277344,5.173492431640625,2360,18800,148170,1165272,"[ 5  1  3  2  1  2  2  3  0  2  1  1  3  5  5  3  4  0  3  5  6  2  2  0
  3  8 10  5  8  6  5 11 10  4  0  9  0  1  3  4 15 13  2  9  2  2 10  0
 10 14 13 16]"
4800,331,1.0,8,3,35.291133880615234,6.227116584777832,2416,19200,150520,1183936,"[ 5  2  0  2  1  2  2  3  0  4  1  1  2  5  5  4  4  7  3  5  6  2  2  0
  3  0  1  5  8  6  3 11 10  4  0  3  0  1  3  0 15  0  5  1  2  1 15 10
 10 14 13 16]"
4900,331,1.0,8,3,35.87477493286133,5.836355686187744,2464,19600,153017,1203835,"[ 0  2  2  2  1  2  2  3  0  4  0  1  3  5  5  4  3  4  3  5  6  2  2  0
  0  0  6  5  8  6  5 11 10  5  4  0  0  1  3  1 10 11  4  0 15  5 10 13
 10 14 13 16]"
5000,331,1.0,8,3,36.342079401016235,4.673006534576416,2519,20000,155289,1221864,"[ 1  0  3  2  1  2  2  3  0  4  1  1  2  5  5  4  3  3  3  5  6  2  2  0
  0  0  4  5  8  6  5 11 10  5 10  5  0  1  3  1 13 12  3 12 10  0  0 13
 10 14 13 16]"
5100,331,1.0,8,3,36.78394818305969,4.41864013671875,2572,20400,157545,1239766,"[ 1  0  3  2  1  2  2  3  0  3  0  3  3  5  5  1  0  0  3  5  6  2  2  0
  1  1  4  5  8  6  5 11 10  1  2  5  0  1  3  1  9 11  3  9  1  5 12 13
 10 14 13 16]"
5200,331,1.0,8,3,37.28613328933716,5.02180814743042,2629,20800,159866,1258170,"[ 1  3  3  2  1  2  2  3  0  0  1  0  2  5  5  3  1  0  3  5  6  2  2  0
  2  7  7  5  8  6  3 11 10  0  8  6  0  1  3  1  9  3  3  9 11  5  3 14
 10 14 13 16]"
5300,331,1.0,8,3,37.86434602737427,5.782065391540527,2685,21200,162077,1275559,"[ 1  3  0  2  1  2  2  3  0  0  3  0  3  5  5  0  3  0  3  5  6  2  2  0
  3  6  7  5  8  6  3 11 10  5 10  1  0  1  3  4 14 15  4 14  8  2  9 14
 10 14 13 16]"
5400,331,1.0,8,3,38.55192708969116,6.875755786895752,2730,21600,164480,1294580,"[ 1  3  1  2  1  2  2  3  0  1  1  1  2  5  5  5  7  0  3  5  6  2  2  0
  0  1  6  5  8  6  3 11 10  4  4  1  0  1  3  3  0 13  4 14  0  3 10  9
 10 14 13 16]"
5500,331,1.0,8,3,39.234878063201904,6.8294548988342285,2778,22000,166908,1313688,"[ 3  3  3  2  1  2  2  3  0  2  1  0  3  5  5  5  6  0  3  5  6  2  2  0
  2  5  5  5  8  6  5 11 10  3  2  6  0  1  3  3  1  8  3  9 12  3  8  2
 10 14 13 16]"
5600,331,1.0,8,3,39.970792293548584,7.3590898513793945,2837,22400,169249,1332120,"[ 4  0  3  2  1  2  2  3  0  2  1  2  2  5  5  0  3  0  3  5  6  2  2  0
  3  3  1  5  8  6  3 11 10  0  2  6  0  1  3  5  1 11  4 10 14  3  8  2
 10 14 13 16]"
5700,331,1.0,8,3,40.671701192855835,7.009027004241943,2891,22800,171450,1349576,"[ 4  0  2  2  1  2  2  3  0  2  1  0  2  5  5  1  3  6  3  5  6  2  2  0
  3 11  1  5  8  6  3 11 10  1 11  0  0  1  3  4  9  8  4 14  3  3 11  2
 10 14 13 16]"
5800,331,1.0,8,3,41.23270797729492,5.610010623931885,2945,23200,173714,1367477,"[ 0  1  1  2  1  2  2  3  0  2  2  2  3  5  5  1  3  3  3  5  6  2  2  0
  3  1 11  5  8  6  5 11 10  4  7  2  0  1  3  4  1  8  0 14 14  5 14  2
 10 14 13 16]"
5900,331,1.0,8,3,41.72537875175476,4.92666482925415,2996,23600,176073,1386133,"[ 4  0  0  2  1  2  2  3  0  0  1  0  2  5  5  3  4  5  3  5  6  2  2  0
  1  2  1  5  8  6  3 11 10  4  7  8  0  1  3  5  1  8  3  1  9  0  2  2
 10 14 13 16]"
6000,331,1.0,8,3,42.247885942459106,5.225026607513428,3043,24000,178490,1405267,"[ 2  3  2  2  1  2  2  3  0  3  1  0  2  5  5  2  1  0  3  5  6  2  2  0
  1  7  1  5  8  6  3 11 10  4  8  2  0  1  3  5  1 15  3 14  9  1 11 15
 10 14 13 16]"
6100,331,1.0,8,3,42.83981466293335,5.919246673583984,3093,24400,180873,1424059,"[ 1  3  2  2  1  2  2  3  0  0  1  3  2  5  5  4  6  0  3  5  6  2  2  0
  5  2  1  5  8  6  5 11 10  5  4  2  0  1  3  1 11  0  1 14  1  4 12  2
 10 14 13 16]"
6200,331,1.0,8,3,43.42186141014099,5.82040548324585,3144,24800,183313,1443352,"[ 1  3  0  2  1  2  2  3  0  0  1  3  2  5  5  3  6  1  3  5  6  2  2  0
  0 11 10  5  8  6  5 11 10  0 11  5  1 15  9  2 11  3  1  2  1  0 12  2
 10 14 13  7]"
6300,331,1.0,8,3,44.057549715042114,6.356842517852783,3193,25200,185879,1463634,"[ 0  3  1  2  1  2  2  3  0  0  1  3  2  5  5  5  0  3  3  5  6  2  2  0
  5  6  2  5  8  6  3 11 10  0  1  7  1 11  9  2  8 12  4  2 12  3  9 13
 10 14 13  7]"
6400,331,1.0,8,3,44.59852719306946,5.409708023071289,3245,25600,188317,1482946,"[ 1  3  0  2  1  2  2  3  0  0  1  3  3  5  5  4  0  1  3  5  6  2  2  0
  4  6  3  5  8  6  5 11 10  5 11  2  1  2 14  2  9 12  4 13 12  5  9 11
 10 14 13  7]"
6500,331,1.0,8,3,45.22293543815613,6.24401330947876,3287,26000,190928,1503601,"[ 3  3  0  2  1  2  2  3  0  0  1  3  3  5  5  4  7  2  3  5  6  2  2  0
  1  1  1  5  8  6  3 11 10  3 11  0  2 13 11  4 13  0  1 13 14  2  8 11
 10 14 13  7]"
6600,331,1.0,8,3,45.875338315963745,6.5239691734313965,3339,26400,193449,1523501,"[ 3  0  3  2  1  2  2  3  0  0  1  3  2  5  5  0  6  0  3  5  6  2  2  0
  4  2  2  5  8  6  3 11  7  1  3  0  4 13  0  3  0  3  2 13 12  1  2 11
 10 14 13  7]"
6700,331,1.0,8,3,46.50774908065796,6.324069499969482,3393,26800,195999,1543655,"[ 2  3  3  2  1  2  2  3  0  0  1  3  2  5  5  4  2  2  3  5  6  2  2  0
  2 10  4  5  8  6  3 11  7  4  9 11  1 12  1  3  9  2  1 13  3  1  3  9
 10 14 13  7]"
6800,331,1.0,8,3,47.289169788360596,7.8141093254089355,3443,27200,198722,1565278,"[ 2  2  0  2  1  2  2  3  0  0  1  3  3  5  5  5  1  6  3  5  6  2  2  0
  2  8  4  5  8  6  3 11  7  1 10  5  0  2  8  2  8 12  3 13  9  2  2  1
 10 14 13  7]"
6900,331,1.0,8,3,47.9259307384491,6.367537975311279,3494,27600,201288,1585593,"[ 2  2  3  2  1  2  2  3  0  0  1  3  2  5  5  3  1  1  3  5  6  2  2  0
  4  4  4  5  8  6  3 11  7  3  3  3  5  0  1  2  8  9  0 11 13  2 14  8
 10 14 13  7]"
7000,331,1.0,8,3,48.648356199264526,7.2242021560668945,3541,28000,203867,1605946,"[ 0  3  1  2  1  2  2  3  0  0  1  3  2  5  5  3  5  1  3  5  6  2  2  0
  0  2  2  5  8  6  3 11  7  5  8  3  1  2  1  1  2 15  1  2 13  3 12  9
 10 14 13  7]"
7100,331,1.0,8,3,49.329193353652954,6.808314323425293,3594,28400,206450,1626403,"[ 5  1  2  2  1  2  2  3  0  0  1  3  3  5  5  4  6  4  3  5  6  2  2  0
  3  9  4  5  8  6  3 11 10  3  8 10  2  3  9  1 15 15  1  2  3  2  9  3
 10 14 13  7]"
7200,331,1.0,8,3,49.883894205093384,5.5469512939453125,3643,28800,209023,1646754,"[ 3  3  0  2  1  2  2  3  0  0  1  3  3  5  5  4  2  7  3  5  6  2  2  0
  5  6  6  5  8  6  5 11 10  4  7  5  3 13  9  2  0  3  1  2  3  3  3 13
 10 14 13  7]"
7300,331,1.0,8,3,50.50118374824524,6.172852516174316,3691,29200,211557,1666779,"[ 4  3  0  2  1  2  2  3  0  0  1  3  2  5  5  4  3  7  3  5  6  2  2  0
  0  6 11  5  8  6  3 11 10  1  3  9  2 15  0  2  3  9  5  0  1  3  3  0
 10 14 13  7]"
7400,331,1.0,8,3,51.010239362716675,5.090494155883789,3734,29600,214193,1687646,"[ 4  0  0  2  1  2  2  3  0  0  1  3  3  5  5  5  4  2  3  5  6  2  2  0
  3  0  5  5  8  6  3 11  7  1  1 11  5  0  1  0  3 12  3  9  0  0  2 14
 10 14 13  7]"
7500,331,1.0,8,3,51.57610583305359,5.658614635467529,3780,30000,216829,1708573,"[ 2  0  2  2  1  2  2  3  0  0  1  3  3  5  5  3  5  2  3  5  6  2  2  0
  3 11  6  5  8  6  3 11  7  4  3  9  5 12 12  4  3 10  5 10 11  0 15 14
 10 14 13  7]"
7600,331,1.0,8,3,52.08734917640686,5.1123833656311035,3827,30400,219373,1728641,"[ 0  3  2  2  1  2  2  3  0  0  1  3  3  5  5  3  5  0  3  5  6  2  2  0
  3 11  6  5  8  6  3 11 10  4  7  7  5  0  9  4 15 10  2  0 10  4 15 13
 10 14 13  7]"
7700,331,1.0,8,3,52.650339126586914,5.629847049713135,3876,30800,222024,1749670,"[ 3  2  2  2  1  2  2  3  0  0  1  3  2  5  5  3  5  6  2  1  5  2  2  0
  5 11  7  5  8  6  5 11  9  3  9  0  1 13  1  0  9 14  4 10  9  5  9 13
  9 14 13  7]"
7800,331,1.0,8,3,53.196609020233154,5.462467670440674,3922,31200,224517,1769421,"[ 0  2  0  2  1  2  2  3  0  0  1  3  2  5  5  3  5  6  5  4  0  2  2  0
  0 10  6  5  8  6  3 11  9  0  9  6  4 10  9  2 14  3  4 11 12  3  2 14
  9 14 13  7]"
7900,331,1.0,8,3,53.73571443557739,5.3910136222839355,3970,31600,227162,1790305,"[ 0  3  1  2  1  2  2  3  0  0  1  2  3  5  5  3  5  6  5  0  0  2  2  0
  4 11  7  5  8  6  5 11  9  0  6  5  5 10 11  4 14  1  0 11  3  2  1 14
  9 14 13  4]"
8000,331,1.0,8,3,54.338706493377686,6.029853820800781,4022,32000,229589,1809507,"[ 0  3  1  2  1  2  2  3  0  2  2  3  3  5  5  3  5  6  5  5  7  2  2  0
  1  9  6  5  8  6  3 11  9  4  9  1  4  1 11  5  8  9  5 13  8  4 13 14
  9 14 13  4]"
8100,331,1.0,8,3,55.054752826690674,7.1604084968566895,4068,32400,232444,1832219,"[ 0  3  1  2  1  2  2  3  0  4  0  3  2  5  5  3  5  6  1  5  1  2  2  0
  2  3  6  5  8  6  3 11  4  4  9  1  0  0 10  1  1 14  0  8 14  5  0 14
  9 14 13  4]"
8200,332,1.0,8,2,55.59252214431763,5.377647876739502,4116,32800,235094,1853162,"[ 0  3  1  2  1  2  2  3  0  4  0  3  2  5  5  3  5  6  0  1  2  2  2  0
  2 10  9  5 10  6  3 11  4  2  9  1  4  1  1  3  8  9  5  1  1  0  1  3
  9 14 13  4]"
8300,332,1.0,8,2,56.124950647354126,5.324208736419678,4167,33200,237690,1873525,"[ 0  3  1  2  1  2  2  3  0  2  2  3  4  1  6  3  5  6  0  1  2  2  2  0
  2  5  9  5 10  6  3 11  4  2  2  3  5 14  1  5  1 14  5 15 13  1  1  3
  9 14 13  4]"
8400,332,1.0,8,2,56.621262311935425,4.963066577911377,4221,33600,240102,1892465,"[ 0  3  1  2  1  2  2  3  0  2  1  3  3  2  4  3  5  6  0  1  2  2  2  0
  2  0  1  5 10  6  3 11  4  3  0  9  5 13  1  4 13 13  3 15  1  0  9 14
  9 14 13  4]"
8500,332,1.0,8,2,57.0916805267334,4.704122543334961,4277,34000,242685,1912691,"[ 0  3  1  2  1  2  2  3  0  3  1  3  2  2  4  3  5  6  0  1  2  2  2  0
  2  7  1  5 10  6  3 11  4  4  7  9  5 12 12  5  1  3  3 11  1  0 10 11
  9 14 13  4]"
8600,332,1.0,8,2,57.62998604774475,5.383014678955078,4326,34400,245436,1934262,"[ 0  3  1  2  1  2  2  3  0  3  1  0  3  2  0  3  5  6  0  1  2  2  2  0
  2  7  0  5 10  6  3 11  4  1  8  3  5 15 14  0  3 13  3 11 13  3 11 11
  9 14 13  4]"
8700,332,1.0,8,2,58.14659309387207,5.166010856628418,4380,34800,248157,1955620,"[ 0  3  1  2  1  2  2  3  0  3  2  0  3  0  0  3  5  6  0  1  2  2  2  0
  0  7 11  5 10  6  3 11  4  4  8  3  5 13 14  0  3 13  1 11 13  5 11 12
  9 14 13  4]"
8800,332,1.0,8,2,58.76225972175598,6.156604290008545,4431,35200,250799,1976397,"[ 0  3  1  2  1  2  2  3  0  4  3  3  3  0  0  3  5  6  0  1  2  2  2  0
  5 11  1  5 10  6  3 11  4  5  1  3  0  3  9  2 14 14  0 12 13  5 11 15
  9 14 13  4]"
8900,332,1.0,8,2,59.37503099441528,6.12767219543457,4484,35600,253497,1997564,"[ 0  3  1  2  1  2  2  3  0  1  3  1  5  0  0  3  5  6  0  1  2  2  2  0
  3  6  6  5 10  6  3 11  4  5  7  3  4 11  8  0  1 14  0  0  1  4 10  1
  9 14 13  4]"
9000,332,1.0,8,2,59.91390657424927,5.38870096206665,4535,36000,256356,2020000,"[ 0  3  1  2  1  2  2  3  0  4  3  2  2  1  3  3  5  6  0  1  2  2  2  0
  5  3  4  5 10  6  3 11  4  5 11  9  1 13 13  5  1 14  1 12 13  2 10  1
  9 14 13  4]"
9100,332,1.0,8,2,60.52411866188049,6.1020588874816895,4585,36400,259067,2041284,"[ 0  3  1  2  1  2  2  3  0  3  1  0  0  1  1  3  5  6  0  1  2  2  2  0
  5  3 11  5 10  6  3 11  4  2  8  2  1  0 13  2 11 14  5  9  8  4 13 15
  9 14 13  4]"
9200,332,1.0,8,2,61.08937048912048,5.652472972869873,4632,36800,261956,2063925,"[ 0  3  1  2  1  2  2  3  0  0  3  3  0  0  2  3  5  6  0  1  2  2  2  0
  4 11  1  5 10  6  3 11  4  5  6  7  0  3 11  4 11  8  1  3  0  4 12 10
  9 14 13  4]"
9300,332,1.0,8,2,61.531938791275024,4.425618648529053,4690,37200,264472,2083587,"[ 0  3  1  2  1  2  2  3  0  0  2  3  2  0  2  3  5  6  0  1  2  4  5  0
  3  2  1  5 10  6  3  8  4  1  6 10  2 11 14  4  9  3  5  2  8  3 13 10
  9 14 13  4]"
9400,332,1.0,8,2,62.07554912567139,5.436053276062012,4741,37600,267077,2103977,"[ 0  3  1  2  1  2  2  3  0  1  3  0  2  0  2  3  5  6  0  1  2  1  6  2
  0  9  6  5 10  6  3  8  4  5  8  6  2 15  3  5 14 11  5 14  1  0  2  9
  9 14 13  4]"
9500,332,1.0,8,2,62.63233804702759,5.5678534507751465,4805,38000,269732,2124717,"[ 0  3  1  2  1  2  2  3  0  0  1  3  2  0  2  3  5  6  0  1  2  3  3  5
  0  9  6  5 10  6  3  8  4  3 11  5  4  0 12  3  2 14  2 12  1  0 15  8
  9 14 13  4]"
9600,332,1.0,8,2,63.250422954559326,6.180787086486816,4867,38400,272134,2143472,"[ 0  3  1  2  1  2  2  3  0  3  1  0  2  0  2  3  5  6  0  1  2  2  6  3
  1  9  6  5 10  6  3  8  4  0  9  5  4 11  3  0  2  8  5  8 13  5  9 13
  9 14 13  4]"
9700,332,1.0,8,2,63.93304991722107,6.826202869415283,4913,38800,274897,2165248,"[ 0  3  1  2  1  2  2  3  0  3  1  0  2  0  2  3  5  6  0  1  2  2  2  0
  3  9  0  5 10  6  3  8  4  2  9  3  5 10 12  2 10  1  5 12 14  4  8  9
  9 14 13  4]"
9800,332,1.0,8,2,64.57698392868042,6.439304351806641,4970,39200,277503,2185616,"[ 0  3  1  2  1  2  2  3  0  5  3  0  2  0  2  3  5  6  0  1  2  5  3  0
  1  2  9  5 10  6  3  8  4  0  3  8  5  9  8  0  8 13  3 11 14  4 12  3
  9 14 13  4]"
9900,332,1.0,8,2,65.14814043045044,5.711495876312256,5022,39600,280188,2206549,"[ 0  3  1  2  1  2  2  3  0  5  0  3  2  0  2  3  5  6  0  1  2  5  0  6
  1  2  1  5 10  6  3  8  4  0  1  0  5 15 14  0  1 14  3 15  8  4 12  3
  9 14 13  4]"
10000,332,1.0,8,2,65.70024633407593,5.5210185050964355,5073,40000,282826,2227107,"[ 0  3  1  2  1  2  2  3  0  5  0  3  2  0  2  3  5  6  0  1  2  3  6  6
  4  2  6  5 10  6  3  8  4  4  1  3  3 14 13  5  2 10  2  2  9  4  3  3
  9 14 13  4]"
10100,332,1.0,8,2,66.26590180397034,5.6565117835998535,5130,40400,285335,2246748,"[ 0  3  1  2  1  2  2  3  0  5  0  1  2  0  2  3  5  6  0  1  2  0  1  1
  0  9  6  5 10  6  3  8  4  4  1  4  3 14  9  5  2  2  1  2  9  4  2 12
  9 14 13  4]"
10200,332,1.0,8,2,66.83670473098755,5.707972049713135,5186,40800,287954,2267282,"[ 0  3  1  2  1  2  2  3  0  5  2  3  2  0  2  3  5  6  0  1  2  0  1  7
  4 11  6  5 10  6  3  8  4  3  1  0  4 13  9  1 12  2  0  2  1  1  3  8
  9 14 13  4]"
10300,332,1.0,8,2,67.38099646568298,5.4428791999816895,5232,41200,290925,2290726,"[ 0  3  1  2  1  2  2  3  0  3  2  1  2  0  2  3  5  6  0  1  2  2  1  6
  4  9  3  5 10  6  3  8  4  3  1  2  4  0  0  1 11 14  5  2  1  1  8  0
  9 14 13  4]"
10400,332,1.0,8,2,67.82602453231812,4.450242519378662,5293,41600,293473,2310569,"[ 0  3  1  2  1  2  2  3  0  4  2  0  2  0  2  3  5  6  0  1  2  3  1  6
  0  9  6  5 10  6  3  8  4  5  1 11  0 15  0  5 11 14  4 10 11  2 14  0
  9 14 13  4]"
10500,332,1.0,8,2,68.31178045272827,4.857518672943115,5347,42000,296176,2331809,"[ 0  3  1  2  1  2  2  3  0  2  2  2  2  0  2  3  5  6  0  1  2  1  2  7
  0 10  6  5 10  6  3  8  4  0 11  5  0 15  3  5 13 15  2  8 12  5 14 12
  9 14 13  4]"
10600,332,1.0,8,2,68.85176396369934,5.399777889251709,5399,42400,298767,2352211,"[ 0  3  1  2  1  2  2  3  0  2  2  1  2  0  2  3  5  6  0  1  2  3  3  7
  5  0 11  5 10  6  3  8  4  0 11  4  0  0  0  1  2  8  0  8  3  2 14  3
  9 14 13  4]"
10700,332,1.0,8,2,69.41323399543762,5.614659786224365,5460,42800,301310,2372183,"[ 0  3  1  2  1  2  2  3  0  1  1  2  2  0  2  3  5  6  0  1  2  1  6  1
  2  2  9  5 10  6  3  8  4  0  2  4  1  2 15  4 12  8  0  8  0  1 14 10
  9 14 13  4]"
10800,332,1.0,8,2,69.98669052124023,5.734517574310303,5512,43200,303973,2393131,"[ 0  3  1  2  1  2  2  3  0  1  0  2  2  0  2  3  5  6  0  1  2  4  6  4
  1  6 11  5 10  6  3  8  4  0  2  3  1  2 15  4 14 15  0  3  2  5  9  3
  9 14 13  4]"
10900,332,1.0,8,2,70.61744523048401,6.307487487792969,5562,43600,306818,2415354,"[ 0  3  1  2  1  2  2  3  0  3  2  3  2  0  2  3  5  6  0  1  2  0  6  4
  3  6  7  5 10  6  3  8  4  3  2  1  3 14 12  4  8 11  5  9 10  3 11 10
  9 14 13  4]"
11000,332,1.0,8,2,71.15247964859009,5.350289344787598,5612,44000,309383,2435477,"[ 0  3  1  2  1  2  2  3  0  3  0  0  2  0  2  3  5  6  0  1  2  4  3  4
  5  2  4  5 10  6  3  8  4  3  6  0  2  8 12  4 14 11  2  9 13  5 11  1
  9 14 13  4]"
11100,332,1.0,8,2,71.786696434021,6.342105865478516,5659,44400,312178,2457386,"[ 0  3  1  2  1  2  2  3  0  4  3  0  2  0  2  3  5  6  0  1  2  5  6  5
  2  2  2  5 10  6  3  8  4  2  8  7  1 13 12  0  2 11  1 11  0  4 11 12
  9 14 13  4]"
11200,332,1.0,8,2,72.42720365524292,6.405029296875,5706,44800,314902,2478773,"[ 0  3  1  2  1  2  2  3  0  5  0  1  2  0  2  3  5  6  0  1  2  5  1  0
  1  2  4  5 10  6  3  8  4  1 10  7  1 11  1  2 11 11  1 11  3  4 11  9
  9 14 13  4]"
11300,332,1.0,8,2,73.09970092773438,6.724910736083984,5764,45200,317441,2498733,"[ 0  3  1  2  1  2  2  3  0  5  3  1  2  0  2  3  5  6  0  1  2  4  4  0
  3  2  4  5 10  6  3  8  4  1  7  0  3  8 15  1  2 11  1 14 14  3 14  9
  9 14 13  4]"
11400,332,1.0,8,2,73.7113823890686,6.11675500869751,5824,45600,319964,2518476,"[ 0  3  1  2  1  2  2  3  0  3  2  1  2  0  2  3  5  6  0  1  2  4  5  1
  3  2 10  5 10  6  3  8  4  5  7 10  2  8  8  0  0  8  1 13 14  2  1  8
  9 14 13  4]"
11500,332,1.0,8,2,74.2896888256073,5.7830071449279785,5876,46000,322544,2538753,"[ 0  3  1  2  1  2  2  3  0  2  1  3  2  0  2  3  5  6  0  1  2  4  7  2
  2  0 10  5 10  6  3  8  4  4  7  8  2  8 14  0  0  8  1 13 14  5  3  3
  9 14 13  4]"
11600,332,1.0,8,2,74.86626172065735,5.765683650970459,5922,46400,325481,2561859,"[ 0  3  1  2  1  2  2  3  0  3  1  3  2  0  2  3  5  6  0  1  2  0  6  2
  4  9  9  5 10  6  3  8  4  4  2  1  1 14  2  3  8  8  2 11 14  4  9  3
  9 14 13  4]"
11700,332,1.0,8,2,75.38495373725891,5.186872482299805,5977,46800,328038,2581941,"[ 0  3  1  2  1  2  2  3  0  2  1  2  2  0  2  3  5  6  0  1  2  3  5  2
  2  9  4  5 10  6  3  8  4  3  5  9  1 13 11  0  8 13  2 11  2  0 13 10
  9 14 13  4]"
11800,332,1.0,8,2,75.969646692276,5.846874713897705,6031,47200,330705,2602943,"[ 0  3  1  2  1  2  2  3  0  2  0  1  2  0  2  3  5  6  0  1  2  0  7  2
  1  8  4  5 10  6  3  8  4  1  5  7  1 12  3  5  8 15  2 10  1  3 14 15
  9 14 13  4]"
11900,332,1.0,8,2,76.55583500862122,5.861842632293701,6083,47600,333174,2622319,"[ 0  3  1  2  1  2  2  3  0  4  1  2  2  0  2  3  5  6  0  1  2  4  3  7
  4 10  9  5 10  6  3  8  4  2  8  3  4 12  3  2 12 15  2  0  2  3  0 15
  9 14 13  4]"
12000,332,1.0,8,2,77.08194184303284,5.261023044586182,6143,48000,335816,2642893,"[ 0  3  1  2  1  2  2  3  0  5  1  2  2  0  2  3  5  6  0  1  2  3  1  7
  2  9  9  5 10  6  3  8  4  5  8  3  1  8 11  2 15 11  2  0  9  3  1 15
  9 14 13  4]"
12100,332,1.0,8,2,77.56565928459167,4.837133884429932,6198,48400,338239,2661856,"[ 0  3  1  2  1  2  2  3  0  3  0  2  2  0  2  3  5  6  0  1  2  3  4  2
  2  1  7  5 10  6  3  8  4  3 11  3  1  1 12  2 10  8  2 10 11  0 12  9
  9 14 13  4]"
12200,332,1.0,8,2,78.09645056724548,5.3078532218933105,6250,48800,340888,2682606,"[ 0  3  1  2  1  2  2  3  0  3  2  1  2  0  2  3  5  6  0  1  2  2  1  7
  4  1  7  5 10  6  3  8  4  3  3  3  2 13 12  2 11  9  4  3 11  3 15  0
  9 14 13  4]"
12300,332,1.0,8,2,78.68647956848145,5.900225639343262,6300,49200,343653,2704351,"[ 0  3  1  2  1  2  2  3  0  3  3  1  2  0  2  3  5  6  0  1  2  1  6  5
  1  1  9  5 10  6  3  8  4  5 11  5  2 10 12  2 15 12  5 15  8  2 11  3
  9 14 13  4]"
12400,332,1.0,8,2,79.33672666549683,6.502406597137451,6348,49600,346356,2725531,"[ 0  3  1  2  1  2  2  3  0  3  3  1  2  0  2  3  5  6  0  1  2  4  2  3
  5  1  4  5 10  6  3  8  4  3 11  2  0  1 14  1  2 10  5 15  0  0  0 14
  9 14 13  4]"
12500,332,1.0,8,2,79.87587332725525,5.391426086425781,6399,50000,349048,2746689,"[ 0  3  1  2  1  2  2  3  0  3  2  3  2  0  2  3  5  6  0  1  2  5  0  3
  3  6  4  5 10  6  3  8  4  5  1  8  4 11 14  3  0  0  1 14  9  0 14 14
  9 14 13  4]"
12600,332,1.0,8,2,80.54624938964844,6.7037129402160645,6460,50400,351606,2766750,"[ 0  3  1  2  1  2  2  3  0  3  2  3  2  0  2  3  5  6  0  1  2  4  3  3
  0  6  9  5 10  6  3  8  4  5  1  1  2 13 11  3  8  9  1  2  9  1 14 14
  9 14 13  4]"
12700,332,1.0,8,2,81.0972261428833,5.509698390960693,6512,50800,354242,2787297,"[ 0  3  1  2  1  2  2  3  0  4  3  1  2  0  2  3  5  6  0  1  2  4  0  3
  1  5 10  5 10  6  3  8  4  4  1  8  4  3 15  2  8  9  4  2  9  5 11 10
  9 14 13  4]"
12800,332,1.0,8,2,81.69536137580872,5.981307029724121,6564,51200,356868,2807923,"[ 0  3  1  2  1  2  2  3  0  4  0  3  2  0  2  3  5  6  0  1  2  4  0  4
  5  5  7  5 10  6  3  8  4  5  1  8  0  8  3  0  2  9  3  2  9  5 15  0
  9 14 13  4]"
12900,332,1.0,8,2,82.21384406089783,5.184757709503174,6618,51600,359375,2827542,"[ 0  3  1  2  1  2  2  3  0  0  0  3  2  0  2  3  5  6  0  1  2  4  6  7
  3  8  6  5 10  6  3  8  4  3  1  1  2 10  8  0  8 10  3  2  3  0 10  0
  9 14 13  4]"
13000,332,1.0,8,2,82.75343108177185,5.395829677581787,6674,52000,361690,2845722,"[ 0  3  1  2  1  2  2  3  0  1  2  3  2  0  2  3  5  6  0  1  2  1  1  1
  1  2  5  5 10  6  3  8  4  3 10  6  5  0  0  0  8 10  3  2  2  2  9  0
  9 14 13  4]"
13100,332,1.0,8,2,83.30308032035828,5.496454238891602,6725,52400,364426,2867262,"[ 0  3  1  2  1  2  2  3  0  0  2  3  2  0  2  3  5  6  0  1  2  2  3  7
  5  9  9  5 10  6  3  8  4  0 10  7  5  2 13  3 11 10  3 15 11  0  2 15
  9 14 13  4]"
13200,332,1.0,8,2,83.86527585983276,5.621895790100098,6781,52800,367154,2888625,"[ 0  3  1  2  1  2  2  3  0  4  2  0  2  0  2  3  5  6  0  1  2  4  7  3
  1  9  7  5 10  6  3  8  4  0  8 11  5 10 11  5  9 10  1  9  9  1 13 15
  9 14 13  4]"
13300,332,1.0,8,2,84.48501348495483,6.197311878204346,6830,53200,370082,2911620,"[ 0  3  1  2  1  2  2  3  0  2  2  0  5  5  2  3  5  6  0  1  2  0  7  4
  5  5  9  5 10  6  3  7  4  1 10  3  4  3  8  2 13 12  5 15 14  3 11  0
  9 14 13  4]"
13400,332,1.0,8,2,85.13372755050659,6.486945152282715,6883,53600,372948,2934136,"[ 0  3  1  2  1  2  2  3  0  2  2  0  0  2  5  3  5  6  0  1  2  0  3  0
  3  2  4  5 10  6  3  7  4  1  9  0  4  3  1  4  3 14  5  1  0  3 13  0
  9 14 13  4]"
13500,332,1.0,8,2,85.66796851158142,5.342369079589844,6931,54000,375893,2957199,"[ 0  3  1  2  1  2  2  3  0  2  2  0  3  3  5  3  5  6  0  1  2  2  6  2
  3  0  5  5 10  6  3  7  4  3  6  7  4 12 13  5 12 15  3  3  0  3 14  0
  9 14 13  4]"
13600,332,1.0,8,2,86.26446008682251,5.964877605438232,6971,54400,379077,2982263,"[ 0  3  1  2  1  2  2  3  0  2  2  0  2  1  2  3  5  6  0  1  2  4  6  4
  5  0  2  5 10  6  3  7  4  2  0  6  1  8 13  5 10  2  0 12 15  1 12  9
  9 14 13  4]"
13700,332,1.0,8,2,86.77913403511047,5.146703720092773,7036,54800,381661,3002407,"[ 0  3  1  2  1  2  2  3  0  2  2  0  0  2  7  3  5  6  0  1  2  1  3  4
  1  3  6  5 10  6  3  7  4  2 10  6  5 11  8  3  1 14  2 13  1  3  2 13
  9 14 13  4]"
13800,332,1.0,8,2,87.32077956199646,5.41640043258667,7087,55200,384440,3024209,"[ 0  3  1  2  1  2  2  3  0  2  2  0  3  5  7  3  5  6  0  1  2  1  3  3
  2  2  6  5 10  6  3  7  4  4  1 10  1  3  8  3 13 12  5 12  1  0 10  9
  9 14 13  4]"
13900,332,1.0,8,2,87.85358691215515,5.328028202056885,7143,55600,387092,3045062,"[ 0  3  1  2  1  2  2  3  0  2  2  0  4  2  3  3  5  6  0  1  2  5  2  6
  1  6  5  5 10  6  3  7  4  1  5  7  0 12  8  3  3 12  5 12 12  0 12 13
  9 14 13  4]"
14000,332,1.0,8,2,88.43717312812805,5.8358049392700195,7192,56000,389801,3066240,"[ 0  3  1  2  1  2  2  3  0  2  2  0  4  4  6  3  5  6  0  1  2  5  6  5
  3  4  6  5 10  6  3  7  4  1 11  0  3 14 14  5  3 12  0 12 13  0 14  1
  9 14 13  4]"
14100,332,1.0,8,2,88.98646879196167,5.492918491363525,7239,56400,392704,3089066,"[ 0  3  1  2  1  2  2  3  0  2  2  0  1  1  7  3  5  6  0  1  2  0  4  5
  2 11 10  5 10  6  3  7  4  4  9  5  5 12 10  3 13  1  4 12  0  4  3 11
  9 14 13  4]"
14200,332,1.0,8,2,89.47462368011475,4.8815155029296875,7289,56800,395474,3110736,"[ 0  3  1  2  1  2  2  3  0  2  2  0  0  6  4  3  5  6  0  1  2  0  4  7
  0  5  0  5 10  6  3  7  4  1 11  3  5  0  8  1  1  1  2  0  0  4 13 12
  9 14 13  4]"
14300,332,1.0,8,2,90.00348687171936,5.288596153259277,7338,57200,398263,3132597,"[ 0  3  1  2  1  2  2  3  0  2  2  0  3  2  1  3  5  6  0  1  2  0  4  5
  4  8  5  5 10  6  3  7  4  3  8 10  1 14  8  2  0 15  5  2  2  5  9 12
  9 14 13  4]"
14400,332,1.0,8,2,90.6053819656372,6.018915176391602,7386,57600,401083,3154809,"[ 0  3  1  2  1  2  2  3  0  2  2  0  4  1  7  3  5  6  0  1  2  4  1  5
  3  4  4  5 10  6  3  7  4  3  8  4  5 13 15  0  0  9  0 10 12  4  9 13
  9 14 13  4]"
14500,332,1.0,8,2,91.19533014297485,5.899438858032227,7438,58000,403739,3175630,"[ 0  3  1  2  1  2  2  3  0  2  2  0  0  1  7  3  5  6  0  1  2  1  4  2
  1  4  6  5 10  6  3  7  4  0  6  8  2 10 11  3 13 13  2 12  0  4  9  2
  9 14 13  4]"
14600,332,1.0,8,2,91.76082468032837,5.654892921447754,7490,58400,406528,3197579,"[ 0  3  1  2  1  2  2  3  0  2  2  0  5  0  1  3  5  6  0  1  2  4  4  6
  1  4  8  5 10  6  3  7  4  1  6  8  3  8  9  5  2  0  2  3 11  4 12  2
  9 14 13  4]"
14700,332,1.0,8,2,92.34617638587952,5.853474140167236,7542,58800,409220,3218597,"[ 0  3  1  2  1  2  2  3  0  2  2  0  0  5  1  3  5  6  0  1  2  4  2  7
  1  3  8  5 10  6  3  7  4  5  3  6  2  8  9  5  9 10  0  3 11  5 13  3
  9 14 13  4]"
14800,332,1.0,8,2,92.91535973548889,5.691797733306885,7591,59200,412073,3241019,"[ 0  3  1  2  1  2  2  3  0  2  2  0  4  5  6  3  5  6  0  1  2  4  7  5
  4  6  5  5 10  6  3  7  4  2  8  6  0  0 14  1  9  0  1  3  1  5  8  3
  9 14 13  4]"
14900,332,1.0,8,2,93.56559562683105,6.5023088455200195,7641,59600,415075,3264572,"[ 0  3  1  2  1  2  2  3  0  2  2  0  3  4  7  3  5  6  0  1  2  4  5  6
  5  0  2  5 10  6  3  7  4  5  8  6  0 11 13  0  9  1  1 11  0  3  0 10
  9 14 13  4]"
15000,332,1.0,8,2,94.12410950660706,5.5851006507873535,7694,60000,417731,3285307,"[ 0  3  1  2  1  2  2  3  0  2  2  0  2  7  4  3  5  6  0  1  2  4  6  6
  3  4  3  5 10  6  3  7  4  5 11  6  1 15 10  0 12  3  0  9  8  3 13 10
  9 14 13  4]"
15100,332,1.0,8,2,94.58058476448059,4.564712047576904,7754,60400,420259,3304989,"[ 0  3  1  2  1  2  2  3  0  2  2  0  0  2  0  3  5  6  0  1  2  4  5  6
  3  6  3  5 10  6  3  7  4  0  5  1  4  3  3  0 13  3  5  9  0  1 13 11
  9 14 13  4]"
15112,333,1.0,7,2,94.63207244873047,4.290242989857991,7763,60448,420563,3307294,"[ 0  3  1  2  1  2  2  3  0  2  2  0  2  2  0  3  5  6  0  1  2  4  5  6
  3  6  3  5 10  6  3  7  4  0  5  1  2  3  3  0 13  3  1  9  0  1 13 11
  9 14 11  4]"
