generation,fitness,functionality,active_nodes,longest_path,time,gen_time,nc_gens,fitness_evals,graph_evals,node_evals,genotype
0,176.0,0.5,10,4,0.0071985721588134766,7.193326950073242,0,0,0,0,"[ 2  1  2  3  2  0  4  0  1  5  0  2  3  3  1  2  2  3  1  8  1  0  4  1
  0  5  2  1  2  4  1  0 11  0  9  4  3  7  7  1  0 10  3 13  3  4 14 10
  2 17 11  5  1  9  4  3  9  4 16 17  0 20 18  2  0 19  0 20 22  5 22  2
  4 17  1 15 28 14 19]"
100,335.0,0.984375,7,3,19.936015605926514,199.28813695907593,0,25600,216985,1553989,"[ 2  2  3  2  2  0  2  3  1  1  2  0  0  1  0  5  3  2  5  7  0  0  2  1
  0  0  3  3  2  1  4 12 11  0  0  2  0  4  3  4  4  8  2  6  6  0 16 18
  1 11 11  0 18 15  4 16  9  5 15 10  1 17 23  1 20 23  0 21  2  5 17 14
  2 18  0 21 15 14 18]"
200,335.0,0.984375,7,3,37.89158892631531,179.55569982528687,0,51200,402909,2902998,"[ 0  1  2  1  1  1  2  3  1  2  3  3  1  3  3  5  6  2  0  8  6  0  2  1
  0  0  3  0  5  6  4 12 11  0  0  2  1  4  1  0 13  7  2  6  6  5  3  1
  0 13  1  0 18 15  4 10 14  5  9 15  2 20 19  4 22 23  3 15 14  1  3  1
  2 22  1 21 15 14 18]"
300,335.0,0.984375,7,3,55.75248622894287,178.60893726348877,0,76800,588284,4241053,"[ 1  0  0  1  1  2  2  3  1  2  0  0  4  2  1  3  5  3  5  3  0  0  2  1
  0  0  3  2  3  7  4 12 11  0  0  2  1  1  4  3  3 12  2  6  6  1 13 11
  4  3 13  0 18 15  2 12 11  4 14 10  1 14  3  0 16  3  0  1 23  3  0 16
  4 22 14 21 15 14 18]"
397,338,1.0,10,4,73.57810235023499,183.7692014949838,0,101632,776814,5596095,"[ 0  0  3  0  3  3  2  3  1  0  0  3  3  0  3  2  3  3  2  8  8  0  2  1
  5  2  3  2  6  0  4  7 11  0  0  2  2 13  3  3  7  8  3  6  6  5 11  3
  0 17 15  0 18 15  1  9 12  5 10 10  0 15 16  3 18 16  0  0  2  3 21  1
  3  3 14 21 24 14 18]"
400,340,1.0,9,3,74.14464735984802,188.84714444478354,0,102400,781635,5640601,"[ 0  0  3  0  3  3  2  3  1  0  0  3  3  0  3  4  3  3  2  8  8  0  2  1
  5  2  3  2  6  0  4  7 11  0  0  2  2 11  3  1  7  8  3  6  6  5 11  3
  0 17 16  0 18 15  1  9 12  5  3 10  0 15 16  0 18 16  0  0  2  3 21  1
  1  3 14 21 24 14 18]"
500,340,1.0,9,3,91.75490069389343,176.10249519348145,0,128000,931732,6982049,"[ 2  0  3  0  2  0  2  3  1  0  0  3  3  3  2  3  1  1  5  2  0  0  2  1
  0  7  4  5  3  3  4  7 11  0  0  2  2  1  7  3 12  4  3  6  6  1  9  2
  2 16  3  0 18 15  2  3 17  4 10 12  0 15 16  2  1 21  0 19  1  3  3  3
  2 18 22 21 24 14 18]"
600,340,1.0,9,3,109.15705347061157,174.0214967727661,0,153600,1078764,8297999,"[ 1  0  0  0  1  2  2  3  1  0  0  3  2  3  2  5  1  2  5  2  0  0  2  1
  2  1  6  3  6  1  4  7 11  0  0  2  2 11  7  0  2  4  3  6  6  2 14 15
  2 14  1  0 18 15  1 13 11  4  0 15  0 15 16  3 22  0  0 16  0  3 16 21
  5 22 16 21 24 14 18]"
700,340,1.0,9,3,125.99365425109863,168.36596965789795,0,179200,1217669,9547049,"[ 5  3  0  5  3  2  2  3  1  0  0  3  2  3  2  3  4  4  5  2  0  0  2  1
  3  5  1  5  2  7  4  7 11  0  0  2  2 11  7  2  9  6  3  6  6  3  3 18
  3  2  2  0 18 15  1 13 17  3 18  3  0 15 16  3 15 16  5 14 23  4 14  0
  3 21 18 21 24 14 18]"
800,340,1.0,9,3,143.94922304153442,179.55564737319946,0,204800,1372145,10926443,"[ 0  3  0  3  0  1  2  3  1  0  0  3  0  1  2  0  6  0  3  3  0  1  5  4
  0  5  2  0  0  8  4  7  8  0  0  2  2  1  3  5  6 11  3  6  6  3  3 18
  0 13 10  0 18 15  2  3  1  1 13 18  0 15 22  2 19 23  4 14 21  3 23  2
  5 22  1 21 24 14 18]"
900,340,1.0,9,3,161.70380306243896,177.54576683044434,0,230400,1525094,12289168,"[ 2  1  1  3  2  3  2  3  1  0  0  3  0  1  2  4  1  0  5  2  1  5  3  1
  3  5  4  1  8  6  4  7  8  0  0  2  5  7  6  1  6  5  2  6  6  5  2  9
  3 11 16  0 18 15  2  3  1  5 15 16  0 15 22  1 16 23  4  0  1  3 20  0
  5  2  1 21 24 14 18]"
1000,340,1.0,9,3,179.1482446193695,174.44437503814697,0,256000,1674038,13616538,"[ 1  2  2  3  3  0  2  3  1  0  0  3  0  1  2  3  6  4  4  2  0  3  7  1
  4  8  4  3  1  6  4  7  8  0  0  2  3  9  6  3  7  5  3  6  6  0 13 13
  4 11 13  0 18 15  2  3  1  1  0 18  0 15 22  2 22 19  2  3 19  0 22  1
  2 18  2 21 24 14 18]"
1100,340,1.0,9,3,196.91851234436035,177.7026391029358,0,281600,1826752,14977958,"[ 3  3  2  2  3  2  2  3  1  0  0  3  0  1  2  3  6  1  2  1  0  0  7  4
  0  4  7  3  5  7  4  7  8  0  0  2  0 10  2  1 10  4  3  6  6  4  0 11
  3  1 15  0 18 15  2  3  1  0 17 10  0 15 22  5 17 15  5 23 18  4 20 20
  5 22  3 21 24 14 18]"
1200,340,1.0,9,3,214.74574208259583,178.27225923538208,0,307200,1980623,16348595,"[ 3  0  2  5  0  2  2  3  1  0  0  3  0  1  2  4  4  1  4  5  0  4  2  0
  5  2  6  1  6  2  4  7  8  0  0  2  4 12  0  1  7  7  2  6  6  1 17 11
  3  1 14  0 18 15  2  3  1  1  3 14  0 15 22  2 20 15  4 18 22  2 21 14
  3 18  2 21 24 14 18]"
1300,340,1.0,9,3,232.4648277759552,177.19082117080688,0,332800,2133001,17707277,"[ 5  0  2  4  2  3  2  3  1  0  0  3  0  1  2  5  3  8  2  3  7  4  8  3
  2  7  5  1  3  2  4  7  8  0  0  2  2  1  9  5  0  1  3  6  6  5 12 10
  4 12  9  0 18 15  2  3  1  3 15 10  0 15 22  1 17 15  5 20 17  1 14  0
  4 21  3 21 24 14 18]"
1400,341,1.0,9,2,249.5884120464325,171.2358021736145,0,358400,2278797,19004204,"[ 4  3  1  3  3  3  2  3  1  0  0  3  0  1  2  4  0  4  0  0  0  0  8  7
  5  0  1  4  1  6  4  7  8  0  0  2  3  2  1  5 13  3  2  6  6  5 13 11
  2 13 12  1 18  1  2  3  1  4 12 16  0 15 22  1 16  1  2 14 21  3 19  3
  4 17  3 11 24 14 18]"
1500,341,1.0,9,2,266.87251925468445,172.84103393554688,0,384000,2426959,20320113,"[ 2  3  3  2  3  1  2  3  1  0  0  3  0  1  2  3  1  1  1  2  1  0  8  7
  5  7  0  2  0  8  4  7  8  0  0  2  0 10 13  5 13 13  3  6  6  3  1 14
  3 10 11  1  0 12  2  3  1  0 15 15  0 15 22  2 22 19  0 17 14  5  2 22
  1 18 20 11 24 14 18]"
1600,342,1.0,8,2,284.0189781188965,171.46454572677612,0,409600,2575738,21618911,"[ 3  0  2  4  1  1  2  3  1  0  0  3  0  1  2  0  3  1  2  0  3  0  8  7
  5  1  1  4  0  8  4  7  8  0  0  2  0  3 11  4  8  2  3  6  6  0 15 13
  1 16 12  3  1 10  2  3  1  5 11  1  0 15 22  3 22 22  1 15 18  2 14 15
  1 14 14 11 24 14  9]"
1700,342,1.0,8,2,299.80272245407104,157.83740043640137,0,435200,2721128,22766969,"[ 2  0  1  4  3  3  1  1  2  0  0  3  0  1  2  0  3  1  2  2  7  0  8  7
  3  2  8  4  1  6  4  7  8  0  0  2  4  5  3  1 11  3  0  4  4  0  1  0
  3 11  0  1 13 11  2  3  1  5 15  0  0 15 22  0 21 15  4 22 22  2 23 16
  2 20 21 11 24 14  9]"
1800,342,1.0,8,2,315.55409002304077,157.5136375427246,0,460800,2866368,23913278,"[ 0  1  1  4  0  2  4  0  1  0  0  3  0  1  2  0  3  1  2  7  8  0  8  7
  2  7  5  5  0  4  4  7  8  0  0  2  2  2  2  3 13  7  0 12  3  2  0 10
  3  1  0  0  3 10  2  3  1  3 11  9  0 15 22  4 14 20  1 21 19  3 16 21
  1 20  1 11 24 14  9]"
1900,342,1.0,8,2,331.25147008895874,156.97376012802124,0,486400,3010503,25051229,"[ 1  3  1  4  3  2  4  3  1  0  0  3  0  1  2  1  7  2  0  7  8  0  8  7
  4  8  0  1  4  0  4  7  8  0  0  2  4  7  2  0  8 11  0  1  3  0 16 17
  0 14 16  5 11 15  2  3  1  2 14 10  0 15 22  4 22 22  2 17 18  5 18  2
  0  2 21 11 24 14 18]"
2000,342,1.0,8,2,346.8329734802246,155.81499338150024,0,512000,3152996,26176600,"[ 1  2  3  0  3  1  0  3  3  0  0  3  0  1  2  2  4  1  5  4  0  0  8  7
  0  8  8  2  0  7  4  7  8  0  0  2  4  9  6  1  2 13  0  1  3  1 17  1
  4  2 16  4 17  2  2  3  1  0 10 13  0 15 22  5 14  1  2 14  0  5 22 18
  3 23  1 11 24 14  5]"
2100,342,1.0,8,2,363.07368993759155,162.40712642669678,0,537600,3304518,27374965,"[ 4  0  3  0  3  1  1  0  3  0  0  3  0  1  2  2  2  5  0  2  2  0  8  7
  0  7  8  0  1  6  4  7  8  0  0  2  1  0  3  0 11  5  5  2  7  1 13  0
  0 16  1  1  9 12  2  3  1  0 14 11  0 15 22  2 19  2  3 16  1  5  0 23
  5 18  1 11 24 14  5]"
2200,342,1.0,8,2,379.4390678405762,163.65374565124512,0,563200,3457860,28586147,"[ 5  0  0  0  3  1  5  0  2  0  0  3  0  1  2  1  0  8  3  6  7  0  8  7
  0  2  5  2  1  7  4  7  8  0  0  2  5  9  7  0  8  9  5  4  4  2 17 16
  0  2  0  1  3 13  2  3  1  1 15 12  0 15 22  2 19 21  1 17  0  4  0 23
  0  2 15 11 24 14  5]"
2300,342,1.0,8,2,395.59274458885193,161.5367317199707,0,588800,3608198,29774049,"[ 4  3  2  0  3  1  1  0  1  0  0  3  0  1  2  5  0  7  2  5  3  0  8  7
  2  1  7  2  0  7  4  7  8  0  0  2  5  3 13  5  9  5  4 11  6  2 10 14
  0 15  2  0  3 11  2  3  1  4  1  3  0 15 22  0 16 22  4 20 20  4 23 22
  4  1  1 11 24 14  5]"
2400,342,1.0,8,2,411.87521481513977,162.82466650009155,0,614400,3760138,30976023,"[ 1  2  2  0  3  1  4  1  0  0  0  3  0  1  2  3  4  3  1  1  7  0  8  7
  0  4  6  0  0  5  4  7  8  0  0  2  0  4  4  1  4 12  5  3  6  0 14 17
  4 17 10  0 16 18  2  3  1  4 17  3  0 15 22  3 17 15  1  2 23  3  2 23
  0 20 18 11 24 14  5]"
2500,342,1.0,8,2,428.04690074920654,161.71682119369507,0,640000,3910436,32165744,"[ 0  2  0  0  3  1  3  0  1  0  0  3  0  1  2  0  1  2  1  5  8  0  8  7
  4  8  6  3  4  0  4  7  8  0  0  2  5  1 12  1 13  5  5 12  8  4 15  1
  5 17 13  2 15  3  2  3  1  5  2 12  0 15 22  2 19 15  4  2 22  1  2 20
  2  2 23 11 24 14  5]"
2600,342,1.0,8,2,444.2671751976013,162.2027039527893,0,665600,4061798,33362186,"[ 1  0  0  0  3  1  2  1  0  0  0  3  0  1  2  0  5  0  1  0  5  0  8  7
  4  6  5  3  6  4  4  7  8  0  0  2  3  8 12  2  6 10  1  6  0  5 16 18
  2 10 12  4 15  0  2  3  1  3 15 13  0 15 22  3 23 21  5 18 17  4  3 23
  1  2 15 11 24 14  5]"
2700,342,1.0,8,2,460.474760055542,162.07581281661987,0,691200,4212948,34557933,"[ 0  3  0  0  3  1  0  1  3  0  0  3  0  1  2  3  4  0  3  0  0  0  8  7
  1  1  6  3  5  2  4  7  8  0  0  2  3  0  9  3  3  4  1  8 12  4  3  9
  5 10 15  3  0  0  2  3  1  3 16 16  0 15 22  3 14 19  3 14  2  2  1 21
  2 17 23 11 24 14  5]"
2800,342,1.0,8,2,476.6928565502167,162.18092918395996,0,716800,4364365,35754450,"[ 3  1  3  0  3  1  2  0  3  0  0  3  0  1  2  1  3  0  3  3  6  0  8  7
  2  2  4  0  5  8  4  7  8  0  0  2  0  5  2  1  1  0  0  0 13  1 16 12
  5 17  3  0 11  3  2  3  1  1  3  3  0 15 22  5 19 16  5  1  3  1 14 23
  3 14 15 11 24 14  5]"
2900,342,1.0,8,2,492.8513493537903,161.58489227294922,0,742400,4514714,36943414,"[ 0  1  2  0  3  1  5  2  1  0  0  3  0  1  2  1  3  8  3  0  6  0  8  7
  3  4  0  0  8  0  4  7  8  0  0  2  5  5 12  4 12 13  3 12  2  2  2 18
  2 16 10  2 16 14  2  3  1  0 15  0  0 15 22  3 19 17  4  1 17  2 23  3
  0 16 15 11 24 14  5]"
3000,342,1.0,8,2,509.1733148097992,163.21961879730225,0,768000,4667779,38152878,"[ 5  3  0  0  3  1  2  3  3  0  0  3  0  1  2  2  5  1  4  1  7  0  8  7
  0  7  1  0  0  8  4  7  8  0  0  2  2  8  0  4  0  0  5  0  3  0 13 14
  3 18  1  2  1  2  2  3  1  0 18  1  0 15 22  0  2 22  4 21 16  1  1 15
  5 20 23 11 24 14  5]"
3100,342,1.0,8,2,525.2833194732666,161.10000610351562,0,793600,4818035,39339044,"[ 3  1  2  0  3  1  4  3  2  0  0  3  0  1  2  1  5  0  2  0  7  0  8  7
  5  2  2  1  2  0  4  7  8  0  0  2  5 13  2  5  4  9  2  8  7  3 14 12
  3 10 16  1  3  3  2  3  1  4 11 11  0 15 22  0 16 18  5 20 21  5 21 15
  2 21 16 11 24 14  5]"
3200,342,1.0,8,2,541.6428928375244,163.59569311141968,0,819200,4971491,40551147,"[ 3  3  2  0  3  1  2  0  3  0  0  3  0  1  2  4  2  7  3  0  7  0  8  7
  0  6  0  0  7  7  4  7  8  0  0  2  5  0 13  4 11  1  3 12  9  5 15 18
  5  2 17  5  1 11  2  3  1  2  0  3  0 15 22  2 18 14  5  2 18  0 14 17
  4 15  2 11 24 14  5]"
3300,342,1.0,8,2,557.7846336364746,161.4173674583435,0,844800,5122175,41741897,"[ 5  3  0  0  3  1  4  1  3  0  0  3  0  1  2  2  8  8  2  0  6  0  8  7
  1  4  3  3  7  0  4  7  8  0  0  2  0  4 13  3  5  2  5 11  6  2 15 13
  0 12  3  4  1  2  2  3  1  3  9  0  0 15 22  5 23 14  4  1 17  2 21 16
  2  2 17 11 24 14  5]"
3400,342,1.0,8,2,573.6190309524536,158.34393739700317,0,870400,5268124,42897060,"[ 2  3  1  0  3  1  4  0  2  0  0  3  0  1  2  3  6  5  0  5  6  0  8  7
  3  6  5  0  8  1  4  7  8  0  0  2  1  4  5  4  7  4  0  0  6  2 14  1
  0  0 14  1 11 15  2  3  1  5  1  2  0 15 22  5 16 22  4 22 17  1  0  1
  0  3  1 11 24 14 28]"
3500,342,1.0,8,2,589.0765402317047,154.57505226135254,0,896000,5408141,44006911,"[ 2  3  3  2  1  1  5  3  2  0  0  3  0  1  2  1  3  8  4  6  5  0  8  7
  3  4  1  3  0  1  4  7  8  0  0  2  3  2 11  3  4  3  0 10  6  2 10 12
  3  9 18  1 17 12  2  3  1  2  2 15  0 15 22  2 15 22  0 15 23  2 21 14
  0  3  1 11 24 14 28]"
3600,342,1.0,8,2,604.613753080368,155.37208795547485,0,921600,5549195,45126670,"[ 2  3  0  5  3  0  0  3  3  0  0  3  0  1  2  5  3  0  4  6  4  0  8  7
  3  1  3  1  8  2  4  7  8  0  0  2  0  2  0  4 10  0  5 11  0  2 13 18
  0 17 14  4  1 13  2  3  1  0 15  9  0 15 22  5 23 22  0 17 22  3  0 22
  0  3  1 11 24 14 28]"
3700,342,1.0,8,2,620.0111401081085,153.97383213043213,0,947200,5688684,46231684,"[ 3  2  3  5  0  3  5  1  1  0  0  3  0  1  2  4  8  5  3  5  5  0  8  7
  3  7  6  1  3  4  4  7  8  0  0  2  2  2  5  1 11 10  0  9 12  1  3  3
  5 10  1  5  3  1  2  3  1  5 15  9  0 15 22  5  1 15  3  3 15  0 17 19
  0  3  1 11 24 14 28]"
3800,342,1.0,8,2,635.4547870159149,154.4364356994629,0,972800,5829014,47341699,"[ 3  2  2  5  2  3  3  3  3  0  0  3  0  1  2  1  0  6  3  4  3  0  8  7
  1  8  7  0  8  5  4  7  8  0  0  2  1 12  7  3  1  2  5  7  1  1 13  3
  4  3 12  1 12  2  2  3  1  1 12 12  0 15 22  3 14 14  5 23  1  2  0 21
  0  3  1 11 24 14 28]"
3900,342,1.0,8,2,650.8188669681549,153.64075899124146,0,998400,5968058,48442981,"[ 1  3  1  5  1  1  5  1  3  0  0  3  0  1  2  1  5  5  2  2  4  0  8  7
  4  8  7  4  2  3  4  7  8  0  0  2  1 12  7  4  3 10  2  2  8  5 18 11
  5 15  2  2 10 11  2  3  1  0  1 14  0 15 22  1  3 18  2 16 15  2 20 18
  0  3  1 11 24 12 28]"
4000,342,1.0,8,2,666.2449595928192,154.2608880996704,0,1024000,6108029,49552084,"[ 5  2  3  2  1  0  1  0  0  0  0  3  0  1  2  1  0  7  5  1  8  0  8  7
  4  8  7  2  3  5  5  7  7  0  0  2  1  9  2  5  2 11  4  6 12  3 17 13
  3  1  3  0 10 13  2  3  1  1 16 18  0 15 22  2  0 18  0 14 20  2 14 20
  0  3  1 11 24 12 28]"
4100,342,1.0,8,2,681.8543493747711,156.0938596725464,0,1049600,6250034,50679705,"[ 3  0  3  5  1  1  2  3  0  0  0  3  0  1  2  4  2  7  4  2  0  0  8  7
  4  8  7  3  2  0  4  2  6  0  0  2  3  0 13  5 13 13  2  6  2  5 18 15
  3 18 10  4  9 14  2  3  1  0 13 12  0 15 22  2 14  0  0 18 23  1  3 18
  0  3  1 11 24 12 28]"
4200,342,1.0,8,2,697.415376663208,155.6102442741394,0,1075200,6391421,51801974,"[ 0  1  3  4  1  3  1  2  2  0  0  3  0  1  2  1  7  0  5  4  4  0  8  7
  4  8  7  1  7  4  5 13  9  0  0  2  4  2 11  4 10  9  0 11 10  4 14 10
  3 18  3  3 10  1  2  3  1  0  9 16  0 15 22  5 20 23  1 19 18  2  0 15
  0  3  1 11 24 12 28]"
4300,342,1.0,8,2,712.9414968490601,155.26116371154785,0,1100800,6532543,52920849,"[ 0  1  0  3  3  3  5  0  3  0  0  3  0  1  2  1  8  3  4  1  5  0  8  7
  4  8  7  4  2  3  0  7  9  0  0  2  3  4  1  2  0  8  1 12  9  1 16  3
  0  2 13  3  3 16  2  3  1  1  2 18  0 15 22  5 16 18  2 19 23  4  0 16
  0  3  1 11 24 12 28]"
4400,342,1.0,8,2,728.396915435791,154.55414533615112,0,1126400,6673021,54034926,"[ 2  1  2  0  1  3  5  3  1  0  0  3  0  1  2  1  8  0  1  6  3  0  8  7
  4  8  7  3  6  4  4 11 13  0  0  2  0  3  8  2  0 12  1 13  8  1  1  0
  3 17  1  1 18  2  2  3  1  2 18 14  0 15 22  1 16  0  1  2 20  5 23 22
  0  3  1 11 24 12 28]"
4500,342,1.0,8,2,743.8044550418854,154.07536029815674,0,1152000,6812391,55140648,"[ 3  3  3  3  3  0  2  0  1  0  0  3  0  1  2  5  0  0  1  3  8  0  8  7
  4  8  7  2  7  2  1  2  6  0  0  2  2 11 10  0  0  8  2  8  1  2  3 14
  4 13 13  3 10 12  2  3  1  5 15  0  0 15 22  5 18 16  3 19 18  0 16 18
  0  3  1 11 24 12 28]"
4600,342,1.0,8,2,759.3058204650879,155.01362323760986,0,1177600,6954109,56262053,"[ 3  3  3  5  2  3  3  0  0  0  0  3  0  1  2  2  0  6  3  7  0  0  8  7
  4  8  7  3  0  4  1  2  3  0  0  2  1  7  3  4  0  9  0  6  3  3  3 10
  0 13  9  5 11 12  2  3  1  1 12  1  0 15 22  4 14 18  0 19  1  0 16 15
  0  3  1 11 24 12 28]"
4700,342,1.0,8,2,774.7211141586304,154.15289878845215,0,1203200,7093706,57368994,"[ 3  2  1  4  1  3  1  2  3  0  0  3  0  1  2  5  1  0  3  7  1  0  8  7
  4  8  7  5  7  6  1  2 10  0  0  2  3  0  6  1  9 10  0 12  7  5 14  3
  5  0  9  0 11  9  2  3  1  5 13 14  0 15 22  2 18 23  4 17  0  3 14  1
  0  3  1 11 24 12 28]"
4800,342,1.0,8,2,790.2362368106842,155.15118598937988,0,1228800,7234933,58489359,"[ 4  3  2  4  3  2  0  0  0  0  0  3  0  1  2  2  7  5  2  3  8  0  8  7
  4  8  7  5  4  6  1  9  6  0  0  2  5  3  7  1  6  1  5  0  5  4  0  1
  1 18  9  4 18  0  2  3  1  5  9  0  0 15 22  5 20  0  3 19  0  0  1  2
  0  3  1 11 24 12 28]"
4900,342,1.0,8,2,805.8209211826324,155.84680557250977,0,1254400,7377066,59616351,"[ 4  0  3  1  2  2  0  1  1  0  0  3  0  1  2  0  1  4  4  7  7  0  8  7
  4  8  7  4  6  8  2  3 12  0  0  2  2 11  3  5  4  3  5  9  0  0 14  3
  4  1  1  3  1 14  2  3  1  4 18 12  0 15 22  5 15 18  0  0 14  4 20 19
  0  3  1 11 24 12 28]"
5000,342,1.0,8,2,821.462464094162,156.41539335250854,0,1280000,7519916,60748427,"[ 5  0  3  5  0  2  2  0  0  0  0  3  0  1  2  1  5  3  3  2  0  0  8  7
  4  8  7  5  4  0  0  9  3  0  0  2  5 11  6  4  7 11  0 11  4  4 13 17
  4 11 13  4 10 12  2  3  1  4 17  0  0 15 22  4  0 21  3 20 16  0  0 22
  0  3  1 11 24 12 28]"
5100,342,1.0,8,2,837.0076756477356,155.45207738876343,0,1305600,7660829,61868112,"[ 3  3  3  1  1  1  4  3  2  0  0  3  0  1  2  2  0  0  0  2  7  0  8  7
  4  8  7  2  5  0  1  3 11  0  0  2  4  5 12  3  5 13  4 13  9  1 10 14
  1 11 13  5  0 13  2  3  1  2 14 17  0 15 22  4 22 15  2 17 15  1 21 19
  0  3  1 11 24 12 28]"
5200,342,1.0,8,2,852.5452330112457,155.37554025650024,0,1331200,7802269,62988715,"[ 3  1  2  0  3  3  4  1  0  0  0  3  0  1  2  0  5  7  2  4  4  0  8  7
  4  8  7  0  6  5  2 12 11  0  0  2  2  4 12  4 12  4  2  6  0  0  0 13
  4 15 18  3 14  9  2  3  1  0  1 14  0 15 22  3 15 22  0  2 22  4 16 21
  0  3  1 11 24 12 28]"
5300,342,1.0,8,2,868.0465769767761,155.01340627670288,0,1356800,7943073,64106767,"[ 3  3  3  1  1  3  0  3  1  0  0  3  0  1  2  4  5  1  4  4  8  0  8  7
  4  8  7  2  3  6  1 12  0  0  0  2  5  2 11  4  6  0  4  0 10  2  3 18
  1  9 16  3  3 17  2  3  1  5  2 13  0 15 22  5  1 23  5  1  0  1  1 20
  0  3  1 11 24 12  6]"
5400,342,1.0,8,2,884.4698841571808,164.23303604125977,0,1382400,8095833,65315145,"[ 3  1  2  3  2  1  0  3  1  0  0  3  0  1  2  4  0  3  0  1  4  0  8  7
  4  8  7  0  6  3  5  5  1  0  0  2  1  3  9  4  3  2  1  4 10  1  9  1
  5 17 11  5  3  9  2  3  1  3  2  9  0 15 22  5 20 23  2 21 17  2 18 15
  0 16 20 11 24 12  6]"
5500,342,1.0,8,2,900.8538093566895,163.839213848114,0,1408000,8249316,66528875,"[ 0  2  1  0  2  1  0  3  1  0  0  3  0  1  2  4  6  5  1  6  4  0  8  7
  4  8  7  4  3  8  5  9  6  0  0  2  1  3  2  3  6 11  4  4  4  0 13  9
  5  9 10  4  1 15  2  3  1  2 10 17  0 15 22  2 23  1  5  0 16  4 16 18
  2  1 15 11 24 12  6]"
5600,342,1.0,8,2,917.21089220047,163.57079029083252,0,1433600,8402611,67742000,"[ 1  0  1  3  2  2  0  3  1  0  0  3  0  1  2  3  7  2  2  3  5  0  8  7
  4  8  7  3  6  2  3  6  7  0  0  2  1  5  8  2  8 11  1  9  5  3  3 18
  2  0 10  5 16 15  2  3  1  5 13 12  0 15 22  4  0  1  3 21 21  3 23  3
  5 23 16 11 24 12  6]"
5700,342,1.0,8,2,933.5171113014221,163.06215524673462,0,1459200,8554933,68948395,"[ 4  1  0  4  0  3  0  3  1  0  0  3  0  1  2  1  3  8  5  4  0  0  8  7
  4  8  7  0  3  8  1  9 11  0  0  2  0 13  7  1 10 13  5  7  1  3  1 15
  2 12  2  2  9 10  2  3  1  4 18 15  0 15 22  1 16 23  1  2  1  3  2 22
  4 21 15 11 24 12  6]"
5800,342,1.0,8,2,949.764484167099,162.47369289398193,0,1484800,8707347,70151898,"[ 2  0  1  2  2  2  0  3  1  0  0  3  0  1  2  2  4  4  5  1  1  4  8  7
  4  8  7  3  2  4  3  7  1  0  0  2  3  2 10  2 13  1  0  8  7  0  2 15
  0  1 15  3  9 10  2  3  1  5 15 11  0 15 22  5  1  1  3 20 20  3  0 16
  2 17 20 18 24 12  6]"
5900,342,1.0,8,2,965.7636337280273,159.99146223068237,0,1510400,8856044,71325848,"[ 2  2  3  0  2  0  0  3  1  0  0  3  0  1  2  5  2  0  0  1  0  5  3  7
  4  8  7  0  0  8  3 10 11  0  0  2  1 10  2  2 12  2  0  8  7  0  0 10
  0  1 12  1  2 13  2  3  1  5 12 10  0 15 22  5  1 18  0  0 17  0 16  3
  0 23 23 18 24 12  6]"
6000,342,1.0,8,2,981.5351893901825,157.71551609039307,0,1536000,9001261,72473323,"[ 2  1  3  2  2  3  0  3  1  0  0  3  0  1  2  2  5  6  1  6  5  5  2  1
  4  8  7  2  4  7  1 10  5  0  0  2  4  1 12  5  9  8  0  8  7  2  1  9
  5  2 18  0  9 16  2  3  1  5 14 15  0 15 22  2 22 18  2  3 22  3  2 22
  4 16  1 18 24 12  6]"
6100,342,1.0,8,2,997.5610857009888,160.2589249610901,0,1561600,9150077,73649582,"[ 2  0  3  0  1  3  5  3  3  0  0  3  0  1  2  4  2  2  1  8  5  4  5  5
  4  8  7  0  7  1  4  1 13  0  0  2  2  6 13  3 10 13  0  8  7  0  2  9
  3 16 15  4 16  1  2  3  1  5  3  9  0 15 22  1 21 15  5 20 16  2 19 19
  1  0  2 18 24 12  5]"
6200,342,1.0,8,2,1013.6405634880066,160.79474687576294,0,1587200,9299726,74831533,"[ 3  1  3  0  1  3  5  3  3  0  0  3  0  1  2  5  4  7  4  6  7  3  4  2
  4  8  7  1  3  1  1  4 12  0  0  2  3  0 11  3  1  0  0  8  7  3 11 10
  5  9  0  4 16  2  2  3  1  0  3 12  0 15 22  0 23 22  4  2 18  5 14  3
  1 22  2 18 24 12  5]"
6300,342,1.0,8,2,1029.6604561805725,160.19888877868652,0,1612800,9448518,76007018,"[ 0  1  0  0  1  3  1  0  2  0  0  3  0  1  2  5  2  5  2  3  8  4  5  6
  4  8  7  1  5  3  1  1 11  0  0  2  0 13  9  2  3  0  0  8  7  1  1  3
  1  3 14  4 10 18  2  3  1  5  1 12  0 15 22  2 14 15  2 20 17  1 23  1
  4 22  3 18 24 12  5]"
6400,342,1.0,7,3,1044.6640219688416,150.03561973571777,0,1638400,9597199,77054155,"[ 5  0  1  0  1  3  1  0  1  0  0  3  0  1  2  4  1  3  3  8  3  5  3  3
  4  8  7  5  6  4  3 13  5  0  0  2  2  1  5  4  4  4  0  8  7  1  9 16
  2 16 16  4 15 18  4  1 13  3  1 13  0  3  1  5 14 14  0 19 15  3  3 21
  2 15 17 18 21 12  5]"
6500,342,1.0,7,3,1059.5138936042786,148.49867820739746,0,1664000,9745280,78085862,"[ 2  0  2  0  1  3  3  3  3  0  0  3  0  1  2  3  7  8  4  7  4  2  1  7
  4  8  7  5  2  1  0  8  3  0  0  2  2 11 13  1  4  6  0  8  7  3  3 15
  2 16 13  4 15 18  0 10  1  4 15  1  4 20 21  1 23  1  0  1 20  4  1  0
  3 14 15 18 21 12  5]"
6600,342,1.0,7,3,1074.2700200080872,147.56122827529907,0,1689600,9892063,79107904,"[ 0  3  2  0  1  3  3  2  3  0  0  3  0  1  2  3  1  8  0  2  4  0  8  8
  4  8  7  1  1  3  2  9  1  0  0  2  1  7  8  0  6  7  0  8  7  4  9  0
  3 12 11  4 15 18  5 11  9  4 16 16  5 22  3  5 20 18  3  1 22  2 19  1
  0 16 23 18 21 12  5]"
6700,342,1.0,7,3,1089.1862182617188,149.16194200515747,0,1715200,10041240,80146514,"[ 3  2  0  0  1  3  3  3  2  0  0  3  0  1  2  1  0  3  0  1  5  0  8  3
  4  8  7  0  6  3  4  2  4  0  0  2  1 12  0  0 12  7  0  8  7  2 10 10
  1 10  3  4 15 18  0  1  0  0 17  9  4  3 17  5 20 14  2 17 19  0  3  3
  4 19  1 18 21 12  5]"
6800,342,1.0,7,3,1104.0709555149078,148.847336769104,0,1740800,10189513,81179754,"[ 1  1  0  0  1  3  5  2  2  0  0  3  0  1  2  2  7  6  2  3  1  4  2  6
  4  8  7  3  2  6  0  4 11  0  0  2  4  6 10  3  3 11  0  8  7  3 13 10
  0 16 16  4 15 18  3 17  2  4 11  9  1 16  2  4 22 16  4 14 15  5 14 19
  0 21 18 18 21 12  5]"
6900,342,1.0,7,3,1118.9511699676514,148.80211353302002,0,1766400,10337256,82211407,"[ 4  2  0  0  1  3  3  2  1  0  0  3  0  1  2  4  6  1  1  0  3  4  2  4
  4  8  7  4  7  7  0 12  6  0  0  2  2  5  5  3 10  1  0  8  7  3 15 14
  2  1 17  4 15 18  0 12 14  5 15 14  5 16 14  1 16 16  2 20  2  2  1 22
  1 14 18 18 21 12  5]"
7000,342,1.0,7,3,1133.7725920677185,148.2141876220703,0,1792000,10484594,83238450,"[ 1  3  1  0  1  3  5  3  1  0  0  3  0  1  2  1  0  8  0  4  3  1  7  6
  4  8  7  1  8  1  3  7  1  0  0  2  4  5  2  4  1  7  0  8  7  5 16 17
  3  0 13  4 15 18  5 11 15  0  0 14  1 22 19  0  1 16  0  2 20  1 14  2
  5  3  1 18 21 12  5]"
7100,342,1.0,7,3,1148.563309431076,147.90714025497437,0,1817600,10632145,84265609,"[ 4  3  1  0  1  3  4  2  2  0  0  3  0  1  2  1  8  4  3  0  6  0  7  2
  4  8  7  4  2  0  3  5 10  0  0  2  1  1 11  2  3  9  0  8  7  4 11  3
  4 18 14  4 15 18  3 15 18  3  2  0  5  2 20  2 21  1  2 18 15  1 16 14
  1  3 16 18 21 12  5]"
7200,342,1.0,7,3,1163.3969104290009,148.33597421646118,0,1843200,10779143,85290108,"[ 0  3  3  0  1  3  4  3  2  0  0  3  0  1  2  3  1  7  1  2  6  4  4  2
  4  8  7  3  6  7  5 11  7  0  0  2  5 13  5  5  8  5  0  8  7  3  2  0
  0  9  3  4 15 18  3 17  2  1  1  9  0 19 20  3 17  3  0 19  1  3 22 16
  0  1  0 18 21 12  5]"
7300,342,1.0,7,3,1178.2990012168884,149.02087450027466,0,1868800,10927604,86324751,"[ 1  2  0  0  1  3  0  1  3  0  0  3  0  1  2  3  1  7  5  4  6  0  3  1
  4  8  7  0  3  6  3  5 12  0  0  2  5  4  0  4  3 13  0  8  7  2 10 13
  2 17 14  4 15 18  3 14  2  5 12  9  4  2 22  4  2 20  3 21 19  3  0  3
  0 18  2 18 21 12  5]"
7400,342,1.0,7,3,1193.2957456111908,149.96740579605103,0,1894400,11077728,87369944,"[ 5  2  1  0  1  3  2  0  3  0  0  3  0  1  2  4  2  0  3  4  7  1  3  8
  4  8  7  0  7  1  0  6 10  0  0  2  1  2  2  2  4  6  0  8  7  0 11 18
  0  1 14  4 15 18  1 10  9  4 15 13  5  0 23  2 16 18  2 14 20  0 23  2
  3 15 22 18 21 12  5]"
7500,342,1.0,7,3,1208.1250872612,148.2933807373047,0,1920000,11225521,88398909,"[ 4  0  1  0  1  3  5  2  0  0  0  3  0  1  2  2  2  1  3  5  7  3  8  4
  4  8  7  1  1  8  5 13 12  0  0  2  2  8  1  1  3  5  0  8  7  1 10 10
  5 10 13  4 15 18  5  0  0  1 15 16  2 21 16  5 18 14  1 15 20  0 21 16
  3  0  2 18 21 12  5]"
7600,342,1.0,7,3,1222.9433710575104,148.18280220031738,0,1945600,11373289,89427648,"[ 3  0  1  0  1  3  4  0  0  0  0  3  0  1  2  3  3  1  4  5  2  4  5  0
  4  8  7  5  6  3  0  5  9  0  0  2  5 10 13  4 13 13  0  8  7  0  1 15
  1 17 15  4 15 18  1 16 10  4  1  3  5  2  3  4  1 23  5 23 22  4 23 18
  0 23 20 18 21 12  5]"
7700,342,1.0,7,3,1237.9635684490204,150.20193576812744,0,1971200,11523792,90475327,"[ 3  3  0  0  1  3  4  1  2  0  0  3  0  1  2  0  0  2  0  5  7  1  2  6
  4  8  7  1  5  0  5  0  2  0  0  2  2 13  0  4 12  0  0  8  7  1  0 10
  1 16 16  4 15 18  3  1  1  4  0 11  5 16  2  4 20 20  3  3  1  2  0 22
  0  3 14 18 21 12  5]"
7800,342,1.0,7,3,1253.121503829956,151.57931566238403,0,1996800,11676715,91540406,"[ 0  3  1  0  1  3  2  0  2  0  0  3  0  1  2  4  0  7  0  2  0  1  8  0
  4  8  7  3  6  1  0  3  4  5  5  2  4  6  2  2  1  7  0  8  7  3  1 18
  3 13  1  4 10 18  4 13 15  3  3  0  2  2 20  2  2 14  2  0 17  4  2 15
  0 19 22 18 21 12  5]"
7900,342,1.0,7,3,1268.464613199234,153.43105792999268,0,2022400,11832548,92624591,"[ 2  3  2  0  1  3  1  3  0  0  0  3  0  1  2  0  6  3  0  2  0  2  4  1
  4  8  7  1  4  2  1  2 11  3 12  9  4  9 13  4  8  3  0  8  7  4  9 13
  3  1 11  4 10 18  5  3  9  1  3 18  4 19 17  5  2  1  3 16  1  5 21 19
  4 14 21 18 21 12  5]"
8000,342,1.0,7,3,1283.749855518341,152.8523850440979,0,2048000,11986836,93700303,"[ 0  3  2  0  1  3  0  3  1  0  0  3  0  1  2  2  2  5  0  2  0  1  0  5
  4  8  7  2  3  6  1  7  2  2  8  6  1  1 13  4  7  9  0  8  7  2 12  3
  5 11 11  4 10 18  4  9  2  2 15  2  0 15 17  5 15  2  1 15 21  1 16 14
  3  2 14 18 21 12  6]"
8100,342,1.0,7,3,1299.02321767807,152.73358583450317,0,2073600,12141139,94775057,"[ 2  3  2  3  3  2  0  3  1  0  0  3  0  1  2  2  7  5  0  2  0  0  1  1
  4  8  7  4  2  2  2 11  2  3 11  3  5  9 13  0 11 10  0  8  7  3  9 15
  3 11  9  4 10 18  5 17 15  1  0  2  5 18  3  2 20  2  3  0 21  1  3 17
  3 16  2 18 21 12  6]"
8200,342,1.0,7,3,1314.3112227916718,152.88001775741577,0,2099200,12295735,95853206,"[ 5  0  2  4  0  0  0  3  1  0  0  3  0  1  2  4  2  1  0  2  0  1  5  0
  4  8  7  4  5  0  0  9  2  4  7  4  5  1  0  3  5 12  0  8  7  0  2  3
  2 11 17  4 10 18  4  2  9  4  0 18  5 15 14  3  0 14  2 19 17  0 16  1
  1 18 19 18 21 12  6]"
8300,342,1.0,7,3,1329.689343214035,153.78116369247437,0,2124800,12451594,96939493,"[ 2  0  0  3  0  1  0  3  1  0  0  3  0  1  2  1  0  5  0  2  0  0  1  8
  4  8  7  3  7  2  1  3 10  2  5  4  0  6 13  3 12  1  0  8  7  5 11 13
  5 15  0  4 10 18  4 12 16  2 15 16  0 17 20  5 22 22  3 14 15  0 16 16
  5 20 18 18 21 12  6]"
8400,342,1.0,7,3,1344.9159803390503,152.26633071899414,0,2150400,12604933,98008869,"[ 5  3  2  3  3  2  0  3  1  0  0  3  0  1  2  0  1  4  0  2  0  1  6  2
  4  8  7  3  4  5  0  7  3  2  7 13  2  8  8  3  8  7  0  8  7  3 11 11
  2  2 10  4 10 18  0 16 15  3  3  2  5 21 21  1  1 22  1 17 20  1 20 15
  5 18 20 18 21 12  6]"
8500,342,1.0,7,3,1360.1021404266357,151.86156272888184,0,2176000,12758039,99075821,"[ 4  1  3  1  2  2  0  3  1  0  0  3  0  1  2  0  2  0  0  2  0  2  5  2
  4  8  7  2  5  1  4 11 12  0  2  6  0 12  3  2  2 11  0  8  7  4  3  3
  2 11 11  4 10 18  0 10 13  2 14 14  1 19 23  1 20 16  3 21 18  3 19 14
  2  2 22 18 21 12  6]"
8600,342,1.0,7,3,1375.3307809829712,152.28636980056763,0,2201600,12911796,100146145,"[ 3  0  2  3  0  2  0  3  1  0  0  3  0  1  2  0  6  2  0  2  0  3  6  0
  4  8  7  0  2  4  4  1  1  4  7  6  2  3 10  4  4 10  0  8  7  1 14 17
  0 14 13  4 10 18  1 14  3  3 11  0  3 23 18  3  1 15  2 23 20  4  2 18
  3  3 16 18 21 12  6]"
8700,342,1.0,7,3,1390.6109337806702,152.80149221420288,0,2227200,13066121,101221368,"[ 3  0  3  1  2  3  0  3  1  0  0  3  0  1  2  2  5  8  0  2  0  5  0  5
  4  8  7  1  7  4  1  9  4  1  0  3  1  0  9  0  8  2  0  8  7  2 18 16
  0 14 14  4 10 18  0 14 18  1 13  2  1  0 15  3 15  0  0 15  0  3 19 21
  3 20 16 18 21 12  6]"
8800,342,1.0,7,3,1405.429327249527,148.18389177322388,0,2252800,13212799,102245864,"[ 5  2  0  0  3  0  3  3  0  0  0  3  0  1  2  1  4  3  0  2  0  2  5  5
  4  8  7  2  7  7  1  3  3  1  0  5  1 12 13  2  8  6  0  8  7  5 15  0
  3 10 14  4 10 18  0 10  9  0 11  3  5  3  1  4 18 15  0 20 18  0  3  1
  3  3 19 18 21 12 27]"
8900,342,1.0,7,3,1419.736934185028,143.0760359764099,0,2278400,13351793,103216430,"[ 3  1  1  5  2  1  5  3  1  0  0  3  0  1  2  3  5  1  0  2  0  5  8  2
  4  8  7  5  8  2  1  1  8  5  2  2  4  0  7  3 10  4  0  8  7  5 15  9
  1 11  0  4 10 18  1  1  1  4 15 15  1 16  3  5 19  0  2 17 18  0  3  1
  0  0 23 18 21 12 27]"
9000,342,1.0,7,3,1434.0714716911316,143.34534168243408,0,2304000,13491190,104190492,"[ 4  1  1  1  0  2  5  2  3  0  0  3  0  1  2  0  1  7  0  2  0  4  2  5
  4  8  7  5  5  3  5  5  6  0  2  2  4  1  3  5  7  9  0  8  7  2 14 15
  2 10  9  4 10 18  0 14 17  2 10 15  0 22 14  1  1  0  0 20  0  0  3  1
  0 15 15 18 21 12 27]"
9100,342,1.0,7,3,1448.454083442688,143.82607221603394,0,2329600,13630839,105167488,"[ 3  3  2  1  2  0  0  1  0  0  0  3  0  1  2  5  5  4  0  2  0  5  4  4
  4  8  7  3  5  3  0  5 13  2  7 13  0  2 11  2  7  7  0  8  7  1 17  9
  2 15 13  4 10 18  1 16  1  1  2 14  2 16 14  4 17 14  2 22 22  0  3  1
  4 17 20 18 21 12 27]"
9200,342,1.0,7,3,1462.8863310813904,144.32244062423706,0,2355200,13770923,106148697,"[ 4  3  1  1  1  1  2  2  3  0  0  3  0  1  2  0  6  6  0  2  0  1  8  3
  4  8  7  5  8  4  1  3 11  5  0  0  3  9 12  4  8  6  0  8  7  4  9 15
  5 13 12  4 10 18  2  3  1  5  3 16  3 19  0  3 15  0  4 15 20  0  3  1
  2  2 14 18 21 12 27]"
9300,342,1.0,7,3,1477.3894028663635,145.03068208694458,0,2380800,13913106,107141430,"[ 5  3  3  4  0  3  1  3  0  0  0  3  0  1  2  2  8  1  0  2  0  4  7  0
  4  8  7  5  6  3  3  4 12  4  5  4  4  7  0  3  2  0  0  8  7  0  2 15
  1 10 10  4 10 18  4  2  1  5  3 12  0 21 19  5 14 17  0 15 23  0  3  1
  1 20 16 18 21 12 27]"
9400,342,1.0,7,3,1491.7234032154083,143.3399772644043,0,2406400,14052694,108115547,"[ 2  2  2  5  2  0  4  3  0  0  0  3  0  1  2  0  5  3  0  2  0  5  8  6
  4  8  7  1  3  4  3  0  2  4  3  6  0 11  0  1  5 12  0  8  7  3 16  3
  4 11  1  4 10 18  3 14 12  1 16  1  0 14  0  3  2  0  4 15 15  0  3  1
  4 14  2 18 21 12 27]"
9500,342,1.0,7,3,1506.1516938209534,144.282865524292,0,2432000,14193526,109099426,"[ 5  1  0  5  3  2  3  3  0  0  0  3  0  1  2  4  6  5  0  2  0  0  3  1
  4  8  7  2  2  6  1 10 10  1  8  9  1 12 12  0  4  7  0  8  7  4 12  0
  0 13 14  4 10 18  5  0 16  1 13  2  5  3  2  5  1 18  1  3 19  0  3  1
  2 14  1 18 21 12 27]"
9600,342,1.0,7,3,1520.669599056244,145.17900943756104,0,2457600,14335302,110091451,"[ 5  1  3  5  3  2  2  2  1  0  0  3  0  1  2  3  3  8  0  2  0  2  4  1
  4  8  7  4  1  1  2  3  8  2  8  0  5  8 11  4  5  6  0  8  7  4  9 11
  4 16  3  4 10 18  3 13  2  1 12 17  0 16  2  1 22 17  5 16  1  0  3  1
  4 21 14 18 21 12 27]"
9700,342,1.0,7,3,1535.1666038036346,144.9700117111206,0,2483200,14476606,111080197,"[ 1  0  3  3  1  2  3  2  2  0  0  3  0  1  2  1  8  5  0  2  0  4  0  7
  4  8  7  0  4  1  4  7 10  0 13 12  4  4  4  3  1  4  0  8  7  0 15 12
  1 16 17  4 10 18  4 16  9  5 10  1  5 16 14  0 15 15  2 21 14  0  3  1
  2 14 18 18 21 12 27]"
9800,342,1.0,7,3,1549.5584425926208,143.9183497428894,0,2508800,14616260,112057254,"[ 4  3  1  1  2  0  1  2  2  0  0  3  0  1  2  4  7  5  0  2  0  3  0  8
  4  8  7  2  5  3  2  2  4  3 10  8  0  7 13  5 10 11  0  8  7  1 18 11
  3 13 15  4 10 18  1 13 10  2 10 14  5 23  3  0 15 15  5 15 18  0  3  1
  5 14 16 18 21 12 27]"
9900,342,1.0,7,3,1563.9172554016113,143.5880947113037,0,2534400,14756289,113035278,"[ 2  2  0  4  0  2  5  3  1  0  0  3  0  1  2  1  6  3  0  2  0  2  5  1
  4  8  7  2  8  1  5  2  6  2 10 11  2  7  0  4  0 13  0  8  7  3 11 15
  0 12 11  4 10 18  5 16 13  2  2  0  1  3 18  0  3 14  5 18  1  0  3  1
  5 14 22 18 21 12 27]"
10000,342,1.0,7,3,1578.4049785137177,144.87719535827637,0,2560000,14897652,114022300,"[ 3  0  3  0  1  0  2  2  3  0  0  3  0  1  2  5  7  6  0  2  0  2  7  7
  2  4  7  4  8  7  5 10  6  2  6 13  1 13  2  2 12 12  0  8  7  3 16 11
  0  9 13  4 10 18  2 10  9  1 15 12  2 15  0  2 19 14  2 15  2  0  3  1
  2 23 18 18 21 13 27]"
10100,342,1.0,7,3,1592.80606341362,144.01081085205078,0,2585600,15037955,115001247,"[ 5  1  2  4  2  1  0  1  1  0  0  3  0  1  2  5  0  8  0  2  0  1  5  3
  5  1  8  4  8  7  1 11  8  0  3  7  0  5  1  3 12 12  0  8  7  3  2 13
  3 14 13  4 10 18  0 16 10  0 15 15  3 14 14  5 16  0  1 19  2  0  3  1
  3 23 18 18 21 13 27]"
10200,342,1.0,7,3,1607.2423079013824,144.36240911483765,0,2611200,15178609,115983498,"[ 0  2  2  3  0  1  4  0  1  0  0  3  0  1  2  2  3  8  0  2  0  5  6  2
  1  3  4  4  8  7  3  6  6  2 12  8  0  3  1  5  8 10  0  8  7  5 16 16
  3 11 16  4 10 18  0 12 18  3 13  1  0  0 17  3 20  1  4  3 16  2  3  1
  3  0  0 18 21 13 16]"
10300,342,1.0,7,3,1621.6839711666107,144.41659927368164,0,2636800,15320511,116971507,"[ 2  2  3  3  2  3  1  1  3  0  0  3  0  1  2  3  0  5  0  2  0  5  6  8
  1  4  8  5  3  1  1 10 11  4  7  8  0  3  1  2  6  4  0  8  7  4  3 15
  5  3 16  4 10 18  5  1  2  0  1  0  0 17 21  4 16 20  3  1  2  1  2 15
  4 19 21 18 21 15 16]"
10400,342,1.0,7,3,1636.070105791092,143.86131048202515,0,2662400,15460880,117949932,"[ 4  2  0  0  3  1  1  2  3  0  0  3  0  1  2  4  2  7  0  2  0  2  7  8
  3  3  4  3  4  8  4  4  2  4  7  8  0  3  1  1 12  6  0  8  7  5 15 11
  3  0  9  4 10 18  3 14  0  1 16 16  2 16  0  2 16 16  5 17 19  1  0 17
  1  3 21 18 21 15 16]"
10500,342,1.0,7,3,1650.7292926311493,146.5918254852295,0,2688000,15605494,118958511,"[ 2  0  1  2  0  3  0  2  3  0  0  3  0  1  2  5  0  8  0  2  0  2  6  2
  3  3  0  0  1  3  0  0  6  4  7  8  0  3  1  4  9  1  0  8  7  0 17 11
  2 13  3  4 10 18  5 11  9  0  3 18  5 23 14  4 17 19  3 17 14  3 15 18
  1  3  3 18 21 15 16]"
10600,342,1.0,7,3,1665.2447681427002,145.1547145843506,0,2713600,15747947,119952350,"[ 1  2  1  2  3  1  2  1  3  0  0  3  0  1  2  2  0  4  0  2  0  5  3  1
  0  4  3  3  4  6  0 10  2  4  7  8  0  3  1  2 13 12  0  8  7  2 17 13
  5 13  2  4 10 18  4 14 17  1 18 10  1  3 16  1 15  2  4 20 14  3  1  3
  3  3 15 18 21 15 16]"
10700,342,1.0,7,3,1679.6760070323944,144.3123459815979,0,2739200,15889056,120937047,"[ 3  3  3  2  1  2  5  2  0  0  0  3  0  1  2  1  1  7  0  2  0  2  4  2
  1  6  6  4  8  0  1  9  2  4  7  8  0  3  1  1 11  6  0  8  7  0 11  0
  5  2  2  4 10 18  1 10  1  5 14  9  2 15  0  0 19  0  3 16 14  3 18 20
  2 15 23 18 21 15 16]"
10800,342,1.0,7,3,1694.0549721717834,143.7896180152893,0,2764800,16029451,121916497,"[ 3  0  1  3  3  3  5  3  3  0  0  3  0  1  2  2  4  4  0  2  0  4  6  0
  0  2  8  2  6  0  4 10  6  4  7  8  0  3  1  0  0  8  0  8  7  3 14  1
  1 12  1  4 10 18  2 16  1  1 15  9  5 17 16  4 20  0  1 23  0  0 23  2
  1 18 22 18 21 15 16]"
10900,342,1.0,7,3,1708.5611832141876,145.06207704544067,0,2790400,16171592,122908487,"[ 1  0  0  4  1  0  1  3  1  0  0  3  0  1  2  2  4  4  0  2  0  2  6  6
  5  0  1  4  4  7  4  5 13  4  7  8  0  3  1  2  2 12  0  8  7  4  1 17
  0 15  3  4 10 18  1 13 17  0  0  9  1 15 14  2  1  3  1 21 17  5 22 23
  3 17 18 18 21 15 16]"
11000,342,1.0,7,3,1723.254019498825,146.92833423614502,0,2816000,16315976,123917247,"[ 3  0  3  0  3  1  4  1  2  0  0  3  0  1  2  0  5  4  0  2  0  0  1  0
  0  5  3  0  6  5  3 12 13  4  7  8  3 12  1  3  9  7  0  8  7  1  1 13
  0  2 13  4 10 18  3 11 12  5 14  2  1 23 14  0 21 16  1 23 22  5  0 23
  4 17 14 18 21 15  5]"
11100,342,1.0,7,3,1738.5283920764923,152.7436900138855,0,2841600,16469511,124989067,"[ 3  3  3  0  3  1  5  3  3  0  0  3  0  1  2  0  5  3  0  2  0  5  5  5
  2  1  8  1  8  1  0  5  8  4  7  8  3  8  5  2 10  4  0  8  7  2 16  0
  3 15  0  4 10 18  5 16  9  0 12 10  3  1  2  4 14  1  1 16 17  5  0 21
  4  0  1 18 21 15  5]"
11200,342,1.0,7,3,1753.703786611557,151.75390720367432,0,2867200,16622173,126052739,"[ 1  2  2  0  3  1  2  0  1  0  0  3  0  1  2  4  8  5  0  2  0  1  8  7
  3  6  8  0  0  7  0 12  4  4  7  8  3  5  4  5 12  8  0  8  7  1  9  9
  1  1  9  4 10 18  1 11  0  4  9 10  1 21 19  5 18  2  3 14 18  4 20  2
  3 18 21 18 21 15  5]"
11300,342,1.0,7,3,1768.7396354675293,150.35845041275024,0,2892800,16772849,127102688,"[ 3  0  0  0  3  1  4  0  0  0  0  3  0  1  2  0  8  5  0  2  0  4  8  4
  5  5  1  2  4  1  5  4  3  4  7  8  4  7  7  5  7  5  0  8  7  2  1  2
  4 15 16  4 10 18  1 17  0  3  0  9  2 18  3  1 18 23  2  2  1  5 17 14
  4 22 21 18 21 15  5]"
11400,342,1.0,7,3,1783.8937911987305,151.54152393341064,0,2918400,16923244,128150710,"[ 5  3  0  0  3  1  4  0  0  0  0  3  0  1  2  3  5  1  0  2  0  5  6  7
  2  3  5  2  2  3  3 13  8  4  7  8  3  2  3  1 12 12  0  8  7  1  9 13
  3 12 16  4 10 18  4 13 16  1 11 16  5  2 23  2 19  3  3 17  1  4  1 23
  2 16 14 18 21 15  5]"
11500,342,1.0,7,3,1799.1202676296234,152.26472854614258,0,2944000,17076563,129219078,"[ 3  1  1  0  3  1  0  0  1  0  0  3  0  1  2  0  7  1  0  2  0  0  3  2
  5  0  3  3  3  5  0 13 11  4  7  8  0  8 12  0 11 13  0  8  7  5  0 18
  2  3  9  4 10 18  4 13 13  0 12  9  4  0  0  1 21  2  4 14 18  2  2 17
  2  1  1 18 21 15  5]"
11600,342,1.0,7,3,1814.2759609222412,151.55689477920532,0,2969600,17229226,130281983,"[ 3  2  0  4  0  1  0  1  3  0  0  3  0  1  2  3  1  3  0  2  0  2  0  4
  1  7  8  5  1  2  3  0  3  4  7  8  5  1  2  1  6  4  0  8  7  2  2  1
  5  0 17  4 10 18  5 14 17  3 12 10  2 20 23  1 20 23  0  1 22  1  0 23
  0  1  0 18 21 15  6]"
11700,342,1.0,7,3,1829.3713374137878,150.95373153686523,0,2995200,17380681,131336995,"[ 3  1  0  5  1  3  0  1  3  0  0  3  0  1  2  1  0  2  0  2  0  0  3  7
  3  7  7  0  7  5  2  9  3  4  7  8  1  5  5  4  4  7  0  8  7  4  3 11
  3 18  0  4 10 18  3 14  1  3  1 18  4 21  1  0 23 14  1 15 23  4 23 17
  1  0 17 18 21 15  6]"
11800,342,1.0,7,3,1844.550117969513,151.78776741027832,0,3020800,17533442,132401052,"[ 3  0  1  5  2  1  0  1  3  0  0  3  0  1  2  5  2  7  0  2  0  3  7  2
  4  0  8  0  3  5  2  0  1  4  7  8  5 11  8  1 11 11  0  8  7  4 11 18
  3  2 17  4 10 18  1 11 11  4  0 11  2 19 21  0  3 22  5 22 16  2 17 23
  2  0  2 18 21 15  6]"
11900,342,1.0,7,3,1859.7699809074402,152.1985936164856,0,3046400,17686943,133469868,"[ 3  1  1  0  2  0  0  1  3  0  0  3  0  1  2  5  1  3  0  2  0  2  4  2
  0  0  4  4  7  7  1  6 10  4  7  8  4  0  8  1 12 10  0  8  7  2 11  3
  0 18 17  4 10 18  0 15 10  5 18 11  0 18 19  2 21 17  4  0  2  1 21  0
  0 15 18 18 21 15  6]"
12000,342,1.0,7,3,1875.0120255947113,152.42041110992432,0,3072000,17840405,134539032,"[ 2  2  2  0  1  0  0  1  3  0  0  3  0  1  2  0  6  1  0  2  0  2  8  4
  1  6  3  0  1  3  0 13  5  4  7  8  3 12  4  4  8 12  0  8  7  5  3  3
  5 10 18  4 10 18  0  9  0  4 18  0  2 20 14  2  0 22  5 23 21  2 15 16
  0  3  0 18 21 15 13]"
12100,342,1.0,7,3,1889.622798204422,146.1076807975769,0,3097600,17984478,135543668,"[ 1  0  3  2  3  3  0  2  2  0  0  3  0  1  2  4  5  2  0  2  0  0  6  0
  4  0  0  0  1  3  4  8  9  4  7  8  4 11  2  4 12  8  0  8  7  4 18  1
  3 14 11  4 10 18  0 18  3  1 16 12  4 14 22  1  0 14  3 17  0  2 17 18
  2 21 15 18 21 15 13]"
12200,342,1.0,7,3,1904.2786903381348,146.5588879585266,0,3123200,18129401,136553984,"[ 5  1  0  4  3  1  1  0  0  0  0  3  0  1  2  3  4  7  0  2  0  0  8  1
  0  0  1  0  1  3  4  2  6  4  7  8  0 11  5  3  6  7  0  8  7  3 13  2
  5  1 14  4 10 18  2  2 15  0 10  2  2 18 22  5  3 22  0  3 21  1 19 18
  0 16 21 18 21 15 13]"
12300,342,1.0,7,3,1918.8613619804382,145.826678276062,0,3148800,18273100,137555605,"[ 2  0  3  0  3  1  2  2  1  0  0  3  0  1  2  2  0  6  0  2  0  5  2  2
  1  8  1  0  1  3  4  9  7  4  7  8  2  7  8  2 13  8  0  8  7  3  9 18
  5 10  2  4 10 18  0  9 12  1 15  9  2 16 17  2 15 21  2 19 19  2  0 19
  1  2 17 18 21 15 13]"
12400,342,1.0,7,3,1933.58038854599,147.1902370452881,0,3174400,18418630,138569785,"[ 0  1  3  0  3  3  0  1  3  0  0  3  0  1  2  1  0  7  0  2  0  0  5  4
  3  0  8  0  1  3  1  1 11  4  7  8  0  2 12  3  8 10  0  8  7  2  3 17
  5  3 14  4 10 18  1  3 14  5 15 15  1 14 16  5  1 16  2 20  3  1  2 14
  4  0 16 18 21 15 13]"
12500,342,1.0,7,3,1948.7134447097778,151.33052349090576,0,3200000,18570837,139630034,"[ 0  1  3  5  2  1  3  0  0  0  0  3  0  1  2  2  4  8  0  2  0  0  2  7
  2  4  5  2  2  0  2  8  6  4  7  8  5  4 12  4  1  0  0  8  7  5 10  3
  2 15 15  4 10 18  4 17  0  3  1 17  4  1 22  2 18 14  1 16 23  1 16 16
  3 15 14 18 21 15  4]"
12600,342,1.0,7,3,1963.3517479896545,146.38299942016602,0,3225600,18714687,140635052,"[ 0  1  1  1  2  1  0  3  2  0  0  3  0  1  2  5  0  4  5  3  8  0  2  0
  5  6  4  4  0  1  5  7  6  4  7  8  1 13  5  5  8 10  0  8  7  1 18 13
  2  0 15  4 11 18  0 18 14  3  3 18  0 14 22  2 19 23  3 20 17  0  1  3
  0 14 23 18 21 15 27]"
12700,342,1.0,7,3,1978.0010995864868,146.49348258972168,0,3251200,18858426,141638684,"[ 0  3  1  1  2  1  2  2  1  0  0  3  0  1  2  5  7  4  2  8  1  0  2  0
  5  7  5  3  6  1  2  0  8  4  7  8  3  9  9  2  7  8  0  8  7  2 12 14
  4 10 15  4 11 18  4  9 10  4 15 15  3  1 14  2  1 21  0 23  2  5 21  3
  2  2 22 18 21 15  4]"
12800,342,1.0,7,3,1993.0978281497955,150.9672498703003,0,3276800,19009340,142692593,"[ 0  3  1  3  0  2  0  1  2  0  0  3  0  1  2  5  2  4  5  6  3  0  2  0
  1  6  4  2  6  6  2  0  6  4  7  8  3  8 10  3  9 10  0  8  7  5  2 17
  4  9 18  4 11 18  1 10 17  2  9 11  4 16 22  0 15 21  4 23  1  5  2 15
  3  3 22 18 21 15  4]"
12900,342,1.0,7,3,2008.2890722751617,151.91240787506104,0,3302400,19161903,143757182,"[ 0  3  1  3  2  2  2  1  0  0  0  3  0  1  2  0  6  6  5  3  6  0  2  0
  4  5  4  4  6  2  1 13 12  4  7  8  3 12  1  5 11  0  0  8  7  1 11 18
  2 13 13  4 11 18  5 16 13  4 12 10  3 19 18  1 19 21  1  2  2  2  1 23
  3 17  3 18 21 15  4]"
13000,342,1.0,7,3,2023.4684581756592,151.7938232421875,0,3328000,19314484,144821477,"[ 0  3  1  3  3  0  4  3  3  0  0  3  0  1  2  3  2  0  3  3  6  0  2  0
  4  4  3  2  4  8  1 11  0  4  7  8  4 11  7  0 11  0  0  8  7  1  3  1
  5 16  1  4 11 18  2 13  0  1 13 10  4 18 22  1 21  0  1  2 17  3 18 22
  1 20 14 18 21 15  4]"
13100,342,1.0,7,3,2038.5105295181274,150.42068004608154,0,3353600,19464991,145869777,"[ 0  3  1  3  1  3  4  0  0  0  0  3  0  1  2  4  7  3  1  1  6  0  2  0
  1  3  3  2  6  3  1  3  0  4  7  8  1  7  8  4  5  2  0  8  7  5 13 18
  5  2  2  4 11 18  1 17 15  1 18  9  0 15 15  2 21 22  3 17  0  5 23 22
  1 20 17 18 21 15  4]"
13200,342,1.0,7,3,2053.6005828380585,150.90049028396606,0,3379200,19616564,146925676,"[ 0  3  1  3  0  0  2  1  3  0  0  3  0  1  2  3  7  4  4  2  5  0  2  0
  0  4  5  4  7  7  4  8 13  4  7  8  4  4  1  3  6  3  0  8  7  2  0 16
  2 14  0  4 11 18  3  0 12  1  1 12  5 18 16  1 18 15  1 20  0  4 16 15
  5 17 17 18 21 15  4]"
13300,342,1.0,7,3,2068.772276878357,151.71690464019775,0,3404800,19769296,147989740,"[ 0  3  1  5  1  1  5  1  0  0  0  3  0  1  2  0  0  2  1  5  3  0  2  0
  0  4  1  5  1  7  3  3  5  4  7  8  2 12  9  4  8  9  0  8  7  2 16  3
  3 10 14  4 11 18  3 18  9  3 11  0  0 18 23  4 20 22  0 19  2  4 14 16
  1 23  1 18 21 15  4]"
13400,342,1.0,7,3,2083.456650018692,146.84369564056396,0,3430400,19913659,148998108,"[ 1  2  1  4  0  1  1  0  0  0  0  3  0  1  2  0  8  6  5  0  2  0  2  0
  4  0  8  0  5  4  2 12  5  4  7  8  3  1 10  4  3  0  0  8  7  4 15  2
  2  2 15  4 11 18  4 14 15  3  2 18  0  3  1  1 18 17  2  3 18  0 20 21
  0 19 23 18 21 15 24]"
13500,342,1.0,7,3,2097.794684648514,143.3803129196167,0,3456000,20052813,149970856,"[ 3  2  1  4  2  1  0  1  2  0  0  3  0  1  2  4  1  7  4  5  3  0  2  0
  4  0  6  0  1  1  3  7  5  4  7  8  2  1  0  4 13 10  0  8  7  0  3  2
  1 17  3  4 11 18  5 13  9  5 15 11  0  3  1  5 15 16  4 21 21  5  3 18
  3 15 20 18 21 15 24]"
13600,342,1.0,7,3,2112.14391374588,143.49225282669067,0,3481600,20192045,150944656,"[ 2  0  2  3  1  1  3  2  1  0  0  3  0  1  2  2  7  5  5  6  0  0  2  0
  0  5  7  5  8  4  1 10  3  4  7  8  2 11 12  1 13  9  0  8  7  3 15 17
  5 13 10  4 11 18  0 17  0  3 16 16  0  3  1  3 15 18  5  0 14  1 17 20
  1 15 15 18 21 15 24]"
13700,342,1.0,7,3,2126.6833221912384,145.3940486907959,0,3507200,20333261,151932449,"[ 0  3  3  1  2  3  2  0  3  0  0  3  0  1  2  5  8  6  5  0  0  0  2  0
  2  6  4  0  1  3  2  6  8  4  7  8  2 11 13  0 10  6  0  8  7  0 18  0
  4 18 12  4 11 18  4 16 15  3 11  2  3  2 19  4  2 15  3 21  2  2 19 16
  1 23 15 18 21 15 13]"
13800,342,1.0,7,3,2141.344815969467,146.61489963531494,0,3532800,20478066,152941095,"[ 1  1  3  4  0  1  1  3  0  0  0  3  0  1  2  4  1  4  2  1  5  0  2  0
  0  6  7  0  1  3  5  5 13  4  7  8  3  2 10  1  1  3  0  8  7  4  9 10
  4 15  9  4 11 18  2 11 15  2  3  3  1 22 17  2 19 23  0 14 17  2 18 23
  2  3 18 18 21 15 13]"
13900,342,1.0,7,3,2156.27037024498,149.2555069923401,0,3558400,20627148,153979511,"[ 1  0  1  0  3  1  2  3  3  0  0  3  0  1  2  1  2  0  5  3  6  0  2  0
  1  2  4  2  3  3  1  9  2  4  7  8  1  8  4  4 12  2  0  8  7  2 18 17
  2 16  0  4 11 18  5  1  2  4 16 15  4 20 23  4 15  2  4 19 18  5 14 21
  2 14 15 18 21 15  5]"
14000,342,1.0,7,3,2171.3629002571106,150.9252643585205,0,3584000,20778496,155035145,"[ 3  2  0  0  3  1  5  0  1  0  0  3  0  1  2  1  7  0  1  7  8  0  2  0
  3  4  3  0  1  2  3  6  3  4  7  8  5  9  2  0  1  1  0  8  7  0 18  3
  2 14 17  4 11 18  2 11 18  2  3 10  4 21  0  2 20 14  1 20 14  0 20 19
  4 17  1 18 21 15  5]"
14100,342,1.0,7,3,2186.528894662857,151.65991067886353,0,3609600,20930728,156096390,"[ 2  2  1  0  3  1  0  3  2  0  0  3  0  1  2  2  7  7  2  7  8  0  2  0
  5  7  5  1  2  0  0  6 12  4  7  8  4  2 13  3  3  0  0  8  7  3 11 10
  0 12 18  4 11 18  5 16 13  5 17 16  3  2  0  0  3 16  5 14  0  4 16  1
  0 14 19 18 21 15  5]"
14200,342,1.0,7,3,2201.6419162750244,151.1301851272583,0,3635200,21081842,157151451,"[ 0  2  2  0  3  1  0  2  3  0  0  3  0  1  2  5  5  7  0  7  6  0  2  0
  0  2  7  5  8  6  2 13  5  4  7  8  2  2  9  0  6  3  0  8  7  0 12 17
  1 11  3  4 11 18  1  1 16  3 14  2  3  3 20  0 18 18  3 14 16  4  0 16
  1 20 15 18 21 15  5]"
14300,342,1.0,7,3,2216.795609474182,151.53689861297607,0,3660800,21233918,158211655,"[ 1  2  0  0  3  1  2  1  0  0  0  3  0  1  2  5  8  6  3  4  6  0  2  0
  3  7  1  5  5  8  5  8  9  4  7  8  0  7 11  5  5  9  0  8  7  1  0  0
  1 16  3  4 11 18  0 10  1  4  9 11  0 14 14  5  0 14  2 17 19  5 14  1
  5 22 18 18 21 15  5]"
14400,342,1.0,7,3,2231.924628019333,151.29015445709229,0,3686400,21385835,159271720,"[ 2  2  3  0  3  1  5  3  1  0  0  3  0  1  2  3  0  2  1  2  2  0  2  0
  0  5  2  0  0  2  1  7  9  4  7  8  1  8  0  2  4  5  0  8  7  0  1  9
  0 16 14  4 11 18  1 10 11  2 16  2  2 14 17  2 22 22  5  1  0  5 20 19
  5 16  3 18 21 15  5]"
14500,342,1.0,7,3,2247.106008529663,151.81376934051514,0,3712000,21538910,160337924,"[ 1  2  2  0  3  1  4  0  2  0  0  3  0  1  2  2  8  5  1  6  7  0  2  0
  3  2  3  3  6  0  5  1  6  4  7  8  1  7  5  3  0  1  0  8  7  3 11 15
  3 16  9  4 11 18  4  2 11  3 13 15  1  3  1  2 15  2  4 23  2  3 22 19
  2 16  3 18 21 15  5]"
14600,342,1.0,7,3,2262.259644508362,151.53632164001465,0,3737600,21691611,161401438,"[ 5  2  1  0  3  1  5  3  2  0  0  3  0  1  2  0  3  8  2  7  2  0  2  0
  3  7  0  2  3  6  3 13 13  4  7  8  0  7  0  1  8  3  0  8  7  1 16 13
  2  9 10  4 11 18  0 11 12  4  1  1  4 15 15  4 22 16  5 21 17  5 21 14
  4  0 14 18 21 15  5]"
14700,342,1.0,7,3,2277.297256708145,150.3760862350464,0,3763200,21842589,162452373,"[ 3  0  2  0  3  1  3  1  0  0  0  3  0  1  2  0  2  1  2  8  1  0  2  0
  0  6  6  4  1  4  2  2  8  4  7  8  1  6  9  5  7  8  0  8  7  5  3  9
  1 16  9  4 11 18  0 14  9  4 18  1  2 22 17  1  3 17  2 16 22  1 23 17
  3  0  2 18 21 15  5]"
14800,342,1.0,7,3,2292.35905957222,150.6179928779602,0,3788800,21993566,163505296,"[ 0  0  3  0  3  1  2  2  3  0  0  3  0  1  2  3  7  4  0  2  6  0  2  0
  1  4  1  3  8  4  2  5  9  4  7  8  3  5  4  0 10 11  0  8  7  0 15 13
  1 10 10  4 11 18  1 16 14  1 17 11  3 15  1  4  3 20  0 23 14  1 16 23
  5  3 14 18 21 15  5]"
14900,342,1.0,7,3,2307.4060876369476,150.47024488449097,0,3814400,22144526,164557471,"[ 0  0  1  0  3  1  2  3  0  0  0  3  0  1  2  0  7  2  4  7  1  0  2  0
  4  2  0  5  6  2  4  3  8  4  7  8  5  9  3  4 12 13  0  8  7  0  3  2
  0 18 16  4 11 18  0 18  3  0 15 14  0 18 15  5 20 18  3 22 17  0 14  0
  2 23 19 18 21 15  5]"
15000,342,1.0,7,3,2322.425456047058,150.19365310668945,0,3840000,22294722,165603902,"[ 5  1  2  0  0  0  2  2  1  0  0  3  0  1  2  0  3  1  0  7  6  0  2  0
  4  7  7  3  3  1  4  2 10  4  7  8  5  9 11  3 11  2  0  8  7  5  2 18
  1 14  0  4 11 18  5  1 11  0  0 15  3 20 17  5  1 23  0  0  0  4 14  3
  2 19 19 18 21 15  9]"
15100,342,1.0,7,3,2337.1207571029663,146.95297956466675,0,3865600,22440213,166617422,"[ 4  1  0  4  3  0  5  2  0  0  0  3  0  1  2  0  3  1  5  6  2  0  2  0
  2  2  3  3  5  8  3 13  3  4  7  8  4  4 11  0 12  4  0  8  7  3  2  2
  5 17 14  4 11 18  0  0 13  3 14  9  5  1 15  2 22 22  4 17 15  2 22  3
  5 22 19 18 21 15  9]"
15200,342,1.0,7,3,2351.8045134544373,146.8375277519226,0,3891200,22585500,167629818,"[ 4  1  0  0  0  2  5  2  1  0  0  3  0  1  2  0  3  1  2  7  3  0  2  0
  3  1  7  0  2  8  3 13  9  4  7  8  2  6  9  0  5 10  0  8  7  2 15 16
  0  2  2  4 11 18  4 16 12  4 16 15  1 23 17  4 15 21  0 18 16  0  2  3
  1 23 22 18 21 15  9]"
15300,342,1.0,7,3,2366.6140661239624,148.0954909324646,0,3916800,22732895,168656070,"[ 1  1  0  1  3  0  0  2  3  0  0  3  0  1  2  0  3  1  0  8  7  0  2  0
  1  6  6  2  5  5  5  2  0  4  7  8  1 10  5  0 11  4  0  8  7  4 13 12
  0  0 17  4 11 18  0 17  3  4 10  1  0 14 19  0 14 18  0 14 20  0  1 20
  3  1 22 18 21 15  9]"
15400,342,1.0,7,3,2381.42564201355,148.11571836471558,0,3942400,22880174,169681802,"[ 3  3  3  4  3  0  1  2  0  0  0  3  0  1  2  0  3  1  4  7  2  0  2  0
  1  4  2  0  4  8  3 12  2  4  7  8  5 13  5  4 12  2  0  8  7  4  2  9
  4  0 16  4 11 18  0 12  2  5 17 16  4 18 18  2 14 16  5 18 21  1 22  1
  3 19 20 18 21 15  9]"
15500,342,1.0,7,3,2396.0569701194763,146.31324529647827,0,3968000,23024356,170687602,"[ 0  2  3  2  3  3  3  0  2  0  0  3  0  1  2  0  3  1  1  8  5  0  2  0
  1  5  1  5  7  7  2  7  3  4  7  8  5 13  6  4 12 11  0  8  7  4 17  2
  5 11 16  4 11 18  0  1  2  1  0 18  3 16  3  3 20 20  3 19 22  0 16  1
  1 19 19 18 21 15  9]"
15600,342,1.0,7,3,2410.748584508896,146.91611051559448,0,3993600,23169471,171699991,"[ 4  3  2  3  0  1  3  0  0  0  0  3  0  1  2  0  3  1  4  3  5  0  2  0
  3  2  4  5  2  0  4  5 10  4  7  8  0 13  0  0  6 12  0  8  7  0 11 11
  5 10  9  4 11 18  5 10  2  0  2 14  3  1 19  1 21 15  0 16  1  1  3 21
  5 23  0 18 21 15  9]"
15700,342,1.0,7,3,2425.4588136672974,147.10225820541382,0,4019200,23315392,172716632,"[ 4  0  1  4  0  1  0  3  0  0  0  3  0  1  2  0  3  1  3  2  7  0  2  0
  4  2  6  0  2  0  5  8  8  4  7  8  0 11  9  2  7  8  0  8  7  4  3 10
  5 10  3  4 13 18  4 13 17  3  0 10  1 22 18  2 18  3  1 16 14  0  2 19
  1 20 21 18 21 15  9]"
15800,342,1.0,7,3,2440.2584590911865,147.99641609191895,0,4044800,23462200,173739979,"[ 1  2  3  2  1  3  1  3  1  0  0  3  0  1  2  0  3  1  1  2  5  0  2  0
  1  4  0  1  7  4  1  2  6  4  7  8  1 10 13  5 12  9  0  8  7  1  3  0
  1  0 12  4 11 18  5 12  0  0  1  2  1  1 16  1 23 23  4 20  2  0  2 21
  2 17 18 18 21 15  9]"
15900,342,1.0,7,3,2455.006501197815,147.48038053512573,0,4070400,23608423,174757951,"[ 3  1  1  5  0  3  1  1  0  0  0  3  0  1  2  0  3  1  1  8  3  0  2  0
  4  7  7  0  2  1  0  1  5  4  7  8  5 10 13  1  5  1  0  8  7  2 15 12
  4 11  1  4 11 18  5 11 10  1 15 18  2 18  0  0 16  1  1  1 16  1 20  2
  0 21 17 18 21 15  9]"
16000,342,1.0,7,3,2469.852326154709,148.45821142196655,0,4096000,23756334,175787352,"[ 2  0  1  2  0  3  5  3  2  0  0  3  0  1  2  0  3  1  3  8  7  0  2  0
  0  5  1  0  8  7  3  2  4  4  7  8  2  8  4  4 10  8  0  8  7  1 16  3
  0 18 15  4 11 18  4  0 14  3  0 13  4 19  1  1 14 23  1 22  0  1 16 16
  4 21 20 18 21 15  9]"
16100,342,1.0,7,3,2484.612298488617,147.59968757629395,0,4121600,23902784,176807259,"[ 4  3  2  5  3  0  4  0  3  0  0  3  0  1  2  0  3  1  2  7  6  0  2  0
  3  0  1  2  3  8  5 11  2  4  7  8  4  4  4  2  8  1  0  8  7  1  1  2
  4 13 11  4 11 18  5 10 10  0 18 12  5 19 15  0 15 20  2  3  0  5 15 14
  5 18  0 18 21 15  9]"
16200,342,1.0,7,3,2499.6372740268707,150.24971961975098,0,4147200,24049085,177826154,"[ 5  0  2  2  1  0  4  2  3  0  0  3  0  1  2  0  3  1  0  7  7  0  2  0
  3  0  6  5  1  5  3  5  6  4  7  8  5  0  2  2  3  1  0  8  7  5  3 15
  3 14  1  4 11 18  5  9  0  1 16  0  0  3  0  0  0 21  4 14 17  5 15 14
  1  2  3 18 21 15  9]"
16300,342,1.0,7,3,2514.4307146072388,147.93437480926514,0,4172800,24194366,178839579,"[ 4  1  2  3  0  3  4  2  1  0  0  3  0  1  2  0  3  1  4  3  4  0  2  0
  3  8  3  0  7  7  0  6  6  4  7  8  1  7  7  2 13  1  0  8  7  1 10 15
  3 16  0  4 11 18  3 14 14  1  2 11  0  3 18  5 14 19  0 15  0  1  2 22
  0 17 20 18 21 15  9]"
16400,342,1.0,7,3,2529.175047159195,147.4432897567749,0,4198400,24340698,179857621,"[ 5  0  1  0  0  2  5  0  0  0  0  3  0  1  2  0  3  1  4  2  5  0  2  0
  5  5  3  3  6  6  1  5  8  4  7  8  4  6  6  2  1 13  0  8  7  2 11 18
  1 11  3  4 11 18  0 11 13  5  3 18  4  1 18  0 17  1  4 23  0  0  0  1
  5 23 19 18 21 15  9]"
16500,342,1.0,7,3,2543.8139300346375,146.38879299163818,0,4224000,24485155,180863320,"[ 2  2  3  5  2  0  5  2  0  0  0  3  0  1  2  0  3  1  3  7  5  0  2  0
  5  2  8  5  6  8  4  6  3  4  7  8  0  7  8  0 11  9  0  8  7  2  1 11
  4 18 16  4 11 18  0  2 18  1 16 11  1 21 20  2 19 14  3 22 14  5 18 17
  4 17  3 18 21 15  9]"
16600,342,1.0,7,3,2558.5591983795166,147.45264768600464,0,4249600,24630955,181880129,"[ 4  1  1  5  0  1  2  0  2  0  0  3  0  1  2  0  3  1  3  5  6  0  2  0
  5  8  6  5  8  4  1  8 11  4  7  8  1 12  3  0  9  4  0  8  7  4 17  2
  1 17  1  4 11 18  2 11 14  3 13  0  4 19  2  1 20 15  2 20 21  4  0 18
  2 21 20 18 21 15  9]"
16631,343,1.0,7,2,2563.0988278388977,146.4395292343632,0,4257536,24675782,182192196,"[ 2  0  2  0  3  1  1  1  0  0  0  3  0  1  2  0  3  1  3  8  6  0  2  0
  4  3  6  0  8  0  5 13 11  4  7  8  2  3  6  3  9  4  0  8  7  5 11  2
  3 11  2  4 11 18  4 11  9  0 13  0  4 19  2  2 16  2  2 20 20  0 14 22
  2 21 14 18 17 15  9]"
