generation,fitness,functionality,active_nodes,longest_path,time,gen_time,nc_gens,fitness_evals,graph_evals,node_evals,genotype
0,244.0,0.6875,3,3,0.12966084480285645,129.66084480285645,6,32,380,2743,"[ 4  0  3  3  1  1  4  1  3  3  2  2  3  3  0  3  8  1  0  4  2  0  8  3
  4  0  4  1  5  4  4 11  0  0 11  0  4 11 11  3  8  8  0  3 11  1 16 18
  5  2  0  1 16 16  3  2 13  1 10  0  5  2 15  2  1 17  2 19 18  2  2  3
  2 22 23  8  2 16  3]"
100,290.0,0.84375,6,4,0.7780370712280273,6.483762264251709,43,432,6021,22068,"[ 1  3  0  2  2  0  1  1  1  0  2  0  1  1  1  3  2  2  1  6  6  4  6  3
  0  3  1  2  2  2  3  1 12  1  6  9  0  2  1  1 10  3  4  0  2  0  1 11
  5 16 10  2 14 18  2 13 16  1 15 11  5  3 15  5 20 21  1  1 19  4 20 20
  2 19  3 16 27 16 12]"
200,294.0,0.84375,4,2,1.4772512912750244,6.992142200469971,75,832,11499,47925,"[ 1  0  1  0  2  1  5  0  0  4  3  2  0  1  1  1  5  0  3  0  6  1  3  5
  0  3  1  2  8  2  0 10  2  1  3  2  0  2 12  4  0 11  1  1  1  2  0  1
  5  2  2  3  2 10  4 10 13  5  9 10  1  0  1  0 23  0  2 15 21  4 20 20
  5 16 20 16 10  0 12]"
300,305.0,0.875,3,2,2.0604844093322754,5.83233118057251,110,1232,16691,66295,"[ 1  0  3  5  3  0  0  3  0  4  2  3  1  0  0  1  7  8  4  6  6  3  7  3
  0  3  1  0  2  3  2 10  4  3 12 13  3  9 13  2 12 11  5 12 13  2  1 15
  1  1  2  3 11  9  5  1 12  4  0  2  5  2 23  4 21 18  5 18 23  5 22 22
  1 20  3 10 10  6 12]"
400,305.0,0.875,3,2,2.6419548988342285,5.814704895019531,173,1632,21795,84347,"[ 0  2  1  4  1  2  0  3  0  2  2  0  3  3  2  4  3  3  4  6  6  3  8  0
  0  3  1  0  2  1  4 12  9  5  8 11  0  1  3  5 12  9  5  8  0  0  2  0
  0  1  2  4 10  9  3  1 10  1  1 13  5 15  0  0 20 19  1 22 18  1 17 22
  3 18 23 10 10  6 12]"
500,305.0,0.875,3,2,3.237130880355835,5.9517598152160645,237,2032,26919,102726,"[ 4  2  0  0  0  1  0  3  0  0  2  1  3  2  1  1  3  7  4  6  6  2  2  6
  0  3  1  5  1  1  4 12  3  3  8  3  5  7  4  5  0  2  4 11  2  3 13 15
  3 10 11  4 11 16  3 11 10  2 18  0  2 18  2  1 20 15  5 21 18  3 21  3
  4 22 16 10 10  6 12]"
600,305.0,0.875,3,2,3.8231613636016846,5.860304832458496,295,2432,32097,121179,"[ 2  3  0  0  3  1  0  3  0  0  3  3  0  2  1  3  2  2  4  6  6  1  7  8
  0  3  1  3  7  1  4  9  0  2  3  1  1  7  2  0  1  2  5  0 13  2  1 10
  0  9  1  0 11 16  0 14  9  0 13  2  2 15 15  2 14 23  4 14 14  4 21 15
  5 16 16 10 10  6 12]"
700,312.0,0.90625,5,3,4.516399383544922,6.932380199432373,346,2832,37326,147288,"[ 5  3  0  4  1  0  0  3  0  0  1  1  5  3  1  5  7  1  4  6  6  0  0  0
  0  3  1  4  4  3  4  0  2  4 11  7  4  6  6  0  4 13  4  2  6  4  2 18
  0  1 18  1 14 15  0 15 13  4  3 10  3 21 22  1 19 14  4 14 16  4 23  3
  2 22 23 10 10 20 12]"
800,312.0,0.90625,5,3,5.25020956993103,7.338101863861084,409,3232,42312,174057,"[ 3  0  2  5  0  3  0  3  0  0  0  0  5  3  3  2  8  3  4  6  6  2  4  6
  0  3  1  1  6  6  5  9  8  3  7  7  2  3 10  4  8  5  4  2  6  0  3 16
  0  1 18  3 14 17  0 14 14  4  3  2  3 14 20  3 22 22  0 19 14  1  3  3
  1 22  2 10 10 20 12]"
900,312.0,0.90625,5,3,5.919026613235474,6.688170433044434,471,3632,47154,199678,"[ 5  1  2  4  3  1  0  3  0  0  0  2  5  2  1  0  8  0  4  6  6  0  4  1
  0  3  1  5  6  3  0  9  9  2  6 10  0  5 10  4  7  5  4  2  6  2 11 15
  0  1 18  4  2  3  4  9 14  1 10 17  3 17  2  2 22  0  0 15 14  5  0  0
  1 18 14 10 10 20 12]"
1000,312.0,0.90625,5,3,6.59922981262207,6.802031993865967,530,4032,52019,225635,"[ 0  1  0  1  1  2  0  3  0  5  0  3  4  2  3  0  3  4  4  6  6  3  1  3
  0  3  1  5  6  3  3  9  5  4  0  6  2  4 12  5  4  0  4  2  6  2  0 17
  0  1 18  5 15 14  4 11 16  4 18 15  0 15 18  1 17 16  0  1 17  5 22 14
  3 20 15 10 10 20 12]"
1100,312.0,0.90625,5,3,7.305481672286987,7.06251859664917,593,4432,56893,252601,"[ 4  2  1  0  1  2  0  3  0  4  0  1  2  0  0  4  6  6  4  6  6  2  8  3
  0  3  1  2  6  6  2  2 12  2 12  8  4  2  5  3  9 12  4  2  6  4 12 12
  0  1 18  5  9 10  5 14 16  3 18  9  0 18 14  5 20 19  0  1 22  2 22 23
  3 20 17 10 10 20 12]"
1200,312.0,0.90625,5,3,7.996322870254517,6.908411979675293,656,4832,61794,279217,"[ 3  1  0  3  0  3  0  3  0  0  0  3  2  2  1  1  5  4  4  6  6  1  4  2
  0  3  1  1  3  8  3  4 12  1  6  5  5 10  0  4 11  4  4  2  6  5  2 13
  0  1 18  5  9 12  0 14 15  5 16 15  1 18 14  5 14 20  1 14 15  2  1 20
  3  3 19 10 10 20 12]"
1300,312.0,0.90625,5,3,8.695354700088501,6.990318298339844,712,5232,66795,305517,"[ 0  3  3  5  1  2  0  3  0  0  2  0  2  1  2  0  5  6  4  6  6  1  2  1
  0  3  1  1  0  0  4  9  5  1 10  3  5  8 12  0 10  5  4  2  6  4  9 10
  0  1 18  4 11  0  2 15 11  0 18  1  3 23 15  0 21 23  0 14 18  1 15 17
  0 21  0 10 10 20 12]"
1400,312.0,0.90625,5,3,9.38637638092041,6.910216808319092,776,5632,71803,332459,"[ 3  3  2  3  1  0  0  3  0  0  0  0  3  2  3  3  5  6  4  6  6  0  3  0
  0  3  1  3  0  7  4  8  5  3  9  1  4  1 12  2 10  5  4  2  6  4  9 18
  0  1 18  0  1 13  0  1 17  0 18 17  5 23 21  1 17 23  3 15 18  3 14 18
  5 19  2 10 10 20 12]"
1500,312.0,0.90625,5,3,10.062870740890503,6.764943599700928,835,6032,76739,358609,"[ 5  2  2  0  3  3  0  3  0  2  0  1  0  1  3  5  0  0  4  6  6  1  5  5
  0  3  1  3  5  8  5  8  5  2  8 13  3  1 10  4  1  0  4  2  6  3 11 12
  0  1 18  4 13 18  3 17 17  0 10 16  4 23 19  4 23  3  1 20 20  0 14 14
  1 19 18 10 10 20 12]"
1600,312.0,0.90625,5,3,10.75165343284607,6.887826919555664,888,6432,81643,385089,"[ 3  3  0  0  3  0  0  3  0  5  2  1  5  1  0  2  4  3  4  6  6  5  7  4
  0  3  1  3  1  5  4  9  5  1  3  3  3 10  2  0  8  9  4  2  6  3 11 15
  0  1 18  4  0  3  4 12  3  0 18 18  2  0 16  4 23 20  1 14 23  2  0  3
  5  3 17 10 10 20 12]"
1700,312.0,0.90625,5,3,11.43183970451355,6.801862716674805,945,6832,86584,411848,"[ 0  3  1  5  3  1  0  3  0  5  2  1  5  1  0  5  5  1  4  6  6  0  6  4
  0  8  3  0  3  0  5  7 13  3 12 10  3 12  2  3  6  2  4  2  6  2 17  0
  0 12 10  4 12 14  4 15 10  4 16 14  0 18  1  2 18 19  5  0 21  0 21 16
  2 19 16 10 10 24  4]"
1800,312.0,0.90625,5,3,12.1152822971344,6.834425926208496,1003,7232,91436,438475,"[ 0  3  1  4  2  2  0  3  0  3  2  2  5  2  2  0  5  1  4  6  6  0  4  6
  3  5  4  0  5  4  2 12 10  1 12  0  3  2  1  0  0  2  4  2  6  2 14 18
  1 17  1  4 15 14  1  1 17  4 16  1  0 18  1  3 14  3  3 21  2  2 14 14
  2 15 19 10 10 24  4]"
1900,320.0,0.9375,7,3,12.844109773635864,7.288274765014648,1061,7632,96187,468203,"[ 0  3  1  2  0  3  0  3  0  0  3  1  5  2  1  5  1  3  4  6  6  5  1  2
  5  3  3  2  5  0  2  2  0  1 11  0  5  0  0  3  6  6  4  2  6  3  2 18
  2 12  3  5 14 12  5 13 15  5 16 14  0 18  1  2 21  2  1 21 23  3 14  1
  5 19  3 10 27 24  4]"
2000,324.0,0.953125,8,3,13.637971639633179,7.938618659973145,1109,8032,100982,503315,"[ 0  3  1  5  3  0  0  3  0  4  0  3  5  2  3  0  7  3  4  6  6  5  7  2
  1  3  3  1  7  4  2  2  0  3 11  0  0  0  4  0  3  4  4  2  6  5 14 18
  2  2  3  5 14 16  0  1 13  3 11 16  0 18  1  1 20 22  4 16 23  3 14 17
  0 19  3 10 27 24  4]"
2100,324.0,0.953125,8,3,14.474989891052246,8.370182514190674,1170,8432,105597,540940,"[ 0  3  1  1  2  0  0  3  0  0  0  3  4  2  3  3  8  3  4  6  6  4  3  3
  4  2  2  1  7  6  2  2  0  4  0 13  0  0  0  0  6  1  4  2  6  5 14 10
  1  3  9  5 14 15  1  1 13  2 13  3  0 18  1  5  3 21  4 19  1  3 14 17
  1 19 14 10 27 24  4]"
2200,324.0,0.953125,8,3,15.289793968200684,8.148040771484375,1225,8832,110113,577686,"[ 4  3  1  3  2  1  0  3  0  0  0  3  4  2  2  3  6  7  4  6  6  5  7  6
  2  4  2  0  3  1  2  2  0  1  5 12  2  0  6  0  6  1  4  2  6  1 18 10
  4  2 14  1 14 15  2  3 13  1 13  0  0 18  1  3 22 16  4 16  2  3 14 17
  0 15  2 10 27 24 13]"
2300,325.0,0.953125,7,3,16.04577136039734,7.559773921966553,1275,9232,114436,610849,"[ 1  3  0  3  2  3  0  3  0  4  2  1  4  2  2  0  4  2  4  8  5  5  3  1
  2  4  5  0  3  1  2  2  0  0  3 10  2  4 10  0  6  1  4  2  6  5 10  0
  4  0 13  1 18 14  2 13 14  1 17 14  0 18  1  3 14 21  3 15  0  3 14 17
  1  3  0 17 27 24 13]"
2400,325.0,0.953125,7,3,16.76284146308899,7.170701026916504,1335,9632,118467,640729,"[ 4  2  3  3  2  2  0  3  0  4  1  0  4  2  1  0  4  7  5  5  5  4  6  3
  2  4  3  0  3  1  2  2  0  0  8 12  2  9 10  0  2 13  4  2  6  4 12  2
  4 17 13  1 18 14  2  1 14  5  9 13  0 18  1  3  2  3  3 23 18  3 14 17
  1 15 23 17 27 24 13]"
2500,325.0,0.953125,7,3,17.46972417831421,7.068827152252197,1395,10032,122437,669843,"[ 3  1  1  4  2  2  0  3  0  1  1  1  5  2  1  5  5  4  0  5  5  4  0  2
  3  0  3  0  3  1  2  2  0  0  2  4  3  0 10  0  6  1  4  2  6  2  1  0
  4 15 13  0 18  3  0  1  9  1  1 15  0 18  1  4 16  3  3 17 16  3 14 17
  4 17 18 17 27 24 13]"
2567,337,1.0,11,4,18.003028631210327,7.959767953673405,1430,10300,125263,691487,"[ 0  2  0  0  2  1  0  3  0  3  1  2  0  2  0  5  6  6  0  5  0  0  4  8
  3  0  2  0  3  1  2  2  0  1  0  4  0  6  8  0  6 10  4  5  6  1  1  9
  4 17  2  0 18  3  5 16  1  1 14  2  0 18 19  5 16 14  0 17 16  3 14 17
  5 22 19 17 27 24 13]"
2600,339,1.0,9,4,18.225182056427002,6.731921976262873,1445,10432,126178,701144,"[ 5  2  2  0  2  1  0  3  0  3  3  0  1  3  3  0  3  6  0  5  0  0  4  8
  5  0  2  0  3  1  2  2  0  1  0  4  0  6  8  0  3 10  4  5  6  1  2  9
  5 14  2  4  2  3  5 15  1  1 14  2  0 18 18  5 16 23  2 17 16  3 14 17
  5 22 19 17 27 24 13]"
2700,339,1.0,9,4,18.745504140853882,5.203220844268799,1505,10832,128488,721669,"[ 5  2  0  0  2  1  0  3  0  3  0  0  2  3  0  1  6  5  0  5  6  0  8  0
  0  6  2  0  3  1  2  2  0  5  2  1  3  0  1  0  3 10  4  5  6  2 15  9
  3  3  9  5 14 18  0 15  1  4 14  2  1 18 18  5 16 23  2 19 21  3 14 17
  5  0 19 17 27 24 13]"
2800,339,1.0,9,4,19.31840443611145,5.729002952575684,1555,11232,131077,744893,"[ 5  0  1  0  2  1  0  3  0  2  0  2  0  2  1  5  6  4  0  5  0  0  8  4
  0  0  3  0  3  1  2  2  0  3  9 10  0  0  1  0 13 10  4  5  6  4 15 10
  3 13 17  5  9  9  1  3  0  3 18 18  1 18 18  2 22  3  2 18 23  3 14 17
  5  0 19 17 27 24 13]"
2900,340,1.0,8,4,19.839369773864746,5.209653377532959,1607,11632,133526,765306,"[ 0  1  1  0  2  1  0  3  0  2  2  1  2  1  1  1  7  4  0  1  6  0  7  4
  2  1  3  0  3  1  2  2  0  5  0 10  3  0  5  0  2 10  4  5  6  5 10 10
  0 18  0  1 13 17  5  1 16  5 14 18  0  1  0  4  0  3  2 18 19  5 14 17
  1 18 20 17 27 18 13]"
3000,342,1.0,7,3,20.33303213119507,4.936623573303223,1661,12032,135877,783502,"[ 0  0  0  0  2  1  0  3  0  5  0  3  2  3  2  0  6  6  5  6  3  0  6  2
  4  5  1  0  3  1  2  2  0  5 12  3  4  6  1  0  6  5  4  5  6  2  9  0
  4 16 13  1 13  3  3  1 16  1 14  3  2 16 17  2  3  3  0  0 22  3 14 17
  0 14  0 17 27 18 13]"
3100,342,1.0,7,3,20.750481367111206,4.174492359161377,1716,12432,137977,798158,"[ 0  2  0  0  2  1  0  3  0  2  2  2  5  0  2  2  1  4  3  8  0  0  3  4
  3  2  6  0  3  1  2  2  0  4 13 12  5  8  3  0  6  5  4  5  6  5 12  0
  1 13 18  2 12  1  5 13 14  3 14 13  2 15 21  4  3 16  4  1  0  5 14 17
  0 18  2 17 27 18 13]"
3200,342,1.0,7,3,21.173274993896484,4.227936267852783,1774,12832,140083,812879,"[ 4  3  0  0  2  1  0  3  0  3  3  2  0  0  3  2  1  6  4  5  6  4  7  4
  3  8  6  0  3  1  2  2  0  2 13  6  5  8 13  0  6  5  4  5  6  5 12  2
  4 13 18  2 18  1  5  1 14  3 17  2  3 15 21  2 15 15  1  1 17  3 14 17
  1  3  2 17 27 18 13]"
3300,342,1.0,7,3,21.59396505355835,4.206900596618652,1836,13232,142170,827528,"[ 4  1  0  0  2  1  0  3  0  3  0  3  0  0  1  4  1  2  4  5  6  4  1  4
  0  1  4  0  3  1  2  2  0  3  9 12  5  5 13  0  6  5  4  5  6  2 10 18
  1 16 18  5 14  1  5  3 14  5  2  2  3 21 23  1 15 15  1 22 21  3 14 17
  0 16  2 17 27 18 13]"
3400,342,1.0,7,3,22.014415502548218,4.204504489898682,1897,13632,144216,841820,"[ 0  0  0  0  2  1  0  3  0  3  3  2  2  2  1  4  5  5  0  1  8  5  2  7
  0  1  5  0  3  1  2  2  0  3  2 12  5  6 13  0  6  5  4  5  6  0 11 18
  1 17 15  4  2  1  5  3  0  5  2 16  1 20 16  2 20 23  1 22  2  5 14 17
  2 21  0 17 27 18 13]"
3500,342,1.0,7,3,22.410524368286133,3.96108865737915,1960,14032,146129,855246,"[ 5  1  0  0  2  1  0  3  0  3  3  1  1  2  1  2  3  7  3  1  5  0  2  8
  2  1  3  0  3  1  2  2  0  3  2 13  2  5 13  0  6  5  4  5  6  1 18 18
  4 10 18  0  2  1  1  1  3  0 15 10  2 15 16  2 16 19  5 18  2  5 14 17
  2 21 17 17 27 18 13]"
3600,342,1.0,7,3,22.85017156600952,4.396471977233887,2007,14432,148350,870826,"[ 5  0  2  0  2  1  0  3  0  2  2  1  0  1  3  4  1  2  2  0  3  2  6  0
  3  3  0  0  3  1  2  2  0  3  5 12  0 11 13  0  6  5  4  5  6  5 17  1
  0  3 10  3 10 15  1  0  1  2 18  0  4  1 18  3 21 19  5 21 17  5 14 17
  2 20  2 17 27 18 13]"
3700,342,1.0,7,3,23.30612063407898,4.55949068069458,2056,14832,150679,887191,"[ 1  3  0  0  2  1  0  3  0  5  0  2  1  3  1  4  1  6  0  7  1  1  3  3
  5  0  6  0  3  1  2  2  0  0  8  2  1 11 13  0  6  5  4  5  6  4 12 15
  0 10  9  5  1 17  1 15  2  0 18  3  4 14 23  1  1 16  5 16 17  5 14 17
  0 14 23 17 27 18 13]"
3800,342,1.0,7,3,23.737672328948975,4.315516948699951,2114,15232,152783,901972,"[ 3  1  0  0  2  1  0  3  0  5  3  0  2  1  1  4  5  6  0  7  1  3  3  3
  3  0  1  0  3  1  2  2  0  5 11 11  5  8  9  0  6  5  4  5  6  4 10  1
  1 16 18  3 12 10  2  1 14  0 18 11  5  1 22  0 14  0  4 18 14  5 14 17
  0 23 23 17 27 18 13]"
3900,342,1.0,7,3,24.14671778678894,4.090454578399658,2177,15632,154793,915982,"[ 4  1  1  0  2  1  0  3  0  2  3  3  3  1  1  4  5  6  0  8  7  2  3  7
  5  5  2  0  3  1  2  2  0  4  3 12  2  8  3  0  6  5  4  5 11  3 10  1
  1 13  2  3  1  0  1 17  3  0  0 11  5 21 16  0 21  0  5 18 14  3 14 17
  3  2 23 17 27  9 13]"
4000,342,1.0,7,3,24.575839042663574,4.291212558746338,2238,16032,156937,930993,"[ 5  1  0  0  2  1  0  3  0  1  0  0  3  3  2  4  5  6  0  8  2  2  1  6
  1  3  4  0  3  1  2  2  0  5  3 10  5  8  1  0  6  5  1 13  4  3 10 14
  2 18 11  3  2  0  4  0 15  0  9  3  5 19 21  3  0  0  0  1 15  5 14 17
  3 16 19 17 27  9 13]"
4100,342,1.0,7,3,25.019852876663208,4.440138339996338,2291,16432,159159,946624,"[ 5  1  2  0  2  1  0  3  0  1  0  2  0  2  1  4  5  6  5  8  5  1  5  8
  3  7  4  0  3  1  2  2  0  2  8  3  4  5  3  0  6  5  0  2 10  2 15 14
  2  3 16  4 13 14  1 16  0  5 17  3  2 14  2  3 23 14  4  1 22  3 14 17
  0  1  0 17 27  9 13]"
4200,342,1.0,7,3,25.47696089744568,4.571080207824707,2339,16832,161563,963465,"[ 3  1  0  0  2  1  0  3  0  1  1  3  5  2  1  4  5  6  2  8  5  0  3  8
  3  1  2  0  3  1  2  2  0  2  6  4  3  9 11  0  6  5  2  4  0  5 11 14
  2 11  1  4  2 12  5 14  0  1 17  3  0 23 15  0 16 14  0 23 22  5 14 17
  2 19  0 17 27  9 13]"
4300,342,1.0,7,3,25.87995481491089,4.0299391746521,2403,17232,163532,977259,"[ 3  0  0  0  2  1  0  3  0  2  1  2  5  1  1  4  5  6  0  6  4  3  2  5
  1  0  3  0  3  1  2  2  0  3 13  3  3 12  8  0  6  5  1 11 10  4  3 17
  2 16 10  4 17 18  4 14 11  5 14  1  5 15 22  3 16 17  0 23  3  5 14 17
  2 19 14 17 27  9 13]"
4400,342,1.0,7,3,26.302542209625244,4.225873947143555,2458,17632,165631,991952,"[ 3  1  3  0  2  1  0  3  0  3  3  2  0  1  2  4  5  6  0  6  6  3  6  6
  3  4  3  0  3  1  2  2  0  3  2  7  0 10 13  0  6  5  4 13  3  4  3 14
  3  1 18  4  0  0  3  3  3  1  3 11  0 15  3  3 17  0  2  2  3  5 14 17
  2 15  2 17 27  9 13]"
4500,342,1.0,7,3,26.7688992023468,4.663569927215576,2509,18032,167988,1008484,"[ 3  0  1  0  2  1  0  3  0  2  3  0  5  0  1  4  5  6  1  0  0  3  2  3
  0  4  2  0  3  1  2  2  0  3  0  0  3 13 10  0  6  5  2  3  2  2 15 14
  3 11  3  3 18 18  2 12  1  5 16 12  3  0 18  3  1 20  2 22 19  3 14 17
  4  1  1 17 27  9 13]"
4600,342,1.0,7,3,27.21293067932129,4.440314769744873,2564,18432,170205,1024033,"[ 4  1  1  0  2  1  0  3  0  3  2  2  1  3  1  4  5  6  3  2  4  4  6  3
  0  2  0  0  3  1  2  2  0  4  1 12  3  5  9  0  6  5  2  8  2  1 15 12
  0  1 15  0 18 18  1  0  9  1 16  1  5 15 19  0  2  2  1 22 17  3 14 17
  0 16 22 17 27  9 13]"
4700,342,1.0,7,3,27.640450954437256,4.275202751159668,2615,18832,172385,1039258,"[ 2  0  1  0  2  1  0  3  0  1  3  3  2  3  0  4  5  6  0  2  4  4  6  1
  5  2  1  0  3  1  2  2  0  5  1 11  1  6 13  0  6  5  2  2  2  1  3 10
  2 10 17  4 18  2  1  3  9  2  0 12  4  3 21  4  3  1  5 14 15  5 14 17
  0 16 16 17 27  9 13]"
4800,342,1.0,7,3,28.09534525871277,4.548943042755127,2663,19232,174714,1055510,"[ 2  2  0  0  2  1  0  3  0  2  2  2  0  2  0  4  5  6  4  3  5  0  0  1
  1  1  7  0  3  1  2  2  0  3 12 11  1  6  5  0  6  5  1  4  2  2 14 10
  1 10  0  0 12 13  1 11 17  4 12  3  2 20 14  3 23 16  5 14 23  5 14 17
  1  2  1 17 27  9 13]"
4900,342,1.0,7,3,28.54439353942871,4.490482807159424,2713,19632,176995,1071481,"[ 4  2  1  0  2  1  0  3  0  5  2  3  2  1  0  4  5  6  0  6  7  1  3  4
  0  1  7  0  3  1  2  2  0  5  2  8  1 12  9  0  6  5  3  2  2  3 14 18
  1 17  9  5 10  9  2 16 17  5 11 16  5  3 21  3  0 22  1  0  0  3 14 17
  3 15  2 17 27  9 13]"
5000,342,1.0,7,3,28.970212936401367,4.2581939697265625,2767,20032,179120,1086390,"[ 4  3  0  0  2  1  0  3  0  5  3  0  2  0  0  4  5  6  3  6  7  1  5  7
  5  4  7  0  3  1  2  2  0  1  2  4  1  1 10  0  6  5  3  5  5  3 14  1
  1 18 13  2 10  0  5 17  1  4 15 14  5 18 21  4  0 23  4  2 20  3 14 17
  0 18 17 17 27  9 13]"
5100,342,1.0,7,3,29.403709650039673,4.334967136383057,2824,20432,181232,1101297,"[ 4  2  2  0  2  1  0  3  0  5  1  1  0  0  0  4  5  6  4  0  4  1  1  1
  3  4  2  0  3  1  2  2  0  1 10  4  1  9  9  0  6  5  5 10 13  3 14  1
  0 10  2  2  2  9  0 12  1  3  1 14  5  1 21  1  0 23  0  2 20  5 14 17
  3 22  0 17 27  9 13]"
5200,342,1.0,7,3,29.856783866882324,4.530742168426514,2875,20832,183577,1117672,"[ 1  1  1  0  2  1  0  3  0  0  1  3  4  2  0  4  5  6  1  0  6  1  8  2
  3  2  2  0  3  1  2  2  0  0  4  6  1  9 11  0  6  5  0 10  6  3 15 18
  1 14  2  3 13  9  3 12  0  3  0 14  0 22 16  2 19 23  2 20 19  3 14 17
  1  1 22 17 27  9 13]"
5300,342,1.0,7,3,30.267409086227417,4.106252193450928,2940,21232,185551,1131515,"[ 1  1  1  0  2  1  0  3  0  5  1  0  2  0  0  4  5  6  1  5  7  4  8  5
  3  5  0  0  3  1  2  2  0  1 11  4  1  5  3  0  6  5  3  4  3  4 15 16
  5 14  2  4 14 15  1 15 12  3 15 13  5 22 21  3 23  1  3 23  0  5 14 17
  0 18 18 17 27  9 13]"
5400,342,1.0,7,3,30.696194410324097,4.287853240966797,2998,21632,187649,1146287,"[ 2  1  1  0  2  1  0  3  0  1  2  0  5  0  2  4  5  6  1  5  3  2  5  5
  3  1  2  0  3  1  2  2  0  1 13  4  5 12  3  0  6  5  0  5  9  5 15 16
  1  2 16  3 12 11  2 15 12  3 15  1  5 22 23  4  3  2  3 14  0  5 14 17
  4  3  0 17 27  9 13]"
5500,342,1.0,7,3,31.108752012252808,4.125576019287109,3053,22032,189677,1160477,"[ 4  3  1  0  2  1  0  3  0  1  2  2  1  3  1  4  5  6  5  7  3  1  5  0
  3  2  2  0  3  1  2  2  0  1  7  2  5  5  3  0  6  5  2  9  3  4  9 18
  2  9  1  3  3  1  3 17 17  4 17 12  5 22  1  1 21 17  3  2 22  3 14 17
  2 16  0 17 27  9 13]"
5600,342,1.0,7,3,31.538972854614258,4.302208423614502,3109,22432,191832,1175504,"[ 4  3  1  0  2  1  0  3  0  1  2  0  2  3  3  4  5  6  3  6  3  3  0  0
  4  7  2  0  3  1  2  2  0  1  1 12  0  6 13  0  6  5  0  9  5  4  9 18
  4 10 18  4 15 15  5 17  3  4  1 12  4 17  1  5 21 17  5 16 18  3 14 17
  2 14 18 17 27  9 13]"
5700,342,1.0,7,3,31.979347705841064,4.403748512268066,3167,22832,193992,1190608,"[ 3  0  1  0  2  1  0  3  0  2  2  3  5  2  0  4  5  6  3  7  8  4  8  0
  2  6  3  0  3  1  2  2  0  3  1 12  5  4  6  0  6  5  3  8  7  5 10 12
  0 14 18  5  3 14  1 10  1  0 18 18  0 15 14  0 23 16  1 22 18  3 14 17
  0 15 18 17 27  9 13]"
5800,342,1.0,7,3,32.42066025733948,4.413125514984131,3217,23232,196253,1206479,"[ 3  1  3  0  2  1  0  3  0  0  0  1  5  3  3  4  5  6  3  2  3  1  1  3
  1  8  3  0  3  1  2  2  0  2  3 13  4  6  3  0  6  5  0  2  7  2  9 11
  0 15 18  0  0  0  0  0  1  5 14  2  4 18 15  0 23 14  1  2 23  5 14 17
  2  3 21 17 27  9 13]"
5900,342,1.0,7,3,32.8673460483551,4.46685791015625,3268,23632,198532,1222366,"[ 4  2  2  0  2  1  0  3  0  2  2  3  5  3  3  4  5  6  1  3  3  3  3  3
  4  8  8  0  3  1  2  2  0  4 13 13  5  6  2  0  6  5  4  1  0  2 11  2
  5  3 10  4 10 18  3 14 14  3  3 12  4 23 20  5 22  0  2  1 18  3 14 17
  1 20  0 17 27  9 13]"
6000,342,1.0,7,3,33.31055545806885,4.432094097137451,3324,24032,200714,1237601,"[ 3  2  0  0  2  1  0  3  0  5  1  2  1  0  0  4  5  6  1  3  2  0  5  3
  4  1  8  0  3  1  2  2  0  2  0  3  3 10  7  0  6  5  2 13  4  2 11 18
  4  1 14  0 16 17  1 15 16  3  9 17  1 21 22  4 15  2  0 21  3  5 14 17
  1  2 18 17 27  9 13]"
6100,342,1.0,7,3,33.76257586479187,4.520204067230225,3384,24432,202872,1252732,"[ 0  1  0  0  2  1  0  3  0  2  1  2  5  2  0  4  5  6  1  3  0  0  0  3
  0  0  2  0  3  1  2  2  0  1  0  4  2  2  7  0  6  5  0  2  4  2 11 18
  4 12 18  3 16 17  0 17 16  3 11 17  3  1 15  4 16 21  4 21  3  5 14 17
  2 23 14 17 27  9 13]"
6200,342,1.0,7,3,34.205445766448975,4.428699016571045,3437,24832,205103,1268356,"[ 3  1  2  0  2  1  0  3  0  2  2  2  0  3  2  4  5  6  3  2  3  2  2  1
  5  6  7  0  3  1  2  2  0  5  6 11  4  5  7  0  6  5  1  4 13  5 13  2
  5 13 15  1 12 16  0  1 16  3 15 17  1 17 23  1 16 15  2 15 18  3 14 17
  1 17 14 17 27  9 13]"
6300,342,1.0,7,3,34.647221326828,4.417755603790283,3489,25232,207357,1284112,"[ 5  0  1  0  2  1  0  3  0  5  2  3  4  2  2  4  5  6  3  6  5  4  6  1
  0  4  7  0  3  1  2  2  0  4  7  5  3  9  9  0  6  5  0  2  6  1 13 15
  4 16 12  1 14 15  4  0 15  2 15  9  4 17 17  3 23 18  1 23 16  5 14 17
  5 22 14 17 27  9 13]"
6400,342,1.0,7,3,35.05079913139343,4.035778045654297,3550,25632,209337,1297976,"[ 2  0  1  0  2  1  0  3  0  5  2  0  4  2  2  4  5  6  4  6  2  1  6  4
  0  4  2  0  3  1  2  2  0  1  7 11  4  9 10  0  6  5  0  2 11  1 10  3
  1 18 12  2  2  1  1 11 10  4 17 12  4 19 21  3 14 23  3 14 20  3 14 17
  4  0  2 17 27  9 13]"
6500,342,1.0,7,3,35.50309419631958,4.522950649261475,3597,26032,211650,1314247,"[ 2  0  0  0  2  1  0  3  0  1  3  1  1  2  0  4  5  6  0  4  1  2  8  0
  5  5  2  0  3  1  2  2  0  1  2 10  2 13 10  0  6  5  0  3  5  1 18 15
  5 14 18  4  2  1  3 18 13  0 18 18  2  2 22  0  1 14  2 15 22  5 14 17
  4 19  2 17 27  9 13]"
6595,343,1.0,7,2,35.91174030303955,4.301537965473376,3652,26412,213661,1328271,"[ 0  2  2  0  2  1  0  3  0  4  3  2  1  2  3  4  5  6  2  5  5  2  8  1
  5  2  4  0  3  1  2  2  0  1  4  2  2  5  9  0  6  5  2  3  4  0 11  2
  3 14 13  3  1 13  1 14 14  3  9 10  5 22 21  1 15 20  0 15 18  3 14 17
  1 19  2 17 20  9 13]"
