generation,fitness,functionality,active_nodes,longest_path,time,gen_time,nc_gens,fitness_evals,graph_evals,node_evals,genotype
0,165.0,0.46875,11,4,0.026600360870361328,26.600360870361328,0,0,0,0,"[ 1  0  2  5  3  1  2  0  3  3  0  2  5  3  0  0  5  6  1  8  2  4  5  2
  2  7  7  1  4  2  3  7  2  1 12  9  4  7  3  3  8  0  4 11 11  2  0 13
  3 11  2  4 18  2  5 17 18  4  9  1  0 16 16  4 16 19  3 14 15  1 20 19
  5 23 19  1 15  4 28]"
100,323.0,0.953125,9,3,29.662880182266235,296.36279821395874,0,12800,169989,1246977,"[ 4  0  0  3  2  2  3  2  0  3  0  1  3  2  3  2  7  6  1  8  7  1  1  8
  3  0  2  4  4  8  2  0  4  4  3 12  0 13 12  2 13  6  5 13 10  0  1  3
  3 10 12  4  2  2  2  2  0  3  2  1  0 18 16  4 21 19  3 19 22  1 21 23
  2  2 19 21 26 20 19]"
200,323.0,0.953125,9,3,58.70008826255798,290.3720808029175,0,25600,310464,2528158,"[ 3  1  0  1  1  2  3  2  2  3  2  0  3  2  3  0  0  1  1  8  4  2  7  0
  5  0  2  0  4  4  1  9  6  2  6  4  1  1  5  0  7 13  5  5  5  0  1  3
  3 10 12  4  2  2  2  2 12  5  2 15  0  1 23  5 15  2  3 19 22  4  2 21
  5 21 16 21 26 20 19]"
300,323.0,0.953125,9,3,88.55111026763916,298.51022005081177,0,38400,457764,3862663,"[ 3  1  3  1  1  1  1  0  1  3  3  0  3  2  3  0  8  2  1  8  4  2  4  3
  3  0  1  4  4  8  3  0 10  1  1  1  2  1  5  3  2 13  3  3  6  0  1  3
  3 10 12  5  1 16  2  2  0  2 14 10  3 18 20  1 19  2  3 19 22  0 23 19
  0 20 17  9 26 20 19]"
400,323.0,0.953125,9,3,119.3601861000061,308.09075832366943,0,51200,609145,5241077,"[ 3  1  3  0  3  3  4  0  3  3  3  2  3  2  0  0  8  0  1  8  4  0  5  6
  3  0  1  3  0  3  4  7  4  5 13  8  2 10  8  3 11  2  1  5  9  0  1  3
  3 10 12  5 17 14  2  2  0  5 17 17  2 15 14  3 23 23  3 19 22  3 18 21
  5 19 18  9 26 20 19]"
500,323.0,0.953125,9,3,149.59075713157654,302.30571031570435,0,64000,756594,6587072,"[ 3  1  3  0  1  0  3  3  3  3  0  3  3  2  0  0  8  0  1  8  4  1  6  6
  5  0  1  2  8  7  3  2  1  3  0  5  4  7  4  2  7  6  3 12  2  0  1  3
  3 10 12  1 11 12  2  2  0  4 10  9  1 15  2  5  0 22  3 19 22  3 22 22
  1 14 14  9 26 20 19]"
600,323.0,0.953125,9,3,180.07991003990173,304.89152908325195,0,76800,907241,7949376,"[ 5  1  3  3  2  3  4  3  3  1  0  0  3  2  3  5  0  0  3  5  4  2  3  5
  3  0  1  1  8  4  1 10  2  4  4 13  0 10 12  2  3  3  5 11  9  0  1  3
  3 13 12  4 13  0  2  2  0  0 15  1  3 23 22  5 19 18  3 19 22  0 23 21
  5 17 14  6 26 20 19]"
700,323.0,0.953125,9,3,209.72145223617554,296.41542196273804,0,89600,1052076,9256625,"[ 4  2  1  5  2  3  4  3  3  3  3  0  3  2  0  5  1  7  4  3  6  3  4  8
  3  3  1  1  8  5  4  2 10  3  8  4  1  7  5  0  9  5  1 10  5  0  1  3
  3 13 12  1 10 15  2  2  0  1  1 16  0 22  3  1  0  2  3 19 22  4 22 22
  2 19 18  6 26 20 19]"
800,323.0,0.953125,9,3,238.49727654457092,287.75824308395386,0,102400,1189934,10503413,"[ 5  3  0  3  2  3  5  3  2  2  0  1  3  2  0  4  1  3  0  6  6  3  0  2
  3  3  1  1  8  5  2  7  0  3 10  6  2 10 12  3  7  8  4  3  0  0  1  3
  3 13 12  5 15  2  2  2  0  3 18 16  2  1 19  3 21  2  3 19 22  4 22 22
  2 23 18 27 26 20 19]"
900,327.0,0.96875,10,3,267.7422959804535,292.4501943588257,0,115200,1328289,11775228,"[ 3  3  2  3  2  0  1  3  3  3  2  2  0  3  0  4  4  8  3  8  6  5  1  6
  3  8  1  1  4  5  2  5  2  2  5  6  0  1 12  0  5 13  1  3  4  0  1  3
  3 13 12  3  1 17  2  2  0  5  1 18  3 22  2  0  2 15  3 19 22  4 22 22
  3  3 22 27 26 20 19]"
1000,327.0,0.96875,10,3,298.0914545059204,303.4915852546692,0,128000,1466787,13157076,"[ 3  3  2  3  2  0  0  2  3  1  3  2  0  3  0  0  6  7  1  6  7  5  0  2
  5  8  1  1  4  5  2  7  9  3  4  7  4  1 10  4  6  6  1 13 10  0  1  3
  3 13 12  1  1  3  2  2  0  4 16  9  2 18 18  0 22 18  3 19 22  4 22 22
  4  2 15 27 26 20 19]"
1100,327.0,0.96875,10,3,328.0676956176758,299.7624111175537,0,140800,1602261,14508572,"[ 3  3  2  3  2  0  2  0  0  1  3  2  0  3  0  5  6  1  4  4  8  5  3  4
  3  8  1  1  4  5  2 10 13  0  6  9  4 11 11  2  1  5  3  7 10  0  1  3
  3 13 12  2  2  3  2  2  0  0 11 10  0 15 20  4 22 16  3 19 22  4 22 22
  1 17 22 27 26 20 19]"
1200,327.0,0.96875,10,3,358.22729659080505,301.5960097312927,0,153600,1738191,15872161,"[ 3  3  2  3  2  0  1  1  1  5  2  0  0  3  0  4  0  4  0  5  7  2  7  1
  3  8  1  1  4  5  1  4  9  1  3  6  4  1  9  2  0 12  1 10  9  0  1  3
  3 13 12  3 17  9  2  2  0  1  3 14  2  1  0  2 20 16  3 19 22  4 22 22
  4 18 22 27 26 20 19]"
1300,327.0,0.96875,10,3,388.8016836643219,305.74387073516846,0,166400,1878442,17254988,"[ 3  3  2  3  2  0  5  2  1  0  0  2  0  3  0  4  0  0  4  2  2  3  3  5
  5  8  1  1  4  5  4  8 13  1  8  9  5  6  2  4  3 12  2  4  1  0  1  3
  3 13 12  2 10  3  2  2  0  5  3  3  2 21 16  2 19 20  3 19 22  3 22 22
  2 22 18 10 26 20 19]"
1400,334.0,0.984375,8,3,407.54976296424866,187.48079299926758,0,179200,1967105,17989499,"[ 0  1  3  1  0  1  0  2  1  4  0  2  0  3  0  1  6  6  4  2  2  4  5  8
  5  8  6  0  4  5  2 10  8  1 10 13  5  1  7  0  8 11  5  7  2  0  1  3
  5 10 12  3  3  1  2  2  0  5 17 16  5 21 16  5 18 22  3 19 22  2 22 22
  4 16 23 10 26 20 19]"
1500,334.0,0.984375,8,3,426.1137869358063,185.64023971557617,0,192000,2054282,18702549,"[ 2  3  0  4  2  2  0  2  1  5  2  3  0  3  0  5  3  2  4  2  2  3  0  4
  5  8  6  0  2  5  2 10  7  0  2  6  3  7 10  0  4  6  0  2 13  0  1  3
  5 10 12  5  2 13  2  2  0  0  9 16  1  3 22  3 18 20  3 19 22  0  2  3
  1 20 22 10 26 20 19]"
1600,334.0,0.984375,8,3,444.64539909362793,185.31612157821655,0,204800,2141229,19414378,"[ 0  1  2  4  3  1  5  3  0  2  2  2  0  3  0  5  2  4  4  2  2  0  7  2
  5  8  4  2  7  6  2 11  9  4  8 13  0  7  6  0 11  6  2 10  2  0  1  3
  3 10 12  5 13 16  2  2  0  3 11 18  3  3 15  1 16  0  3 19 22  0  2 19
  3  1 16 10 26 20 19]"
1636,340,1.0,9,3,452.7123432159424,224.0817811754015,0,209408,2172899,19674253,"[ 0  1  2  0  3  1  3  3  0  1  0  3  0  3  0  5  2  3  4  2  2  1  1  2
  5  8  4  2  7  6  2  0  7  0  8 12  3  9  4  0  6  7  0  2  2  0  1  3
  3 10 12  1 12 14  2  2  0  3 11 16  3  3 15  1 17  1  3 19 22  4 16 14
  5  3 16 15 26 20 19]"
1700,341,1.0,8,3,462.34741258621216,150.54795891046524,0,217600,2213757,20004118,"[ 0  1  2  1  0  0  1  3  0  4  1  3  0  3  0  0  0  8  3  7  4  2  8  5
  5  8  4  1  1  5  4  2  3  0  8  4  4  3  4  3 11  0  0 10  2  0  1  3
  3 15 12  5  2 13  2  2  0  1  2 12  3 20 14  5  2 21  3 19 22  0 16  2
  2 18 20 15 26 20 19]"
1800,341,1.0,8,3,477.301632642746,149.54220056533813,0,230400,2277306,20513341,"[ 0  1  2  1  1  3  0  1  2  2  3  3  0  3  0  5  0  6  4  8  3  1  7  5
  5  8  4  3  7  4  5  7  2  0  8  4  5 11 11  3  7 13  2  8  3  0  1  3
  2 12 12  2 16  9  2  2  0  0 11 15  5 16 23  2 23 22  3 19 22  1  2 17
  4 23  1 15 26 20 19]"
1900,341,1.0,8,3,492.2982919216156,149.9665927886963,0,243200,2341487,21027681,"[ 0  1  2  0  1  1  0  3  0  0  2  3  0  3  0  3  0  2  3  7  8  2  3  3
  5  6  4  0  0  5  0  7  6  0  4  6  1  9  3  0  4  3  1  4 12  0  1  3
  3 12 12  5 16 17  2  2  0  4  0 12  4 17 23  1  1 14  3 19 22  3 20 20
  2 20  0 15 26 20 19]"
2000,341,1.0,8,3,506.83354115486145,145.3524923324585,0,256000,2404769,21534116,"[ 0  1  2  5  3  1  0  3  0  2  3  0  3  2  0  4  7  7  1  2  4  5  3  2
  3  6  4  5  8  4  4  1 12  0  4  6  0  1 11  2 10  0  2 12  3  0  1  3
  5 15 12  5  1 16  2  2  0  0  0 17  4  3  2  3  3 19  3 15 22  4 16 17
  2 20 16 15 26 20 19]"
2100,342,1.0,8,2,522.5344834327698,157.00942277908325,0,268800,2476400,22103145,"[ 0  1  2  1  2  1  0  3  0  3  2  2  2  3  0  1  2  2  3  5  8  2  0  8
  5  2  2  5  8  4  3  1 10  0  4  6  0 13  5  0  2  4  4 11  1  0  1  3
  4  3  0  2 17 18  2  2  0  1 15 11  0 19 16  3 23  0  3 19 22  4 18 15
  5 17 22 15 26 13 19]"
2200,342,1.0,8,2,538.1810245513916,156.46541118621826,0,281600,2548960,22678733,"[ 0  1  2  0  2  3  0  3  0  5  0  0  2  3  0  4  7  2  0  0  7  2  1  3
  3  4  1  5  8  4  3  9 13  0  4  6  4  1  7  3  0  4  5  9  0  0  1  3
  3 14 13  2  0 18  2  2  0  5 15 10  5 22 16  4 19 19  3 19 22  4 18 18
  0  0 20 15 26 13 19]"
2300,342,1.0,8,2,553.9911096096039,158.1008505821228,0,294400,2622710,23263216,"[ 0  1  2  2  0  1  0  3  0  0  0  0  2  3  0  3  3  6  0  6  1  5  8  3
  3  3  1  5  8  4  2  3  8  0  4  6  5  1 11  2  1 13  3  8  4  0  1  3
  3 10 12  5  3  1  2  2  0  2  3 10  2 14 14  3 17 15  3 19 22  4 23 22
  3  2 21 15 26 13 19]"
2400,342,1.0,8,2,570.0044713020325,160.1336169242859,0,307200,2696650,23850284,"[ 0  1  2  1  1  2  0  3  0  1  0  0  2  3  0  3  5  5  5  7  5  0  2  8
  1  8  3  5  8  4  0  1  5  0  4  6  0 11 10  5  2  0  3  2  3  0  1  3
  3 15 13  2 15 18  2  2  0  3 16 11  0 17 15  3 19 22  3 19 22  4 17  1
  5 20 15 15 26 13 19]"
2500,342,1.0,8,2,585.648051738739,156.43580436706543,0,320000,2768816,24423473,"[ 0  1  2  0  3  0  5  3  1  1  3  1  2  3  0  4  6  4  3  7  5  1  3  8
  0  5  3  5  8  4  2 11  5  0  4  5  1  7  3  1  2 12  5 11  1  0  1  3
  0 16 15  4 12  0  2  2  0  4 15 16  4  2  3  0 14  1  3 19 22  2  1  0
  1 17 22 15 26 13 19]"
2600,342,1.0,8,2,601.4800689220428,158.32017183303833,0,332800,2841653,25001550,"[ 0  1  2  0  3  0  4  1  3  0  2  2  2  3  0  4  6  5  0  2  5  4  5  5
  4  2  6  5  8  4  4 13 11  0  4  5  4  0  7  2 13 11  1  9  8  0  1  3
  2 11 10  4 18  2  2  2  0  1 13 14  2 22 21  4 14 21  3 19 22  5  3 20
  3 21 22 15 26 13 19]"
2700,342,1.0,8,2,617.0016977787018,155.21628856658936,0,345600,2913743,25574605,"[ 0  1  2  0  3  0  1  1  1  5  2  2  2  3  0  5  7  7  2  6  0  2  7  4
  5  0  0  5  8  4  4  9  4  0  4  5  1  7  2  5 13  5  2  3  0  0  1  3
  0 13 17  1 13  0  2  2  0  1  3  0  1  1  1  4 19 14  3 19 22  4  3 14
  0 22  3 15 26 13 19]"
2800,342,1.0,8,2,632.7640950679779,157.62397289276123,0,358400,2986921,26154311,"[ 0  1  2  0  3  0  1  3  0  5  3  3  2  3  0  4  2  2  3  7  2  5  8  1
  4  6  0  5  8  4  4  8 10  0  4  5  4  0 12  5  7  9  3  7  2  0  1  3
  5  0 12  2 14 16  2  2  0  4 18 10  5  2  1  4 20  2  3 19 22  0  0  0
  2 20 15 15 26 13 19]"
2900,342,1.0,8,2,648.5976574420929,158.3356237411499,0,371200,3060356,26736970,"[ 0  1  2  0  3  0  2  3  3  3  3  1  2  3  0  1  7  5  4  8  0  4  6  4
  0  4  0  5  8  4  5 13 11  0  4  5  2  3  5  1  0  4  4  5 12  0  1  3
  0  0  0  0 17 17  2  2  0  5 15 15  2 15 16  4 20 18  3 19 22  4 23  3
  2 20 15 15 26 13 19]"
3000,342,1.0,8,2,664.288341999054,156.9068455696106,0,384000,3133677,27319836,"[ 0  1  2  0  3  0  4  3  0  0  0  1  2  3  0  1  4  1  3  2  6  2  4  7
  2  6  8  5  8  4  1  2  6  0  4  5  5  8 10  3  8  4  5  6 10  0  1  3
  2 18  9  3 12 12  2  2  0  3 17  1  1  1 20  0  2 19  3 19 22  0 20  1
  3  2  0 15 26 13 19]"
3100,342,1.0,8,2,680.0778954029083,157.8955340385437,0,396800,3206707,27899393,"[ 0  1  2  0  3  0  4  2  3  3  2  2  2  3  0  1  5  8  3  1  7  0  2  2
  4  7  6  5  8  4  5  0  7  0  4  5  0  3 11  3  6  9  5  7  4  0  1  3
  2 11 14  2  9 13  2  2  0  5 12  1  5 22 14  3 23 19  3 19 22  4 23 20
  0  3  3 15 26 13 19]"
3200,342,1.0,8,2,696.0407772064209,159.62881803512573,0,409600,3280335,28484702,"[ 0  1  2  0  3  0  3  2  1  1  1  0  2  3  0  1  8  7  3  8  7  2  3  4
  0  0  4  5  8  4  4  1 10  0  4  5  0  6  6  0 12  9  3  1  1  0  1  3
  0 11  9  0  2 15  2  2  0  3  9 13  3 19 20  3 21  2  3 19 22  0 23 20
  5 23  3 15 26 13 19]"
3300,342,1.0,8,2,711.9629533290863,159.22176122665405,0,422400,3353008,29062662,"[ 0  1  2  0  3  0  1  1  0  2  3  0  2  3  0  2  7  7  3  1  7  5  0  8
  5  0  1  5  8  4  3  1 12  0  4  5  0  9  5  2 11  5  3  2 10  0  1  3
  5 17  2  5 15  1  2  2  0  5  3  3  3 19 14  5 18  3  3 19 22  2 18 21
  3 19 20 15 26 13 19]"
3391,343,1.0,7,2,726.3398172855377,157.9875160049606,0,434048,3418954,29586518,"[ 0  1  2  0  3  0  1  1  3  4  1  3  2  3  0  4  5  0  0  4  4  2  6  8
  4  8  7  5  8  4  0 11  1  0  4  5  4  5  4  2 11 11  2  7  4  0  1  3
  1 14  1  2 15  0  2  2  0  2  9 15  4 21  3  3 17 14  3 19 22  0  2 14
  3 20 16 15 26 16 19]"
