generation,fitness,functionality,active_nodes,longest_path,time,gen_time,nc_gens,fitness_evals,graph_evals,node_evals,genotype
0,282.0,0.8125,5,3,3.156902551651001,3156.902551651001,247,1024,9774,70286,"[ 1  2  0  2  1  2  4  0  3  0  1  0  0  1  2  2  2  0  2  0  8  4  2  2
  4  1  1  3  7  7  0  1  3  1  5  7  3 13 13  0  5  7  0 10  4  2 10  1
  3 18 18  4  0 15  3 12 13  4  2  9  1 23 23  1 14 21  0 22 22  0 22  1
  1  2  2 12  0 16 14]"
100,297.0,0.84375,2,1,3.790421724319458,6.33519172668457,283,1424,14996,89780,"[ 4  2  2  3  1  0  0  3  3  4  3  2  4  2  1  5  6  7  0  0  4  5  1  8
  3  3  8  2  5  0  0  1  3  0 12 11  5  1  0  2  8 12  2  1  2  5 13 11
  4 15 15  1  2  3  4 16 11  0 15 11  0 21 20  5 20 23  0 15 14  3 22 21
  0 19  3  4  4  0 14]"
200,306.0,0.875,3,1,4.371208906173706,5.8078718185424805,338,1824,19871,105482,"[ 4  2  2  2  0  3  3  1  1  0  3  2  3  1  0  2  7  2  0  1  8  2  8  1
  0  2  0  4  5  6  0  1  3  5  5  7  1  9  1  3  2  8  2  4  3  5  3  1
  2 11  9  5 15 10  5  2 15  2  9 18  2 17 17  0 15  1  2 21 17  2 19 20
  1 20  1  4 12 12 14]"
300,306.0,0.875,3,1,4.937072992324829,5.6586408615112305,390,2224,24768,122598,"[ 4  2  2  0  1  3  0  3  3  4  3  2  4  1  1  1  0  8  2  8  5  3  3  5
  0  2  0  0  8  1  3  3 11  3 10 12  1  4  5  0  8 12  5  5  7  0 12  1
  0 10 10  0 13 18  0 18 10  2  9  3  5  2 15  5  2 15  0 20 16  2  1 18
  3 14 18  4 12  3  5]"
400,306.0,0.875,3,1,5.504534959793091,5.674619674682617,439,2624,29799,139494,"[ 4  2  2  0  1  3  1  3  2  5  2  2  4  2  2  1  2  8  2  8  2  3  1  1
  0  2  0  3  0  7  2  0  3  1  0  8  3  7  4  0 10  1  4 13  2  1 11 18
  3  0  0  4 17  2  4 10 11  1 10 13  1 20 18  0 23  1  5  3 17  5  3 18
  5  2 14  4 12  2  5]"
500,313.0,0.90625,5,2,6.173824310302734,6.6928935050964355,498,3024,34734,163092,"[ 4  2  2  0  1  3  3  2  0  3  3  2  5  1  2  3  2  6  1  0  8  2  5  5
  0  2  0  1  4  1  3  4  5  2 12  7  3  5  5  2  1  2  2  3  1  1 12  9
  1  0  9  5 17  0  0 18  2  5 18  1  4  2  0  4 23 19  1 15 21  1 14 21
  1 16 23  4 12 21  5]"
600,313.0,0.90625,5,2,6.856972932815552,6.831486225128174,547,3424,39638,188513,"[ 4  2  2  0  1  3  2  1  1  5  1  0  1  3  3  0  8  5  4  1  2  0  5  2
  0  2  0  3  3  1  0 12 13  2 12  1  5 11  6  2  1  2  5  5  7  4 11 10
  2  1 14  5  3 17  3  1 18  5  9 11  3 21 17  5 20  0  0 21 15  5  2 19
  1 14 18  4 12 21  5]"
700,321.0,0.9375,7,2,7.541555404663086,6.845824718475342,602,3824,44010,214573,"[ 4  2  2  0  1  3  3  3  2  5  1  3  1  2  1  0  3  7  4  1  8  4  0  7
  0  3  0  3  4  3  5  7  8  0  9  1  0 13  9  2  1  2  3  5  9  0  0 12
  0 11 15  5 12 17  3 15 10  3  9  2  4 15 16  5 15 16  4 22 15  4  3 19
  3 20 22  4 10 21  5]"
800,323.0,0.9375,5,2,8.167940855026245,6.263854503631592,658,4224,48091,237179,"[ 4  2  2  0  1  3  4  1  1  1  1  1  5  1  1  0  0  2  2  4  0  4  4  0
  0  3  0  5  7  4  0 11  9  5 10  8  3  2 10  2  1  2  5 12  1  4  0 16
  2 18  1  5 12 17  5 17 18  0 10  0  2 19 16  5 21 14  2 23  1  4 16 19
  5  3 16  4  4 21  5]"
900,332.0,0.96875,6,2,8.750101089477539,5.8216023445129395,713,4624,51742,259339,"[ 2  1  3  0  1  3  2  1  3  1  0  1  3  3  3  0  0  2  4  6  0  1  0  2
  0  3  0  1  4  1  5  1  1  3  3 10  0  1  9  2  1  2  0 10  3  1 11 16
  2 14 10  5 12 17  1 12  0  1 15 11  2 21  2  1 19  3  1 19 21  5 21 19
  2  3 16 16  9 21  5]"
1000,332.0,0.96875,6,2,9.316415786743164,5.66314697265625,780,5024,54923,279246,"[ 2  3  2  0  1  3  1  0  3  5  3  1  2  1  0  0  0  2  4  2  1  1  0  8
  0  3  0  1  4  5  5  0  6  4 12 11  0  5 12  2  1  2  0  6 13  3  3 15
  2 11  9  5 12 17  1 17 10  1  1 14  2 16 17  2  3 16  2 19 21  2 21 19
  0 18 20 16  9 21  5]"
1100,332.0,0.96875,6,2,9.937551498413086,6.211357116699219,839,5424,58382,300751,"[ 3  1  1  0  1  3  0  1  1  5  2  0  0  1  0  0  0  2  2  1  5  0  1  2
  0  3  0  4  0  5  5  4 10  1  7 12  0  0  5  2  1  2  1  6 13  0 16  0
  1 14  9  5 12 17  4 17  9  1 16 14  0 14 15  2  2  1  1  3 23  3 21 15
  4 15  2 16  9 21  5]"
1200,337.0,0.984375,6,2,10.467835426330566,5.302839279174805,899,5824,61400,319545,"[ 3  3  0  0  1  3  3  3  2  4  2  1  0  1  1  0  0  2  5  1  3  2  2  3
  0  3  0  4  5  1  5  9  1  3  6 11  0  9  5  2  1  2  1 13  0  0 14 14
  1 11 12  5 12 17  0  2  9  3 17  9  0  1  3  4 22 21  2  2 16  2 21  3
  4 16 15 16  9 21  5]"
1300,337.0,0.984375,6,2,10.960495948791504,4.926605224609375,959,6224,64283,337237,"[ 3  1  3  0  1  3  5  3  1  3  0  3  1  1  1  0  0  2  5  6  5  1  1  3
  0  3  0  1  5  1  0  2  8  2  7  7  0  9  5  2  1  2  4  1  0  3 18 16
  2 14 12  5 12 17  0  2  1  0 10 12  4 15 17  5  2  0  1  3 21  1 21  3
  4  1 15 16  9 21  5]"
1400,337.0,0.984375,6,2,11.459129095077515,4.986331462860107,1021,6624,67128,354895,"[ 5  0  3  0  1  3  1  3  1  2  0  3  1  3  2  0  0  2  3  8  0  1  4  4
  0  3  0  1  5  7  0  8  6  1  6  9  0  9  5  2  1  2  5  5 12  3 18 16
  2 14 14  5 12 17  3  1 15  4 18  2  4 20 17  5  2  0  3 19 20  5 20 21
  3  0 20 16  9 21  5]"
1500,337.0,0.984375,6,2,11.971457242965698,5.123281478881836,1077,7024,70071,373420,"[ 5  1  2  0  1  3  5  3  0  1  3  2  4  2  0  0  0  2  4  3  1  0  7  3
  0  3  0  4  3  7  0 12  6  1  3 10  0  9  5  2  1  2  1 11  4  1 10  2
  1  0 10  5 12 17  0 16 15  4 10  3  1 20 17  3  1  0  3 14 21  4 23 17
  3 22 20 16  9 21  5]"
1600,337.0,0.984375,6,2,12.496775388717651,5.253181457519531,1144,7424,72970,391411,"[ 3  1  1  0  1  3  4  0  3  5  3  2  5  1  0  0  0  2  1  0  5  3  8  3
  0  3  0  1  2  8  0  6  8  1  3  5  0  9  5  2  1  2  3  0  0  3 18 10
  2  0  3  5 12 17  0 14 17  4 18 15  0 20 17  3 16 16  4  0  3  2  3 17
  4 22 14 16  9 21  5]"
1700,337.0,0.984375,6,2,13.002781629562378,5.060062408447266,1202,7824,75813,409076,"[ 5  2  1  0  1  3  4  3  3  0  3  1  5  1  2  0  0  2  0  4  7  0  4  1
  0  3  0  3  6  8  1  0  7  4  6 12  0  9  5  2  1  2  1  5  5  3 15 11
  5 18  9  5 12 17  0 17 17  4 18 15  5 22 23  2 14 18  4 16  3  0 21 17
  1  2 14 16  9 21  5]"
1800,337.0,0.984375,6,2,13.521738052368164,5.189564228057861,1268,8224,78787,427458,"[ 4  3  1  0  1  3  4  0  0  0  3  0  2  1  3  0  0  2  0  2  5  2  6  1
  0  3  0  3  7  6  1  0  8  4  6  0  0  9  5  2  1  2  0  5  5  4 14 11
  2 18  1  5 12 17  1 12 15  4 18 10  5 22 23  4 19 15  5 16  3  0 21 17
  4  2  0 16  9 21  5]"
1900,337.0,0.984375,6,2,14.061400413513184,5.396623611450195,1325,8624,81945,447604,"[ 2  2  3  0  1  3  5  1  3  4  3  0  0  3  3  0  0  2  0  5  4  0  7  0
  0  3  0  0  0  5  4  5 12  0 10 13  0  9  5  2  1  2  3  9  3  4  9  1
  3 11  1  5 12 17  0  3 16  2 17  2  1 15 17  4 19 20  0 16  3  0 23 15
  5 16 23 16  9 21  5]"
2000,337.0,0.984375,6,2,14.572044134140015,5.1064372062683105,1379,9024,84828,465637,"[ 2  2  1  0  1  3  2  1  2  2  3  0  0  1  1  0  0  2  0  2  5  2  4  0
  0  3  0  4  0  5  5  4  2  5 11  4  0  9  5  2  1  2  4  2  2  2  9 14
  1  1 14  5 12 17  2  3 18  2 17 15  1  0 17  2  2 23  1 15  0  2  1 19
  3 21 23 16  9 21  5]"
2100,337.0,0.984375,6,2,15.088895320892334,5.168511867523193,1437,9424,87703,483475,"[ 1  0  1  0  1  3  3  1  2  4  3  0  0  0  0  0  0  2  0  3  3  4  1  7
  0  3  0  3  8  5  1 13  2  5 11  8  0  9  5  2  1  2  2  2  6  2 15 13
  5  1  3  5 12 17  3  3 18  1  2 11  0  0 17  0 16 21  1 14  0  0 15 17
  3 21 17 16  9 21  5]"
2200,337.0,0.984375,6,2,15.598212242126465,5.093169212341309,1503,9824,90596,501626,"[ 0  0  1  0  1  3  3  2  3  4  3  0  3  2  2  0  0  2  3  4  3  4  5  5
  0  3  0  2  1  4  3  8  4  5 11  8  0  9  5  2  1  2  2 10 12  5  0 13
  0  0 12  5 12 17  5  3 18  4 10 17  4 20 21  1 16 21  1 14 14  3 18  2
  5 21 15 16  9 21  5]"
2300,337.0,0.984375,6,2,16.109432220458984,5.112199783325195,1566,10224,93556,520337,"[ 3  1  2  0  1  3  3  2  1  4  2  2  3  2  0  0  0  2  1  6  4  0  0  6
  0  3  0  3  7  2  0  4  1  5 11 13  0  9  5  2  1  2  3  8  0  1 18 13
  0  1 12  5 12 17  5 12 17  4 15 15  3 20 21  1 16 20  0  2  3  5  1  2
  5 21 16 16  9 21  5]"
2400,337.0,0.984375,6,2,16.60823655128479,4.988043308258057,1633,10624,96419,537985,"[ 3  1  2  0  1  3  0  3  3  3  3  0  3  2  3  0  0  2  2  6  3  5  0  6
  0  3  0  1  4  2  2  0  9  1  1 13  0  9  5  2  1  2  2  7  3  5 17 11
  3 16 12  5 12 17  2  1 14  1  3 15  3 20 17  5 20 20  0 14 23  3 19 17
  0 19 20 16  9 21  5]"
2500,337.0,0.984375,6,2,17.12325119972229,5.150146484375,1696,11024,99334,556246,"[ 3  1  3  0  1  3  2  0  1  5  3  0  5  1  2  0  0  2  3  4  7  0  2  1
  0  3  0  5  3  5  3 13 10  4  4 11  0  9  5  2  1  2  0  9 12  5  3 13
  3 16 12  5 12 17  1 17 17  3  3 11  3  3 17  2 15  3  5 23 15  1 17 15
  0 19 16 16  9 21  5]"
2600,337.0,0.984375,6,2,17.6464102268219,5.231590270996094,1760,11424,102279,574762,"[ 3  0  0  0  1  3  4  3  1  1  1  0  5  1  1  0  0  2  3  3  6  0  7  0
  0  3  0  3  1  7  3 13  6  4 11 11  0  9  5  2  1  2  4  3 12  5 10  9
  4 13 18  5 12 17  0 18  1  3  0 18  5  3 17  4 20 16  5 23 23  5 19 15
  4 18 22 16  9 21  5]"
2700,337.0,0.984375,6,2,18.134101152420044,4.876909255981445,1832,11824,104940,591594,"[ 3  0  1  0  1  3  1  3  2  5  1  0  2  0  2  0  0  2  3  2  6  0  4  5
  0  3  0  0  8  7  0 12  2  4  3 10  0  9  5  2  1  2  5  3  4  2  1 10
  1 10 18  5 12 17  0 10  1  0  0 18  1 17 22  5  3 16  4 23 23  5  0 15
  4 16 14 16  9 21  5]"
2800,337.0,0.984375,6,2,18.64132070541382,5.072195529937744,1889,12224,107834,609669,"[ 0  2  3  0  1  3  1  1  2  5  0  0  2  1  0  0  0  2  0  2  5  1  3  5
  2  1  8  0  3  0  0  2  2  5  3  3  0  9  5  2  1  2  2 11  4  2  0 10
  0 10 15  5 13 17  2 16  1  0  0  0  4 17 23  3 18 16  4 23 23  4 20 22
  2 23 22 16  9 21  5]"
2900,337.0,0.984375,6,2,19.141629219055176,5.003085136413574,1946,12624,110677,627143,"[ 2  2  0  0  1  3  1  0  0  5  2  0  2  3  1  0  0  2  3  2  6  3  3  3
  2  1  2  0  3  0  3  1 13  0  3  4  0  9  5  2  5  2  2  8  2  5  2 15
  2 13  9  5 13 12  3  2  1  2 15  0  4 16 23  5 15  3  4  3 19  2 20 21
  2 16  0 16  9 21  5]"
3000,337.0,0.984375,6,2,19.65270447731018,5.110752582550049,2002,13024,113482,644468,"[ 5  1  0  0  1  3  2  0  2  3  2  0  5  3  1  0  0  2  0  1  1  4  4  3
  2  1  2  0  3  0  4 10  6  5  2  3  0  9  5  4 10  7  5  6  1  3 15 18
  5 13  0  5 13 12  4  2  1  1  3 12  4 14  3  4  1  2  2  3  2  3 20 17
  2 16  0 16  9 21  5]"
3100,337.0,0.984375,6,2,20.166300773620605,5.135962963104248,2059,13424,116412,662576,"[ 4  2  0  0  1  3  2  3  1  0  2  2  2  3  2  0  0  2  0  5  8  4  8  3
  2  1  2  0  3  0  5  4  8  0  2  3  0  9  5  0  7  4  5 13  1  5 11  2
  2  1 15  5 13 12  4 12 17  5  0 12  2 22 17  3 20 19  4 18 15  3 17 22
  1  0 19 16  9 21  5]"
3200,337.0,0.984375,6,2,20.659717082977295,4.9341630935668945,2117,13824,119222,680015,"[ 1  1  0  0  1  3  3  2  0  5  2  2  0  3  3  0  0  2  5  2  8  4  1  3
  2  1  2  0  3  0  2 10  0  0  0 10  0  9  5  5  8  3  1 12 11  0 12  1
  3 15 15  5 13 12  3 11 13  1  2 15  2 18  3  3 20 21  2 22 23  5  0 14
  0 16  0 16  9 21  5]"
3300,337.0,0.984375,6,2,21.145798683166504,4.86081600189209,2188,14224,121928,696845,"[ 1  2  0  0  1  3  3  2  1  0  1  2  4  2  3  0  0  2  5  2  8  5  1  8
  2  1  2  0  3  0  5  2 11  3  4 11  0  9  5  0  0  3  3  8  3  1  0 18
  1 11 15  5 13 12  3 14  0  0 14  3  3  2  3  4 18 20  3  2 14  0 23 14
  1 16  0 16  9 21  5]"
3400,337.0,0.984375,6,2,21.633931159973145,4.881324768066406,2257,14624,124598,713559,"[ 2  1  0  0  1  3  1  2  1  2  3  0  3  3  2  0  0  2  5  4  8  5  0  7
  2  1  2  0  3  0  5  0  4  2  5  8  0  9  5  2  0  1  3 12  4  1  0  2
  5 10 18  5 13 12  3 18 17  3  0  3  4 21 18  2  3 20  5 14 17  3 23 19
  0  2  0 16  9 21  5]"
3500,337.0,0.984375,6,2,22.128000736236572,4.940695762634277,2321,15024,127374,730868,"[ 0  3  0  0  1  3  2  3  1  2  3  0  2  3  2  0  0  2  5  6  1  3  1  2
  2  1  2  0  3  0  5  0  4  1  5 11  0  9  5  3  7 10  4  2  2  0  2 13
  0 16 16  5 13 12  3  2 17  5 13 14  4 21  2  5  0 21  3 18 17  5 16 21
  0 22  3 16  9 21  5]"
3600,337.0,0.984375,6,2,22.63236951828003,5.04368782043457,2383,15424,130201,748571,"[ 3  2  0  0  1  3  1  3  1  0  1  3  2  1  2  0  0  2  2  6  8  4  2  7
  2  1  2  0  3  0  2 12 12  2  3 11  0  9  5  0  8 11  4 11 10  0  9 15
  1  2 16  5 13 12  4  2 17  5 13 14  0  2 23  2 14 23  5 16  1  5 15 16
  4 14  0 16  9 21  5]"
3700,337.0,0.984375,6,2,23.12749981880188,4.951303005218506,2455,15824,133025,766157,"[ 0  3  1  0  1  3  3  0  1  0  3  1  2  1  0  0  0  2  2  6  7  5  5  4
  2  1  2  0  3  0  2  2 11  2 13  4  0  9  5  2 11  5  0  8 10  2 13 15
  1 18 16  5 13 12  5  2  0  0 13  1  4  2 16  2 19 23  5 16 16  5 18 20
  1 22  0 16  9 21  5]"
3800,337.0,0.984375,6,2,23.62873339653015,5.012335777282715,2512,16224,135879,783871,"[ 0  3  3  0  1  3  4  0  1  1  2  3  1  0  2  0  0  2  2  4  2  5  8  4
  2  1  2  0  3  0  2 10  4  1  1  5  0  9  5  5 13 12  0  2  9  5 12 17
  2 10  0  5 13 12  4 13 18  4 17  1  4 18 20  2  2 23  3 19  3  4  2 23
  0 14  0 16  9 21  5]"
3900,337.0,0.984375,6,2,24.16119384765625,5.324604511260986,2564,16624,138856,802363,"[ 1  3  0  0  1  3  0  0  0  0  0  2  1  1  2  0  0  2  1  0  8  3  2  4
  2  1  2  0  3  0  2  4  4  1 12  6  0  9  5  1  2  3  0  4 13  5 18  1
  5  9  1  5 13 12  0 18  9  1  9 10  5 17  1  1 15 15  2 17 15  0 17 23
  1 19  3 16  9 21  5]"
4000,337.0,0.984375,6,2,24.661673307418823,5.004794597625732,2636,17024,141591,819386,"[ 1  2  3  0  1  3  0  2  0  5  0  1  1  2  3  0  0  2  0  0  3  4  6  4
  2  1  2  0  3  0  2  4  4  1  4  6  0  9  5  1  2  3  0  4 13  5 18 13
  5 11 10  5 13 12  3  9  9  1  9 14  5 17  2  5 17 15  2 17 15  2 17 23
  2 19 20 16  9 21  5]"
4100,337.0,0.984375,6,2,25.17596173286438,5.142884254455566,2696,17424,144529,837658,"[ 1  1  0  0  1  3  0  0  0  5  2  1  4  1  1  0  0  2  1  4  5  4  3  5
  2  1  2  0  3  0  5 10  0  1  8 13  0  9  5  0  9  8  5  4 10  5 16 10
  1 16 12  5 13 12  0  9 13  3 10 18  4 16 15  2  3  3  4 17 22  3 17 20
  2 23 20 16  9 21  5]"
4200,337.0,0.984375,6,2,25.670448780059814,4.944870471954346,2750,17824,147338,855144,"[ 1  2  0  0  1  3  3  0  1  2  3  0  5  2  3  0  0  2  1  3  5  4  6  4
  2  1  2  0  3  0  0  9  8  1 10  9  0  9  5  4 11  8  0  4 10  0 16  1
  1  0 10  5 13 12  2  9 12  4  9 17  0 21 22  3  2 23  4  2  2  1 19 19
  3 19 20 16  9 21  5]"
4300,337.0,0.984375,6,2,26.190017700195312,5.1956892013549805,2812,18224,150348,873849,"[ 1  0  3  0  1  3  0  0  1  4  0  1  4  3  0  0  0  2  1  4  5  5  6  0
  2  1  2  0  3  0  3  2 11  5  0  9  0  9  5  3 12  8  1  4 10  5 16 17
  5  0 10  5 13 12  5 13 12  4 18  0  4 23  0  1  2 21  4 23 19  1 18 16
  0 19  3 16  9 21  5]"
4400,337.0,0.984375,6,2,26.710548639297485,5.2053093910217285,2877,18624,153304,892122,"[ 1  1  2  0  1  3  5  0  0  4  2  2  2  1  0  0  0  2  3  8  6  5  2  5
  2  1  2  0  3  0  3  2  1  1 11 11  0  9  5  3  3  8  2  6  6  5 16  3
  5 17  9  5 13 12  1  2 12  4 17  0  4 23 18  3 23  0  3 23  1  1 21 15
  0 15 16 16  9 21  5]"
4500,337.0,0.984375,6,2,27.215028285980225,5.044796466827393,2938,19024,156179,910043,"[ 2  2  3  0  1  3  1  2  0  4  2  3  2  1  1  0  0  2  4  8  6  1  2  1
  2  1  2  0  3  0  3  1  1  1 11  6  0  9  5  2  6  8  2  4  4  5  1  1
  5 18 14  5 13 12  1  9 12  5  2 15  2 21 18  1 16 23  1 23 16  4 21  0
  2 15 14 16  9 21  5]"
4600,337.0,0.984375,6,2,27.710719108581543,4.956908226013184,3001,19424,159024,927544,"[ 5  1  3  0  1  3  1  0  1  5  0  3  3  1  1  0  0  2  3  6  3  0  0  5
  2  1  2  0  3  0  5  5  1  1  7  6  0  9  5  2  5  4  5  3 13  2  1  1
  3 15 13  5 13 12  1  2 10  3  0  0  1 18 22  1 15  1  1 23 14  5  3 18
  5 16  3 16  9 21  5]"
4700,337.0,0.984375,6,2,28.206435203552246,4.957160949707031,3068,19824,161729,944333,"[ 2  2  0  0  1  3  2  1  3  3  2  0  4  1  1  0  0  2  3  6  7  4  5  5
  2  1  2  0  3  0  5  2  1  1  6  1  0  9  5  2 13  3  5  0  7  2 13 15
  0  2  9  5 13 12  1 10 14  5 15  0  1 19  3  3 18  1  5 17 23  4  3 23
  2 17 20 16  9 21  5]"
4800,337.0,0.984375,6,2,28.708810091018677,5.023748874664307,3128,20224,164557,962003,"[ 3  3  1  0  1  3  3  3  1  2  3  2  1  3  1  0  0  2  3  3  4  4  7  5
  2  1  2  0  3  0  0  2  0  5  7  5  0  9  5  1 13  3  3  7 10  4 11 12
  5  2  9  5 13 12  3 15 14  0 16  0  3  3 14  3 18 20  0 16 23  2  3 21
  5  0 17 16  9 21  5]"
4900,337.0,0.984375,6,2,29.194589138031006,4.857790470123291,3188,20624,167251,978640,"[ 3  3  1  0  1  3  3  2  1  2  3  3  4  0  1  0  0  2  1  5  4  4  4  5
  2  1  2  0  3  0  3  9  0  3  7  5  0  9  5  2 11 10  5  7  2  2 11 10
  5 16  3  5 13 12  5 11 14  3 15  3  3 18 16  0 18  2  4 20 20  2  3 18
  4 17  1 16  9 21  5]"
5000,337.0,0.984375,6,2,29.757187128067017,5.625979900360107,3249,21024,170189,997057,"[ 3  0  3  0  1  3  3  2  2  4  3  1  4  3  3  0  0  2  4  0  4  3  7  8
  2  1  2  0  3  0  2  6 12  4  5  5  0  9  5  2 11  9  4  3 12  1 14 18
  1 16 12  5 13 12  2  0  2  3 18 14  3 15 23  0 16  3  1 21 16  4 21 22
  1 18 22 16  9 21  5]"
5100,337.0,0.984375,6,2,30.27013087272644,5.129437446594238,3304,21424,173069,1014911,"[ 3  3  2  0  1  3  2  2  2  4  2  1  3  0  1  0  0  2  4  8  7  4  7  0
  2  1  2  0  3  0  5  8  3  4  3 13  0  9  5  0  8  9  4  3 13  4 13 15
  4 10 11  5 13 12  2 18 14  5 14  9  4  1 23  2 21 15  5 14 16  4 15 22
  1 18 14 16  9 21  5]"
5200,337.0,0.984375,6,2,30.778382301330566,5.08251428604126,3367,21824,175980,1033030,"[ 2  3  2  0  1  3  2  2  3  2  1  1  4  2  3  0  0  2  5  0  8  4  3  6
  2  1  2  0  3  0  5 13  1  4  8 13  0  9  5  2  2  9  3  0 13  1  2  0
  4 15  9  5 13 12  0 13  0  1 14 17  2 22 20  5 23  3  2 14 16  4  2 22
  4 21 14 16  9 21  5]"
5300,337.0,0.984375,6,2,31.281704664230347,5.033223628997803,3434,22224,178859,1050774,"[ 2  1  2  0  1  3  4  2  2  2  0  3  3  2  3  0  0  2  2  5  6  4  3  4
  2  1  2  0  3  0  2  8  1  2  8 10  0  9  5  3  5  2  3 10 13  4  2  1
  4 15  0  5 13 12  1 13  0  0  1  0  2 23  3  1  2 21  5 14 21  0 22  2
  4 16 17 16  9 21  5]"
5400,337.0,0.984375,6,2,31.788723707199097,5.0701904296875,3496,22624,181766,1068808,"[ 4  3  3  0  1  3  5  2  2  3  0  0  3  1  1  0  0  2  4  2  7  5  4  3
  2  1  2  0  3  0  5  8 11  4 11  0  0  9  5  1  5  2  2 11  3  0  0  1
  2 10  0  5 13 12  3 18  1  1 18  0  5 23  3  1 17 21  3 14 14  2 17  2
  2 20 20 16  9 21  5]"
5500,337.0,0.984375,6,2,32.29983377456665,5.111100673675537,3554,23024,184737,1087042,"[ 1  1  2  0  1  3  2  1  0  4  1  3  3  1  0  0  0  2  5  3  2  2  2  0
  2  1  2  0  3  0  1 11  6  5  0  6  0  9  5  2  8  7  2  9  1  0  0 13
  4 10 14  5 13 12  3 12 11  5 18 14  3 19  3  1 17 14  3 14 16  2 17 18
  2 19  2 16  9 21  5]"
5600,337.0,0.984375,6,2,32.780550718307495,4.807169437408447,3622,23424,187457,1103821,"[ 3  2  0  0  1  3  1  1  2  2  1  0  3  3  3  0  0  2  5  8  1  2  6  0
  2  1  2  0  3  0  2 11  4  4  0  6  0  9  5  0  8 12  0  3  0  0  1  1
  3 10 15  5 13 12  3  1  0  2 18  0  5  3  1  4 15 20  3 21 16  2  0 18
  2 19  2 16  9 21  5]"
5700,337.0,0.984375,6,2,33.275678634643555,4.951279163360596,3687,23824,190267,1121212,"[ 1  0  0  0  1  3  1  1  2  4  2  2  3  1  1  0  0  2  5  3  8  2  1  2
  2  1  2  5  4  1  2  7  7  0  0 11  0  9  5  0  5  4  0  3  0  0 11  3
  0  0  2  5 18 11  0  1 18  4  9 17  3 19 22  4 20 20  3 18 14  2 16 18
  3  2 17 16  9 21  5]"
5800,337.0,0.984375,6,2,33.79287028312683,5.171916484832764,3752,24224,193205,1139594,"[ 4  3  2  0  1  3  2  1  3  0  0  3  0  1  3  0  0  2  5  7  4  3  5  0
  2  1  2  5  3  8  2  7  8  0  0  0  0  9  5  3  6  5  0  3  0  2 11  0
  5  9  3  5 18 12  0 10 17  5 11  9  0 19 21  4 20  1  3 15 16  3 16 19
  2  2 17 16  9 21  5]"
5900,337.0,0.984375,6,2,34.29075360298157,4.978833198547363,3812,24624,195993,1157108,"[ 4  0  2  0  1  3  0  0  1  4  2  3  1  3  1  0  0  2  1  6  4  4  5  8
  2  1  2  1  1  1  4  2 11  5 11 10  0  9  5  4  8  9  0  3  0  5  0  2
  3  2  3  5 18 12  0 10 12  5 10 11  3 17 23  2  3 21  3 17 16  2  1 22
  0 15 17 16  9 21  5]"
6000,337.0,0.984375,6,2,34.793405294418335,5.026516914367676,3876,25024,198774,1174509,"[ 3  3  3  0  1  3  3  2  0  5  1  1  4  3  0  0  0  2  5  3  2  5  2  5
  2  1  2  2  1  5  0  1  4  1  0  7  0  9  5  2 12  6  0  3  0  2  2  1
  2  9  9  5 18 12  5 16 13  0 10 17  0 18  0  5  3 16  5  1  3  2 17 20
  2 15  3 16  9 21  5]"
6100,337.0,0.984375,6,2,35.2754111289978,4.820058345794678,3943,25424,201477,1191381,"[ 1  2  1  0  1  3  2  0  2  2  2  1  1  3  2  0  0  2  5  3  2  5  7  6
  2  1  2  2  1  5  4 12 13  1  9  7  0  9  5  2 11  5  0  3  0  4 15 15
  2 17 11  5 18 12  2  0 14  0 10  0  0  0  3  2  3 16  0 15 22  5 17 20
  2 15 14 16  9 21  5]"
6200,337.0,0.984375,6,2,35.757410287857056,4.819991588592529,4011,25824,204125,1207911,"[ 0  2  0  0  1  3  5  3  1  4  2  3  4  0  0  0  0  2  1  3  1  0  6  6
  2  1  2  2  4  4  4  4  1  1  4  7  0  9  5  3  7  5  0  3  0  4 15 14
  2 10 11  5 18 12  1 15  3  0 14  3  4 22 15  5  1 16  2 17 22  0 23  0
  1 15 14 16  9 21  5]"
6300,337.0,0.984375,6,2,36.28709650039673,5.2968621253967285,4074,26224,207055,1226270,"[ 2  2  3  0  1  3  2  1  0  3  0  3  4  2  0  0  0  2  3  3  8  0  1  6
  2  1  2  2  0  0  2  3  4  1 11  7  0  9  5  3  7  9  0  3  0  0 13  9
  5 10 16  5 18 12  5 13  3  3 14 11  4 15  1  1 19  3  5  3 17  4 23  0
  0  0  3 16  9 21  5]"
6400,337.0,0.984375,6,2,36.81388831138611,5.267918109893799,4127,26624,210058,1244951,"[ 5  3  3  0  1  3  5  1  3  1  0  0  2  1  3  0  0  2  3  6  1  0  1  8
  2  1  2  0  0  3  0  4  8  4 13  3  0  9  5  4  1 13  0  3  0  2 17 17
  5 15 18  5 18 12  0  1 12  3 10 14  0  2 18  4 19 22  0 19  2  3  3 23
  4 17  2 16  9 21  5]"
6500,337.0,0.984375,6,2,37.30177044868469,4.87882137298584,4193,27024,212774,1261881,"[ 2  1  3  0  1  3  3  1  3  1  3  0  0  1  3  0  0  2  2  4  6  0  8  8
  2  1  2  0  8  7  0 11  9  4  6 10  0  9  5  4 11 13  0  3  0  0 18 17
  5 10 18  5 18 12  5 16 12  3 11 17  0 16 18  4 19  2  1  0  0  3 19 14
  4 14  2 16  9 21  5]"
6600,337.0,0.984375,6,2,37.82263898849487,5.208685398101807,4251,27424,215795,1280693,"[ 3  3  2  0  1  3  1  2  2  0  2  3  3  1  1  0  0  2  2  5  6  0  8  8
  2  1  2  1  0  2  0  2  9  2  5 13  0  9  5  2  8  2  0  3  0  0 18 12
  1 17  3  5 18 12  5 16 10  5 11 14  0 20 15  4 14 21  1 16 21  5 20 14
  4  1  3 16  9 21  5]"
6700,337.0,0.984375,6,2,38.32332706451416,5.006880760192871,4312,27824,218564,1297738,"[ 3  3  0  0  1  3  0  3  3  2  0  0  3  2  0  0  0  2  0  6  0  1  8  0
  2  1  2  0  1  2  0  0 13  1  1 10  0  9  5  0  8  6  0  3  0  4  3 11
  1  0 15  5 18 12  0 15 12  1 16 12  0  2 15  5 15 22  5  1 21  1  3 14
  5 20 16 16  9 21  5]"
6800,337.0,0.984375,6,2,38.82934522628784,5.060181617736816,4376,28224,221363,1315061,"[ 3  0  0  0  1  3  0  3  3  1  0  3  4  3  0  0  0  2  1  6  5  4  3  1
  2  1  2  1  5  2  5  0 13  1  6 13  0  9  5  1  7  3  0  3  0  4 16 12
  5 12 18  5 18 12  2 15 15  2 15  0  4  0 15  1 16 14  2 19 23  5 17 17
  5 20 16 16  9 21  5]"
6900,337.0,0.984375,6,2,39.316169023513794,4.8682379722595215,4446,28624,224002,1331578,"[ 2  1  0  0  1  3  2  2  3  3  0  2  5  3  0  0  0  2  1  8  7  1  5  5
  2  1  2  1  7  2  0 10  7  1  6  4  0  9  5  1 13  3  0  3  0  4 16 10
  5 12 18  5 18 13  4 12  2  2 12  3  0 21  0  5 20 14  2 19 15  0 17 18
  5 23 20 16  9 20  5]"
7000,337.0,0.984375,6,2,39.82670569419861,5.1053667068481445,4510,29024,226878,1349664,"[ 5  0  0  0  1  3  4  0  0  5  1  1  0  3  0  0  0  2  2  3  4  1  0  8
  2  1  2  0  6  5  0  2  5  0  5  5  0  9  5  0  6  3  0  3  0  3 16 15
  5 12 18  4 18 13  4  2 15  3 12  1  3 17 22  5  0 14  1 16 18  0 17 23
  5 23 20 16  9 20  5]"
7100,337.0,0.984375,6,2,40.33526039123535,5.085546970367432,4576,29424,229761,1367915,"[ 5  3  2  0  1  3  4  1  3  2  3  3  3  0  3  0  0  2  5  3  0  1  3  8
  2  1  2  0  0  7  3  1 10  0  5 13  0  9  5  0  7 12  0  3  0  2 17  9
  5 12 18  3  9 12  1  1 15  0 12 13  3  3 20  0  1 14  0 23 20  1  0  2
  0 19  1 16  9 20  5]"
7200,337.0,0.984375,6,2,40.83759832382202,5.023379325866699,4641,29824,232574,1385672,"[ 1  0  2  0  1  3  4  3  0  0  3  3  0  0  3  0  0  2  0  7  4  1  3  6
  2  1  2  3  0  2  3  2 10  4  5  6  0  9  5  0  7  7  0  3  0  4 11 12
  5 12 18  3  2 17  2  2  1  3 12 13  4  3 23  2 16 14  0  2 20  0 20  2
  0 15 19 16  9 20  5]"
7300,337.0,0.984375,6,2,41.359009981155396,5.21411657333374,4706,30224,235512,1403944,"[ 1  3  0  0  1  3  4  3  3  0  3  2  2  0  2  0  0  2  2  8  8  0  8  7
  2  1  2  3  4  2  0  0  4  4 10  5  0  9  5  0  8 12  0  3  0  0 13  1
  5 12 18  5 18 17  4  2 17  2  2  1  3 23 23  2 16  1  0  2 20  4 20 20
  4  1 19 16  9 20  5]"
7400,337.0,0.984375,6,2,41.8936882019043,5.346782207489014,4764,30624,238553,1423235,"[ 4  0  0  0  1  3  1  3  0  1  0  1  0  1  1  0  0  2  2  2  5  1  6  3
  2  1  2  5  4  0  5  1  9  4 10  2  0  9  5  1  8  9  0  3  0  1 13 15
  5 12 18  5 15 11  4 17 10  1  0  1  4 23  0  2 22 21  4 15 22  1 22 17
  3 16 18 16  9 20  5]"
7500,337.0,0.984375,6,2,42.378902196884155,4.852139949798584,4825,31024,241273,1440050,"[ 1  0  0  0  1  3  5  2  0  5  0  3  1  3  3  0  0  2  1  5  4  1  3  3
  2  1  2  3  6  4  2  2 13  4  6  9  0  9  5  1  1  9  0  3  0  2 13  3
  5 12 18  5 12  0  3 17  1  5 18 15  3  1 16  0 19  3  1 23 22  2 22 16
  4  2 14 16  9 20  5]"
7600,337.0,0.984375,6,2,42.872461795806885,4.935595989227295,4883,31424,244067,1457313,"[ 1  0  1  0  1  3  5  2  2  2  0  0  0  2  3  0  0  2  0  5  8  4  7  8
  2  1  2  1  3  3  5 10 13  1  1 13  0  9  5  3  1  9  0  3  0  4  1  3
  5 12 18  3 10  0  3 17 18  1 18  9  1 21 19  1  3 17  0 23 19  1 23  0
  2  2 14 16  9 20  5]"
7700,337.0,0.984375,6,2,43.40249156951904,5.300297737121582,4946,31824,247085,1476323,"[ 4  1  0  0  1  3  5  2  3  0  1  2  2  2  1  0  0  2  5  4  1  3  7  5
  2  1  2  1  8  1  0 10  6  2  1  5  0  9  5  0  0  4  0  3  0  3  3  3
  5 12 18  3 18  1  1 11 15  5 12  9  5 19 17  5  3 15  3 16 14  2  0  0
  1  2  1 16  9 20  5]"
7800,337.0,0.984375,6,2,43.9010226726532,4.985311031341553,5015,32224,249855,1493456,"[ 1  2  0  0  1  3  5  2  3  4  0  2  2  0  1  0  0  2  4  8  3  2  0  4
  2  1  2  1  7  5  0  2 11  5  1  5  0  9  5  0  5  7  0  3  0  3  3 12
  5 12 18  0 18  1  5  9 10  5  3 15  5 20 16  5  3 15  3 16 14  2 17 23
  0  2 23 16  9 20  5]"
7900,337.0,0.984375,6,2,44.39607357978821,4.950509071350098,5080,32624,252620,1510933,"[ 1  1  0  0  1  3  5  2  1  1  1  3  2  1  0  0  0  2  1  4  2  2  4  1
  2  1  2  3  8  7  5 11  6  5  8  7  0  9  5  4  4  4  0  3  0  3 13 17
  5 12 18  0 11 14  4  1 10  1 13  0  5 20 20  0  0 22  0 16 19  2 17 19
  0 19 22 16  9 20  5]"
8000,337.0,0.984375,6,2,44.91789412498474,5.218205451965332,5139,33024,255620,1529809,"[ 1  0  3  0  1  3  0  0  2  0  3  3  0  0  3  0  0  2  0  2  2  4  6  1
  2  1  2  1  8  1  0  5  6  5 12  8  0  9  5  4  5  3  0  3  0  2 12 11
  5 12 18  4 11 14  4 13 17  0 13 18  0 17 18  0 17  2  1 19 21  2 23 19
  5 14  2 16  9 20  5]"
8100,337.0,0.984375,6,2,45.453030586242676,5.351364612579346,5195,33424,258594,1548732,"[ 5  2  0  0  1  3  0  2  0  0  3  2  0  3  0  0  0  2  2  6  8  4  4  2
  2  1  2  3  2  3  4  3  6  4 12  4  0  9  5  4  8  3  0  3  0  3 18 11
  5 12 18  5 12 14  3 10 18  3 18 12  0 17 20  0 17 18  5 18 21  3  3 15
  0 22 14 16  9 20  5]"
8200,337.0,0.984375,6,2,45.986334800720215,5.333042144775391,5260,33824,261638,1567938,"[ 1  2  2  0  1  3  0  2  0  1  1  0  0  3  0  0  0  2  1  0  1  4  3  8
  2  1  2  0  2  8  4  2  8  4  2  4  0  9  5  4 13  3  0  3  0  4 18 11
  5 12 18  5  9  9  3 10 17  3 13  3  2  1 20  1 18  2  1 14  0  3  3 16
  0 14  3 16  9 20  5]"
8300,337.0,0.984375,6,2,46.50895166397095,5.226168632507324,5314,34224,264509,1586007,"[ 2  2  3  0  1  3  0  0  0  3  1  0  2  1  0  0  0  2  1  4  1  5  8  1
  2  1  2  0  6  4  3  2  3  2 10  2  0  9  5  4 11 12  0  3  0  3 10 12
  5 12 18  3 10 17  2 16 15  5 13 18  2  1 21  1 20  0  4 17  2  3 22 15
  0 23  2 16  9 20  5]"
8400,337.0,0.984375,6,2,46.99230146408081,4.833498001098633,5378,34624,267148,1602817,"[ 0  3  1  0  1  3  5  3  1  5  0  0  4  3  0  0  0  2  4  4  6  5  2  6
  2  1  2  1  2  8  4  1  0  2 10 11  0  9  5  0  4  2  0  3  0  5 14 12
  5 12 18  5 10 12  5 16 16  1 10 14  5  2  3  1  3 22  4  2 15  4 20 18
  1 22  2 16  9 20  5]"
8500,337.0,0.984375,6,2,47.49415874481201,5.018572807312012,5436,35024,270025,1620899,"[ 5  2  2  0  1  3  0  0  0  4  0  0  2  3  1  0  0  2  0  8  0  5  2  6
  2  1  2  1  0  4  1 11 12  4  6  5  0  9  5  0  4 11  0  3  0  2 14 13
  5 12 18  3 13 10  0  3 14  0 10 18  3  2 20  1  2 18  2 22 17  4 17 19
  2 19  2 16  9 20  5]"
8600,337.0,0.984375,6,2,47.99959182739258,5.054330825805664,5492,35424,272935,1638835,"[ 0  2  3  0  1  3  1  1  1  2  0  0  4  3  0  0  0  2  0  2  7  5  1  4
  2  1  2  0  5  1  5  7  4  4  6  4  0  9  5  5  8 13  0  3  0  0  1 11
  5 12 18  5 13 15  0 10 14  5 15  2  0  2 20  4 21 23  3  3 18  0 16 16
  2 18 21 16  9 20  5]"
8700,337.0,0.984375,6,2,48.54233431816101,5.427424907684326,5551,35824,275940,1657538,"[ 0  2  1  0  1  3  1  1  1  0  1  1  5  3  2  0  0  2  3  0  4  4  1  7
  2  1  2  0  6  5  4  4  6  5  6  4  0  9  5  2  6  3  0  3  0  0 17 10
  5 12 18  5  0 10  0  2 15  5 15  2  1 23  1  4 21 21  5  1 20  5 18 16
  5 23  2 16  9 20  5]"
8800,337.0,0.984375,6,2,49.08378553390503,5.4145121574401855,5606,36224,278973,1676760,"[ 5  3  0  0  1  3  2  1  1  1  1  0  5  2  0  0  0  2  1  4  1  0  3  7
  2  1  2  1  6  8  1  8  2  0  5  4  0  9  5  2  5 11  0  3  0  3 18  2
  5 12 18  4  0 16  3 12 10  5 10  0  1  1 14  4 19  1  3  3 22  1  2 22
  4  3 16 16  9 20  5]"
8900,337.0,0.984375,6,2,49.5860710144043,5.022854804992676,5663,36624,281744,1694105,"[ 5  0  0  0  1  3  3  2  3  0  2  3  5  0  1  0  0  2  1  3  4  1  3  7
  2  1  2  1  6  5  3 10  5  4  2  6  0  9  5  2  9  0  0  3  0  4  9  2
  5 12 18  0 10  0  3  0 11  0  1  3  3 15  2  5  2 19  0  3  1  4 17 21
  4  0  1 16  9 20  5]"
9000,337.0,0.984375,6,2,50.072104692459106,4.860336780548096,5726,37024,284518,1711600,"[ 5  0  0  0  1  3  3  1  2  5  2  2  2  3  2  0  0  2  1  5  3  2  0  3
  2  1  2  1  6  4  3  0  1  4  3  0  0  9  5  5  3  8  0  3  0  1 17 12
  5 12 18  0 18  0  3 15 17  2 15  1  3  2 21  4  1 19  5  0 20  3 16 23
  5 21 18 16  9 20  5]"
9100,337.0,0.984375,6,2,50.55929112434387,4.871864318847656,5787,37424,287220,1728304,"[ 3  0  3  0  1  3  5  1  3  4  3  3  2  1  0  0  0  2  1  3  6  2  4  6
  2  1  2  1  8  5  0  8  1  4  4  6  0  9  5  1  7  6  0  3  0  1 12  9
  5 12 18  2 18  0  3 17  0  2 18  1  4  2  1  4  1 21  4 14 15  3  2 21
  2 18  0 16  9 20  5]"
9200,337.0,0.984375,6,2,51.060619831085205,5.01328706741333,5849,37824,290043,1745914,"[ 0  2  3  0  1  3  3  0  1  4  0  1  3  1  0  0  0  2  1  3  5  2  4  1
  2  1  2  3  2  5  0  0  6  4  5  6  0  9  5  2  4 11  0  3  0  4 18  9
  5 12 18  2 16  9  3 18  3  2 11  9  0 17  2  5 20 21  4 21  2  4 15  2
  5  2  3 16  9 20  5]"
9300,337.0,0.984375,6,2,51.56279921531677,5.021793842315674,5915,38224,292927,1763717,"[ 2  2  0  0  1  3  1  0  2  4  2  1  4  1  0  0  0  2  4  0  2  2  6  3
  2  1  2  3  4  1  0  3  0  5  1  4  0  9  5  1 12  5  0 12 13  5 11  9
  5 12 14  0  3 15  1 12 11  2  1  9  0  0 22  2 20 22  1 21  0  3 15  3
  4  1  3 16  9 20  5]"
9400,337.0,0.984375,6,2,52.076550245285034,5.137510299682617,5978,38624,295630,1780477,"[ 2  1  3  0  1  3  3  1  2  4  2  3  2  1  1  0  0  2  1  0  5  2  5  6
  2  1  2  3  4  1  0  3  0  1  1 13  0  9  5  2  9  6  1  7  7  5  3  9
  5 12 14  3 18  0  1 12  9  3 15 16  3 16 22  5 20  3  1 21 23  0 16 21
  3 17  3 16  9 20  5]"
9500,337.0,0.984375,6,2,52.58575224876404,5.092020034790039,6040,39024,298522,1798433,"[ 2  1  2  0  1  3  3  2  2  5  2  3  3  1  0  0  0  2  1  5  5  4  1  2
  2  1  2  0  4  7  0  3  0  1  2 13  0  9  5  0  9  4  4  7  0  5 13  2
  5 12 14  2 12  1  2 15 17  3 16 13  2 16 22  1 21 15  2 21 19  0 16 19
  3  0 23 16  9 20  5]"
9600,337.0,0.984375,6,2,53.07452702522278,4.887747764587402,6100,39424,301182,1815087,"[ 2  3  0  0  1  3  1  2  0  0  3  0  5  0  2  0  0  2  1  2  5  5  1  7
  2  1  2  2  4  3  0  3  0  0  7  7  0  9  5  3 12 12  4  0  7  2  3  3
  5 12 14  5 11 13  0 15  3  2 17 14  2 15 17  0 21 17  2 21  3  2 18 18
  3  0 23 16  9 20  5]"
9700,337.0,0.984375,6,2,53.57876539230347,5.042383670806885,6166,39824,304021,1832729,"[ 2  3  2  0  1  3  5  1  2  1  1  0  5  0  2  0  0  2  5  8  5  2  1  6
  2  1  2  4  2  3  0  3  0  0  7  0  0  9  5  4  3  8  1  4  7  4 17 18
  5 12 14  4 11 13  3 10  2  0  3  0  2 14 17  5 21 15  0 21 22  2 20 18
  2 22 23 16  9 20  5]"
9800,337.0,0.984375,6,2,54.080766677856445,5.020012855529785,6233,40224,306879,1850576,"[ 4  1  1  0  1  3  5  2  1  5  1  3  5  3  2  0  0  2  3  8  4  2  5  4
  2  1  2  4  3  1  0  3  0  0  8  0  0  9  5  1 10  7  4  0  5  5 17 14
  5 12 14  2 11 11  3 18  3  1  2  9  5 19 22  5 16 15  0 21 23  4  3 18
  2  2 23 16  9 20  5]"
9900,337.0,0.984375,6,2,54.5772807598114,4.9651408195495605,6296,40624,309659,1868016,"[ 4  2  2  0  1  3  2  2  2  2  2  3  5  1  1  0  0  2  1  8  3  5  1  6
  2  1  2  1  3  1  0  3  0  3  4  1  0  9  5  3 13  9  1  0 13  5 12 18
  5 12 14  3 14 16  0 12 14  1 17 13  2 19 18  5  2 23  0 17 14  4 21 15
  4 19 14 16  9 20  5]"
10000,337.0,0.984375,6,2,55.073978424072266,4.966976642608643,6361,41024,312466,1885420,"[ 3  2  2  0  1  3  3  0  2  4  0  3  4  0  1  0  0  2  3  8  1  3  4  8
  2  1  2  1  3  1  0  3  0  1  4  3  0  9  5  4  8  2  1 10  0  4 12  2
  5 12 14  2 14 11  1 13  2  1 13 11  2 19 18  5 16 19  0 17 20  4  1  1
  4 21 21 16  9 20  5]"
10100,337.0,0.984375,6,2,55.578614473342896,5.046360492706299,6416,41424,315273,1902901,"[ 5  3  3  0  1  3  3  1  2  5  2  0  4  0  0  0  0  2  0  8  2  1  6  1
  2  1  2  5  5  3  0  3  0  1  1  3  0  9  5  1 11  7  1  9  8  4 15 18
  5 12 14  5 14  9  1 17 10  5 13 11  2  1 15  0 14  1  5 21 16  4 19  2
  3 19  2 16  9 20  5]"
10200,337.0,0.984375,6,2,56.06467247009277,4.860579967498779,6483,41824,318050,1920133,"[ 0  1  3  0  1  3  3  0  3  0  0  3  3  3  0  0  0  2  3  8  2  2  6  6
  2  1  2  1  2  0  0  3  0  1  1  2  0  9  5  1  2 10  2  1  7  4  1  9
  5 12 14  3 18  9  2  3 10  3  3 18  2 18 17  3 15  0  1 21 14  1 19  1
  1 19 17 16  9 20  5]"
10300,337.0,0.984375,6,2,56.58184361457825,5.171711444854736,6545,42224,321007,1938663,"[ 2  0  0  0  1  3  1  0  3  0  0  1  5  1  1  0  0  2  3  4  7  0  6  6
  2  1  2  5  5  7  0  3  0  1  8  9  0  9  5  3  6 10  2  1  6  4 11 16
  5 12 14  3  9  9  5 17  0  1 15  1  3 22  2  2 22  3  2 17 20  2 19  1
  0 19  0 16  9 20  5]"
10400,337.0,0.984375,6,2,57.08932161331177,5.074779987335205,6606,42624,323915,1957117,"[ 2  0  2  0  1  3  1  3  0  4  0  3  4  2  2  0  0  2  5  8  3  0  5  2
  2  1  2  1  5  7  0  3  0  4  6  9  0  9  5  4  4 10  2  6  7  4 13 16
  5 12 14  5 17 17  5 13 13  5 16 10  3  1 19  1 22 21  5 21 15  5 20 15
  5 19 18 16  9 20  5]"
10500,337.0,0.984375,6,2,57.575400829315186,4.86079216003418,6665,43024,326657,1974085,"[ 4  2  3  0  1  3  1  1  1  0  0  3  5  1  3  0  0  2  5  1  7  0  8  1
  2  1  2  1  1  6  0  3  0  0  2  9  0  9  5  3  7 11  2  8  9  4 11 12
  5 12 14  0 17  0  4  3  9  4 14 14  1 16  0  1 18 21  5 21 15  5  1  3
  5 19  3 16  9 20  5]"
10600,337.0,0.984375,6,2,58.105831146240234,5.304303169250488,6718,43424,329701,1993091,"[ 4  2  2  0  1  3  3  1  3  4  3  1  4  3  3  0  0  2  1  2  8  0  6  2
  2  1  2  4  8  3  0  3  0  2  6  9  0  9  5  2  4  4  1  9  4  4 15  0
  5 12 14  0 16 10  2 14 11  4  2  0  3 16 17  1  2 19  5  1  0  3  0 19
  1  2  2 16  9 20  5]"
10700,337.0,0.984375,6,2,58.63268232345581,5.268511772155762,6769,43824,332740,2012102,"[ 5  3  0  0  1  3  3  2  3  4  3  2  1  3  2  0  0  2  5  7  8  0  4  0
  2  1  2  5  3  3  0  3  0  2  6  1  0  9  5  4  7  2  4 11  2  3 15  2
  5 12 14  2 13  9  2 14 16  3 10  3  5 17 18  4  2 20  2  1 20  5  0  0
  1 18  2 16  9 20  5]"
10800,337.0,0.984375,6,2,59.14723801612854,5.145556926727295,6820,44224,335626,2030220,"[ 0  0  2  0  1  3  3  1  1  1  3  0  4  1  2  0  0  2  5  3  5  1  6  2
  2  1  2  2  3  2  0  3  0  2  0 13  0  9  5  3  7  2  1  4  2  3 17 16
  5 12 14  0  2 12  2  0  9  5  0 17  0 22  1  0 14 16  3 16 16  2  0  0
  2 18 16 16  9 20  5]"
10900,337.0,0.984375,6,2,59.64551830291748,4.982802867889404,6877,44624,338491,2047893,"[ 5  3  1  0  1  3  3  1  0  3  2  2  5  2  0  0  0  2  1  0  0  4  5  1
  2  1  2  2  6  3  0  3  0  2  9  5  0  9  5  4  7  4  3  6  2  3 17 16
  5 12 14  3  9 12  0 16  9  3  0 10  1 14 19  1 14  2  3 21 14  5  0 14
  2 22 21 16  9 20  5]"
11000,337.0,0.984375,6,2,60.15128993988037,5.057716369628906,6927,45024,341301,2065101,"[ 5  1  0  0  1  3  2  0  1  2  3  3  4  3  2  0  0  2  4  3  5  2  8  1
  2  1  2  2  0  4  0  3  0  4  0  1  0  9  5  4  7  4  1 10  3  2 10  1
  5 12 14  2  3 16  2 18 17  3 13 14  3 19  0  3  3 23  4 20 21  2 23 14
  1 21 14 16  9 20  5]"
11100,337.0,0.984375,6,2,60.62812542915344,4.768354892730713,6993,45424,343952,2081665,"[ 5  1  1  0  1  3  5  1  1  1  2  3  0  0  1  0  0  2  3  2  6  4  8  7
  2  1  2  2  7  3  0  3  0  4 10  8  0  9  5  5  7  0  0 13  3  2 10  1
  5 12 14  4  2  9  2 11 17  5 13 12  4 19  3  0  3 19  2  0 17  2 17  0
  4  0 14 16  9 20  5]"
11200,337.0,0.984375,6,2,61.12273836135864,4.946129322052002,7057,45824,346652,2098719,"[ 5  1  0  0  1  3  5  3  0  4  3  0  0  0  0  0  0  2  1  6  1  1  8  3
  2  1  2  4  0  3  0  3  0  3  8  8  0  9  5  1  4  0  1 13  3  5 16 16
  5 12 14  4  2  9  4  0  3  5 13 12  3 21 19  0 16  0  5 20 17  5 17 18
  5 16 14 16  9 20  5]"
11300,337.0,0.984375,6,2,61.603408336639404,4.806699752807617,7124,46224,349397,2115685,"[ 5  1  2  0  1  3  4  0  1  4  3  0  3  1  0  0  0  2  0  6  6  4  1  5
  2  1  2  5  1  0  0  3  0  3  2  8  0  9  5  3  3  5  2 11  3  5 12 12
  5 12 14  0 12 13  1  0  3  5 18  1  0 17 19  1 17 15  3 20 15  4 22 19
  0 19 22 16  9 20  5]"
11400,337.0,0.984375,6,2,62.10003137588501,4.966230392456055,7184,46624,352181,2133021,"[ 0  3  0  0  1  3  1  0  0  4  3  0  1  0  0  0  0  2  5  5  5  3  2  5
  2  1  2  4  8  6  0  3  0  2  2  5  0  9  5  0  5 11  3 11  0  5  0  9
  5 12 14  1 12 13  1 11  9  2 11 15  0 23  0  3 19 19  3 18  0  1 14 19
  5 19  0 16  9 20  5]"
11500,337.0,0.984375,6,2,62.584311962127686,4.842805862426758,7247,47024,354911,2149890,"[ 1  1  2  0  1  3  4  2  1  4  3  0  1  0  0  0  0  2  4  3  2  5  6  0
  2  1  2  1  2  6  0  3  0  0  1  4  0  9  5  1  6  9  4 11 13  5  1 13
  5 12 14  1  0  0  2 11 16  5 10 15  1 23  0  1 19  2  2 15 14  4  3 21
  4 19 19 16  9 20  5]"
11600,337.0,0.984375,6,2,63.086427450180054,5.021154880523682,7310,47424,357693,2167313,"[ 0  1  2  0  1  3  4  3  0  4  2  3  1  3  3  0  0  2  5  8  5  0  2  3
  2  1  2  1  7  7  0  3  0  2  1  5  0  9  5  3 11  6  2 10 11  1 12  3
  5 12 14  2 17  3  5 18  9  5 15 15  1 17 18  1 23 14  2 21 14  4  3 21
  0  1 15 16  9 20  5]"
11700,337.0,0.984375,6,2,63.582146644592285,4.9571919441223145,7377,47824,360525,2184901,"[ 0  2  2  0  1  3  4  0  1  4  3  3  4  1  0  0  0  2  5  7  2  1  2  6
  2  1  2  1  7  2  0  3  0  1  2  5  0  9  5  3 11  6  1  3 11  2 11 14
  5 12 14  5 16 15  4  1 18  5  2  2  2 16 23  1 22 22  2 14 18  4  3 17
  5  2 15 16  9 20  5]"
11800,337.0,0.984375,6,2,64.1032326221466,5.210859775543213,7432,48224,363473,2203412,"[ 1  0  3  0  1  3  5  0  1  5  1  1  5  2  1  0  0  2  2  7  8  2  2  8
  2  1  2  2  2  2  0  3  0  0  2  5  0  9  5  2  1  6  1  0  6  4 13 18
  5 12 14  4 14 12  2 10  0  5  1 10  4 14 20  0  1  3  0 14 18  5  3 18
  4 14 15 16  9 20  5]"
11900,337.0,0.984375,6,2,64.59340524673462,4.901726245880127,7499,48624,366265,2220838,"[ 5  0  3  0  1  3  5  0  1  1  1  2  3  0  1  0  0  2  5  3  0  0  4  0
  2  1  2  4  2  0  0  3  0  3  2  7  0  9  5  5 13  5  1  6  6  5 14  0
  5 12 14  1 12 10  1 15  0  3 13  9  5  0  2  0  3  3  0 14 20  5 18 15
  1 14 23 16  9 20  5]"
12000,337.0,0.984375,6,2,65.12398910522461,5.305838584899902,7564,49024,369275,2239758,"[ 3  0  3  0  1  3  2  0  3  4  1  2  1  0  0  0  0  2  5  1  4  2  1  2
  2  1  2  2  4  1  0  3  0  5  7 12  0  9  5  2  1  9  5 10  5  3 14 17
  5 12 14  1 14 10  4  2 14  3 17 10  0 19  0  2 19 17  2 22 18  3 17 14
  5 14 23 16  9 20  5]"
12100,337.0,0.984375,6,2,65.64409017562866,5.201010704040527,7614,49424,372284,2258434,"[ 3  2  1  0  1  3  3  2  0  0  2  3  3  0  2  0  0  2  5  2  4  2  5  6
  2  1  2  2  1  6  0  3  0  4  7 10  0  9  5  5  3  9  1  5  2  3  2 17
  5 12 14  5 13 10  3  0 18  1 14  3  0 17 20  4 21  3  2  2  1  1 22 14
  0 22 18 16  9 20  5]"
12200,337.0,0.984375,6,2,66.13676071166992,4.926705360412598,7675,49824,375001,2275614,"[ 5  2  0  0  1  3  0  1  0  0  0  3  3  0  2  0  0  2  5  1  8  0  7  3
  2  1  2  5  7  6  0  3  0  1  6  4  0  9  5  0  2  9  1  8 13  1 14  9
  5 12 14  5 13  0  3 15 14  4 10 18  5 18  1  0 18  1  2 21 19  3 20 17
  2 21 18 16  9 20  5]"
12300,337.0,0.984375,6,2,66.6509428024292,5.141820907592773,7732,50224,377955,2293955,"[ 5  2  1  0  1  3  4  1  2  4  2  3  3  2  3  0  0  2  5  1  0  4  0  1
  2  1  2  3  0  2  0  3  0  1  9  1  0  9  5  1 12  9  4  8  3  1 11 11
  5 12 14  0  2  9  4 11  3  5 15  2  5 14 20  3 18 17  3 21 19  3 18  1
  0 14  2 16  9 20  5]"
12400,337.0,0.984375,6,2,67.17139744758606,5.2045464515686035,7799,50624,380935,2312317,"[ 4  2  2  0  1  3  0  1  2  4  2  2  3  0  2  0  0  2  5  1  3  1  6  5
  2  1  2  3  0  1  0  3  0  1 12  9  0  9  5  1  5  9  5  8 12  1 11 11
  5 12 14  0 12 18  2 12  2  2 11 11  5 14 20  0 23 14  3 20  3  3  2 18
  4  3  2 16  9 20  5]"
12500,337.0,0.984375,6,2,67.68336367607117,5.119662284851074,7865,51024,383768,2330201,"[ 1  2  1  0  1  3  1  1  0  0  2  1  2  3  2  0  0  2  0  4  2  1  3  0
  2  1  2  3  5  1  0  3  0  3  4 10  0  9  5  2  5 11  0 13  0  4 12 13
  5 12 14  5 17 18  2  9 15  5 11 15  2  0 19  3 17  3  0  0 21  5 22  2
  4  1  0 16  9 20  5]"
12600,337.0,0.984375,6,2,68.18515014648438,5.01786470413208,7927,51424,386596,2347738,"[ 3  3  0  0  1  3  2  1  2  1  1  0  2  0  0  0  0  2  2  6  0  2  5  1
  2  1  2  0  1  2  0  3  0  3  3 10  0  9  5  3  9  6  1  6  4  5 15 12
  5 12 14  1  9 16  5  2  2  2 15 12  2 15 14  2 15  0  5 22 19  5 16  3
  4 14  2 16  9 20  5]"
12700,337.0,0.984375,6,2,68.69826889038086,5.131187438964844,7992,51824,389447,2365367,"[ 5  2  3  0  1  3  1  0  2  4  2  3  0  2  0  0  0  2  1  6  2  2  0  5
  2  1  2  3  1  0  0  3  0  4 13 11  0  9  5  1  6  6  1  7 13  5 15 12
  5 12 14  4  3 16  1 12 14  0 15 14  5  3 14  2 20 20  3 23 23  1 16 18
  4 15 17 16  9 20  5]"
12800,337.0,0.984375,6,2,69.20205640792847,5.037875175476074,8050,52224,392302,2383219,"[ 2  1  3  0  1  3  1  3  3  5  1  0  4  2  0  0  0  2  1  5  8  3  0  0
  2  1  2  0  7  0  0  3  0  4  0 11  0  9  5  1  6  9  1  7  3  5 18 11
  5 12 14  1 17  1  0  9 14  4 15 12  2  3 14  0 20 20  4 20 15  4 14  1
  4 15 17 16  9 20  5]"
12900,337.0,0.984375,6,2,69.87218976020813,6.701333522796631,8110,52624,395207,2401213,"[ 0  0  1  0  1  3  3  0  0  2  1  0  2  2  2  0  0  2  3  7  7  4  0  8
  2  1  2  2  7  1  0  3  0  2  3  8  0  9  5  1  4  9  5  6  0  5 18 14
  5 12 14  2 16 15  2  1 14  2 18 10  1 14 17  1  1  0  2 23 16  0 18  2
  4 23 14 16  9 20  5]"
13000,337.0,0.984375,6,2,70.36902070045471,4.96830940246582,8173,53024,397976,2418513,"[ 3  1  1  0  1  3  1  3  2  0  1  2  2  3  0  0  0  2  5  1  8  5  5  4
  2  1  2  4  5  1  0  3  0  2  3 13  0  9  5  2  4 13  5  6  0  1 14 15
  5 12 14  5  3 13  0  1 17  0 14 10  1 23 14  3 22 22  3 23  1  5 18 15
  5  2 22 16  9 20  5]"
13100,337.0,0.984375,6,2,70.88313245773315,5.141117572784424,8240,53424,400807,2436555,"[ 2  3  0  0  1  3  3  0  0  2  3  2  2  3  0  0  0  2  3  1  8  2  2  4
  2  1  2  2  5  6  0  3  0  3  6  3  0  9  5  0  8  0  2  6  8  0 12 18
  5 12 14  5 12 14  5  0 17  2 17 17  5 17 14  3  0 22  4 20 23  0  2 19
  0 23 17 16  9 20  5]"
13200,337.0,0.984375,6,2,71.36792659759521,4.8479413986206055,8306,53824,403508,2453371,"[ 1  3  0  0  1  3  0  0  0  2  2  0  2  1  0  0  0  2  1  0  8  1  6  5
  2  1  2  4  5  6  0  3  0  0  9  3  0  9  5  2  8  1  3  5  9  1  0  9
  5 12 14  5 12  0  0  9 10  1 17  9  2  3 14  1  1  1  0  0 17  5  0 22
  2 23  3 16  9 20  5]"
13300,337.0,0.984375,6,2,71.88067173957825,5.127451419830322,8377,54224,406394,2471605,"[ 1  3  0  0  1  3  2  0  2  2  2  2  2  1  0  0  0  2  5  5  8  0  3  5
  2  1  2  2  6  8  0  3  0  5 10  1  0  9  5  3  8  3  3  9  7  5 14 18
  5 12 14  1 12  0  3  9 11  2 17  9  4  3 15  1  1  1  0 22 18  4 19 14
  0  1  3 16  9 20  5]"
13400,337.0,0.984375,6,2,72.36943030357361,4.887585639953613,8440,54624,409143,2488682,"[ 1  0  3  0  1  3  4  0  2  2  2  3  2  2  0  0  0  2  1  7  8  0  8  3
  2  1  2  4  6  0  0  3  0  5  2  1  0  9  5  3  0 10  4  4  3  4 12 18
  5 12 14  1  2  1  3 18 10  0 14  9  4 17 15  3  1 23  0 23 18  4 23 14
  4 22 22 16  9 20  5]"
13500,337.0,0.984375,6,2,72.87078285217285,5.013525485992432,8501,55024,411972,2506527,"[ 1  0  1  0  1  3  5  1  2  2  1  3  3  2  1  0  0  2  1  6  8  0  4  7
  2  1  2  3  4  0  0  3  0  5  3 13  0  9  5  1  0  1  4  4  8  1 12 18
  5 12 14  5 13 17  3 18 15  5  3 17  4  1 15  5 18  3  1  3 16  5 16 14
  1  2 22 16  9 20  5]"
13600,337.0,0.984375,6,2,73.35929822921753,4.885153770446777,8566,55424,414658,2523351,"[ 1  0  1  0  1  3  3  0  2  2  2  1  2  0  3  0  0  2  1  4  8  5  6  8
  2  1  2  4  8  1  0  3  0  5  4 13  0  9  5  3  8  9  4 11  7  4 12 17
  5 12 14  0 10 17  3 17 15  5  3 17  4 20 14  5 18 17  5 14  1  5 16 14
  1 16 20 16  9 20  5]"
13700,337.0,0.984375,6,2,73.8425931930542,4.832949638366699,8630,55824,417336,2540459,"[ 1  3  2  0  1  3  3  1  2  2  1  1  5  0  2  0  0  2  1  6  8  4  1  8
  2  1  2  2  8  1  0  3  0  2  1  9  0  9  5  5  0  9  0  2  7  0 12 13
  5 12 14  2  3 13  3  1 13  4 12  0  0 20  1  5 23 23  4  1  1  5 16 21
  5 17 16 16  9 20  5]"
13800,337.0,0.984375,6,2,74.34360766410828,5.0101447105407715,8695,56224,420090,2557636,"[ 2  3  0  0  1  3  4  2  2  1  0  3  2  2  2  0  0  2  1  0  8  3  1  6
  2  1  2  2  8  6  0  3  0  3  6  9  0  9  5  1  2 13  3 13  7  0 13 13
  5 12 14  4  3 14  3  1  9  4 10  1  3  2  3  4 19  3  4 19 21  2  2  0
  2 16  1 16  9 20  5]"
13900,337.0,0.984375,6,2,74.85189938545227,5.082917213439941,8759,56624,422886,2575225,"[ 0  0  1  0  1  3  1  0  1  4  2  2  4  2  1  0  0  2  4  0  8  0  6  3
  2  1  2  5  2  1  0  3  0  2  1  4  0  9  5  5  0  1  4 10  8  4 13  0
  5 12 14  1  3 13  3 18 10  4 17  0  2 15 14  4 22  3  1 16 20  5 23 16
  2 19  0 16  9 20  5]"
14000,337.0,0.984375,6,2,75.37286710739136,5.209677219390869,8827,57024,425819,2593304,"[ 1  0  1  0  1  3  4  1  1  0  2  2  5  2  1  0  0  2  4  2  8  5  1  8
  2  1  2  2  6  1  0  3  0  2 11  8  0  9  5  5  0  1  4  4  2  3  9  0
  5 12 14  1  3 14  3  3 10  4 14  0  0  1 14  1 22  3  4 16  0  2 18 16
  1 19 19 16  9 20  5]"
14100,337.0,0.984375,6,2,75.89350724220276,5.206401348114014,8890,57424,428837,2612162,"[ 1  0  2  0  1  3  4  1  0  0  0  0  0  0  3  0  0  2  4  4  3  5  5  2
  2  1  2  1  0  0  0  3  0  2 12  5  0  9  5  0 12  1  1  5  2  1  9 16
  5 12 14  2 10 13  0  3  9  1 17 10  0 15 21  5 22 17  3 17  1  4 15  3
  4 20 22 16  9 20  5]"
14200,337.0,0.984375,6,2,76.39073705673218,4.9722981452941895,8956,57824,431654,2629943,"[ 4  1  2  0  1  3  3  2  2  2  2  1  1  1  2  0  0  2  3  8  3  2  4  5
  2  1  2  1  3  7  0  3  0  1  1  7  0  9  5  1 12  1  2  2 10  4  2 14
  5 12 14  4 17 17  4 13 10  1 16 10  0 15 23  1  2 19  3 15  3  4 23  1
  3 20  1 16  9 20  5]"
14300,337.0,0.984375,6,2,76.86866450309753,4.7792744636535645,9019,58224,434328,2646546,"[ 0  1  2  0  1  3  2  0  3  2  2  0  5  1  2  0  0  2  4  2  3  1  1  3
  2  1  2  3  7  1  0  3  0  4  8 13  0  9  5  1  4  1  1  6  9  3 15 15
  5 12 14  4  9 17  0 14 14  3 13 16  0  1 23  5  2 23  3 22  2  4 17 23
  3  2  2 16  9 20  5]"
14400,337.0,0.984375,6,2,77.38413095474243,5.154664516448975,9082,58624,437278,2665169,"[ 5  2  1  0  1  3  3  1  1  1  1  1  3  2  3  0  0  2  5  7  8  0  7  8
  2  1  2  1  4  4  0  3  0  1  7  5  0  9  5  2 10  1  5  6  1  5 11  2
  5 12 14  5 11 17  0 11 11  3 18 12  3 21  3  5 18 22  4 23 16  4 16 16
  3 16  1 16  9 20  5]"
14500,337.0,0.984375,6,2,77.88962864875793,5.054976940155029,9148,59024,440091,2683291,"[ 2  2  1  0  1  3  3  1  3  0  3  2  3  1  0  0  0  2  3  1  8  0  1  8
  2  1  2  0  5  2  0  3  0  3  8 13  0  9  5  3 10  5  3  7  2  5  0  1
  5 12 14  4 12  2  0  2 11  4 12  2  1 15 22  3 15 19  5 21 18  2 16 18
  3 20 18 16  9 20  5]"
14600,337.0,0.984375,6,2,78.40483093261719,5.152022838592529,9202,59424,443086,2701774,"[ 2  1  2  0  1  3  3  0  1  1  3  1  3  2  0  0  0  2  2  7  2  2  7  1
  2  1  2  5  5  8  0  3  0  4  5  0  0  9  5  4  7  1  3  6  2  0 14 12
  5 12 14  2 12 16  1 10 11  4  1  2  4 16 23  5 15 23  5 23 22  5 20 18
  1 14  0 16  9 20  5]"
14700,337.0,0.984375,6,2,78.90806770324707,5.032367706298828,9258,59824,445932,2719521,"[ 4  0  3  0  1  3  3  0  2  3  1  1  0  2  2  0  0  2  0  7  4  2  2  1
  2  1  2  0  5  2  0  3  0  4  7 11  0  9  5  2  0  1  3  3  2  1  1 16
  5 12 14  3  9 10  1 10 14  2  2  0  4 18  2  3 22 21  3 23 14  2 20 16
  4 20 17 16  9 20  5]"
14800,337.0,0.984375,6,2,79.42609024047852,5.180225372314453,9309,60224,448879,2737661,"[ 3  0  1  0  1  3  2  0  0  2  2  0  1  3  2  0  0  2  0  2  2  2  0  0
  2  1  2  5  7  0  0  3  0  2  4  6  0  9  5  2 11  4  3  8  3  4  1 12
  5 12 14  0  3  3  4 10 15  4 16  0  1  3 15  1  1 18  4 18  0  2  1 17
  1 17 22 16  9 20  5]"
14900,337.0,0.984375,6,2,79.92735004425049,5.012598037719727,9366,60624,451707,2755256,"[ 3  3  2  0  1  3  2  3  0  3  1  3  2  3  3  0  0  2  3  1  5  1  6  7
  2  1  2  3  0  2  0  3  0  5  4  6  0  9  5  0  8  5  3  1  6  1  2 12
  5 12 14  4 13  1  3 14 12  2 11  0  3  3  2  0 16  1  5 16 14  3 18 20
  5  1 20 16  9 20  5]"
15000,337.0,0.984375,6,2,80.44040560722351,5.130555629730225,9426,61024,454550,2772901,"[ 2  3  2  0  1  3  2  2  0  5  1  1  5  1  3  0  0  2  3  0  5  1  6  7
  2  1  2  0  8  3  0  3  0  1 10  6  0  9  5  0  7 13  3  1  3  0 18 18
  5 12 14  0 10  1  3  0  0  5 11  1  0  3 20  0 18 18  4  0  1  3 23 14
  2 14 20 16  9 20  5]"
15100,337.0,0.984375,6,2,80.92780375480652,4.873981475830078,9496,61424,457295,2790026,"[ 2  1  1  0  1  3  2  2  0  5  1  1  5  1  3  0  0  2  1  1  5  0  4  0
  2  1  2  4  0  0  0  3  0  1 10 12  0  9  5  0  4  5  0  0  3  4  2  3
  5 12 14  0  1  1  4 18  0  0  9 11  0  3 22  0  2  0  4 17  3  3 14  0
  4 18 22 16  9 20  5]"
15200,337.0,0.984375,6,2,81.43608093261719,5.0827717781066895,9562,61824,460195,2808217,"[ 5  1  3  0  1  3  3  2  3  1  1  1  4  1  2  0  0  2  5  2  3  3  6  7
  2  1  2  4  3  3  0  3  0  1 10  7  0  9  5  2 11  8  5  0 13  2  2  3
  5 12 14  0 10  1  1  3  0  2 12  3  2 16 14  0 14 17  5 23  3  3  2 18
  3 22 22 16  9 20  5]"
15300,337.0,0.984375,6,2,81.93827152252197,5.021905899047852,9626,62224,462969,2825621,"[ 1  3  2  0  1  3  3  1  3  0  1  3  2  3  1  0  0  2  1  7  5  0  6  8
  2  1  2  3  1  6  0  3  0  5  9 13  0  9  5  2  0 12  1 10  2  2 13 10
  5 12 14  5 12  1  3  9 11  4 12  3  2 21 14  5 14 22  0 14  1  3 18  2
  0 22 17 16  9 20  5]"
15400,337.0,0.984375,6,2,82.4367344379425,4.984629154205322,9676,62624,465769,2842958,"[ 2  3  1  0  1  3  5  2  3  0  0  3  2  0  1  0  0  2  4  7  2  0  6  3
  2  1  8  3  4  2  0  3  0  3  9  2  0  9  5  2  1  2  2 10  6  2  3 10
  5 12 15  5 17 14  1 10 16  1 10  3  1 21 22  1 17 22  5 22  1  5 17 22
  0 15 17 16  9 21  5]"
15500,337.0,0.984375,6,2,82.94774651527405,5.11012077331543,9734,63024,468688,2861406,"[ 4  2  1  0  1  3  2  1  0  0  1  3  3  3  3  0  0  2  4  4  2  4  7  5
  2  4  6  5  8  5  0  3  0  3  3  6  0  9  5  2  1  2  4  1  6  0 13 12
  2  9 17  5 17 14  2 17  0  4  9 10  1 15 22  0 19 17  5 23 17  5 21 19
  1  3  0 16  9 21  5]"
15600,337.0,0.984375,6,2,83.43741798400879,4.896714687347412,9806,63424,471355,2878393,"[ 4  3  2  0  1  3  4  1  1  0  1  3  1  2  3  0  0  2  2  1  2  0  7  5
  2  3  6  4  0  5  0  3  0  2  7  6  0  9  5  2  1  2  4  1 11  0 13 14
  3  9 12  5 17 14  5 16 13  4  2 10  1 23  2  0 17 17  5 18 17  1  1 19
  1  3  0 16  9 21  5]"
15700,337.0,0.984375,6,2,83.94787287712097,5.104548931121826,9872,63824,474235,2896658,"[ 5  3  1  0  1  3  4  3  0  0  0  2  4  2  2  0  0  2  2  3  0  0  6  1
  4  5  6  4  6  3  0  3  0  2  7  4  0  9  5  2  1  2  1  6  7  3 16 14
  2  2  2  5 17 14  1 11  3  1 12  9  1 23 17  0  1  1  2  3 17  4 16 15
  3  3 20 16  9 21  5]"
15800,337.0,0.984375,6,2,84.47591614723206,5.28043270111084,9931,64224,477219,2915487,"[ 1  2  3  0  1  3  1  0  0  5  3  2  5  3  3  0  0  2  1  3  4  0  4  6
  4  5  7  3  4  5  0  3  0  4  4  8  0  9  5  2  1  2  1  6  8  3  3 17
  0 12  2  5 17 14  1 17 10  4  2  0  3 21 22  3 18 20  2  3 22  3 14 14
  5 16  0 16  9 21  5]"
15900,337.0,0.984375,6,2,84.97611784934998,5.002017021179199,9995,64624,479947,2932445,"[ 1  1  0  0  1  3  3  0  3  0  3  0  5  3  0  0  0  2  2  0  6  1  4  1
  0  3  6  5  6  2  0  3  0  1 10  8  0  9  5  2  1  2  0  6  8  1 12 14
  4 13  2  5 17 14  1 18 17  1 14 11  4 22 20  3 18  0  4  3  0  2 14  2
  0 16 20 16  9 21  5]"
16000,337.0,0.984375,6,2,85.47200083732605,4.958829879760742,10060,65024,482790,2950453,"[ 1  3  0  0  1  3  3  3  0  4  0  0  5  3  0  0  0  2  2  4  6  3  4  1
  0  3  7  1  6  3  0  3  0  1  6  9  0  9  5  2  1  2  0 12 13  1 16 11
  2  1 11  5 17 14  1 18 17  4  0  1  1  3 21  5  1  0  4 16 14  2 22 21
  5 16 19 16  9 21  5]"
16100,337.0,0.984375,6,2,85.9584367275238,4.864358901977539,10123,65424,485558,2967980,"[ 0  2  3  0  1  3  0  2  0  3  3  0  5  3  2  0  0  2  3  8  1  3  1  4
  3  1  7  5  4  5  0  3  0  1  9  0  0  9  5  2  1  2  5  5  4  1 11 11
  2  1  0  5 17 14  3  9 18  0 13 10  1  3 21  5 19 18  1  2 14  2 17 23
  5 16 19 16  9 21  5]"
16200,337.0,0.984375,6,2,86.43768000602722,4.79243278503418,10181,65824,488233,2984880,"[ 4  0  3  0  1  3  5  2  0  5  1  3  0  3  3  0  0  2  5  4  8  1  6  7
  2  3  7  2  3  5  0  3  0  4  4  0  0  9  5  2  1  2  5 10 12  1 12 11
  1 15 11  5 17 14  3 13 18  0 11 17  2  3  2  3 15  0  5 22  2  0 17 16
  5 20 19 16  9 21  5]"
16300,337.0,0.984375,6,2,86.93835115432739,5.006711483001709,10239,66224,491031,3002511,"[ 3  2  2  0  1  3  0  2  2  3  3  3  4  3  0  0  0  2  5  8  6  3  6  2
  2  5  4  2  3  2  0  3  0  3  0  9  0  9  5  2  1  2  2 10 10  4 15 15
  0 16 11  5 17 14  2 13 18  1 15 17  0 23 22  4 18 15  4 16 15  0 17  2
  2 15  0 16  9 21  5]"
16400,337.0,0.984375,6,2,87.43547487258911,4.9712371826171875,10310,66624,493766,3019936,"[ 3  2  0  0  1  3  1  1  0  3  0  3  3  3  0  0  0  2  3  5  4  3  6  2
  2  1  6  2  1  2  0  3  0  3  8  5  0  9  5  2  1  2  2 10  1  0 15 18
  1 17 11  5 13 14  4 13  3  1  9 17  0 15 22  4 18 15  4 18 20  0 22  0
  3 14  0 16  9 21  5]"
16500,337.0,0.984375,6,2,87.94541049003601,5.099356174468994,10363,67024,496706,3038415,"[ 5  2  0  0  1  3  3  0  2  0  0  3  3  3  0  0  0  2  2  4  4  0  6  2
  0  0  2  2  1  2  0  3  0  2  0  8  0  9  5  2  8 13  2 13  1  0  1  9
  0  3 13  5 13 14  4 15  3  5 14 15  5 15 17  1  0  1  5 16  1  0 14  1
  0 21 23 16  9 21  5]"
16600,337.0,0.984375,6,2,88.46428799629211,5.188775062561035,10423,67424,499673,3057016,"[ 5  3  3  0  1  3  1  0  1  5  2  1  4  1  0  0  0  2  4  0  0  3  8  0
  4  0  0  2  1  2  0  3  0  2  3  8  0  9  5  1  8  1  1 11  7  5  0 14
  2  3  1  5 13 14  4  3  9  0 17 15  0 18 22  1  2  0  0  3 22  0 21 22
  1  1 18 16  9 21  5]"
16700,337.0,0.984375,6,2,88.99490809440613,5.306200981140137,10490,67824,502526,3075016,"[ 5  2  0  0  1  3  3  0  1  0  1  0  4  3  2  0  0  2  2  8  4  3  3  8
  0  7  6  2  1  2  0  3  0  2  7  2  0  9  5  1 11  4  1  9  7  5 13  0
  3 15 14  5 13 14  5  0 17  5 11 17  0 18 20  1 22 19  0  3 14  4  2 16
  4 22 23 16  9 21  5]"
16800,337.0,0.984375,6,2,89.4864993095398,4.91591215133667,10553,68224,505289,3092315,"[ 5  1  2  0  1  3  3  0  1  2  2  1  0  3  2  0  0  2  4  1  4  1  1  6
  2  7  1  2  1  2  0  3  0  5 13  5  0  9  5  0  3  2  0 13  9  0  1  9
  3 15 14  5 13 14  1 11 13  5 17  0  5 18 15  3 23 17  0 15  3  3  2  0
  4 18 23 16  9 21  5]"
16900,337.0,0.984375,6,2,90.00154900550842,5.150496959686279,10612,68624,508261,3111134,"[ 1  1  0  0  1  3  5  1  1  0  2  1  0  3  0  0  0  2  3  3  6  1  4  8
  4  8  7  2  1  2  0  9  0  0 13  7  0  9  5  0  3 10  3  0  6  0  1 10
  0 15 11  5 13 14  1  9 17  3  1  9  1  0  1  0 19 19  0  0 23  0  3 14
  1 16  2 16  9 12  5]"
17000,337.0,0.984375,6,2,90.55770826339722,5.5615925788879395,10665,69024,511416,3130340,"[ 0  0  1  0  1  3  4  0  0  0  2  1  0  3  0  0  0  2  1  0  2  3  0  3
  4  8  7  2  5  8  1 13 10  5  6 12  0  9  5  4 10  0  5  0  2  4 17 12
  4 17 16  3 14 14  4  9 18  4 16 15  2 22 21  1 21 23  3  2 23  4 14 15
  4 15 16 16  9 12  5]"
17100,337.0,0.984375,6,2,91.11590719223022,5.581989288330078,10713,69424,514769,3150588,"[ 3  0  0  0  1  3  4  0  1  0  2  1  0  3  0  0  0  2  1  6  5  0  7  1
  4  8  7  0  3  0  5 10  8  1  1  2  0  9  5  4 10  7  3 10  7  4  2  9
  3 17 16  2  3  2  0 10  0  4  2  0  0 18 18  2 23 23  1 16 15  2  3 14
  4 22 23 16  9 12  5]"
17200,337.0,0.984375,6,2,91.65875935554504,5.428521633148193,10767,69824,517968,3169903,"[ 0  2  2  0  1  3  1  0  1  0  2  1  0  3  0  0  0  2  3  2  3  2  3  0
  4  8  7  0  3  3  5  4  8  4  4  3  0  9  5  0 12  7  1 10 11  3  2  2
  5 11  2  4 15 18  2  9  9  0  9  2  4 18 14  1  2 18  3 19 18  3 16  2
  0 20 18 16  9 12  5]"
17300,337.0,0.984375,6,2,92.18429899215698,5.255396366119385,10821,70224,521093,3188755,"[ 2  0  1  0  1  3  1  3  3  0  2  1  0  3  0  0  0  2  5  2  5  2  0  6
  4  8  7  4  6  8  5  5  3  2  4  5  0  9  5  2  1  1  2  1  2  3 18 15
  5 16  2  4 16  3  4 14  9  4 15  2  2  1  1  4 17 20  3 20 19  3 16  2
  0 20 22 16  9 12  5]"
17400,337.0,0.984375,6,2,92.69156432151794,5.072653293609619,10878,70624,524047,3206547,"[ 1  0  1  0  1  3  1  1  3  0  2  1  0  3  0  0  0  2  5  7  2  5  2  2
  4  8  7  5  8  6  5 11  6  3  2  7  0  9  5  1  4 11  1 12 12  0 12  9
  2 18 13  5  9 12  5 12 12  3  0 18  1  3 14  3 21 20  2  2 19  0 16 20
  1 20 18 16  9 12  5]"
17500,337.0,0.984375,6,2,93.18266534805298,4.911010265350342,10937,71024,526951,3224048,"[ 0  2  1  0  1  3  2  2  0  0  2  1  0  3  0  0  0  2  0  8  2  1  0  3
  4  8  7  5  2  3  2  7  8  3 10  7  0  9  5  4  9 13  1  2 12  0 13 15
  1  2 12  2  9 16  5 16 12  3  0  1  5 17 16  4 21  0  4  2 15  5  0 23
  0  0 14 16  9 12  5]"
17600,337.0,0.984375,6,2,93.71898603439331,5.36320686340332,10990,71424,530154,3243207,"[ 0  3  0  0  1  3  1  3  3  0  2  1  0  1  0  0  0  2  3  3  8  1  3  1
  4  4  7  3  0  6  0  5  1  0 13  7  0  9  5  1  3  7  2  1  7  3 13 16
  3 13  9  1 14 17  5 17 12  2 14  1  5  0  1  4 14  0  1 14 18  0 22 23
  2  1 14 16  9 12  5]"
17700,337.0,0.984375,6,2,94.24190711975098,5.22921085357666,11044,71824,533242,3261891,"[ 0  3  0  0  1  3  1  1  3  0  2  1  4  1  0  0  0  2  3  3  3  3  4  1
  4  4  7  1  8  5  3  7  8  0 13  7  0  9  5  0  3  7  5  1  9  1 11 16
  1 13 12  5 13 17  0 17 16  2 17 10  0 22 23  5 21 15  4 15 18  4  2  3
  5 21 14 16  9 12  5]"
17800,337.0,0.984375,6,2,94.77473545074463,5.328283309936523,11092,72224,536440,3281221,"[ 0  3  0  0  1  3  1  1  2  0  2  1  4  0  2  0  0  2  3  3  8  1  4  1
  4  4  7  4  1  0  4  4  4  2  9  3  0  9  5  1  3  9  1  4  7  1 15  1
  0 17  0  3 16 13  5 17  3  1  1 10  1 22 23  5 21 20  1 20 17  3  2  0
  2 21 19 16  9 12  5]"
17900,337.0,0.984375,6,2,95.26974296569824,4.950075149536133,11159,72624,539369,3298884,"[ 0  3  0  0  1  3  5  1  0  0  2  1  4  3  2  0  0  2  2  7  0  2  0  4
  4  4  7  5  4  0  0  0  4  5  1  8  0  9  5  4  9  8  3  9  8  3 18 18
  2 17  0  0  1  9  5 15 12  1 10 13  0 23 23  1 17 17  5  3 18  3 18  2
  2 21 19 16  9 12  5]"
18000,337.0,0.984375,6,2,95.76688814163208,4.971451759338379,11218,73024,542312,3316668,"[ 0  3  0  0  1  3  5  3  3  0  2  1  4  0  2  0  0  2  2  7  5  5  4  2
  4  4  7  0  7  2  0  2 12  0  6  5  0  9  5  4  1 10  1  1  7  3 18 16
  1 14  0  1 18 11  4 14 17  4 10 13  4 21 22  1 20 16  0  3 18  4 18 23
  5 16 19 16  9 12  5]"
18100,337.0,0.984375,6,2,96.27479648590088,5.079083442687988,11266,73424,545343,3334879,"[ 0  3  0  0  1  3  5  3  1  0  2  1  3  2  2  0  0  2  2  0  5  2  7  1
  4  4  7  2  3  4  3  9  1  0  1  9  0  9  5  5  4  7  0 10  8  2  3 18
  2 15 14  1 11  2  4 11  9  0 17 17  4 21 18  1 16 16  3  0 15  4  1 17
  1  3 19 16  9 12  5]"
18200,337.0,0.984375,6,2,96.81094813346863,5.36151647567749,11322,73824,548555,3354246,"[ 0  3  0  0  1  3  2  1  0  0  2  1  0  1  3  0  0  2  2  5  1  2  0  4
  4  4  7  2  8  1  1  5  1  2  0 12  0  9  5  0 10  3  5  4 12  2 14 11
  3 16 13  5  9 10  4 11 16  4 17 15  3 19 20  0 22 19  2  0 15  3  2 17
  5 16 21 16  9 12  5]"
18300,337.0,0.984375,6,2,97.32736921310425,5.164210796356201,11383,74224,551610,3372704,"[ 0  3  0  0  1  3  2  1  0  0  2  1  5  2  1  0  0  2  4  7  1  4  6  8
  4  4  7  2  8  8  0  6  1  2  9 12  0  9  5  0  6  9  1  7 13  5 15 18
  3 17  9  3  9  1  4 14 16  4 16 12  3  3 23  0 18 21  5 18  3  1  3 16
  4  1 14 16  9 12  5]"
18400,337.0,0.984375,6,2,97.8404893875122,5.13120174407959,11432,74624,554678,3391184,"[ 0  3  0  0  1  3  0  1  3  0  2  1  4  0  1  0  0  2  2  5  4  4  0  1
  4  4  7  0  8  0  5  5 12  2  6 12  0  9  5  3  2  1  1  9 10  5  2 18
  1 10  0  5 17 11  3 15 12  4 16 12  0 19 15  0 23 22  5 22  1  0 17 23
  2 18 18 16  9 12  5]"
18500,337.0,0.984375,6,2,98.39934039115906,5.588510036468506,11487,75024,557958,3411080,"[ 0  3  0  0  1  3  0  1  2  0  2  1  1  2  2  0  0  2  3  5  4  1  0  4
  4  4  7  0  7  3  4  4  4  4 13  6  0  9  5  1  3  6  3  5  1  2 10 17
  5 18 15  2 18 12  4  9 18  4 13  9  0 23 23  2 23 15  2 14 15  0 22 14
  5  3  3 16  9 12  5]"
18600,337.0,0.984375,6,2,98.92291736602783,5.235769748687744,11554,75424,561023,3429750,"[ 0  3  0  0  1  3  0  0  2  0  2  1  3  2  0  0  0  2  3  6  4  1  0  4
  4  4  7  4  2  0  0 13  4  4 13  6  0  9  5  5  2  6  3  8  4  1  3 17
  3 18 15  0 17 12  4  9  0  5 13  3  0 23  1  2 23 18  3 14 18  0  0 18
  0 19  1 16  9 12  5]"
18700,337.0,0.984375,6,2,99.43303084373474,5.101134777069092,11610,75824,564011,3447835,"[ 0  3  0  0  1  3  1  1  0  0  2  1  1  3  1  0  0  2  3  7  7  4  7  5
  4  4  7  3  2  7  3 12  1  3 11  3  0  9  5  4  2  1  3  1 11  1  3  0
  0 14 16  0  3 12  1 10  3  2 18 17  0 15 17  4 23  2  3 19 18  0 21 18
  0 20  2 16  9 12  5]"
18800,337.0,0.984375,6,2,99.968905210495,5.358743667602539,11661,76224,567201,3467035,"[ 0  3  0  0  1  3  0  0  2  0  2  1  5  3  3  0  0  2  3  6  1  1  3  5
  4  4  7  4  1  4  4 11  0  5  8  9  0  9  5  5 13  6  3  3  7  0  9 11
  3  3 17  2  3  3  3 10  2  5  1 10  2 22 15  3  0 23  2 19 23  0  2  0
  5 22  2 16  9 12  5]"
18900,337.0,0.984375,6,2,100.50075197219849,5.318467617034912,11709,76624,570420,3486416,"[ 0  3  0  0  1  3  0  0  2  0  2  1  5  1  0  0  0  2  3  6  5  0  8  6
  4  4  7  2  2  6  5  4  5  2 10 10  0  9  5  2  4  4  1  7  0  4  9  2
  1  3  2  3 16  2  1  3  1  5  1 10  5  0 15  0  0 23  2 20  3  4 21  0
  5  2  2 16  9 12  5]"
19000,337.0,0.984375,6,2,101.03954529762268,5.387933254241943,11764,77024,573588,3505629,"[ 0  3  0  0  1  3  5  3  3  0  2  1  3  0  0  0  0  2  1  6  6  2  7  2
  4  4  7  5  8  8  2  8 13  4  9 10  0  9  5  2  6  4  1  5 12  3  2 15
  2  3  2  4  1 12  1  3 10  3  2  1  3 22  0  4 23 15  0  3  2  3 23 20
  5 14 23 16  9 12  5]"
19100,337.0,0.984375,6,2,101.580162525177,5.406172275543213,11809,77424,576875,3525475,"[ 0  3  0  0  1  3  5  0  2  0  2  1  0  1  0  0  0  2  4  8  1  5  7  8
  4  4  7  0  7  8  4 13  2  0  3  8  0  9  5  0  4 12  4  9 12  0 15 10
  3 12 16  5 18 17  0 13 18  5 14  2  4  1 17  5 17 18  3 22  1  3 22  0
  4 16  1 16  9 12  5]"
19200,337.0,0.984375,6,2,102.11139106750488,5.312285423278809,11862,77824,580030,3544558,"[ 0  3  0  0  1  3  1  1  1  0  2  1  4  1  3  0  0  2  4  2  4  2  5  8
  4  4  7  1  0  6  4 13  0  0  3 13  0  9  5  5 10  4  0  0  5  3 11  9
  5 16 13  5 13 10  3 10 14  4 14 11  0 14  1  4 16  1  2 22 23  1 23 15
  3  1  0 16  9 12  5]"
19300,337.0,0.984375,6,2,102.64272499084473,5.3133392333984375,11916,78224,583239,3563885,"[ 0  3  0  0  1  3  0  1  3  0  2  1  4  0  2  0  0  2  0  1  4  2  5  5
  4  4  7  2  5  4  4  2  5  1  6  3  0  9  5  2  8  7  4 11 13  3 11  9
  4 18  9  5  9 12  3  3 10  4 11 15  0 18 22  4 15  2  0 22 20  1  1 18
  1 15  3 16  9 12  5]"
19400,337.0,0.984375,6,2,103.18940496444702,5.466799736022949,11970,78624,586471,3583734,"[ 0  3  0  0  1  3  0  3  2  0  2  1  0  1  3  0  0  2  0  5  8  1  5  8
  4  4  7  2  5  5  5  5 10  5 13  3  0  9  5  0  9 10  4  4  9  2 15  9
  1 11 15  0 11  2  0  3 14  3 10 15  1 14  2  1 22  0  5  0 20  2 18 21
  0 20 20 16  9 12  5]"
19500,337.0,0.984375,6,2,103.74018979072571,5.507848262786865,12028,79024,589701,3603415,"[ 1  3  0  0  1  3  0  3  0  0  2  1  2  0  3  0  0  2  5  5  5  4  2  8
  4  4  0  0  5  4  2  3  5  3  2  2  0  9  5  1 10 12  4  6  7  4 15 11
  5 11  1  4 17 15  5 16 17  1 14 15  1 14  0  1 22  3  4 19  1  2 18 21
  1 20 17 16  9 18  5]"
19600,337.0,0.984375,6,2,104.25490403175354,5.14714241027832,12082,79424,592812,3622150,"[ 1  0  2  0  1  3  0  3  0  0  2  1  1  1  1  0  0  2  1  0  0  2  5  8
  0  0  0  3  7  7  2  0 12  2  2 12  0  9  5  4  2 12  4  6  7  1  1  1
  4  1 13  5 15 14  1 17 13  1  2 14  2  1 19  3 17 15  0 17 17  2  0  3
  0 14 20 16  9 18  5]"
19700,337.0,0.984375,6,2,104.77591180801392,5.21007776260376,12132,79824,595898,3640727,"[ 0  0  3  0  1  3  0  1  0  0  2  1  0  0  3  0  0  2  3  6  1  3  5  1
  0  4  0  1  4  4  2  5 10  5  2  7  0  9  5  0  6  0  4  4  7  5 18  9
  1 11 13  4 10 14  0  1 18  1 10  3  2 22  0  5 23 15  0 17 23  2 18  3
  5 20 20 16  9 18  5]"
19800,337.0,0.984375,6,2,105.31587481498718,5.399630069732666,12187,80224,599107,3660313,"[ 0  0  3  0  1  3  5  2  0  0  2  1  2  1  2  0  0  2  5  4  3  4  7  8
  5  4  1  3  1  4  1  1 10  2  8  9  0  9  5  4  4  7  4  4  7  3 10 10
  5 11 16  5  1 14  1 11  1  3 13  2  4 22  0  1 14  2  4 23 22  1 16 20
  4 14 21 16  9 18  5]"
19900,337.0,0.984375,6,2,105.90436315536499,5.884883403778076,12234,80624,602420,3680491,"[ 0  0  3  0  1  3  3  0  3  0  2  1  0  0  0  0  0  2  0  4  8  4  5  6
  2  4  8  1  4  4  4 12 12  1  2  6  0  9  5  2  8  4  4  4  7  3 12 10
  1 13 18  1  2 13  5 18 11  0 13 11  1 22 17  0 19 18  0 17 17  4 16 19
  4 14 17 16  9 18  5]"
20000,337.0,0.984375,6,2,106.4564197063446,5.520565509796143,12290,81024,605696,3700674,"[ 0  0  3  0  1  3  0  2  3  0  2  1  2  1  3  0  0  2  0  2  4  4  7  6
  1  4  3  2  4  4  5  1  3  0  3 11  0  9  5  0  8  6  4  4  7  5  0 17
  0  2  1  2 10  0  4  9 15  0  9 10  4  3  0  2 19  3  5  1  0  3  2 17
  4 19 15 16  9 18  5]"
20100,337.0,0.984375,6,2,106.9881021976471,5.316824913024902,12344,81424,608827,3719562,"[ 0  0  3  0  1  3  4  2  0  0  2  1  4  1  3  0  0  2  3  2  4  1  1  6
  3  0  3  2  5  3  0 12  4  0  0  3  0  9  5  0  8 10  4  4  7  5 10  1
  0  2 13  0 12 18  2 14 15  5 16  2  3  3 22  3 14  0  2 22 18  0 15 21
  5 15 14 16  9 18  5]"
20200,337.0,0.984375,6,2,107.50853180885315,5.204296112060547,12402,81824,611952,3738484,"[ 0  0  3  0  1  3  5  3  3  0  2  1  0  1  3  0  0  2  4  8  3  1  7  2
  3  7  6  5  1  3  4 12  4  2  2  1  0  9  5  4 13 10  4  4  7  2 10 16
  1  3 16  0 18 18  1 14  3  5 17 11  1 23 22  3 22 23  2  0 22  1  2 18
  0  1 15 16  9 18  5]"
20300,337.0,0.984375,6,2,108.06831479072571,5.597829818725586,12448,82224,615280,3758883,"[ 0  0  3  0  1  3  5  3  1  0  2  1  4  2  2  0  0  2  2  8  2  2  4  6
  0  2  0  5  1  0  3 10  2  3 10  1  0  9  5  5  4 12  4  4  7  5 16 16
  3 12 10  2 15 18  1  2 12  0  1 18  3 15  2  3 21 14  1 15  1  1  2  0
  4  1 16 16  9 18  5]"
20400,337.0,0.984375,6,2,108.60488033294678,5.365655422210693,12503,82624,618413,3778087,"[ 0  0  3  0  1  3  3  1  3  0  2  1  2  2  2  0  0  2  3  4  0  0  4  2
  3  2  1  0  0  1  0  5  0  1  7  8  0  9  5  1  6 12  4  4  7  1 13 11
  1 17 10  2 16 12  5  0 12  2  2 10  4  0  2  1 21 21  1 23  3  0 23 16
  3 15 19 16  9 18  5]"
20500,337.0,0.984375,6,2,109.1313169002533,5.2643656730651855,12552,83024,621513,3796825,"[ 0  0  3  0  1  3  0  2  1  0  2  1  3  2  2  0  0  2  3  1  0  4  2  2
  1  5  3  4  5  4  4  9  0  2  8 10  0  9  5  2  6  0  4  4  7  2  3 17
  5 11 13  0  0 14  1 10  0  4  2 14  0  3 23  0 17 20  2  1  2  5  3 17
  5 15 18 16  9 18  5]"
20600,337.0,0.984375,6,2,109.81709551811218,6.857786178588867,12615,83424,624629,3815696,"[ 0  0  3  0  1  3  0  2  1  1  3  2  1  0  2  0  0  2  0  1  8  4  2  7
  1  1  6  4  5  4  5  3  0  1  4  6  0  9  5  2  5  0  4  4  6  2  2 15
  1 15 13  0  0 18  1 12  0  4  2 15  2 23  0  0  2 20  2  1 22  5 17  2
  5 15 19 16  9 18  5]"
20700,337.0,0.984375,6,2,110.40498757362366,5.878920555114746,12662,83824,627728,3834500,"[ 0  0  3  0  1  3  0  2  1  1  0  1  0  2  3  0  0  2  0  5  0  0  2  1
  1  6  6  3  2  4  5  0  7  3  7 12  0  9  5  3  4  8  4  4 11  5 17 15
  3 11 13  5 15 16  1  9  0  3  9 10  5 19 21  2 23 16  4 18 15  3 17 16
  0 16 15 16  9 18  5]"
20800,337.0,0.984375,6,2,110.953852891922,5.488653182983398,12716,84224,631005,3854593,"[ 0  0  3  0  1  3  0  1  1  0  0  3  0  2  2  0  0  2  0  2  4  0  2  1
  1  6  3  0  1  3  3  7 13  3  8  6  0  9  5  1  4  4  4  4 11  0  3 13
  3 18 14  2 13 16  2  1  0  1  9  0  1 20  3  2  0  3  3  3 19  2 22 22
  0 19 14 16  9 18  5]"
20900,337.0,0.984375,6,2,111.46639013290405,5.125372409820557,12774,84624,634004,3872799,"[ 0  0  3  0  1  3  1  2  1  5  3  3  0  2  2  0  0  2  1  8  4  0  2  1
  5  6  3  5  8  6  5 12  2  3 12  9  0  9  5  1  4  4  4  4 11  4  1 13
  3 13  2  2 18  0  2  1 17  0 11 16  1 19  3  4 16 21  0 15 17  2 22 16
  2  0 14 16  9 18  5]"
21000,337.0,0.984375,6,2,111.96604037284851,4.99650239944458,12836,85024,636853,3890499,"[ 0  0  3  0  1  3  1  2  1  4  1  1  5  3  2  0  0  2  0  2  2  0  2  1
  5  6  7  5  0  6  5 10  3  3 12 12  0  9  5  5  4 11  4  4 11  5 18 15
  5  1 18  3 18  0  4 13 17  0  0 18  2  1 22  4 16 18  3 17 17  5 20 16
  2  0 16 16  9 18  5]"
21100,337.0,0.984375,6,2,112.47177910804749,5.057387351989746,12898,85424,639756,3908211,"[ 0  0  3  0  1  3  5  0  1  5  0  1  5  3  0  0  0  2  2  8  3  0  2  1
  3  7  8  5  0  2  0  5 13  4 12  9  0  9  5  5  4 11  4  4 11  4  3 18
  5 12  1  3 18  0  3  3  9  0 11 18  2  1 14  3  2  2  3 19 15  1  2  2
  3 16 16 16  9 18  5]"
21200,337.0,0.984375,6,2,113.01622700691223,5.444478988647461,12951,85824,642921,3927548,"[ 0  0  3  0  1  3  5  1  1  5  2  3  3  1  0  0  0  2  5  4  1  0  2  1
  0  2  0  5  3  1  2  9 13  0 12  9  0  9  5  5  6  8  4  4 11  4 15 15
  5 17 10  3 12  1  2 16  3  2  1  2  2 19 17  2 14  1  2 19  2  2  3 15
  1 16 19 16  9 18  5]"
21300,337.0,0.984375,6,2,113.57247304916382,5.562460422515869,13010,86224,646147,3947284,"[ 0  0  3  0  1  3  3  2  1  2  1  1  5  2  1  0  0  2  3  4  7  0  2  1
  1  5  5  0  4  1  2  8 13  3  4  1  0  9  5  3  7  6  4  4 11  3 11 11
  0 17 10  2 12  1  2  2  3  2 12 10  2 17 23  3 16 22  1 19  2  0 21 17
  5  2  3 16  9 18  5]"
21400,337.0,0.984375,6,2,114.12273073196411,5.50257682800293,13068,86624,649376,3967129,"[ 0  0  3  0  1  3  1  0  0  2  1  0  5  2  2  0  0  2  3  4  3  0  2  1
  4  0  7  0  4  6  4  7  5  1  2  2  0  9  5  3  6 11  4  4 11  1 12  0
  3 16  1  3 16 12  4  0 14  2 15 10  0 14 17  3 22 18  3  3 21  3  2  1
  3 15  3 16  9 18  5]"
21500,337.0,0.984375,6,2,114.64281010627747,5.200793743133545,13123,87024,652366,3985598,"[ 0  0  3  0  1  3  3  2  0  5  1  0  2  0  2  0  0  2  5  8  4  0  2  1
  2  3  5  3  6  5  4  0  0  3  2  8  0  9  5  2  6  8  4  4 11  3 11 17
  1 14 10  4 14 11  3 17 11  1 11 10  1 17 16  1  2  0  2 23 22  5  0  3
  5 20  2 16  9 18  5]"
21600,337.0,0.984375,6,2,115.171635389328,5.288252830505371,13179,87424,655483,4004670,"[ 0  0  3  0  1  3  3  3  2  4  2  3  4  2  2  0  0  2  5  3  7  0  2  1
  0  6  5  1  2  7  3 11  8  0  3  9  0  9  5  5  4 10  4  4 11  2 11 14
  0  0 10  1 15 14  3 16 11  0 17  9  1 15 16  1 16 19  4 23 23  4 20 16
  2 21  1 16  9 18  5]"
21700,337.0,0.984375,6,2,115.67033338546753,4.986979961395264,13237,87824,658327,4022081,"[ 0  0  3  0  1  3  4  3  2  0  2  2  1  1  2  0  0  2  4  0  8  0  2  1
  2  6  4  5  3  1  3  1 13  0 10  9  0  9  5  0  4  4  4  4 11  1 11 13
  0  0 10  5  2  0  2 16 18  0 18 18  1 17  1  2 14 22  4 19 23  4  3 22
  4 21 14 16  9 18  5]"
21800,337.0,0.984375,6,2,116.19910192489624,5.287685394287109,13288,88224,661502,4041422,"[ 0  0  3  0  1  3  0  0  1  0  2  1  0  0  3  0  0  2  0  0  7  4  0  0
  0  1  5  4  0  8  1 13  0  0 11  9  0  9  5  0  4  4  4  4  7  3 11 13
  3 10  2  5 15 16  4  0 15  0 15 16  3 18  1  4 21 22  0 19 23  3  3 20
  2 21  3 16  9 18  5]"
21900,337.0,0.984375,6,2,116.72095680236816,5.218548774719238,13337,88624,664623,4060265,"[ 0  0  3  0  1  3  4  0  0  0  2  1  1  2  1  0  0  2  5  6  0  3  0  3
  5  0  5  5  0  3  5  1  3  0  1  5  0  9  5  3  3 12  4  4  7  1 17  2
  0  3  2  2 17  9  0  9 13  3 10  1  0 15 23  2  2  1  3 16 14  1 16  2
  0 22 20 16  9 18  5]"
22000,337.0,0.984375,6,2,117.24344086647034,5.2248406410217285,13396,89024,667691,4079058,"[ 0  0  3  0  1  3  2  3  0  0  2  1  4  3  3  0  0  2  3  0  1  5  1  7
  4  1  5  3  0  6  4 10  6  0  5 11  0  9  5  5 10  9  4  4  7  3  1 12
  3  3 12  4 18  9  3  9 14  1 15  1  1 18  2  0 14 15  3 16 22  2 16 19
  0 22 15 16  9 18  5]"
22100,337.0,0.984375,6,2,117.78854322433472,5.451023578643799,13453,89424,670907,4098549,"[ 0  0  3  0  1  3  0  0  1  0  2  1  5  2  3  0  0  2  4  3  2  1  3  5
  0  4  1  0  8  7  4  3  2  1  5  1  0  9  5  5  1 13  4  4  7  1 14 13
  4 10 16  3 18 15  5  9 13  4 15  3  2 14 20  0 22 18  3 15 17  5 21  1
  1 16  3 16  9 18  5]"
22200,337.0,0.984375,6,2,118.34270000457764,5.541567802429199,13504,89824,674159,4118076,"[ 0  0  3  0  1  3  2  2  1  0  2  1  3  1  2  0  0  2  4  3  0  4  1  5
  0  7  3  4  0  2  3  5  1  5 12 13  0  9  5  5 11 13  4  4  7  3 13 13
  3  2 16  1  3  2  0  1  9  1 15  2  4  1 17  1 16 18  3 16 22  2 19 14
  1 23 23 16  9 18  5]"
22300,337.0,0.984375,6,2,118.87202787399292,5.293278694152832,13560,90224,677129,4136036,"[ 0  0  3  0  1  3  3  3  1  0  2  1  2  3  1  0  0  2  4  1  0  4  1  4
  0  7  2  4  0  8  2  5  2  5  1  8  0  9  5  5  2  1  4  4  7  3 12 14
  1  3  2  1  3  3  0  1 13  1 15 16  3  1 20  1 19 18  5 16 22  2 21 14
  1 23 22 16  9 18  5]"
22400,337.0,0.984375,6,2,119.3904242515564,5.183963775634766,13620,90624,680183,4154634,"[ 0  0  3  0  1  3  4  3  1  0  2  1  2  1  0  0  0  2  4  6  8  0  2  4
  5  8  2  4  2  5  2  6  2  4  3  0  0  9  5  1  2  0  4  4  7  0 13 13
  0  0  3  3  9 11  0  2 18  3 16 11  2  1 18  1 20 18  2  0 16  0 17  3
  1 22  2 16  9 18  5]"
22500,337.0,0.984375,6,2,119.92288994789124,5.324656963348389,13668,91024,683233,4173182,"[ 0  0  3  0  1  3  5  3  1  0  2  1  2  0  0  0  0  2  4  3  8  5  2  8
  2  5  3  0  0  4  2  2 11  4 12  1  0  9  5  0  8  1  4  4  7  1 10  3
  4 12  3  2 12 11  1  2 18  0  2  0  3 20 19  1 20 17  1 18 19  5 19 17
  2 17 21 16  9 18  5]"
22600,337.0,0.984375,6,2,120.45961356163025,5.367236137390137,13724,91424,686305,4191797,"[ 0  0  3  0  1  3  3  1  3  0  2  1  2  2  0  0  0  2  1  2  6  2  2  2
  0  6  6  0  0  3  5  5  2  3  6  8  0  9  5  3  7  0  4  4  7  5 10  3
  0 15  3  1  0 11  1 16 18  4 10  0  2 18 20  1  1 22  1  3 19  0 16 17
  2 21 21 16  9 18  5]"
22700,337.0,0.984375,6,2,120.99900364875793,5.3939008712768555,13776,91824,689454,4210829,"[ 0  0  3  0  1  3  5  1  0  0  2  1  1  2  1  0  0  2  0  4  0  0  4  7
  4  0  6  5  7  7  5  5  7  3  6  2  0  9  5  4  5  6  4  4  7  1  0  3
  0 17  3  0  0 11  1 12 15  4 18  3  3  0  0  0 21  2  1  2 17  0 22  0
  2 21 16 16  9 18  5]"
22800,337.0,0.984375,6,2,121.52084374427795,5.218400955200195,13830,92224,692543,4229718,"[ 0  0  3  0  1  3  5  3  0  0  2  1  2  3  1  0  0  2  4  7  5  1  1  1
  3  7  5  3  3  1  1  5  0  3 13  8  0  9  5  2  9  1  4  4  7  2 18  9
  4  0  1  3  9  2  4 13  3  5  0  3  5 17 19  3 17 19  3 23 17  0  1 15
  5 15 16 16  9 18  5]"
22900,337.0,0.984375,6,2,122.03833532333374,5.174915790557861,13893,92624,695659,4248471,"[ 0  0  3  0  1  3  3  0  1  0  2  1  1  3  2  0  0  2  1  6  7  0  0  3
  2  7  2  3  5  1  0  5  0  5 10  8  0  9  5  0  1  7  4  4  7  0 15  2
  2 15 13  3  9 14  3 15 12  1 16  9  5 19 19  5 17 23  1 20 19  1  1 23
  1 23  2 16  9 18  5]"
23000,337.0,0.984375,6,2,122.56652426719666,5.28188943862915,13945,93024,698716,4267169,"[ 0  0  3  0  1  3  1  1  3  0  2  1  5  2  1  0  0  2  4  5  5  4  2  2
  1  1  4  2  5  2  0  8 12  3  8  5  0  9  5  0 13  6  4  4  7  0 15  2
  3 13  9  2 18 14  1 10  0  5 17 16  1 22 22  3  0  1  1 14 18  3  1 23
  1  3  1 16  9 18  5]"
23100,337.0,0.984375,6,2,123.10198950767517,5.354652404785156,14005,93424,701800,4286071,"[ 0  0  3  0  1  3  2  2  3  0  2  1  0  3  1  0  0  2  2  2  2  2  2  6
  1  7  8  0  5  0  5  2 12  0  1  0  0  9  5  2  9  6  4  4  7  4 15 15
  2  2  9  5  3 17  0 10  0  5 17 11  1 20 17  3 15 17  0 20 19  0  3 18
  3  2  1 16  9 18  5]"
23200,337.0,0.984375,6,2,123.59399175643921,4.920022487640381,14064,93824,704699,4303705,"[ 0  0  3  0  1  3  5  0  3  0  2  1  1  2  1  0  0  2  4  8  0  2  6  8
  5  1  5  4  5  1  5  6  5  3 11 13  0  9  5  5 12  1  4  4  7  3 16 17
  1  2 17  5  9 11  5  3 11  1 15 11  1 20  1  0 22 17  0 20  0  2 16 15
  3  1  1 16  9 18  5]"
23300,337.0,0.984375,6,2,124.12125611305237,5.272643566131592,14119,94224,707779,4322388,"[ 0  0  3  0  1  3  1  3  3  0  2  1  1  2  3  0  0  2  0  1  1  5  1  4
  0  1  3  3  3  5  5  7 13  3  6 13  0  9  5  1 12  1  4  4  7  1 15  1
  5  1  3  1  0 12  4 18  0  1 14  0  2 20 21  4 19 19  1 19 19  4  1  2
  1  1  1 16  9 18  5]"
23400,337.0,0.984375,6,2,124.64487862586975,5.236225128173828,14182,94624,710802,4340812,"[ 0  0  3  0  1  3  5  1  0  0  2  1  2  2  3  0  0  2  2  7  1  3  3  3
  3  1  6  5  6  5  2 13 12  3  2  3  0  9  5  3 13 11  4  4  7  3  9  9
  4  1 12  3 15 12  3  0 12  0  3 11  4 23 21  0 23 14  3  2 23  1 19 15
  4 21 23 16  9 18  5]"
23500,337.0,0.984375,6,2,125.18199157714844,5.371129512786865,14239,95024,713944,4359886,"[ 0  0  3  0  1  3  1  2  2  0  2  1  2  2  3  0  0  2  2  4  2  3  2  6
  3  1  4  4  4  6  0  3  0  0 11 11  0  9  5  5 13 13  4  4  7  2  9  1
  1 12 16  1 17  0  4  3 16  1 13  9  3 20 16  0  3 15  2 14 23  2  0 18
  3  0  3 16  9 18  5]"
23600,337.0,0.984375,6,2,125.70337247848511,5.213809013366699,14293,95424,717018,4378505,"[ 0  0  3  0  1  3  2  2  2  0  2  1  1  0  2  0  0  2  2  3  3  5  6  2
  3  0  1  3  5  8  0  3  5  0  0 12  0  9  5  3  4  0  4  4  7  4  2 11
  1 18 10  2 17 15  4  3  1  5 15  9  4  1 15  2 22 18  5  0 15  4  1 17
  0 16 19 16  9 18  5]"
23700,337.0,0.984375,6,2,126.22697949409485,5.236070156097412,14346,95824,720191,4397637,"[ 0  0  3  0  1  3  4  2  1  0  2  1  4  0  1  0  0  2  3  1  3  0  5  7
  5  1  0  2  4  2  3 13 10  1 10 12  0  9  5  2 13  6  4  4  7  1  3 11
  5 16 10  5 13 10  1  3 18  5 10 10  3 17 14  1 22 17  2 17  3  2  1 17
  5 17 20 16  9 18  5]"
23800,337.0,0.984375,6,2,126.74784517288208,5.2086567878723145,14400,96224,723231,4416013,"[ 0  0  3  0  1  3  2  3  2  0  2  1  4  0  1  0  0  2  4  1  0  5  1  7
  3  5  1  1  2  7  3  7  5  0  2 12  0  9  5  5  4  8  4  4  7  4 18 15
  5  2 13  2 17 17  1  1 10  1 16 18  5 17 16  2 21 17  4  0 17  3 21 23
  1 15  2 16  9 18  5]"
23900,337.0,0.984375,6,2,127.26317048072815,5.153253078460693,14459,96624,726277,4434389,"[ 0  0  3  0  1  3  4  2  2  0  2  1  4  0  0  0  0  2  4  1  4  5  1  2
  5  6  3  5  1  7  0 10  9  3  2 11  0  9  5  5  6  8  4  4  7  5  2  3
  0 14  0  5 17 13  3 13  1  2 16  3  0  0  2  0  0  0  4  1 18  2 14  3
  3 19 20 16  9 18  5]"
24000,337.0,0.984375,6,2,127.80939078330994,5.462203025817871,14512,97024,729484,4453698,"[ 0  0  3  0  1  3  1  1  3  0  2  1  5  1  3  0  0  2  0  6  0  1  1  5
  2  5  1  2  5  7  2 10 12  0 12  7  0  9  5  1 13  9  4  4  7  2 10 10
  0 13 12  4 11 11  1 18 17  3 18  3  0 20 16  3 17 20  1  0 17  0  1  3
  4 19 19 16  9 18  5]"
24100,337.0,0.984375,6,2,128.3254678249359,5.160770416259766,14572,97424,732544,4472157,"[ 0  0  3  0  1  3  2  3  3  0  2  1  3  3  3  0  0  2  2  5  4  1  0  2
  0  5  0  0  4  1  2 10  7  3  6  4  0  9  5  1  3  3  4  4  7  0 14  2
  5  9 13  2 15 12  5  9 13  2  1  3  5 21  2  5 17 23  3  2 17  2  0 23
  5  1  0 16  9 18  5]"
24200,337.0,0.984375,6,2,128.86219143867493,5.367236137390137,14617,97824,735752,4491323,"[ 0  0  3  0  1  3  3  3  1  0  2  1  5  2  3  0  0  2  0  3  1  3  3  0
  0  2  3  4  4  2  5 13  1  2 12  7  0  9  5  0  3  0  4  4  7  3 17  2
  1  3 15  2  0 12  2  9  2  3 18  9  5 14  3  4 15  3  0 16 19  4 14 23
  1  2 18 16  9 18  5]"
24300,337.0,0.984375,6,2,129.4220848083496,5.598933696746826,14680,98224,738825,4509890,"[ 0  0  3  0  1  3  0  0  3  0  2  1  4  3  1  0  0  2  4  4  0  2  2  0
  3  2  3  4  4  3  5 13  1  2 10 13  0  9  5  1  9  0  4  4  7  3 12  9
  1 16  1  2  0 12  4 18 11  1 18  0  0 14 16  4 15  3  0 20 22  0  0  1
  2  2 14 16  9 18  5]"
24400,337.0,0.984375,6,2,129.99556398391724,5.7347917556762695,14729,98624,742022,4529265,"[ 0  0  3  0  1  3  1  2  2  0  2  1  3  3  2  0  0  2  4  8  4  1  0  0
  1  4  4  4  3  5  0  2  5  0 10  4  0  9  5  4  8  7  4  4  7  0 15  9
  1 18 16  1 17 12  3 14 11  5  1 14  0 15 16  4 15  3  3 17 22  0 17  1
  3  1 20 16  9 18  5]"
24500,337.0,0.984375,6,2,130.5392837524414,5.437197685241699,14784,99024,745174,4548635,"[ 0  0  3  0  1  3  1  0  0  0  2  1  3  0  2  0  0  2  2  7  4  4  6  5
  1  6  5  3  1  2  0 10  9  0  9 11  0  9  5  4  8  7  4  4  7  0 10  9
  3 12 14  1 14 18  4 11 12  5  9 14  0 14 15  4 20  3  2 17 20  0 17  3
  0 21  1 16  9 18  5]"
24600,337.0,0.984375,6,2,131.07792687416077,5.3864312171936035,14841,99424,748288,4567621,"[ 0  0  3  0  1  3  3  3  3  0  2  1  3  0  1  0  0  2  0  7  4  4  4  5
  0  1  3  5  1  6  3  6  7  1  4  3  0 10 13  1 12  2  4  4  7  0 10 14
  4 13 18  4 10 13  0 15  2  1  0 15  0 23 15  1  3  3  2 21 20  0  0  3
  0 15  3 10  9 18  5]"
24700,337.0,0.984375,6,2,131.60945320129395,5.315263271331787,14888,99824,751462,4586813,"[ 0  0  3  0  1  3  4  1  0  0  2  1  4  2  3  0  0  2  0  7  4  4  5  1
  0  2  7  0  1  4  3  9  9  2 13  6  3  4  9  5  2 11  4  4  7  5 14  9
  5 12  3  3 10  2  0  3 16  5 14  3  0 14 14  5 15  1  3 21 20  4  3 17
  0 14 20 10  9 18  5]"
24800,337.0,0.984375,6,2,132.12738156318665,5.179283618927002,14944,100224,754493,4605214,"[ 0  0  3  0  1  3  4  3  0  0  2  1  4  3  3  0  0  2  0  7  4  2  4  0
  0  2  4  3  5  4  3  4  3  2 13 13  2  2  3  2  2 11  4  4  7  2  1  1
  4 12 17  1 17  1  3 13  3  5 16 16  1 14  2  0 16  3  4  1 18  5 23 19
  3 22 22 10  9 18  5]"
24900,337.0,0.984375,6,2,132.63259887695312,5.052173137664795,14997,100624,757469,4623253,"[ 0  0  3  0  1  3  5  3  0  0  2  1  0  3  3  0  0  2  0  7  4  2  1  7
  5  7  0  3  2  4  5  6  1  2  2  5  3  6  7  2  8  9  4  4  7  2 15 12
  1 10 10  0 16  0  5 13  3  3 16 18  4 14  1  0 17 16  4 19 14  0 23 18
  0 22 15 10  9 18  5]"
25000,337.0,0.984375,6,2,133.14451909065247,5.119202136993408,15056,101024,760478,4641641,"[ 0  0  3  0  1  3  1  0  0  0  2  1  0  3  2  0  0  2  0  7  4  0  2  7
  3  3  8  3  7  6  0  1  0  2  1  5  3 11  0  0 10  8  4  4  7  4  1  0
  0 18 18  0 12 18  0 13 14  5  0  2  4  2 15  2  0  3  0  2 14  5 21 17
  1 19  3 10  9 18  5]"
25100,337.0,0.984375,6,2,133.65923476219177,5.147156715393066,15111,101424,763547,4660208,"[ 0  0  3  0  1  3  1  1  1  0  2  1  1  1  1  0  0  2  0  7  4  3  2  7
  2  5  7  1  1  1  2  4 11  5  5  0  1  6  0  5  1  6  4  4  7  2 17  0
  4 12  9  3 15 11  5  1  3  5  0 15  4  0 15  1 22  1  1  2 14  2 21  0
  1 19 18 10  9 18  5]"
25200,337.0,0.984375,6,2,134.2076506614685,5.484158992767334,15150,101824,766867,4680288,"[ 0  0  3  0  1  3  1  0  1  0  2  1  2  1  2  0  0  2  0  7  4  3  7  6
  3  8  4  0  3  0  5 11  2  4  7  4  5  6 12  5  4  2  4  4  7  4 15 10
  3 14  0  3 18 17  5 14 11  5 16  3  2 23  0  4 17 21  3  2  1  0  3 15
  3 14 20 10  9 18  5]"
25278,338,1.0,10,4,134.62144374847412,5.305039576995068,15193,102136,769239,4694792,"[ 0  0  3  0  1  3  3  2  2  0  2  1  2  0  2  0  0  2  0  7  4  0  0  4
  0  2  4  2  0  6  5 11 11  4  7  4  5  8 10  5  4 11  2 10  1  2 18 13
  3 14 17  3  9  3  5 17 16  5 16  3  4  3 16  4  1 20  5  1  0  0  0  0
  2  3 20 10 22 15  5]"
25300,338,1.0,10,4,134.75191855430603,5.930672992359509,15207,102224,769738,4699668,"[ 0  0  3  0  1  3  3  2  2  0  2  1  2  0  2  0  0  5  0  7  4  0  0  4
  4  2  4  2  0  6  5 11 11  4  7  4  5  8 10  5  4 11  2 10  1  2 18 13
  3 14 17  3  9  3  5 17 16  3 16  3  4  3 16  4  1 20  5  1  0  4  3  0
  2  3 20 10 22 15  5]"
25400,342,1.0,7,3,135.31840634346008,5.664877891540527,15249,102624,772541,4721403,"[ 0  0  3  1  2  3  0  3  2  0  2  1  2  0  2  4  2  5  0  7  4  5  1  4
  1  5  8  2  8  2  5 12 11  4  7  4  5  8 10  2  2  3  0  1  3  3  9 10
  2 13  3  3 15  1  2 18 16  3 18  1  3 16 23  4 17 17  0  3 14  2  3 14
  3 17  2 10 16 15 18]"
25500,342,1.0,7,3,135.77344465255737,4.5503830909729,15306,103024,774816,4737310,"[ 0  0  3  1  1  3  0  3  2  0  2  1  2  0  2  3  8  2  0  7  4  3  2  0
  1  5  8  5  8  8  2  6  9  4  7  4  3  8 10  0 12  7  0  1  3  3  3 13
  3 10 14  3 17 18  1 11  0  4 17 10  3 14 22  0 19 21  0  3 22  4  1 18
  3 23 15 10 16 15 18]"
25600,342,1.0,7,3,136.23213863372803,4.586939811706543,15362,103424,777064,4753189,"[ 0  0  3  2  1  3  1  3  1  0  2  1  2  0  2  2  4  2  0  7  4  3  5  4
  0  3  1  0  7  6  0  2  9  4  7  4  3  8 10  5  4 11  0  1  3  0  1 13
  4 11  3  3  2  0  4 13 13  3 11 12  3  2 23  0 18 20  4  2 21  1 18 21
  3 16  3 10 16 15 18]"
25700,342,1.0,7,3,136.7036566734314,4.715180397033691,15411,103824,779441,4769800,"[ 0  0  3  3  1  3  4  2  0  0  2  1  2  0  2  3  8  5  0  7  4  2  6  0
  0  0  5  5  7  1  5 12  9  4  7  4  3  8 10  1 13  3  0  1  3  0 11 11
  5 12 15  1 18 17  4 17  3  4 10  2  4 20 23  2 20 19  0  3 21  3 17 15
  1 23 22 10 16 15 18]"
25800,342,1.0,7,3,137.19639945030212,4.927427768707275,15461,104224,781913,4787049,"[ 0  0  3  4  1  3  5  0  1  0  2  1  2  0  2  1  7  2  0  7  4  0  6  1
  2  0  4  5  6  0  5  8  4  4  7  4  3  8 10  2  5  7  0  1  3  0 18 11
  5 15  0  1 14  3  4 17  1  3 16 18  1 14 23  2 18  0  1 22 14  0 17 15
  3 23 23 10 16 15 18]"
25900,342,1.0,7,3,137.68260860443115,4.862091541290283,15512,104624,784398,4804464,"[ 0  0  3  2  0  2  5  0  3  0  2  1  2  0  2  1  7  1  0  7  4  1  0  7
  4  2  7  5  6  0  3  5  4  4  7  4  5  8 10  5 11 11  0  1  3  0 14 17
  0  1 17  3 16 10  3 18 18  1  0 12  0 17 23  4 18 20  1 15  0  0 17 19
  1 23  3 10 16 15 18]"
26000,342,1.0,7,3,138.158269405365,4.756608009338379,15563,105024,786800,4821253,"[ 0  0  3  2  0  2  1  2  2  0  2  1  2  2  2  3  7  3  0  7  4  4  8  6
  4  0  4  4  2  4  3 11  4  4  7  4  5  5 10  0  8 11  0  1  3  4 14  2
  1  0  0  3 10 17  1 10 18  2 17 15  1 17  3  3 15  2  0 15 20  2 17 21
  3  1 17 10 16 15 18]"
26100,342,1.0,7,3,138.65230870246887,4.940392971038818,15609,105424,789317,4838782,"[ 0  0  3  2  0  2  5  1  3  0  2  1  4  1  2  2  0  7  0  7  4  1  3  6
  3  4  1  4  2  2  0  3  3  4  7  4  3  5 10  5  8  5  0  1  3  2 14  9
  0  0  0  3 13 12  4  3 16  1 17 15  4 23 18  1 15  2  1 22  3  1 23 19
  2 18 18 10 16 15 18]"
26200,342,1.0,7,3,139.12972903251648,4.774203300476074,15663,105824,791700,4855379,"[ 0  0  3  2  0  2  2  1  0  0  2  1  4  2  0  2  6  0  0  7  4  0  2  6
  3  4  6  4  1  1  4 13  3  4  7  4  5  5 10  2  6  5  0  1  3  0 13  9
  0 14  2  1 18 16  2  3  2  0  2  3  0 17 22  0 19 19  3  2  3  1 23 22
  2 18  1 10 16 15 18]"
26300,342,1.0,7,3,139.5854630470276,4.557340145111084,15723,106224,793935,4870935,"[ 0  0  3  2  0  2  1  1  0  0  2  1  3  3  3  5  2  4  0  7  4  0  7  0
  1  2  7  0  5  4  1  4  1  4  7  4  3  5 10  2  3 11  0  1  3  2 12 12
  0 14 18  0 12  3  3 10 10  2 10  2  1 17  3  2 19 16  3 16  3  3 22 22
  4 14 16 10 16 15 18]"
26400,342,1.0,7,3,140.02765202522278,4.421889781951904,15777,106624,796082,4885980,"[ 0  0  3  2  0  2  1  3  0  0  2  1  4  1  3  0  8  1  0  7  4  5  6  0
  1  3  2  5  8  1  5  0 11  4  7  4  3  5 10  1  0  1  0  1  3  0 12 13
  0  2 18  0  0  3  3 12 14  1  1  1  3 17 15  4 14  1  2 16 22  0 15 22
  3 16 16 10 16 15 18]"
26500,342,1.0,7,3,140.5184202194214,4.907681941986084,15828,107024,798575,4903385,"[ 0  0  3  2  0  2  2  1  0  0  2  1  5  0  1  0  3  5  0  7  4  3  4  2
  4  5  3  4  3  1  1  3 10  4  7  4  5  5 10  1 10  1  0  1  1  0  0 13
  0  2  2  0  1  3  5  3 12  4 17 15  5 14  0  0 19  1  3 22  0  4 21 22
  3  2  3 10 16 15 21]"
26600,342,1.0,7,3,140.98393774032593,4.65517520904541,15879,107424,800905,4919691,"[ 0  0  3  2  0  2  2  3  0  0  2  1  4  0  0  5  8  1  0  7  4  5  5  0
  3  3  1  1  4  4  1  3 10  4  7  4  5  5 10  1  0 10  3 13  1  1  3 12
  5  9 14  0  1  3  0 17 12  5  9  9  2 14 16  2 20  1  2 18  0  5 18 17
  1 16 22 10 16 15 21]"
26700,342,1.0,7,3,141.49507880210876,5.111410617828369,15935,107824,803187,4935632,"[ 0  0  3  2  0  2  4  0  0  0  2  1  2  1  3  2  5  8  0  7  4  3  4  4
  3  5  4  5  4  5  1  6 12  4  7  4  5  5 10  5  6 11  5 11  6  4 10 10
  5 12 14  0  1  3  4 11 12  4  9 18  5 14 23  2 16  1  4 18  2  0 21 17
  5 16 15 10 16 15 21]"
26800,342,1.0,7,3,141.97364974021912,4.785709381103516,15988,108224,805530,4952091,"[ 0  0  3  2  0  1  2  0  2  0  2  1  2  2  0  2  5  5  0  7  4  0  6  2
  3  5  2  1  1  5  3  6  1  4  7  4  5  6 10  3 13  5  5  5  8  2 18 10
  0  0  9  0  1  3  4 13  3  2  0 16  3 17 23  4  3  1  1  2  0  2  0 23
  5 18  3 10 16 15 21]"
26900,342,1.0,7,3,142.44627046585083,4.726207256317139,16043,108624,807858,4968424,"[ 0  0  3  2  0  1  2  0  2  0  2  1  3  2  0  2  5  6  0  7  4  0  4  5
  3  5  1  4  0  5  5  8 10  4  7  4  5  6 10  4  6  5  3  3 12  0  3  1
  5  3  9  0  1  3  4  0  0  5 17 10  2 14 23  1 21 19  2 23 23  0  0 14
  4 16  3 10 16 15 21]"
27000,342,1.0,7,3,142.88464736938477,4.3837690353393555,16091,109024,810040,4983610,"[ 0  0  3  2  3  3  2  0  2  0  2  1  2  2  0  4  4  2  0  7  4  1  4  0
  5  4  8  5  2  0  5  8  1  4  7  4  5  6 10  2 10  1  3  3  9  4  0 14
  0  3  3  0  1  3  4 14  0  2  2 13  4 17  0  1  3 18  0  2 23  1  0 14
  3 17 16 10 16 15 21]"
27100,342,1.0,7,3,143.3343415260315,4.496941566467285,16148,109424,812239,4999009,"[ 0  0  3  2  1  0  2  0  2  0  2  1  2  2  2  0  2  2  0  7  4  1  4  3
  2  1  3  2  2  4  4 12  1  4  7  4  3  6 10  0  3  2  0  3  0  4 17 16
  0 18 13  0  1  3  0  1 12  2  2 14  1 19 18  1 16 22  1  2  2  5  2 14
  3  3 23 10 16 15 21]"
27200,342,1.0,7,3,143.80975937843323,4.754178524017334,16208,109824,814596,5015535,"[ 0  0  3  2  2  3  2  0  2  0  2  1  5  2  0  0  2  5  0  7  4  2  4  4
  0  0  3  5  7  3  3  5  0  4  7  4  3  6 10  0  1  6  0 11  0  5 17 18
  1 18 13  0  1  3  0 11  9  3 16 15  2 19 23  5  0 22  4  2 18  0  2  1
  2  3  2 10 16 15 21]"
27300,342,1.0,7,3,144.272967338562,4.632079601287842,16260,110224,816844,5031129,"[ 0  0  3  4  1  3  2  0  2  0  2  1  1  0  0  2  3  4  0  7  4  0  8  0
  4  8  5  1  1  7  0  3  0  4  7  4  5  6 10  4  1  8  3  7  6  5 11 15
  2 18 14  0  1  3  0  2  9  2  2 11  2  0  0  5  0  2  2  3  1  0  1 19
  2 19 14 10 16 15 21]"
27400,342,1.0,7,3,144.7428104877472,4.698431491851807,16314,110624,819093,5046900,"[ 0  0  3  1  0  1  2  0  2  0  2  1  0  0  0  5  2  4  0  7  4  1  5  2
  2  1  4  1  6  0  5  4  0  4  7  4  3  6 10  0 12  7  0  4  6  5 11 12
  3  0  3  0  1  3  1 12  9  2 15  1  4 21  0  3 16 16  3  3 14  3  1 19
  0  2 16 10 16 15 21]"
27500,342,1.0,7,3,145.21629905700684,4.7348856925964355,16366,111024,821475,5063571,"[ 0  0  3  5  0  1  2  0  2  0  2  1  2  2  3  2  1  5  0  7  4  4  2  2
  3  1  5  3  1  2  1  3  2  4  7  4  3  6 10  1  3 10  1  0  6  1  2 12
  2  0 15  0  1  3  4 16  2  2 15 15  5 17 17  5  2 20  1 20 14  3 22 19
  0 15 14 10 16 15 21]"
27600,342,1.0,7,3,145.72679162025452,5.104925632476807,16428,111424,823993,5082351,"[ 0  0  3  2  1  3  2  0  2  0  2  1  0  3  1  2  1  5  0  7  4  5  5  3
  2  2  2  4  1  0  1  5 12  4  7  4  3  6 10  4  1  9  3  0  6  5  2 12
  0  9 12  0  1  3  3 15 15  5  9  9  1 23  0  1 21 21  4  2 16  0 22  1
  1 16 18 10 16 15 21]"
27700,342,1.0,7,3,146.186785697937,4.599940776824951,16482,111824,826304,5098469,"[ 0  0  3  2  3  2  2  0  2  0  2  1  2  3  2  2  4  7  0  7  4  5  3  0
  5  1  0  4  3  2  1 12 11  4  7  4  5  6 10  4 10  9  1  0  4  0  2 14
  5  9 16  0  1  3  5  1 10  0 10 12  2 23  0  0  2 21  0  2 17  3  2 21
  1 16 18 10 16 15 21]"
27800,342,1.0,7,3,146.67383885383606,4.8705315589904785,16528,112224,828798,5115909,"[ 0  0  3  2  2  2  2  0  2  0  2  1  0  3  2  3  4  7  0  7  4  2  2  7
  0  1  5  2  3  2  2  9  2  4  7  4  5  6 10  5  2  1  1 11  6  5 12 10
  5  3  3  0  1  3  0  3  3  1 10  1  2 17 17  3 17  2  4 16  1  5 14 16
  5 21 18 10 16 15 21]"
27900,342,1.0,7,3,147.15416836738586,4.803295135498047,16581,112624,831234,5132944,"[ 0  0  3  1  2  2  2  0  2  0  2  1  3  3  3  4  1  0  0  7  4  2  6  6
  0  4  8  3  8  2  0  1  2  4  7  4  5  6 10  0  7  1  4  6  6  5 15 11
  4  3 10  0  1  3  0  3  3  0 10  3  5 16  0  5 23  2  4 16  2  0 19 16
  4  0 21 10 16 15 21]"
28000,342,1.0,7,3,147.61383295059204,4.596645832061768,16637,113024,833454,5148472,"[ 0  0  3  4  0  2  2  0  2  0  2  1  4  0  0  5  4  8  0  7  4  3  2  6
  3  8  6  5  3  5  0  1 13  4  7  4  5  6 10  5  2  1  5  2  1  1 13  1
  4 12 16  0  1  3  1  3  3  4 15 10  0 16 17  4 16  3  2  1  3  4 20 16
  2  0 21 10 16 15 21]"
28100,342,1.0,7,3,148.08767318725586,4.738402366638184,16682,113424,835875,5165383,"[ 0  0  3  4  1  2  2  0  2  0  2  1  4  2  1  1  7  7  0  7  4  3  7  0
  3  4  1  4  5  1  2  8  9  4  7  4  3  6 10  0  9  0  5  2  8  4  1 18
  0 12  9  0  1  3  4  1  9  2  0  3  4  0 23  4 16  1  1 22 20  0 20 21
  4 21  0 10 16 15 21]"
28200,342,1.0,7,3,148.57208251953125,4.844093322753906,16736,113824,838327,5182512,"[ 0  0  3  4  1  3  2  0  2  0  2  1  4  2  1  2  8  8  0  7  4  3  4  0
  3  7  1  4  4  8  2 12  8  4  7  4  3  6 10  0 10  0  0 12  6  2  1 14
  0 12  9  0  1  3  2  9 15  2  3 10  3  3  0  5 16 15  5 23  0  1 15  3
  5 19  2 10 16 15 21]"
28300,342,1.0,7,3,149.0514359474182,4.793534278869629,16784,114224,840750,5199442,"[ 0  0  3  1  2  2  2  0  2  0  2  1  5  0  0  2  8  4  0  7  4  4  8  0
  2  5  5  4  2  8  4  4  0  4  7  4  3  6 10  3  0  7  2 12  9  3 15  0
  2 12 15  0  1  3  0  9 18  0 10  9  5 19  0  1  2 14  5 14 21  2  1 21
  3 19 15 10 16 15 21]"
28400,342,1.0,7,3,149.5316240787506,4.801881313323975,16828,114624,843147,5216190,"[ 0  0  3  3  2  2  2  0  2  0  2  1  5  2  0  4  3  8  0  7  4  3  1  6
  0  4  8  4  3  8  1  6 10  4  7  4  5  6 10  1  6  7  5 12  9  3  9 11
  1  3 13  0  1  3  0 11 14  2 10 12  5  0 15  0 16 19  2 19 18  5 14  0
  3  1  2 10 16 15 21]"
28500,342,1.0,7,3,149.96820831298828,4.365842342376709,16891,115024,845256,5230981,"[ 0  0  3  4  3  3  2  0  2  0  2  1  1  2  3  2  3  8  0  7  4  5  7  6
  3  8  7  1  3  0  5  2  5  4  7  4  5  6 10  4 10  9  3 12  2  3 17 11
  1  9  1  0  1  3  0  2 13  2  1 18  2  0 14  2 22 19  5 20 14  0 14  2
  3 23  2 10 16 15 21]"
28600,342,1.0,7,3,150.4944167137146,5.262084007263184,16931,115424,847852,5250494,"[ 0  0  3  0  3  1  2  0  2  0  2  1  5  0  1  4  5  8  0  7  4  4  3  3
  2  5  3  0  0  2  0 12  5  4  7  4  3  6 10  3 13  1  4 12  9  3 12  1
  5  3 17  0  1  3  4  1 13  2  9  3  0  3 18  0 16 22  5  2 20  3 14 22
  1 15 18 10 16 15 21]"
28700,342,1.0,7,3,150.96511602401733,4.706993103027344,16988,115824,850220,5267088,"[ 0  0  3  5  3  3  2  0  2  0  2  1  4  2  1  3  8  1  0  7  4  4  0  3
  1  5  6  3  0  2  5 12  8  4  7  4  3  6 10  3  3  8  2  9  4  2  3  9
  0 14 15  0  1  3  1 14 17  1 17 12  3  3 18  2 14 14  5 17  2  5 18 22
  3 14 18 10 16 15 21]"
28800,342,1.0,7,3,151.44498944282532,4.798734188079834,17041,116224,852577,5283631,"[ 0  0  3  1  0  2  2  0  2  0  2  1  5  2  1  4  0  8  0  7  4  5  7  0
  0  0  1  1  6  3  5  0  0  4  7  4  3  6 10  4 13  9  2 13  4  5  9 11
  1  9  3  0  1  3  2  1  3  0 11 17  5  3 18  0 14 21  5 20  0  1 16 22
  3 14  3 10 16 15 21]"
28900,342,1.0,7,3,151.9342589378357,4.89269495010376,17093,116624,855035,5300901,"[ 0  0  3  0  1  3  2  0  2  0  2  1  3  2  3  4  4  0  0  7  4  3  0  0
  0  1  8  0  8  5  0  4  5  4  7  4  3  6 10  3  4 13  5 11  7  4 17 15
  1  3  9  0  1  3  3 13  2  0 16 17  4 19 22  3 22 21  4 22 20  1 16  0
  1 18 16 10 16 15 21]"
28934,343,1.0,7,2,152.11052536964417,5.184306817896226,17112,116760,855884,5307345,"[ 0  0  3  0  1  3  2  0  2  0  2  1  3  1  3  4  4  2  0  7  4  5  5  0
  0  1  8  0  1  6  0  5  5  4  7  4  3  6  5  1  4 13  5 11  2  2 17 15
  1 11  1  0  1  3  0 13  2  0 16 16  4 19 22  3 22 19  3  1 20  1 16  0
  0 18 16 10 16 15  5]"
