generation,fitness,functionality,active_nodes,longest_path,time,gen_time,nc_gens,fitness_evals,graph_evals,node_evals,genotype
0,268.0,0.78125,7,5,1.5244319438934326,1524.4319438934326,124,512,4881,36647,"[ 5  1  3  5  1  1  5  0  0  1  1  2  0  1  1  3  0  6  3  2  3  0  7  6
  1  6  4  5  5  1  0  7  3  2  3 13  4  4 10  0  1  3  2 11  0  3 18  3
  5  2  1  3 15  2  1  1  9  0 17  1  2 19 18  5 15 20  4 23 19  4 21 23
  1 14  0 17 27 17 17]"
100,310.0,0.90625,7,3,2.39967942237854,8.752474784851074,166,912,9832,72329,"[ 5  1  3  5  1  0  5  0  1  5  1  1  0  1  1  1  7  2  2  0  2  3  6  7
  3  3  7  1  5  2  1  3  2  1  0  1  3  5  8  0  1  3  5 11  5  5 14  3
  1  2  2  3 10 17  2 13  9  5  3 17  5 14  0  5 18 18  5 18 21  0 21 15
  0 14 15 17 27 28 17]"
200,327.0,0.96875,10,3,3.2987523078918457,8.990728855133057,226,1312,14206,113664,"[ 2  0  3  5  0  0  2  0  1  3  1  1  0  2  1  1  8  8  4  0  2  5  1  7
  3  3  7  1  5  2  1  3  8  1  0  8  3  5  8  0  1  3  0 11 11  0 17  3
  5 15  2  3 10 17  4  2 14  5 12  1  5 22 21  5 23 20  4 16 21  0 21 15
  0 14 15 16 27 28 17]"
300,328.0,0.96875,9,3,4.163115501403809,8.643631935119629,284,1712,18163,153098,"[ 2  0  3  5  0  0  0  0  1  3  1  3  0  2  1  3  3  3  2  0  2  5  1  2
  3  2  6  4  2  0  4  3  8  1  0  8  3  2 10  0  1  3  5 11 11  4  1 14
  4 15 11  3 10 17  0  2 14  0 12 16  5  0  1  3 23  1  5  2 21  0 21  0
  0 14 15 16 27 28 17]"
400,328.0,0.96875,9,3,4.989439487457275,8.263239860534668,338,2112,22208,190022,"[ 3  2  3  5  0  0  3  1  1  2  2  0  0  2  1  3  5  3  3  2  2  0  4  2
  0  2  1  1  8  1  4  3  8  1  0  8  3  2 10  0  1  3  3 13 10  4  9  0
  1 15 11  3 10 17  1  9 14  2 12 16  4  0 22  3 23  3  4 22  2  0 21  0
  0 14 15 16 27 28 17]"
500,328.0,0.96875,9,3,5.781261444091797,7.918219566345215,389,2512,26117,225707,"[ 2  2  0  1  0  0  5  1  3  4  2  1  0  2  1  4  5  3  3  2  2  1  7  1
  5  5  5  5  8  4  1  3  8  1  0  8  1  2  1  0  1  3  3 13 10  4  0  0
  1 15 11  3 10 17  0 16 14  2 16 16  5  3  3  3 15  3  4 22 23  0 21  0
  0 14 15 19 27 28 17]"
600,332.0,0.984375,10,3,6.795185327529907,10.139238834381104,450,2912,30306,264424,"[ 0  1  1  2  0  0  5  0  3  0  0  1  0  2  1  5  0  8  2  0  2  4  7  8
  1  1  5  0  3  0  1  3  8  4 13  8  4  9  0  0  1  3  3 13  4  4  0  0
  2  1  9  3 10 17  3 16 14  3 16 13  2  3  1  0 22  0  4 14 21  0 21  0
  0 14 15 19 27 28 17]"
700,333.0,0.984375,9,3,7.709826231002808,9.146409034729004,506,3312,33575,295539,"[ 1  3  2  2  1  1  3  3  3  0  3  2  0  2  1  5  0  5  4  2  0  4  7  5
  3  5  8  0  3  0  4  1  2  4 13  8  2  3  4  0  1  3  0  9  8  4  0  0
  3  3  3  3 10 17  0 13 17  4 17 10  4  3  1  2 22 22  2 19  3  0 21  0
  1 15 15 19 27 28 17]"
800,334.0,0.984375,8,3,8.38347578048706,6.736495494842529,561,3712,36741,323235,"[ 5  0  1  1  0  3  5  0  3  4  3  1  0  2  1  1  2  8  2  2  0  4  7  5
  5  7  1  0  3  0  3  3  2  4 13  8  2 12 13  0  1  3  3  8  8  4  0  0
  0  3  3  3 10 17  0 13 10  4  0 15  2  0 18  4  3 15  3 15 20  0 20 14
  1 15 19 19 21 28 17]"
900,336.0,0.984375,7,2,8.941585540771484,5.581097602844238,608,4112,39654,345199,"[ 5  0  0  3  3  3  3  0  3  3  3  1  0  2  1  0  2  2  2  2  0  4  8  2
  5  2  7  0  3  0  3  3  2  4 13  8  0 12 13  0  1  3  3  8 13  4  0  0
  4 13 15  3 10 17  3 13 12  0 12 15  0 20  1  3 15 14  3  3 20  2 22  0
  0 15 22 19 21 15 17]"
1000,336.0,0.984375,7,2,9.45907735824585,5.174918174743652,672,4512,42375,364648,"[ 5  0  2  5  2  2  3  0  1  3  3  2  0  2  1  5  6  6  2  2  0  2  0  2
  1  4  0  0  3  0  3 11  0  4 13  8  0  9  8  0  1  3  3 12 12  4  0  0
  5  1  9  3 10 17  2 15 18  0 10 18  5 20  1  3 19 14  1  1 20  3 22  0
  5 15 23 19 21 15 17]"
1100,336.0,0.984375,7,2,9.982081413269043,5.230040550231934,733,4912,45168,384416,"[ 5  1  2  3  3  0  3  1  3  5  3  2  0  2  1  4  2  5  2  2  0  1  1  7
  3  3  0  0  3  0  3 10  0  4 13  8  5  4  7  0  1  3  3  2  9  2  3 13
  5  1 17  3 10 17  5 15 17  2 10  9  2 20  1  3 20  2  4 21 21  4  2  0
  4 19 15 14 21 15 17]"
1200,336.0,0.984375,7,2,10.511988878250122,5.299074649810791,796,5312,47912,404195,"[ 2  1  0  3  1  0  3  0  0  5  3  1  0  2  1  4  2  6  2  2  0  1  5  2
  2  5  0  0  3  0  3 10  2  4 13  8  3 10 11  0  1  3  0  2  4  0 18 13
  2  1  0  3 10 17  5  0 18  4 16  9  1  1 19  3 20  2  4  0  2  3  2  3
  5 22 15 14 21 15 17]"
1300,336.0,0.984375,7,2,11.025662660598755,5.136737823486328,863,5712,50567,423334,"[ 1  2  0  3  3  3  3  2  0  3  1  1  0  2  1  5  8  6  2  2  0  1  7  6
  2  8  0  0  3  0  3 10  2  4 13  8  5 10  3  0  1  3  4  1  4  2  0 13
  0 15  9  3 10 17  2 13  9  1 16  1  1 15 19  0 18 23  5 17  1  3 16 17
  2 22 15 14 21 15 17]"
1400,336.0,0.984375,7,2,11.563769578933716,5.381069183349609,922,6112,53413,443824,"[ 5  3  0  3  0  3  3  0  1  4  3  3  0  2  1  2  6  2  2  2  0  4  2  0
  2  8  2  0  3  0  3 10  2  4 13  8  1  5  8  0  1  3  4  0  5  2 12 10
  5  1  9  3 10 17  2 13 11  2  2  3  3 22  2  2 16 17  2 17 19  3  1 16
  3 14  2 14 21 15 17]"
1500,336.0,0.984375,7,2,12.105623722076416,5.418541431427002,981,6512,56299,464595,"[ 5  0  1  0  0  0  2  3  3  4  3  3  0  2  1  5  8  0  2  2  0  3  6  8
  1  5  0  0  3  0  3 10  2  4 13  8  1  8  8  0  1  3  4  3  1  5  0 13
  2  9  9  3 10 17  4  1  0  1 17  1  0 21  2  5  1 21  5 16 20  1 14 19
  3 18 22 14 21 15 17]"
1573,339,1.0,10,3,12.506559133529663,5.492265910318453,1018,6804,58417,480038,"[ 1  0  3  0  0  3  2  1  3  4  0  0  0  2  1  5  2  7  2  2  0  3  6  4
  1  7  6  0  8  5  3 10 12  4  5  8  1  8 12  0  1  3  4  3 12  3 13 13
  4  2  3  3 10 17  0 11  3  1 17 16  0 18 20  3 22 21  1 23  2  1 22 23
  1  1 23 14 21 15 17]"
1600,339,1.0,10,3,12.687751531600952,6.710829558195891,1034,6912,59221,487830,"[ 1  0  3  0  0  3  2  1  3  2  2  2  0  2  1  0  2  7  2  2  0  3  3  4
  1  7  6  0  8  5  3 10 12  4  5  8  1  8 13  0  1  3  4 10 12  3  0 13
  4  2  3  3 10 17  0 11  3  5  1 12  4 18 20  3 15 21  1 23 21  4  2 23
  1 23 23 14 21 15 17]"
1700,339,1.0,10,3,13.433744192123413,7.459926605224609,1073,7312,62549,520114,"[ 1  1  0  0  0  3  2  1  3  4  0  0  0  2  1  1  2  4  2  2  0  3  4  3
  4  7  6  4  7  8  3 10 12  4  5  8  2  5 10  0  1  3  4  9  4  3  1  3
  4 14 17  3 10 17  2  3 10  5 13  3  4 16 16  3 23 21  4 23 16  4 17 19
  4 19 23 14 21 15 17]"
1800,340,1.0,9,3,14.084764957427979,6.510207653045654,1119,7712,65589,547799,"[ 3  3  3  0  0  3  2  1  3  3  2  3  0  2  1  1  7  3  2  2  0  4  5  3
  0  6  6  1  2  2  3 10 12  4  5  8  0  3 10  0  1  3  4  8 13  5  0  0
  2  3 17  3 10 17  5  3 10  2 12 16  3 23 21  5 23 14  3  0  1  5 17 18
  0 17 23 14 21 15 17]"
1900,342,1.0,8,2,14.6092848777771,5.245199203491211,1180,8112,68078,568238,"[ 3  2  3  0  0  3  2  1  3  0  2  3  0  2  1  4  7  4  2  2  0  5  1  3
  1  1  0  1  2  2  3 10  6  4  5  8  0  4 10  0  1  3  4  1  7  5 12 16
  0 14  3  3 10 17  1 11 10  5 12 16  3  0 22  5 16 15  3  2 20  4 17  3
  3  1  3 14 21 15 17]"
2000,342,1.0,8,2,15.129244565963745,5.199596881866455,1230,8512,70568,587908,"[ 3  3  3  0  0  3  2  1  3  1  1  3  0  2  1  4  2  4  2  2  0  2  3  7
  2  2  8  0  6  8  3 10  6  4  5  8  0 10  7  0  1  3  2  1  3  4  2 11
  4  0 15  3 10 17  0 17  2  5 12 17  2 21 16  5 16 16  5 18 19  3 23 18
  2 16  3 14 21 15 17]"
2100,342,1.0,8,2,15.640381574630737,5.111370086669922,1279,8912,72985,607033,"[ 0  0  2  0  0  3  2  1  3  0  1  2  0  2  1  4  6  5  2  2  0  2  3  5
  1  0  2  0  3  8  3 10  6  4  5  8  4  8  4  0  1  3  4  3  2  1  9 11
  4  0 12  3 10 17  0 13 17  5 18 15  1 14  2  2 16  0  0 18 14  5 23 18
  2  1  3 14 21 15 17]"
2200,342,1.0,8,2,16.194663047790527,5.5428147315979,1340,9312,75340,625497,"[ 1  0  2  0  0  3  2  1  3  5  3  3  0  2  1  5  7  5  2  2  0  4  0  2
  2  4  3  5  8  8  3 10  6  4  5  8  4  4  4  0  1  3  4  2 10  1  9 17
  0  0 11  3 10 17  0 13  1  4 10 13  3 15 17  2 16 21  0 19  1  5 17 15
  1 23  3 14 21 15 17]"
2300,342,1.0,8,2,16.76240110397339,5.677380561828613,1404,9712,77882,645547,"[ 3  0  0  0  0  3  2  1  3  3  2  3  0  2  1  4  5  1  2  2  0  4  3  4
  1  7  3  4  4  1  3 10  6  4  5  8  4 10  7  0  1  3  0  9  0  4  1 14
  0 11 18  3 10 17  1  3 10  3 10 13  2  0 15  1 14  3  0 14 23  5 17 22
  4 19  3 14 21 15 17]"
2400,342,1.0,8,2,17.279633283615112,5.172321796417236,1457,10112,80403,665471,"[ 4  1  1  0  0  3  2  1  3  4  3  3  0  2  1  4  7  1  2  2  0  2  6  0
  5  3  2  4  6  1  3 10  6  4  5  8  5  8  7  0  1  3  0  8  5  5 12 11
  2 11 18  3 10 17  5 13  9  3  3  1  4  1 15  1 23 20  5 19 21  5  0 23
  4 23  1 14 21 15 17]"
2500,342,1.0,8,2,17.817917346954346,5.382840633392334,1507,10512,83068,686657,"[ 4  2  3  0  0  3  2  1  3  4  1  1  0  2  1  4  4  1  2  2  0  2  4  1
  4  0  1  4  4  1  3 10  6  4  5  8  4  8 11  0  1  3  1  2  5  4  0 12
  3 12 18  3 10 17  1 15 15  3  1  1  4  1 15  1 18 20  5 17 21  1 19  3
  5 23 15 14 21 15 17]"
2600,342,1.0,8,2,18.35554575920105,5.376284122467041,1562,10912,85610,706639,"[ 2  1  1  0  0  3  2  1  3  2  0  0  0  2  1  0  1  1  2  2  0  0  8  3
  4  0  0  4  7  6  3 10  6  4  5  8  0 12 11  0  1  3  1  2  5  4 12 12
  3  0  0  3 10 17  3 10  9  0  9 18  5  1 15  1  3 18  5 16 21  0 16  3
  3 23 20 14 21 15 17]"
2700,342,1.0,8,2,18.85912799835205,5.03582239151001,1627,11312,87857,724309,"[ 1  2  3  0  0  3  2  1  3  0  0  0  0  2  1  1  1  3  2  2  0  2  0  3
  4  0  5  1  7  6  3 10  6  4  5  8  2  5  2  0  1  3  3  7 12  1  9 12
  3 10  1  3 10 17  3 10 13  1 12 18  1  1 23  1  3 17  0 22 23  4 18 21
  3 16  1 14 21 15 17]"
2800,342,1.0,8,2,19.404860496520996,5.457324981689453,1679,11712,90236,743123,"[ 1  2  1  0  0  3  2  1  3  4  2  3  0  2  1  3  0  7  2  2  0  3  7  8
  4  7  6  0  2  2  3 10  6  4  5  8  2  5 10  0  1  3  4 12 13  2  9 16
  3 14 16  3 10 17  1  2  0  0 12 10  5  0 14  1  2 22  0 22 22  1 18 14
  1 14 15 14 21 15 17]"
2900,342,1.0,8,2,19.96679663658142,5.619361400604248,1736,12112,92598,761816,"[ 5  1  0  0  0  3  2  1  3  0  1  3  0  2  1  3  4  1  2  2  0  0  7  2
  4  1  5  0  0  2  3 10  6  4  5  8  2  3 12  0  1  3  0 12  8  1 10 17
  2 18 11  3 10 17  1  3 10  0 12 10  5 14 20  0 21 22  4 21  1  5  3 14
  2  1 16 14 21 15 17]"
3000,342,1.0,8,2,20.486836671829224,5.200400352478027,1792,12512,95000,780774,"[ 1  0  0  2  0  3  2  1  3  0  0  3  0  2  1  2  4  3  2  2  0  5  4  5
  1  1  1  2  6  3  3 10  6  4  7  8  1 13 10  0  1  3  0 12  2  1 16 12
  2 18  0  3 10 17  1 13  1  5  1 14  2  1 20  5  0 23  4 14 19  3 17  0
  2  2 16 14 21 15 17]"
3100,342,1.0,8,2,20.96993613243103,4.830994606018066,1847,12912,97278,798646,"[ 5  2  2  0  1  1  2  1  3  0  0  3  0  2  1  0  0  2  2  2  0  0  4  3
  3  4  0  3  8  3  3 10  6  4  7  8  1 10  8  0  1  3  0  4  4  1  3 15
  2 16  1  3 10 17  2  0 17  5  9 18  3 21 16  2 22 21  2 22 14  3 22 23
  2  2  2 14 21 15 17]"
3200,342,1.0,8,2,21.489485502243042,5.195493698120117,1908,13312,99732,818043,"[ 4  1  0  3  0  1  2  1  3  0  0  3  0  2  1  5  0  2  2  2  0  4  2  0
  4  4  0  1  4  0  3 10  6  4  7  8  1  9  4  0  1  3  0  0  9  1  2 15
  2 17 16  3 10 17  3  1  2  0  9 18  2 17 19  4 22  2  2  2 14  3 22 23
  5 22  2 14 21 15 17]"
3300,342,1.0,8,2,22.024161338806152,5.3467583656311035,1955,13712,102385,839037,"[ 5  1  0  1  3  3  2  1  3  0  0  3  0  2  1  1  1  2  2  2  0  1  0  0
  0  6  0  3  5  1  3 10  6  4  7  8  5 10 11  0  1  3  3  5  9  5  2  2
  4 10 12  3 10 17  1  0  9  5 14 18  4 17 19  5  1 16  3 22 22  2 22 23
  1  3  0 14 21 15 17]"
3400,342,1.0,8,2,22.54049849510193,5.163371562957764,2002,14112,104878,858850,"[ 3  2  2  0  2  1  2  1  3  0  0  3  0  2  1  1  6  3  2  2  0  5  4  1
  1  0  4  3  3  2  3 10  6  4  7  8  2  9 10  0  1  3  4  4  4  0  0 14
  0 11 12  3 10 17  1 11  9  5 14 11  3  2  0  4  1 22  3  1  3  4 22 22
  5 22  1 14 21 15 17]"
3500,342,1.0,8,2,23.02546501159668,4.84966516494751,2059,14512,107144,876714,"[ 0  2  2  3  2  3  2  1  3  0  0  3  0  2  1  1  4  3  2  2  0  5  4  7
  2  3  7  3  3  2  3 10  6  4  7  8  2  2  1  0  1  3  4 10  3  0 10  1
  3 11  3  3 10 17  1  3 15  5 14 17  3 16  1  4 22 22  1 15 17  4 22 17
  5  3 22 14 21 15 17]"
3600,342,1.0,8,2,23.560905694961548,5.354406833648682,2116,14912,109481,895164,"[ 0  2  0  0  3  2  2  1  3  0  0  3  0  2  1  1  3  5  2  2  0  5  0  8
  2  4  2  3  4  2  3 10  6  4  7  8  1  2  1  0  1  3  0  6  6  4 10  1
  3 11 18  3 10 17  1 14  9  3 14 15  3  0 19  0 14 21  1  3 15  4 22 17
  1  3 14 14 21 15 17]"
3700,342,1.0,8,2,24.032891273498535,4.719855785369873,2181,15312,111718,912757,"[ 1  2  0  1  3  0  2  1  3  0  0  3  0  2  1  3  3  3  2  2  0  4  8  8
  1  4  2  5  1  7  3 10  6  4  7  8  2  6  1  0  1  3  3  1  4  4 14 13
  2 15 18  3 10 17  2 14  2  0 18 11  4  0 21  5  1 21  0 16 15  1 20  0
  1 22 14 14 21 15 17]"
3800,342,1.0,8,2,24.530417680740356,4.975264072418213,2244,15712,114097,931459,"[ 3  0  0  5  1  2  2  1  3  0  0  3  0  2  1  3  8  3  2  2  0  1  8  7
  2  5  2  3  6  7  3 10  6  4  7  8  0  0  2  0  1  3  3  3  4  5 12  0
  1 14  1  3 10 17  3 15 16  2 18 15  4 22 16  0  3 15  3 14 20  4  3  0
  0 15 14 14 21 15 17]"
3900,342,1.0,8,2,25.04136371612549,5.109460353851318,2301,16112,116622,951383,"[ 1  2  3  5  0  3  2  1  3  0  0  3  0  2  1  5  1  3  2  2  0  1  8  1
  2  5  5  3  2  2  3 10  6  4  7  8  1  9 11  0  1  3  3  3  4  0 13 13
  1  9  1  3 10 17  3 15 16  2 16 17  2 22 18  0  3 22  3 14 18  1  1  0
  1 23 14 14 21 15 17]"
4000,342,1.0,8,2,25.561415195465088,5.200514793395996,2354,16512,119156,971430,"[ 3  3  0  5  0  3  2  1  3  0  0  3  0  2  1  4  0  3  2  2  0  1  8  7
  2  6  0  5  8  7  3 10  6  4  7  8  1  9 11  0  1  3  5  3  7  3 13 13
  2  9  2  3 10 17  0 15 15  0 10 17  2 21  2  0 17 22  1 21 21  1 15  0
  5 19 14 14 21 15 17]"
4100,342,1.0,8,2,26.0544273853302,4.930121898651123,2412,16912,121503,989937,"[ 1  3  2  5  3  3  2  1  3  0  0  3  0  2  1  5  0  2  2  2  0  5  8  8
  2  4  5  5  4  3  3 10  6  4  7  8  5  8  8  0  1  3  5  1 11  4 12  1
  2 10  0  3 10 17  3 10  2  3 13 17  4 21 16  5 17 18  4 18 15  4 23 16
  5 19 14 14 21 15 17]"
4200,342,1.0,8,2,26.532806396484375,4.783790111541748,2475,17312,123738,1007639,"[ 1  3  0  0  3  3  2  1  3  0  0  3  0  2  1  5  0  8  2  2  0  1  5  8
  2  8  0  2  6  5  3 10  6  4  7  8  0  8  0  0  1  3  2 11  2  4 12  9
  2  3 17  3 10 17  2 17  3  3 13 17  4 21 16  5  1 21  4 19 16  2 23 22
  0  2 14 14 21 15 17]"
4300,342,1.0,8,2,26.988750457763672,4.559440612792969,2536,17712,125861,1024427,"[ 0  0  2  5  0  2  2  1  3  0  0  3  0  2  1  5  0  5  2  2  0  1  5  4
  2  0  0  4  5  4  3 10  6  4  7  8  0  6 10  0  1  3  2 11  6  4 10  1
  1 13  3  3 10 17  2  9 15  1 17 12  3 19 21  3  1  0  0 15  0  0 15  0
  3 18 23 14 21 15 17]"
4400,342,1.0,8,2,27.479419708251953,4.9066925048828125,2597,18112,128208,1042955,"[ 3  0  2  4  0  3  2  1  3  0  0  3  0  2  1  5  2  7  2  2  0  1  2  5
  1  8  4  4  0  5  3 10  6  4  7  8  0  9  3  0  1  3  2 12 11  4 10 12
  5 16  3  3 10 17  2 18 15  1 17  9  3 17  3  4 22  0  0 15 22  5 15  2
  4 19 23 14 21 15 17]"
4500,342,1.0,8,2,27.978864192962646,4.994444847106934,2656,18512,130609,1061909,"[ 0  0  2  2  2  1  2  1  3  0  0  3  0  2  1  1  4  0  2  2  0  1  1  0
  1  1  6  3  7  8  3 10  6  4  7  8  0 13  6  0  1  3  2  5  4  4 11  2
  1 16  2  3 10 17  2 18 12  4 17  0  3 20 15  0 21 18  0 15 22  5 22 17
  4 21 21 14 21 15 17]"
4600,342,1.0,8,2,28.517529249191284,5.386650562286377,2706,18912,133227,1082580,"[ 1  0  1  0  3  0  2  1  3  0  0  3  0  2  1  4  8  0  2  2  0  2  1  0
  1  1  6  5  3  6  3 10  6  4  7  8  0 12  3  0  1  3  4  9  7  3 11 16
  1 16 15  3 10 17  3 18 14  1 18 10  0 16 14  1 14 20  4 15  2  5 14 17
  0 19  2 14 21 15 17]"
4700,342,1.0,8,2,29.04037308692932,5.228438377380371,2758,19312,135686,1101968,"[ 1  1  1  5  1  0  2  1  3  0  0  3  0  2  1  4  8  5  2  2  0  3  4  7
  2  1  2  4  3  6  3 10  6  4  7  8  0  6 12  0  1  3  2 13  8  3 11 17
  2 15 10  3 10 17  2 18 14  4 18 10  5 23 14  4  3 22  4 14 15  2  1 17
  2 23 18 14 21 15 17]"
4800,342,1.0,8,2,29.53325080871582,4.92877721786499,2813,19712,138022,1120446,"[ 3  1  1  1  3  2  2  1  3  0  0  3  0  2  1  0  2  5  2  2  0  3  4  4
  4  1  2  4  1  0  3 10  6  4  7  8  1  2  6  0  1  3  2  8 10  2  9 17
  4 11 12  3 10 17  3 10 14  5  2 13  5 22 21  0 15 23  0  0 15  2 15 21
  4 16 18 14 21 15 17]"
4900,342,1.0,8,2,30.05540943145752,5.221586227416992,2873,20112,140518,1140187,"[ 3  0  3  1  1  1  2  1  3  0  0  3  0  2  1  0  3  5  2  2  0  3  4  2
  2  5  4  0  1  1  3 10  6  4  7  8  1 10  5  0  1  3  5  2 10  2 17 11
  2 13  9  3 10 17  3  0 14  5 17 10  5 20 17  5 17 18  4  0 15  3 15 14
  3 21  3 14 21 15 17]"
5000,342,1.0,8,2,30.53178310394287,4.763736724853516,2939,20512,142646,1157034,"[ 3  0  1  2  3  1  2  1  3  0  0  3  0  2  1  4  0  6  2  2  0  2  4  8
  2  5  4  0  3  7  3 10  6  4  7  8  1 10  6  0  1  3  5  2 10  2 17 14
  2 13  9  3 10 17  3  0 16  5 17 11  5 20 17  3 17  2  1  0  3  5 15 14
  1  3 22 14 21 15 17]"
5100,342,1.0,8,2,31.031658411026,4.998753070831299,2990,20912,145013,1175643,"[ 0  0  1  3  0  3  2  1  3  0  0  3  0  2  1  1  6  3  2  2  0  2  4  8
  2  5  4  1  5  6  3 10  6  4  7  8  1  5  9  0  1  3  3  3 10  2 17  1
  5  2  3  3 10 17  4  0  1  0 14  1  4  2  2  3  0 23  0  1 23  2 15 16
  5  0  2 14 21 15 17]"
5200,342,1.0,8,2,31.59076237678528,5.591039657592773,3038,21312,147670,1196618,"[ 4  2  0  3  0  3  2  1  3  0  0  3  0  2  1  0  7  4  2  2  0  2  6  8
  3  0  7  1  7  5  3 10  6  4  7  8  1  5  1  0  1  3  2 10 10  2  1 10
  1  0  2  3 10 17  2 15  9  1 14 10  4 22 14  1 19  1  5  0 23  2 15 17
  4  2 20 14 21 15 17]"
5300,342,1.0,8,2,32.24061727523804,6.498548984527588,3097,21712,150139,1216111,"[ 3  3  0  3  0  0  2  1  3  0  0  3  0  2  1  2  0  8  2  2  0  2  2  8
  3  3  3  1  2  5  3 10  6  4  7  8  2  2  3  0  1  3  2  2  3  2 16 17
  4  0  0  3 10 17  0  0  3  0 14 10  5  1 14  1 14  1  5 16 14  3 21 14
  0  2 22 14 21 15 17]"
5400,342,1.0,8,2,32.91535663604736,6.747393608093262,3148,22112,152620,1235703,"[ 3  2  2  3  0  3  2  1  3  0  0  3  0  2  1  4  0  1  2  2  0  2  6  7
  3  2  0  4  0  6  3 10  6  4  7  8  2 11 13  0  1  3  3  9  5  2 11 13
  4 10 13  3 10 17  0 13  0  3 18 17  4 20 16  1 21 15  5 23 14  1 22 20
  5  2 22 14 21 15 17]"
5500,342,1.0,8,2,33.50409555435181,5.887389183044434,3200,22512,155223,1256294,"[ 4  0  3  1  0  2  2  1  3  0  0  3  0  2  1  4  1  1  2  2  0  5  6  0
  4  2  7  4  0  3  3 10  6  4  7  8  4  0  3  0  1  3  3 10  5  5 16 15
  5  9  1  3 10 17  1  2  0  0  9 16  4  1 16  5 16 17  0  0 19  2 21 22
  0 15 16 14 21 15 17]"
5600,342,1.0,8,2,34.044857025146484,5.407614707946777,3246,22912,157925,1277588,"[ 5  2  3  5  0  1  2  1  3  0  0  3  0  2  1  4  1  2  2  2  0  0  4  1
  3  3  1  3  1  0  3 10  6  4  7  8  2  8  5  0  1  3  1 13  0  5 16 17
  0  3  1  3 10 17  2 13 15  1 12  3  1 20 23  4 14  1  2 17 21  2 21  1
  2 20 16 14 21 15 17]"
5700,342,1.0,8,2,34.56010127067566,5.152442455291748,3298,23312,160503,1297888,"[ 5  2  1  1  0  2  2  1  3  0  0  3  0  2  1  2  1  2  2  2  0  5  4  6
  3  2  1  3  2  6  3 10  6  4  7  8  1  1  1  0  1  3  1 10  8  0  9 14
  5  3  1  3 10 17  1  9 15  3 10 18  0 23 16  2  0  1  3 17  2  5 14 17
  3 16  3 14 21 15 17]"
5800,342,1.0,8,2,35.056201219558716,4.960999488830566,3358,23712,162880,1316610,"[ 1  1  3  0  1  3  2  1  3  0  0  3  0  2  1  3  5  2  2  2  0  1  4  8
  3  2  5  3  8  8  3 10  6  4  7  8  5  8  4  0  1  3  1 12  7  1  9 16
  5  2  1  3 10 17  4  3 18  3 17  1  2 20 16  2 16 21  1 21 14  0 14 17
  3 16  1 14 21 15 17]"
5900,342,1.0,8,2,35.56321930885315,5.070180892944336,3413,24112,165321,1336019,"[ 1  3  0  1  3  3  2  1  3  0  0  3  0  2  1  1  6  5  2  2  0  1  0  4
  0  0  0  2  0  8  3 10  6  4  7  8  1 13 13  0  1  3  5  5 11  0  3 15
  2 11  0  3 10 17  5 15 10  3 18  0  5 15 16  2 16 23  0 20 21  1 23  0
  5  2  3 14 21 15 17]"
6000,342,1.0,8,2,36.073493003845215,5.102736949920654,3467,24512,167844,1355994,"[ 3  3  1  1  1  2  2  1  3  0  0  3  0  2  1  3  2  6  2  2  0  1  3  7
  0  3  5  0  5  5  3 10  6  4  7  8  1 13  9  0  1  3  3  0 10  5 13 16
  2 10  0  3 10 17  1  2  3  3 16 13  0 14 20  0 15 17  4 14 21  5 23 23
  0 22 14 14 21 15 17]"
6100,342,1.0,8,2,36.60231423377991,5.288212299346924,3527,24912,170312,1375561,"[ 3  1  2  2  0  2  2  1  3  0  0  3  0  2  1  2  5  6  2  2  0  1  3  8
  0  7  7  0  6  4  3 10  6  4  7  8  2  1  9  0  1  3  2  3 10  2 10 16
  2 10  0  3 10 17  0  2  3  4 16  0  0 14 20  0 15  2  3 14 21  5 15 16
  3 21 20 14 21 15 17]"
6200,342,1.0,8,2,37.14596772193909,5.436534881591797,3572,25312,172999,1396772,"[ 3  2  2  3  2  3  2  1  3  0  0  3  0  2  1  1  5  7  2  2  0  4  1  8
  4  5  8  1  0  2  3 10  6  4  7  8  1  6  0  0  1  3  4  9  5  2  2 15
  5 10 11  3 10 17  1 15  3  0 17 12  0  3 20  0  2 15  4  0 23  3  1 21
  4 21  0 14 21 15 17]"
6300,342,1.0,8,2,37.62465167045593,4.786839485168457,3637,25712,175233,1414486,"[ 3  1  2  2  1  3  2  1  3  0  0  3  0  2  1  1  5  2  2  2  0  4  3  6
  4  5  8  1  0  2  3 10  6  4  7  8  0  6  6  0  1  3  0  1  5  2 14  9
  5  2  2  3 10 17  1 15  3  5 17 14  5  3  2  0  2 15  4  0 21  3  1 16
  1  3  0 14 21 15 17]"
6400,342,1.0,8,2,38.14077806472778,5.161263942718506,3687,26112,177756,1434384,"[ 5  2  2  5  3  2  2  1  3  0  0  3  0  2  1  0  6  8  2  2  0  4  3  5
  5  5  5  3  6  0  3 10  6  4  7  8  3  1  8  0  1  3  1  6  5  4 15 13
  1  0  2  3 10 17  1  2 17  5  2 17  3 15 16  0  2 20  4 19 21  1 20 16
  3 20 23 14 21 15 17]"
6500,342,1.0,8,2,38.64422678947449,5.034487247467041,3733,26512,180191,1453605,"[ 1  1  0  3  1  3  2  1  3  0  0  3  0  2  1  1  2  0  2  2  0  0  3  5
  5  5  6  3  0  8  3 10  6  4  7  8  0  0  3  0  1  3  3 11  0  1 11  3
  3  0 18  3 10 17  1 15 17  1 15 17  5 15  2  0 20  1  0 19 15  0 23  0
  0  2 21 14 21 15 17]"
6600,342,1.0,8,2,39.131346225738525,4.871194362640381,3794,26912,182568,1472451,"[ 2  1  0  3  1  3  2  1  3  0  0  3  0  2  1  4  5  0  2  2  0  5  3  7
  1  7  6  5  3  7  3 10  6  4  7  8  3  8  0  0  1  3  2 13  0  1  9 13
  4 10 13  3 10 17  1 10  0  2 12 17  5  1 22  2 20 14  5  2 21  3 23 18
  5 21 21 14 21 15 17]"
6700,342,1.0,8,2,39.621939182281494,4.9059295654296875,3861,27312,184684,1489295,"[ 3  1  2  5  1  3  2  1  3  0  0  3  0  2  1  3  5  3  2  2  0  3  5  3
  3  2  4  2  3  5  3 10  6  4  7  8  1  4  0  0  1  3  3 13  8  1  9  9
  4 10 13  3 10 17  0  9 12  2  0 13  5 18 16  2 20 14  0  2 21  5 23  3
  2 21  2 14 21 15 17]"
6800,342,1.0,8,2,40.118879318237305,4.9694013595581055,3923,27712,186961,1507348,"[ 3  2  2  5  1  1  2  1  3  0  0  3  0  2  1  2  4  1  2  2  0  5  5  0
  4  7  1  3  2  1  3 10  6  4  7  8  2  3  4  0  1  3  3  2  4  0  9  9
  3 10  0  3 10 17  0  9  0  0  0  3  2 20 16  2 18 17  0  2 23  1 19 23
  1 22 19 14 21 15 17]"
6900,342,1.0,8,2,40.64657282829285,5.27693510055542,3981,28112,189551,1527718,"[ 5  3  3  5  2  0  2  1  3  0  0  3  0  2  1  4  0  4  2  2  0  1  0  3
  3  0  2  3  3  1  3 10  6  4  7  8  2 10  4  0  1  3  1 13  1  1  2 12
  1 11 13  3 10 17  4 12 17  5  0 14  0  1 17  2 23 15  3 16  1  1 21 22
  2 17 17 14 21 15 17]"
7000,342,1.0,8,2,41.142009019851685,4.954361915588379,4038,28512,191924,1546522,"[ 5  0  3  5  3  2  2  1  3  0  0  3  0  2  1  5  7  7  2  2  0  1  1  0
  4  2  5  1  3  4  3 10  6  4  7  8  2 13 13  0  1  3  4  0  2  0  2  3
  5 14  1  3 10 17  4 11 17  0 10  0  2 23 18  3 21 18  4 20  0  5 23 17
  1  0 17 14 21 15 17]"
7100,342,1.0,8,2,41.63388776779175,4.918787479400635,4096,28912,194306,1565275,"[ 5  3  1  5  3  3  2  1  3  0  0  3  0  2  1  2  7  0  2  2  0  3  8  6
  4  1  8  1  0  2  3 10  6  4  7  8  1 13 10  0  1  3  3  0  0  2 14 14
  5 11 12  3 10 17  4 11 10  1 10 10  1  2 18  3 16 16  4 23 17  5  1 17
  2  3 17 14 21 15 17]"
7200,342,1.0,8,2,42.174591064453125,5.4070329666137695,4148,29312,196729,1584466,"[ 5  3  3  1  3  1  2  1  3  0  0  3  0  2  1  2  8  1  2  2  0  3  4  2
  0  6  8  4  8  5  3 10  6  4  7  8  1  5  2  0  1  3  5  8 10  0 11 17
  4 13  2  3 10 17  3 17  9  4  3 10  5  2 22  3 16 15  1 23 17  1  0  1
  1  3 17 14 21 15 17]"
7300,342,1.0,8,2,42.697569847106934,5.229787826538086,4201,29712,199345,1605120,"[ 1  3  1  5  0  3  2  1  3  0  0  3  0  2  1  2  8  7  2  2  0  2  3  5
  2  8  6  4  8  6  3 10  6  4  7  8  1 11  5  0  1  3  5  8 10  1  0  3
  4 18  0  3 10 17  4 12 15  4 12  3  4  2 23  3 15 16  3 21 14  0  0 22
  2  3 20 14 21 15 17]"
7400,342,1.0,8,2,43.24385690689087,5.4628705978393555,4258,30112,201723,1624065,"[ 5  3  0  3  0  2  2  1  3  0  0  3  0  2  1  4  8  7  2  2  0  1  2  5
  2  5  2  5  1  6  3 10  6  4  7  8  1  6  4  0  1  3  5  4  3  1 11  3
  4 18  0  3 10 17  5 12 13  4 12  3  3 18 15  0 15 20  1 21  0  2 18 22
  5  2  1 14 21 15 17]"
7500,342,1.0,8,2,43.72530674934387,4.814498424530029,4319,30512,204012,1642185,"[ 1  3  0  3  0  3  2  1  3  0  0  3  0  2  1  1  2  2  2  2  0  1  1  0
  0  7  4  5  8  5  3 10  6  4  7  8  1  6 10  0  1  3  1 13  5  2 12  1
  1  2  2  3 10 17  1 15 10  4  3 10  3 21 18  1 15 23  5 19 23  3  0 17
  2  2  2 14 21 15 17]"
7600,342,1.0,8,2,44.23728036880493,5.119736194610596,4373,30912,206530,1662035,"[ 4  2  0  1  2  3  2  1  3  0  0  3  0  2  1  5  5  6  2  2  0  0  6  2
  0  1  3  5  2  0  3 10  6  4  7  8  0  4  9  0  1  3  1  4 12  1  3  1
  4  1  2  3 10 17  1  0 10  4  3 10  5 23 23  3 15 23  3 19 23  3 23 21
  2 21 20 14 21 15 17]"
7700,342,1.0,8,2,44.7365083694458,4.992280006408691,4432,31312,208931,1681078,"[ 2  2  0  1  0  3  2  1  3  0  0  3  0  2  1  1  8  7  2  2  0  2  6  2
  1  0  3  5  8  1  3 10  6  4  7  8  5 10  9  0  1  3  3  1 12  2 11 15
  3  9 10  3 10 17  5 13 12  1  2  0  3  2  1  5  2 18  0 16 21  1 14 19
  1 21  1 14 21 15 17]"
7800,342,1.0,8,2,45.257415533065796,5.209071636199951,4485,31712,211467,1701088,"[ 5  3  1  3  0  1  2  1  3  0  0  3  0  2  1  3  7  5  2  2  0  2  8  7
  0  8  3  0  8  4  3 10  6  4  7  8  5 11  6  0  1  3  3  2  0  2 12 15
  5 16 10  3 10 17  5 13 16  5 11 18  5 14  2  3 15  3  5 16  3  0  2 19
  5  2 21 14 21 15 17]"
7900,342,1.0,8,2,45.8327431678772,5.753276348114014,4541,32112,214047,1721468,"[ 2  2  2  1  0  2  2  1  3  0  0  3  0  2  1  4  5  3  2  2  0  2  4  7
  1  7  3  5  3  8  3 10  6  4  7  8  4  7  6  0  1  3  1  0  8  2 13 11
  2 16 11  3 10 17  3 12  9  5 10  3  5  1 14  3 18  2  3 19 23  0  2 14
  5 15 16 14 21 15 17]"
8000,342,1.0,8,2,46.410643100738525,5.778999328613281,4587,32512,216729,1742768,"[ 2  1  3  3  2  0  2  2  3  0  0  3  0  2  1  5  3  4  2  2  0  1  3  3
  1  1  3  0  0  0  3 10  4  4  7  8  3  9  6  0  1  3  3  9 13  4  1 18
  1 16 17  3 10 17  0  3 15  2 13 10  5  3  2  1 21  2  3 19  0  0  2 15
  0  1 18 14 21 15 17]"
8100,342,1.0,8,2,46.946911573410034,5.362684726715088,4639,32912,219332,1763245,"[ 2  1  3  0  1  3  2  3  2  0  0  3  0  2  1  4  2  8  2  2  0  2  1  7
  1  2  1  4  5  2  3 10  4  4  7  8  5 10  4  0  1  3  3  4 13  4  1  1
  3 10 17  3 10 17  4 10 10  3  1 10  1  2  2  2 21  2  0 21  0  2 14 17
  1 20 18 14 21 15 17]"
8200,342,1.0,8,2,47.3921799659729,4.452683925628662,4706,33312,221383,1779398,"[ 2  1  3  1  3  3  2  0  2  0  0  3  0  2  1  4  2  8  2  2  0  1  8  2
  5  5  1  4  0  4  3 10  4  4  7  8  3  4 10  0  1  3  0  9  1  4  1 12
  0  2 15  3 10 17  4  1 10  0  3  9  5 18  0  4  3 18  0 21 19  2 14 16
  4 16  0 14 21 15 17]"
8300,342,1.0,8,2,47.89113140106201,4.989514350891113,4757,33712,223772,1798339,"[ 2  1  3  1  3  1  0  0  1  0  0  3  0  2  1  3  2  2  2  2  0  3  0  8
  2  1  6  4  1  8  3 10  4  4  7  8  4  8 12  0  1  3  5  9  4  3 17 12
  0  2  0  3 10 17  5 16 17  5 13 18  2  1 22  3 20 22  0 21 23  1 14 21
  3 16 15 14 21 15 17]"
8400,342,1.0,8,2,48.42727065086365,5.361392498016357,4813,34112,226384,1818920,"[ 2  1  3  1  3  1  4  3  1  0  0  3  0  2  1  3  3  3  2  2  0  3  3  8
  3  6  3  2  1  3  3 10  4  4  7  8  5  4  3  0  1  3  5 11  0  1  1 12
  0  2 13  3 10 17  3  9 17  4  0  2  2  1 22  1  0 17  4 21 23  1 23 18
  1 22 21 14 21 15 17]"
8500,342,1.0,8,2,48.91667914390564,4.894084930419922,4874,34512,228704,1837274,"[ 2  1  3  5  2  1  5  1  1  0  0  3  0  2  1  5  3  5  2  2  0  3  3  3
  2  8  7  5  1  3  3 10  4  4  7  8  5  3  5  0  1  3  1  3  2  3 14 11
  1  2 13  3 10 17  5 11 17  4  2  0  1  1 22  5  0 23  3 21  3  1 18 17
  4  1 14 14 21 15 17]"
8600,342,1.0,8,2,49.4051194190979,4.884402751922607,4930,34912,231045,1855730,"[ 2  1  3  5  0  3  5  3  2  0  0  3  0  2  1  4  4  3  2  2  0  3  3  3
  2  4  7  2  6  4  3 10  4  4  7  8  5  8  2  0  1  3  3 12  8  3 16 13
  0 16 15  3 10 17  4 16 14  4 13  0  1 16  1  2 15 16  3 21 15  1 21 15
  3 19 20 14 21 15 17]"
8700,342,1.0,8,2,49.90021800994873,4.950985908508301,4991,35312,233359,1874028,"[ 2  1  3  5  2  0  5  1  2  0  0  3  0  2  1  1  3  0  2  2  0  4  4  5
  4  0  7  2  6  5  3 10  4  4  7  8  2  5  2  0  1  3  0  0  7  0 16 13
  5 12 12  3 10 17  4 14  3  4 13  3  3 20  3  0  2 16  0  2  0  1  1  1
  2 23 22 14 21 15 17]"
8800,342,1.0,8,2,50.477510929107666,5.7729291915893555,5050,35712,235819,1893475,"[ 2  1  3  1  3  0  1  1  0  0  0  3  0  2  1  1  3  4  2  2  0  4  7  5
  4  8  2  2  7  5  3 10  4  4  7  8  4  5  2  0  1  3  0 11 11  4 18 13
  0 12 12  3 10 17  5 10  3  4 13 10  0 20 15  5 20 16  0 14  0  1 18  1
  2 15 22 14 21 15 17]"
8900,342,1.0,8,2,50.99069595336914,5.131850242614746,5109,36112,238315,1913317,"[ 2  1  3  0  3  1  0  1  0  0  0  3  0  2  1  2  8  4  2  2  0  5  7  6
  4  6  6  4  4  5  3 10  4  4  7  8  1  8  2  0  1  3  0 11  7  4 18 13
  0 14 17  3 10 17  3 10 16  4 13 14  0 20  1  5 15 14  0 14  0  5 18 14
  2 15  3 14 21 15 17]"
9000,342,1.0,8,2,51.4834041595459,4.927082061767578,5167,36512,240707,1932134,"[ 2  1  3  0  0  2  2  2  0  0  0  3  0  2  1  3  4  4  2  2  0  0  7  3
  3  6  6  5  5  3  3 10  4  4  7  8  1  8  2  0  1  3  5  4  7  2 17  0
  0  3 10  3 10 17  5 10 16  4  9  2  5 15  2  0 14 14  0  1 19  4  0 16
  2  0 16 14 21 15 17]"
9100,342,1.0,8,2,51.96476912498474,4.813649654388428,5219,36912,243018,1950332,"[ 2  1  3  1  2  0  2  3  3  0  0  3  0  2  1  3  4  8  2  2  0  3  7  3
  3  6  5  5  5  8  3 10  4  4  7  8  5 10 13  0  1  3  3 11  4  2 17  0
  0  3 11  3 10 17  0 15 16  5 13  2  5 21 23  5  1 14  3  1 19  1 17 16
  4 18 16 14 21 15 17]"
9200,342,1.0,8,2,52.48183751106262,5.170683860778809,5268,37312,245569,1970476,"[ 2  1  3  1  1  0  2  3  0  0  0  3  0  2  1  2  4  6  2  2  0  0  0  4
  5  5  5  4  6  8  3 10  4  4  7  8  5  0  3  0  1  3  3  2  5  4  3  2
  3 17 16  3 10 17  2 12 13  5 13 16  5  0 17  2 15  0  0  0 19  2 15  3
  4 21 20 14 21 15 17]"
9300,342,1.0,8,2,52.9347448348999,4.529073238372803,5333,37712,247726,1987382,"[ 2  1  3  1  3  1  5  3  0  0  0  3  0  2  1  1  4  3  2  2  0  0  4  7
  5  4  3  3  6  3  3 10  4  4  7  8  3  4  3  0  1  3  5 10  5  3  3  2
  3 14 16  3 10 17  2 14 13  1  9 13  5  0 18  1 15 14  0 16  1  3 23  3
  4 21 17 14 21 15 17]"
9400,342,1.0,8,2,53.41015934944153,4.75414514541626,5395,38112,250002,2005270,"[ 2  1  3  2  3  0  5  2  1  0  0  3  0  2  1  1  4  3  2  2  0  0  8  3
  3  2  3  1  0  1  3 10  4  4  7  8  3  5  8  0  1  3  3 10  7  1  3 16
  4 14  2  3 10 17  4 13 12  0 10 17  5  0 15  1 15  3  0 20 17  1 17 23
  1 21 17 14 21 15 17]"
9500,342,1.0,8,2,53.906636238098145,4.964768886566162,5454,38512,252418,2024265,"[ 2  1  3  1  2  2  5  2  0  0  0  3  0  2  1  3  7  3  2  2  0  0  1  3
  3  4  7  1  0  1  3 10  4  4  7  8  1  3 11  0  1  3  1  4  7  0 15 14
  4  0 16  3 10 17  4 14 17  5  0 18  5 16  3  1 23  3  0  3 17  3 17 15
  0 18 17 14 21 15 17]"
9600,342,1.0,8,2,54.39415407180786,4.875178337097168,5516,38912,254742,2042585,"[ 2  1  3  0  2  2  0  1  0  0  0  3  0  2  1  2  8  3  2  2  0  0  1  4
  3  1  7  0  6  6  3 10  4  4  7  8  5  1  4  0  1  3  3 12  0  5  2  9
  4  0 13  3 10 17  4  3 14  5 11 18  5 16  2  2  2 16  1 15 19  2 14 21
  3  3  0 14 21 15 17]"
9700,342,1.0,8,2,54.8708553314209,4.767012596130371,5582,39312,257013,2060480,"[ 2  1  3  4  3  2  3  1  2  0  0  3  0  2  1  5  0  3  2  2  0  3  6  4
  3  6  2  1  1  6  3 10  4  4  7  8  4  6  6  0  1  3  3  0  6  3 13  9
  2 17  3  3 10 17  0  3  0  5 16  1  3 20  2  0  2  2  1 14 20  0 17 17
  0 21  0 14 21 15 17]"
9800,342,1.0,8,2,55.3570442199707,4.861888885498047,5644,39712,259382,2079291,"[ 2  1  3  0  2  1  4  1  2  0  0  3  0  2  1  3  0  3  2  2  0  0  4  0
  5  8  2  1  7  6  3 10  4  4  7  8  4  1  6  0  1  3  0  4  2  2 15  9
  1 17 11  3 10 17  0  3  0  5  1  1  3 20  2  4  2 18  1  1 17  0 14 20
  2  0  0 14 21 15 17]"
9900,342,1.0,8,2,55.87080645561218,5.137622356414795,5699,40112,261915,2099332,"[ 2  1  3  0  2  2  0  3  2  0  0  3  0  2  1  3  1  1  2  2  0  2  7  3
  4  2  1  1  8  3  3 10  4  4  7  8  5 11  2  0  1  3  4  7  7  4  3  0
  2 10 11  3 10 17  5 10 18  0 15 16  0  3  3  1 18 14  5  1 22  2 14  3
  4 15  0 14 21 15 17]"
10000,342,1.0,8,2,56.34800148010254,4.7719502449035645,5756,40512,264172,2117174,"[ 2  1  3  3  2  2  2  2  0  0  0  3  0  2  1  4  4  1  2  2  0  2  3  8
  3  1  8  0  7  5  3 10  4  4  7  8  4  7  5  0  1  3  3 13  4  5  1  2
  0  3 18  3 10 17  5 14 16  0 13  9  5 23  3  4 20  1  0  1  1  1 22 23
  1  3  2 14 21 15 17]"
10100,342,1.0,8,2,56.84473013877869,4.967286586761475,5806,40912,266553,2136028,"[ 2  1  3  4  2  2  2  1  1  0  0  3  0  2  1  4  4  3  2  2  0  3  4  1
  3  5  8  1  6  7  3 10  4  4  7  8  0  9  5  0  1  3  3 13 12  5  2 11
  2  3 18  3 10 17  2 17 18  3 13  2  4 19 22  3  1 17  4  0 16  1 20 21
  0 18 18 14 21 15 17]"
10200,342,1.0,8,2,57.38293194770813,5.382018089294434,5858,41312,269130,2156427,"[ 4  1  1  4  1  2  2  1  3  0  0  3  0  2  1  4  6  1  2  2  0  0  1  6
  5  6  2  1  8  3  3 10  6  4  7  8  0  7  2  0  1  3  5 13  6  0  2 11
  2 11 18  3 10 17  3 15 18  3 12 15  1  3 16  3 17 23  0  0 23  0 20 20
  3  0 17 14 21 15 17]"
10300,342,1.0,8,2,57.90153431892395,5.186023712158203,5915,41712,271518,2175425,"[ 1  2  2  3  1  2  2  1  3  0  0  3  0  2  1  1  4  4  2  2  0  5  0  8
  5  8  1  3  4  7  3 10  6  4  7  8  4  7 12  0  1  3  2  2  6  4  3 11
  3 17 18  3 10 17  4  2 18  3  3 15  0 22 16  1 17 23  5 15 14  1 20  2
  4 15 18 14 21 15 17]"
10400,342,1.0,8,2,58.38818621635437,4.866518974304199,5980,42112,273813,2193580,"[ 5  2  3  3  0  1  2  1  3  0  0  3  0  2  1  5  5  4  2  2  0  5  2  4
  4  8  4  4  4  7  3 10  6  4  7  8  4  9  4  0  1  3  2  5 13  1  1 11
  5 17 16  3 10 17  2  0  3  2  3 12  0 23 21  1 23 21  5 15 16  2 21  2
  5  1 18 14 21 15 17]"
10500,342,1.0,8,2,58.92642688751221,5.382406711578369,6029,42512,276422,2214272,"[ 5  3  3  0  3  2  2  1  3  0  0  3  0  2  1  5  8  3  2  2  0  5  8  4
  0  4  6  4  6  7  3 10  6  4  7  8  4  2 11  0  1  3  2  5  2  1 17 11
  4 17 16  3 10 17  2 10  0  2 18 13  3  2  3  1 23  1  4 19 22  3  2 22
  1 15  0 14 21 15 17]"
10600,342,1.0,8,2,59.414549827575684,4.881229400634766,6082,42912,278736,2232607,"[ 2  1  3  2  2  0  2  1  3  0  0  3  0  2  1  3  6  1  2  2  0  3  8  4
  4  3  1  3  5  3  3 10  6  4  7  8  2  1 11  0  1  3  1  5  2  1 17 14
  4  1 16  3 10 17  4 11  0  2 18 10  3  0  3  2  3  1  2 19  1  3 15 22
  2 19 23 14 21 15 17]"
10700,342,1.0,8,2,59.931633949279785,5.170841217041016,6132,43312,281257,2252647,"[ 1  1  1  1  1  1  2  1  3  0  0  3  0  2  1  3  6  6  2  2  0  4  8  4
  3  1  1  3  7  7  3 10  6  4  7  8  4  8 10  0  1  3  1  3  7  5  0 14
  3  3 16  3 10 17  0  0  0  3 18 18  2 21 22  2  3 16  0 19 17  1 23 22
  3  2 16 14 21 15 17]"
10800,342,1.0,8,2,60.42686438560486,4.952304363250732,6182,43712,283679,2271830,"[ 5  2  1  2  1  2  2  1  3  0  0  3  0  2  1  5  7  8  2  2  0  1  8  2
  4  4  0  3  4  8  3 10  6  4  7  8  4  9  8  0  1  3  2  5 13  5 14 15
  2 18 16  3 10 17  2  1  0  3  3 18  0  1 21  0 14 16  2 19 17  3 23 18
  0  1 16 14 21 15 17]"
10900,342,1.0,8,2,60.93274259567261,5.05878210067749,6231,44112,286143,2291328,"[ 5  1  3  2  2  3  2  1  3  0  0  3  0  2  1  5  1  8  2  2  0  5  0  1
  3  1  4  0  2  6  3 10  6  4  7  8  0  0  0  0  1  3  2 10  7  2 14 18
  4 16  9  3 10 17  5 16  0  3 15  9  2 18  2  0  1 22  3 14  1  2 16  3
  0 19  1 14 21 15 17]"
11000,342,1.0,8,2,61.42380380630493,4.910612106323242,6291,44512,288485,2309732,"[ 5  1  1  5  2  3  2  1  3  0  0  3  0  2  1  5  1  7  2  2  0  5  0  1
  0  0  0  4  2  6  3 10  6  4  7  8  5  0  7  0  1  3  3 12  2  1  3  3
  1 16  9  3 10 17  5 16  9  4 15  9  1 19  1  0 21 16  4  1  3  2 15 21
  3  2  3 14 21 15 17]"
11100,342,1.0,8,2,61.91559815406799,4.917943477630615,6353,44912,290791,2327996,"[ 3  1  2  5  0  3  2  1  3  0  0  3  0  2  1  5  2  7  2  2  0  3  4  0
  3  1  0  3  5  4  3 10  6  4  7  8  2  0  7  0  1  3  2 12  2  5 12  3
  1 16 13  3 10 17  5 12 17  4  0  0  4 15 22  0  1 16  4 14 14  2 15 17
  3 21 20 14 21 15 17]"
11200,342,1.0,8,2,62.43603539466858,5.204372406005859,6398,45312,293377,2348401,"[ 2  1  2  0  2  2  2  1  3  0  0  3  0  2  1  0  0  1  2  2  0  3  3  0
  3  2  0  4  1  0  3 10  6  4  7  8  4 11  7  0  1  3  2  4  2  3 12  0
  1 10 16  3 10 17  4  2 17  2  9 14  4 14 22  0  1 22  0 20 17  1 17 17
  3  0 18 14 21 15 17]"
11300,342,1.0,8,2,62.93906235694885,5.030269622802734,6455,45712,295866,2368084,"[ 4  0  3  3  2  1  2  1  3  0  0  3  0  2  1  3  0  7  2  2  0  4  0  0
  3  2  0  5  0  0  3 10  6  4  7  8  5  4  4  0  1  3  5  4  0  0  2 17
  1 10 10  3 10 17  1  1  9  1  9 17  5 23  2  1 16 21  2 20 22  3  2 20
  0  0 18 14 21 15 17]"
11400,342,1.0,8,2,63.43545460700989,4.963922500610352,6516,46112,298210,2386584,"[ 0  0  3  1  2  1  2  1  3  0  0  3  0  2  1  3  2  7  2  2  0  4  3  3
  5  6  0  3  7  7  3 10  6  4  7  8  5  0  5  0  1  3  1 10 12  0 12 14
  1 10 15  3 10 17  1 10 14  1 10 14  3 23 22  0 22 19  2 17 18  2 17  2
  0  1  1 14 21 15 17]"
11500,342,1.0,8,2,63.94381642341614,5.0836181640625,6564,46512,300623,2405547,"[ 4  0  2  4  2  0  2  1  3  0  0  3  0  2  1  2  6  7  2  2  0  0  5  2
  1  6  4  0  3  2  3 10  6  4  7  8  1  7 13  0  1  3  1  2  7  5  1 10
  4 14 16  3 10 17  2 17 14  1 15  3  0  0  0  2  3 14  2 23  3  2 16 17
  4 19  1 14 21 15 17]"
11600,342,1.0,8,2,64.45002770423889,5.062112808227539,6622,46912,303054,2424766,"[ 1  3  3  0  3  0  2  1  3  0  0  3  0  2  1  5  6  6  2  2  0  0  4  0
  1  5  7  1  3  7  3 10  6  4  7  8  1  9  9  0  1  3  1  1  8  1 12 17
  4 14  3  3 10 17  5 18  1  0 10  3  3 19 21  3  0 19  2 16  3  2 15 17
  2 15 23 14 21 15 17]"
11700,342,1.0,8,2,64.96006369590759,5.100359916687012,6677,47312,305539,2444303,"[ 2  1  3  4  0  3  2  1  1  0  0  3  0  2  1  1  6  0  2  2  0  0  4  0
  1  1  5  1  0  6  3 10  4  4  7  8  1  9  2  0  1  3  3 10  8  3 12  9
  4 14 16  3 10 17  5 12  1  4  3 16  2 19  3  5  0 15  0 18 20  3  2  1
  2 17 23 14 21 15 17]"
11800,342,1.0,8,2,65.45443654060364,4.943728446960449,6737,47712,307961,2463365,"[ 2  1  3  2  3  3  2  1  1  0  0  3  0  2  1  1  2  0  2  2  0  0  8  0
  1  2  2  0  2  1  3 10  4  4  7  8  1 11  2  0  1  3  3 12  8  3  0  9
  1 16 18  3 10 17  5 12  1  2  3 16  5  2 23  1  0 14  3  1 20  0 17 21
  5 17 23 14 21 15 17]"
11900,342,1.0,8,2,65.98470401763916,5.302674770355225,6785,48112,310577,2484084,"[ 2  1  3  0  1  2  4  3  2  0  0  3  0  2  1  2  7  8  2  2  0  4  2  8
  2  0  4  0  1  1  3 10  4  4  7  8  0 11 11  0  1  3  3  6  2  5  0  3
  3 16 10  3 10 17  5 16 15  4 16  0  5 18 15  1 19 14  2 18 20  5 20 21
  5 21 19 14 21 15 17]"
12000,342,1.0,8,2,66.48729085922241,5.0258684158325195,6846,48512,312943,2502792,"[ 2  1  3  0  1  3  0  3  0  3  0  3  0  2  1  2  1  5  2  2  0  4  7  8
  0  0  0  0  0  2  3 10  4  4  6  8  0 13  7  0  1  3  5  8  2  0 10 14
  3 15 10  3 10 17  5 15  9  4  1 17  5 18 16  3  3  3  3 18 20  3 19 21
  5 16 20 14 21 15 17]"
12100,342,1.0,8,2,66.9953076839447,5.0801682472229,6901,48912,315374,2522066,"[ 2  1  3  0  0  3  4  3  2  3  0  1  0  2  1  2  5  0  2  2  0  4  7  7
  3  7  0  1  5  2  3 10  4  4  5  8  2 13  9  0  1  3  5  8  9  3  1 15
  3  2 10  3 10 17  2 15  9  5 12 18  1  3  3  1 21 17  1  2 20  0 19 15
  3  3 23 14 21 15 17]"
12200,342,1.0,8,2,67.49009251594543,4.947848320007324,6958,49312,317782,2541030,"[ 2  1  3  0  0  3  3  3  1  3  1  1  0  2  1  1  1  2  2  2  0  3  0  3
  2  3  5  1  0  2  3 10  4  4  5  8  2 12  9  0  1  3  3  3  7  3 14 15
  0  1  9  3 10 17  2 11 11  2 12 17  3 17  1  1 21  2  1 17 20  4 16 14
  1  3  1 14 21 15 17]"
12300,342,1.0,8,2,67.99410271644592,5.040102005004883,7009,49712,320227,2560349,"[ 2  1  3  0  0  3  0  3  1  3  3  0  0  2  1  2  5  2  2  2  0  0  6  0
  2  3  0  1  4  7  3 10  4  4  5  8  3  4  0  0  1  3  2  3  9  2 16 18
  0 11  3  3 10 17  2 11 11  3  0 17  0 17 19  1 23 16  4  3 20  0 16 18
  1  0 21 14 21 15 17]"
12400,342,1.0,8,2,68.50565695762634,5.115542411804199,7067,50112,322682,2579743,"[ 2  1  3  0  0  3  3  3  0  2  2  3  0  2  1  2  1  1  2  2  0  1  5  7
  2  8  6  5  7  7  3 10  4  4  5  8  3  1  0  0  1  3  2  6  9  2 15  0
  4 14  3  3 10 17  1  2 11  5 15 17  0 19 20  1 16 16  2  2 21  4  0 18
  0  0 21 14 21 15 17]"
12500,342,1.0,8,2,68.99596357345581,4.903066158294678,7129,50512,324955,2597616,"[ 2  1  3  0  0  3  3  2  3  4  2  3  0  2  1  1  1  1  2  2  0  3  0  0
  2  5  4  5  1  0  3 10  4  4  5  8  2  6  5  0  1  3  2  6  0  2 12 15
  4 17 17  3 10 17  5 16 13  5 15  9  2 23 16  0  1 22  3 22 14  0 22 21
  0 23 17 14 21 15 17]"
12600,342,1.0,8,2,69.5372154712677,5.4125189781188965,7182,50912,327577,2618378,"[ 2  1  3  0  0  3  1  1  2  0  2  2  0  2  1  2  2  4  2  2  0  3  6  5
  3  3  5  5  2  5  3 10  4  4  5  8  2  6 10  0  1  3  4  2  0  1  9 10
  3 17 15  3 10 17  4 13 13  5 15  3  2 22 21  5 20  3  3 15  3  1 22 16
  2 21  3 14 21 15 17]"
12700,342,1.0,8,2,70.08702206611633,5.498065948486328,7226,51312,330225,2639282,"[ 2  1  3  0  0  3  4  2  2  1  3  3  0  2  1  2  2  4  2  2  0  3  5  5
  4  0  4  1  7  1  3 10  4  4  5  8  1  0  9  0  1  3  1  5  9  4 14  0
  1 12 15  3 10 17  2 15 17  5  2  2  3 19 21  5 20  0  4 23 18  5 21 22
  1 15 20 14 21 15 17]"
12800,342,1.0,8,2,70.58866548538208,5.016434192657471,7288,51712,332576,2657855,"[ 2  1  3  0  0  3  4  0  2  5  0  1  0  2  1  2  1  4  2  2  0  3  0  5
  1  0  7  5  4  1  3 10  4  4  5  8  5  4  9  0  1  3  1 13 13  2 14 14
  1 12 14  3 10 17  2 18  2  1 11  2  1 18 18  1 20  0  2 20 16  1 17 15
  1 16  1 14 21 15 17]"
12900,342,1.0,8,2,71.12147760391235,5.328121185302734,7347,52112,334823,2675561,"[ 2  1  3  0  0  3  5  0  2  5  0  1  0  2  1  4  4  1  2  2  0  4  0  5
  5  0  7  5  5  6  3 10  4  4  5  8  4 10  3  0  1  3  5  3  4  2 14 17
  1 12 14  3 10 17  2 12 17  1  2  2  1 18 23  2  0  0  0 23  0  1 17 17
  0 16  2 14 21 15 17]"
13000,342,1.0,8,2,71.64192533493042,5.204477310180664,7411,52512,337076,2693354,"[ 2  1  3  0  0  3  5  2  2  5  0  3  0  2  1  5  2  4  2  2  0  0  2  3
  0  0  4  5  8  6  3 10  4  4  5  8  4 10  2  0  1  3  5 12  4  2 15 17
  1 12 16  3 10 17  4 12 17  3  1 13  0 18 14  1 22  0  1 23  0  0 17 17
  3 16  2 14 21 15 17]"
13100,342,1.0,8,2,72.19904518127441,5.571198463439941,7470,52912,339488,2712388,"[ 2  1  3  0  0  3  4  3  2  5  0  1  0  2  1  4  2  7  2  2  0  0  2  0
  2  8  6  2  8  0  3 10  4  4  5  8  0 13  6  0  1  3  2 10  4  2 15 13
  5  2 11  3 10 17  4 15 16  4  1 13  5  1 21  1 20 17  0  2 22  5 20 22
  3 19 15 14 21 15 17]"
13200,342,1.0,8,2,72.69474482536316,4.956996440887451,7534,53312,341801,2730687,"[ 2  1  3  0  0  3  1  3  2  0  3  2  0  2  1  4  3  7  2  2  0  5  2  0
  0  7  6  3  3  5  3 10  4  4  5  8  0  2  9  0  1  3  1 10  4  2 15 17
  5 15 11  3 10 17  2 15 16  4  1 14  5 22 18  2 20 15  1  0 14  5 20 22
  3  1 23 14 21 15 17]"
13300,342,1.0,8,2,73.20774245262146,5.129976272583008,7589,53712,344295,2750344,"[ 2  1  3  0  0  3  4  3  0  0  1  3  0  2  1  2  2  1  2  2  0  2  2  0
  0  7  2  3  8  8  3 10  4  4  5  8  2  2  0  0  1  3  0 10  4  2  1 10
  5 14  1  3 10 17  4 15  0  5 14 12  1 22  0  0 20  3  5  0 17  5  2 16
  3 17  0 14 21 15 17]"
13400,342,1.0,8,2,73.70618486404419,4.984424114227295,7639,54112,346739,2769600,"[ 2  1  3  0  0  3  0  3  3  1  3  1  0  2  1  4  8  1  2  2  0  5  1  8
  2  5  2  5  6  4  3 10  4  4  5  8  3  2  1  0  1  3  1 13  1  2 12 17
  3  3  3  3 10 17  1 14 12  2  3 12  5 20  2  2 19  3  1 18  0  5  1  3
  1 20  0 14 21 15 17]"
13500,342,1.0,8,2,74.1817479133606,4.7556304931640625,7691,54512,348988,2787471,"[ 2  1  3  0  0  3  4  3  2  2  3  1  0  2  1  4  5  1  2  2  0  4  1  5
  2  0  2  0  6  1  3 10  7  4  5  8  4  2  1  0  1  3  1  3  3  2 12 15
  1 13 11  3 10 17  2 10 12  2  0  0  1 20  2  0 19  3  2 18  0  5  1 14
  1  1 23 14 21 15 17]"
13600,342,1.0,8,2,74.6965720653534,5.1482415199279785,7751,54912,351557,2807645,"[ 4  0  2  0  0  3  4  2  1  2  3  1  0  2  1  4  5  1  2  2  0  1  1  8
  0  2  6  5  3  1  3 10  7  4  5  8  4  0  2  0  1  3  5 10  1  2 18 15
  3  1 13  3 10 17  5 10  0  2  0 11  1  2 18  0 22 21  0  3 23  3 23 22
  5 23 20 14 21 15 17]"
13700,342,1.0,8,2,75.19636964797974,4.997975826263428,7814,55312,353969,2826709,"[ 0  0  2  0  0  3  1  0  1  2  3  1  0  2  1  4  1  1  2  2  0  4  5  0
  4  3  5  0  2  1  3 10  7  4  5 13  4  0  8  0  1  3  5  2 12  0 13 16
  3  1 13  3 10 17  5 10  3  2  0 12  0 23 15  0  2 21  0  3 23  4 19 22
  5 23 20 14 21 15 17]"
13800,342,1.0,8,2,75.67947030067444,4.8310065269470215,7875,55712,356313,2845157,"[ 3  0  2  0  0  3  4  2  1  2  3  1  4  1  3  1  1  1  2  2  0  4  1  4
  4  3  8  0  2  1  3 10  7  4  5 13  4  0  8  0  1  3  5 13 12  0  3 17
  3  3 11  3 10 17  3 17  3  3  9 16  4 23  0  4 15 21  0  3  0  2 21  3
  5 21  0 14 21 15 17]"
13900,342,1.0,8,2,76.17134094238281,4.91870641708374,7936,56112,358660,2863735,"[ 1  3  2  0  0  3  4  2  1  2  3  1  4  1  3  4  3  1  2  2  0  4  0  5
  4  5  7  0  2  1  3 10  7  4  5 13  4  5  8  0  1  3  5  3  7  3 15 17
  3 14 11  3 10 17  3 17  0  4  9 15  4  2 14  4  2 21  1  3 18  0 16 18
  0 21 20 14 21 15 17]"
14000,342,1.0,8,2,76.67187643051147,5.005354881286621,7997,56512,361106,2883013,"[ 5  3  2  0  0  3  1  2  1  2  3  1  5  3  2  1  0  1  2  2  0  3  8  2
  4  4  4  0  2  1  3 10  7  4  5 13  0  4 12  0  1  3  5  3  7  5 13  1
  5 17 12  3 10 17  4  3  0  0  9 10  4  2  1  3 17 21  1  3  1  0 16 22
  0 17 22 14 21 15 17]"
14100,342,1.0,8,2,77.14744138717651,4.755649566650391,8063,56912,363345,2900698,"[ 5  3  3  0  0  3  1  3  0  2  3  1  5  3  2  1  3  1  2  2  0  3  8  3
  4  5  3  0  2  1  3 10  7  4  5 13  4  8 12  0  1  3  2  3  7  5 17  3
  5 17 15  3 10 17  0 16  3  0  1 10  0  2 16  3  3 15  0  3 17  3 16 23
  0  0 22 14 21 15 17]"
14200,342,1.0,8,2,77.64686036109924,4.994189739227295,8112,57312,365792,2919984,"[ 1  3  0  0  0  3  1  1  1  2  3  1  5  3  0  0  4  1  2  2  0  4  4  3
  4  4  3  0  2  1  3 10  7  4  5 13  4  8 12  0  1  3  2  3  3  3 11  3
  5 11  0  3 10 17  0 18 18  0  2 10  4  0 14  4  3  2  0 16 17  4 15 14
  5 17 22 14 21 15 17]"
14300,342,1.0,8,2,78.11494612693787,4.6808576583862305,8173,57712,368004,2937440,"[ 2  3  0  0  0  3  1  3  2  2  3  1  0  0  1  1  7  8  2  2  0  2  0  3
  1  4  1  0  2  1  3 10  7  4  5 13  4  8  5  0  1  3  5  3  9  3  1  3
  2 15  0  3 10 17  2 18 10  2 12 17  4  0 22  2  2 19  1 23 17  4 20 16
  1 17  3 14 21 15 17]"
14400,342,1.0,8,2,78.62313652038574,5.08190393447876,8227,58112,370477,2956947,"[ 1  3  0  0  0  3  4  1  2  2  3  1  4  2  1  1  7  8  2  2  0  4  5  7
  0  4  8  0  2  1  3 10  7  4  5 13  2  7  8  0  1  3  0 11  6  0  1  3
  2 18  0  3 10 17  4 18 12  1 17 11  4 18 21  4 15 16  2  2 17  1 19 22
  2 17 15 14 21 15 17]"
14500,342,1.0,8,2,79.1088457107544,4.857091903686523,8287,58512,372751,2974869,"[ 4  3  0  0  0  3  0  2  3  2  3  1  2  2  1  2  5  2  2  2  0  1  4  0
  5  6  8  0  2  1  3 10  7  4  5 13  1  9  5  0  1  3  0  7  8  0  1 17
  3 15  0  3 10 17  4 13 12  0  2 14  1  3 18  4 18 20  2  3  0  0 21 20
  2 23 16 14 21 15 17]"
14600,342,1.0,8,2,79.60114812850952,4.9230241775512695,8352,58912,375091,2993383,"[ 1  3  0  0  0  3  2  2  0  2  3  1  1  2  0  1  0  1  2  2  0  3  8  0
  4  8  7  0  2  1  3 10  7  4  5 13  2  9  5  0  1  3  0  7  0  1 18 17
  3  9  2  3 10 17  4  0 18  0 16 14  5  2 16  4  1 20  4 19  1  0  2  1
  0 14 16 14 21 15 17]"
14700,342,1.0,8,2,80.09564185142517,4.944937229156494,8409,59312,377490,3012376,"[ 0  0  1  0  0  3  5  0  0  2  3  1  2  1  3  3  0  7  2  2  0  2  1  0
  2  0  6  0  2  1  3 10  7  4  5 13  2  9  9  0  1  3  4  7  3  1 12  3
  5 12  2  3 10 17  0 11  0  0  0  0  0  0 17  4  1  1  4 15  1  0  2 20
  4 14  1 14 21 15 17]"
14800,342,1.0,8,2,80.60671162605286,5.1106977462768555,8467,59712,379943,3031701,"[ 3  0  1  0  0  3  3  0  2  2  3  1  2  0  1  1  0  1  2  2  0  0  4  0
  2  5  7  0  2  1  3 10  7  4  5 13  4  0  1  0  1  3  3  6  3  2 12  9
  3  2  2  3 10 17  0 14 15  5  3  3  5  3 19  3  1  2  5 14  1  4  2 14
  5  0  2 14 21 15 17]"
14900,342,1.0,8,2,81.12051320075989,5.12803316116333,8523,60112,382420,3051197,"[ 3  3  3  0  0  3  2  1  3  2  3  1  3  0  0  0  6  1  2  2  0  3  8  0
  5  0  4  0  2  1  3 10  7  4  5 13  5 12  2  0  1  3  0 13  6  3 12 15
  3 15  9  3 10 17  4  2  9  0 17 11  5 21 18  5  1  2  2 22 21  5  0 19
  1 20 15 14 21 15 17]"
15000,342,1.0,8,2,81.62166714668274,5.011539459228516,8581,60512,384743,3069569,"[ 3  2  1  0  0  3  2  1  3  2  3  1  5  3  2  2  8  5  2  2  0  3  8  7
  5  4  8  0  2  1  3 10  7  4  5 13  2  5  4  0  1  3  3 13  2  2 12 15
  4 15  9  3 10 17  2 16  9  0  1  3  5 21  3  1 20 14  5 22 15  5 18 19
  1 17 15 14 21 15 17]"
15100,342,1.0,8,2,82.12058544158936,4.989182949066162,8651,60912,386947,3086860,"[ 2  0  1  0  0  3  2  1  2  2  3  1  1  1  2  2  8  5  2  2  0  1  8  7
  2  4  8  0  2  1  3 10  7  4  5 13  2  9  5  0  1  3  2  6  2  0 16 15
  4 17 17  3 10 17  4 13  9  4  1  3  5  1 15  3  1 14  3  3 15  5 21 21
  5 22 15 14 21 15 17]"
15200,342,1.0,8,2,82.59241771697998,4.71832275390625,8712,61312,389209,3104720,"[ 2  1  0  0  0  3  3  1  2  2  3  1  2  3  0  0  8  4  2  2  0  0  1  7
  3  7  8  0  2  1  3 10  7  4  5 13  4  9 13  0  1  3  4  7  2  0  9 17
  5  2 17  3 10 17  4 13 16  2  9 13  5  1 17  1 17 14  4  3 21  0 21  1
  3 14 20 14 21 15 17]"
15300,342,1.0,8,2,83.0712149143219,4.7879719734191895,8777,61712,391422,3122136,"[ 5  1  3  0  0  3  4  3  3  2  3  1  0  3  2  3  2  6  2  2  0  0  3  7
  3  7  7  0  2  1  3 10  7  4  5 13  1  0 13  0  1  3  4  7  1  3  9 11
  5 11 17  3 10 17  1 13 13  2  3 17  0 15 20  1  1 14  4 21  2  2 21  1
  3 14 22 14 21 15 17]"
15400,342,1.0,8,2,83.56222915649414,4.910142421722412,8833,62112,393774,3140617,"[ 3  0  3  0  0  3  5  0  3  2  3  1  2  2  0  2  8  4  2  2  0  2  4  8
  2  7  6  0  2  1  3 10  7  4  5 13  2  0 13  0  1  3  3  9  1  5 16 13
  1 14 18  3 10 17  0  1 11  0 10 17  1 15 15  0  2 14  1 23 21  1 16  2
  2 14 22 14 21 15 17]"
15500,342,1.0,8,2,84.03267812728882,4.704489707946777,8900,62512,395970,3157845,"[ 1  3  3  0  0  3  1  2  3  2  3  1  3  1  3  3  3  3  2  2  0  2  1  8
  0  7  6  0  2  1  3 10  7  4  5 13  0  6  1  0  1  3  3  3  6  1 16 13
  0 14 17  3 10 17  0  1  2  0 10 17  4 22 15  0  2 14  1 23 21  1 23 16
  0  1 18 14 21 15 17]"
15600,342,1.0,8,2,84.5377733707428,5.050952434539795,8955,62912,398417,3177152,"[ 1  3  0  0  0  3  0  2  3  2  3  1  1  0  3  1  8  0  2  2  0  2  3  6
  3  0  0  0  2  1  3 10  7  4  5 13  3  7  3  0  1  3  2  4 10  0 15 10
  4 13 17  3 10 17  0  9  2  1  0 15  5 19 15  0  2  3  1 15 16  4  2 21
  2  1 18 14 21 15 17]"
15700,342,1.0,8,2,85.0118772983551,4.741039276123047,9013,63312,400629,3194625,"[ 1  3  2  0  0  3  0  2  2  2  3  1  2  2  2  3  7  0  2  2  0  3  1  7
  3  4  7  0  2  1  3 10  7  4  5 13  0  7  3  0  1  3  1  8  1  1  2  1
  4 13  3  3 10 17  1 11  9  4  2 11  3  3 15  2  2 14  1 17 15  2 17 15
  2 19 15 14 21 15 17]"
15800,342,1.0,8,2,85.4739408493042,4.620635509490967,9078,63712,402765,3211440,"[ 5  3  2  0  0  3  5  3  2  2  3  1  2  2  0  3  3  0  2  2  0  0  3  7
  5  4  5  0  2  1  3 10  7  4  5 13  0  7 11  0  1  3  1  8 10  5 18 15
  0  2  3  3 10 17  1 11 11  5  2  2  5 20  0  1 15 14  0 17 23  2 14 21
  2 15 18 14 21 15 17]"
15900,342,1.0,8,2,86.01021122932434,5.362703800201416,9130,64112,405378,3232229,"[ 1  0  0  0  0  3  0  3  0  2  3  1  3  2  0  3  0  5  2  2  0  3  0  4
  4  3  8  0  2  1  3 10  7  4  5 13  2  0 10  0  1  3  2  9 10  3 11 15
  0  3 17  3 10 17  2 11 18  5 14 17  0  3  0  1 21 19  1 17 23  5 18 15
  2 18 23 14 21 15 17]"
16000,342,1.0,8,2,86.49791121482849,4.876999855041504,9181,64512,407668,3250360,"[ 5  3  0  0  0  3  2  0  0  2  3  1  3  2  0  5  0  3  2  2  0  1  6  6
  3  8  8  0  2  1  3 10  7  4  5 13  2 12  5  0  1  3  4  5 13  4  1  9
  0  3  3  3 10 17  2  1 18  5  9  1  2  3  0  1 23 17  1 17  3  3 15 16
  0  1 23 14 21 15 17]"
16100,342,1.0,8,2,87.046865940094,5.489547252655029,9233,64912,410032,3268819,"[ 0  3  0  0  0  3  2  0  1  2  3  1  1  3  2  0  1  4  2  2  0  0  2  0
  4  8  8  0  2  1  3 10  7  4  5 13  0 12  4  0  1  3  4  6 12  1 17 17
  0  9  9  3 10 17  2  3 14  0  9 18  2 15 20  1 18 17  3 17 19  4 15 17
  5 22 23 14 21 15 17]"
16200,342,1.0,8,2,87.51463150978088,4.6776556968688965,9298,65312,412222,3286099,"[ 0  1  3  0  0  3  3  0  1  2  3  1  0  2  2  2  8  2  2  2  0  3  5  7
  5  8  1  0  2  1  3 10  7  4  5 13  0  3  5  0  1  3  5 13 10  1 15 17
  0 16 11  3 10 17  2  3  9  3  3 13  5 15  2  3 22  3  3 17 19  4 15 17
  5  0 20 14 21 15 17]"
16300,342,1.0,8,2,88.0098979473114,4.952664375305176,9353,65712,414608,3304992,"[ 2  1  3  0  0  3  3  0  2  2  3  1  4  0  2  4  0  8  2  2  0  2  8  7
  5  8  0  0  2  1  3 10  4  4  5 13  3  3  5  0  1  3  5  8  3  3 11 12
  3 16 13  3 10 17  1  3  0  2  3 17  5 15  2  4 20 21  4 17  3  4  1 17
  4 22 20 14 21 15 17]"
16400,342,1.0,8,2,88.49590563774109,4.860076904296875,9409,66112,416847,3322779,"[ 2  1  3  0  0  3  0  0  0  5  1  1  3  3  2  4  2  8  2  2  0  0  8  5
  3  6  7  0  2  1  3 10  4  4  5 13  2  7 13  0  1  3  1  1  3  0 10 12
  0 13 13  3 10 17  2  1  3  0  0 15  5 20 22  4 15 23  2 21 18  0  1 14
  4 22 20 14 21 15 17]"
16500,342,1.0,8,2,88.97838878631592,4.824831485748291,9470,66512,419148,3340974,"[ 2  1  3  0  0  3  5  3  3  5  1  1  5  2  1  0  8  8  2  2  0  4  1  5
  2  6  0  0  2  1  3 10  4  4  5 13  2  7 13  0  1  3  1  5  4  4  0 12
  1 11 12  3 10 17  3 14  2  0  0 16  5 20 23  3 20 18  0 18 22  2  1  0
  4 22 21 14 21 15 17]"
16600,342,1.0,8,2,89.51748251914978,5.390937328338623,9515,66912,421862,3362495,"[ 2  1  3  0  0  3  3  1  2  2  3  3  2  2  1  0  5  4  2  2  0  3  5  5
  3  8  8  0  2  1  3 10  4  4  5 13  5  2  0  0  1  3  4  5 13  0  0 12
  1 11 15  3 10 17  4 16 16  4  0 16  0 23 20  3 15 22  0  0  2  0  0  0
  4 17 17 14 21 15 17]"
16700,342,1.0,8,2,90.00309753417969,4.856150150299072,9577,67312,424181,3380773,"[ 2  1  3  0  0  3  2  2  3  2  1  1  0  3  1  3  5  5  2  2  0  3  2  6
  3  8  8  0  2  1  3 10  4  4  5 13  5  6  2  0  1  3  3  5 13  3 15  0
  5  1  2  3 10 17  4 16  0  5 18  9  1 20  1  4 20  3  3  1 20  4  0 16
  3  2 17 14 21 15 17]"
16800,342,1.0,8,2,90.50575256347656,5.02655029296875,9631,67712,426559,3399672,"[ 2  1  3  0  0  3  2  0  2  2  3  1  5  0  1  3  4  1  2  2  0  3  8  6
  3  1  7  0  2  1  3 10  4  4  5 13  1  6 11  0  1  3  5  5 10  3  3  9
  0  1 10  3 10 17  0 16 17  5 16 13  2 20  1  0 20  3  2 19 20  4 18  2
  4  2 17 14 21 15 17]"
16900,342,1.0,8,2,90.97037601470947,4.646234512329102,9686,68112,428664,3416357,"[ 2  1  3  0  0  3  2  0  0  0  3  2  3  0  1  2  0  2  2  2  0  4  5  6
  3  6  4  0  2  1  3 10  4  4  5 13  5  6  7  0  1  3  0  5  7  3 16 15
  2 15 12  3 10 17  4 16  0  5 18  9  4 16  1  3 18 18  1 19 20  5  1 20
  4  2  0 14 21 15 17]"
17000,342,1.0,8,2,91.48848152160645,5.181055068969727,9740,68512,431152,3436009,"[ 2  1  3  0  0  3  0  0  1  2  2  1  4  0  1  2  8  2  2  2  0  3  6  6
  2  6  1  0  2  1  3 10  4  4  5 13  0  2  2  0  1  3  5  5  3  2  3 15
  5 15  1  3 10 17  3 16 10  5 18  9  5  1 15  5 19  2  1 21 17  1 18  2
  5  3 16 14 21 15 17]"
17100,342,1.0,8,2,91.98020625114441,4.917247295379639,9801,68912,433557,3455016,"[ 2  1  3  0  0  3  1  1  0  5  2  1  4  0  2  4  4  8  2  2  0  3  6  6
  3  6  7  0  2  1  3 10  4  4  5 13  0  9  9  0  1  3  3  8  3  0 13 15
  2 15 12  3 10 17  2 16 10  2 18 14  3 20  3  1  2 15  0 20 17  3 18 17
  4 18 16 14 21 15 17]"
17200,342,1.0,8,2,92.46090292930603,4.806966781616211,9862,69312,435814,3472799,"[ 2  1  3  0  0  3  5  2  2  0  1  3  1  2  1  1  1  8  2  2  0  1  3  6
  3  6  4  0  2  1  3 10  4  4  5 13  3  0  0  0  1  3  2  5  8  0 13 15
  1 15 13  3 10 17  2 10 18  2 13 14  4 16 14  1 14 15  0  2 17  4  2  1
  4 23 16 14 21 15 17]"
17300,342,1.0,8,2,92.94426012039185,4.833571910858154,9920,69712,438138,3491098,"[ 2  1  3  0  3  1  5  0  1  3  3  1  1  2  1  3  1  6  2  2  0  0  3  0
  4  1  8  0  2  1  3 10  4  4 11 13  2 12  7  0  1  3  0  5  2  1 13 12
  0 15  3  3 10 17  1 14  0  3 13 10  4 23 14  1 14 15  1  1 17  4 15 19
  1 19 16 14 21 15 17]"
17400,342,1.0,8,2,93.43573689460754,4.914767742156982,9971,70112,440508,3509794,"[ 2  1  3  3  2  1  5  0  1  5  3  3  2  1  1  1  1  1  2  2  0  0  3  0
  2  6  1  0  2  1  3 10  4  4 11 13  3  0  8  0  1  3  2  5  9  0 15 10
  4 15 14  3 10 17  0 12 12  2  9  1  5 23 22  3  2  1  2  3 17  1  3  1
  5 19 15 14 21 15 17]"
17500,342,1.0,8,2,93.92626523971558,4.905283451080322,10030,70512,442873,3528445,"[ 2  1  3  3  1  0  0  0  1  4  2  3  3  0  1  3  7  5  2  2  0  0  3  0
  2  1  1  0  2  1  3 10  4  4 11 13  3  0 13  0  1  3  1  5  5  0 14 16
  4 15 10  3 10 17  3 12 10  5 16 15  3  2 18  3 22  1  2  3 20  1 20 23
  5 19  2 14 21 15 17]"
17600,342,1.0,8,2,94.43342018127441,5.071549415588379,10093,70912,445273,3547335,"[ 2  1  3  3  1  2  1  2  2  0  2  2  0  3  2  3  0  4  2  2  0  0  3  0
  1  0  5  0  2  1  3 10  4  4 11 13  3 12  1  0  1  3  5 12  9  3  9  0
  3 10 12  3 10 17  2  3 18  5 16 15  3 14 18  3 20  1  3  3 20  3 18 17
  1 16  2 14 21 15 17]"
17700,342,1.0,8,2,94.90306115150452,4.696409702301025,10160,71312,447391,3564223,"[ 2  1  3  3  2  2  2  2  1  0  2  0  2  2  2  1  0  8  2  2  0  0  3  0
  5  0  7  0  2  1  3 10  4  4 11 13  1 11 10  0  1  3  5 12  9  1 14 18
  3 10 16  3 10 17  0 11 17  5 16 15  3 14  0  5 15 23  1  3 20  3 18 14
  1 16 20 14 21 15 17]"
17800,342,1.0,8,2,95.38569045066833,4.826292991638184,10220,71712,449629,3581946,"[ 2  1  3  3  0  1  2  3  1  3  3  2  5  2  2  4  7  8  2  2  0  0  3  0
  5  5  3  0  2  1  3 10  4  4 11 13  3 11 10  0  1  3  5  5  2  4 16 18
  3  3 17  3 10 17  5  9 13  5  1  1  3 17  0  5 15  2  1  3 20  3 15 17
  1 16 23 14 21 15 17]"
17900,342,1.0,8,2,95.8758385181427,4.901480674743652,10282,72112,451913,3599936,"[ 2  1  3  3  1  1  2  2  0  3  2  2  2  3  2  4  4  2  2  2  0  0  3  0
  5  2  3  0  2  1  3 10  4  4 11 13  3 11  1  0  1  3  0  5  0  4 16 18
  0 14 14  3 10 17  1 10 13  1 16  9  2 17  1  4 14  2  2 18  0  5  3 22
  4 16 18 14 21 15 17]"
18000,342,1.0,8,2,96.31995058059692,4.441120624542236,10344,72512,453931,3615935,"[ 2  1  3  1  1  2  3  0  0  3  3  0  2  1  3  0  3  6  2  2  0  0  3  0
  5  7  5  0  2  1  3 10  8  4 11 13  0 11  1  0  1  3  0 12  0  4  0 18
  4 13 18  3 10 17  1  3 14  1 18  9  4  1  1  1 14  2  0  3 20  3  3 22
  4 21 18 14 21 15 17]"
18100,342,1.0,8,2,96.7951192855835,4.751687049865723,10404,72912,456137,3633337,"[ 1  2  0  0  2  0  5  2  1  3  3  0  2  1  3  0  7  6  2  2  0  0  3  0
  2  7  1  0  2  1  3 10  8  4 11 13  4  7  6  0  1  3  5 10  5  0 16 17
  5 15 14  3 10 17  1  3 13  2 15  3  5 15  2  5  3 22  0  1 15  3 17  1
  2  3 22 14 21 15 17]"
18200,342,1.0,8,2,97.32592868804932,5.308094024658203,10456,73312,458566,3652456,"[ 1  2  0  0  3  0  2  3  2  1  1  3  2  1  3  2  1  2  2  2  0  5  3  6
  0  3  3  0  2  1  3 10  8  4  5 13  4  4  8  0  1  3  5 10  3  4  0 17
  5 15 14  3 10 17  1  3 18  4 12  3  4 15 18  3 15 22  0 22  1  3 15 16
  0 20 15 14 21 15 17]"
18300,342,1.0,8,2,97.82390022277832,4.979715347290039,10511,73712,460982,3671595,"[ 2  0  3  0  3  0  1  3  2  3  1  3  2  1  3  2  7  4  2  2  0  5  1  1
  0  3  5  0  2  1  3 10  8  4  5 13  5  9  5  0  1  3  1 10 11  2  0  9
  5 14 12  3 10 17  0 13 15  0 15 11  0 23 22  0 18 18  0  1  1  5 21 22
  3 18  1 14 21 15 17]"
18400,342,1.0,8,2,98.32869720458984,5.047969818115234,10557,74112,463446,3691088,"[ 5  0  2  0  3  0  1  3  2  2  1  3  0  1  3  5  8  6  2  2  0  5  3  1
  4  2  2  0  2  1  3 10  7  4  5 13  4  6  5  0  1  3  1  7  9  5 17  0
  5  9  1  3 10 17  4  1  0  4 10  2  3 22 16  2 18  3  5  2 19  2 15 17
  4 21 19 14 21 15 17]"
18500,342,1.0,8,2,98.83127212524414,5.025749206542969,10619,74512,465868,3710149,"[ 5  2  2  0  3  0  3  3  2  2  1  3  5  2  3  0  2  4  2  2  0  5  3  3
  2  1  2  0  2  1  3 10  7  4  5 13  4  6  3  0  1  3  4  7  2  0 17 12
  5  9  1  3 10 17  1  3  2  3 10  3  3 22 16  2  1 17  3  2 22  5 19 17
  2  1 19 14 21 15 17]"
18600,342,1.0,8,2,99.31365275382996,4.823806285858154,10679,74912,468187,3728378,"[ 1  1  3  0  3  0  3  3  0  2  1  3  2  3  0  1  1  4  2  2  0  5  6  3
  3  0  1  0  2  1  3 10  7  4  5 13  2  8  3  0  1  3  2  3  9  2  9  1
  5 17  0  3 10 17  4 16  2  3 10 11  4 14  2  3 18 17  5  0 19  1  0  3
  2 14  1 14 21 15 17]"
18700,342,1.0,8,2,99.81434416770935,5.006914138793945,10736,75312,470529,3746948,"[ 3  1  0  0  3  0  0  3  1  2  1  3  2  1  0  2  0  1  2  2  0  0  2  8
  5  0  2  0  2  1  3 10  7  4  5 13  2 11 12  0  1  3  1 12  5  1 15 11
  1 17 13  3 10 17  2 14 16  5 11 13  0 23  1  2 20 15  2  1  0  1 22 21
  1  2 19 14 21 15 17]"
18800,342,1.0,8,2,100.32080626487732,5.0646209716796875,10798,75712,472904,3765674,"[ 3  3  3  0  3  0  0  1  0  2  1  3  2  2  0  2  0  7  2  2  0  5  2  1
  5  5  7  0  2  1  3 10  7  4  5 13  2  1  1  0  1  3  1  5  5  4 15 17
  1  2 16  3 10 17  2 13  1  5  9  3  0  0 17  1 20 17  5 17 17  2 20  3
  4  1 22 14 21 15 17]"
18900,342,1.0,8,2,100.77766346931458,4.568572044372559,10868,76112,475004,3782214,"[ 3  3  0  0  3  0  5  1  0  2  1  3  3  2  1  2  1  7  2  2  0  2  2  6
  5  5  8  0  2  1  3 10  7  4  5 13  3  5  1  0  1  3  4  4  5  5 15 17
  1  3 16  3 10 17  3 13  1  5  9  0  0  0 21  4 20  0  5 18  3  0 20  3
  4  1  2 14 21 15 17]"
19000,342,1.0,8,2,101.2511613368988,4.734978675842285,10936,76512,477191,3799515,"[ 0  3  0  0  3  0  0  3  0  2  1  3  3  2  1  0  7  2  2  2  0  5  8  6
  5  8  0  0  2  1  3 10  7  4  6 13  5  5  1  0  1  3  1  4  5  4  1 17
  2  3 18  3 10 17  3 13  1  1  9  2  3 18 17  0 20  2  5 18 22  1 22 14
  4 17 20 14 21 15 17]"
19100,342,1.0,8,2,101.75812578201294,5.069644451141357,10994,76912,479605,3818555,"[ 4  2  2  5  3  2  0  3  0  2  1  3  5  1  1  5  8  0  2  2  0  5  4  6
  5  3  0  0  2  1  3 10  7  4  6 13  0  5  1  0  1  3  0  4  6  1  1  0
  4  3 18  3 10 17  2 10 15  2  9  0  4 18 16  0 22 14  1 16  1  4 20 20
  4 17 15 14 21 15 17]"
19200,342,1.0,8,2,102.24196934700012,4.838435649871826,11056,77312,481879,3836515,"[ 4  1  2  5  2  2  0  3  0  2  1  3  1  1  2  1  1  0  2  2  0  0  0  2
  5  1  6  0  2  1  3 10  7  4  6 13  1 11 10  0  1  3  1 13  6  1  1  0
  1  3 18  3 10 17  2 12 16  4 18  0  4 15 16  0 15  3  1 16 19  4 20 18
  1 17  3 14 21 15 17]"
19300,342,1.0,8,2,102.74063754081726,4.986681938171387,11111,77712,484254,3855322,"[ 4  1  3  5  1  2  0  3  0  2  1  3  1  3  2  0  6  5  2  2  0  0  0  5
  5  6  2  0  2  1  3 10  7  4  6 13  1  7 10  0  1  3  4 11  6  2  0  0
  5  2 17  3 10 17  2  2 16  1 15  1  2 15 14  4 20  3  4 16 21  2 16 17
  2 16 18 14 21 15 17]"
19400,342,1.0,8,2,103.21543979644775,4.748022556304932,11164,78112,486486,3873001,"[ 2  2  3  5  3  2  0  3  0  2  1  3  1  2  1  3  0  3  2  2  0  2  8  6
  5  6  2  0  2  1  3 10  7  4  6 13  1  3 10  0  1  3  1  4  6  5 10 14
  2  2 13  3 10 17  5 12 16  5 18 15  4 14 19  1  0 14  4  1 21  4 22 22
  0 16 15 14 21 15 17]"
19500,342,1.0,8,2,103.69394898414612,4.785091876983643,11230,78512,488779,3891108,"[ 2  0  0  5  1  2  0  3  0  2  1  3  0  2  1  3  5  4  2  2  0  3  7  0
  3  3  3  0  2  1  3 10  7  4  6 13  3  2 10  0  1  3  1  4 12  3 16  3
  5  2 14  3 10 17  2 14 13  4 18 15  3 20 17  5 15 14  2 22 21  4  2 19
  1  2 20 14 21 15 17]"
19600,342,1.0,8,2,104.25161361694336,5.576646327972412,11278,78912,491152,3909960,"[ 4  0  1  4  1  0  0  3  0  2  1  3  0  3  1  0  5  1  2  2  0  4  7  7
  0  8  3  0  2  1  3 10  7  4  6 13  5  9  3  0  1  3  3  4  4  0 16 11
  3 18 18  3 10 17  3  0 11  1  2 12  0  0 15  5 15 18  3 14 21  2 22 16
  5 22  3 14 21 15 17]"
19700,342,1.0,8,2,104.74238300323486,4.907693862915039,11330,79312,493522,3928727,"[ 3  0  0  4  1  0  0  3  0  2  1  3  3  3  2  2  5  1  2  2  0  4  4  6
  4  6  0  0  2  1  3 10  7  4  6 13  0  5  5  0  1  3  3  1  4  3 15 17
  5 10 17  3 10 17  4 13  3  5 13 13  0  0 15  0 15  2  2 19 21  2 14 23
  1 22 17 14 21 15 17]"
19800,342,1.0,8,2,105.2208354473114,4.784524440765381,11393,79712,495706,3946115,"[ 3  0  0  0  0  0  0  3  0  2  1  3  3  0  3  0  1  1  2  2  0  1  4  6
  5  5  6  0  2  1  3 10  7  4  6 13  2  5  9  0  1  3  0  1 12  3 11 15
  4 10 15  3 10 17  1 17  1  2 12 18  0  0 22  3 18 14  4 19 22  2 14 23
  3 22 14 14 21 15 17]"
19900,342,1.0,8,2,105.72658920288086,5.05753755569458,11450,80112,498165,3965512,"[ 3  2  0  4  0  0  0  3  0  2  1  3  3  0  0  0  4  3  2  2  0  0  4  1
  2  4  1  0  2  1  3 10  7  4  6 13  5  5  8  0  1  3  1  9  5  0 17 12
  1 10 16  3 10 17  1 17 17  5 16  1  2 22 15  2  2 20  5 15 20  2 23 18
  5 14  0 14 21 15 17]"
20000,342,1.0,8,2,106.25880908966064,5.322198867797852,11504,80512,500692,3985516,"[ 5  1  3  2  3  3  0  3  0  2  1  3  0  2  1  5  7  2  2  2  0  0  6  1
  5  4  3  0  2  1  3 10  7  4  6  8  5  9 11  0  1  3  3  2  1  4  1 12
  0 10  0  3 10 17  4  2 11  1 14  1  0  2 15  3  2  2  5 21 17  2 22  2
  0 17 20 14 21 15 17]"
20100,342,1.0,8,2,106.77163743972778,5.128283500671387,11563,80912,503101,4004544,"[ 5  1  1  2  3  0  0  3  0  2  1  3  0  2  1  1  6  1  2  2  0  0  3  8
  2  4  2  5  2  1  3 10  7  4  6  8  1 12 11  0  1  3  5  0 10  0  1  9
  0 10 17  3 10 17  4  3 10  1 10  1  0  2 20  5  3 18  0 14 19  3 22 22
  5 15 14 14 21 15 17]"
20200,342,1.0,8,2,107.26064038276672,4.890029430389404,11623,81312,505452,4022980,"[ 3  1  1  3  2  2  0  3  0  2  1  3  0  2  1  4  0  4  2  2  0  0  0  8
  1  2  2  4  5  5  3 10  7  4  6  8  4  9  7  0  1  3  2  3  6  0  2  9
  1 10 14  3 10 17  4 13  3  1 12  1  4 15  0  5 17 17  5 23 14  3 22 22
  2  2 14 14 21 15 17]"
20300,342,1.0,8,2,107.75665807723999,4.960176944732666,11680,81712,507805,4041620,"[ 2  2  1  5  3  2  0  3  0  2  1  3  0  2  1  0  1  4  2  2  0  2  2  8
  2  2  2  4  5  5  3 10  7  4  6  8  1 10  6  0  1  3  0  8  0  2  2 18
  3  1 17  3 10 17  1 15  2  5  3  1  3 21 21  5 15 15  3 15  0  5 15 17
  3 20 14 14 21 15 17]"
20400,342,1.0,8,2,108.24497556686401,4.883174896240234,11741,82112,510150,4059967,"[ 1  2  1  3  0  3  0  3  0  2  1  3  0  2  1  0  1  3  2  2  0  4  6  8
  2  3  8  5  6  1  3 10  7  4  6  8  3  2 10  0  1  3  5  6  1  0  1 13
  5  1 14  3 10 17  3 12 17  5  3 10  2 15 14  1  0 15  5 23  0  1  2 21
  5 16 14 14 21 15 17]"
20500,342,1.0,8,2,108.745934009552,5.009584426879883,11800,82512,512608,4079377,"[ 5  1  1  5  0  1  0  3  0  2  1  3  0  2  1  0  8  0  2  2  0  4  6  8
  2  4  8  0  6  4  3 10  7  2  2  8  5  9  4  0  1  3  2 10  1  0  0 13
  5 17 15  3 10 17  2 16  9  5  2 13  2 19 20  1  0  1  0  3 16  1 18 16
  2 16 14 14 21 11 17]"
20600,342,1.0,8,2,109.25051140785217,5.045773983001709,11849,82912,515075,4098853,"[ 3  1  1  3  0  3  0  3  0  2  1  3  0  2  1  0  8  8  2  2  0  4  6  8
  5  4  5  1  2  5  3 10  7  3 10  1  3  1 13  0  1  3  1 12  7  4  0 18
  3  2 15  3 10 17  1 12  0  5  3 16  4 19 21  4  3  1  1 16  2  1 16 20
  5 18  0 14 21 11 17]"
20700,342,1.0,8,2,109.76705813407898,5.165467262268066,11898,83312,517586,4118556,"[ 3  2  3  1  3  3  0  3  0  2  1  3  0  2  1  3  5  7  2  2  0  4  6  8
  4  6  7  0  4  4  3 10  7  0 10 10  2  1  2  0  1  3  0  8  7  5 14 16
  3 14  9  3 10 17  1 10  0  5 13 11  2 15 16  2 19  1  3  0 16  5 20 21
  1 20  2 14 21 11 17]"
20800,342,1.0,8,2,110.27772355079651,5.106654167175293,11954,83712,520105,4138357,"[ 3  2  1  4  3  0  0  3  0  2  1  3  0  2  1  0  5  3  2  2  0  4  6  8
  0  4  7  2  0  3  3 10  7  5  2  0  2  2  9  0  1  3  0  2 12  5 14  0
  3 13  2  3 10 17  4  3  2  1 17 11  0 20  3  1 19  1  3 22 20  3  0  2
  1 20  2 14 21 11 17]"
20900,342,1.0,8,2,110.79138541221619,5.136618614196777,12011,84112,522633,4158253,"[ 2  2  1  4  3  1  0  3  0  2  1  3  0  2  1  2  5  7  2  2  0  4  6  8
  2  7  7  1  1  3  3 10  7  4  9 10  3  0 11  0  1  3  3  2  9  4  0 13
  2  2 16  3 10 17  4 13 16  2  2  9  2 16  3  1 21 20  3 19  0  3  2  3
  2 18 15 14 21 11 17]"
21000,342,1.0,8,2,111.29710865020752,5.05723237991333,12069,84512,525092,4177554,"[ 2  2  2  4  3  2  0  3  0  2  1  3  0  2  1  2  4  7  2  2  0  4  6  8
  3  3  1  1  1  8  3 10  7  1 12 10  1  0 11  0  1  3  5  2  9  4 13 12
  4  0 16  3 10 17  1 13 18  3  9  1  1 16  1  2 16 17  4 18 20  5 18  3
  2  2  2 14 21 11 17]"
21100,342,1.0,8,2,111.79311323165894,4.96004581451416,12127,84912,527517,4196663,"[ 5  2  1  2  2  3  0  3  0  2  1  3  0  2  1  5  2  2  2  2  0  4  6  8
  5  6  1  5  6  8  3 10  7  1 12  5  3  2 10  0  1  3  2  0  4  1 13 10
  0 11  2  3 10 17  0 13 18  3  9 11  0 18 14  3 16 19  4 18 23  1  1 14
  3 16  2 14 21 11 17]"
21200,342,1.0,8,2,112.30160212516785,5.084888935089111,12185,85312,529947,4215841,"[ 5  2  1  2  2  0  0  3  0  2  1  3  0  2  1  2  0  4  2  2  0  4  6  8
  4  7  1  2  6  8  3 10  7  1 12  5  5 12 10  0  1  3  4  4  4  4 16 10
  4  3 18  3 10 17  2 10  9  0 18 11  4 23 21  3  2 20  5 23 23  1 16 16
  0  1 20 14 21 11 17]"
21300,342,1.0,8,2,112.8400936126709,5.384914875030518,12235,85712,532597,4236675,"[ 4  3  2  4  1  1  0  3  0  2  1  3  0  2  1  1  4  3  2  2  0  4  6  8
  0  1  7  4  0  6  3 10  7  0  7  9  1  1  9  0  1  3  0  4  5  4 17 15
  5  3  9  3 10 17  0 15 13  4  0  1  4 14 23  1  2  1  5  3 15  2  2 16
  1  1  0 14 21 11 17]"
21400,342,1.0,8,2,113.34297966957092,5.028860569000244,12292,86112,535042,4255879,"[ 0  3  0  0  3  3  0  3  0  2  1  3  0  2  1  3  7  2  2  2  0  4  4  8
  4  5  6  5  0  1  3 10  7  1  7  8  3  0  1  0  1  3  4  4  7  2  1 16
  1  3 12  3 10 17  1  3  9  5  2 14  1  0 19  1 23 19  3  0  0  4  1 18
  5 23 18 14 21 11 17]"
21500,342,1.0,8,2,113.85909581184387,5.161161422729492,12351,86512,537619,4276196,"[ 0  3  0  0  0  3  5  1  3  2  1  3  0  2  1  3  0  2  2  2  0  4  5  8
  4  6  6  3  0  5  3 10  7  4 11  8  3  0  3  0  1  3  1 13  7  2 16 16
  4 11 17  3 10 17  0  3  2  3  2 11  1 18 19  1 15  3  3 15  0  3  3  1
  0 23  3 14 21 11 17]"
21600,342,1.0,8,2,114.38091039657593,5.218145847320557,12409,86912,540161,4296301,"[ 0  3  2  0  0  3  5  1  1  2  1  3  0  2  1  3  7  4  2  2  0  4  5  8
  2  0  7  3  2  8  3 10  7  4 11  8  4  6  0  0  1  3  3  4  1  2 16  3
  4 11 17  3 10 17  0 17 14  3 17 14  3 18 19  1 15 20  5 15 14  3 20  2
  1 20 22 14 21 11 17]"
21700,342,1.0,8,2,114.89678287506104,5.158724784851074,12464,87312,542582,4315284,"[ 4  0  3  0  0  3  5  3  0  2  1  3  0  2  1  3  7  4  2  2  0  4  5  8
  3  5  1  5  2  2  3 10  7  1  1 13  0  6  8  0  1  3  3  4  2  1 12  3
  4 11 15  3 10 17  0  1 14  3  1 14  4 16 18  3 20 20  1  0  1  2 19 15
  1 20  3 14 21 11 17]"
21800,342,1.0,8,2,115.4358777999878,5.390949249267578,12513,87712,545212,4336014,"[ 0  0  3  0  1  3  5  1  0  2  1  3  0  2  1  3  8  6  2  2  0  4  4  8
  2  7  5  2  0  3  3 10  7  4  0  0  1  4  1  0  1  3  1  7  6  1 17 12
  4  2  9  3 10 17  0  1 14  1  0  1  4 15  3  5  0 14  1 15 19  0  2 15
  3 17 22 14 21 11 17]"
21900,342,1.0,8,2,115.92377090454102,4.878931045532227,12571,88112,547589,4354706,"[ 0  0  3  2  3  2  3  0  3  2  1  3  0  2  1  1  8  2  2  2  0  4  4  8
  1  7  3  2  5  4  3 10  7  1 12  0  1  4  1  0  1  3  4  7  0  5  2 12
  2 14  9  3 10 17  1 16 14  1  2 10  2 19 22  3 21 19  1 19 22  0  2  0
  3 18 16 14 21 11 17]"
22000,342,1.0,8,2,116.41361165046692,4.898407459259033,12631,88512,549825,4372255,"[ 0  0  3  0  1  2  3  3  3  2  1  3  0  2  1  1  8  8  2  2  0  4  4  8
  2  7  3  4  2  4  3 10  7  3 12 12  2 13  1  0  1  3  3  0  5  5  3 12
  2 14 14  3 10 17  1  2 11  5 15 10  3 19 22  3 19  1  0 14 15  0 19  0
  4 16  3 14 21 11 17]"
22100,342,1.0,8,2,116.9411997795105,5.275881290435791,12683,88912,552494,4393299,"[ 0  0  3  0  2  1  1  2  0  2  1  3  0  2  1  1  0  1  2  2  0  4  4  8
  0  6  3  1  8  8  3 10  7  5  4 11  2 13  6  0  1  3  4 13  2  5  3 12
  2 14 14  3 10 17  3  0  9  2 15 15  4 15 22  2 19 16  5 14 19  0  0  3
  1 20  0 14 21 11 17]"
22200,342,1.0,8,2,117.44489002227783,5.03690242767334,12746,89312,554818,4411701,"[ 0  0  3  4  2  3  2  2  2  2  1  3  0  2  1  5  6  1  2  2  0  4  4  8
  1  7  3  2  8  8  3 10  7  0  5 10  2 13 13  0  1  3  3  3  1  5 15 15
  0 14 11  3 10 17  3  9  3  2  0 10  5 15 23  2 22 16  5 14 17  2  0 18
  1 22 21 14 21 11 17]"
22300,342,1.0,8,2,117.9437849521637,4.988949298858643,12804,89712,557232,4430839,"[ 0  0  3  4  2  0  0  1  2  2  1  3  0  2  1  3  6  1  2  2  0  4  4  8
  5  4  3  3  8  8  3 10  7  0  5  5  0  0  9  0  1  3  1 12  1  4  0 14
  5 14  2  3 10 17  4 17 18  2 18 15  5 17 23  1 16 15  5  0 19  0  0 20
  5 22 21 14 21 11 17]"
22400,342,1.0,8,2,118.4805428981781,5.367579460144043,12862,90112,559936,4452062,"[ 0  0  3  4  1  3  4  2  2  2  1  3  0  2  1  3  1  6  2  2  0  4  4  8
  1  4  1  3  8  6  3 10  7  3 10  4  1  4  4  0  1  3  1  3  5  3  0 18
  4 12 16  3 10 17  2 17 18  5  0 11  5 17 23  5 16 15  0  2  3  0  2 15
  1 22  0 14 21 11 17]"
22469,343,1.0,7,2,118.8365581035614,5.159640657728997,12900,90388,561689,4465860,"[ 0  0  3  0  1  2  4  2  3  2  1  3  0  2  1  3  1  8  2  2  0  4  4  8
  0  4  8  3  8  6  3 10  7  3 10  7  2  4  4  0  1  3  1  6 11  4  1  1
  1  9 16  3 10 17  0 17 13  1 13 11  5 17 16  2 20  3  2  2  3  0  1 23
  1 23 22 12 21 11 17]"
