generation,fitness,functionality,active_nodes,longest_path,time,gen_time,nc_gens,fitness_evals,graph_evals,node_evals,genotype
0,249.0,0.71875,8,3,0.04991555213928223,49.91555213928223,1,8,96,887,"[ 5  3  3  2  1  2  4  2  3  5  1  3  0  2  3  0  5  6  4  5  0  5  5  5
  1  0  6  3  4  1  0  6  7  3  8 13  3 13  0  0  8  2  4  6  4  3 13 15
  0 11 13  4 12  2  2 10 17  2  1  9  4 14 22  0 21  1  4  3 19  0 17 21
  1  2 22 14 20  6  3]"
100,287.0,0.8125,2,1,0.6328284740447998,5.829129219055176,47,408,5536,20448,"[ 4  3  3  2  1  0  4  2  2  1  0  0  0  2  0  3  3  4  3  8  0  0  0  3
  4  2  8  5  0  6  4  1  7  2 11  1  3  6  0  0  2  2  4 12  8  0 17  2
  4  0 13  4  9 11  5 11 12  4 15 18  1  1  0  3  0 20  3 23 23  4 19 19
  1 21 19  6  8  0  6]"
200,304.0,0.890625,7,4,1.3774528503417969,7.446243762969971,88,808,10989,51000,"[ 0  1  1  2  2  1  4  2  2  2  3  1  0  2  0  4  3  8  1  2  6  0  0  3
  4  8  7  2  4  2  3 13 11  0  6 12  4  0  4  4  8  1  1 11  8  1  0 13
  1 17 16  5  2 14  1 11 14  0  2  1  0 17  3  0 17 23  2  0  1  1 17 18
  0  0 14  6  8 22  3]"
300,311.0,0.90625,6,3,2.1260385513305664,7.485857009887695,142,1208,16130,82328,"[ 2  1  3  0  2  0  4  2  2  3  1  0  0  2  0  5  4  8  2  4  6  0  0  3
  4  8  2  2  1  2  3  6 13  0  2 11  4  9 13  4  3  1  5  6  9  4  2 11
  4 17 12  1  9 18  4 11 14  0  3 11  1 22 22  5 18 19  2 23 17  3 14 17
  0  0 15  6  8 22  6]"
400,332.0,0.984375,9,4,2.792356252670288,6.663177013397217,191,1608,19859,112972,"[ 3  2  3  0  2  0  4  2  2  1  2  2  0  0  1  1  6  4  3  4  3  0  0  3
  3  0  0  2  1  2  2 13 13  2 11 13  0  7 11  0  3  1  0  6  3  3  3  1
  2 16  0  4  9 13  4 11 14  0 11 15  4  3 14  1 18  0  0 17 23  3 18 17
  0  3 21 26  5 22 17]"
500,333.0,0.984375,9,3,3.4439384937286377,6.515822410583496,246,2008,23201,143062,"[ 1  2  2  0  2  0  2  0  2  0  0  1  0  0  1  0  8  4  3  0  3  0  0  3
  2  0  1  2  1  2  3 13 13  3 10  2  2  6  5  0  3  1  4  6  3  1  3  1
  1  1 11  1 16  2  4 11 14  0 11  9  4  3 23  0 18  0  0 17 18  2  1 17
  5  3 18 26  5 22 17]"
600,333.0,0.984375,9,3,4.170502185821533,7.265636920928955,307,2408,26625,173623,"[ 3  0  2  0  2  0  2  0  2  0  2  1  3  3  1  1  5  0  1  8  6  0  0  3
  2  0  8  2  1  2  2 13 13  3  4  7  5  6  5  0  3  1  4  6  1  1 11  1
  1  1  9  2 17 14  4 11 14  2 11  3  4 14  2  2 18  2  0 17 18  4 14 17
  0  3 15 26  5 22 17]"
700,333.0,0.984375,9,3,4.913602113723755,7.430999279022217,370,2808,29893,202953,"[ 3  0  0  0  2  0  2  0  2  0  1  0  0  0  0  2  0  8  5  8  6  0  0  3
  0  6  8  2  1  2  2 13 13  3  0  7  5 13  1  0  3  1  2  6  1  2 15 14
  1 13 10  1 17  9  4 11 14  3  1  3  4 14 19  1 18  2  0 17 18  3 14 17
  0 19 16 26  5 22 17]"
800,333.0,0.984375,9,3,5.609977960586548,6.96375846862793,420,3208,33422,234604,"[ 5  0  0  0  2  0  2  0  2  0  2  3  0  0  0  1  4  8  3  7  4  0  0  3
  2  6  5  2  1  2  2 13 13  2  3  4  1 12  5  0  3  1  2  6  1  2  1 11
  1 16  1  1 13  9  4 11 14  2  9 14  2  1 21  0 22 16  0 17 18  5 23 16
  2  2 16 26  5 22 17]"
900,334.0,0.984375,8,3,6.252151727676392,6.4217376708984375,478,3608,36586,262839,"[ 0  1  3  0  2  0  2  0  2  0  2  1  0  2  3  5  8  8  3  3  3  0  0  3
  4  5  5  2  1  2  2 13 13  0  4  2  2 11  6  0  3  1  2  6  6  5 16 11
  2 16 13  3 11  9  4 11 14  0  1 18  0  1 16  0 14 16  0 17 18  5 17  3
  4 21  2 26 18 22 17]"
1000,334.0,0.984375,8,3,6.878620386123657,6.264686584472656,545,4008,39372,285495,"[ 1  1  3  4  2  0  2  0  2  0  2  1  1  2  3  2  8  8  3  7  1  0  0  3
  0  1  2  2  1  2  3 13 13  5  6  2  3 11 12  0  3  1  2  6  6  5 13 14
  2 10  9  3 18 14  4 11 14  2 17 18  0  1 16  1 14 16  0 17 18  5  3 20
  4 22  2 26 18 22 17]"
1085,339,1.0,10,3,7.405277967453003,6.195971545051125,593,4348,42017,307016,"[ 1  3  0  4  0  0  2  0  2  0  3  1  2  0  1  2  1  6  3  5  8  0  0  3
  0  3  4  2  1  2  2 13 13  3  7  6  5  1 10  0  3  1  2  6  6  0 12 17
  1 10  9  3 16  9  4 11 14  4 17 11  4  0 20  1 23 15  0 17 18  5  3 19
  4 14  3 26 15 22 17]"
1100,339,1.0,10,3,7.499025821685791,6.249856948852539,602,4408,42363,310456,"[ 1  3  0  4  2  0  2  0  2  0  3  1  2  0  1  2  1  6  5  5  8  0  0  3
  0  3  4  2  1  2  2 13 13  3  7  6  5  1 13  0  3  1  2  6  7  0 12 16
  1 10 15  3 16  9  4 11 14  2 17 11  3 14 20  1 23 15  5 17 18  5  3 19
  4 14  3 26 15 22 17]"
1200,339,1.0,10,3,8.05471158027649,5.556857585906982,657,4808,44862,335148,"[ 5  3  0  4  0  2  2  0  2  0  3  1  2  2  2  2  6  6  2  5  5  0  0  3
  5  6  4  2  1  2  2 13 13  3  7  6  0 13 13  0  7  1  4  6  3  5 18 16
  0 13 17  0 16 14  4 11 14  1 11 11  3  0 20  4 20 19  0 17 18  2  0 19
  5 14 22 26 15 22 17]"
1300,339,1.0,10,3,8.61651873588562,5.618071556091309,710,5208,47358,359822,"[ 5  2  0  4  0  2  2  0  2  0  3  1  2  0  1  3  6  7  2  5  4  0  0  3
  5  6  4  2  1  2  3 13 13  3  7  6  1 13 13  0  3  7  2  6  6  3 18  9
  3 17 17  0 17  3  4 11 14  1 11  1  3  0  0  4 20 19  0 17 18  2  0 19
  2 14 17 26  9 22 17]"
1400,339,1.0,10,3,9.147715091705322,5.3119635581970215,771,5608,49696,382923,"[ 3  3  2  4  0  0  2  0  2  0  3  1  5  0  2  3  6  7  2  3  4  0  0  3
  5  2  1  2  1  2  3 13 13  3  7  6  4 12  1  0  7  1  2  6  7  1 18  9
  0 16  0  0 13 14  4 11 14  2 11  2  5  0  0  0  0 19  0 17 18  3  0 22
  5 14 17 26  9 22 17]"
1500,339,1.0,10,3,9.687698364257812,5.399832725524902,820,6008,52068,406338,"[ 0  3  0  4  3  3  2  0  2  0  3  1  5  0  2  3  6  7  2  7  5  0  0  3
  3  0  1  2  1  2  2 13 13  3 12  8  3  6  1  0  7  7  4  6  1  2 17  9
  1 12  0  5 18 15  4 11 14  2  1  2  2  0 18  5  0 23  0 17 18  3  0 15
  1 14 17 26  9 22 17]"
1600,339,1.0,10,3,10.239594221115112,5.518958568572998,875,6408,54392,429336,"[ 2  0  1  2  1  2  2  0  2  0  3  1  0  0  2  3  6  7  1  3  3  0  0  3
  0  7  8  2  1  2  3 13 13  3  4  0  1 12  1  1  7  7  2  6  6  2 12  9
  4 16  3  1 14  3  4 11 14  3 15  2  1 21 20  3  1 18  0 17 18  3 14 14
  3 20 22 26  9 22 17]"
1700,339,1.0,10,3,10.768203735351562,5.286095142364502,922,6808,56656,451764,"[ 0  3  3  0  2  2  2  0  2  0  3  1  3  3  3  3  6  7  2  2  1  0  0  3
  0  7  2  2  1  2  3 13 13  2 11  1  2 10  1  0  3  7  2  1  6  2  1  2
  4  1 17  5 14 10  4 11 14  0  2 18  1 18 18  3 14 17  0 17 18  3 20 23
  3 20 22 26  9 22 17]"
1800,339,1.0,10,3,11.304075717926025,5.358719825744629,975,7208,58979,474745,"[ 3  3  3  3  1  2  2  0  2  0  3  1  1  0  0  3  6  7  2  6  0  0  0  3
  0  6  1  2  1  2  2 13 13  2 11  2  3 11 10  0  3  1  2  1  6  3 10  2
  4  1 17  5 10 10  4 11 14  0 10 17  4 18 21  3 18 20  0 17 18  2 18 23
  3 19 15 26  9 22 17]"
1900,339,1.0,10,3,11.902156591415405,5.980808734893799,1021,7608,61615,500747,"[ 5  1  1  2  3  0  2  0  2  0  3  1  1  0  2  3  6  7  1  4  6  0  0  3
  5  5  4  2  1  2  2 13 13  4 11 11  2 10 10  0  3  1  3 13  6  1  9  2
  4  1  0  4  2 10  4 11 14  2  3 17  4 15  1  1 14  1  0 17 18  5 18 19
  3 14 15 26  9 22 17]"
2000,339,1.0,10,3,12.474106311798096,5.719497203826904,1074,8008,64211,526483,"[ 1  2  1  3  0  0  2  0  2  0  3  1  1  0  1  3  6  7  5  4  6  0  0  3
  4  0  7  2  1  2  2 13 13  4 11  3  0 10  1  0  3  7  3 13  6  1  0  2
  4 17 12  0  1 10  4 11 14  2 12 12  0 15 14  0 14  1  0  3 18  5 18 19
  2  2  0 26  9 22 17]"
2100,339,1.0,10,3,13.029921531677246,5.558152198791504,1121,8408,66646,550609,"[ 5  2  1  0  2  2  2  0  2  0  3  1  2  2  2  3  6  7  0  3  1  0  0  3
  4  8  6  2  1  2  2 13 13  1  9  4  1  8  1  0  3  7  3  6  6  1  0  2
  0 16  2  0  1 10  4 11 14  3 10 11  0 20 14  2 23 23  0 17 18  4  2 17
  1  3  3 26  9 22 17]"
2200,339,1.0,10,3,13.632520914077759,6.025993824005127,1166,8808,69299,576853,"[ 3  1  0  0  1  0  2  0  2  0  3  1  0  1  2  3  6  7  2  7  4  0  0  3
  3  3  4  2  1  2  3 13 13  0 11 13  1  5  4  0 11  7  2  6  1  2  0  2
  3 12  2  5 10  2  4 11 14  5 14 10  3 19 14  2 23 15  0 17 18  0 17  3
  3 16 21 26  9 22  7]"
2300,339,1.0,10,3,14.203738689422607,5.712177753448486,1211,9208,71860,602110,"[ 5  0  2  2  3  3  2  0  2  0  3  1  3  2  2  3  6  7  5  5  0  0  0  3
  3  1  3  2  1  2  3 13 13  0  1 12  1  2 12  0  2  7  2  6  3  4 11 15
  3  3 11  3 15 16  4 11 14  5 12 16  5 21 17  0 14  1  0 17 18  2 17 20
  4 23 21 26  9 22  7]"
2400,339,1.0,10,3,14.786787271499634,5.830485820770264,1260,9608,74223,625603,"[ 1  2  3  2  3  0  2  0  2  0  3  1  1  1  3  3  6  7  5  2  6  0  0  3
  3  1  4  2  1  2  2 13 13  2  3 12  4 13 12  0  7  2  2  6  2  0  0 13
  3  1 11  0 13 15  4 11 14  2  2 18  2 21 17  1 21 22  0 17 18  4 16 21
  4 18  2 26  9 22  7]"
2500,339,1.0,10,3,15.348958253860474,5.621709823608398,1304,10008,76763,650773,"[ 3  2  0  4  0  3  2  0  2  0  3  1  3  1  3  3  6  7  5  2  6  0  0  3
  1  6  8  2  1  2  2 13 13  2  4 11  4  0  0  0  7  2  2  6  6  0 16 13
  3  0 12  5 11 12  4 11 14  1  2 18  5 19  3  3 23 22  0 17 18  0 16 19
  4 21 21 26  9 22  7]"
2600,340,1.0,9,3,15.899269819259644,5.503115653991699,1352,10408,79257,673707,"[ 0  2  2  0  1  2  2  0  2  0  3  1  2  3  3  3  6  7  1  2  5  0  0  3
  1  0  2  2  1  2  2 13 13  2  4  2  4  7  1  0  7  2  0 12  6  2 10 12
  4 11 12  5 12  0  4 11 14  3 18  3  1 18 20  0 22  0  0 17  0  2 19 22
  4 19 16 26  9 22  7]"
2700,340,1.0,9,3,16.388604640960693,4.893348217010498,1410,10808,81546,693863,"[ 2  0  2  2  2  1  2  0  2  0  3  1  0  3  3  3  6  7  1  2  0  0  0  3
  1  0  5  2  1  2  3 13 13  4  2  2  4  2  3  0  7  2  0  3  6  0 10 17
  4 10 12  2  3  2  4 11 14  3 18  1  1 21  1  5 22 14  0 17  0  2 14 23
  3 20  1 26  9 22  7]"
2800,340,1.0,9,3,16.91317367553711,5.24569034576416,1465,11208,83900,714807,"[ 0  0  0  2  0  3  2  0  2  0  3  1  0  0  1  3  6  7  1  7  1  0  0  3
  4  4  5  2  1  2  3 13 13  4  0  2  4  2 11  0  7  2  3  2  5  0  0 10
  4 14  3  4  9 17  4 11 14  5 15 17  5 15 23  0  0 22  0 17  0  2  0 23
  3 15 18 26  9 22  7]"
2900,340,1.0,9,3,17.386746168136597,4.735724925994873,1529,11608,86176,734845,"[ 0  0  0  3  0  0  2  0  2  0  3  1  3  0  1  3  6  7  4  8  8  0  0  3
  0  1  5  2  1  2  3 13 13  2 13  3  4 10 11  0  7  2  1  1  2  0  0 14
  4  9  3  4 10 10  4 11 14  2 15 17  3  1 23  3  0 21  0 17  0  2  1 23
  2  3  3 26  9 22  7]"
3000,340,1.0,9,3,17.912250995635986,5.2550482749938965,1586,12008,88720,757343,"[ 5  0  0  3  0  1  2  0  2  0  3  1  1  0  1  3  6  7  3  8  5  0  0  3
  2  1  5  2  1  2  3 13 13  2  3  6  4  5  5  0  7  2  3  4  8  2 14 13
  1 16  3  4 13 15  4 11 14  3 10  1  3 16 17  3 21 21  0 17  0  5  1 17
  2 15 19 26  9 22  7]"
3100,340,1.0,9,3,18.40069317817688,4.8844218254089355,1638,12408,91010,777622,"[ 2  2  2  3  1  1  2  0  2  0  3  1  3  0  0  3  6  7  4  7  8  0  0  3
  2  1  4  2  1  2  2 13 13  2  3  7  4 13  0  0  7  2  5  9  9  2 16 13
  4  9  1  4 13 15  4 11 14  1 16 17  4  0 22  5 14 21  0 17  0  3  1  2
  0 21 19 26  9 22  7]"
3200,340,1.0,9,3,18.90207266807556,5.013794898986816,1694,12808,93365,798413,"[ 2  2  0  3  1  3  2  0  2  0  3  1  5  0  1  3  4  7  4  3  8  0  0  3
  1  6  4  2  1  2  3 13 13  2  8  7  2 13  3  0  7  2  0  9  0  2  0 16
  0  9 10  5 16 11  4 11 14  1 15 17  4  0 17  3 23 21  0 17  0  5 19 22
  0 21 19 26  9 22  7]"
3300,340,1.0,9,3,19.382058143615723,4.799854755401611,1761,13208,95595,818165,"[ 2  2  0  0  1  1  0  0  0  0  3  1  2  3  2  3  4  7  2  4  6  0  0  3
  1  8  1  2  1  2  3 13 13  1  8 12  5  9 13  0  7  2  3  8  4  2 10 16
  2 12 14  5 16  0  4 11 14  1 15 17  3  3  0  4 16 23  0 17  0  3  1 22
  0 22  0 26  9 22  7]"
3400,340,1.0,9,3,19.879388332366943,4.973301887512207,1815,13608,97950,839083,"[ 2  2  0  1  2  3  5  0  0  0  3  1  5  3  0  3  4  7  1  3  3  0  0  3
  5  8  3  2  1  2  2 13 13  3  8 11  0 11 13  0  7  2  2  8  2  3  1 14
  2 13 18  2 10  0  4 11 14  1 12  1  3 20 20  3 17 18  0 17  0  2 19 15
  0 17 22 26  9 22  7]"
3500,340,1.0,9,3,20.391162633895874,5.117743015289307,1868,14008,100374,860447,"[ 2  2  0  1  1  1  5  0  3  0  3  1  1  1  3  3  4  7  1  3  8  0  0  3
  5  1  5  2  1  2  2 13 13  1  2 12  3 10  4  0  7  2  3  4  2  4  1 10
  4 17 14  3 14 16  4 11 14  5  9  1  1 20 19  1 16 22  0 17  0  1 16 14
  3 16  1 26  9 22  7]"
3600,340,1.0,9,3,20.857804536819458,4.66641902923584,1927,14408,102572,879946,"[ 2  2  0  1  1  3  1  0  0  0  3  1  3  0  1  3  4  7  1  7  2  0  0  3
  5  2  5  2  1  2  3 13 13  3 10 12  4  3  5  0  7  2  4  4  9  3 10 15
  5 17 14  4 14  3  4 11 14  1  2  9  4 19 18  0 16 22  0 17  0  4 23 15
  3  1 21 26  9 22  7]"
3700,340,1.0,9,3,21.36270523071289,5.049006938934326,1980,14808,105031,901722,"[ 2  2  0  1  3  3  1  0  2  0  3  1  3  0  1  3  4  7  1  7  2  0  0  3
  5  2  6  2  1  2  3 13 13  3 10  8  1  8  8  0  7  2  3  2  9  1 16  1
  5 17  0  4  0  2  4 11 14  0  0  1  4 19 23  2 16 22  0 17  0  3 23 15
  3  1 20 26  9 22  7]"
3800,340,1.0,9,3,21.856013298034668,4.933080673217773,2041,15208,107292,921717,"[ 2  2  0  4  1  1  1  3  3  0  3  1  0  1  2  3  4  7  4  2  2  0  0  3
  5  5  1  2  1  2  3 13 13  2  7  6  2 11  8  0  7  2  3  5 11  1  3  1
  0  9  9  1  0  1  4 11 14  2  2  9  4 21 19  2 18 21  0 17  0  3 23 21
  1  1 21 26  9 22  7]"
3900,340,1.0,9,3,22.361587524414062,5.055742263793945,2105,15608,109716,943094,"[ 2  2  0  4  1  2  0  3  0  0  3  1  4  1  1  3  4  7  4  2  1  0  0  3
  5  5  7  2  1  2  3 13 13  2  7  4  2 11  3  0  7  2  1  4 11  2 17  1
  1 12 14  3 13  1  4 11 14  2  9 16  4 22 22  2 18 20  0 17  0  4 20 16
  2 23  3 26  9 22  7]"
4000,340,1.0,9,3,22.855186939239502,4.9359941482543945,2161,16008,112050,963765,"[ 2  2  0  4  0  2  2  3  3  0  3  1  4  3  1  3  4  7  5  1  7  0  0  3
  5  8  8  2  1  2  2 13 13  4  4  5  2  9 12  0  7  2  1  1  1  5 18 18
  3 12 17  3 18  1  4 11 14  2  9 15  0 21 14  4 19 18  0 17  0  4  2  2
  3  2  3 26  9 22  7]"
4100,340,1.0,9,3,23.353389739990234,4.982028007507324,2218,16408,114377,984377,"[ 2  2  0  3  3  2  0  2  3  0  3  1  4  3  1  3  4  7  2  0  4  0  0  3
  5  7  2  2  1  2  3 13 13  5  5  4  2  4  6  0  7  2  1  2  6  0 18 18
  3  1 16  4 18  1  4 11 14  3 14  9  3 21 18  2  0 18  0 17  0  4 21  2
  4  2 20 26  9 22  7]"
4200,340,1.0,9,3,23.83774185180664,4.8435211181640625,2270,16808,116723,1005102,"[ 2  2  0  5  0  2  0  2  3  0  3  1  5  3  1  3  4  7  1  0  3  0  0  3
  5  6  2  2  1  2  2 13 13  5  5  6  2 12  0  0  7  2  2  2  9  3 18  9
  5  0 11  3 12  1  4 11 14  5  0 12  4  3 22  1 20 15  0 17  0  5 20 17
  4  2  2 26  9 22  7]"
4300,340,1.0,9,3,24.340933799743652,5.031919479370117,2324,17208,119050,1025910,"[ 2  2  0  5  0  0  0  0  3  0  3  1  5  1  3  3  4  7  2  2  0  0  0  3
  1  6  7  2  1  2  3 13 13  5  5 10  5  3  5  0  7  2  2  3  1  3  9  9
  1  3 18  4 13 17  4 11 14  0 11 12  1  3 21  5 20 15  0 17  0  2 20 19
  2 20  2 26  9 22  7]"
4400,340,1.0,9,3,24.835751056671143,4.948172569274902,2378,17608,121350,1046266,"[ 2  2  0  1  0  0  1  1  1  0  3  1  5  1  3  3  4  7  1  0  4  0  0  3
  3  1  0  2  1  2  2 13 13  0 10  0  3  0 10  0  7  2  3  2  4  4 11  0
  0 18 11  1 12 18  4 11 14  2 11 18  4  3 14  3 20 19  0 17  0  4 20  0
  1 19 17 26  9 22  7]"
4500,340,1.0,9,3,25.343547821044922,5.077967643737793,2435,18008,123827,1068124,"[ 2  2  0  1  2  1  4  1  0  0  3  1  5  3  3  3  4  7  1  1  3  0  0  3
  1  6  0  2  1  2  3 13 13  2  2  9  2  0 10  0  7  2  3  2  4  3 11  0
  4 11 13  1 12 18  4 11 14  5 13 14  1  0 20  1 21 14  0 17  0  0 21  0
  1 17 17 26  9 22  7]"
4600,340,1.0,9,3,25.88076877593994,5.372209548950195,2489,18408,126336,1090405,"[ 2  2  0  3  1  3  5  2  2  0  3  1  2  1  3  3  4  7  0  7  3  0  0  3
  0  5  0  2  1  2  3 13 13  2  2  7  4  6  3  0  7  2  0  0  5  0 13  2
  3 12 14  2 11 18  4 11 14  3 10 11  3 14 22  5 19 22  0 17  0  4  0 21
  2 15 14 26  9 22  7]"
4700,340,1.0,9,3,26.389686584472656,5.089178085327148,2546,18808,128808,1112323,"[ 2  2  0  3  0  3  5  0  3  0  3  1  4  0  2  3  4  7  5  7  0  0  0  3
  0  1  3  2  1  2  3 13 13  2  8  7  0  9 12  0  7  2  0  2  4  0 15  2
  1 12 13  2 12  3  4 11 14  1  9 15  4 18 22  3 20 22  0 17  0  1  0 21
  2 18 14 26  9 22  7]"
4800,340,1.0,9,3,26.910279273986816,5.205926895141602,2598,19208,131200,1133508,"[ 2  2  0  3  0  3  0  0  3  0  3  1  3  1  0  3  4  7  3  7  0  0  0  3
  4  6  3  2  1  2  3 13 13  2  8  7  1  1  8  0  7  2  3  7  7  3 18  2
  1 10 10  2 14 11  4 11 14  4  0  0  0 18  2  2 14 22  0 17  0  2 23 18
  3 21 17 26  9 22  7]"
4900,340,1.0,9,3,27.403406143188477,4.931268692016602,2661,19608,133584,1154583,"[ 2  2  0  0  2  3  0  0  3  0  3  1  3  1  0  3  4  7  1  1  3  0  0  3
  4  1  3  2  1  2  2 13 13  2  8  7  2  4  8  0  7  2  3  6  7  3  0  2
  3  0 10  2 14 11  4 11 14  5  0  0  3 18  2  2 14  3  0 17  0  2  3 20
  2  0 17 26  9 22  7]"
5000,340,1.0,9,3,27.908309936523438,5.049037933349609,2716,20008,135917,1175180,"[ 2  2  0  2  3  1  0  0  0  0  3  1  0  1  1  3  4  7  2  1  7  0  0  3
  4  4  1  2  1  2  2 13 13  3  3  3  0 12  8  0  7  2  0  5  3  5  0 15
  3 16 10  1 12 11  4 11 14  5 15 15  3 19 22  2 20 20  0 17  0  2 23 20
  0 21 17 26  9 22  7]"
5100,340,1.0,9,3,28.40160608291626,4.932961463928223,2779,20408,138243,1195713,"[ 2  2  0  3  0  1  2  2  0  0  3  1  1  1  1  3  4  7  1  1  5  0  0  3
  0  4  1  2  1  2  2 13 13  5  9  8  0 12  5  0  7  2  0  8 12  2  0 14
  3 11  3  1 16 16  4 11 14  3  3 15  3 21 19  0 22 17  0 17  0  3 23 20
  0  0 22 26  9 22  7]"
5200,341,1.0,8,3,28.89091658592224,4.8931050300598145,2833,20808,140609,1215968,"[ 2  2  0  3  1  1  2  1  0  0  3  1  3  1  2  3  4  7  1  6  5  0  0  3
  0  2  1  2  5  2  3 13 13  3  9 12  4  0 13  0  7  2  1  8  9  4  0 10
  5 15  9  4 12 15  4 11 12  3 17 11  5 15 23  4 22 14  0 17  0  3 23 20
  0  0 22 26  9 22  7]"
5300,341,1.0,8,3,29.352945566177368,4.6202898025512695,2888,21208,142931,1234285,"[ 2  2  0  4  1  1  1  0  0  0  3  1  3  3  3  3  4  7  1  4  1  0  0  3
  0  2  1  0  1  4  3  8  5  1  9 10  5 12  6  0  0 12  1  9  9  4 16 10
  1 17 17  2 12 17  4 11 12  0  2 10  2 23  2  4 14  0  0 17  3  3  2 15
  0 17 22 26  9 22  7]"
5400,341,1.0,8,3,29.77981972694397,4.268741607666016,2953,21608,145032,1250843,"[ 2  2  0  5  1  1  4  1  2  0  3  1  3  2  0  3  4  7  0  3  3  0  0  3
  0  2  1  3  1  5  3 10  5  0  9 13  1  9  6  0  0 12  0  9 12  4 12  9
  4 17 17  2 13 11  4 11 12  3 11 14  2 18 16  4  1  0  0 17  3  5 15 15
  3 17 18 26  9 22  7]"
5500,341,1.0,8,3,30.246825456619263,4.67005729675293,3006,22008,147347,1269223,"[ 2  2  0  1  1  0  4  1  0  0  3  1  3  2  1  3  4  7  1  3  1  0  0  3
  0  2  1  3  7  7  3 13  0  2  7 13  4  7  5  0  0 12  4  6 12  3 12  9
  0 17  9  0 12  2  4 11 12  0 11 11  2 19 18  0  1  3  0 17  3  5 15 15
  3 17 18 26  9 22  7]"
5536,343,1.0,7,2,30.413565397262573,4.631665017869737,3020,22152,148229,1276233,"[ 2  2  0  2  2  0  1  1  0  0  3  1  2  0  1  3  5  7  1  2  1  0  0  3
  0  2  1  3  0  7  3 13 13  2  7  9  2  7 10  0 11 12  3  7 10  3 17 15
  2 17  9  2 12 11  4 11 12  0 11  9  2 15 17  0  1 19  0 17 17  4 21 20
  3 14 21 17  9 22  7]"
