generation,fitness,functionality,active_nodes,longest_path,time,gen_time,nc_gens,fitness_evals,graph_evals,node_evals,genotype
0,129.0,0.34375,8,3,0.006220102310180664,6.217241287231445,0,0,0,0,"[ 3  3  3  0  1  3  5  1  1  3  1  0  1  1  2  2  6  5  4  1  4  1  4  4
  5  7  1  5  1  3  3  9  6  1  6  0  5  2  5  0  6  3  4  1  5  5 13 16
  4 12 11  5 14 13  5 15  1  1 10 12  3 15 15  1 19 16  1 19 22  5 18 19
  2  1 21 19 17  7  9]"
100,310.0,0.90625,7,3,6.08994197845459,60.83719491958618,0,6400,79304,378735,"[ 1  0  0  0  0  3  5  1  1  2  1  1  0  2  1  3  0  6  2  1  3  1  1  5
  5  4  0  5  4  6  0  0  2  3 12  1  4  6 10  2  3  7  3  5  0  1 18 12
  1  9 14  4  1  1  3  1 15  2  2  1  1  3  3  3 19  1  0 16 18  5 23 16
  3 20  0  9 20  8 16]"
200,315.0,0.90625,4,1,12.312625646591187,62.226805686950684,0,12800,161701,777281,"[ 5  3  0  5  2  1  4  2  0  4  1  1  0  2  1  5  0  2  4  3  8  4  8  5
  1  0  7  1  6  3  0  0  2  2  6  6  3  1  0  2 12  5  2  0  7  2  1 18
  4 16 17  5  0  3  1 18  1  1  9 16  1  1  2  0  3  1  1 15 16  4 22  0
  5 16 21  7 14  8 25]"
300,315.0,0.90625,4,1,18.45807409286499,61.45446300506592,0,19200,244414,1153773,"[ 5  2  3  1  2  2  2  2  0  4  1  1  0  2  1  5  6  8  4  5  4  1  6  5
  3  7  8  3  2  0  0  0  2  2  6  0  0  0 13  5  1  3  5  0 10  3 15 17
  3 10  9  3 13  0  4 16 17  2 17 12  2  3 21  0  3  1  5 23 23  1 23 14
  5 20  0  7 14  8 25]"
400,315.0,0.90625,4,1,24.667386531829834,62.09310293197632,0,25600,327556,1533336,"[ 1  2  2  0  0  0  5  3  2  4  1  1  0  2  1  4  8  1  5  6  3  4  5  8
  0  6  3  4  0  2  0  0  2  2  7  5  1 13  4  3  4  7  0  7  4  1 17  9
  2 15  3  0  1  2  0 12 10  0  0 14  2 18 19  0  3  1  0 17 17  1 21 20
  0 20  2  7 14  8 25]"
500,315.0,0.90625,4,1,30.73379611968994,60.66406965255737,0,32000,410666,1911822,"[ 1  2  0  1  2  2  3  2  0  4  1  1  0  2  1  2  7  4  0  0  8  1  6  2
  1  2  7  1  6  5  0  0  2  1  6 11  5 12 11  5  8  7  3  9  6  2 12 13
  5  0 15  2 15  3  4 13  0  0 15 17  0  0 22  0  3  1  1  0 21  1 17 19
  0 20 16  7 14  8 25]"
600,321.0,0.9375,6,3,37.46188831329346,67.28089809417725,0,38400,491070,2363611,"[ 5  2  1  2  3  1  0  0  3  4  1  1  1  2  1  4  1  4  0  8  2  4  4  2
  2  5  4  1  3  2  0  0  2  2  1  4  0  8  8  4  1  6  5  0  5  2  1  9
  3  1  2  3  0 13  1 14  3  0 15 15  1  0 22  0  3  1  3 23  1  5 19 19
  0  2 17  7 14 28 25]"
700,321.0,0.9375,6,3,44.2842960357666,68.22405099868774,0,44800,568492,2852118,"[ 1  3  1  4  0  3  0  0  3  4  1  1  5  2  2  3  4  1  2  1  3  2  1  3
  1  5  7  5  8  7  0  0  2  5  4 12  3 11  9  4  1  6  1  5  1  0  9 18
  0  2 11  3 12  0  1  3  3  5 12 14  3  3 19  0  3  1  5 16 23  5 16  1
  0  2 17  7 14 28 25]"
800,327.0,0.96875,9,4,51.496095180511475,72.11796760559082,0,51200,637896,3400805,"[ 5  0  0  2  0  3  1  2  2  4  1  1  3  3  0  4  2  5  1  8  2  2  6  4
  5  5  1  5  0  0  0  0  2  2 11 12  2  1  9  1  1 12  4 12  4  3 16 14
  2 13 14  2  0 12  1 14 10  1 11 13  2  1  1  0  3  1  1 18  2  5 17 16
  5 16 17  7 14 28 25]"
900,327.0,0.96875,9,4,58.47833967208862,69.82241868972778,0,57600,697100,3936080,"[ 0  3  2  2  0  3  4  3  2  4  1  1  2  2  3  4  2  5  1  2  4  5  4  8
  3  5  5  3  0  7  0  0  2  1 10 11  2  1  9  1  1 12  4  7  2  3  1  2
  0 18 18  2  0 15  3 11 10  2 17 17  2 19  1  0  3  1  3  0 16  0 20  3
  5 16 17  7 14 28 25]"
1000,331.0,0.984375,10,4,65.42513251304626,69.46790218353271,0,64000,749185,4464297,"[ 1  0  1  2  0  3  0  0  2  0  0  0  2  3  1  4  2  5  1  2  6  4  2  6
  3  5  1  4  0  4  0  0  2  3  7 11  2  1  9  1  1 12  0  5  2  1 14  2
  4 14  3  0 16  2  3 12  1  2  2  9  4 16  2  0  3  1  3 23 16  3 18 17
  5 16 17 26 14 28 25]"
1100,331.0,0.984375,10,4,72.14541840553284,67.20283508300781,0,70400,799969,4978625,"[ 0  3  3  2  0  3  5  3  3  1  2  0  0  3  1  4  2  5  1  2  8  0  2  3
  3  5  8  2  6  4  0  0  2  0  9  9  2  1  9  4  1 12  2  5 10  1  0 15
  2  2 12  4 14  3  3  9 14  4  1 14  4 17 23  3 21 16  3 23 16  4 14  1
  5 16 17 26 14 28  8]"
1200,331.0,0.984375,10,4,78.8169858455658,66.71565055847168,0,76800,849087,5473994,"[ 0  2  1  2  0  3  5  3  3  4  2  1  0  3  1  4  2  5  2  7  1  4  1  5
  5  5  1  4  0  8  0  0  2  5  6  9  2  1  9  1  1 12  1 13  7  2 14  2
  2 15 17  2 14  9  5  0 14  4  1  0  4 19  3  3 17 17  3 19 16  1 20  2
  0 16 17 26 14 28  8]"
1300,331.0,0.984375,10,4,85.98746633529663,71.70477867126465,0,83200,903633,6025305,"[ 3  2  0  2  0  3  0  3  0  3  0  1  0  3  1  4  2  5  5  7  5  1  7  3
  3  4  4  0  0  0  0  0  2  1 13 11  2  1  9  1  1  6  3  3  6  2  0  3
  1  9 17  2  9 16  3 15 15  3 12 15  0 18  2  2 17 14  3 19 16  2 18 20
  0 16 17 26 14 28  8]"
1400,331.0,0.984375,10,4,93.02460741996765,70.3713870048523,0,89600,957385,6567596,"[ 3  1  1  2  0  3  0  3  0  1  3  1  0  3  1  4  2  5  2  8  1  1  7  3
  0  6  2  1  2  0  0  0  2  3 11  2  2  1  9  1  1  6  2  7 13  2  3  2
  2  1 14  4  2  3  2 16  9  2 14 11  1 15 22  3 16 17  3 19 16  2 18 20
  0 16 17 26 14 28  8]"
1500,331.0,0.984375,10,4,99.71187043190002,66.87260389328003,0,96000,1009172,7088134,"[ 3  0  2  2  0  3  0  3  0  2  0  3  0  3  1  4  2  5  1  7  0  0  2  3
  3  0  3  2  7  1  0  0  2  5  6  3  2  1  9  1  1  6  2 10  2  0 17 17
  4 12 15  2  3  2  3 11  0  1  1 10  2 16 21  5 16  1  3 21 16  5 20 22
  5 16 17 26 14 28  8]"
1600,331.0,0.984375,10,4,106.77335572242737,70.61482906341553,0,102400,1064920,7648172,"[ 3  1  2  2  0  3  0  3  0  2  2  3  0  3  1  4  2  5  0  2  8  4  8  1
  2  0  0  5  3  1  0  0  2  1  3  9  2  1  9  1  1  6  4  0  2  0 17  3
  5 14 13  2  0 14  0  0 17  3 14  1  1 18 18  2 20 21  3 21 16  5 21 16
  5 16 17 26 14 28  8]"
1700,331.0,0.984375,10,4,113.67774295806885,69.0438461303711,0,108800,1117803,8176398,"[ 3  3  2  2  0  3  0  3  3  0  0  2  0  3  1  4  2  5  3  5  5  3  5  3
  3  3  6  0  2  5  0  0  2  4  2  1  2  1  9  1  1 10  5  7  0  2  0 11
  1 15 14  2 16  2  0 15 10  0 15  3  1  1 21  2 14  2  3 15 16  3  3 22
  0 16 17 26 14 28  8]"
1800,331.0,0.984375,10,4,120.24136114120483,65.63615560531616,0,115200,1167656,8677590,"[ 3  0  3  2  0  3  4  2  3  4  2  0  0  3  1  4  2  5  5  5  8  2  3  0
  3  0  5  1  6  1  5  0  2  4  2  9  2  1  9  1  1 10  5  8 11  2 11 15
  5 13  2  3 16 17  0  1 10  5 16  3  5  2 19  0  0  2  3 15 16  2 21 20
  5 16 17 26 25 28  8]"
1900,331.0,0.984375,10,4,126.95558547973633,67.14221715927124,0,121600,1218195,9187274,"[ 0  0  2  2  0  3  1  2  3  1  2  2  0  3  1  4  2  5  5  5  1  3  8  0
  3  5  4  1  6  4  2  8  1  2  2  8  2  1  9  1  8 10  0  3  4  4  3 15
  0 15  9  2 14  1  1  0 13  0  9  9  0 20  0  1 22 14  3 15 16  5 17 19
  5 16 17 26  4 28  8]"
2000,331.0,0.984375,10,4,133.72060751914978,67.65019416809082,0,128000,1267783,9686091,"[ 0  0  2  2  0  3  2  1  0  3  2  2  0  3  1  4  2  5  5  5  1  0  7  0
  1  3  1  3  8  2  2 10 12  2  9  4  2  1  9  1  8 10  0 13  2  2  3  0
  1  1 17  1 10 10  0 18 13  4  1  9  3 23 22  5 22  1  3 15 16  4  3 19
  5 16 17 26  4 28  8]"
2100,331.0,0.984375,10,4,140.2461724281311,65.25562047958374,0,134400,1316836,10179207,"[ 0  0  2  2  0  3  2  0  0  1  0  2  0  3  1  4  2  5  3  5  1  3  4  7
  0  1  2  3  3  0  5  7  4  3  4  2  2  1  9  1  1 10  0 12  3  3 11 18
  4  1 15  2  0 13  1  9  3  5  0 13  3 15 16  3  2 15  3 15 16  1 19 20
  0 16 17 26  4 28  8]"
2200,332.0,0.984375,9,4,146.50960779190063,62.634329795837395,0,140800,1366532,10642904,"[ 0  0  2  2  0  3  0  3  0  1  1  0  0  3  1  4  2  5  3  5  1  0  4  8
  0  4  3  3  1  7  2  7  1  1  4  2  2  1  9  1  1 10  3  8  3  3  2  1
  0 11 13  3 17 18  3 11 15  3 11  0  1 20 23  0 21 15  5  1  0  5 22 14
  0 16 17 11  4 28  8]"
2300,332.0,0.984375,9,4,152.5804841518402,60.70873737335205,0,147200,1417142,11092573,"[ 0  0  2  2  0  3  0  0  1  1  3  0  0  3  1  4  2  5  2  5  5  0  4  8
  0  3  6  1  2  8  2 13  0  3  8  5  2  1  9  1  1 10  3 11  3  3 16 11
  1 12 13  2 17 14  0 15 13  5  9  0  4 20 19  1 22  1  2 22 23  3 22 14
  5 16 17 11  4 28  8]"
2400,332.0,0.984375,9,4,158.55576467514038,59.75278377532959,0,153600,1466401,11532516,"[ 0  0  2  2  0  3  3  2  3  3  2  0  0  3  1  4  2  5  2  5  5  0  4  8
  1  7  0  3  2  2  4 11 11  4  1  9  2  1  9  1  1 10  2 12 13  5  2 15
  0 11 13  3  0  1  1 15 16  3  2  0  2 18  3  4 14 17  1  2 21  2 17 22
  5 16 17 11  4 28  8]"
2500,332.0,0.984375,9,4,164.51433873176575,59.58571910858154,0,160000,1515181,11966225,"[ 0  0  2  2  0  3  2  1  0  1  1  0  0  3  1  4  2  5  3  8  5  0  4  8
  0  5  7  0  8  8  3 11  9  3  1 12  2  1  9  1  1 10  5  9  3  0  2 18
  3  1 11  5  1 11  3 14  3  0 15 15  3 18  1  4 19 19  5 21 20  0 23  1
  5 16 17 11  4 28  8]"
2600,332.0,0.984375,9,4,170.54852414131165,60.341830253601074,0,166400,1565119,12411859,"[ 0  0  2  2  0  3  1  3  3  0  2  0  0  3  1  4  2  5  5  8  5  0  4  8
  1  3  3  5  6  6  0  4  2  2  2  1  2  1  9  1  1 10  5  3  7  0  3 17
  3 12 14  2 13  3  1 13 15  0 16 10  5 18 18  3 23 17  5 15 21  2 23 20
  0 16 17 11  4 28  8]"
2700,332.0,0.984375,9,4,176.63509702682495,60.86570501327515,0,172800,1615838,12863420,"[ 0  0  2  2  0  3  5  2  2  0  1  0  0  3  1  4  2  5  5  1  5  0  4  8
  4  4  3  3  5  0  5 13  7  2  0  0  2  1  9  1  1 10  4  1 12  1 15 18
  1 17 15  4 10  3  5  9  3  0 16  3  4 16 23  1  3 18  4 14  3  5 16 22
  0 16 17 11  4 28  8]"
2800,332.0,0.984375,9,4,182.73741388320923,61.023149490356445,0,179200,1666289,13313566,"[ 0  0  2  2  0  3  5  2  2  0  0  3  0  3  1  4  2  5  5  1  5  0  4  8
  1  3  8  4  5  7  3  5 10  3  6  9  2  1  9  1  8 10  2  7 11  4  2 11
  5 17 15  5  9  0  5  9 17  0 13 18  5  1 23  2 15 17  0 16 23  4 20 21
  0 16 17 11  4 28  8]"
2900,332.0,0.984375,9,4,188.66273307800293,59.25316572189331,0,185600,1714299,13742142,"[ 0  0  2  2  0  3  0  2  1  0  3  1  0  3  1  4  2  5  5  1  5  0  4  8
  5  7  7  2  6  4  2  1  8  4 10  7  2  1  9  1  8 10  0  6  7  4 17  1
  1 16 10  4 18 10  0  1 14  4 13 16  4  2  3  5  1 14  3 21 18  4 23  2
  5 16 17 11  4 28  8]"
3000,332.0,0.984375,9,4,194.60429120063782,59.41555738449097,0,192000,1762412,14171769,"[ 0  0  2  2  0  3  2  1  1  0  2  1  0  3  1  4  2  5  5  8  5  0  4  8
  5  5  4  3  5  4  5  7  7  0 11 12  2  1  9  1  1 10  2 11  9  5 17  0
  3  0 12  4 10  0  1 17  3  4  3 10  0 19  3  5 16 17  2 21 17  0 21  0
  0 16 17 11  4 25  8]"
3100,332.0,0.984375,9,4,200.69733834266663,60.930445194244385,0,198400,1812743,14622208,"[ 0  0  2  2  0  3  3  1  1  1  3  0  0  3  1  4  2  5  3  5  8  0  4  8
  5  6  1  0  8  0  2  9 13  3 12 13  2  1  9  1  1 10  4  1  5  4  1 14
  3  2  9  2  3 12  3 13 14  5  0 15  0 14 14  0 16 17  5  2 23  3 21  0
  0 18 22 11  4 25  8]"
3200,332.0,0.984375,9,4,206.72696828842163,60.29627799987793,0,204800,1863114,15070613,"[ 0  0  2  2  0  3  0  2  0  5  1  3  0  3  1  4  2  5  3  5  1  0  4  8
  2  8  3  4  5  3  5 10  2  0  1  4  2  1  9  1  1 10  4 10 12  0  9  0
  0 17 18  4  3 18  5 16 10  0 11  1  5 14 19  0 16 17  0  2 18  0 20  3
  0 14 17 11  4 25  8]"
3300,332.0,0.984375,9,4,212.67213940620422,59.45168495178223,0,211200,1911894,15506077,"[ 0  0  2  2  0  3  4  3  3  2  3  1  0  3  1  4  2  5  5  8  5  0  4  8
  2  0  2  5  0  8  4  5  9  0  0  8  2  1  9  1  1 10  0  9  7  2 16  9
  3 18  3  2 14  1  1 15 12  4 15 18  5 23 19  5 16 17  3  2 22  4  2 22
  3  0 22 11  4 25  8]"
3400,332.0,0.984375,9,4,218.52761125564575,58.55469226837158,0,217600,1960107,15934601,"[ 0  0  2  2  0  3  0  3  2  4  0  1  0  3  1  4  2  5  5  1  5  0  4  8
  5  8  4  4  2  7  2  7  8  5  0 11  2  1  9  1  8 10  1 10  4  5 11 10
  5  0 17  5  3  3  2 16  3  5 17 18  4 23 15  5 16 17  4 23 15  4 21  2
  5  0 15 11  4 25  8]"
3500,332.0,0.984375,9,4,224.63966584205627,61.120522022247314,0,224000,2011035,16387670,"[ 0  0  2  2  0  3  0  1  2  0  0  2  0  3  1  4  2  5  3  5  1  0  4  8
  2  0  1  5  0  2  3  0  1  5 13  5  2  1  9  4  1 10  0  3  4  0 10  2
  2 13  2  0 12 17  3  3  3  3 15 16  4 17 22  5 16 17  0 15  2  3  3 15
  1 15 14 11  4 25  8]"
3600,332.0,0.984375,9,4,230.93509244918823,62.95423984527587,0,230400,2064337,16861759,"[ 0  0  2  2  0  3  4  3  0  0  3  1  0  3  1  4  2  5  3  5  1  0  4  8
  1  1  7  3  0  3  4  0 10  3  2  1  2  1  9  4  1 10  0  1 11  4 16 17
  0  9 14  4 11 10  1  1  0  1  3  1  0 17 20  5 16 17  5 16 16  1 17 16
  5  2  3 11  4 25  8]"
3700,332.0,0.984375,9,4,237.1015763282776,61.66481256484985,0,236800,2115367,17318716,"[ 0  0  2  2  0  3  0  2  1  2  1  1  0  3  1  4  2  5  5  5  1  0  4  8
  2  7  0  3  7  5  1 11 12  4 13  1  2  1  9  1  8 10  0  2 12  4 13  9
  3  0 14  3 16  1  0 16 12  1  3 18  1 22 19  5 16 17  3  2 14  1 20  2
  5 19  2 11  4 25  8]"
3800,332.0,0.984375,9,4,243.13146901130676,60.29890298843384,0,243200,2164884,17761792,"[ 0  0  2  2  0  3  0  1  1  1  1  0  0  3  1  4  2  5  3  5  8  0  4  8
  3  5  0  3  7  4  2 11  9  2 10 10  2  1  9  1  1 10  2  7  6  2  9  2
  3 18  1  5 10 15  2  9  0  0 14 14  4  3 19  0 16 17  1  1 17  5 22 17
  3 20 14 11  4 25  8]"
3900,332.0,0.984375,9,4,249.12479615211487,59.93324518203735,0,249600,2214439,18204730,"[ 0  0  2  2  0  3  5  1  1  5  0  3  0  3  1  4  2  5  5  5  8  0  4  8
  0  5  5  1  2  6  0 10  3  1 13  9  2  1  9  1  1 10  2  8  4  1  1 15
  1 10 15  5  2 13  5 16 17  4 15 14  0 14 20  0 16 17  5 18 14  2  3 21
  3  3  0 11  4 25  8]"
4000,332.0,0.984375,9,4,255.28529143333435,61.604928970336914,0,256000,2263999,18646204,"[ 0  0  2  2  0  3  3  2  2  5  1  1  0  3  1  4  2  5  5  5  1  0  4  8
  2  6  0  1  8  2  4  1  2  1  5  8  2  1  9  1  8 10  0  4 12  4 12 10
  0 10 15  3  2 10  0 16 17  5  1  9  4  3 22  2 22 21  1 16 14  5 23 16
  2 18  0 11  4 22  8]"
4100,332.0,0.984375,9,4,261.26665687561035,59.81363296508789,0,262400,2313684,19088038,"[ 0  0  2  2  0  3  5  0  3  4  3  2  0  3  1  4  2  5  3  8  5  0  4  8
  3  6  1  5  8  1  3  7 13  5  3 10  2  1  9  4  1 10  3  4  2  3 13  2
  4 14 15  5 13 16  5 16 17  5 15 18  1 22 18  3 16 17  1 16  3  3  2  1
  2 15 15 11  4 22  8]"
4200,332.0,0.984375,9,4,267.32091879844666,60.542593002319336,0,268800,2363629,19530983,"[ 0  0  2  2  0  3  0  3  1  3  0  2  0  3  1  4  2  5  5  5  1  0  4  8
  1  7  2  4  0  5  5  6  3  0 10  6  2  1  9  1  1 10  4  1  5  3  0 18
  5 12 14  5  0 15  5 16 17  3 16 17  1 18  0  1 16 21  3 17 23  1  2  3
  5 19 14 11  4 22  8]"
4300,332.0,0.984375,9,4,273.39290142059326,60.719802379608154,0,275200,2414135,19981291,"[ 0  0  2  2  0  3  1  1  0  1  3  0  0  3  1  4  2  5  3  5  1  0  4  8
  4  6  7  3  7  1  2 11  6  5  1  1  2  1  9  4  1 10  1  0 10  2 14 10
  5 14  9  4 15  3  0 16 17  5 12 15  5 14 18  5  1 21  4 22 16  0 15 18
  1 20  3 11  4 22  8]"
4400,332.0,0.984375,9,4,279.79660987854004,64.03705835342407,0,281600,2466500,20445844,"[ 0  0  2  2  0  3  3  2  1  0  0  1  0  3  1  4  2  5  3  5  1  0  4  8
  1  5  3  4  6  5  4  9  8  0 13  7  2  1  9  1  1 10  0  6  8  5 10  3
  5 11  3  3 15  1  0 16 17  0 11  9  3 15 20  4  1 19  1  0 16  2 20  3
  4 20 14 11  4 22  8]"
4500,332.0,0.984375,9,4,285.8552939891815,60.586814880371094,0,288000,2516509,20890452,"[ 0  0  2  2  0  3  4  3  2  2  1  0  0  3  1  4  2  5  5  1  5  0  4  8
  3  0  2  4  6  4  3  2  9  2 13  7  2  1  9  1  1 10  0  5  4  5 10  1
  3  3 17  1 12  2  0 16 17  1 15 15  0 15 23  5 14  1  1  0  3  2 22 20
  3 17 17 11  4 22  8]"
4600,332.0,0.984375,9,4,291.98230934143066,61.270129680633545,0,294400,2567311,21340920,"[ 0  0  2  2  0  3  1  2  0  1  0  0  0  3  1  4  2  5  3  1  5  0  4  8
  3  4  0  4  6  3  1  8  0  4  8  6  2  1  9  1  1 10  1  4  5  3 13 11
  5  1  2  1 15 10  0 16 17  2 15  0  0 23  1  0  1 15  3 21  0  0 21 20
  3 21  2 11  4 22  8]"
4700,332.0,0.984375,9,4,298.0002257823944,60.17913818359375,0,300800,2617362,21785873,"[ 0  0  2  2  0  3  5  1  0  1  3  0  0  3  1  4  2  5  3  1  5  0  4  8
  0  4  3  0  3  7  4  3  4  0  9  4  2  1  9  1  1 10  2 10 10  4 13 10
  0  2 15  1 15  3  5 16 17  2  2 15  5 19 15  0 18  0  2 23  0  4 16 23
  1 23 21 11  4 22  8]"
4800,332.0,0.984375,9,4,304.2460370063782,62.458086013793945,0,307200,2668305,22237502,"[ 0  0  2  2  0  3  0  1  3  3  1  0  0  3  1  4  2  5  5  8  5  0  4  8
  4  4  3  3  3  7  4 13  6  1 11 13  2  1  9  1  1 10  1  5 11  4 18 11
  3  2 11  0 10 12  0 16 17  1  2 13  1 21  3  4 17 19  3  1 20  3 16 15
  0  3  0 11  4 22  8]"
4900,332.0,0.984375,9,4,310.2706835269928,60.24643421173096,0,313600,2717831,22675732,"[ 0  0  2  2  0  3  5  3  2  0  2  0  0  3  1  4  2  5  5  8  5  0  4  8
  0  8  3  2  6  2  4  1  7  4  8 12  2  1  9  1  1 10  2  5  3  0  9  2
  3 14  2  2 11 14  0 16 17  1 17 11  0 17  0  4 18 14  1 21 23  2 23  0
  4  1 23 11  4 22  8]"
5000,332.0,0.984375,9,4,316.3809106349945,61.10224723815918,0,320000,2768001,23120611,"[ 0  0  2  2  0  3  4  2  2  3  1  2  0  3  1  4  2  5  3  5  1  0  4  8
  2  5  6  0  1  5  0 12  6  2  5  5  2  1  9  4  1 10  0  7  7  3 17 10
  1 12 18  5  3  3  5 16 17  5 15 13  1 15 23  4 20  3  4 14 17  5  0  0
  4  3 20 11  4 22  8]"
5100,332.0,0.984375,9,4,322.51758217811584,61.36668682098389,0,326400,2817825,23564942,"[ 0  0  2  2  0  3  4  3  3  5  1  2  0  3  1  4  2  5  2  5  5  0  4  8
  0  4  4  0  4  7  0 11 10  2  9  3  2  1  9  1  1 10  2 10 10  1 11  3
  1 12 17  0  3 17  5 16 17  4  1 11  5 22 20  5 15 16  2 20 16  2  0 21
  1 18 22 11  4 22  8]"
5200,332.0,0.984375,9,4,328.47251534461975,59.54930782318115,0,332800,2866137,23994588,"[ 0  0  2  2  0  3  1  2  0  4  0  2  0  3  1  4  2  5  5  5  1  0  4  8
  5  1  5  2  7  6  4  5  6  4  4 12  2  1  9  1  8 10  2 12  9  1 18 10
  3 16 12  1 13 17  5 16 17  2  9 11  5 19 22  0 17 17  5 14 14  1 14 18
  0 18 20 11  4 22  8]"
5300,332.0,0.984375,9,4,334.44952511787415,59.770071506500244,0,339200,2915352,24434469,"[ 0  0  2  2  0  3  0  0  1  2  2  1  0  3  1  4  2  5  5  5  1  0  4  8
  3  8  0  3  7  3  0  3  6  2  9 11  2  1  9  1  1 10  3  6  8  1 16 12
  1 16 14  2  9 18  0 16 17  4 18  2  3 19  2  0 19 14  5 14  3  2 17 17
  1 15 17 11  4 22  8]"
5400,332.0,0.984375,9,4,340.39512848854065,59.45601224899292,0,345600,2964537,24871756,"[ 0  0  2  2  0  3  5  2  2  4  0  1  0  3  1  4  2  5  2  2  6  0  4  8
  3  8  5  3  6  5  5  3 11  4  2  2  2  1  9  1  1 12  0  4  9  0  3 12
  5 12 15  2  9  9  5 16 17  4 18  2  0  1 19  5 15  1  2 23 22  1 20 17
  5 14 15 11  4 22  8]"
5472,338,1.0,10,4,344.8077926635742,61.286969317330254,0,350208,3001078,25195362,"[ 0  0  2  2  0  3  4  0  1  3  1  1  0  3  1  4  2  5  0  7  8  0  4  8
  5  1  5  5  4  8  4  9  5  4 11  4  2  1  9  1  1 12  0 13  0  1  9 12
  1 15  1  5  1 12  0 16 17  1 18 12  4  0  0  3 22 15  4  2 22  3  1 18
  1 16  2 11 15 22  8]"
5500,338,1.0,10,4,346.3128125667572,53.7506171635219,0,352000,3012020,25303074,"[ 0  0  2  2  0  3  1  3  2  0  1  1  0  3  1  4  2  5  0  7  2  0  4  8
  5  1  5  1  2  3  4  8  5  4 11  4  2  1  9  1  1 12  0 12  0  1 16  3
  4 12 10  5 17 12  0 16 17  0  0 12  3 23 18  3 22 14  4 14 22  4 23 18
  1 20  2 11 15 22  8]"
5600,338,1.0,10,4,351.80291390419006,54.90098476409912,0,358400,3051859,25694900,"[ 0  0  2  2  0  3  3  1  3  4  3  1  0  3  1  4  2  5  5  0  8  0  4  8
  5  8  5  2  1  1  4  0 11  4 11  4  2  1  9  1  1 12  2  4  8  5 12  1
  5 13 13  1 15  9  5 16 17  5 11 13  2 19 21  3  2 22  5 14 19  1  0 14
  4  2 15 11 15 22  8]"
5700,338,1.0,10,4,357.21373891830444,54.10822629928589,0,364800,3090974,26079421,"[ 0  0  2  2  0  3  0  3  3  1  3  0  0  3  1  4  2  5  3  2  3  0  4  8
  2  5  5  5  2  6  4  6  5  4 11  4  2  1  9  1  1 12  4 12  2  1 12 17
  3 16 15  5 10 13  0 16 17  1 17 11  2 14 23  4 17 18  0  3 22  2 14 18
  1  3 22 11 15 22  8]"
5800,338,1.0,10,4,362.7090804576874,54.953391551971436,0,371200,3131370,26476293,"[ 0  0  2  2  0  3  0  2  0  0  0  0  0  3  1  4  2  5  3  0  5  0  4  8
  3  8  5  5  4  3  1  9 10  4 11  4  2  1  9  4  1 12  5  2  9  2 17  9
  1 15 17  0 18  1  0 16 17  5 15  9  0 15 14  0  2  0  2  2 19  5 23 21
  5 19 14 11 15 22  8]"
5900,338,1.0,10,4,368.10363268852234,53.94549608230591,0,377600,3170814,26864100,"[ 0  0  2  2  0  3  0  3  2  4  0  0  0  3  1  4  2  5  4  7  7  0  4  8
  5  1  5  2  5  8  1  6  9  4 11  4  2  1  9  1  8 12  3  6  8  2  2  3
  1 12 11  5  9  3  0 16 17  5 11 17  1  0 14  1 15  3  4 15 14  4  3  2
  1 20 20 11 15 22  8]"
6000,338,1.0,10,4,373.5003583431244,53.9672327041626,0,384000,3210015,27249135,"[ 0  0  2  2  0  3  2  2  2  0  0  3  0  3  1  4  2  5  2  5  2  0  4  8
  5  1  5  5  0  8  3  2  3  4 11  4  2  1  9  1  1 12  5  3 12  5 16 14
  4  1 11  4 12 10  0 16 17  3 10 17  1 18  0  3  2  3  2  0 14  1  0 17
  3  1 15 11 15 22  8]"
6100,338,1.0,10,4,378.8867139816284,53.86353254318237,0,390400,3249350,27635961,"[ 0  0  2  2  0  3  0  2  2  0  0  0  0  3  1  4  2  5  2  0  4  0  4  8
  3  1  5  2  2  5  3  2  6  4 11  4  2  1  9  4  1 12  1  2 13  3 12 18
  1 17 12  0  2 13  0 16 17  3 14 13  2 18 14  0  0  3  4 16 20  1 17 17
  5 22 15 11 15 22  8]"
6200,338,1.0,10,4,384.2380154132843,53.51299047470093,0,396800,3288240,28019451,"[ 0  0  2  2  0  3  0  2  3  1  1  0  0  3  1  4  2  5  2  3  6  0  4  8
  3  5  1  0  6  1  4  5 12  4 11  4  2  1  9  1  1 12  4 10 12  3 17  9
  2 17 18  1 10 17  5 16 17  3  2 12  2 19 14  3  0 17  2  3  0  5 21 14
  5 18 19 11 15 22  8]"
6300,338,1.0,10,4,389.5079789161682,52.69960880279541,0,403200,3326286,28393740,"[ 0  0  2  2  0  3  4  1  3  1  2  0  0  3  1  4  2  5  5  7  5  0  4  8
  3  5  1  1  2  1  4  2 11  4 11  4  2  1  9  4  1 12  3  3 12  3 17 10
  3  0 17  3  1 11  5 16 17  0 15 13  4 18  2  4 14 17  2 22 14  0 21 21
  0  0 18 11 15 22  8]"
6400,338,1.0,10,4,394.86132168769836,53.533406257629395,0,409600,3365435,28779079,"[ 0  0  2  2  0  3  1  3  0  5  1  3  0  3  1  4  2  5  5  0  0  0  4  8
  2  5  5  5  7  4  1  2  2  4 11  4  2  1  9  1  1 12  3  8  4  3 18 18
  1  1 17  4 18  0  0 16 17  4 12  9  2  2  3  1  3 16  2  1 21  5 21 21
  3 21  2 11 15 22  8]"
6500,338,1.0,10,4,400.16602969169617,53.047053813934326,0,416000,3403783,29156759,"[ 0  0  2  2  0  3  2  2  2  1  0  2  0  3  1  4  2  5  5  8  6  0  4  8
  3  5  5  2  8  1  4  2  7  4 11  4  2  1  9  1  1 12  3  7  2  4 12 17
  4 11 16  5 12 17  0 16 17  5  9  3  2 16 23  3 23 18  2  2 14  5 21 21
  2 22 20 11 15 22  8]"
6600,338,1.0,10,4,405.6074619293213,54.41429615020752,0,422400,3442815,29541842,"[ 0  0  2  2  0  3  1  3  1  4  1  1  0  3  1  4  2  5  2  8  5  0  4  8
  5  1  5  3  3  1  5 12 13  4 11  4  2  1  9  1  8 12  1 12  7  1 12 11
  0 15 14  4 18  1  0 16 17  3 13 18  5 16  0  4 23 14  1 14  0  5 22  1
  5  2  1 11 15 22  8]"
6700,338,1.0,10,4,411.0317471027374,54.242825508117676,0,428800,3482510,29932498,"[ 0  0  2  2  0  3  2  3  1  1  3  2  0  3  1  4  2  5  5  0  5  0  4  8
  5  1  5  0  3  1  4  6  8  4 11  4  2  1  9  1  8 12  1 11  2  2  0 14
  1 14 10  5  9 10  5 16 17  3 18  2  5 20 17  5  2  3  2 17  3  2  0 16
  1 16 20 11 15 22  8]"
6800,338,1.0,10,4,416.4740958213806,54.423463344573975,1,435200,3521037,30311296,"[ 0  0  2  2  0  3  5  0  2  2  0  1  0  3  1  4  2  5  5  7  5  0  4  8
  5  1  5  4  0  5  5  4 10  4 11  4  2  1  9  1  8 12  0 11  5  2  1 13
  5 10 12  3 16 11  5 16 17  2 17  9  1  3 15  5  3 19  3  1  0  5 18 22
  4  0 16 11 15 22  8]"
6900,338,1.0,10,4,421.81522274017334,53.411245346069336,1,441600,3558759,30683177,"[ 0  0  2  2  0  3  3  2  3  2  0  0  0  3  1  4  2  5  3  6  1  0  4  8
  5  1  5  2  4  0  1  7  8  4 11  4  2  1  9  1  8 12  4 11  9  5  0 15
  3 13  0  2  1  3  0 16 17  2  3 16  1  0 15  1  2 21  2 22 14  3 21  3
  0 17 20 11 15 22  8]"
7000,338,1.0,10,4,427.09816098213196,52.82935619354248,1,448000,3597056,31059379,"[ 0  0  2  2  0  3  5  2  2  3  2  2  0  3  1  4  2  5  1  1  5  0  4  8
  5  1  5  5  4  5  5  4  0  4 11  4  2  1  9  1  8 12  1 12  1  0 15 10
  1 12 13  5  9 10  5 16 17  3  2 16  1 23 17  4 18  2  4 20 23  5  3 23
  0  2 16 11 15 22  8]"
7100,338,1.0,10,4,432.462521314621,53.643577098846436,1,454400,3636054,31442911,"[ 0  0  2  2  0  3  1  2  1  0  0  2  0  3  1  4  2  5  4  0  2  0  4  8
  3  8  5  0  4  3  3  0 12  4 11  4  2  1  9  4  1 12  3 12  3  5  9  0
  2 12  9  2 14 10  5 16 17  3 11 16  3  2  2  5  1 15  5  3  1  0 14 15
  5 19 18 11 15 22  8]"
7200,338,1.0,10,4,437.8323268890381,53.69803428649902,1,460800,3675286,31828904,"[ 0  0  2  2  0  3  5  3  2  5  2  0  0  3  1  4  2  5  3  2  0  0  4  8
  5  1  5  0  0  4  4  7  2  4 11  4  2  1  9  1  8 12  3  8  1  3 13 15
  0 16  0  3 18  3  0 16 17  2 10 10  0 23  1  4 17  2  0  0  3  0 18 22
  3  0 21 11 15 22  8]"
7300,338,1.0,10,4,443.2551317214966,54.22801971435547,1,467200,3715208,32220911,"[ 0  0  2  2  0  3  5  1  0  4  1  1  0  3  1  4  2  5  3  3  0  0  4  8
  3  1  5  1  6  1  1 12  2  4 11  4  2  1  9  4  1 12  1  1  3  4  3 16
  5 17 13  5  1 17  0 16 17  3 15  2  3 21  0  1 15 18  1 19 21  0 18 21
  2  0 17 11 15 22  8]"
7400,338,1.0,10,4,448.72234439849854,54.67210292816162,1,473600,3755293,32615546,"[ 0  0  2  2  0  3  2  2  2  4  0  3  0  3  1  4  2  5  1  7  0  0  4  8
  3  1  5  2  6  2  2  6 13  4 11  4  2  1  9  1  1 12  1  7  7  4  3 13
  2  0 13  2 17  2  0 16 17  4 14 11  3 16 21  1 19 23  2 21  2  1 17 15
  2 15 16 11 15 22  8]"
7500,338,1.0,10,4,454.1661059856415,54.43758964538574,1,480000,3795161,33008234,"[ 0  0  2  2  0  3  2  3  1  1  1  3  0  3  1  4  2  5  0  0  5  0  4  8
  3  1  5  5  3  8  3 12 13  4 11  4  2  1  9  4  1 12  1  8  5  4 16 13
  0 13  0  1 15  2  5 16 17  5 11 16  3  2  3  1 19  3  2 17 16  5 23 14
  4 19 17 11 15 22  8]"
7600,338,1.0,10,4,459.68891429901123,55.22805452346802,1,486400,3834111,33391650,"[ 0  0  2  2  0  3  4  0  0  0  1  3  0  3  1  4  2  5  3  2  0  0  4  8
  3  1  5  2  4  5  5 11 13  4 11  4  2  1  9  4  1 12  1 13  6  1 14  2
  0  0  0  0 15 14  5 16 17  1  3  1  3 20 20  4 15 17  0 18 18  5  0 19
  2  3 14 11 15 22  8]"
7700,338,1.0,10,4,465.13385796546936,54.44941282272339,1,492800,3874412,33787090,"[ 0  0  2  2  0  3  2  2  3  5  1  2  0  3  1  4  2  5  0  4  8  0  4  8
  3  1  5  4  7  3  2 11  1  4 11  4  2  1  9  4  1 12  3 13  2  5 11 16
  3 15 18  2  3  0  0 16 17  0 14  1  1 19 23  5 19  0  2 18 15  5 15 15
  0  3 21 11 15 22  8]"
7800,338,1.0,10,4,470.503586769104,53.697264194488525,1,499200,3912545,34162998,"[ 0  0  2  2  0  3  2  0  3  0  0  2  0  3  1  4  2  5  1  3  7  0  4  8
  3  8  5  5  0  8  1 11 11  4 11  4  2  1  9  4  1 12  5  3  9  1 17  2
  5 16 15  0 13 12  5 16 17  0  3  2  1  3 19  5 15  2  3 17 19  1  2 21
  5 18 23 11 15 22  8]"
7900,338,1.0,10,4,475.94443559646606,54.408462047576904,1,505600,3952536,34556225,"[ 0  0  2  2  0  3  1  2  0  4  0  1  0  3  1  4  2  5  0  8  6  0  4  8
  2  5  5  5  1  3  4  6  5  4 11  4  2  1  9  1  1 12  3  4  9  3 11 16
  3  3 17  0 13 13  0 16 17  1 14  2  1 14  2  0 23 16  5 16  2  3 23  2
  0 16 19 11 15 22  8]"
8000,338,1.0,10,4,481.3940234184265,54.49585437774658,1,512000,3992480,34949516,"[ 0  0  2  2  0  3  1  2  3  4  3  1  0  3  1  4  2  5  3  5  6  0  4  8
  2  5  5  4  4  5  3  2  8  4 11  4  2  1  9  1  1 12  3  6  5  1 16  0
  1  0 17  1  3  1  0 16 17  5 10 16  3 20 19  3 19  0  5 23 16  1 23  0
  4 23 14 11 15 22  8]"
8100,338,1.0,10,4,486.91628980636597,55.22263765335083,1,518400,4033169,35349939,"[ 0  0  2  2  0  3  3  0  2  0  2  1  0  3  1  4  2  5  3  0  8  0  4  8
  3  1  5  1  3  1  3  4 11  4 11  4  2  1  9  1  1 12  3  7  8  1  1  2
  3 10 16  5 18 15  5 16 17  4 11  3  3 14  0  0  0 20  5 21 22  2  0 23
  5 16 14 11 15 22  8]"
8200,338,1.0,10,4,492.2717092037201,53.55416774749756,1,524800,4072212,35733726,"[ 0  0  2  2  0  3  2  0  0  0  2  2  0  3  1  4  2  5  2  2  2  0  4  8
  2  5  5  1  7  2  3  8  1  4 11  4  2  1  9  1  1 12  4  6  8  3  1 17
  2 12  2  1  0 10  5 16 17  5 15 12  4 15 18  4 21 18  5 14  3  3 17 19
  4 19 14 11 15 22  8]"
8300,338,1.0,10,4,497.7234811782837,54.517693519592285,1,531200,4111567,36121423,"[ 0  0  2  2  0  3  4  0  0  0  3  1  0  3  1  4  2  5  2  1  6  0  4  8
  3  8  5  1  1  2  1  8  6  4 11  4  2  1  9  1  1 12  1  7  6  1 16 13
  4 12 13  5  0  0  5 16 17  2 15  3  3 22 18  5  0 18  5  1  3  2  0 19
  0 21  0 11 15 22  8]"
8400,338,1.0,10,4,503.16644072532654,54.42957162857056,1,537600,4151536,36514139,"[ 0  0  2  2  0  3  5  0  2  3  0  2  0  3  1  4  2  5  0  2  2  0  4  8
  3  5  8  5  8  1  1  8 11  4 11  4  2  1  9  1  1 12  4  1 10  0 17  9
  0 12 16  1 17 17  0 16 17  2 16 18  3  0  0  2 20 15  2 15 16  2  3 17
  5  2 22 11 15 22  8]"
8500,338,1.0,10,4,508.51772451400757,53.51281404495239,1,544000,4190508,36897491,"[ 0  0  2  2  0  3  3  2  3  2  3  2  0  3  1  4  2  5  3  7  7  0  4  8
  5  1  5  1  8  3  2 11  4  4 11  4  2  1  9  1  1 12  2  8  4  4  1  1
  4  1 16  3  1  9  5 16 17  0 16 17  4 23 17  2 23 21  4 23  2  1 15 19
  2  1 22 11 15 22  8]"
8600,338,1.0,10,4,514.0031111240387,54.85384225845337,1,550400,4230752,37293721,"[ 0  0  2  2  0  3  1  2  1  3  1  0  0  3  1  4  2  5  3  6  1  0  4  8
  5  1  5  3  2  3  0  9 12  4 11  4  2  1  9  1  8 12  2  8  0  4 16 18
  0 11  0  0  3 12  3 13 17  0 16 17  5 14 14  1  0 20  4 22 22  1 15 19
  5 20 16 11 15 23  8]"
8700,338,1.0,10,4,519.3344011306763,53.31287384033203,1,556800,4269337,37673046,"[ 0  0  2  2  0  3  4  2  3  1  2  2  0  3  1  4  2  5  4  4  1  0  4  8
  5  1  5  4  4  1  5 13  3  4 11  4  2  1  9  1  8 12  4  8 10  5 16 17
  4 11  9  0 17  3  1  0  0  0 16 17  4 14 19  2  0 22  0 22 23  4 23 19
  1 19  2 11 15 23  8]"
8800,338,1.0,10,4,524.8977899551392,55.633859634399414,1,563200,4309123,38064071,"[ 0  0  2  2  0  3  2  1  2  3  2  0  0  3  1  4  2  5  4  1  3  0  4  8
  3  5  8  4  8  3  0  5  4  4 11  4  2  1  9  1  1 12  3  4  3  4 14  3
  0  2 11  5  1 10  3 14 14  5 16 17  1 15 15  2 17  1  0 15 15  4 21  1
  3 19 20 11 15 23  8]"
8900,338,1.0,10,4,530.3283262252808,54.305336475372314,1,569600,4348973,38455529,"[ 0  0  2  2  0  3  5  1  0  5  3  3  0  3  1  4  2  5  0  6  5  0  4  8
  3  5  1  3  4  4  3  0 10  4 11  4  2  1  9  1  1 12  0  4  5  1 13  2
  1 14 12  2 15 17  2  3 15  0 16 17  2  1 23  5 15  2  0 15 22  4 19  1
  3 20 21 11 15 23  8]"
9000,338,1.0,10,4,535.8518960475922,55.23566961288452,1,576000,4389695,38855851,"[ 0  0  2  2  0  3  1  1  2  4  0  2  0  3  1  4  2  5  0  6  0  0  4  8
  3  5  5  4  3  8  0 10 13  4 11  4  2  1  9  1  1 12  4 11  6  1 14  1
  5 18 13  5 10  9  1  2 17  0 16 17  2 19 16  4 19 15  2 14  2  3  0 19
  0 18 16 11 15 23  8]"
9100,338,1.0,10,4,541.4222276210785,55.70328712463379,1,582400,4429728,39248678,"[ 0  0  2  2  0  3  0  1  3  5  1  2  0  3  1  4  2  5  1  1  6  0  4  8
  5  1  5  2  6  3  4 10  5  4 11  4  2  1  9  1  1 12  2 13  1  1 11 17
  2  2 14  5 12 14  3  0 16  0 16 17  5 15  1  5 16 17  3 21 18  0 18 16
  1 15 22 11 15 23  8]"
9200,338,1.0,10,4,546.8776457309723,54.55415964126587,1,588800,4468230,39628862,"[ 0  0  2  2  0  3  2  2  3  5  0  1  0  3  1  4  2  5  1  7  8  0  4  8
  3  8  5  3  8  4  3  0  5  4 11  4  2  1  9  1  1 12  1  4  3  4  1  1
  3  9  9  1 10 11  2 16 18  4 16 13  5 18 17  5 16 17  2 16 14  2 18  0
  1 21  0 11 15 25  8]"
9300,338,1.0,10,4,552.1835725307465,53.05923938751221,1,595200,4506563,40007065,"[ 0  0  2  2  0  3  1  3  3  1  2  3  0  3  1  4  2  5  2  7  1  0  4  8
  5  1  5  2  5  2  3  0  6  4 11  4  2  1  9  1  1 12  1  6  9  2 17  9
  4 16 18  3 14 18  1 12  0  1 12 18  0 16 18  5 16 17  0 21 21  0 18 22
  4 22  3 11 15 25  8]"
9400,338,1.0,10,4,557.5758707523346,53.92295837402344,1,601600,4545909,40394786,"[ 0  0  2  2  0  3  0  3  2  5  0  1  0  3  1  4  2  5  4  3  6  0  4  8
  3  1  5  4  4  5  0  0  7  4 11  4  2  1  9  1  1 12  3 12  2  3  9  9
  1 16  1  5  1  0  5  2 16  4  2  1  4 17  0  0 16 17  2 18 16  3 16 15
  5 22 22 11 15 25  8]"
9500,338,1.0,10,4,563.0515596866608,54.75686073303223,1,608000,4585380,40783393,"[ 0  0  2  2  0  3  1  2  3  0  1  1  0  3  1  4  2  5  1  7  3  0  4  8
  3  8  5  3  4  7  2  9 12  4 11  4  2  1  9  1  1 12  5  5 13  3 15 12
  4  2 11  1 17  1  1 13  3  3  3  2  2  2 21  0 16 17  3  1  0  3 15  0
  1 19  0 11 15 25  8]"
9600,338,1.0,10,4,568.6181371212006,55.665743350982666,1,614400,4624757,41171679,"[ 0  0  2  2  0  3  0  2  3  4  2  1  0  3  1  4  2  5  5  7  6  0  4  8
  5  1  5  1  5  5  4  1  0  4 11  4  2  1  9  1  8 12  3 13  2  3 13 18
  1  9 13  0  2  3  0 13  9  2 12 16  0 19 17  0 16 17  0 21 18  4 15 20
  2 22 19 11 15 25  8]"
9700,338,1.0,10,4,573.9570639133453,53.38924169540405,1,620800,4663225,41550171,"[ 0  0  2  2  0  3  2  2  3  1  3  1  0  3  1  4  2  5  3  5  2  0  4  8
  5  1  5  0  8  4  0  1  3  4 11  4  2  1  9  1  8 12  0  7  8  5 11  0
  3 11  9  3 17 10  5  1  9  3  9 17  3  0  3  0 16 17  4 17 20  2 17  2
  5 18  1 11 15 25  8]"
9800,338,1.0,10,4,579.4073445796967,54.50278282165527,1,627200,4702907,41940462,"[ 0  0  2  2  0  3  2  2  2  0  3  1  0  3  1  4  2  5  3  7  6  0  4  8
  5  8  5  4  0  6  5 10  9  4 11  4  2  1  9  1  1 12  0 12 13  5  2 13
  5  2 17  0  3 17  2 10 11  4  9  3  0 20  0  0 16 17  3 17 20  5 16 16
  2 15 16 11 15 25  8]"
9900,338,1.0,10,4,584.8824925422668,54.751455783843994,1,633600,4742708,42333109,"[ 0  0  2  2  0  3  4  0  1  3  3  0  0  3  1  4  2  5  0  3  5  0  4  8
  5  1  5  4  2  6  1  9 13  4 11  4  2  1  9  1  1 12  5  9  7  2 12 14
  5  9 15  3  1 17  1 18 10  5 17 14  2  0  3  5 16 17  2 17 20  5 20 22
  5 22  3 11 15 25  8]"
10000,338,1.0,10,4,590.3881137371063,55.056188106536865,1,640000,4782245,42722793,"[ 0  0  2  2  0  3  1  3  2  4  2  0  0  3  1  4  2  5  0  7  7  0  4  8
  5  5  1  4  5  2  5  4  2  4 11  4  2  1  9  1  1 12  4 11  8  4  0  9
  2 14 11  1  2 13  5 11  9  3 13 15  1 18 15  5 16 17  0 19 20  2  1 19
  3  1  2 11 15 25  8]"
10100,338,1.0,10,4,595.8909487724304,55.02832651138306,1,646400,4820497,43099845,"[ 0  0  2  2  0  3  5  3  1  4  1  3  0  3  1  4  2  5  5  2  5  0  4  8
  5  5  1  0  1  4  5  5  3  4 11  4  2  1  9  1  8 12  5  6  7  1 16  2
  2 15 17  3  2  2  3 14 15  3  0  0  0 20  1  0 16 17  1 16  2  4  0 17
  3  1  2 11 15 25  8]"
10200,338,1.0,10,4,601.3238959312439,54.329447746276855,1,652800,4860305,43491306,"[ 0  0  2  2  0  3  4  3  0  4  1  1  0  3  1  4  2  5  0  0  4  0  4  8
  3  5  8  3  3  4  3  9  7  4 11  4  2  1  9  1  1 12  1  9 10  2 18  3
  0 11 11  1 16  9  5 18  0  5  9 14  1 23 20  0 16 17  1 14 18  2  3 22
  1 17 17 11 15 25  8]"
10300,338,1.0,10,4,606.8128895759583,54.88991022109985,1,659200,4900006,43882353,"[ 0  0  2  2  0  3  4  3  2  5  0  2  0  3  1  4  2  5  2  5  0  0  4  8
  3  5  1  4  0  7  1 11  4  4 11  4  2  1  9  1  1 12  3  4  6  2 17  3
  5 14 12  4  3 17  0  9  1  3  9 16  5 23 20  0 16 17  5 22 15  3  1 21
  5  0 22 11 15 25  8]"
10400,338,1.0,10,4,612.2738711833954,54.60978984832764,1,665600,4938716,44264079,"[ 0  0  2  2  0  3  1  0  1  1  1  1  0  3  1  4  2  5  4  0  3  0  4  8
  3  8  5  3  1  6  5 12  1  4 11  4  2  1  9  4  1 12  0  2  2  2  3 18
  0  1  9  2 17 17  1 12 15  2 16 16  5  3 16  5 16 17  5  1 20  0 18 16
  1 15  2 11 15 25  8]"
10500,338,1.0,10,4,617.7080926895142,54.34218883514404,1,672000,4978478,44656522,"[ 0  0  2  2  0  3  1  3  3  1  3  3  0  3  1  4  2  5  1  1  8  0  4  8
  3  8  5  2  5  4  5 10  6  4 11  4  2  1  9  4  1 12  2 13  1  1 12 14
  4 16 15  0 18  0  0 18 16  1  0  9  1 18 17  5 16 17  4 15 15  2 19 15
  4  3 23 11 15 25  8]"
10600,338,1.0,10,4,623.1852376461029,54.77142333984375,1,678400,5018054,45046461,"[ 0  0  2  2  0  3  5  3  1  1  3  1  0  3  1  4  2  5  0  3  4  0  4  8
  5  8  5  3  7  6  1 11  2  4 11  4  2  1  9  1  1 12  5  7  7  3  9 17
  2 16 11  3  1 16  0  1  9  1  0 16  1  3  1  5 16 17  5 22 22  2 19 19
  1 21 15 11 15 25  8]"
10700,338,1.0,10,4,628.5630400180817,53.7779974937439,1,684800,5057293,45433215,"[ 0  0  2  2  0  3  5  1  1  1  1  0  0  3  1  4  2  5  0  4  2  0  4  8
  2  5  5  0  6  5  0  0 11  4 11  4  2  1  9  1  1 12  1 10  8  3 18  9
  4 16 10  3  1  9  5  9 10  4 12 18  1 21 14  0 16 17  4 17 17  5  3 15
  2 15 18 11 15 25  8]"
10800,338,1.0,10,4,633.8672158718109,53.04172992706299,1,691200,5095927,45813524,"[ 0  0  2  2  0  3  5  0  2  2  0  0  0  3  1  4  2  5  2  4  2  0  4  8
  3  1  5  1  1  3  4  0  0  4 11  4  2  1  9  1  1 12  4  2  8  1 18  9
  5 10 12  0 10 18  0  3 13  3  0  2  2 22  1  5 16 17  2 23  2  4 18  2
  5 19 22 11 15 25  8]"
10900,338,1.0,10,4,639.3066039085388,54.39385652542114,1,697600,5135158,46199739,"[ 0  0  2  2  0  3  2  0  1  4  1  1  0  3  1  4  2  5  5  2  5  0  4  8
  3  1  5  2  8  6  1  6 13  4 11  4  2  1  9  4  1 12  4  2  1  2  2 11
  2  3 11  3 15 13  2 14  1  3  0 18  1 19  1  5 16 17  2  0  0  5 20 14
  4 15 14 11 15 25  8]"
11000,338,1.0,10,4,644.9066140651703,56.00007772445679,1,704000,5175278,46594825,"[ 0  0  2  2  0  3  0  0  1  0  1  2  0  3  1  4  2  5  0  8  2  0  4  8
  5  8  5  1  0  5  2 13  9  4 11  4  2  1  9  1  1 12  4  2  1  5 10  0
  3 13  0  0 12  9  5  2  2  3  9  0  2 22 18  0 16 17  2 19 14  5 17 18
  1 20  3 11 15 25  8]"
11100,338,1.0,10,4,650.2782537937164,53.71637582778931,1,710400,5214540,46981134,"[ 0  0  2  2  0  3  0  1  1  5  1  0  0  3  1  4  2  5  4  6  7  0  4  8
  5  8  5  1  2  8  1  2 12  4 11  4  2  1  9  1  1 12  3  8  0  3  1  1
  3  0 11  2  9 17  5  3  9  1 12 16  3 21 18  5 16 17  5 22 18  5 16 19
  0 17 21 11 15 25  8]"
11200,338,1.0,10,4,655.6494874954224,53.712308406829834,1,716800,5253884,47368140,"[ 0  0  2  2  0  3  0  3  3  0  1  3  0  3  1  4  2  5  1  5  2  0  4  8
  3  1  5  3  8  3  1  5 13  4 11  4  2  1  9  1  1 12  4  3 11  2 15  9
  5 14 12  4 11  2  1  3 13  3  1 14  3  1  3  5 16 17  0  3 14  1  1 19
  3  1  1 11 15 25  8]"
11300,338,1.0,10,4,661.1252446174622,54.75754976272583,1,723200,5293729,47760772,"[ 0  0  2  2  0  3  0  3  0  2  1  2  0  3  1  4  2  5  4  5  4  0  4  8
  3  1  5  2  4  4  2 12  5  4 11  4  2  1  9  4  1 12  4  7  7  0  2 16
  4 17 16  3 16  9  1  9  3  2  1 14  0 16 15  5 16 17  1 15  3  1  1 19
  4  3 19 11 15 25  8]"
11400,338,1.0,10,4,666.7096438407898,55.843963623046875,1,729600,5334723,48165544,"[ 0  0  2  2  0  3  2  2  2  2  0  3  0  3  1  4  2  5  2  1  3  0  4  8
  3  5  8  3  0  4  1 10  9  4 11  4  2  1  9  4  1 12  5  0  1  0 17 17
  5  0 13  4 14  2  2 17  0  0 16 14  2 19 17  0 16 17  2 18 22  0  1 22
  0 21 17 11 15 25  8]"
11500,338,1.0,10,4,672.1667852401733,54.57139015197754,1,736000,5373422,48547089,"[ 0  0  2  2  0  3  1  3  2  1  0  3  0  3  1  4  2  5  4  4  6  0  4  8
  3  5  8  5  1  4  2  2  9  4 11  4  2  1  9  4  1 12  3  8 10  1 15  9
  1  2  3  0 11  9  1  9 11  5 12 14  5  1 16  5 16 17  4 16  0  2 19 19
  0 18 14 11 15 25  8]"
11600,338,1.0,10,4,677.5387578010559,53.719685077667236,1,742400,5411262,48920157,"[ 0  0  2  2  0  3  4  3  3  1  0  2  0  3  1  4  2  5  5  1  6  0  4  8
  3  1  5  5  7  5  0  2 10  4 11  4  2  1  9  1  1 12  4 10  2  3  1  0
  3  0 17  1 10  3  4 16  0  5  9 15  3 15 16  5 16 17  1 14  0  1 20 19
  1  1 16 11 15 25  8]"
11700,338,1.0,10,4,682.9358851909637,53.97124528884888,1,748800,5450040,49302751,"[ 0  0  2  2  0  3  0  0  0  5  1  3  0  3  1  4  2  5  5  1  0  0  4  8
  5  1  5  3  1  5  2 12 10  4 11  4  2  1  9  1  1 12  4 10  5  2 10  0
  4 16  9  0  1 18  1 11  1  3 11  3  4 21 16  5 16 17  3 17  0  3 21 18
  3  1 18 11 15 25  8]"
11800,338,1.0,10,4,688.3600888252258,54.24200773239136,1,755200,5489809,49694166,"[ 0  0  2  2  0  3  2  2  2  1  2  1  0  3  1  4  2  5  4  3  6  0  4  8
  2  5  5  2  5  0  2  4  9  4 11  4  2  1  9  1  1 12  1  0  0  4 17 18
  0  2 16  2 14  1  1  2 12  3  2  2  3 14  1  0 16 17  0  1  0  3  1 23
  1  1 15 11 15 25  8]"
11900,338,1.0,10,4,693.7440166473389,53.83924961090088,1,761600,5527973,50070663,"[ 0  0  2  2  0  3  1  3  0  3  2  1  0  3  1  4  2  5  5  7  8  0  4  8
  3  5  8  2  1  3  5  4 12  4 11  4  2  1  9  1  1 12  2 12 11  0 14  0
  1  9 14  2 11 14  0  2 12  1 18  0  0  1 16  0 16 17  1  1 14  2 15 23
  4 14 16 11 15 25  8]"
12000,338,1.0,10,4,699.1787707805634,54.34751272201538,1,768000,5567112,50456372,"[ 0  0  2  2  0  3  5  1  1  0  0  2  0  3  1  4  2  5  2  2  1  0  4  8
  3  5  8  1  1  5  2  3  4  4 11  4  2  1  9  4  1 12  1  2 12  2 12 16
  3 16 17  3 13 14  4 11 16  4 18 10  5  0 16  5 16 17  4 20  3  2 23 23
  2 18  1 11 15 25  8]"
12100,338,1.0,10,4,704.6774406433105,54.986674785614014,1,774400,5605870,50838357,"[ 0  0  2  2  0  3  5  1  3  1  1  1  0  3  1  4  2  5  2  2  6  0  4  8
  3  5  1  0  5  0  0  8  9  4 11  4  2  1  9  4  1 12  4  9  9  2 12 13
  1 14 14  3 17  1  1 17 16  1  1 13  5  0  3  5 16 17  1 15  3  2 16  0
  3 22 19 11 15 25  8]"
12200,338,1.0,10,4,710.1748170852661,54.973740577697754,1,780800,5644962,51224018,"[ 0  0  2  2  0  3  5  1  3  3  2  3  0  3  1  4  2  5  3  0  0  0  4  8
  3  5  1  0  0  2  1 10 11  4 11  4  2  1  9  1  1 12  5 11  3  2 12 17
  1 15 14  2  2 11  5  9 18  0 13  3  4 16 18  5 16 17  2  3  2  3  0  3
  3  1 21 11 15 25  8]"
12300,338,1.0,10,4,715.5312933921814,53.56473922729492,1,787200,5684048,51608298,"[ 0  0  2  2  0  3  5  1  2  1  2  2  0  3  1  4  2  5  4  7  1  0  4  8
  3  5  8  3  0  1  4 12  1  4 11  4  2  1  9  1  4 12  3 13  4  2 16  0
  0 14  1  3 16  0  0  9 18  4 14 15  4 19 21  5 16 14  2  3 21  0  1 15
  5 14 21 11 15 25  8]"
12400,338,1.0,10,4,720.8188972473145,52.876014709472656,1,793600,5722284,51985200,"[ 0  0  2  2  0  3  4  1  1  0  0  2  0  3  1  4  2  5  3  1  6  0  4  8
  3  5  1  0  5  0  1 12  1  4 11  4  2  1  9  2 10  7  2 10  2  0 14  0
  3 10 18  4 13  9  2 17 13  3 18  0  3 23 19  5 16 14  3 22  3  5 20  2
  2 14 18 11 15 25  8]"
12500,338,1.0,10,4,726.1818866729736,53.62987041473389,1,800000,5760688,52364019,"[ 0  0  2  2  0  3  3  0  0  1  3  2  0  3  1  4  2  5  4  1  4  0  4  8
  3  5  5  0  4  6  1 12  1  4 11  4  2  1  9  1 12  0  0  2  8  0 18 10
  2  1 13  0  0 16  0 12 14  1  1 13  5  0 22  5 16 14  0 17 18  5  1 21
  3  3 17 11 15 25  8]"
12600,338,1.0,10,4,731.6096546649933,54.27765130996704,1,806400,5799853,52749574,"[ 0  0  2  2  0  3  5  0  3  3  1  3  0  3  1  4  2  5  3  5  4  0  4  8
  5  5  1  0  3  3  1 12  1  4 11  4  2  1  9  0  4  9  2  5  5  4 18  9
  0 13 12  3 18 18  1 17 14  4 18  9  0 14  3  5 16 14  3 21  1  4 18 21
  0 22  1 11 15 25  8]"
12700,338,1.0,10,4,736.9199659824371,53.103084564208984,1,812800,5837558,53121677,"[ 0  0  2  2  0  3  3  3  0  0  1  0  0  3  1  4  2  5  3  2  4  0  4  8
  3  5  8  2  3  3  4 12  1  4 11  4  2  1  9  5  2  6  2  1  2  3 14  1
  5  1 18  2 13 13  1 12 18  5 16 10  4 18 14  0 16 14  1 19  1  1  2 20
  0 18 18 11 15 25  8]"
12800,338,1.0,10,4,742.4678642749786,55.47895431518555,1,819200,5877629,53516294,"[ 0  0  2  2  0  3  3  2  1  2  2  1  0  3  1  4  2  5  3  7  4  0  4  8
  3  5  8  1  8  0  4 12  1  4 11  4  2  1  9  2  9  2  4  1  4  1 13  3
  5 12 15  0 14 13  3  1 10  1  2  2  0  0 16  0 16 14  0  3 23  1 16 19
  3 15  3 11 15 25  8]"
12900,338,1.0,10,4,747.9349138736725,54.670472145080566,1,825600,5917172,53905710,"[ 0  0  2  2  0  3  5  2  1  3  2  3  0  3  1  4  2  5  0  8  8  0  4  8
  3  8  5  0  0  2  4 12  1  4 11  4  2  1  9  1  8 11  0  3  9  3 11  9
  0 11 15  0 13  2  0  1 10  1  2  2  0 16 20  5 16 14  3 22 19  5 21  0
  4 15 19 11 15 25  8]"
13000,338,1.0,10,4,753.3680195808411,54.3310284614563,1,832000,5955844,54286051,"[ 0  0  2  2  0  3  2  2  3  2  0  1  0  3  1  4  2  5  5  8  4  0  4  8
  3  1  5  2  5  3  4 12  1  4 11  4  2  1  9  3  1 13  0 11 12  5 14 16
  2 14 13  5  3 12  3 12 16  5 13  0  3 14 15  0 16 14  0 16 23  2 21  3
  0 23 20 11 15 25  8]"
13100,338,1.0,10,4,758.8434443473816,54.75422143936157,1,838400,5995759,54679274,"[ 0  0  2  2  0  3  0  1  1  5  2  2  0  3  1  4  2  5  2  2  7  0  4  8
  5  1  5  4  5  8  1 12  1  4 11  4  2  1  9  2  5 10  1  9  0  4  1 13
  5 15 13  3 17  0  2 16 13  5 11  0  2 17 22  5 16 14  5 17  0  0 15 22
  5 18  3 11 15 25  8]"
13200,338,1.0,10,4,764.2898118495941,54.463651180267334,1,844800,6034933,55064915,"[ 0  0  2  2  0  3  5  2  1  2  0  0  0  3  1  4  2  5  0  2  4  0  4  8
  5  1  5  2  7  1  1 12  8  4 11  4  2  1  9  0  1  5  5  9 13  1  3 16
  1 17 12  2 15 11  2  2 14  2 11 12  5 20 14  0 16 14  5  3 22  4  3 20
  5 22 22 11 15 25  8]"
13300,338,1.0,10,4,769.6408712863922,53.51057052612305,1,851200,6073649,55446336,"[ 0  0  2  2  0  3  4  2  3  3  0  1  0  3  1  4  2  5  5  2  0  0  4  8
  5  1  5  1  5  1  1 12  8  4 11  4  2  1  9  0 10 11  1  0  0  4 14  1
  1 11 16  0 13 17  4 16  2  1 13 12  0 19  0  0 16 14  4 18 14  4  3 17
  1 21 22 11 15 25  8]"
13400,338,1.0,10,4,775.1181197166443,54.77245569229126,1,857600,6112403,55828639,"[ 0  0  2  2  0  3  4  2  0  2  1  3  0  3  1  4  2  5  0  0  4  0  4  8
  3  8  5  4  1  3  1 12  1  4 11  4  2  1  9  0 10  5  2  1  4  4 14  0
  1 13 12  4  0  9  4  1 14  2  9 16  1 17 14  5 16 14  5  1 14  2 17 22
  0 21  0 11 15 25  8]"
13500,338,1.0,10,4,780.699556350708,55.814335346221924,1,864000,6152086,56219339,"[ 0  0  2  2  0  3  0  1  3  2  0  2  0  3  1  4  2  5  1  3  5  0  4  8
  5  1  5  1  6  2  1 12  1  4 11  4  3  7 10  4  0 13  2  1  9  1 16  3
  0 14  0  3 13 18  4 15  2  4 11  1  0  3 22  5 18 14  3 19  0  0 22 18
  3  2 21 11 15 25  8]"
13600,338,1.0,10,4,786.2313091754913,55.31750440597534,1,870400,6191403,56606579,"[ 0  0  2  2  0  3  4  2  2  1  0  1  0  3  1  4  2  5  1  4  4  0  4  8
  5  8  5  1  8  8  1 12  1  4 11  4  4  1 12  1  1  0  2  1  9  5 12 15
  3 17  3  2  1  3  1 12 10  3  0 13  2 14 15  0 18 14  2 17 15  3 17 14
  1 17  2 11 15 25  8]"
13700,338,1.0,10,4,791.546359539032,53.15047740936279,1,876800,6229460,56982094,"[ 0  0  2  2  0  3  0  2  0  0  1  0  0  3  1  4  2  5  5  8  4  0  4  8
  5  1  5  1  7  3  1 12  8  4 11  4  3  6  7  0  6  7  2  1  9  4 12 11
  3 12  3  1  0 18  1  1  3  1 15 13  3 18 14  5 18 14  5 21  0  3 22  1
  2 23 21 11 15 25  8]"
13800,338,1.0,10,4,796.838625907898,52.92263746261597,1,883200,6266933,57351459,"[ 0  0  2  2  0  3  2  2  1  3  0  0  0  3  1  4  2  5  5  7  4  0  4  8
  5  1  5  4  7  0  1 12  8  4 11  4  2  0 13  0  6 11  2  1  9  1 16 11
  3  9 12  2 16 14  2 16  3  5  9 18  0  3 19  0 18 14  3 18 21  3  1  0
  4  0 14 11 15 25  8]"
13900,338,1.0,10,4,802.2142879962921,53.75659704208374,1,889600,6306222,57739061,"[ 0  0  2  2  0  3  4  0  2  2  1  0  0  3  1  4  2  5  3  4  4  0  4  8
  5  1  5  3  8  5  1 12  1  4 11  4  3  1  2  1  6  1  2  1  9  5 15  0
  0  1 18  5 14 10  4  1 17  4 13  2  4 19 23  0 18 14  5 21 15  3 23 17
  4 14 21 11 15 25  8]"
14000,338,1.0,10,4,807.5514833927155,53.37191581726074,1,896000,6344893,58121087,"[ 0  0  2  2  0  3  5  3  1  1  2  1  0  3  1  4  2  5  2  6  2  0  4  8
  5  8  5  4  7  8  1 12  1  4 11  4  3 10 11  2 10  2  2  1  9  3 13 12
  2  1 12  2 16  2  3  3 14  3 13  9  3  0  2  5 18 14  2 18  2  0 17 21
  1 14  0 11 15 25  8]"
14100,338,1.0,10,4,813.0454342365265,54.93948459625244,1,902400,6384712,58513667,"[ 0  0  2  2  0  3  2  3  2  5  0  1  0  3  1  4  2  5  4  7  5  0  4  8
  5  5  1  1  7  6  1 12  1  4 11  4  0  2  9  4 11  8  2  1  9  3 13  0
  4 18 15  3 12 14  5 15  3  2 13  3  0  0  2  0 18 14  1  0 20  3  2  3
  0 23 17 11 15 25  8]"
14200,338,1.0,10,4,818.3763766288757,53.30939531326294,1,908800,6423294,58894899,"[ 0  0  2  2  0  3  1  1  1  1  2  1  0  3  1  4  2  5  5  4  7  0  4  8
  2  5  5  1  7  6  1 12  1  4 11  4  0  8  5  4  0 11  2  1  9  5 15 15
  4 11 15  2  1 10  3  0 13  4  2 17  2 14 15  5 18 14  3 17  1  3 22 23
  1  1 19 11 15 25  8]"
14300,338,1.0,10,4,823.6874661445618,53.11087369918823,1,915200,6461663,59273547,"[ 0  0  2  2  0  3  3  0  0  0  0  1  0  3  1  4  2  5  3  6  5  0  4  8
  5  8  5  2  2  0  1 12  1  4 11  4  4  8 13  0  3  8  2  1  9  1 15 17
  4 10  3  2 11 12  2 13 13  0 13 15  5 14 16  5 18 14  2 22  1  4 19 21
  4 14 18 11 15 25  8]"
14400,338,1.0,10,4,828.9504940509796,52.63025522232056,1,921600,6499732,59649268,"[ 0  0  2  2  0  3  3  1  2  2  0  1  0  3  1  4  2  5  3  2  7  0  4  8
  5  1  5  2  3  0  1 12  8  4 11  4  5  3  9  3  6  0  2  1  9  3 14  3
  3 10 17  5 16 18  0  3 17  5  2 14  3 14 19  0 18 14  3 21 21  5  1 21
  3  3 19 11 15 25  8]"
14500,338,1.0,10,4,834.3211030960083,53.706066608428955,1,928000,6538423,60030722,"[ 0  0  2  2  0  3  0  2  1  2  0  0  0  3  1  4  2  5  1  1  6  0  4  8
  5  5  8  4  3  1  1 12  1  4 11  4  5  4  4  5  3 12  2  1  9  1 16  9
  0  0 14  5 16 12  2 16 14  5 16 13  1 22 22  5 18 14  1  1 22  5 20 22
  4  3 19 11 15 25  8]"
14600,338,1.0,10,4,839.6744661331177,53.53360652923584,1,934400,6577456,60415754,"[ 0  0  2  2  0  3  0  2  1  2  2  0  0  3  1  4  2  5  5  4  3  0  4  8
  3  5  1  4  3  5  4 12  1  4 11  4  0 13 11  1  6 11  2  1  9  0 16  2
  3  3  0  0 14 10  0  1  3  2 16 14  2 20  3  5 18 14  1  0 19  4  2 16
  3 23 15 11 15 25  8]"
14700,338,1.0,10,4,845.1539404392242,54.79471445083618,1,940800,6616775,60803732,"[ 0  0  2  2  0  3  4  2  0  4  3  2  0  3  1  4  2  5  5  5  8  0  4  8
  4  5  8  2  0  4  1 10  1  4 11  4  5  5  3  3  9 12  2  1  9  5 12 11
  1  3  2  3 14  9  1  0 11  5 15 13  3 22 17  0 18 14  5 15 14  4 17 20
  1 19 18 11 15 25  8]"
14800,338,1.0,10,4,850.4973411560059,53.43398094177246,1,947200,6654842,61178620,"[ 0  0  2  2  0  3  1  3  2  1  3  2  0  3  1  4  2  5  3  5  1  0  4  8
  0  2  0  2  4  1  1  0  3  4 11  4  5 10  7  2 11 10  2  1  9  2 13 15
  2  1 17  0 15  1  4 10  1  2  0 15  3 19 20  0 18 22  3  0 23  1 16 18
  0 18 18 11 15 25  8]"
14900,338,1.0,10,4,855.8369317054749,53.39588165283203,1,953600,6693761,61562061,"[ 0  0  2  2  0  3  3  0  3  5  1  1  0  3  1  4  2  5  3  5  5  0  4  8
  3  1  2  1  1  8  3 10  6  4 11  4  3  5 12  2 13  2  2  1  9  1 10 13
  1 15 15  3  0 17  1 10  1  3 13 15  3 14 16  5 18 22  3  3 15  2 23 21
  1 22  2 11 15 25  8]"
15000,338,1.0,10,4,861.0852725505829,52.48337984085083,1,960000,6731413,61933360,"[ 0  0  2  2  0  3  0  3  1  1  2  2  0  3  1  4  2  5  3  8  5  0  4  8
  5  2  4  5  8  6  5  9  3  4 11  4  0  8  9  5 11  0  2  1  9  4 18 16
  1  1 15  1 13  0  1 10  1  1 17 18  1  3  2  5 18 22  5  3 15  4  2 15
  4 15 16 11 15 25  8]"
15100,338,1.0,10,4,866.5775415897369,54.92266654968262,1,966400,6771699,62330737,"[ 0  0  2  2  0  3  1  2  0  2  0  0  0  3  1  4  2  5  3  1  5  0  4  8
  2  5  0  3  3  1  5  6  3  4 11  4  5  9  7  4  2  0  2  1  9  0 13  9
  0 14  0  3 18 15  4 10  1  4  1  0  3 20 18  5 18 22  4 19  1  2  2 19
  4 15  2 11 15 25  8]"
15200,338,1.0,10,4,871.9068658351898,53.2932186126709,1,972800,6810380,62712873,"[ 0  0  2  2  0  3  5  3  0  4  2  1  0  3  1  4  2  5  5  1  5  0  4  8
  0  4  1  3  5  3  0  8  8  4 11  4  5  4  7  2  2  5  2  1  9  2 18  1
  1  2  2  3  1 15  1 10  1  2 15 16  5 16  3  5 18 22  2 19 19  2 16 20
  5 15 20 11 15 25  8]"
15300,338,1.0,10,4,877.3747200965881,54.67851638793945,1,979200,6849721,63100998,"[ 0  0  2  2  0  3  4  2  0  4  1  3  0  3  1  4  2  5  0  6  8  0  4  8
  0  2  8  3  1  5  5  9 12  4 11  4  2  2  7  3  4  8  2  1  9  3 14  0
  2 12  3  4 14 15  1 13  1  0 18  2  3 21 20  0 18 22  5 21 17  1  0 16
  2 15  2 11 15 25  8]"
15400,338,1.0,10,4,882.8765127658844,55.017900466918945,1,985600,6889348,63491876,"[ 0  0  2  2  0  3  2  2  2  4  1  0  0  3  1  4  2  5  3  2  3  0  4  8
  5  6  2  3  5  1  5 12 11  4 11  4  3  2 13  2  3 13  2  1  9  5 11 12
  5  9 13  0  9 17  1 13  1  5 15 12  4 17 22  0 18 22  1 14 20  1 15  1
  3  2 23 11 15 25  8]"
15500,338,1.0,10,4,888.2771425247192,54.00627374649048,1,992000,6927569,63868705,"[ 0  0  2  2  0  3  5  0  0  2  1  2  0  3  1  4  2  5  3  5  3  0  4  8
  0  3  3  3  5  1  2  5  2  4 11  4  4  2  1  3 10  9  2  1  9  5  2 14
  2 13 17  0 12 17  1 13  1  5 12 12  4 14 15  0 18 22  2  0 14  3 16 23
  2 20 15 11 15 25  8]"
15600,338,1.0,10,4,893.8681814670563,55.91036558151245,1,998400,6967330,64261264,"[ 0  0  2  2  0  3  2  2  2  5  0  3  0  3  1  4  2  5  4  8  5  0  4  8
  5  6  4  5  5  8  0  0 10  4 11  4  3  7 13  3  6  1  2  1  9  3 13 17
  4 16  0  3  2 18  1 13  1  0  1 17  1 19  3  5 18 22  5 21 16  3 18 15
  0  0 23 11 15 25  8]"
15700,338,1.0,10,4,899.4890151023865,56.2083101272583,1,1004800,7007504,64656800,"[ 0  0  2  2  0  3  5  3  2  4  3  0  0  3  1  4  2  5  4  8  6  0  4  8
  1  4  2  3  5  8  3  5  3  4 11  4  5 10  8  2  9  2  2  1  9  1  2 16
  4 10  0  4 17 10  4 13  1  5 16 11  5  0  0  5 18 22  4 20 16  1 21 19
  0  0 21 11 15 25  8]"
15800,338,1.0,10,4,904.9149415493011,54.25923824310303,1,1011200,7046016,65037040,"[ 0  0  2  2  0  3  5  0  3  0  3  2  0  3  1  4  2  5  4  1  0  0  4  8
  1  4  1  3  5  8  0  6  9  4 11  4  2  6  9  2 11  1  2  1  9  5  9  3
  4  1 17  4 17 11  4 13  1  4 11 18  2 17 16  5 18 22  3 19  2  2  3 15
  1 20 22 11 15 25  8]"
15900,338,1.0,10,4,910.3209347724915,54.059903621673584,1,1017600,7084642,65418603,"[ 0  0  2  2  0  3  5  2  2  4  0  3  0  3  1  4  2  5  2  6  5  0  4  8
  0  0  2  5  5  1  4 13  1  4 11  4  2  1  2  1  7  2  2  1  9  3 13  2
  3  2  9  2 17 16  1 13  1  5 11  2  3  3  0  0 18 22  3  3 22  4 16 15
  2  0  3 11 15 25  8]"
16000,338,1.0,10,4,915.5802788734436,52.59341478347778,1,1024000,7122575,65793031,"[ 0  0  2  2  0  3  1  2  3  2  1  2  0  3  1  4  2  5  0  6  5  0  4  8
  4  7  3  3  5  1  5  2  6  4 11  4  3  3  6  3  9  7  2  1  9  4 13  9
  0  9 15  5 17 14  4 13  1  0 10  3  5 19 20  5 18 22  1 16 21  0  0 22
  4 23 22 11 15 25  8]"
16100,338,1.0,10,4,920.9563679695129,53.76086473464966,1,1030400,7161357,66175731,"[ 0  0  2  2  0  3  5  2  3  2  2  0  0  3  1  4  2  5  5  6  6  0  4  8
  3  3  2  5  5  8  0 13  2  4 11  4  3  3 12  5  7 13  2  1  9  3 13  1
  0 12  2  5 18  1  1 13  1  3 16 13  2 19 16  0 18 22  1 14 14  2 19 22
  4 18  3 11 15 25  8]"
16200,338,1.0,10,4,926.4364268779755,54.800565242767334,1,1036800,7200727,66563958,"[ 0  0  2  2  0  3  5  3  0  4  0  0  0  3  1  4  2  5  2  8  5  0  4  8
  3  2  3  3  5  8  4  6  9  4 11  4  0  1  6  0  3  2  2  1  9  4 14  3
  3  0 10  5 15 14  4 13  1  4  0  2  4 23 20  5 18 22  1 16 14  0  0 20
  0 20  3 11 15 25  8]"
16300,338,1.0,10,4,931.9248595237732,54.884302616119385,1,1043200,7240510,66956309,"[ 0  0  2  2  0  3  3  0  2  2  3  2  0  3  1  4  2  5  4  5  3  0  4  8
  0  2  3  3  5  1  2  8  0  4 11  4  1  7  8  3  3  7  2  1  9  2  9 18
  0  2  3  2 10 16  4 13  1  4  1  3  4 15 22  5 18 22  0 16 14  2 20 21
  3 23  3 11 15 25  8]"
16400,338,1.0,10,4,937.3350515365601,54.10189390182495,1,1049600,7279268,67338757,"[ 0  0  2  2  0  3  4  0  1  3  0  1  0  3  1  4  2  5  4  6  4  0  4  8
  2  0  7  3  5  8  3 13  7  4 11  4  5  2  0  4  7 13  2  1  9  5 11 11
  1 11 17  3  1 13  4 13  1  4  1  9  3  0 17  5 18 22  1 23  2  1  3 23
  4 14 23 11 15 25  8]"
16500,338,1.0,10,4,942.6889300346375,53.538758754730225,1,1056000,7318077,67722064,"[ 0  0  2  2  0  3  3  3  2  4  0  1  0  3  1  4  2  5  0  3  8  0  4  8
  0  8  7  5  5  1  3  2  7  4 11  4  1 12 13  0 12 13  2  1  9  2 13 11
  2 17 15  5 13 13  1 13  1  4  1  9  3 23 21  5 18 22  0 18 22  1 17  0
  0 20  3 11 15 25  8]"
16600,338,1.0,10,4,948.0127530097961,53.238205909729004,1,1062400,7356321,68100028,"[ 0  0  2  2  0  3  3  2  3  1  0  3  0  3  1  4  2  5  5  7  6  0  4  8
  3  2  3  5  5  8  5 12  7  4 11  4  1 11 10  2  8  4  2  1  9  2 18 17
  0 17 18  4  3  1  1 13  1  2  0 13  1 19 20  5 18 22  5  0 17  3 14 17
  0 15 14 11 15 25  8]"
16700,342,1.0,7,3,953.1631817817688,51.50426626205444,1,1068800,7394547,68459393,"[ 0  0  2  2  0  3  2  1  2  2  2  3  0  3  1  2  6  5  4  1  1  0  4  8
  2  4  6  2  8  5  3  8  8  4 11  4  5  6  6  4  5  6  2  1  3  2 18 10
  1  2  2  2  0 13  3  0  1  1 15 14  3  2  3  5 17 17  5 15 14  3  3  3
  2  1 17 11 15 17  8]"
16800,342,1.0,7,3,957.5487587451935,43.85574817657471,1,1075200,7433717,68732129,"[ 0  0  2  2  0  3  2  1  2  1  2  0  0  3  1  4  0  2  3  6  7  0  4  8
  2  0  7  0  7  6  5 12  0  4 11  4  5  4  2  4  5  6  4 11  5  2 14 12
  3  9 11  5 11  9  5 10 13  0 12 12  2 18  1  3 21 14  0 18  1  4 23 16
  3  1 17 11 15 17  8]"
16900,342,1.0,7,3,961.944916009903,43.961546421051025,1,1081600,7472453,69002094,"[ 0  0  2  2  0  3  2  1  2  0  3  1  0  3  1  5  2  8  5  4  8  0  4  8
  2  1  4  4  6  5  5  5  9  4 11  4  0 11 10  4  5  6  3  6 10  2 11 10
  1 11 12  5 13 12  5  0 10  3 10 17  5 20  0  0  0  0  5 23 16  3 21 17
  2 19 16 11 15 17  8]"
17000,342,1.0,7,3,966.3051719665527,43.60253572463989,1,1088000,7511874,69276738,"[ 0  0  2  2  0  3  2  1  2  3  0  3  0  3  1  5  4  0  5  2  2  0  4  8
  1  3  7  2  6  5  3  7  8  4 11  4  4  5  8  4  5  6  5  8 11  3  2 11
  4 17 17  5 14  3  0 16 17  4  2 10  2 19 21  0 20  0  5  1 16  0 14 16
  4 19  1 11 15 17  8]"
17100,342,1.0,7,3,970.6022326946259,42.97058343887329,1,1094400,7550522,69545772,"[ 0  0  2  2  0  3  2  1  2  0  2  1  0  3  1  4  0  0  4  8  4  0  4  8
  2  5  3  0  7  5  5  7  3  4 11  4  4  5  1  4  5  6  4 13  1  2 13  0
  4  9  0  5 16  0  2 13 15  0 15 10  4 22 23  5 15 21  5  1 20  4  3 22
  4 18 20 11 15 17  8]"
17200,342,1.0,7,3,974.9514558315277,43.49220275878906,1,1100800,7589755,69818916,"[ 0  0  2  2  0  3  2  1  2  3  1  2  0  3  1  0  5  0  3  5  6  0  4  8
  2  3  3  0  7  8  1  9 12  4 11  4  4  3  9  4  5  6  4  6 10  2 12  9
  3 11 11  4 18 18  5 18  0  4 11 17  5 20 14  2 17 19  1 14 20  5 14  2
  2 23 21 11 15 17  8]"
17300,342,1.0,7,3,979.2164151668549,42.649569511413574,1,1107200,7627848,70084640,"[ 0  0  2  2  0  3  2  1  2  3  2  2  0  3  1  0  3  2  4  0  5  0  4  8
  0  5  1  0  8  6  1 11 10  4 11  4  4  1 13  4  5  6  4  1  7  2 16  9
  3 13  0  5 15 18  0 14 16  3  0 12  2  3 22  1 21 21  2 19 22  1  1  2
  1  3  0 11 15 17  8]"
17400,342,1.0,7,3,983.5741612911224,43.57743501663208,1,1113600,7666600,70354869,"[ 0  0  2  2  0  3  2  1  2  3  2  1  0  3  1  5  7  2  5  1  0  0  4  8
  2  7  2  5  6  8  3 13  1  4 11  4  1  5  1  4  5  6  3  8  8  2 17 10
  0 17  2  1  0  3  3 18 10  1  0  3  3 14  1  1 21  3  5 18  2  3 23  3
  2  3 14 11 15 17  8]"
17500,342,1.0,7,3,987.9378809928894,43.63717317581177,1,1120000,7705474,70626170,"[ 0  0  2  2  0  3  2  1  2  2  2  1  0  3  1  2  4  7  0  8  8  0  4  8
  1  5  5  5  1  4  0  5  5  4 11  4  0  4 12  4  5  6  3  4 10  2 10  2
  0  9  1  1  2 14  4  1 13  5  2 12  5 14  1  2 14  1  1 14 22  5  0 19
  0 14  3 11 15 17  8]"
17600,342,1.0,7,3,992.2611439228058,43.232600688934326,1,1126400,7744370,70897017,"[ 0  0  2  2  0  3  2  1  2  3  2  2  0  3  1  0  4  6  4  3  8  0  4  8
  4  3  4  4  5  1  3 12  3  4 11  4  2 10  2  4  5  6  4  8 12  2 11 12
  5 13 10  0 18 10  2  3  9  4 13 14  4  1  1  3 18 15  2  1 17  2 19 23
  2 19  3 11 15 17  8]"
17700,342,1.0,7,3,996.5378127098083,42.766666412353516,1,1132800,7782683,71164335,"[ 0  0  2  2  0  3  2  1  2  4  3  2  0  3  1  1  2  3  4  7  2  0  4  8
  1  1  6  5  0  3  2 10  7  4 11  4  0 10  1  4  5  6  3  7 13  3  3  3
  5 11 14  3 11  1  4 11  1  3  1  3  2  0  2  0 19  2  1 19 19  3  1 23
  0 14  3 11 15 17  8]"
17800,342,1.0,7,3,1000.8013179302216,42.63502597808838,1,1139200,7820856,71430196,"[ 0  0  2  2  0  3  2  1  2  3  3  3  0  3  1  3  2  3  5  1  4  0  4  8
  0  8  6  1  7  6  1  0 13  4 11  4  3  2  9  4  5  6  5  2 13  0 10  9
  4  1 17  4  1 17  3 14  9  0 11 18  1 16  2  0  2 16  5  2 15  4 17 17
  4 19 16 11 15 17  8]"
17900,342,1.0,7,3,1005.2542910575867,44.52970504760742,1,1145600,7859601,71700593,"[ 0  0  2  2  0  3  2  1  2  3  1  0  0  3  1  5  4  0  4  1  2  0  4  8
  1  6  0  5  2  7  5  0  9  4 11  4  2  2  6  4  5  6  4  1  3  4 12  1
  5 14 10  4 13  2  3 15  0  5 15 14  1 16 21  0  1 18  4 15 19  2 16 23
  4 19 17 11 15 17  8]"
18000,342,1.0,7,3,1009.5998799800873,43.4558629989624,1,1152000,7898780,71973812,"[ 0  0  2  2  0  3  2  1  2  0  1  2  0  3  1  1  8  1  5  4  4  0  4  8
  2  6  2  4  7  0  2  2  7  4 11  4  0  2  3  4  5  6  0  2  6  1 12  9
  3  9  1  2 17  0  1 14 17  5  3 13  0 23  2  1 20  0  2 16 23  2 15 20
  2  3 17 11 15 17  8]"
18100,342,1.0,7,3,1013.9281072616577,43.282248973846436,1,1158400,7937857,72246032,"[ 0  0  2  2  0  3  2  1  2  2  3  0  0  3  1  5  6  6  4  0  2  0  4  8
  2  8  5  4  1  4  2  0  6  4 11  4  2 11 12  4  5  6  3  5  7  0  0 13
  1 15  3  0 18 14  0 13 11  2  9 14  3  2  2  0 20 15  2 14  2  1  1 23
  4 18 17 11 15 17  8]"
18200,342,1.0,7,3,1018.3727285861969,44.446189403533936,1,1164800,7976622,72515764,"[ 0  0  2  2  2  2  2  1  2  2  3  0  0  3  1  3  8  8  5  6  2  0  4  8
  1  8  0  3  4  0  4  3  9  4 11  4  1  3  9  4  7  6  5  9 11  5 10  1
  0 13  9  5 10  3  0  3 18  5 16 15  4  3  2  1 15 16  4  1  2  0 20  0
  3 20  3 11 15 17  8]"
18300,342,1.0,7,3,1022.6913304328918,43.18599462509155,1,1171200,8015444,72786426,"[ 0  0  2  2  3  0  2  1  2  2  3  0  0  3  1  0  1  1  3  6  3  0  4  8
  3  7  4  4  8  3  4  6 13  4 11  4  2 12  0  4  7  6  2  2  2  4 11  0
  0 13  9  0 15 14  2 13 15  0 10 12  4 23 23  4 15  1  4  3 19  1  2 14
  0  1 23 11 15 17  8]"
18400,342,1.0,7,3,1026.9692623615265,42.779293060302734,1,1177600,8053750,73053644,"[ 0  0  2  2  3  0  2  1  2  5  1  0  0  3  1  3  6  1  1  1  7  0  4  8
  1  3  3  0  2  0  4 13  3  4 11  4  4  0  3  4  5  6  0 13  4  2 15  3
  2 12 11  5 16  1  1  0  1  3 11 13  2 19 22  1 18 18  4 15 17  1  2 16
  5 15 16 11 15 17  8]"
18500,342,1.0,7,3,1031.367713212967,43.98448467254639,1,1184000,8093268,73328450,"[ 0  0  2  2  3  0  2  1  2  4  3  0  0  3  1  3  6  7  1  3  0  0  4  8
  4  4  6  5  8  2  3 10  6  4 11  4  0  8  6  4  5  6  3 10 11  1 15 13
  2 16 14  5 10  1  0 15 16  4 17 15  0 14  3  2 23  0  4  0 21  1 15 15
  0 18  3 11 15 17  8]"
18600,342,1.0,7,3,1035.7222850322723,43.54568958282471,1,1190400,8132608,73602646,"[ 0  0  2  2  3  0  2  1  2  0  1  1  0  3  1  3  8  7  2  3  8  0  4  8
  4  1  2  2  1  4  1  0  8  4 11  4  0 13 10  4  5  6  3  8  7  2  0  1
  4 11  3  1 17 16  5  9  9  3 16 17  4 14  1  4 21 18  1 14  3  2 23  3
  1  3  3 11 15 17  8]"
18700,342,1.0,7,3,1040.0576932430267,43.354055881500244,1,1196800,8171725,73875437,"[ 0  0  2  2  3  0  2  1  2  1  1  3  0  3  1  4  8  3  2  4  8  0  4  8
  2  1  1  0  6  2  5  1 12  4 11  4  1  2 10  4  5  6  2  8  4  0 12 16
  5  2  0  5 13 13  1 15  0  1 12 12  0  1 21  3 21 20  5 20 20  4 22  0
  2 22  3 11 15 17  8]"
18800,342,1.0,7,3,1044.4502310752869,43.92535209655762,1,1203200,8211249,74150811,"[ 0  0  2  2  3  0  2  1  2  4  1  0  0  3  1  1  0  0  1  7  1  0  4  8
  1  1  7  4  7  0  2 10  5  4 11  4  0  4  9  4  5  6  2 11  0  3  1 16
  1 17  0  3 17 12  5  3 12  1 16  1  3 18 21  2  1 23  3 18 16  4 20  0
  5 15 17 11 15 17  8]"
18900,342,1.0,7,3,1048.7227647304535,42.72531270980835,1,1209600,8249396,74416789,"[ 0  0  2  2  3  0  2  1  2  4  1  0  0  3  1  1  3  0  4  5  3  0  4  8
  2  5  4  5  0  3  4 13  9  4 11  4  0  0  9  4  5  6  5  7  0  0 13 11
  4  0 13  3  9 12  3  1  2  5 14  9  5 21 22  1  0  0  5 19  1  3 19 23
  4  1 23 11 15 17  8]"
19000,342,1.0,7,3,1052.9860260486603,42.63258695602417,1,1216000,8287452,74682194,"[ 0  0  2  2  3  0  2  1  2  4  0  0  0  3  1  2  8  7  2  1  7  0  4  8
  0  5  4  1  7  6  1  1  6  4 11  4  0  7  9  4  5  6  3 12  6  4 10 15
  5  2 14  1 11 14  3 13 10  1  1 10  5  1  0  1 23  1  2 22  0  0 14 14
  5 17 22 11 15 17  8]"
19100,342,1.0,7,3,1057.3859190940857,43.99890661239624,1,1222400,8326693,74955774,"[ 0  0  2  2  3  0  2  1  2  3  2  2  0  3  1  1  2  6  2  4  0  0  4  8
  4  0  4  2  0  8  0  4 12  4 11  4  4  7  6  4  5  6  3  2 12  2 10 15
  4 14  2  2  2  9  0 15 14  3 11 16  4 15  2  0  2  0  5 14 21  3  1 22
  4 15 18 11 15 17  8]"
19200,342,1.0,7,3,1061.7088334560394,43.22911739349365,1,1228800,8365777,75228232,"[ 0  0  2  2  3  0  2  1  2  5  3  3  0  3  1  1  7  5  4  8  3  0  4  8
  2  3  7  0  2  3  1  0  2  4 11  4  3  5  4  4  5  6  3  2  6  0  3 15
  3 17 15  0 15 14  2 13 16  4  2 16  0  1  2  0 15  1  4  3 21  1 16 22
  2 14  0 11 15 17  8]"
19300,342,1.0,7,3,1066.0825498104095,43.73713731765747,1,1235200,8404556,75498507,"[ 0  0  2  2  3  0  2  1  2  5  1  2  0  3  1  0  1  0  4  8  0  0  4  8
  5  6  7  5  8  2  0  2  7  4 11  4  2  9  2  4  5  6  4  8  4  0  2 15
  2 13 14  1 13 14  1 14 16  1  1 10  3  0  1  4 18  2  0 21 17  1 22 16
  5 22  2 11 15 17  8]"
19400,342,1.0,7,3,1070.4225659370422,43.40013265609741,1,1241600,8443555,75770353,"[ 0  0  2  2  3  0  2  1  2  5  1  3  0  3  1  1  4  1  5  8  7  0  4  8
  2  7  2  0  1  5  3  9  0  4 11  4  1 11 11  4  5  6  0  6 13  4  2 15
  3  1 16  1 10 14  4 18 14  3 18  1  4 14 20  0 23  2  0 16 23  4  2  0
  2  3 18 11 15 17  8]"
19500,342,1.0,7,3,1074.7132232189178,42.9065465927124,1,1248000,8481564,76034850,"[ 0  0  2  2  3  0  2  1  2  0  3  2  0  3  1  2  2  8  4  7  3  0  4  8
  2  8  5  1  4  3  1  9 12  4 11  4  4 12  5  4  5  6  0  1  1  0 13  2
  1 18  3  4  0  1  5 16 13  0 14 16  3 23 16  3 22 20  0 23  0  5 19 14
  1 19 18 11 15 17  8]"
19600,342,1.0,7,3,1079.1029744148254,43.89748811721802,1,1254400,8520909,76308861,"[ 0  0  2  2  3  0  2  1  2  2  2  0  0  3  1  2  4  4  1  4  8  0  4  8
  1  8  2  3  3  3  0 12  4  4 11  4  5 10  4  4  5  6  1 12 12  3  0  9
  4 13  0  3  0 14  4 10 14  0  0  0  2 19 16  5 15 23  4  1  0  5 19 21
  5 17 18 11 15 17  8]"
19700,342,1.0,7,3,1083.4122207164764,43.09243679046631,1,1260800,8559087,76574913,"[ 0  0  2  2  3  0  2  1  2  5  1  3  0  3  1  3  4  7  1  7  7  0  4  8
  2  6  2  5  6  3  0  2 12  4 11  4  3  0  1  4  5  6  4  5  9  4  9 10
  3  0  0  1  9  9  3 13 13  2  2  2  0  0  0  1  3 21  4  2 20  0  1 18
  1 14 14 11 15 17  8]"
19800,342,1.0,7,3,1087.7279727458954,43.15749406814575,1,1267200,8597406,76842252,"[ 0  0  2  2  3  0  2  1  2  0  3  2  0  3  1  3  5  1  3  1  1  0  4  8
  5  1  6  2  2  8  3  6 12  4 11  4  2  3 13  4  5  6  5 12 13  1 11 10
  3 18  3  3 10  9  5 17 13  0 18 16  1  0 15  3 21 16  3 22 21  2 23 16
  0 22 18 11 15 17  8]"
19900,342,1.0,7,3,1092.0617060661316,43.33730697631836,1,1273600,8635473,77107274,"[ 0  0  2  2  3  0  2  1  2  5  3  2  0  3  1  0  4  0  1  8  1  0  4  8
  5  0  1  5  2  6  1  1 10  4 11  4  5  3  1  4  5  6  0 13  4  4 11 13
  3  2 16  3  0 13  3 13  3  4 13 18  1  3 23  3  0  3  0  0 15  4 22 16
  2 19  3 11 15 17  8]"
20000,342,1.0,7,3,1096.3599436283112,42.98234939575195,1,1280000,8674022,77375565,"[ 0  0  2  2  3  0  2  1  2  2  1  1  0  3  1  3  2  8  1  8  5  0  4  8
  5  3  0  0  7  1  2 11  7  4 11  4  2  6 10  4  5  6  2  3 13  0  2  1
  0 11  1  3 16 12  5 13  3  2  2 13  5  0 17  1 16  3  1 23  2  1  0 21
  3 15 14 11 15 17  8]"
