generation,fitness,functionality,active_nodes,longest_path,time,gen_time,nc_gens,fitness_evals,graph_evals,node_evals,genotype
0,175.0,0.484375,7,3,0.00626063346862793,6.257772445678711,0,0,0,0,"[ 5  0  3  5  0  3  1  2  1  4  1  3  3  0  0  4  0  3  0  6  3  3  1  6
  0  3  6  2  0  0  3  4 12  1  7 12  1  8  3  5 11 10  1  8 12  4  1 13
  1  9  3  3  9  1  1 18 12  0 12 15  2  3 14  1 17 19  4 16 16  4 19 22
  0  0 16 15  0 14  8]"
100,321.0,0.9375,6,3,4.260868549346924,42.54605770111084,0,3200,41656,290313,"[ 0  2  1  1  3  1  2  2  1  1  2  2  3  0  2  3  3  6  0  2  4  0  6  5
  0  4  3  2  0  6  1  8  7  0  4  3  1 10  0  0  3  1  2  2  0  4  1  0
  0 17 14  3 17 18  5  0 17  0  0 15  5 23 17  3 14 16  2 19 17  0 16 16
  2 16  1 23 21  4 17]"
200,321.0,0.9375,6,3,8.137765407562256,38.76894235610962,2,6400,79077,534754,"[ 0  2  1  4  0  0  1  3  0  0  1  2  4  3  3  3  6  4  3  7  4  3  6  4
  4  8  4  2  4  6  2  9  6  0  4  3  3  9  1  0  3  1  2  2  0  1 17 14
  4 16 14  3 15 18  3  0 16  0  0 15  2  1 16  0 23 19  0 15  1  4 21 20
  2 16 14 23 21  4 17]"
300,321.0,0.9375,6,3,11.88102388381958,37.43256092071533,5,9600,116584,779915,"[ 0  2  1  3  1  1  0  1  0  1  2  2  0  0  1  3  7  7  1  4  6  2  7  0
  0  0  7  5  8  1  1 11  1  0  4  3  0  9  0  0  3  1  2  2  0  2 15 16
  4  9 11  3 17 18  2  0 18  0  0 15  1 23  2  5 22  3  3 16 19  0  0  0
  4 16 21 23 21  4 17]"
400,321.0,0.9375,6,3,15.684601068496704,38.03575038909912,8,12800,154326,1026977,"[ 0  2  1  2  0  1  1  3  0  5  0  0  0  2  1  2  2  7  0  5  0  2  8  6
  1  3  8  5  2  3  4 10 12  0  4  3  0  7  1  0  3  1  2  2  0  5 10 14
  5  0  1  3 15 18  0  1 16  0  0 15  4 21 20  3 19 15  3 16  0  3  0  0
  2 21 21 23 21  4 17]"
500,321.0,0.9375,6,3,19.417858839035034,37.33255386352539,10,16000,192167,1273282,"[ 0  2  1  3  2  0  4  1  3  0  2  2  5  2  2  1  5  6  1  5  6  2  2  1
  5  6  4  4  6  4  2  4  2  0  4  3  5  2  2  0  3  1  2  2  0  0 12 13
  0 16 11  3 15 18  0 11 14  0  0 15  5  3 19  5 23  2  1  1  3  3 20  3
  2  0 22 23 21  4 17]"
600,321.0,0.9375,6,3,23.163956880569458,37.460951805114746,11,19200,229872,1516327,"[ 0  2  1  0  2  0  3  0  2  2  3  3  1  3  1  2  1  1  5  6  2  2  4  5
  3  3  0  5  1  7  0 12 10  0  4  3  3  6  8  0  3  1  2  2  0  3 14  0
  1 16 11  3 15 18  2 12 14  0  0 15  5 15 16  4 18  2  0 16 21  4  0 20
  5 16 15 23 21  4 17]"
700,321.0,0.9375,6,3,26.92669153213501,37.6273250579834,14,22400,267894,1764447,"[ 0  2  1  1  3  1  4  2  2  5  3  1  1  2  2  3  2  2  4  4  7  0  7  1
  0  6  6  4  5  5  2  3  4  0  4  3  1  3  1  0  3  1  2  2  0  0 11 15
  1  2 18  3 17 18  4 11 14  0  0 15  0 18  1  5 21  1  5 15  0  0 19 20
  1 14 18 23 21  4 17]"
781,341,1.0,8,3,30.02324867248535,38.22906223344214,15,24992,298784,1965180,"[ 0  2  1  0  3  1  2  3  3  0  1  0  0  3  0  3  5  0  2  5  4  4  4  8
  0  6  1  4  0  0  5 10  8  0  4  5  0  1 12  0  3  1  2  2  0  5 15 10
  4  3 14  3 15 18  0 14 16  0  0 15  1 23 23  3  2 17  1 16 19  1 19  1
  1 19  2 23 21 11  5]"
800,341,1.0,8,3,30.518051385879517,26.042110041568154,15,25600,302576,1995315,"[ 0  2  1  0  3  1  2  3  2  5  1  1  0  3  0  4  5  0  2  5  5  4  4  8
  0  5  1  4  0  1  2 10 10  0  4  8  0  8  3  2  3  1  2  2  0  5 15 13
  4  3 14  3 15 18  0 18  2  0  0 15  1 23 23  4  2 18  1 16 19  1  2 23
  0 19 18 23 21 11  5]"
900,342,1.0,7,3,32.95380520820618,24.35751438140869,15,28800,321578,2140973,"[ 0  2  1  0  3  1  5  1  1  0  2  0  0  3  0  1  6  3  4  1  0  4  4  8
  2  8  2  0  2  0  2  8 10  0  4  8  5  3  3  4  4  6  2  2  0  4 11  9
  0  9 18  5 15 18  4 10  2  0 18  2  0 20 14  3 18 17  4  3  2  4  2 19
  4  2 14 15 21 11  5]"
1000,342,1.0,7,3,35.24141502380371,22.87607431411743,15,32000,340205,2271213,"[ 0  2  1  0  3  1  4  3  1  1  3  0  0  3  0  0  0  3  2  3  0  4  4  8
  3  1  7  2  4  2  3  1 12  0  4  8  1  7  0  5  6  2  2  2  0  4 18 18
  2  9  1  5 15 18  5  0 12  0  3 12  1  2 15  3  1  1  1 15 23  5  3  2
  5 19 17 15 21 11  5]"
1100,342,1.0,7,3,37.53387665748596,22.9245924949646,15,35200,358401,2398812,"[ 0  2  1  0  3  1  2  0  1  2  0  2  0  3  0  4  0  2  3  3  3  4  4  8
  5  3  0  0  4  6  2  2 13  0  4  8  2 13 12  2  9  0  2  2  0  5  0  0
  1  1  1  3 15 18  4  0 16  0 13  0  0 22 22  2 20 16  0 21 19  1 23 16
  1 21 19 15 21 11  5]"
1200,342,1.0,7,3,39.88158845901489,23.477091789245605,15,38400,377379,2531706,"[ 0  2  1  0  3  1  0  2  2  3  3  1  0  3  0  4  6  1  2  1  1  4  4  8
  5  6  8  3  8  6  2  6 12  0  4  8  2  8  9  0 12 13  2  2  0  2 14 17
  5  1  1  5 15 18  0 10  1  3 11  1  2 16 23  5 15  3  5 16  1  1 22 21
  3 16 22 15 21 11  5]"
1300,342,1.0,7,3,42.16516733169556,22.83576488494873,15,41600,395212,2656748,"[ 0  2  1  0  3  1  0  1  2  3  1  3  0  3  0  3  6  0  0  6  8  4  4  8
  5  2  7  2  8  0  3 12  7  0  4  8  2  0  7  2  0  0  2  2  0  2 11  9
  3  1  2  3 15 18  2  9  0  4 14  9  2  3 17  0 14  3  2 16 19  1  3 19
  0 17 22 15 21 11  5]"
1400,342,1.0,7,3,44.40364408493042,22.384743690490723,17,44800,413341,2783537,"[ 0  2  1  0  3  1  2  2  2  0  2  3  0  3  0  5  7  7  5  2  2  4  4  8
  5  7  7  3  5  8  5 11  5  0  4  8  1  1  3  2  0  3  2  2  0  5  2 18
  3  3  3  3 15 18  1 12 10  3 13 13  2 22 22  5  1  1  5  2  3  4 21 15
  0 21  1 15 21 11  5]"
1500,342,1.0,7,3,46.67489194869995,22.712457180023193,18,48000,431606,2910935,"[ 0  2  1  0  3  1  2  0  2  1  2  3  0  3  0  4  2  2  0  4  7  4  4  8
  3  0  1  5  2  8  0  4  2  0  4  8  3 10 11  3  3 10  2  2  0  1  1  3
  4  1  3  3 15 18  0  1  0  4 11  1  1 16 16  2 22 18  0 15 15  2 16  0
  4  0 18 15 21 11  5]"
1600,342,1.0,7,3,48.894715785980225,22.198209762573242,19,51200,449493,3035836,"[ 0  2  1  0  3  1  5  0  0  5  0  1  0  3  0  2  1  2  2  4  4  4  4  8
  4  5  5  4  7  3  3  5  1  0  4  8  4  3  9  5  6 10  2  2  0  2  9  2
  3 18  9  5 15 18  4 16 15  3  9 13  4 22 23  0 19 18  5 18  2  2 20 21
  1 15 18 15 21 11  5]"
1700,342,1.0,7,3,51.156965494155884,22.62247323989868,20,54400,467424,3161237,"[ 0  2  1  0  3  1  5  1  2  2  2  0  0  3  0  1  0  7  4  8  3  4  4  8
  3  0  2  5  8  4  4  6  8  0  4  8  4 13  1  5  3  1  2  2  0  1 13  2
  0  0 18  3 15 18  2 13  9  1  2 13  5 15 23  4 22 15  5 19 14  1 17 22
  3 18  0 15 21 11  5]"
1800,342,1.0,7,3,53.56143665313721,24.04468536376953,20,57600,485859,3289992,"[ 0  2  1  0  3  1  3  1  3  1  0  1  0  3  0  0  1  7  4  8  5  4  4  8
  2  6  7  4  4  4  1  0  9  0  4  8  3  9  2  5  2  5  2  2  0  1 18 14
  3 10 12  5 15 18  1 13 14  0 18 11  4 16 15  3 16 14  4  1 18  1 14 14
  2 16  3 15 21 11  5]"
1900,342,1.0,7,3,55.84164500236511,22.80205726623535,21,60800,504387,3419691,"[ 0  2  1  0  3  1  1  3  2  0  0  1  0  3  0  1  0  6  3  8  5  4  4  8
  4  4  2  0  7  5  0 12 13  0  4  8  2  8  1  2  7 13  2  2  0  3 13 18
  4  9 12  5 15 18  1 17 14  2 16 11  0 15 17  4  1 20  4 18  3  3 23  1
  1  1  3 15 21 11  5]"
2000,342,1.0,7,3,58.065146923065186,22.234995365142822,22,64000,522135,3543969,"[ 0  2  1  0  3  1  0  2  3  5  3  1  0  3  0  4  0  6  4  6  7  4  4  8
  1  6  7  5  1  5  3 12 12  0  4  8  1  7 10  1 13  6  2  2  0  1 18 11
  5 12  1  5 15 18  1 18 16  2 10 12  1 15 19  4  1 15  3 19 21  3  2 17
  2 20 15 15 21 11  5]"
2100,342,1.0,7,3,60.35599136352539,22.90841817855835,22,67200,540822,3674554,"[ 0  2  1  0  3  1  3  1  3  3  2  0  0  3  0  5  7  4  3  0  8  4  4  8
  4  2  2  3  6  2  3  5 12  0  4  8  1 13  6  1  7  9  2  2  0  1  0 13
  1 18 13  3 15 18  4  3 11  0 10 13  3 23 19  0  2  0  1  3 16  3 19 19
  3 19  1 15 21 11  5]"
2200,342,1.0,7,3,62.59615087509155,22.40156888961792,22,70400,558962,3801281,"[ 0  2  1  0  3  1  0  1  0  2  1  3  0  3  0  3  3  2  2  3  4  4  4  8
  0  8  8  0  5  6  1 13  3  0  4  8  3  6  2  3  2  2  2  2  0  1 15 17
  3 12  0  5 15 18  4  3 11  4 13 16  0 18 17  5 21 23  5  1 17  0  0 16
  4  1 15 15 21 11  5]"
2300,342,1.0,7,3,64.86432242393494,22.681691646575928,23,73600,577475,3930530,"[ 0  2  1  0  3  1  5  2  3  4  2  3  0  3  0  2  0  2  4  6  2  4  4  8
  3  2  8  4  0  1  2  0  2  0  4  8  4  9 13  0  2  9  2  8  9  5 16 17
  4  1 13  5 15 14  5 18 18  5  1 14  3 22  1  4  1  2  0  3 17  0 14 19
  4 19 19 15 21 11  5]"
2400,342,1.0,7,3,67.16033816337585,22.96013116836548,23,76800,596349,4062349,"[ 0  2  1  0  3  1  5  2  1  3  3  1  0  3  0  0  6  1  3  4  5  4  4  8
  1  2  8  3  2  6  2  0  2  0  4  8  5  5  3  2 10  1  1  9  9  4  9  2
  3 14 17  5 15 14  5 15 14  1 18 12  1 23 23  1 14 19  2  1 14  4 16 15
  0 18  1 15 21 11  5]"
2500,342,1.0,7,3,69.40045857429504,22.401180267333984,23,80000,614328,4187993,"[ 0  2  1  0  3  1  3  2  2  1  2  2  0  3  0  2  4  8  1  1  5  4  4  8
  5  0  0  5  8  3  2  0  2  0  4  8  1 10 10  1  3  5  1 13  3  1 17 13
  5 15 15  5 15 14  3  0  0  5 10 12  3 16 18  0 21  3  0 15 19  3 19  3
  2 22 20 15 21 11  5]"
2600,342,1.0,7,3,71.63165760040283,22.31196165084839,27,83200,632367,4314034,"[ 0  2  1  0  3  1  3  2  1  2  3  1  0  3  0  3  2  0  4  1  3  4  4  8
  0  4  7  1  3  4  2  0  2  0  4  8  1 13  2  0  4 12  1  1  2  2 11 17
  2 17  1  3 15 14  4 11  3  5  1 15  4 17 14  0  2 17  1  2 14  3 17 18
  4  1 16 15 21 11  5]"
2700,342,1.0,7,3,73.91549324989319,22.838332653045654,28,86400,650801,4442848,"[ 0  2  1  0  3  1  5  1  0  3  2  0  0  3  0  3  8  5  0  4  7  4  4  8
  3  5  2  0  1  7  2  0  2  0  4  8  2  1  9  3  7  8  1  2  7  1 17 11
  3  9 12  5 15 14  2 12 11  1 15 18  4  2 19  0  2 21  0 16  2  4 14  1
  2 16  3 15 21 11  5]"
2800,342,1.0,7,3,76.16398477554321,22.484889030456543,30,89600,668061,4563601,"[ 0  2  1  0  3  1  2  0  3  3  1  1  0  3  0  0  4  6  1  2  0  4  4  8
  2  3  2  4  2  4  2  0  2  0  4  8  5  9  3  3  5  5  0  3  7  1  9 15
  5  3  9  3 15 14  1  2 16  3  2  0  5 22 20  0 14 20  1 18 16  3  0 19
  0 21 16 15 21 11  5]"
2900,342,1.0,7,3,78.36762547492981,22.036380767822266,30,92800,685607,4686447,"[ 0  2  1  0  3  1  3  3  3  0  0  2  0  3  0  3  8  4  4  1  6  4  4  8
  2  1  2  0  0  6  2  0  2  0  4  8  4  6  4  3  3 12  5  3  9  1 12  3
  3 13 16  5 15 14  5 13 11  4 10 10  0  2  0  2 20  1  2 22 14  0 20 22
  0 16 15 15 21 11  5]"
3000,342,1.0,7,3,80.57952761650085,22.11899757385254,33,96000,703158,4809412,"[ 0  2  1  0  3  1  3  3  2  1  1  0  0  3  0  1  3  7  4  6  3  4  4  8
  2  5  3  5  4  2  2  0  2  0  4  8  4  4 12  1  9  2  2  6  3  2 18 14
  1  3 14  5 15 14  4  9 15  2 16 10  3 16 23  4  0  1  1 15 18  4 14 21
  1  2  0 15 21 11  5]"
3100,342,1.0,7,3,82.78834676742554,22.088167667388916,34,99200,720910,4933587,"[ 0  2  1  0  3  1  4  3  0  0  0  1  0  3  0  4  7  7  3  3  5  4  4  8
  2  3  0  5  5  5  2  0  2  0  4  8  4  6  2  3 12 11  2  1  3  4  3 17
  0 11  9  5 15 14  0 17 13  5  9  0  5  1 19  0 23 19  1 20 18  0  3  3
  0 16  2 15 21 11  5]"
3200,342,1.0,7,3,85.08549237251282,22.9714298248291,34,102400,738671,5057693,"[ 0  2  1  0  3  1  2  2  2  1  1  2  0  3  0  5  7  4  3  8  8  4  4  8
  0  0  4  2  3  0  2  0  2  0  4  8  3 10  2  0  2 11  1  7  4  3  0 15
  1 11 12  5 15 14  4 11 14  3  3  9  0 22 23  1  2 14  4 17  2  0 18 18
  0 22 18 15 21 11  5]"
3300,342,1.0,7,3,87.34346342086792,22.579681873321533,34,105600,757148,5186541,"[ 0  2  1  0  3  1  4  3  0  4  0  0  0  3  0  3  5  5  0  0  6  4  4  8
  2  0  2  2  2  5  2  0  2  0  4  8  1  8  4  1 11  9  2  8  2  4 13 14
  3 11  0  3 15 14  4 13  2  1 13 17  4 21  1  1 22 22  5 23 17  1  3 19
  3 14 14 15 21 11  5]"
3400,342,1.0,7,3,89.6236789226532,22.802133560180664,35,108800,775454,5314748,"[ 0  2  1  0  3  1  4  0  2  5  0  0  0  3  0  3  3  6  0  0  6  4  4  8
  1  8  4  2  0  3  2  0  2  0  4  8  4  1  5  2  1  8  4  0  8  1 10 13
  2 17 14  3 15 14  3 18 12  5 14 17  3 22  2  4 19 16  3 16 23  4  2  3
  3 14 14 15 21 11  5]"
3500,342,1.0,7,3,91.85480785369873,22.31126308441162,36,112000,793342,5439790,"[ 0  2  1  0  3  1  4  0  1  2  2  3  0  3  0  5  2  8  0  0  5  4  4  8
  2  7  3  3  7  3  2  0  2  0  4  8  0  6  3  5  6 11  2  9 12  1 10 13
  3  9  2  5 15 14  0 13 12  2 10 12  0  3 16  0 23 19  4 19 22  4 19 23
  4 16  0 15 21 11  5]"
3600,342,1.0,7,3,94.08931708335876,22.345070838928223,38,115200,811433,5566620,"[ 0  2  1  0  3  1  1  2  0  1  1  0  0  3  0  3  8  4  4  3  0  4  4  8
  5  3  4  2  7  0  2  0  2  0  4  8  3 11  5  2  9  9  2  4  5  5 18 17
  3 18  2  3 15 14  3 16 12  0 12 12  2 14  3  1 16  0  4  3 14  1  1 22
  2 19 18 15 21 11  5]"
3700,342,1.0,7,3,96.29038190841675,22.010622024536133,38,118400,829060,5689922,"[ 0  2  1  0  3  1  3  2  1  4  2  0  0  3  0  3  3  2  1  2  5  4  4  8
  5  3  7  1  6  0  2  0  2  0  4  8  3  2  3  4  9  6  4  6  3  2  3 15
  1 14 15  5 15 14  2 14 13  4  2 15  4  2  1  1 14 20  2 17 20  4  1 15
  5 22  1 15 21 11  5]"
3800,342,1.0,7,3,98.54992532730103,22.595410346984863,38,121600,847496,5818611,"[ 0  2  1  0  3  1  5  0  2  3  2  1  0  3  0  5  2  5  1  5  7  4  4  8
  1  0  3  2  7  0  2  0  2  0  4  8  1  2  1  2  4 11  4  4  4  4 18 15
  2  3 14  3 15 14  1  1 13  1 11 10  1  3 19  1  0 17  4 18 14  1 16  1
  1 22 21 15 21 11  5]"
3900,342,1.0,7,3,100.73543667793274,21.855087280273438,39,124800,864861,5940057,"[ 0  2  1  0  3  1  5  2  0  3  3  1  0  3  0  5  3  1  4  0  0  4  4  8
  3  1  8  2  7  7  2  0  2  0  4  8  0  5 11  0  5 13  3 13  4  0 11 16
  2 14 13  5 15 14  5 13  2  2 12 13  2 21 22  4 22  1  1 19  2  5  2 16
  4 19 17 15 21 11  5]"
4000,342,1.0,7,3,103.00901484489441,22.73575782775879,39,128000,883124,6067493,"[ 0  2  1  0  3  1  1  1  0  3  3  2  0  3  0  0  3  0  0  8  1  4  4  8
  0  3  1  0  2  7  2  0  2  0  4  8  2 11  7  3  5  0  5 10 10  5 16 18
  2 12  2  3 15 14  2  2  1  0 17  1  1 20  2  4  0  0  0  0 16  2 14  1
  1 22  2 15 21 11  5]"
4100,342,1.0,7,3,105.18936276435852,21.803457736968994,39,131200,900686,6190142,"[ 0  2  1  0  3  1  5  1  0  5  2  2  0  3  0  0  0  3  5  2  6  4  4  8
  3  3  1  4  2  7  2  0  2  0  4  8  1  6  7  1  0  2  3  5  2  1 10  1
  4 15  9  3 15 14  4 17  3  3 13 17  2 14 21  5 17  0  3  0 20  5 19  2
  3 20  3 15 21 11  5]"
4200,342,1.0,7,3,107.48445296287537,22.950875759124756,39,134400,918618,6315750,"[ 0  2  1  0  3  1  3  1  2  3  1  2  0  3  0  3  0  8  2  7  2  4  4  8
  3  0  8  3  6  0  2  0  2  0  4  8  1  3  8  5 10  6  3 10  7  5  1  9
  1 11 18  3 15 14  4 17 10  0  3 18  4  0 21  4 15  0  2 14 17  4  3 23
  2  2  0 15 21 11  5]"
4300,342,1.0,7,3,109.74785327911377,22.63397455215454,39,137600,937068,6444849,"[ 0  2  1  0  3  1  4  1  3  1  3  2  0  3  0  2  7  0  0  3  2  4  4  8
  1  8  1  2  8  2  2  0  2  0  4  8  2  6  7  3  2  6  0  4  8  5 18 14
  1 12 18  3 15 14  1  0 17  1 12 13  3 16  1  4 16  1  4  0 20  0 19  2
  2 21 20 15 21 11  5]"
4400,342,1.0,7,3,111.98399758338928,22.361419200897217,39,140800,955209,6571426,"[ 0  2  1  0  3  1  4  1  0  0  1  1  0  3  0  4  3  2  1  4  1  4  4  8
  1  2  0  2  8  0  2  0  2  0  4  8  1  5  6  3  8  2  2  4  3  0 10 18
  0 14  0  5 15 14  2 12  9  5  9 17  1  3 20  0  3 15  5  3 21  3 19 23
  1 19 15 15 21 11  5]"
4500,342,1.0,7,3,114.29898166656494,23.14981698989868,40,144000,973435,6699065,"[ 0  2  1  0  3  1  4  2  2  4  2  0  0  3  0  5  8  5  4  0  3  4  4  8
  2  0  2  1  8  0  2  0  2  0  4  8  2  1 11  3 10  1  5 10  2  4 10 13
  2 15 16  5 15 14  4 11 17  4 17 12  1 19 22  3  3 20  0 19 16  2 23 22
  0 23  0 15 21 11  5]"
4600,342,1.0,7,3,116.51918125152588,22.201974391937256,42,147200,991393,6825031,"[ 0  2  1  0  3  1  4  3  2  3  1  0  0  3  0  2  0  3  5  1  2  4  4  8
  0  6  8  4  8  0  2  0  2  0  4  8  1 10  3  4  3  8  0 10  7  1 11 16
  3  3 12  3 15 14  3  2 10  5 14 16  4 20 14  4  3 21  2  1  0  4 15 14
  0 21 17 15 21 11  5]"
4700,342,1.0,7,3,118.76003503799438,22.40851879119873,42,150400,1009473,6951228,"[ 0  2  1  0  3  1  3  0  0  3  3  0  0  3  0  5  7  3  3  0  0  4  4  8
  0  5  7  0  5  0  2  0  2  0  4  8  5 13  8  4  3  7  3 10  5  0 15 12
  1 11 18  5 15 14  5 10  0  3 13  3  2  1 16  3 16 16  0  1 16  0  0 19
  5 21  1 15 21 11  5]"
4800,342,1.0,7,3,121.0935525894165,23.33512783050537,42,153600,1027897,7079911,"[ 0  2  1  0  3  1  4  3  2  4  1  1  0  3  0  2  2  8  2  7  5  4  4  8
  5  3  1  1  3  5  2  0  2  0  4  8  0 10  7  0  3  1  2 13  3  1  0  9
  2 16  3  3 15 14  4 14  3  2 17 18  4 16 23  1 22 15  4 14 18  0 16  3
  4 20 18 15 21 11  5]"
4879,343,1.0,7,2,122.85548233985901,22.302881071839153,42,156128,1041453,7174963,"[ 0  2  1  0  1  2  5  0  1  4  1  0  0  3  0  0  8  0  4  5  6  4  4  8
  2  5  4  3  2  2  2  0  2  0  4  8  0  8  6  0  3  1  4 13  5  5 18 16
  1 16 17  3 17 14  3  2 13  3  0 17  1  1  1  5 16 18  3 14 17  0 18  0
  2 19 19 15 21 11 17]"
