generation,fitness,functionality,active_nodes,longest_path,time,gen_time,nc_gens,fitness_evals,graph_evals,node_evals,genotype
0,175.0,0.484375,7,3,0.006127595901489258,6.125211715698242,0,0,0,0,"[ 2  0  2  5  1  3  1  2  0  2  3  1  5  0  3  2  5  2  5  6  1  0  5  4
  5  8  4  5  2  0  1  0  2  4  1 11  2 12  0  0 12  7  1 11 13  1  0 17
  4  1 14  3  1 18  4  2 18  2 17  0  0 21 22  1 17 19  1 23 18  3  2  0
  2 20  0  3 10 10 17]"
100,333.0,0.984375,9,3,14.156337976455688,141.50208234786987,0,12800,141830,1023244,"[ 3  0  0  3  1  2  0  0  3  3  1  0  0  1  3  2  4  3  0  2  1  3  2  7
  5  7  6  0  4  0  3  8  4  5  3 10  1  0  2  1  3 12  5  6 10  4 10  0
  0 16 14  2 16 14  1  0 16  1 12 18  0 14  2  4 14 18  1  0 17  2  3  0
  3 18 18 13 24 28  8]"
183,337,1.0,11,4,24.090683698654175,119.69088646302741,0,23424,223691,1747876,"[ 2  2  0  0  1  1  0  0  3  4  3  3  0  1  3  4  8  3  0  2  1  2  8  7
  5  5  2  0  8  2  3  8  4  3 12  5  0 10 11  2  3  6  5  6 10  2 14 14
  0 18 16  2 15  9  2  3 13  5  1 17  0 14  2  5 14 22  5  0 17  5 17 16
  3 18 18 20 14 28  8]"
200,341,1.0,8,3,25.659163236618042,92.26336198694565,0,25600,236097,1852773,"[ 2  2  0  0  3  1  0  0  3  4  0  2  0  1  3  4  8  3  0  2  1  2  7  7
  0  2  2  4  8  2  3  8  4  3 12  5  0  3 10  2 10  6  5  6 10  0 14 14
  0 18 10  3 17  9  2 10 18  5  1 13  0 14  2  5 14 16  5  0 17  5 17  2
  3 18 18 20 14 28  8]"
300,341,1.0,8,3,34.494731426239014,88.35565567016602,0,38400,306473,2414208,"[ 2  2  0  2  3  1  0  0  3  2  2  0  0  1  3  0  5  4  0  2  1  2  4  7
  1  0  4  4  3  7  3  8  4  3  2  0  4  0  4  4  5  9  5  6 10  4 12 18
  0 18 10  5  3 11  4  0 10  0 13 11  0  3  0  2 14 16  4  1  0  3 15 15
  2 18 18 20 14 28  8]"
400,341,1.0,8,3,43.28823471069336,87.93500661849976,0,51200,376404,2972460,"[ 2  2  3  0  1  2  0  0  3  2  2  0  0  1  3  0  6  1  0  2  1  4  7  5
  2  7  6  0  5  0  3  8  7  4  3 13  0  1 11  0 13  0  5  6 10  3 10 13
  0 18 10  1  9 10  3 18 15  1 13 14  5 14 20  3  1 18  4 18 14  0 14 17
  2 18 18 20 14 28  8]"
500,341,1.0,8,3,51.975613594055176,86.87376260757446,0,64000,445200,3521283,"[ 5  1  3  1  0  0  0  0  3  2  2  0  0  1  3  3  3  2  0  2  1  3  1  3
  2  5  4  0  4  2  3  8  7  5  6 11  2  0  6  3  5 10  5  6 10  4 13  3
  0 18 10  1 14 17  1 16 14  4 12  0  2 16 17  4 21 22  4 18  0  1 18 21
  2 18 18 20 14 28  8]"
600,341,1.0,8,3,60.76095485687256,87.85338878631592,0,76800,515009,4078318,"[ 0  1  0  0  2  2  0  0  3  2  2  0  0  1  3  3  8  7  0  2  1  0  0  3
  1  7  4  2  7  3  3  8  7  3  8  7  0  1 10  2  1  4  5 11 10  5  1 13
  0 18 10  0 14 18  5 12  9  0  3 12  1 21 20  1 17 20  2 19 14  2 17 21
  2 18 18 20 14 28  8]"
700,341,1.0,8,3,69.37571263313293,86.14754915237427,0,89600,583501,4624458,"[ 0  3  0  4  1  2  1  3  0  2  2  0  0  1  3  4  7  7  0  2  1  3  0  6
  0  1  2  0  1  8  3  8  7  3 10  3  1  8 12  4  4  7  5  4 10  5 17 15
  0 18 10  2  3 10  3  1 10  5  1  3  0 17 20  1 17 19  4  2  2  2 20 15
  3 18 18 20 14 28  8]"
800,341,1.0,8,3,78.02747344970703,86.51758193969727,0,102400,652964,5178227,"[ 0  3  0  0  2  0  1  3  2  2  2  0  0  1  3  4  2  0  0  2  1  1  3  8
  1  1  1  4  6  4  3  8  7  4  2  4  1  2  2  5  6  2  5  4 10  5 16 17
  0 18 10  4 16  1  3  2 13  2  3 13  0 21 23  4  0 20  0  2 18  4 14 20
  2 18 18 20 14 28  8]"
900,341,1.0,8,3,86.93796515464783,89.10489320755005,0,115200,724068,5746021,"[ 0  3  0  4  1  1  0  2  1  2  2  0  0  1  3  1  1  1  0  2  1  0  3  6
  1  4  5  1  8  3  3  8  7  4 12 11  5  7  4  0 11  3  5  4 10  5 17 17
  0 18 10  2 12 10  0  3  1  0  2 13  0 23 23  5 22 22  3  0 20  4 20 21
  3 18 18 20 14 28  8]"
1000,341,1.0,8,3,95.70122241973877,87.6325511932373,0,128000,793003,6296670,"[ 0  3  0  3  1  1  0  3  2  2  2  0  0  1  3  1  8  3  0  2  1  3  2  3
  2  5  8  4  8  6  3  8  7  3 12  9  4  4  8  0  5  3  5  4 10  4 17 13
  0 18 10  4 11 16  1  0 15  4 16 16  4 20 16  0 20 16  5 16  1  2  2 23
  2 18 18 20 14 28  8]"
1100,341,1.0,8,3,104.45545601844788,87.54231214523315,0,140800,862540,6851118,"[ 0  3  0  2  1  0  0  2  1  2  2  0  0  1  3  4  1  4  0  2  1  0  4  4
  1  1  7  5  4  2  3  8  7  4  7  3  2  3  4  5  0  7  5  4 10  2  1 18
  0 18 10  5  9  3  2 12  3  2  3 10  5 20 16  2  1 19  2 17  3  5 22 16
  3 18 18 20 14 28  8]"
1200,341,1.0,8,3,113.258380651474,88.02922248840332,0,153600,933395,7415699,"[ 0  3  0  2  3  3  3  2  3  2  2  0  0  1  3  5  6  5  0  2  1  3  7  0
  5  6  3  3  0  3  3  8  7  3 12 10  3 10  6  5  0  9  5  4 10  0 14 10
  0 18 10  4 16  3  5 15  1  0 14 15  4  2  3  1 15 15  3 18 14  0 15 21
  3 18 18 20 14 28  8]"
1300,341,1.0,8,3,122.03621745109558,87.77834177017212,0,166400,1003754,7977743,"[ 0  3  0  3  3  0  1  1  1  2  2  0  0  1  3  4  3  5  0  2  1  3  7  8
  2  2  5  3  2  5  3  8  7  1  3  4  3 10  1  3  6  7  5  4 10  3  3 18
  0 18 10  1  9 12  2  9 15  3 17 12  5  2 23  1  0 15  4  1  3  3 16  2
  3 18 18 20 11 28  8]"
1400,341,1.0,8,3,130.97574305534363,89.39522981643677,0,179200,1075999,8553470,"[ 0  3  0  4  3  1  2  3  1  2  2  0  0  1  3  1  5  0  0  2  1  3  7  8
  3  0  0  1  8  1  0 13  0  3 12  7  0  6  0  1  1  5  5  4 10  3  2  1
  0 18 10  2 17 12  5 10  3  4 10 12  0 22 22  1 21 23  0  0  1  5 16  1
  2 18 18 20 11 28  8]"
1500,341,1.0,8,3,139.83707118034363,88.61325263977051,0,192000,1147521,9124346,"[ 0  3  0  4  2  0  3  0  1  2  2  0  0  1  3  1  4  2  0  2  1  3  7  8
  1  2  5  3  0  4  4  2  7  0  3  7  3  6 12  3 10  5  5  4 10  2 12 17
  0 18 10  3 15  2  3 10 17  5 14 14  1 16  0  1 19  2  1  2 21  0 16 21
  3 18 18 20 11 28  8]"
1600,341,1.0,8,3,148.73325395584106,88.96179914474487,0,204800,1218162,9688122,"[ 0  3  0  2  2  0  4  1  0  2  2  0  0  1  3  3  8  1  0  2  1  3  7  8
  3  1  5  0  3  1  3  2  8  5 13  9  0  3 12  0 10  4  3  4 10  1 18  3
  3 16 17  4 17 15  4 17  0  3 15  0  3 23 20  3 20 18  1  2 21  4  0 18
  5 18 17 17 11 28  8]"
1700,341,1.0,8,3,157.71307015419006,89.79813575744629,0,217600,1289698,10258936,"[ 0  3  0  5  1  0  2  2  1  2  2  0  0  1  3  3  3  4  0  2  1  3  7  8
  1  8  3  5  5  0  3  3  2  5  9  3  3 10 12  0 10  4  5  4 10  0  3 13
  0  3  3  0 17 13  4 11 17  5 13 13  1 21 21  5 15 15  0  0 23  5 22 17
  3 18 18 17 11 28  8]"
1800,341,1.0,8,3,166.85754013061523,91.44467830657959,0,230400,1363052,10843569,"[ 0  3  0  1  3  3  1  0  1  2  2  0  0  1  3  4  4  5  0  2  1  3  7  8
  3  0  4  1  0  8  4  6  7  3  9  3  2  0  0  0 10  4  5  4 10  5  1  9
  0 12 18  3 12  2  2 14  2  0 12 16  1 21 20  2  2  3  5 16 16  3  2 16
  3 18 18 17 11 28  8]"
1900,341,1.0,8,3,175.7972481250763,89.3970537185669,0,243200,1435729,11423225,"[ 0  3  0  3  2  3  0  0  3  2  2  0  0  1  3  0  7  4  0  2  1  3  7  8
  3  7  3  0  2  7  0  1  3  5  0  0  3 12  4  0 10  4  5  4 10  2 14 17
  2 13 18  1 15  3  0 11 13  0 11 14  3 23 17  0  1 16  5 21 15  1 19 21
  3 17 18 17 11 28  8]"
2000,341,1.0,8,3,184.7063868045807,89.09136295318604,0,256000,1507855,11998363,"[ 0  3  0  2  2  3  0  0  1  2  2  0  0  1  3  0  1  7  0  2  1  3  7  8
  3  0  4  1  4  4  2  4  0  5  5 12  4  5 11  0 10  4  3  4 10  0 16  2
  1 11  2  5  3 10  4  2  1  1 10 12  4 14  1  0 18 20  3  2 19  2 22  1
  3 17 18 17 11 28  8]"
2100,341,1.0,8,3,193.72406339645386,90.17673969268799,0,268800,1579784,12572384,"[ 0  3  0  3  3  1  2  0  3  2  2  0  0  1  3  3  6  0  0  2  1  3  7  8
  3  6  3  0  5  4  2  4 13  5  5 10  1  5  5  0 10  4  5  4 10  1 17 17
  0 11  9  3 14 12  3 14 17  0 12  1  2 17 20  1 18 22  5  2  3  1  1 15
  3 18 17 17 11 28  8]"
2200,341,1.0,8,3,202.64742732048035,89.23361539840698,0,281600,1650725,13139997,"[ 0  3  0  1  3  2  3  3  0  2  2  0  0  1  3  4  0  2  0  2  1  3  7  8
  1  5  5  0  7  4  0 10 12  0  1  8  0 12  6  0 10  4  3  4 10  5 17 14
  5 15 16  4  9 14  4 13  2  3 16 12  4  2 15  5  1 19  3 22 16  2 19 18
  5 18 17 17 11 28  8]"
2300,341,1.0,8,3,211.4907524585724,88.43322515487671,0,294400,1721477,13705185,"[ 0  3  0  2  2  3  1  0  2  2  2  0  0  1  3  0  6  5  0  2  1  3  7  8
  4  8  3  2  2  0  1  4 11  0  2  1  5  1  3  0 10  4  5  4 10  0 14 13
  5 15 14  3 11 12  4 14 15  2 11 17  3 15 19  2 21 15  2  2 22  0  1  3
  3 18 17 17 11 28  8]"
2400,341,1.0,8,3,220.27966976165771,87.88915157318115,0,307200,1792347,14271686,"[ 0  3  0  0  0  0  2  3  1  2  2  0  0  1  3  3  5  4  0  2  1  3  7  8
  1  2  1  0  0  6  0  2  8  0  0 12  3  1 11  0 10  4  3  4 10  3 11 17
  1 12 15  5 14  0  1 13 14  2 16  2  5 16  1  2  3 14  1 21  1  0 22 19
  3 18 17 17 11 28  8]"
2500,341,1.0,8,3,229.3820834159851,91.02410793304443,0,320000,1864543,14848518,"[ 0  3  0  2  1  2  0  2  2  2  2  0  0  1  3  2  8  6  0  2  1  3  7  8
  1  1  1  4  8  5  1 12  6  0  0  7  1  0  0  0 10  4  5  4 10  2 16 18
  0 12  3  3 10  2  1 10 18  3  3  3  0  0 18  0 23 22  1 19  1  4  0 17
  3 18 17 17 11 28  8]"
2600,341,1.0,8,3,238.26073503494263,88.78649234771729,0,332800,1936667,15424357,"[ 0  3  0  0  0  2  1  2  3  2  2  0  0  1  3  2  5  4  0  2  1  3  7  8
  2  2  0  5  6  5  5  2  5  4  7 12  1  1  1  0 10  4  5  4 10  3 17  0
  5 16 12  3 15 12  0 15 12  0 13  2  0  0  3  2 21 15  4 14  1  1 17 21
  3 18 17 17 11 28  8]"
2700,341,1.0,8,3,247.1622862815857,89.01548624038696,0,345600,2007300,15988069,"[ 0  3  0  3  1  1  4  0  1  2  2  0  0  1  3  5  3  4  0  2  1  3  7  8
  5  6  8  3  8  7  4  2  9  5  5  9  2 11 10  0 10  4  5  4 10  3 14  0
  4 14 12  5  1 12  0  0 15  3 17  0  3 16 22  0  3  3  3 22 23  3 17 23
  2 18 18 17 11 28  8]"
2800,341,1.0,8,3,256.13992977142334,89.77640628814697,0,358400,2080451,16572245,"[ 0  3  0  2  0  2  0  3  1  2  2  0  0  1  3  2  6  2  0  2  1  3  7  8
  5  4  0  5  8  6  0  9  5  1  6 12  1  4  6  0 10  4  5  4 10  5 18 16
  1  1  3  0  1 17  0  1 16  1  0 16  5 18 20  2 14  3  4  3 18  3 16 23
  3 18 18 17 11 28  8]"
2900,341,1.0,8,3,265.146057844162,90.06125211715698,0,371200,2154366,17161340,"[ 0  3  0  1  3  3  0  0  3  2  2  0  0  1  3  0  0  5  0  2  1  3  7  8
  5  4  6  0  4  0  0  7  8  1 10  1  5 10 12  0 10  4  5  4 10  1  3 13
  0 18  9  1 17 12  4 11  0  3 16 11  5 23 18  5  2 18  2 18  2  2  3  3
  2 18 18 17 11 28  8]"
3000,341,1.0,8,3,274.01361060142517,88.67550134658813,0,384000,2226444,17736884,"[ 0  3  0  5  0  2  3  3  2  2  2  0  0  1  3  3  3  8  0  2  1  3  7  8
  0  6  6  0  8  0  4 12  1  1  2  0  4  2  9  0 10  4  5  4 10  2 17 16
  5 11 12  5 16  9  3 10 16  5 14 13  4 21 20  3 14 21  4 16 14  2  3 14
  3 17 18 17 11 28  8]"
3100,341,1.0,8,3,282.8037612438202,87.9014801979065,0,396800,2297329,18303449,"[ 0  3  0  4  1  1  3  1  2  2  2  0  0  1  3  1  3  8  0  2  1  3  7  8
  0  1  0  3  3  0  5  8 13  3  6 10  5 13  4  0 10  4  3  4 10  1 14 17
  3  9 12  3 13 17  0  3 13  0 14 10  0 18 18  2  1 23  4 18 14  0 23 14
  5 18 17 17 11 28  8]"
3200,341,1.0,8,3,291.75662183761597,89.52858448028564,0,409600,2368890,18874456,"[ 0  3  0  4  3  3  2  0  0  2  2  0  0  1  3  2  2  8  0  2  1  3  7  8
  1  1  5  1  1  8  4  9  4  3  8  5  0  6  1  0 10  4  3  4 10  0  9  1
  5 14  0  0 10 17  1  3  1  4 14  1  3 23 18  4  3  3  5 19 14  3 18 21
  3 18 17 17 11 28  8]"
3300,341,1.0,8,3,300.72112941741943,89.64504718780518,0,422400,2440637,19446983,"[ 0  3  0  0  1  3  4  2  3  2  2  0  0  1  3  1  8  7  0  2  1  3  7  8
  1  4  1  5  1  8  4 13  1  2 10  0  4  9  3  0 10  4  5  4 10  0  9 16
  4 18 18  1 18 16  5  0  0  2 10 12  1 15  2  3 23  0  5 20 17  4 22 15
  3 18 17 17 11 28  8]"
3400,341,1.0,8,3,309.7053470611572,89.84215259552002,0,435200,2512147,20018385,"[ 0  3  0  0  1  3  2  3  0  2  2  0  0  1  3  1  0  3  0  2  1  3  7  8
  2  8  5  4  2  4  2  0  8  5  0  6  2  0  2  0 10  4  3  4 10  1 18 10
  0 14  0  1  2  3  0 15 14  0 10 14  3 20 20  3 22  0  5 17 20  1  0 20
  5 18 17 17 11 28  8]"
3500,341,1.0,8,3,318.75938963890076,90.54039716720581,0,448000,2585038,20599140,"[ 0  3  0  5  3  3  5  3  3  2  2  0  0  1  3  2  2  3  0  2  1  3  7  8
  1  4  2  4  3  1  0 12  9  3  4  1  1 13  1  0 10  4  5  4 10  0  9 10
  0 14  1  3 16  9  2  1 12  0 17  1  4 17 15  2 14 15  3 19  2  1 22 17
  3 18 18 17 11 28  8]"
3600,341,1.0,8,3,327.7439022064209,89.8451018333435,0,460800,2658606,21185616,"[ 0  3  0  5  0  0  1  3  2  2  2  0  0  1  3  3  1  6  0  2  1  3  7  8
  5  8  6  4  0  0  5  0  6  3 11 13  1 13  1  0 10  4  5  4 10  0  0 11
  4 10  9  1 11  3  2  1  2  0 17 10  2  0  2  4  2 14  5 16 15  3 16  3
  3 17 18 17 11 28  8]"
3700,341,1.0,8,3,336.7432723045349,89.99367237091064,0,473600,2732658,21775652,"[ 0  3  0  2  0  1  5  3  0  2  2  0  0  1  3  0  5  4  0  2  1  3  7  8
  3  3  0  2  8  2  5  6  6  5  7  9  1  6  1  0 10  4  5  4 10  1  2 13
  1 17  9  3 14 11  0 10  3  3 16 18  4 21  2  3 20 14  4  3  2  0 23  3
  3 18 18 17 11 28  8]"
3800,341,1.0,8,3,345.7178964614868,89.74621534347534,0,486400,2805211,22355532,"[ 0  3  0  3  0  2  3  2  2  2  2  0  0  1  3  3  5  4  0  2  1  3  7  8
  1  8  2  3  0  3  1 11 10  2  8  5  3 11 10  0 10  4  3  4 10  3 18 15
  2 14 11  4  0 15  4 12 18  3 16  0  1 23  2  5  3 14  1  3 15  4  0 14
  3 17 18 17 11 28  8]"
3900,341,1.0,8,3,354.5282747745514,88.10375452041626,0,499200,2876290,22923019,"[ 0  3  0  4  2  2  4  3  3  2  2  0  0  1  3  1  6  4  0  2  1  3  7  8
  5  8  2  3  0  3  3  9  7  2  4  5  4  4 13  0 10  4  3  4 10  5  3  3
  1  0 14  1 16  1  1 16 12  1  1 12  3 18  1  5 22  3  0  0 15  5  0 15
  5 17 18 17 11 28  8]"
3957,343,1.0,7,2,359.6612265110016,90.05174302218254,0,506496,2918335,23258388,"[ 0  3  0  0  2  1  2  1  1  2  2  0  0  1  3  0  6  8  0  2  1  3  7  8
  2  8  1  4  5  4  1 10  0  0 11 10  4 10 13  0  5  4  3  4 10  4 10 12
  4 11 14  3 14 16  1  2  3  2 12  9  0  1 20  2  3 19  1 18  1  2 21 21
  5 17 18 17 11 13  8]"
