generation,fitness,functionality,active_nodes,longest_path,time,gen_time,nc_gens,fitness_evals,graph_evals,node_evals,genotype
0,157.0,0.4375,9,4,0.006409168243408203,6.406068801879883,0,0,0,0,"[ 1  3  0  1  2  3  5  3  1  3  2  1  4  2  3  5  5  3  4  5  3  5  3  0
  4  6  5  4  0  5  4 13 12  0  4  1  2  5  3  1 12  1  3  0  9  5 14 11
  1  2 14  1 16 18  5 16 18  0 10 15  0 19 18  4 15  1  3 16  3  3 17 15
  2 14  3 11 13 26 19]"
100,316.0,0.921875,6,3,29.389698028564453,293.8328504562378,0,25600,323551,2118001,"[ 0  1  0  2  1  0  2  3  1  0  3  2  3  0  0  2  3  7  2  2  5  0  3  0
  0  6  8  1  5  4  5 11  0  0  6  2  1 10  6  4 12  1  2 10 13  0  1  3
  0  9  9  5  3  2  3  1 16  0  0 15  0 17  2  4  1  1  4 16 22  5  0  1
  2 15 16 25 23 11 19]"
200,334.0,0.984375,8,3,56.8179874420166,274.2828702926636,0,51200,624932,4067142,"[ 0  3  3  2  1  3  2  1  3  0  2  1  3  0  2  5  8  5  5  4  6  0  3  0
  5  8  5  0  5  2  0 11  8  4 11  7  4  0  2  0  7  7  2  2 10  0  1  3
  4 16 10  1  9 12  1  1 13  0  0 13  2 21  1  4  1  1  4 14 19  1 16 23
  3  1 20 25 23 15 19]"
208,338,1.0,10,4,58.66926693916321,231.40963912010193,0,53248,641807,4201556,"[ 0  3  3  2  1  3  2  2  3  0  2  1  4  0  2  5  8  7  5  4  0  0  3  0
  5  3  5  0  5  2  0 11  8  4 11  7  4  0  2  0  7  7  2 11 10  0  1  3
  5 17 11  1  3 12  1  1 13  0  0 13  2 21  0  4  1  1  4 14 19  0 16 23
  0 17 20 28 23 15 19]"
300,341,1.0,8,3,77.31150460243225,202.6329895724421,0,76800,802335,5485807,"[ 2  2  2  2  1  3  4  0  2  0  2  1  0  0  0  2  0  3  2  1  0  0  3  0
  5  8  7  0  5  2  0 11  7  4 11  7  5  9  4  0  6 12  1  6  5  0  1  3
  5 10 10  1  3 11  0 10 14  0  0 13  0 14 20  5  3 18  0 18  0  2 17 16
  3  1 15 14 23 15 19]"
400,341,1.0,8,3,96.96389889717102,196.52391910552979,0,102400,972335,6823918,"[ 1  2  0  2  1  3  2  1  1  0  2  1  0  3  2  1  2  1  5  8  2  0  3  0
  1  8  2  0  5  2  0 11  7  4 11  7  5  2  0  3  8 13  2 10  1  0  1  3
  4 13  9  0 10  9  0 15 12  0  0 13  5 21 19  4 19 18  1 14  0  0 16 17
  1  3 23 14 23 15 19]"
500,341,1.0,8,3,116.66122722625732,196.97325468063354,0,128000,1142516,8164031,"[ 1  1  0  2  1  3  0  1  3  0  2  1  0  1  3  1  0  1  0  4  0  0  3  0
  4  3  6  0  5  2  0 11  7  4 11  7  1  3  3  0 13  7  4  1  9  0  1  3
  4  3 14  3  1 14  4 14  9  0  0 13  3  0 20  4 21  3  3  3 14  0 20  0
  1 19 14 14 23 15 19]"
600,341,1.0,8,3,136.73855209350586,200.77322244644165,0,153600,1314898,9518925,"[ 0  3  3  2  1  3  4  2  3  0  2  1  1  1  2  0  8  4  0  7  2  0  3  0
  1  3  1  0  5  2  0 11  7  4 11  7  0  2  5  2  1 12  4 10  3  0  1  3
  5 10  9  3  0 14  1 14 17  0  0 13  3 18  0  3 21  2  2 15 16  4  1 18
  3 14 18 14 23 15 19]"
700,341,1.0,8,3,156.69686198234558,199.58307266235352,0,179200,1488338,10883322,"[ 2  2  0  2  1  3  1  0  2  0  2  1  4  0  3  0  2  1  0  0  0  0  3  0
  5  1  6  0  5  2  0 11  7  4 11  7  0 11  1  2  5  6  5  5 10  0  1  3
  4  3 11  5 15 17  1 13 14  0  0 13  3 21  3  0 21 22  4 16 20  4 21 21
  1 22 18 14 23 15 19]"
800,341,1.0,8,3,176.63593173027039,199.39067125320435,0,204800,1661889,12245171,"[ 1  0  3  2  1  3  4  3  2  0  2  1  2  0  2  0  8  2  1  1  0  0  3  0
  1  1  7  0  5  2  0 11  7  4 11  7  2  7  8  5  9 11  5  9 10  0  1  3
  5 18 14  4  9 18  4 12 12  0  0 13  1  3  1  5  3 15  1 20  0  2  1 19
  3 18 19 14 23 15 19]"
900,341,1.0,8,3,196.3652892112732,197.29355096817017,0,230400,1833829,13598050,"[ 3  3  3  2  1  3  5  0  1  0  2  1  0  2  0  0  7  5  2  6  1  0  3  0
  1  6  0  0  5  2  0 11  7  4 11  7  3 13  9  2  5  0  0 12 10  0  1  3
  2  0 12  1 14  9  4 12  2  0  0 13  0 14  3  2 15 15  0 14 17  3  0 16
  3  2 20 14 23 15 19]"
1000,341,1.0,8,3,216.0471534729004,196.81861639022827,0,256000,2004880,14944367,"[ 5  3  3  2  1  3  1  3  0  0  2  1  4  1  0  4  7  6  0  6  6  0  3  0
  0  6  6  0  5  2  0 11  7  4 11  7  4 10  0  4  5 12  1  9  5  0  1  3
  5  3 13  4  3  3  2  3 12  0  0 13  3 15 20  4 19 18  2  1 16  5 18  3
  0  0 21 14 23 15 19]"
1100,341,1.0,8,3,235.87767457962036,198.305184841156,0,281600,2177340,16300123,"[ 4  1  3  2  1  3  4  2  1  0  2  1  1  1  0  2  2  3  1  2  0  0  3  0
  4  2  3  0  5  2  0 11  7  4 11  7  4  2  4  1  9  5  5 10  9  0  1  3
  4 14 13  2  3 16  2  1 14  0  0 13  2 23 21  3 23 15  4 23  3  1  0  0
  5  1  2 14 23 15 19]"
1200,341,1.0,8,3,255.67543864250183,197.977614402771,0,307200,2348684,17646604,"[ 0  0  3  2  1  3  4  2  3  0  2  1  4  2  2  4  3  1  3  8  8  0  3  0
  5  1  3  0  5  2  0 11  7  4 11  7  1  5 13  4 12  4  2 10 10  0  1  3
  5 14 13  2 11  2  2 16 14  0  0 13  2 20  1  0  0 22  5  1 22  2 20 14
  0 14 16 14 23 15 19]"
1300,341,1.0,8,3,275.24605894088745,195.7061767578125,0,332800,2516154,18964970,"[ 2  0  2  2  1  3  3  3  2  0  2  1  3  1  2  4  7  4  3  6  1  0  3  0
  1  2  5  0  4  8  0 11  7  4 11  7  2  5  8  0  5  2  3  5  4  0  1  3
  5 14 14  1  9 15  3 11 14  0  0 17  4 22  0  1 15 19  1 14  1  1 14 19
  4 19 18 14 23 15 19]"
1400,341,1.0,8,3,294.5818440914154,193.35782527923584,0,358400,2681696,20268734,"[ 1  2  3  2  1  3  5  0  2  0  2  1  1  0  3  3  2  0  2  5  1  0  3  0
  0  5  0  0  7  4  0 11  7  4 11  7  1  3 10  0  5  2  3 10  8  0  1  3
  4  3 14  0  3 17  4 17 14  0  0 17  4  2 20  3 16 21  3  2 17  0  3  2
  4 21  0 14 23 15 19]"
1500,341,1.0,8,3,313.9063627719879,193.2451629638672,0,384000,2845383,21558937,"[ 3  3  2  2  1  3  0  3  3  0  2  1  2  3  3  2  6  7  2  5  7  0  3  0
  2  4  8  0  0  4  0 11  7  4 11  7  1 13  2  0  5  2  0  3  6  0  1  3
  4  0 12  4 12 11  1  3 11  0  0 17  3  1 16  1 22 21  3  0 18  4  2 23
  0  2 22 14 23 15 19]"
1600,341,1.0,8,3,333.107061624527,192.00696229934692,0,409600,3010419,22858666,"[ 3  0  2  2  1  3  2  0  0  0  2  1  3  2  1  3  7  6  4  0  5  0  3  0
  3  7  0  1  1  0  0 11  7  4 11  7  3  9  5  0  5  2  3  4  3  0  1  3
  3 17 10  0  0  0  1  3  3  0  0 17  3 16 21  5  2 19  0 20  2  1  3  2
  4 14  3 14 23 15 19]"
1700,341,1.0,8,3,352.48441553115845,193.773512840271,0,435200,3177401,24173953,"[ 1  2  2  2  1  3  3  3  2  0  2  1  0  2  2  3  2  0  1  6  1  0  3  0
  4  1  6  1  5  2  0 11  7  4 11  7  3  3  8  0  5  2  5  1  5  0  1  3
  3  1 10  2  0 11  3 12 16  0  0 17  2 18 22  0 20  3  4 23 21  3 17 20
  4 17 14 14 23 15 19]"
1800,341,1.0,8,3,371.8456885814667,193.61270427703857,0,460800,3344404,25488662,"[ 1  1  0  2  1  3  3  3  3  0  2  1  3  0  1  5  6  0  2  0  4  0  3  0
  4  1  6  5  3  7  0 11  7  4 11  7  0  1  3  0  5  2  5  2  7  0  1  3
  1  3 14  2 17 14  4 14 16  0  0 17  3  0 23  3 21  2  5  0 17  5 18  2
  4  3 22 14 23 15 19]"
1900,342,1.0,7,3,389.7983627319336,179.52671766281128,0,486400,3497098,26642396,"[ 1  0  0  2  1  3  0  1  3  0  2  1  4  1  1  0  2  0  0  1  6  0  3  0
  3  0  7  5  5  6  0 11  7  4 11  7  2 13  6  5  5  2  1  5  6  0  1  3
  4 14  9  0 16 13  1 14 17  3 12 14  2  0 21  1 16 18  5 22  0  0 20 22
  2 17 20 14 20 15  6]"
2000,342,1.0,7,3,406.18401765823364,163.8565230369568,0,512000,3638980,27631946,"[ 1  2  1  2  3  2  0  1  3  0  2  1  5  3  2  0  2  0  2  0  0  0  3  0
  0  6  0  3  5  4  0 11  7  4 11  7  0 13 12  5  4  7  3 11  4  3 12 17
  4 14  9  3 14 18  1  3 17  3 10  1  4 17 19  5 23  2  3 17 23  1 22 22
  2 14 20 14 20 15  6]"
2100,342,1.0,7,3,422.8275656700134,166.43545627593994,0,537600,3779746,28613046,"[ 3  3  2  1  2  3  0  1  3  0  2  1  5  3  2  0  2  0  5  2  6  0  3  0
  5  4  4  5  2  2  0 11  7  4 11  7  3 11  2  2  5  8  3 12  0  1  0 17
  4 14  9  3  2 11  5 10 11  4 16  2  5 16  1  1 16 19  1 22  1  0  0  2
  5 15  0 14 20 15  6]"
2200,342,1.0,7,3,439.2796685695648,164.52100276947021,0,563200,3919715,29587572,"[ 0  0  2  4  3  0  0  1  3  0  2  1  4  2  0  0  2  0  3  1  0  0  3  0
  3  1  0  2  1  2  0 11  7  4 11  7  3  9  9  4 11  5  5  1  1  1  9 13
  4 14  9  0 15 13  5 13 16  5 10  2  0 16 14  5 19 22  4 22  0  4 21 19
  1 16 23 14 20 15  6]"
2300,342,1.0,7,3,456.03238129615784,167.52710342407227,0,588800,4063808,30591728,"[ 2  1  3  0  2  0  0  1  3  0  2  1  3  3  1  0  2  0  0  3  7  0  3  0
  3  3  6  5  1  1  0 11  7  4 11  7  3 13  1  2  9 12  1  4  9  3 17  9
  4 14  9  5 13  2  5 10  2  2 14  0  0 21  0  0 16 19  5 23 22  1 15 21
  3 22 17 14 20 15  6]"
2400,342,1.0,7,3,472.2267835140228,161.9439959526062,0,614400,4204203,31569116,"[ 0  2  1  5  3  1  0  1  3  0  2  1  2  3  3  0  2  0  3  8  6  0  3  0
  3  8  8  0  7  3  0 11  7  4 11  7  1  6  3  1  0  2  3  8 12  3 13 11
  4 14  9  1  0 15  4  1  2  2 13 13  5 14  0  3 16  1  1  3 20  2 19 17
  5 18 20 14 20 15  6]"
2500,342,1.0,7,3,488.6665346622467,164.39748287200928,0,640000,4346168,32558316,"[ 4  2  0  4  0  1  0  1  3  0  2  1  5  2  0  0  2  0  1  1  1  0  3  0
  2  0  4  5  1  4  0 11  7  4 11  7  3  2  2  2  6  0  1 11  2  3 16  1
  4 14  9  5  0 18  5 10  1  2 13 13  4 14 21  4 15  3  3 16 16  2 14 17
  0  0 22 14 20 15  6]"
2600,342,1.0,7,3,504.86650109291077,161.99964046478271,0,665600,4483133,33513323,"[ 0  0  2  2  0  2  3  2  3  0  2  1  0  3  3  0  2  0  3  2  1  0  3  0
  3  7  8  1  1  3  0 11  7  4 11  7  4 12  4  5  6  8  4  3  8  3 16 13
  4 14  9  0  3  1  5 17 12  1 11 10  3 19  1  1 16 17  1 16 22  1  1 18
  0 15  3 14 20 15 21]"
2700,342,1.0,7,3,520.5347418785095,156.68238162994385,0,691200,4615042,34435135,"[ 1  3  2  4  3  2  4  2  3  0  2  1  0  0  0  0  2  0  1  0  0  0  3  0
  3  6  3  1  5  1  0 11  7  4 11  7  0  4  4  0 13  4  4  3  7  1 15  0
  4 14  9  0  3  1  4 10 11  1 11 16  2  3  0  4  0  1  3 19 16  1  1 22
  1 19 16 14 20 15 21]"
2800,342,1.0,7,3,536.2553446292877,157.2059988975525,0,716800,4746392,35350539,"[ 3  1  1  0  3  1  2  1  2  0  2  1  3  2  3  0  2  0  4  1  5  0  3  0
  3  5  7  0  4  1  0 11  7  4 11  7  1  8 11  1 12 12  0  3  1  0 16 12
  4 14  9  0  3  1  3 13 15  0  2 11  1 14 21  0 22 15  5 19 16  1 14 19
  4 17  2 14 20 15 21]"
2900,342,1.0,7,3,551.9748044013977,157.19457387924194,0,742400,4878118,36271774,"[ 5  0  1  4  3  3  1  2  2  0  2  1  2  0  0  0  2  0  5  8  3  0  3  0
  3  7  6  1  1  0  0 11  7  4 11  7  1  2  6  4  2  1  0  4  9  5  3 10
  4 14  9  0  3  1  5  1 14  5  2  2  3  3  2  3 22 22  5 19  3  3  2 16
  2 16 16 14 20 15 21]"
3000,342,1.0,7,3,567.6006505489349,156.2584352493286,0,768000,5009340,37188215,"[ 3  1  0  5  1  0  0  2  0  0  2  1  3  3  0  0  2  0  5  1  7  0  3  0
  4  6  1  4  4  3  0 11  7  4 11  7  0  6  2  3  2  5  3  0  2  1  9  0
  4 14  9  0  3  1  0 17  0  3 17  2  3 21 23  5 18 15  1 16 21  5 23 14
  0 23 14 14 20 15 21]"
3100,342,1.0,7,3,583.2298321723938,156.29179000854492,0,793600,5140525,38105591,"[ 1  3  1  0  1  2  3  1  0  0  2  1  0  2  3  0  2  0  0  3  2  0  3  0
  2  4  2  2  2  8  0 11  7  4 11  7  3  2 13  5  4 11  1  2 11  2 10  2
  4 14  9  0  3  1  0  2 12  0 13 15  0  1 23  0  2 16  2 20  0  1 23 18
  3 23 22 14 20 15 21]"
3200,342,1.0,7,3,598.8168165683746,155.86982011795044,0,819200,5272396,39025544,"[ 1  3  0  5  1  0  2  0  1  0  2  1  4  2  0  0  2  0  4  1  0  0  3  0
  4  6  8  0  2  1  0 11  7  4 11  7  5  9  1  3 11  0  1  8  6  3 13  9
  4 14  9  0  3  1  3  0  0  3 17 14  0 17  0  2 16  3  4 14  1  3  1 18
  0 14 14 14 20 15 21]"
3300,342,1.0,7,3,614.3367962837219,155.1997685432434,0,844800,5401658,39929175,"[ 2  1  3  5  3  0  3  3  1  0  2  1  3  1  2  0  2  0  5  8  6  0  3  0
  5  2  3  0  6  3  0 11  7  4 11  7  5  7 13  2  8 11  1  2  2  5  1 14
  4 14  9  0  3  1  3 12 18  5  9 13  4 17 21  3  2 17  5 19 19  5 17 16
  1 17  2 14 20 15 21]"
3400,342,1.0,7,3,629.9789521694183,156.42152786254883,0,870400,5531836,40839169,"[ 5  2  3  3  0  0  0  3  2  0  2  1  4  0  3  0  2  0  1  3  5  0  3  0
  5  2  1  3  5  2  0 11  7  4 11  7  5  6 11  3  2  4  3  1 12  5 11  0
  4 14  9  0  3  1  1 13 13  4 11 18  5  2 19  2  0 23  3 16  3  0 15 14
  2  0 18 14 20 15 21]"
3500,342,1.0,7,3,645.4254200458527,154.46465015411377,0,896000,5662048,41746992,"[ 1  0  1  3  2  0  3  2  2  0  2  1  4  1  0  0  2  0  5  3  4  0  3  0
  0  7  0  2  0  3  0 11  7  4 11  7  3 11  8  2  2 10  1 10  0  1  1 15
  4 14  9  0  3  1  1  2  2  2 11 17  4  1 22  0 15 15  2 15 20  0 19 14
  4 17  1 14 20 15 21]"
3600,342,1.0,7,3,661.1653501987457,157.39927530288696,0,921600,5794376,42668817,"[ 0  0  0  2  0  2  5  2  2  0  2  1  2  0  2  0  2  0  5  3  0  0  3  0
  4  1  3  1  7  0  0 11  7  4 11  7  4  2  4  5  1  7  2  2  2  1  2 15
  4 14  9  0  3  1  3 15 17  2 11 15  4 16 14  0 20 15  4  0  2  1 14 22
  3 17  2 14 20 15 21]"
3700,342,1.0,7,3,676.8599562644958,156.94603443145752,0,947200,5927075,43595025,"[ 5  2  1  2  0  3  0  0  2  0  2  1  2  2  2  0  2  0  5  6  2  0  3  0
  0  4  2  0  2  6  0 11  7  4 11  7  0  0 10  5  6 10  2  2  7  5 17 12
  4 14  9  0  3  1  3  3 15  5 12 14  3 22 21  3 23  1  3 14  1  0  0  1
  3 23  2 14 20 15 21]"
3800,342,1.0,7,3,692.4261848926544,155.66226482391357,0,972800,6057277,44505661,"[ 1  2  2  1  0  3  1  2  2  0  2  1  4  0  0  0  2  0  2  1  7  0  3  0
  4  0  3  2  3  5  0 11  7  4 11  7  4  4  5  2  7  2  2  1  6  5  2 13
  4 14  9  0  3  1  0  3  0  1 18  9  5  1 21  5 23 18  0 14  0  5 22 15
  1 18  2 14 20 15 21]"
3900,342,1.0,7,3,708.1421575546265,157.15970039367676,0,998400,6188479,45423159,"[ 2  1  2  0  1  3  2  1  3  0  2  1  0  0  1  0  2  0  1  5  1  0  3  0
  0  8  0  0  4  5  0 11  7  4 11  7  1  1  3  1  0  8  1  6  4  1 10  9
  4 14  9  0  3  1  5 16 11  2 15 16  3  1  0  1 17 22  0 23 15  0 17 14
  4  0  0 14 20 15  5]"
4000,342,1.0,7,3,724.5420899391174,163.99929761886597,0,1024000,6332120,46423825,"[ 4  0  0  0  1  3  1  3  1  0  2  1  0  1  0  0  2  0  5  2  5  0  3  0
  3  7  5  5  1  5  0 11  7  4 11  7  5  5  3  5  9  4  0  1 10  3  3  1
  4 14  9  5  3 18  0 14 10  4 11 18  2 23 21  3 16 17  2 23 18  1 16 14
  2 18  1 14 20 15  5]"
4100,342,1.0,7,3,740.8349761962891,162.9288411140442,0,1049600,6473048,47404251,"[ 1  3  2  0  1  3  3  1  2  0  2  1  3  0  1  0  2  0  5  4  7  0  3  0
  1  0  4  5  7  0  0 11  7  4 11  7  0 11  9  4  5  5  4  1  0  4  2 12
  4 14  9  1 16 18  4 12  9  1 17  3  5 14  3  2 18  1  5 15 14  1 19  0
  2  1 17 14 20 15  5]"
4200,342,1.0,7,3,757.3215894699097,164.86610174179077,0,1075200,6615807,48397983,"[ 0  3  1  2  0  3  1  2  3  0  2  1  2  1  3  0  2  0  4  7  2  0  3  0
  0  7  5  5  3  7  0 11  7  4 11  7  5 11  9  0 12  9  1  5  6  4 13 16
  4 14  9  0 18  2  5  0  0  0 18  3  0 23  2  0  1 20  0 19  3  4 23 20
  4  1  1 14 20 15  4]"
4300,342,1.0,7,3,773.55078125,162.29189157485962,0,1100800,6756342,49377825,"[ 0  3  1  1  3  1  5  0  3  0  2  1  2  2  0  0  2  0  2  7  7  0  3  0
  1  4  6  3  3  7  0 11  7  4 11  7  0  8  7  2  8  8  1  5  7  2 15 15
  4 14  9  3 16 14  3 18 15  5 17 16  4  2 18  1  1 22  4  1 15  4 17 22
  0 21 20 14 20 15  4]"
4400,342,1.0,7,3,789.8082475662231,162.57463693618774,0,1126400,6896007,50351602,"[ 0  3  1  4  2  1  5  2  1  0  2  1  0  0  1  0  2  0  3  7  7  0  3  0
  3  6  8  4  5  4  0 11  7  4 11  7  2 10  7  1  7  1  3  4  3  0 18 16
  4 14  9  3 12 14  2 14  9  1  2 11  4 23 18  2 16 17  1 15 16  3 22 14
  0  1 23 14 20 15  4]"
4500,342,1.0,7,3,806.1800439357758,163.717942237854,0,1152000,7038039,51340162,"[ 0  3  1  3  2  0  3  1  0  0  2  1  5  3  1  0  2  0  3  5  3  0  3  0
  4  8  7  0  4  8  0 11  7  4 11  7  0 12  6  0  7  2  1  4  7  1  0  2
  4 14  9  4 11 13  0 17 15  2  0 17  4  2 15  1 17  0  4  1 20  1 15 17
  0 15  0 14 20 15  4]"
4600,342,1.0,7,3,822.6029777526855,164.2293119430542,0,1177600,7179184,52323420,"[ 0  3  1  4  2  0  3  3  1  0  2  1  4  3  0  0  2  0  2  1  8  0  3  0
  5  2  3  5  7  8  0 11  7  4 11  7  0  3  8  5  9  4  5  6  7  4 13  1
  4 14  9  2 14 16  2  0  1  3 13 16  5  3 22  2 14 14  0  0 23  1  3 16
  3  2 20 14 20 15  4]"
4700,342,1.0,7,3,839.0475254058838,164.4454526901245,0,1203200,7321019,53313013,"[ 0  3  1  5  3  0  1  3  2  0  2  1  1  1  0  0  2  0  5  4  1  0  3  0
  5  6  2  3  2  6  0 11  7  4 11  7  2  4  1  0  0  0  5  6  5  1 11 11
  4 14  9  4  1  2  1 11  3  1 12 10  5 23 23  0  1  0  4 16 23  4 19 17
  0 20 18 14 20 15  4]"
4800,342,1.0,7,3,855.4078443050385,163.60316276550293,0,1228800,7462311,54298841,"[ 0  3  1  0  1  3  0  3  0  0  2  1  3  0  3  0  2  0  4  4  6  0  3  0
  0  1  7  5  7  4  0 11  7  4 11  7  5  0 12  4  2  9  0  6 12  3  9 12
  4 14  9  5 18  0  2 15 17  5 13  1  5  1 19  2  2 20  5 18 14  2 19 22
  3 15 18 14 20 15  4]"
4900,342,1.0,7,3,871.8320362567902,164.24189567565918,0,1254400,7604847,55292625,"[ 0  1  2  0  1  3  5  2  1  0  2  1  3  2  0  0  2  0  0  4  0  0  3  0
  3  8  4  4  4  5  0 11  7  4 11  7  2  0  2  2  6  7  1 10  5  5 10 13
  4 14  9  4 13 17  5 12 18  4  1 17  1  3 22  1  3  2  1 20 16  3 16 22
  2  2 18 14 20 15  5]"
5000,342,1.0,7,3,888.4903535842896,166.583149433136,0,1280000,7747062,56284011,"[ 4  1  1  0  1  3  0  3  0  0  2  1  2  3  0  0  2  0  1  5  1  0  3  0
  3  4  1  3  2  6  0 11  7  4 11  7  0  4  7  5  0 13  4  9  4  1  1  3
  4 14  9  5 17  0  3 12  9  2  9 18  5 17  1  1 18 14  5  2 20  3 14 21
  4 19 22 14 20 15  5]"
5100,342,1.0,7,3,904.8466835021973,163.56327056884766,0,1305600,7888715,57271014,"[ 4  1  1  0  1  3  2  3  0  0  2  1  3  0  3  0  2  0  5  6  5  0  3  0
  3  1  2  3  8  3  0 11  7  4 11  7  2  2 13  4  4  7  5  9  4  5 16 15
  4 14  9  4 12 12  3 17 10  4  0 13  0 17 19  1 14 19  4 23 19  4 21 18
  3 18  0 14 20 15  5]"
5200,342,1.0,7,3,921.4454543590546,165.9876847267151,0,1331200,8030871,58260643,"[ 4  1  2  0  1  3  2  0  0  0  2  1  0  2  3  0  2  0  5  3  5  0  3  0
  0  7  3  4  6  4  0 11  7  4 11  7  4  0 12  3  3  4  4 11 10  2  3 12
  4 14  9  1 10 12  0 17 13  2  0 15  5 15 21  3  0 23  0 20  0  5 16 14
  4 18  1 14 20 15  5]"
5300,342,1.0,7,3,937.6865420341492,162.41085529327393,0,1356800,8171443,59241023,"[ 2  3  1  0  1  3  3  3  3  0  2  1  4  3  0  0  2  0  3  2  1  0  3  0
  0  3  7  0  3  8  0 11  7  4 11  7  4 13  5  1  3  1  3  2  4  1  1 15
  4 14  9  5 13 18  3 15  9  4  2 10  3 14  2  4 20  1  1 21  3  3 22 14
  5  2 18 14 20 15  5]"
5400,342,1.0,7,3,954.0061042308807,163.19559812545776,0,1382400,8312793,60226459,"[ 0  2  0  0  1  3  2  1  1  0  2  1  4  1  1  0  2  0  1  2  8  0  3  0
  0  8  4  1  4  7  0 11  7  4 11  7  1  0 12  2  6  9  4  5  6  2 13  1
  4 14  9  0  0 17  5 18 12  0 11 18  1  1 20  2  0  3  3 23  1  5 15 21
  2 22 23 14 20 15  5]"
5500,342,1.0,7,3,970.2339298725128,162.2782325744629,0,1408000,8453429,61207205,"[ 4  0  3  0  1  3  1  2  0  0  2  1  0  0  2  0  2  0  5  1  7  0  3  0
  2  1  4  2  2  3  0 11  7  4 11  7  1  9 12  3  4  2  0  0  6  1  9 18
  4 14  9  0 14 18  1  0 17  1 18  1  0 17  3  0 16 14  5  2 17  3  2  2
  5  1 18 14 20 15  5]"
5600,342,1.0,7,3,986.5115175247192,162.7758502960205,0,1433600,8594367,62190299,"[ 0  1  3  5  0  3  2  3  3  0  2  1  0  2  2  0  2  0  5  6  2  0  3  0
  5  5  1  2  6  2  0 11  7  4 11  7  5  9 13  0  8 10  2  2  7  3 13  3
  4 14  9  4 13 16  0 13 14  3 16  9  2 17 23  4 21 22  1 14 23  3 18 14
  2 18 18 14 20 15  4]"
5700,342,1.0,7,3,1003.0005159378052,164.88995552062988,0,1459200,8737997,63194223,"[ 0  1  3  1  0  3  0  3  1  0  2  1  1  3  0  0  2  0  2  4  0  0  3  0
  3  5  0  2  5  3  0 11  7  4 11  7  0  3 11  1  5  2  3  8  0  5 18  1
  4 14  9  4 13  0  3 13 12  5 12 13  1 19 18  0 16 17  2 21 21  2 22  2
  3 15  1 14 20 15  4]"
5800,342,1.0,7,3,1019.2828843593597,162.82365798950195,0,1484800,8878580,64173550,"[ 0  1  3  0  1  0  2  1  2  0  2  1  5  2  0  0  2  0  2  1  7  0  3  0
  2  5  2  4  7  1  0 11  7  4 11  7  5  4 12  2 12 12  5  3  0  1 11 18
  4 14  9  1  2 17  4 11 14  3 10 17  2 17  0  1 16  3  2 20 21  1 17 19
  2 22 23 14 20 15  4]"
5900,342,1.0,7,3,1035.7448062896729,164.61919784545898,0,1510400,9020714,65164490,"[ 0  1  3  1  2  1  3  0  2  0  2  1  5  3  1  0  2  0  4  6  4  0  3  0
  2  2  5  3  2  1  0 11  7  4 11  7  5 10  7  1  9 10  5  7 11  1 11 17
  4 14  9  0  2  0  1 14  3  5  9  1  2 17  0  4  2 15  3 23 16  0 16  0
  2  3 19 14 20 15  4]"
6000,342,1.0,7,3,1052.1370820999146,163.9227318763733,0,1536000,9161021,66141577,"[ 0  1  3  4  3  3  4  2  0  0  2  1  5  0  0  0  2  0  4  7  3  0  3  0
  0  5  5  4  0  7  0 11  7  4 11  7  3  6  7  2 12  4  4  2 12  2 11  2
  4 14  9  2  9 17  2 12 14  3  3  1  3 21 23  0  3 15  0 20  2  4 23  3
  2 17 19 14 20 15  4]"
6100,342,1.0,7,3,1068.4438729286194,163.06788206100464,0,1561600,9301561,67121169,"[ 0  1  3  5  3  1  3  2  0  0  2  1  1  1  0  0  2  0  5  4  2  0  3  0
  4  7  2  5  6  5  0 11  7  4 11  7  3  4  6  1  1  4  4  8  0  1 14  1
  4 14  9  4 10 15  0 10  2  2  2 18  5 14 19  5  0 16  3  1  0  4 15 19
  1  2 16 14 20 15  4]"
6200,342,1.0,7,3,1084.7799065113068,163.36030960083008,0,1587200,9442909,68106966,"[ 0  1  3  4  1  3  1  3  0  0  2  1  2  1  2  0  2  0  2  6  8  0  3  0
  1  8  8  1  5  8  0 11  7  4 11  7  2  1  2  4  1  6  4  5  6  5 14 18
  4 14  9  2 12  3  4  1 14  5 14  3  0 22  2  2  0 22  3 18 16  5 19  0
  3 19  1 14 20 15  4]"
6300,342,1.0,7,3,1101.2654736042023,164.85564708709717,0,1612800,9582731,69082037,"[ 0  1  3  1  2  1  3  3  0  0  2  1  1  2  1  0  2  0  4  6  4  0  3  0
  1  7  3  3  7  1  0 11  7  4 11  7  3  7  7  3 11 10  4  4 10  2 16  9
  4 14  9  4 12 14  3  0 16  0 15 10  0 14 18  4 21 18  3 17 21  4 16 14
  5 17 15 14 20 15  4]"
6400,342,1.0,7,3,1117.7504296302795,164.8495364189148,0,1638400,9725191,70075432,"[ 0  1  3  1  2  2  4  2  0  0  2  1  3  0  2  0  2  0  5  0  0  0  3  0
  5  3  4  4  2  1  0 11  7  4 11  7  1  9  3  0  6 10  1 10  0  1 12 16
  4 14  9  3 15  1  0 12 17  5 15 13  2 19 22  3  1 21  3 21 19  2  2 15
  4 23 15 14 20 15  4]"
6500,342,1.0,7,3,1134.0496428012848,162.99210786819458,0,1664000,9865397,71054321,"[ 0  1  3  4  1  3  5  3  0  0  2  1  3  0  3  0  2  0  4  3  1  0  3  0
  1  0  6  4  5  5  0 11  7  4 11  7  1  7  6  0  8 13  5 10  5  2 10  0
  4 14  9  1 18 18  3 15 16  1 12  2  1 14  3  4  0  0  4  1  2  0  3 16
  5 21 15 14 20 15  4]"
6600,342,1.0,7,3,1150.3994948863983,163.49848985671997,0,1689600,10007521,72045708,"[ 0  1  3  4  3  3  1  2  0  0  2  1  0  0  3  0  2  0  2  8  5  0  3  0
  1  7  6  0  4  2  0 11  7  4 11  7  5  8  9  0  4 10  4  5  6  5 14  3
  4 14  9  2 15 18  4  9 17  0 11  0  2  3 22  1  3  0  3 21 18  5 19 23
  2 22 23 14 20 15  4]"
6700,342,1.0,7,3,1166.834363937378,164.34866428375244,0,1715200,10148221,73026499,"[ 0  1  3  5  3  2  5  2  1  0  2  1  1  2  1  0  2  0  5  4  6  0  3  0
  1  0  4  3  7  6  0 11  7  4 11  7  2  8 12  3  0  4  4  5  1  0  0 13
  4 14  9  1 10 11  5 13 17  2  0 18  0 15  2  4 16  2  4 18 22  5  2 18
  1 21 16 14 20 15  4]"
6800,342,1.0,7,3,1182.9851846694946,161.50818347930908,0,1740800,10287858,74000885,"[ 0  1  3  4  0  2  5  0  1  0  2  1  4  3  0  0  2  0  5  3  5  0  3  0
  2  1  6  5  6  4  0 11  7  4 11  7  4  6  6  3  6  6  1  8  1  0 15 17
  4 14  9  4 10 17  1 17 17  1  2 14  1 21  1  0  3  3  4 22 17  2  2 14
  1 20 16 14 20 15  4]"
6900,342,1.0,7,3,1199.192268371582,162.07081079483032,0,1766400,10428742,74982021,"[ 0  1  3  3  1  3  4  2  1  0  2  1  5  2  3  0  2  0  4  0  4  0  3  0
  3  8  6  2  2  5  0 11  7  4 11  7  1  4  1  4  2  7  4  2 10  0 14  3
  4 14  9  0 15 11  2 16  9  2 15 17  3 14 20  0  1 21  4  3 14  2 21 19
  0  3 20 14 20 15  4]"
7000,342,1.0,7,3,1214.9095077514648,157.17236995697021,0,1792000,10561434,75909118,"[ 1  3  0  5  0  3  5  3  2  0  2  1  0  1  3  0  2  0  0  5  5  0  3  0
  1  0  3  5  6  8  0 11  7  4 11  7  5  4 13  3  5  3  4  9 11  0 14 12
  4 14  9  5 18 13  1 13  0  4  3  2  1  1 17  0  1  3  4 20 19  4 22 18
  3 20  1 14 20 15 25]"
7100,342,1.0,7,3,1230.560956954956,156.5144681930542,0,1817600,10690883,76814907,"[ 1  0  1  2  0  0  0  1  1  0  2  1  2  1  1  0  2  0  5  5  5  0  3  0
  4  0  2  2  8  6  0 11  7  4 11  7  4 13  1  2  7 10  3  5  7  4  2  1
  4 14  9  0  0 12  1 10 12  3 15  3  3 16 16  0  1  3  1 16 16  1 21 20
  5 19 22 14 20 15 25]"
7200,342,1.0,7,3,1246.138721704483,155.77762603759766,0,1843200,10820374,77722200,"[ 0  1  3  5  2  0  2  3  1  0  2  1  2  0  2  0  2  0  3  2  1  0  3  0
  0  2  4  5  4  2  0 11  7  4 11  7  1  8  2  2 10  1  5  1  5  2  3  0
  4 14  9  4  9 18  3 15  3  2  3 13  0  0 15  0  1  3  1  3  3  0  1 22
  3  0 22 14 20 15 25]"
7300,342,1.0,7,3,1261.5333507061005,153.94626140594482,0,1868800,10949066,78620500,"[ 4  1  3  1  1  1  3  1  0  0  2  1  2  3  1  0  2  0  5  2  4  0  3  0
  0  0  1  5  3  5  0 11  7  4 11  7  2  5  0  4  2  2  3 10  1  3  0 18
  0  3  1  1  2 13  4 14  9  4  3 12  2 15 16  0  1  3  0  0  1  5 20 20
  3 17 17 14 22 15 25]"
7400,342,1.0,7,3,1277.1689438819885,156.35590076446533,0,1894400,11079163,79530799,"[ 1  3  3  4  3  0  0  1  1  0  2  1  4  3  0  0  2  0  1  8  4  0  3  0
  5  0  3  0  3  3  0 11  7  4 11  7  3  0  5  0 10  9  2  2 10  1 11 12
  1 18  1  5 14 14  4 14  9  5  1 10  5 14 15  0  1  3  5  0 16  5  1 23
  0  1 22 14 22 15 25]"
7500,342,1.0,7,3,1292.5280854701996,153.5913896560669,0,1920000,11207209,80424381,"[ 1  1  1  3  1  0  2  0  0  0  2  1  3  0  0  0  2  0  3  0  2  0  3  0
  5  3  5  3  0  6  0 11  7  4 11  7  3  2  6  3  3  0  0 11  5  3  2  9
  0 17 15  0  1 17  4 14  9  4 18 15  3  1 18  0  1  3  1  1 22  1  3 17
  3  2 22 14 22 15 25]"
7600,342,1.0,7,3,1307.9479987621307,154.19910669326782,0,1945600,11335150,81319923,"[ 1  1  0  3  1  3  2  0  2  0  2  1  3  0  3  0  2  0  5  6  8  0  3  0
  2  6  4  3  6  0  0 11  7  4 11  7  0  4 11  5  5  8  2 11  4  2 13  3
  5 15 14  4  9 10  4 14  9  0  2 15  1 18 22  0  1  3  5  1 18  2  1 16
  2 17  2 14 22 15 25]"
7700,342,1.0,7,3,1323.6598019599915,157.11800575256348,0,1971200,11465264,82229695,"[ 4  0  2  5  0  3  2  3  0  0  2  1  4  0  0  0  2  0  1  7  5  0  3  0
  3  6  6  4  8  7  0 11  7  4 11  7  5 13  9  5  2  1  1  0 11  5  0  1
  4 18  1  5 13  0  4 14  9  0 18 15  0  0 17  0  1  3  0  0 22  2 14 20
  1  1 20 14 22 15 25]"
7800,342,1.0,7,3,1339.091101884842,154.31297540664673,0,1996800,11593872,83128483,"[ 2  2  1  3  1  2  1  1  2  0  2  1  3  0  2  0  2  0  0  7  7  0  3  0
  5  6  0  5  1  4  0 11  7  4 11  7  3  5  8  2  3 13  3  2  0  3  0 18
  5  2  9  5 10  0  4 14  9  2 18 11  1 19 19  0  1  3  2  0  1  2 17 18
  4  1 20 14 22 15 25]"
7900,342,1.0,7,3,1355.451905488968,163.60800504684448,0,2022400,11730939,84083792,"[ 0  1  3  0  0  2  5  3  2  0  2  1  5  0  0  0  2  0  1  7  3  0  3  0
  5  7  1  1  2  5  0 11  7  4 11  7  1  1  1  3  5  7  0  0  4  2 13 16
  1 16  9  1  0 17  4 14  9  0  3  0  1  2  3  5 20  3  0 16 23  0  2  0
  4 20 19 14 22 15  4]"
8000,342,1.0,7,3,1371.9057953357697,164.53887224197388,0,2048000,11872421,85067877,"[ 0  1  3  0  0  3  4  2  0  0  2  1  0  3  2  0  2  0  0  7  8  0  3  0
  5  2  7  4  7  8  0 11  7  4 11  7  0  4  0  4  2  5  2 11 13  0 14 15
  0  9 16  4  2 13  4 14  9  2 14  0  2  2 16  5  1  3  3 14  0  2 14  1
  3 15  1 14 22 15  4]"
8100,342,1.0,7,3,1388.727724313736,168.21926593780518,0,2073600,12015885,86066981,"[ 0  1  3  0  1  1  4  0  2  0  2  1  0  3  2  0  2  0  0  2  2  0  3  0
  1  5  2  2  7  3  0 11  7  4 11  7  5  2  7  1  8 12  4  1  6  0 18  2
  5  2  3  2  1 13  4 14  9  2 10 17  1 19 16  0  3 15  0 21 23  0  2 18
  0 21  0 14 22 15  4]"
8200,342,1.0,7,3,1405.0416185855865,163.13891887664795,0,2099200,12157330,87054870,"[ 0  1  3  4  3  1  3  3  1  0  2  1  3  3  0  0  2  0  4  7  6  0  3  0
  1  1  8  1  2  0  0 11  7  4 11  7  2  9 12  0  8  6  0  2  4  0 15 16
  2 17 15  0  0  2  4 14  9  2 18 13  0 19  3  3 21 15  4  1  0  5  1 16
  1 14 22 14 22 15  4]"
8300,342,1.0,7,3,1421.3705670833588,163.28946113586426,0,2124800,12299283,88044859,"[ 0  1  3  5  3  3  1  3  1  0  2  1  0  2  3  0  2  0  3  7  8  0  3  0
  3  3  8  4  4  2  0 11  7  4 11  7  2  5 12  2  2 12  0 11  7  0  9 10
  5 17 16  1 10  9  4 14  9  2  1  0  4  2  3  3 20 23  0 20 21  5  3 14
  3  1 21 14 22 15  4]"
8400,342,1.0,7,3,1437.7969675064087,164.26398038864136,0,2150400,12440884,89032729,"[ 0  1  3  1  2  1  3  1  3  0  2  1  2  1  3  0  2  0  3  5  0  0  3  0
  1  8  1  2  4  0  0 11  7  4 11  7  2 13  3  1  4  2  4 13  5  2 10 14
  0 17 16  5  2 14  4 14  9  1 16  3  4 15 22  4  3 19  4 14  3  4 20 18
  4 18 22 14 22 15  4]"
8500,342,1.0,7,3,1453.8888807296753,160.91910600662231,0,2176000,12580128,90002696,"[ 5  1  2  5  1  2  0  3  3  0  2  1  3  0  2  0  2  0  0  1  3  0  3  0
  5  7  7  2  2  5  0 11  7  4 11  7  3  9 12  2  5  5  3  2 12  4  0 15
  2 11 10  0 12 16  4 14  9  2 14 16  2 21 22  4 18 15  4 23 16  5 14  0
  1 23 21 14 22 15 10]"
8600,342,1.0,7,3,1469.6838495731354,157.94966459274292,0,2201600,12714207,90936509,"[ 0  0  0  2  3  2  0  1  0  0  2  1  4  1  2  0  2  0  0  1  3  0  3  0
  5  2  0  0  4  3  0 11  7  4 11  7  5  5  5  4  0  5  0  8  1  1  1 12
  2 17  3  1 13 11  4 14  9  1 15 14  3  0 16  5  2  2  2  1 22  0 14 14
  0 15 14 14 22 15 10]"
8700,342,1.0,7,3,1485.6316826343536,159.47830438613892,0,2227200,12849913,91882231,"[ 2  0  3  1  2  1  2  2  0  0  2  1  4  1  0  0  2  0  0  1  3  0  3  0
  2  5  1  2  2  7  0 11  7  4 11  7  2  7 12  1  6  5  0  8 10  5  0  1
  2 13  0  3 17 10  4 14  9  5  2 17  4 15  3  4 14  0  1 19 23  2 20 17
  2 16 21 14 22 15 10]"
8800,342,1.0,7,3,1501.3945429325104,157.62857675552368,0,2252800,12983618,92815294,"[ 4  1  1  4  3  1  3  3  3  0  2  1  4  2  1  0  2  0  0  1  3  0  3  0
  2  3  4  1  8  1  0 11  7  4 11  7  2  2  7  1  1  9  0  4 13  4 10  3
  2 17 13  3  3 14  4 14  9  2  2 14  4  0 21  3 15 19  2 23 15  1  0 15
  4  1 17 14 22 15 10]"
8900,342,1.0,7,3,1517.2001702785492,158.05624961853027,0,2278400,13118294,93753069,"[ 0  0  2  3  1  1  2  3  2  0  2  1  0  2  3  0  2  0  0  1  3  0  3  0
  2  0  0  3  5  4  0 11  7  4 11  7  3  7  1  5 11  7  1  1 11  4 13  1
  1 12  9  2  0  0  4 14  9  4 10 10  2 16 15  2  0 14  4  1 20  2  2 23
  0 17 21 14 22 15 10]"
9000,342,1.0,7,3,1533.2119162082672,160.11743545532227,0,2304000,13251997,94685711,"[ 2  3  0  1  0  1  5  3  3  0  2  1  5  2  3  0  2  0  0  1  3  0  3  0
  0  8  4  3  5  0  0 11  7  4 11  7  1  6 10  0  5  0  4  8  9  4 18  2
  0 14 10  2  2 13  4 14  9  4 10 17  3 18 15  5 17  0  3  0 20  5  3  2
  3 15 21 14 22 15 10]"
9100,342,1.0,7,3,1549.4065148830414,161.9459629058838,0,2329600,13389644,95646206,"[ 2  3  1  4  0  2  2  2  2  0  2  1  0  1  3  0  2  0  0  7  2  0  3  0
  3  6  4  5  7  3  0 11  7  4 11  7  0 13  9  1 11  0  4  7  3  1 15 12
  5  9 15  4 14 11  4 14  9  4  1  9  2 16 21  3 19 23  4 18 17  4 20 19
  0 17 22 14 22 15  8]"
9200,342,1.0,7,3,1565.880572795868,164.74055290222168,0,2355200,13532642,96642885,"[ 0  1  3  1  0  3  0  2  0  0  2  1  0  0  3  0  2  0  1  0  7  0  3  0
  4  5  5  1  0  6  0 11  7  4 11  7  4 10  1  3 10  4  5 10 11  2 14 12
  3 10 13  0 13  9  4 14  9  5 13 15  2  2 21  3 21  0  0  3 21  3 20 15
  5 20 16 14 22 15  4]"
9300,342,1.0,7,3,1582.0650420188904,161.8446660041809,0,2380800,13672546,97618283,"[ 0  1  3  3  2  3  3  3  0  0  2  1  0  1  2  0  2  0  4  3  2  0  3  0
  1  7  2  1  6  4  0 11  7  4 11  7  0 12 11  0 10  5  2  5  1  2  2  9
  5 10  9  5 12  1  4 14  9  0 18 10  4  3 20  5  1  3  1  3 15  2  1 23
  1 20 22 14 22 15  4]"
9400,342,1.0,7,3,1598.5061421394348,164.41097021102905,0,2406400,13813999,98604554,"[ 5  3  1  2  3  3  3  2  1  0  2  1  0  1  3  0  2  0  1  2  5  0  3  0
  5  4  7  2  8  4  0 11  7  4 11  7  5  7 12  3  2  9  4  6 12  3 14  3
  3  0 18  1  9  1  4 14  9  3 10 16  1 17 19  1  3  0  1 18 16  2  3  2
  2  2 17 14 22 15  8]"
9500,342,1.0,7,3,1614.9801881313324,164.74043369293213,0,2432000,13956504,99597891,"[ 1  2  3  3  2  1  5  3  1  0  2  1  0  1  3  0  2  0  1  2  5  0  3  0
  5  3  7  4  0  1  0 11  7  4 11  7  0 10 11  0  2  6  3  4 10  4  3 11
  4 12 10  4 12  2  4 14  9  2 16 13  5 23 20  4 23  0  3 17 21  1 18 14
  5 16 15 14 22 15  8]"
9600,342,1.0,7,3,1631.5662233829498,165.86032629013062,0,2457600,14098441,100585990,"[ 0  1  1  5  1  0  2  0  2  0  2  1  0  1  3  0  2  0  5  3  1  0  3  0
  5  0  7  1  4  8  0 11  7  4 11  7  4  7 11  5  7 11  3  4  6  0 17  9
  1 16  0  1 12 14  4 14  9  2  9 15  5  1 23  0 18 15  4  1 19  4 22  0
  2 19 17 14 22 16  8]"
9700,342,1.0,7,3,1648.102736234665,165.36510229110718,0,2483200,14241738,101582953,"[ 0  1  0  0  1  3  3  2  2  0  2  1  0  1  3  0  2  0  5  2  6  0  3  0
  5  8  8  3  1  6  0 11  7  2  2 11  4  7 11  1  7  1  1  7  5  2 11 13
  1 10  9  2 13 10  4 14  9  2 15 15  2 16 14  3 14 20  2  2  2  3 18 15
  4 15 18 14 22 16  8]"
9800,342,1.0,7,3,1664.618750333786,165.16011238098145,0,2508800,14381337,102555578,"[ 5  1  1  5  3  3  0  3  1  0  2  1  2  1  3  0  2  0  0  4  2  0  3  0
  0  7  2  4  8  0  0 11  7  0  5  8  4  7 11  3  5  2  5 10  5  3 11 16
  5  9  9  0 18 13  4 14  9  0 13 14  0 21  2  2 14 18  2 18 14  4  2  1
  4 17 16 14 22 16  6]"
9900,342,1.0,7,3,1680.9583547115326,163.39601755142212,0,2534400,14522243,103539824,"[ 5  0  1  0  0  3  0  3  1  0  2  1  1  1  3  0  2  0  2  6  4  0  3  0
  1  8  8  4  5  8  0 11  7  2 12 13  4  7 11  1 11  8  0 10  1  1 18 12
  2 14  0  4 12  3  4 14  9  0 11 10  1  3 23  3 21 20  2  1 19  0 18  0
  1 19  3 14 22 16  6]"
10000,342,1.0,7,3,1697.4279761314392,164.69619035720825,0,2560000,14665409,104536810,"[ 1  3  0  1  3  0  0  3  1  0  2  1  2  1  0  0  2  0  3  2  5  0  3  0
  0  3  8  1  1  3  0 11  7  0  1 10  4  7 11  4  8  1  1  9 13  2  9  2
  4  3  0  1 14 13  4 14  9  2  2 17  5 14 16  1 14  2  1 23 17  0  0  0
  0 19 15 14 22 16  6]"
10100,342,1.0,7,3,1713.9928703308105,165.64886093139648,0,2585600,14807726,105529189,"[ 1  1  1  4  2  3  0  3  1  0  2  1  5  3  0  0  2  0  3  2  1  0  3  0
  2  3  3  3  0  0  0 11  7  5 12  9  4  7 11  1 12 13  4  2 10  3  0  9
  5  3 16  4 11 12  4 14  9  2  2 11  4  0  1  4  3 19  3  0 20  2 14 15
  4  0 19 14 22 16  6]"
10200,342,1.0,7,3,1730.3086712360382,163.1579828262329,0,2611200,14948417,106509285,"[ 3  1  1  1  3  0  0  3  1  0  2  1  0  0  0  0  2  0  2  3  4  0  3  0
  2  2  2  4  7  0  0 11  7  2 10  9  4  7 11  0  5 10  5  0  1  2  1  3
  1 14 11  4  1  1  4 14  9  1  1  2  4 17 18  2 20 15  2 21 14  0 15  1
  0 19 20 14 22 16  6]"
10300,342,1.0,7,3,1746.4528279304504,161.4415407180786,0,2636800,15085905,107467651,"[ 0  0  0  3  3  0  1  2  3  0  2  1  2  2  0  0  2  0  1  4  1  0  3  0
  1  2  5  0  2  3  0 11  7  5  8  3  4  7 11  5  0  0  1 13 10  0  1  3
  4 14 12  1 12  0  4 14  9  3 15  3  2  2 22  1 16 22  2 18  2  5  0 17
  5 22 14 14 22 16 19]"
10400,342,1.0,7,3,1762.1300628185272,156.77232265472412,0,2662400,15217482,108386489,"[ 5  2  0  1  3  3  3  0  0  0  2  1  4  1  1  0  2  0  2  6  4  0  3  0
  1  1  0  4  3  4  0 11  7  1  5  4  4  7 11  2  0 11  4  5  3  0  1  3
  4 16 10  4 17 17  4 14  9  1 10 18  2 14 18  1 21 19  2 17  1  2 20 15
  5 23  3 14 22 16 19]"
10500,342,1.0,7,3,1777.7270095348358,155.96944093704224,0,2688000,15346800,109289999,"[ 0  2  2  2  0  1  1  2  2  0  2  1  4  2  2  0  2  0  1  1  5  0  3  0
  5  6  2  4  8  5  0 11  7  4  7 10  4  7 11  3  9  7  4  9 12  0  1  3
  0 17 14  4 13 12  4 14  9  4 11 16  3 17 18  4 21  2  1  3  3  5 20 14
  4  1 23 14 22 16 19]"
10600,342,1.0,7,3,1793.325300693512,155.98289251327515,0,2713600,15477752,110205702,"[ 4  0  2  3  1  3  5  2  0  0  2  1  0  0  3  0  2  0  2  0  8  0  3  0
  1  6  4  0  4  6  0 11  7  1  5  0  4  7 11  2  3 12  2  1  3  0  1  3
  5 13 11  0  2  1  4 14  9  4 18 14  5 20 17  0 20 19  1 21 19  1 19  1
  3 14 20 14 22 16 19]"
10700,342,1.0,7,3,1809.107346534729,157.8204321861267,0,2739200,15609055,111123584,"[ 1  2  1  1  1  1  1  1  2  0  2  1  0  2  3  0  2  0  3  6  4  0  3  0
  0  1  5  5  5  6  0 11  7  0  4  2  4  7 11  4 10  3  3  1  7  0  1  3
  3 18  3  0 10  9  4 14  9  1 10 13  4 17 17  3 23  3  1 22 19  4 16 17
  3 21 16 14 22 16 19]"
10800,342,1.0,7,3,1824.8812501430511,157.73899793624878,0,2764800,15739969,112039089,"[ 5  1  0  4  1  2  1  0  3  0  2  1  1  1  0  0  2  0  0  0  1  0  3  0
  2  5  7  3  4  2  0 11  7  3 13  6  4  7 11  2  3  7  5 10 10  0  1  3
  3 17 15  2 16  2  4 14  9  3  2  2  2 23 21  3 17 22  5 21 14  1 17 21
  1 14 21 14 22 16 19]"
10900,342,1.0,7,3,1840.6766259670258,157.9537320137024,0,2790400,15870264,112950016,"[ 5  0  3  0  3  0  2  2  0  0  2  1  3  3  2  0  2  0  3  0  5  0  3  0
  0  8  1  4  3  8  0 11  7  0  6  8  4  7 11  3 11 11  0 11  7  0  1  3
  3 18 14  3 14 17  4 14  9  2 15 13  1  3  3  5 22 22  3  3 19  1 23 18
  2 20 19 14 22 16 19]"
11000,342,1.0,7,3,1856.3917825222015,157.15152502059937,0,2816000,16002038,113870311,"[ 5  3  1  4  3  3  0  3  1  0  2  1  1  2  2  0  2  0  2  7  1  0  3  0
  3  7  5  5  4  5  0 11  7  3  8  1  4  7 11  2  8  5  0 12  7  0  1  3
  4  3 16  4  1  0  4 14  9  0 15  2  4 17 19  5 22 17  3  2 19  3  1 15
  0  3  0 14 22 16 19]"
11100,342,1.0,7,3,1871.8724088668823,154.8062300682068,0,2841600,16130362,114766040,"[ 1  3  2  0  0  3  2  0  0  0  2  1  5  2  3  0  2  0  0  8  2  0  3  0
  2  7  2  5  1  6  0 11  7  0  3 12  4  7 11  5  7  3  2  8  4  0  1  3
  2 17 18  3  2 16  4 14  9  3 17 14  0 22 14  2  1 23  2 19  1  5  0 14
  2 14 20 14 22 16 19]"
11200,342,1.0,7,3,1887.4694583415985,155.97047090530396,0,2867200,16260661,115675821,"[ 2  1  0  2  2  3  2  3  1  0  2  1  1  3  2  0  2  0  3  3  8  0  3  0
  2  0  6  4  2  6  0 11  7  2  8  5  4  7 11  4  1  2  2  6  4  0  1  3
  4 17 18  2 14 13  4 14  9  2  3 18  5 15  0  0 19 16  5 20  1  1  0  0
  2 21 16 14 22 16 19]"
11300,342,1.0,7,3,1903.4968638420105,160.27402877807617,0,2892800,16397328,116629131,"[ 0  1  3  3  1  2  1  0  2  0  2  1  0  0  3  0  2  0  3  4  8  0  3  0
  0  5  7  4  8  5  0 11  7  4  4  5  4  7 11  3 12  6  2 10 13  3  9  9
  0  2 13  3 14 15  4 14  9  2 18 14  0 16  2  4 17 16  5  0 14  1 23 14
  5 18 20 14 22 16  4]"
11400,342,1.0,7,3,1919.8507475852966,163.53881359100342,0,2918400,16538206,117611684,"[ 0  1  3  0  1  0  5  2  1  0  2  1  1  2  1  0  2  0  1  6  3  0  3  0
  5  7  3  5  1  3  0 11  7  3  1 12  4  7 11  5  0  3  1  3 13  3 17 12
  4  9  2  5 18 13  4 14  9  0 18 10  1 14 15  2 15  3  2 18 14  3 15 14
  4 18  0 14 22 16  4]"
11500,342,1.0,7,3,1936.2558507919312,164.0510058403015,0,2944000,16679597,118596018,"[ 0  1  3  4  0  2  3  0  2  0  2  1  0  2  0  0  2  0  0  0  6  0  3  0
  1  5  8  3  3  4  0 11  7  4  9  7  4  7 11  5  7  6  4  1 13  4 13 13
  2  2 18  0  2 11  4 14  9  0  1  0  3 20 15  0 23 21  3 21  1  5 15  2
  4 21 17 14 22 16  4]"
11600,342,1.0,7,3,1952.77330327034,165.17449855804443,0,2969600,16821296,119584435,"[ 0  1  3  3  3  2  1  2  1  0  2  1  5  3  2  0  2  0  0  8  7  0  3  0
  4  3  1  5  4  3  0 11  7  3 10  0  4  7 11  1  9 10  4 13 10  4  2 16
  1 12 10  4 18  9  4 14  9  1  3 15  4 14 17  3 23 16  5 19 22  0 21 15
  4 22 15 14 22 16  4]"
11700,342,1.0,7,3,1969.0552706718445,162.81964778900146,0,2995200,16962571,120568690,"[ 0  1  3  4  3  3  1  2  1  0  2  1  2  0  0  0  2  0  4  8  0  0  3  0
  4  7  0  5  4  1  0 11  7  5  6 13  4  7 11  0  4  3  0  0  6  3  3 13
  5 18  9  5 15 13  4 14  9  4 18 12  5 23 22  5  3 21  2  2  2  3 21  3
  4 18 21 14 22 16  4]"
11800,342,1.0,7,3,1985.3305909633636,162.75317668914795,0,3020800,17103983,121553960,"[ 0  1  3  4  1  1  4  0  3  0  2  1  1  1  2  0  2  0  0  4  1  0  3  0
  5  0  8  0  4  1  0 11  7  0  4 11  4  7 11  3  1  5  5 12  2  3 11 13
  1 11  3  3 14  0  4 14  9  1 17 13  1 21 18  4  3 18  5 23 15  0  0 20
  1  2 23 14 22 16  4]"
11900,342,1.0,7,3,2001.5613915920258,162.3079776763916,0,3046400,17244356,122533083,"[ 0  1  3  5  2  3  3  2  2  0  2  1  4  2  0  0  2  0  5  3  6  0  3  0
  3  2  8  3  8  6  0 11  7  5  5  5  4  7 11  1  9 13  0 13  1  5  1  2
  3 18 15  2 18 15  4 14  9  0 12  3  0  3  3  0 14 21  5 21 14  0 23 16
  3  0 15 14 22 16  4]"
12000,342,1.0,7,3,2018.3541440963745,167.92749881744385,0,3072000,17386606,123524569,"[ 0  1  3  4  2  2  5  1  3  0  2  1  2  1  2  0  2  0  1  8  2  0  3  0
  1  1  7  3  8  4  0 11  7  3  0  7  4  7 11  0  5  4  4  0  6  2  1 13
  4  9 17  1 17 11  4 14  9  2 14 10  2 22 22  2 15 17  2 23  0  3  1 14
  5 14 20 14 22 16  4]"
12100,342,1.0,7,3,2034.758710861206,164.04564142227173,0,3097600,17529001,124515824,"[ 0  1  3  4  2  0  2  2  0  0  2  1  0  1  0  0  2  0  1  1  8  0  3  0
  3  1  6  0  3  3  0 11  7  1  9  6  4  7 11  0  2 10  0 12 13  1 15 15
  2 14  9  0 14 14  4 14  9  1 18 15  5 15  0  0  0 14  0 14 20  2  1 17
  3 19 22 14 22 16  4]"
12200,342,1.0,7,3,2051.2367300987244,164.7801661491394,0,3123200,17671381,125508205,"[ 0  1  3  3  3  0  4  0  0  0  2  1  5  0  2  0  2  0  5  7  5  0  3  0
  3  1  0  1  6  2  0 11  7  3 12  6  4  7 11  1 10  4  3 10 11  4  3  0
  3 18  9  0 13  2  4 14  9  2  2 12  0 16 23  0 21 22  1 22 18  4  3  1
  3 19 17 14 22 16  4]"
12300,342,1.0,7,3,2067.418895959854,161.8216323852539,0,3148800,17809892,126472982,"[ 4  2  0  2  2  3  0  2  2  0  2  1  3  0  1  0  2  0  0  3  1  0  3  0
  1  8  7  4  4  7  0 11  7  2  4  0  4  7 11  5  1  8  5  8 10  3  3 14
  5 15 17  4  3  3  4 14  9  1  0 12  5  2  3  0 22  1  4 22 17  5  1  2
  3 17 21 14 22 16 10]"
12400,342,1.0,7,3,2083.3469767570496,159.28078413009644,0,3174400,17944394,127409696,"[ 3  0  2  5  2  2  1  0  3  0  2  1  3  2  3  0  2  0  0  3  1  0  3  0
  4  3  1  4  8  8  0 11  7  2 10  1  4  7 11  4  4  8  2  4 11  4 12 15
  3 11 17  4 12  9  4 14  9  1 14 10  5 19 19  4 22 17  1  3 16  2 14 23
  2 14 21 14 22 16 10]"
12500,342,1.0,7,3,2099.2119431495667,158.649640083313,0,3200000,18077623,128338595,"[ 1  3  1  1  0  3  0  3  0  0  2  1  5  1  1  0  2  0  0  3  1  0  3  0
  3  3  5  5  4  8  0 11  7  4  8  1  4  7 11  0  8  2  5  9  9  5 10 16
  5 11 17  1 14 18  4 14  9  3  9  1  3 17 18  1 21 14  1  2  1  2 20 17
  4  2 21 14 22 16 10]"
12600,342,1.0,7,3,2115.7364568710327,165.24511575698853,0,3225600,18218032,129315749,"[ 2  0  0  4  2  0  0  1  3  0  2  1  1  0  0  0  2  0  2  3  1  0  3  0
  5  6  6  1  4  7  0 11  7  1  0  6  4  7 11  3  1  9  4 11 11  0 17 17
  3 14  9  1  0 13  4 14  9  2 16  2  0 19 19  5  2 15  3  0 14  5  3  0
  2 18 16 14 22 16  6]"
12700,342,1.0,7,3,2132.301624774933,165.65165519714355,0,3251200,18360259,130305346,"[ 4  3  0  1  0  2  0  1  3  0  2  1  0  0  3  0  2  0  4  2  2  0  3  0
  4  2  0  2  3  3  0 11  7  3  6  8  4  7 11  3  9  1  5  7 10  3 14  2
  2 17  0  3 11  2  4 14  9  5 12 14  3  3  1  2  3 15  4 14  0  4 21  0
  1 23 17 14 22 16  6]"
12800,342,1.0,7,3,2148.4217064380646,161.20078802108765,0,3276800,18499089,131272151,"[ 2  2  2  5  0  0  0  1  3  0  2  1  1  2  1  2  2  2  1  2  4  0  3  0
  2  5  2  3  2  2  0 11  7  0  0  2  4  7 11  0  6  9  3  1  1  0 10 12
  5 14 13  1 10  0  4 14 15  4 15 14  3 18 15  0 18  3  0 23  2  0  3 17
  3  2 16 14 22 16  6]"
12900,342,1.0,7,3,2164.4273796081543,160.0567078590393,0,3302400,18634939,132218771,"[ 3  3  3  2  3  3  0  1  3  0  2  1  0  2  2  0  5  6  0  8  8  0  3  0
  0  3  6  4  7  8  0 11  7  0  0  2  4  7 11  0  5 11  4  9  3  1 15 14
  3  9 13  0 11 17  0  1  9  4 15 14  5 14 18  4 23 16  3  0 23  0 21  2
  0 19 14 14 23 16  6]"
12985,343,1.0,7,2,2178.2563405036926,162.69362393547507,0,3324160,18752276,133037257,"[ 2  2  0  0  3  0  0  1  3  0  2  1  2  0  2  2  7  5  5  5  3  0  3  0
  3  6  4  4  8  2  0 11  7  0  0  2  4  7 11  4  3  3  3 13  8  1  2  0
  0  2 15  0 15 11  1 15 11  4 15 14  0  0 15  5  1 15  2 22 19  5 22  0
  3 20 21 14 12 16  6]"
