generation,fitness,functionality,active_nodes,longest_path,time,gen_time,nc_gens,fitness_evals,graph_evals,node_evals,genotype
0,188.0,0.53125,9,3,0.016653060913085938,16.653060913085938,0,0,0,0,"[ 0  1  3  5  1  2  5  3  0  1  3  3  2  2  0  5  7  5  2  2  0  0  2  0
  2  4  5  3  4  6  0  6  5  1  8  5  1  1  7  1  0  4  1  4  7  4 10 14
  5 14 11  5 12 14  5 11  3  4  3 15  5  2 20  5 23  1  5 20  3  5 14 14
  2 17 16  1 28 27  1]"
100,319.0,0.921875,4,2,20.96530246734619,209.48649406433105,0,12800,159735,723706,"[ 0  3  1  0  1  2  3  0  1  2  2  1  2  2  3  0  0  3  2  2  3  0  2  0
  0  0  7  5  8  4  0  3  1  3  3  0  3  0  6  4  5 11  3 13 12  1  3 13
  0  9 15  5 16 15  0 11 14  5  2  0  4  1 20  1 16 22  2  3 19  4 20 16
  5 23 21 22 11  5 14]"
200,319.0,0.921875,4,2,42.25830054283142,212.9299807548523,0,25600,319569,1468624,"[ 5  0  2  0  1  2  0  1  1  3  0  2  3  1  1  5  2  1  0  8  1  0  2  0
  4  8  7  0  1  3  0  3  1  5 11  0  5  6  8  2 11  8  4  1  0  4 15  3
  1 13  2  2 17 12  0 11 14  3  2  0  4 23  0  3  3 17  3 21 22  3 23 14
  5 21 19 22 11  5 14]"
300,319.0,0.921875,4,2,63.5408730506897,212.82572507858276,0,38400,477967,2204103,"[ 4  2  1  0  1  2  0  0  2  1  1  0  1  0  2  1  7  8  2  0  7  0  2  0
  5  6  7  3  4  7  0  3  1  4  1  5  4  9  5  2 10  1  0  7  3  0 17 13
  2 18 12  3  9 12  0 11 14  0  3 10  2 19 18  2  2 16  5 21 22  1  2 23
  5 22  1 22 11  5 14]"
400,335.0,0.984375,7,3,84.18036413192749,206.39491081237793,0,51200,598060,2979407,"[ 0  0  0  0  1  2  0  0  3  5  1  0  1  3  3  2  8  6  2  1  7  0  2  0
  5  4  8  4  5  0  0  3  1  1  0  8  5  6  5  5  9  9  0  3  8  2 15 16
  0 14  9  5  9  3  0 11 14  0 17 10  2  3 16  3 19 16  2 14 21  3  3 15
  3 16 16 22 11 28 14]"
500,335.0,0.984375,7,3,102.21939015388489,180.39026021957397,0,64000,692214,3658711,"[ 4  3  0  0  1  2  0  0  3  5  0  0  0  1  2  3  5  2  5  3  6  0  2  0
  3  3  3  5  1  8  0  3  1  2 11  3  5  6  8  2  8  8  1  2  0  3  9 17
  3 16  1  5  1  9  0 11 14  3 12 18  4 18 15  5  1  1  0 22 19  1  1 17
  3 16 22 22 11 28 14]"
600,335.0,0.984375,7,3,120.09535264968872,178.75962495803833,0,76800,784979,4323697,"[ 0  1  2  0  0  3  0  2  3  1  3  2  0  1  2  0  0  3  4  3  1  0  2  0
  2  1  2  4  0  5  0  3  1  1  7  0  5  9  8  3 11  2  0  4 10  3  1  9
  3  2 15  5  0  0  0 11 14  1  9  0  0 21 17  2  3 14  0 20 17  5  0 14
  2 16 16 22 11 28 14]"
700,337.0,0.984375,6,2,137.451021194458,173.55668544769287,0,89600,882079,4933674,"[ 4  2  1  0  0  3  0  1  2  4  3  1  4  0  1  2  8  3  4  8  6  0  2  0
  3  5  5  4  6  5  0  3  1  5  7  8  3  3  3  2  5  2  3 11  8  0 12 14
  4 12  1  4 17 10  0 11 14  4 12  3  5  2  3  4 15 18  0 23 18  0 20 17
  1 17 23 22 11 13 14]"
800,337.0,0.984375,6,2,154.32656145095825,168.75540256500244,0,102400,979829,5535352,"[ 0  2  1  0  0  3  1  2  2  3  0  0  5  3  1  0  0  1  1  4  0  0  2  0
  4  7  3  4  4  5  0  3  1  5  3 11  3  3  8  1  7  3  4  0  8  5 11  9
  5 18  3  5  0  1  0 11 14  0 13  0  5 23  0  5 17 16  5 22 16  2 16 20
  0  1  2 22 11 13 14]"
900,337.0,0.984375,6,2,171.18949794769287,168.6293649673462,0,115200,1076035,6123834,"[ 0  2  1  0  0  3  1  3  2  1  3  3  5  1  3  1  8  0  4  7  2  0  2  0
  4  2  7  4  4  5  0  3  1  0  3 12  4 11  6  1  3 11  0  6  3  2 14 18
  5  2 13  0 15 12  0 11 14  2  1  0  2 21 19  5  0  1  2 14 15  1 18 17
  1 21  1 22 11 13 14]"
1000,337.0,0.984375,6,2,188.02459335327148,168.35095405578613,0,128000,1170587,6709684,"[ 0  2  1  3  3  3  0  2  2  3  0  1  0  3  0  5  1  0  2  8  6  0  2  0
  5  2  5  4  4  8  0  3  1  2  1  7  5  3  2  3  5  3  3 11 10  4 14 16
  3  9 11  4  9 13  0 11 14  5  0 13  3  1 23  1  1 19  3 22  3  0 23  2
  2 15 14 22 11 13 14]"
1100,337.0,0.984375,6,2,204.7347173690796,167.10124015808105,0,140800,1266281,7302496,"[ 0  2  1  2  0  1  0  1  3  1  0  1  0  3  0  1  0  2  3  4  4  0  2  0
  4  3  6  4  4  8  0  3  1  2 10  2  1 10 10  5 10  0  2  2  7  1  0 12
  2 17 11  2  9 11  0 11 14  1 11  0  2 23 20  0 15 19  0 20  0  0 22 16
  4  3 16 22 11 13 14]"
1200,337.0,0.984375,6,2,221.3704686164856,166.35751247406006,0,153600,1363193,7898200,"[ 0  2  1  1  0  3  4  2  0  0  2  1  0  3  0  5  8  3  0  8  4  0  2  0
  4  4  8  4  4  8  0  3  1  2  1 11  4 12 13  3 10  5  4  1 10  2  9 12
  2 13 12  4  1  2  0 11 14  4 12 11  2 20  0  1  3  2  3  3 19  0  2 22
  4 14 19 22 11 13 14]"
1300,337.0,0.984375,6,2,238.17099499702454,168.0052638053894,0,166400,1460757,8500907,"[ 0  2  1  2  1  1  0  2  3  5  0  2  0  3  0  2  1  3  4  3  3  0  2  0
  3  1  7  4  4  8  0  3  1  4  7  8  2 13  9  1 13  3  5  5  8  2 17 18
  0 11 18  2 17  3  0 11 14  0 14  2  2  0 21  5 19 22  3 18 23  1  0  1
  3 19 18 22 11 13 14]"
1400,337.0,0.984375,6,2,254.76546573638916,165.94470739364624,0,179200,1555938,9089045,"[ 0  2  1  2  2  1  5  3  3  0  0  2  0  3  0  1  4  3  4  2  4  0  2  0
  0  5  1  4  4  8  0  3  1  5  4 10  0 13  1  0  0 13  2  6 10  1  9  1
  5 12 12  5  1 16  0 11 14  2 17  2  0 23  2  1 16 23  1  0  1  0 14 23
  0 16  1 22 11 13 14]"
1500,337.0,0.984375,6,2,271.4184534549713,166.52987718582153,0,192000,1653065,9687876,"[ 0  2  1  0  1  2  4  1  0  4  3  0  0  3  0  3  4  4  5  5  2  0  2  0
  5  5  1  4  4  8  0  3  1  4 10  3  0 13 11  3 13 13  1  0 13  3 15 18
  5 13 15  3 10  0  0 11 14  0 15 11  4 18 20  1  2 15  1 18 22  0 18 20
  2 20  3 22 11 13 14]"
1600,337.0,0.984375,6,2,288.2468991279602,168.28445672988892,0,204800,1749941,10289598,"[ 1  0  3  5  3  3  3  2  3  0  2  1  0  3  0  2  4  0  4  8  6  0  2  0
  0  6  0  4  7  8  0  3  1  1  6  4  2  0  9  5 10  7  4  3  7  4  1  1
  1  9 10  0  3 17  0 11 14  5 13 15  1 15 19  5  1  3  2  0 20  5 18 18
  2 18 17 22 11 13 14]"
1700,337.0,0.984375,6,2,304.7187805175781,164.7188138961792,0,217600,1845875,10882769,"[ 0  3  2  3  1  3  0  2  1  0  2  0  0  3  0  1  4  0  3  1  7  0  2  0
  0  6  2  4  6  8  0  3  1  2  5  7  2  5  8  5  2  8  1  7  4  0 11  9
  1 13 16  3  1 10  0 11 14  0  9 12  0 17 22  3 20  2  4 22 16  4 23 17
  3 17  0 22 11 13 14]"
1725,340,1.0,9,3,308.86879992485046,166.00077629089355,0,220800,1870317,11035156,"[ 3  3  2  3  2  1  0  2  1  0  3  0  0  3  0  5  5  5  2  1  7  0  2  0
  0  7  2  4  6  8  0  3  1  2  5  7  4  3 12  2  2  8  1  7 13  0 11 10
  1 13 16  3  1 12  0 11 14  2 18  1  3 16 22  0 20  0  5  3 16  4 23 15
  4  2  0 22 19 13 14]"
1800,342,1.0,8,2,321.141499042511,163.63598823547363,0,230400,1925718,11472716,"[ 0  0  1  2  0  2  0  2  1  2  1  1  0  3  0  0  6  7  2  1  3  0  2  0
  1  0  2  4  6  8  0  3  1  2  7 13  5 13 12  2  7  8  1  7 11  0 11 10
  1 16 10  0 16 12  0 11 14  4 11 17  4 17  3  0 20 15  5  1  3  4 23 19
  5 16 18 22 19 13 14]"
1900,342,1.0,8,2,336.93900656700134,157.97507524490356,0,243200,1999337,12052856,"[ 0  2  1  2  0  1  0  2  1  2  0  2  0  3  0  2  8  7  2  1  3  0  2  0
  1  5  7  4  6  8  0  3  1  4  8  3  3  6  6  4 10  4  5  1  3  0 11 10
  0 13 17  5 18  2  0 11 14  0  9  2  0  3  2  1 19  0  1 14  2  1 15 15
  5 15 14 22 19 13 14]"
2000,342,1.0,8,2,352.75425815582275,158.1525158882141,0,256000,2072441,12627832,"[ 3  1  0  5  0  0  0  2  1  1  1  0  0  3  0  0  5  4  2  1  3  0  2  0
  4  5  1  4  6  8  0  3  1  1  0  7  3 11 12  5 11 11  5 13 10  0 11 10
  3 13 18  2 18  9  0 11 14  0  9 18  5  2 19  2 16 21  4 22 21  3 20 15
  4 19 14 22 19 13 14]"
2100,342,1.0,8,2,368.57817363739014,158.23915481567383,0,268800,2144422,13195040,"[ 4  0  1  3  1  0  0  2  1  1  2  3  0  3  0  5  7  8  2  1  3  0  2  0
  3  1  1  4  6  8  0  3  1  5  4 13  0  6  4  4 10  0  3  7  9  0 11 10
  3  9 13  2 15  2  0 11 14  1  9 18  4 22 14  1 14 23  0  1 23  4  1 15
  1 14 14 22 19 13 14]"
2200,342,1.0,8,2,384.2630331516266,156.8485951423645,0,281600,2216884,13766914,"[ 1  1  3  2  0  1  0  2  1  4  3  2  0  3  0  3  3  2  2  1  3  0  2  0
  3  5  6  4  6  8  0  3  1  3  7 11  4  0 13  5 11 10  1  2  5  0 11 10
  0  9 18  1  3 16  0 11 14  4 18  9  1  1 20  1  3 19  0 15 20  3  3  3
  2 22 20 22 19 13 14]"
2300,342,1.0,8,2,400.24065136909485,159.77618217468262,0,294400,2290791,14348335,"[ 2  2  0  1  1  1  0  2  1  2  3  2  0  3  0  4  6  2  2  1  3  0  2  0
  3  1  5  4  6  8  0  3  1  4 11  2  0  8 12  2 12 12  3 12 12  0 11 10
  5 17 14  0 14  2  0 11 14  3 11  3  2 22 18  4 15 21  0  2  3  5  1  0
  1  2 21 22 19 13 14]"
2400,342,1.0,8,2,416.28195977211,160.41308403015137,0,307200,2364089,14925971,"[ 3  1  2  0  1  2  0  2  1  1  2  1  0  3  0  0  8  7  2  1  3  0  2  0
  2  7  0  4  6  8  0  3  1  5 11 11  5 13 12  0  3  3  3  6  3  0 11 10
  4  2 14  4 14 14  0 11 14  3  0 10  4 22 15  3 17 15  4  0 18  5 23 17
  1 18 14 22 19 13 14]"
2500,342,1.0,8,2,431.99338459968567,157.11424827575684,0,320000,2437841,15506635,"[ 0  1  3  0  1  2  5  2  3  3  2  1  0  3  0  5  8  1  2  1  3  0  2  0
  5  6  6  4  5  8  0  3  1  0  5  6  5  5  9  0 10 12  4 10  3  0 11 10
  1 16  2  5  2  2  0 11 14  2  3 15  2 21  3  3  1  1  1 14 17  5 19 22
  1  0 17 22 19 13 14]"
2600,342,1.0,8,2,447.8640921115875,158.70707511901855,0,332800,2510239,16076538,"[ 0  2  3  0  1  2  5  3  0  3  2  1  0  3  0  2  1  3  2  1  3  0  2  0
  3  2  0  4  5  8  0  3  1  2  3 13  1  3  7  3  0  7  5  7  1  0 11 10
  4  3 14  5 13 18  0 11 14  2  0 16  5 17  3  0 23 22  0 21  3  5 21 15
  4 16  0 22 19 13 14]"
2700,342,1.0,8,2,463.5767607688904,157.12668657302856,0,345600,2583031,16649104,"[ 4  0  1  0  1  2  1  0  3  5  2  0  0  3  0  1  8  1  2  1  3  0  2  0
  1  3  4  4  5  8  0  3  1  3  2  5  3  7  7  1 10  3  5 11 11  0 11 10
  1  2  9  3  3  3  0 11 14  0 17 15  1 15 16  2 20 19  5 21  0  5 21 16
  1  0 22 22 19 13 14]"
2800,342,1.0,8,2,479.6307535171509,160.53992748260498,0,358400,2656373,17226484,"[ 2  0  1  0  1  2  4  0  2  1  1  0  0  3  0  0  8  2  2  1  3  0  2  0
  5  8  6  4  5  8  0  3  1  0 10 11  1  8  1  4  5 12  1  9 12  0 11 10
  0  2 10  3 12 11  0 11 14  0 16 11  1 19 21  2  1 21  3  2 20  0 19  0
  5 15 16 22 19 13 14]"
2900,342,1.0,8,2,495.6499879360199,160.19234418869019,0,371200,2730337,17808988,"[ 2  1  3  0  1  2  2  2  0  0  3  3  0  3  0  1  2  3  2  1  3  0  2  0
  1  1  1  4  5  8  0  3  1  1 10 10  1  9  7  1  9  1  2  1 11  0 11 10
  0  1 17  5 12  9  0 18  1  0 14 11  5 23  2  4 17 16  1 22 22  4 16 15
  1 17 15 23 19 13 14]"
3000,342,1.0,8,2,511.4066393375397,157.56651401519775,0,384000,2803880,18387775,"[ 2  3  0  0  1  2  0  3  0  5  0  3  3  1  0  4  4  3  2  1  3  0  2  0
  1  6  2  4  5  6  0  3  1  3  4 10  5 12  8  1  3  1  3  4  1  0 11 10
  2 12  3  2  9  9  0 12  0  0 14 11  5  0 20  3 17  2  3 16 14  0 18 17
  1 16  1 23 19 13 14]"
3100,342,1.0,8,2,527.2564418315887,158.49802494049072,0,396800,2878152,18971976,"[ 2  1  2  0  1  2  0  3  0  3  1  1  0  3  0  1  8  1  2  1  3  0  2  0
  1  4  8  4  5  6  0  3  1  0 12  2  3  2  4  2  8  4  5  4  1  0 11 10
  3 15 15  4 11 17  4  0  1  0 14 11  4  0 23  1  3 14  5 21 14  1  1 18
  3 17 14 23 19 13 14]"
3200,342,1.0,8,2,542.9062583446503,156.49816513061523,0,409600,2951462,19549315,"[ 2  3  3  0  1  2  0  3  0  3  0  2  4  2  0  2  3  6  2  1  3  0  2  0
  4  7  0  4  5  6  0  3  1  2  2 12  4 11  8  3  8 11  5  5 11  0 11 10
  5  2 14  0  0 13  5  9 15  0 14 11  0 16 21  1  3  1  5 22 17  4  0 19
  2  2  3 23 19 13 14]"
3300,342,1.0,8,2,558.6018912792206,156.95632934570312,0,422400,3024739,20125800,"[ 0  1  3  0  1  2  0  3  0  2  2  1  4  1  2  5  4  4  2  1  3  0  2  0
  4  0  5  4  5  6  0  3  1  1 12  4  1  5 10  4  5  4  5 10  7  0 11 10
  3 15  9  2 12  3  1 11 15  0 14 11  3 18 23  0 23  2  1  3 23  5  0 22
  5  0 20 23 19 13 14]"
3400,342,1.0,8,2,574.462954044342,158.6106276512146,0,435200,3098117,20704045,"[ 2  1  3  0  1  2  0  3  0  0  2  1  0  0  2  2  6  1  2  1  3  0  2  0
  1  8  0  4  5  6  0  3  1  2  9  2  5 12  4  1  2 12  5 13  7  0 11 10
  0  3 17  3 12 18  3  2 10  0 14 11  5 23 19  1 15 19  3 18  2  2 22 21
  5  2 21 23 19 13 14]"
3500,342,1.0,8,2,590.4936695098877,160.30715465545654,0,448000,3172216,21288203,"[ 2  1  0  0  1  2  0  3  0  4  2  0  0  1  1  4  1  6  2  1  3  0  2  0
  5  3  0  4  5  6  0  3  1  4 12  4  5  1  4  4  5 10  3  6 10  0 11 10
  2 17 10  4  9 18  2 17  3  0 14 11  3 19  0  4 17 20  0 18 21  4  2 21
  3 18 17 23 19 13 14]"
3600,342,1.0,8,2,606.3175799846649,158.23910474777222,0,460800,3245840,21867996,"[ 0  1  2  2  1  2  0  3  0  3  3  1  5  2  0  5  2  6  2  1  3  0  2  0
  2  6  3  4  4  6  0  3  1  0  5  0  0  8  7  3  0  9  0 12  7  0 11 10
  3 15 12  4 15  9  5 11  0  0 14 11  0  2  2  4  0 15  2 22  0  4 18 18
  2 23 14 23 19 13 14]"
3700,342,1.0,8,2,622.0223245620728,157.04744577407837,0,473600,3318132,22437578,"[ 0  1  2  5  0  1  0  3  0  3  2  3  1  0  1  2  8  1  2  1  3  0  2  0
  1  2  5  4  4  6  0  3  1  1  8  7  4  4 11  1 13 12  0  9 11  0 11 10
  3 17  0  4 13 10  3 18  1  0 14 11  2 17 19  2 14 16  0 18 16  4 20 19
  4 22  3 23 19 13 14]"
3800,342,1.0,8,2,638.2526569366455,162.30332374572754,0,486400,3391326,23013399,"[ 0  1  2  4  0  0  0  3  0  2  0  1  1  0  1  1  3  1  2  1  3  0  2  0
  0  7  0  4  4  6  0  3  1  1  4 12  5  4  7  1  5  4  0  8 12  0 11 10
  0 18  0  0 10 13  4 13 15  0 14 11  0 20  1  3 20  0  1 23  3  0 15 16
  2 18 16 23 19 13 14]"
3900,342,1.0,8,2,654.505964756012,162.53307819366455,0,499200,3465086,23593750,"[ 0  1  2  0  1  0  0  3  0  5  1  2  2  2  2  2  2  8  2  1  3  0  2  0
  0  4  6  4  4  6  0  3  1  3  2  1  2  8 13  3  0  1  5  3  3  0 11 10
  3 18  1  3  3 11  5 15 16  0 14 11  5 17 23  1 14 14  4 23 22  3 21 18
  3 22  3 23 19 13 14]"
4000,342,1.0,8,2,670.6300723552704,161.24107599258423,0,512000,3539102,24176242,"[ 0  1  2  1  1  3  0  3  0  1  1  1  3  3  2  0  1  5  2  1  3  0  2  0
  1  4  8  4  4  6  0  3  1  0  2 13  4  3  1  5  0  5  3  8  7  0 11 10
  1 15 17  3  0 18  4 11 11  0 14 11  2 19 19  2  0 14  4  0 20  1 21  1
  5  0 21 23 19 13 14]"
4100,342,1.0,8,2,686.4382975101471,158.0822515487671,0,524800,3612243,24751301,"[ 0  1  2  2  0  3  0  3  0  5  2  3  5  0  2  2  1  3  2  1  3  0  2  0
  1  2  5  4  4  6  0  3  1  2  2  3  2  1 11  4  3  5  4  9  8  0 11 10
  3  3 12  3 15 11  5  9 11  0 14 11  1 19 20  1  2 20  2 20  1  4 17 16
  2 23 16 23 19 13 14]"
4200,342,1.0,8,2,702.4216554164886,159.83357906341553,0,537600,3686336,25334752,"[ 0  1  2  2  1  3  0  3  0  4  2  2  1  1  1  4  8  1  2  1  3  0  2  0
  2  3  5  4  4  6  0  3  1  2  8  1  1 13  6  0  3  9  0 10 11  0 11 10
  5 13 16  1  9  9  2  1 12  0 14 11  1  1 16  1 20  0  3 21 16  2 18 20
  4 15 23 23 19 13 14]"
4300,342,1.0,8,2,718.4573216438293,160.35666227340698,0,550400,3759573,25911423,"[ 0  1  2  1  3  3  0  3  0  1  0  2  3  0  0  3  8  1  2  1  3  0  2  0
  1  1  7  4  4  6  0  3  1  2 13  0  4  1 10  4  7  8  0  9  5  0 11 10
  1  3  3  1 18  9  3  0 16  0 14 11  4 14 18  4  3  0  2  1  3  3 16 23
  1  2 23 23 19 13 14]"
4400,342,1.0,8,2,734.3694252967834,159.12103652954102,0,563200,3831868,26480886,"[ 0  1  2  1  1  1  0  3  0  3  0  1  5  3  3  3  1  0  2  1  3  0  2  0
  1  2  1  4  4  6  0  3  1  0  0  2  2  2  7  3  7  6  4  8 11  0 11 10
  4 13 17  0 17  1  0  0 16  0 14 11  1 16 18  0 23  2  4 19  2  3 20 21
  1 17 18 23 19 13 14]"
4500,342,1.0,8,2,750.3584790229797,159.8905372619629,0,576000,3906422,27066568,"[ 0  1  2  3  2  2  0  3  0  3  3  1  1  0  1  3  1  8  2  1  3  0  2  0
  3  4  6  4  4  6  0  3  1  3  9  0  5  6  3  3  7  0  1  7  0  0 11 10
  0 17 12  5  3 11  3  0 13  0 14 11  3 19 15  5 23 15  4 16 17  2 14  3
  5 16 16 23 19 13 14]"
4600,342,1.0,8,2,766.0984737873077,157.39994764328003,0,588800,3978626,27635382,"[ 0  1  2  3  1  3  0  3  0  1  1  1  2  3  0  2  1  6  2  1  3  0  2  0
  4  1  7  4  4  6  0  3  1  0  7  0  2  2 12  2  4  1  1 10  0  0 11 10
  0 12 12  4 12 18  1  0 11  0 14 11  1 23 15  4 19 18  5 16 20  5 14 18
  0 19 16 23 19 13 14]"
4700,342,1.0,8,2,782.4182643890381,163.19790601730347,0,601600,4053105,28219549,"[ 0  1  2  0  0  3  0  3  0  2  2  2  5  2  0  5  8  4  2  1  3  0  2  0
  2  4  8  4  4  6  0  3  1  1  8 13  4  9  6  5 11  0  0  0 11  0 11 10
  5  2 12  5  2 10  5 18  1  0 14 11  3 15 17  4 23  3  0 17  1  0  2  2
  1 21  1 23 19 13 14]"
4800,342,1.0,8,2,798.3377864360809,159.19522047042847,0,614400,4126104,28793666,"[ 0  1  2  2  3  0  0  3  0  4  1  0  4  3  2  1  1  1  2  1  3  0  2  0
  2  2  4  4  4  6  0  3  1  1 12 12  3  3  1  5  3  9  3 10 11  0 11 10
  4  2 18  0 17 17  3 14 16  0 14 11  3 23 15  0 23 15  0 16 22  0 15 16
  3 21  1 23 19 13 14]"
4900,342,1.0,8,2,814.026757478714,156.88971042633057,0,627200,4199847,29374328,"[ 0  1  2  0  0  3  0  3  0  1  2  2  2  3  2  2  5  5  2  1  3  0  2  0
  2  4  6  4  4  5  0  3  1  5  1  0  0  2 10  3 13 10  5 13  0  0 11 10
  5 15 17  5 16 14  3  3 18  0 14 11  4 15 16  2 23 23  3  0 22  2 17 23
  0  2 18 23 19 13 14]"
5000,342,1.0,8,2,829.8658940792084,158.39136600494385,0,640000,4273458,29953139,"[ 0  1  2  0  0  3  2  1  0  4  3  0  5  1  0  5  4  2  2  1  3  0  2  0
  5  1  7  4  4  5  0  3  1  2  7  0  3  7  4  0  3  3  0  7  6  0 11 10
  0 16 16  0 16 18  2 13  9  0 14 11  2 19 15  1 16  3  4 20 23  1 14  2
  3 22 21 23 19 13 14]"
5100,342,1.0,8,2,845.9001092910767,160.34215211868286,0,652800,4346219,30526193,"[ 0  1  2  0  0  3  2  3  0  1  3  3  4  2  0  3  2  3  2  1  3  0  2  0
  5  5  0  4  4  5  0  3  1  3  2  2  2 10 13  0  1  8  4  9  7  0 11 10
  1 10 15  3 18  2  4 15 17  0 14 11  3 16  0  3 20 20  3 15 18  1 22 15
  0 19 22 23 19 13 14]"
5200,342,1.0,8,2,861.6555697917938,157.55460500717163,0,665600,4418189,31093176,"[ 4  2  3  0  0  3  2  1  0  0  1  2  2  3  2  0  6  8  2  1  3  0  2  0
  3  7  7  4  7  5  0  3  1  2  1 10  3  2  6  2 11  6  5  6 13  0 11 10
  0 17  0  2 14 16  1  3 13  0 14 11  2 18 20  3 21 21  3 14 21  4  2 18
  2 21 18 23 19 13 14]"
5300,342,1.0,8,2,877.000458240509,153.4488844871521,0,678400,4490298,31660781,"[ 0  2  2  0  0  3  0  0  0  0  1  2  4  1  1  1  7  2  2  1  3  0  2  0
  0  3  8  4  7  5  0  3  1  2  1  0  3 11  5  5  2  6  3  1  6  0 11 10
  5 16  2  4  9 13  2 12 10  0 14 11  3  0 18  1 18 22  4 23 15  3 20 19
  0  2  0 23 19 13 14]"
5400,342,1.0,8,2,892.9959282875061,159.9547004699707,0,691200,4565087,32249821,"[ 5  3  2  0  0  3  2  2  2  0  1  2  3  1  0  5  4  0  2  1  3  0  2  0
  3  6  8  4  7  5  0  3  1  0  9  9  2 10  3  2 13  4  4  0  4  0 11 10
  2  3  0  0 13 10  4 10 18  0 14 11  4 22  1  0  2  1  2 17  3  0 19 21
  4 18 18 23 19 13 14]"
5500,342,1.0,8,2,909.2699766159058,162.74048328399658,0,704000,4638563,32828541,"[ 0  2  1  0  0  3  2  0  2  0  1  0  4  2  3  4  6  6  2  1  3  0  2  0
  4  1  2  4  4  5  0  3  1  2 13  2  0  0 13  5  4  2  1 12  7  0 11 10
  2  9 11  5 12 15  0 13  1  0 14 11  2 22 16  5 19  3  1  1  1  4 19 22
  4  2 22 23 19 13 14]"
5600,342,1.0,8,2,925.1456527709961,158.75676155090332,0,716800,4711182,33401101,"[ 0  2  1  0  0  3  4  3  1  3  2  3  1  3  0  3  3  0  2  1  3  0  2  0
  3  7  6  4  4  5  0  3  1  4 12  8  1  0 13  1  7  9  2 13  1  0 11 10
  0  9 17  5 14 15  2 17 18  0 14 11  4 19 16  0 21 15  5 22 20  0  1 17
  2 16  2 23 19 13 14]"
5700,342,1.0,8,2,941.4364082813263,162.907555103302,0,729600,4784509,33978758,"[ 0  2  1  0  0  3  0  2  2  5  3  2  2  3  3  3  7  4  2  1  3  0  2  0
  2  1  7  4  4  5  0  3  1  5  1 10  3  0  2  1  3 12  5  2  9  0 11 10
  1 14  2  5  2 12  2  3  9  0 14 11  3 23 18  4 19  0  2 17 16  5 16  1
  2 22 17 23 19 13 14]"
5800,342,1.0,8,2,957.3030636310577,158.66655349731445,0,742400,4858504,34561424,"[ 0  2  1  0  0  3  0  0  1  0  1  0  2  3  1  4  0  6  2  1  3  0  2  0
  5  7  1  4  4  5  0  3  1  3  1  6  1  6 13  2 13  1  4 10  7  0 11 10
  4  2 12  2  3  1  1 13  2  0 14 11  2 14 19  4 22 20  0 19  0  3 18 18
  1 23 15 23 19 13 14]"
5900,342,1.0,8,2,973.304158449173,160.01094818115234,0,755200,4932317,35141552,"[ 0  2  1  0  0  3  3  1  2  0  1  2  0  1  3  4  6  3  2  1  3  0  2  0
  3  8  0  4  7  5  0  3  1  4  2  9  0 10 12  4 13  1  4  5  0  0 11 10
  2 17  2  4 17 13  4 12 10  0 14 11  2  1 18  4 22  1  4  3  2  5 18 15
  4 19  3 23 19 13 14]"
6000,342,1.0,8,2,988.9125642776489,156.08405828475952,0,768000,5005066,35713946,"[ 1  2  2  0  0  3  2  0  0  0  1  2  5  2  1  4  5  4  2  1  3  0  2  0
  4  4  8  4  7  5  0  3  1  0 12 12  5  8  1  1  3  9  5  7 11  0 11 10
  0 12 15  3  9 12  5 10  2  0 14 11  2 16  3  0 22 14  2 23 21  0  0 15
  3 15 19 23 19 13 14]"
6100,342,1.0,8,2,1004.5846235752106,156.72059297561646,0,780800,5078733,36293663,"[ 4  1  2  0  0  3  2  2  2  0  1  2  4  0  2  4  4  7  2  1  3  0  2  0
  4  1  6  4  7  5  0  3  1  1 12  3  2 13  1  4  5 11  2 13  9  0 11 10
  2 12 13  0  2  0  2 18  9  0 14 11  3 18 21  5 18  2  1 23 23  1  0 17
  5 15 21 23 19 13 14]"
6200,342,1.0,8,2,1020.5375776290894,159.52954053878784,0,793600,5152182,36872210,"[ 1  2  1  0  0  3  2  3  0  0  1  2  4  1  1  0  3  7  2  1  3  0  2  0
  5  4  5  4  7  5  0  3  1  1  4  1  2  0  8  3 11  2  0  2  7  0 11 10
  1 16 13  4 17 14  0 17  2  0 14 11  3 20  1  2 23 22  3 16 20  0 18 23
  4  0  2 23 19 13 14]"
6300,342,1.0,8,2,1036.8543243408203,163.16746711730957,0,806400,5227773,37466759,"[ 0  0  1  0  0  3  3  0  3  0  1  2  2  2  2  0  8  3  2  1  3  0  2  0
  5  8  8  4  7  5  0  3  1  1  7 10  3 11  0  4  0  1  0  5  7  0 11 10
  2 16  3  2 17  1  2 12  1  5  1  0  3  3 16  5  0 22  5 14 22  5 15  3
  3 14 19 18 19 13 14]"
6400,342,1.0,8,2,1052.7573952674866,159.0307092666626,0,819200,5303114,38061169,"[ 3  1  2  0  0  3  4  2  2  0  1  2  2  2  3  1  0  4  2  1  3  0  2  0
  4  3  4  4  7  5  0  3  1  4  9 11  2 11  6  5  2  5  0  5  7  0 11 10
  5  9 10  0  2 12  2 15 14  5  0 16  3 14 17  2  0 23  3  3 18  5  1 21
  3  1 15 18 19 13 14]"
6500,342,1.0,8,2,1068.6211066246033,158.637113571167,0,832000,5377596,38648613,"[ 3  2  0  0  0  3  3  1  2  0  1  2  4  2  2  4  8  8  2  1  3  0  2  0
  0  7  1  4  7  5  0  3  1  3  5  3  1  2  9  1 12 10  0  5  7  0 11 10
  4  9  0  2  0  9  4 18 11  3 11 15  2 19 22  3 14  1  4 14 15  4 15 19
  2 15 18 18 19 13 14]"
6600,342,1.0,8,2,1084.9306106567383,163.0950403213501,0,844800,5453084,39242963,"[ 4  0  3  0  0  3  0  1  1  0  1  2  4  0  0  3  8  2  2  1  3  0  2  0
  4  2  8  4  7  5  0  3  1  0 13  8  3 10  5  1 12  7  0  5  7  0 11 10
  2  0 15  4  2 16  4 17 16  1 18 17  3 15  3  1  3 23  3 23  2  2 23  2
  4 19 21 18 19 13 14]"
6700,342,1.0,8,2,1101.1598765850067,162.29265928268433,0,857600,5529453,39844851,"[ 1  3  0  0  0  3  0  0  0  0  1  2  0  2  1  3  2  2  2  1  3  0  2  0
  0  4  4  4  7  5  0  3  1  1  0  6  0 10  7  0  5 12  0  5  7  0 11 10
  1 18 13  3 12 16  5 10 14  5  2  3  1 22  0  5 14 15  5  0 21  3 18  2
  3 17 20 18 19 13 14]"
6800,342,1.0,8,2,1117.199289560318,160.3941297531128,0,870400,5604899,40440140,"[ 4  3  3  0  0  3  3  2  0  0  1  2  0  2  3  1  1  6  2  1  3  0  2  0
  2  8  4  4  7  5  0  3  1  0  3  7  2  4 10  5 10  7  0  5  7  0 11 10
  5 17  9  0  0  2  5  3 17  4 16 18  2 17 18  2 19  1  2 18 16  4  2 18
  1 19  2 18 19 13 14]"
6900,342,1.0,8,2,1133.3815019130707,161.82212352752686,0,883200,5681297,41041915,"[ 2  3  2  0  0  3  4  2  1  0  1  2  5  1  3  1  2  4  2  1  3  0  2  0
  3  0  4  4  7  5  0  3  1  4 10  3  0  8  0  5 10  7  0  5  7  0 11 10
  0  1 13  4  9 13  1 12  9  1 15  1  0  0 21  2 20  1  1 22  3  5 20  2
  0 18 14 18 19 13 14]"
7000,342,1.0,8,2,1149.186014175415,158.0451226234436,0,896000,5756044,41630512,"[ 0  3  1  0  0  3  1  3  3  0  1  2  4  2  0  5  1  0  2  1  3  0  2  0
  1  2  4  4  7  5  0  3  1  4  9  2  2  2  3  0  2  5  0  5  7  0 11 10
  4 13 17  1 11  1  2 14 14  5 11  9  4  0  1  0 19 17  1 19 21  4 17 21
  2 15 21 18 19 13 14]"
7100,342,1.0,8,2,1165.1783936023712,159.92379426956177,0,908800,5830690,42218898,"[ 1  3  2  0  0  3  2  0  2  0  1  2  4  3  1  4  4  5  2  1  3  0  2  0
  4  7  4  4  7  5  0  3  1  0  4  1  0 11  8  5 13 10  0  5  7  0 11 10
  2  1 12  2 12  1  4 13 16  4 15  9  5 23 21  1 19 18  3 14  1  1 15 20
  5 23  0 18 19 13 14]"
7200,342,1.0,8,2,1181.1650512218475,159.86657619476318,0,921600,5906028,42812670,"[ 4  1  0  0  0  3  0  0  3  0  1  2  0  1  0  5  8  4  2  1  3  0  2  0
  2  8  5  4  7  5  0  3  1  5  5  1  2 11 13  0 11 13  0  5  7  0 11 10
  2 14  1  0  2  1  3 14 16  1 15 13  3  3 14  3 18 20  5  1 14  3  1 20
  0 23 19 18 19 13 14]"
7300,342,1.0,8,2,1197.2174632549286,160.52412033081055,0,934400,5981870,43410307,"[ 2  3  3  0  0  3  0  1  0  0  1  2  1  3  3  2  4  5  2  1  3  0  2  0
  3  5  7  4  7  5  0  3  1  4  2  7  0  3  8  0  9  8  0  5  7  0 11 10
  2  2 10  0  1 10  1  1 12  3  3  0  1 20 22  3 16 14  3  0 18  4  3 18
  5  1 14 18 19 13 14]"
7400,342,1.0,8,2,1213.334564447403,161.17101192474365,0,947200,6057160,44003418,"[ 4  0  2  0  0  3  0  2  1  0  1  2  4  0  1  2  4  6  2  1  3  0  2  0
  1  7  5  4  7  5  0  3  1  0  2  1  2 10  3  3 13  4  0  5  7  0 11 10
  0 16  0  2  3 12  5  0 12  2 17  9  0  3  0  2 21 22  5 21 17  0 14 23
  5 18  1 18 19 13 14]"
7500,342,1.0,8,2,1229.332769870758,159.98205423355103,0,960000,6131936,44592528,"[ 4  0  2  0  0  3  1  0  2  0  1  2  3  1  0  4  0  7  2  1  3  0  2  0
  4  0  8  4  7  5  0  3  1  0  2 12  4  5 13  1  1  7  0  5  7  0 11 10
  3  0 13  2  0 15  3 11  1  2 16  2  1 23 23  2  1 18  2 22 15  2  1 20
  2 21 18 18 19 13 14]"
7600,342,1.0,8,2,1245.2752978801727,159.42528009414673,0,972800,6206354,45179151,"[ 3  1  2  0  0  3  5  2  0  0  1  2  2  3  0  0  1  6  2  1  3  0  2  0
  4  5  7  4  7  5  0  3  1  0  4  7  3  2  0  4  4  2  0  5  7  0 11 10
  5 16 16  2 12 11  5  1 18  2 10 10  4  2 15  1 21 14  2 21  1  2 19 21
  4  3  0 18 19 13 14]"
7700,342,1.0,8,2,1261.4259629249573,161.50665044784546,0,985600,6282802,45781659,"[ 3  3  1  0  0  3  4  0  0  0  1  2  1  1  0  3  6  7  2  1  3  0  2  0
  2  0  6  4  7  5  0  3  1  5  2  9  0  1  0  5  5  2  0  5  7  0 11 10
  3 17 15  3 12 15  0 12  3  0  0 15  1 14 23  5 16  0  0 20 16  0 15 16
  0  0  0 18 19 13 14]"
7800,342,1.0,8,2,1277.8520300388336,164.26067113876343,0,998400,6359973,46389818,"[ 1  3  0  0  0  3  5  1  2  0  1  2  3  2  1  1  4  7  2  1  3  0  2  0
  4  3  7  4  7  5  0  3  1  5  6  1  5  5  9  2  7  6  0  5  7  0 11 10
  0  0 13  2 14 10  0 14 14  2  2 13  2 16 18  3 14 18  2 21 21  2  2 21
  5 15 19 18 19 13 14]"
7900,342,1.0,8,2,1293.7958662509918,159.43836212158203,0,1011200,6434838,46980685,"[ 1  0  3  0  0  3  2  0  0  0  1  2  2  3  1  2  8  3  2  1  3  0  2  0
  1  7  5  4  7  5  0  3  1  3  8  5  0 13  3  2 11 12  0  5  7  0 11 10
  4  3  3  0  9  2  5  3 15  4 17  9  4 14  1  0 23 16  5 17 18  5 20 20
  4  1  2 18 19 13 14]"
8000,342,1.0,8,2,1310.0624673366547,162.66601085662842,0,1024000,6510036,47573810,"[ 3  1  2  0  0  3  2  1  0  0  1  2  3  0  2  0  4  5  2  1  3  0  2  0
  4  7  6  4  7  5  0  3  1  3 13 12  3  7  9  3 13  8  0  5  7  0 11 10
  3  3 12  2 11  0  1 11 10  2 11  0  3 23 17  1  0  1  0  0 16  2 18 15
  0 23 20 18 19 13 14]"
8100,342,1.0,8,2,1326.134405374527,160.71938037872314,0,1036800,6585766,48169818,"[ 0  0  2  0  0  3  3  0  1  0  1  2  3  3  2  4  8  5  2  1  3  0  2  0
  3  3  7  4  7  5  0  3  1  1  3 12  1 10  2  5  7  8  0  5  7  0 11 10
  1  2  1  2  3  3  3 17 11  1 14 13  3 18 21  2 16  1  2 20 16  0  2  2
  4 16 23 18 19 13 14]"
8200,342,1.0,8,2,1342.5515310764313,164.17125701904297,0,1049600,6662135,48771877,"[ 5  0  2  0  0  3  1  3  1  0  1  2  1  3  2  0  1  2  2  1  3  0  2  0
  4  2  0  4  7  5  0  3  1  3  9  8  1  0  1  5 13  1  0  5  7  0 11 10
  1  9 14  3 16  2  4 16 16  5 14  3  3 20 14  2  0 22  3  1 17  1 22 16
  3 19 16 18 19 13 14]"
8300,342,1.0,8,2,1359.0554399490356,165.0390887260437,0,1062400,6738696,49375070,"[ 1  0  1  0  0  3  5  1  1  0  1  2  5  0  3  3  8  6  2  1  3  0  2  0
  2  8  6  4  7  5  0  3  1  1  9  9  3 12  5  2 13 10  0  5  7  0 11 10
  4  9  1  2  9 17  5  3  9  2 13  0  2  1  2  3  0  3  0  0  3  4 20  1
  4  0 21 18 19 13 14]"
8400,342,1.0,8,2,1374.9295914173126,158.74151468276978,0,1075200,6814053,49969590,"[ 2  1  3  0  0  3  4  2  1  0  1  2  4  3  2  0  8  0  2  1  3  0  2  0
  3  3  3  4  7  5  0  3  1  1  3  2  0 11  9  1  9 11  0  5  7  0 11 10
  0 17  3  1 12 11  5 11 15  5  9 12  4 14 21  3  0 14  2 23 21  4  2 17
  5 18 23 18 19 13 14]"
8500,342,1.0,8,2,1391.3964042663574,164.668128490448,0,1088000,6890273,50570051,"[ 4  2  2  0  0  3  4  2  1  0  1  2  3  1  3  4  8  6  2  1  3  0  2  0
  3  5  4  4  7  5  0  3  1  1  3  3  2  7  1  1  7  8  0  5  7  0 11 10
  4  1 16  1 10 14  1 12 18  5  9  0  3 19 20  4 21 20  4 23 16  3 18 17
  2 23 21 18 19 13 14]"
8600,342,1.0,8,2,1407.604959487915,162.08555221557617,0,1100800,6966533,51171112,"[ 0  0  1  0  0  3  2  2  1  0  1  2  0  3  1  0  0  3  2  1  3  0  2  0
  4  5  5  4  7  5  0  3  1  0  8  0  4  6  0  0  5  8  0  5  7  0 11 10
  1  3  3  5  1 14  0 18 14  2  0  2  2 22 20  5 23 22  5 22 16  1 20 16
  2 22 20 18 19 13 14]"
8700,342,1.0,8,2,1423.3327853679657,157.2782588005066,0,1113600,7040531,51754940,"[ 1  2  2  0  0  3  3  1  3  0  1  2  1  3  1  3  7  2  0  7  6  0  2  0
  1  2  0  4  7  5  0  3  1  2  1  3  5  5  1  4  3 11  0  5  7  0 11 15
  4 18 14  0  9  1  4 14  0  5 17 13  2 20  2  5 15  3  4  0 19  0 20 23
  0  1  2 18 19 13 14]"
8800,342,1.0,8,2,1439.1651391983032,158.32353830337524,0,1126400,7113774,52332589,"[ 1  2  3  0  0  3  0  2  1  0  1  2  3  3  1  4  2  7  1  5  5  0  2  0
  2  0  0  4  7  5  0  3  1  2  1  3  2  6 12  0  4  1  0  5  7  0 11 15
  4  3 15  1 18 11  2 16  1  3  3 13  1 22 23  2 21 17  4 22 20  2  3 15
  4  3 21 18 19 13 14]"
8900,342,1.0,8,2,1455.2256405353546,160.60501337051392,0,1139200,7187084,52909688,"[ 3  2  0  0  0  3  0  1  0  0  1  2  3  0  2  5  6  1  4  4  0  0  2  0
  2  6  6  4  7  5  0  3  1  2  1  3  3 11  9  1 12 13  0  5  7  0 11 15
  5  2 15  1 11 12  0  0 18  0 10  3  2 16 17  2 14  3  2 14 21  1  0  0
  0 18 18 18 19 13 14]"
9000,342,1.0,8,2,1471.1439082622528,159.18267726898193,0,1152000,7260093,53485234,"[ 0  0  0  0  0  3  4  1  0  0  1  2  0  1  2  2  8  0  3  1  0  0  2  0
  0  2  2  4  7  5  0  3  1  2  1  3  2  1  7  2  2  2  0  5  7  0 11 15
  3  9 15  0 16 10  5 18 16  1  2 18  4 19  3  4 16 22  3 22 21  1 22 18
  3 22 19 18 19 13 14]"
9100,342,1.0,8,2,1486.755940437317,156.12032175064087,0,1164800,7330793,54043802,"[ 0  0  0  0  0  3  1  3  2  0  1  2  1  2  3  0  0  7  2  2  1  0  2  0
  0  4  5  4  7  5  0  8 10  2  1  3  2  7 11  5  8 11  0  5  7  0 11 15
  3  9 10  1 15  1  2 14  2  5  9  0  4  2 18  5 22 21  0 19 18  4 18 19
  3 15 15 18 19 13 28]"
9200,342,1.0,8,2,1501.7060799598694,149.5013952255249,0,1177600,7397366,54575051,"[ 4  1  0  0  0  3  0  3  2  0  1  2  4  1  2  4  2  2  0  1  8  0  2  0
  2  7  5  4  7  5  2 13 10  2  1  3  1  6 11  5 11  4  0  5  7  0 11 15
  1 13 16  4 10 17  5 14  2  1 17 16  0 20  2  2 22 22  4 15  3  3 22  3
  3 15 15 18 19 13 28]"
9300,342,1.0,8,2,1516.8806335926056,151.74553632736206,0,1190400,7463998,55105241,"[ 5  1  3  0  0  3  1  3  1  0  1  2  1  2  0  0  6  3  0  0  7  0  2  0
  1  5  6  4  7  5  4  2  8  2  1  3  3  2  5  4  8  3  0  5  7  0 11 15
  2  1 10  3 12  0  4 14 11  0 13  3  5 17 23  2 19  2  4  1 15  1 14 16
  2 15 15 18 19 13 28]"
9400,342,1.0,8,2,1531.5450904369354,146.64456844329834,0,1203200,7530022,55630319,"[ 1  1  2  0  0  3  1  0  3  0  1  2  1  2  3  4  5  6  5  5  5  0  2  0
  3  2  3  4  7  5  5 11  0  2  1  3  1  5  0  5  7  0  0  5  7  0 11 15
  0 10 16  3 17 18  5  1  1  0 11  0  4 16 22  3  3 14  0 23  3  1 20 15
  2 15 15 18 19 13 28]"
9500,342,1.0,8,2,1546.6867158412933,151.4162540435791,0,1216000,7597019,56162786,"[ 5  1  2  0  0  3  1  0  3  0  1  2  1  1  3  3  7  1  4  7  5  0  2  0
  0  5  0  3  6  2  5  1  0  2  1  3  4  9 10  1 11  7  0  5  7  0 11 15
  0 17  1  4 15 18  3  0 17  0 15  1  0 16 21  1 19 17  4  3 15  3 17 14
  3 15 15 18 19 10 28]"
9600,342,1.0,8,2,1561.6191203594208,149.3240451812744,0,1228800,7663069,56687900,"[ 1  1  3  0  0  3  5  3  3  0  1  2  4  0  0  0  6  5  4  7  5  0  2  0
  5  4  5  5  6  3  4  1  5  2  1  3  2  3  2  3 11 11  0  5  7  0 11 15
  0 17 10  1  9 18  2 16 17  0 15 16  1  3  0  2 20 22  4 18 16  3  2 22
  2 15 15 18 19 10 28]"
9700,342,1.0,8,2,1576.614774942398,149.95654582977295,0,1241600,7729204,57214574,"[ 1  3  3  0  0  3  1  3  3  0  1  2  5  3  2  0  7  8  4  7  5  0  2  0
  3  0  2  4  4  4  3 13 13  2  1  3  5  5  7  0  0 10  0  5  7  0 11 15
  3 16 14  3  1 16  5 10  0  3 14 16  5 21 17  1  2  2  1 20 20  1 21 15
  2 15 15 18 19 10 28]"
9800,342,1.0,8,2,1591.3786923885345,147.63917446136475,0,1254400,7795804,57745187,"[ 1  2  3  0  0  3  0  1  2  0  1  2  3  0  2  0  6  6  4  7  5  0  2  0
  0  0  3  5  5  1  1  1  4  2  1  3  0 12  9  2  4 10  0  5  7  0 11 15
  2 11 15  2  2 16  2  2 16  1  9  2  0 19 18  2  0 14  4 22 20  0 21 23
  2 15 15 18 19 10 28]"
9900,342,1.0,8,2,1606.6229181289673,152.4422574043274,0,1267200,7862588,58277658,"[ 2  0  0  0  0  3  3  3  3  0  1  2  3  1  2  2  5  2  4  7  5  0  2  0
  3  6  0  2  1  1  0  6  8  2  1  3  4  9  6  0  5  5  0  5  7  0 11 15
  1  0  1  1 13 17  3 10 10  4 13 18  2 15 20  3 15 18  1  2 23  5  2 21
  2 15 15 18 19 10 28]"
10000,342,1.0,8,2,1621.5140964984894,148.91178369522095,0,1280000,7929190,58807671,"[ 3  0  0  0  0  3  3  2  2  0  1  2  1  2  0  5  7  6  4  7  5  0  2  0
  5  4  5  4  6  4  1 11  4  2  1  3  3 13  1  0 12  7  0  5  7  0 11 15
  0 15  0  3  0 15  1  1  1  1  0  3  0  1 18  4  3 17  5 20 18  0 22  0
  2 15 15 18 19 10 28]"
10100,342,1.0,8,2,1636.2395298480988,147.25433349609375,0,1292800,7994417,59326229,"[ 3  1  3  0  0  3  4  2  2  0  1  2  4  0  0  1  8  0  4  7  5  0  2  0
  2  2  5  5  2  3  2  9  4  2  1  3  1 10  6  0  8 12  0  5  7  0 11 15
  5 17 12  3 11 15  4 17 15  1  0 18  0 18  2  2 17  0  0 17 17  0  2  3
  2 15 15 18 19 10 28]"
10200,342,1.0,8,2,1652.290999174118,160.51469326019287,0,1305600,8070587,59926767,"[ 0  2  2  0  0  3  4  1  3  0  1  2  0  1  3  5  8  7  4  7  5  0  2  0
  0  7  3  2  1  3  5  5  3  3  7  3  3  1  3  3  7  2  0  5  7  0 11 13
  1  9 13  4  3 11  4 18 17  2 14 14  3 23 22  1 21 19  4 14 21  1 15 17
  3 16 18 18 19 10  8]"
10300,342,1.0,8,2,1669.1297981739044,168.38798999786377,0,1318400,8149609,60549743,"[ 1  1  3  0  0  3  4  2  3  0  1  2  0  1  3  4  4  7  4  7  5  0  2  0
  3  5  3  2  1  3  3 12  6  0  0  1  0  6 13  4 11  1  0  5  7  0 11 13
  5 15 14  3 15  0  5 16 16  0 17 15  0  3 18  0 20 14  3 21 22  2 17  1
  4 18  2 18 19 10  8]"
10400,342,1.0,8,2,1686.002469778061,168.72671604156494,0,1331200,8228832,61174772,"[ 4  2  2  0  0  3  5  1  3  0  1  2  0  1  3  1  5  7  4  7  5  0  2  0
  1  7  5  2  1  3  2  0  4  3  0  1  4 10 12  2  3  1  0  5  7  0 11 13
  3  0  9  5  0 17  5 13 14  5 10 12  3 19  0  1  0 22  0  3 23  5 14 22
  3 21  2 18 19 10  8]"
10500,342,1.0,8,2,1702.7066252231598,167.04155445098877,0,1344000,8307872,61797547,"[ 3  0  2  0  0  3  4  3  0  0  1  2  0  1  3  0  1  5  4  7  5  0  2  0
  2  3  4  2  1  3  2  5  4  3  0  1  0 13  0  0  5  0  0  5  7  0 11 13
  5  1  1  4  9 15  0 10  3  1 13 18  5 14  1  5  2  0  2  0 15  2 23 19
  1  2 22 18 19 10  8]"
10600,342,1.0,8,2,1718.8271176815033,161.20492458343506,0,1356800,8383646,62395063,"[ 2  1  3  0  0  3  4  3  1  0  1  2  4  0  3  1  0  6  4  7  5  0  2  0
  4  8  0  2  1  3  2  6  4  0  3  1  3  6  9  0  4 13  0  5  7  0 11 13
  0  9 12  4  9  1  4 17 12  2 17 17  4 15  3  1 14  2  2  2 20  0 21 20
  3 23 21 18 19 10 15]"
10700,342,1.0,8,2,1734.7899723052979,159.62854623794556,0,1369600,8459051,62989768,"[ 3  1  3  0  0  3  2  3  2  0  1  2  4  1  0  4  1  7  4  7  5  0  2  0
  0  6  7  2  1  3  4  6  6  0  3  1  1  1 11  1 10  0  0  5  7  0 11 13
  5 15 12  0  2 13  4  3 12  2 13 16  3  2 19  2 16  2  5 15 15  0 21 14
  5 14  0 18 19 10 15]"
10800,342,1.0,8,2,1751.0383636951447,162.48391389846802,0,1382400,8534645,63585324,"[ 0  3  3  0  0  3  2  2  0  0  1  2  2  3  3  0  8  7  4  7  5  0  2  0
  5  7  8  2  1  3  0 13  3  0  3  1  4  1  2  2  2  9  0  5  7  0 11 13
  3 17 10  0 15  3  0 18 15  3 17 15  1  2  3  1 14  3  5 19  0  0 16 23
  0 16 19 18 19 10 15]"
10900,342,1.0,8,2,1766.9828517436981,159.44488048553467,0,1395200,8605238,64146470,"[ 4  1  3  0  0  3  1  0  1  0  1  2  0  1  2  4  5  1  4  7  5  0  2  0
  4  6  1  2  1  3  0  8  7  3  3  8  2  2  5  2  7  8  0  5  7  0 11 13
  3 13 13  5 15  3  0 16 10  0 15  3  5 23 22  4 14 22  2 15 23  2 23 18
  2 15 19 18 19 10 20]"
11000,342,1.0,8,2,1782.3720078468323,153.89156103134155,0,1408000,8674466,64697796,"[ 2  2  2  0  0  3  1  0  3  0  1  2  1  2  1  2  2  1  4  7  5  0  2  0
  0  6  0  2  1  3  0  7  9  4 11 11  3  0 10  1  2  1  0  5  7  0 11 13
  3 13 13  3  1  9  5  3 11  2 18 17  4 19 17  5 14 23  5  0  3  0 19  3
  3 21  2 18 19 10 20]"
11100,342,1.0,8,2,1797.690310716629,153.18302869796753,0,1420800,8742812,65242005,"[ 4  1  1  0  0  3  3  0  0  0  1  2  0  0  1  4  6  8  4  7  5  0  2  0
  1  1  6  2  1  3  1  1  3  5  5  6  0  7  2  4  3  6  0  5  7  0 11 13
  3 13 13  3 10  2  0 16 12  1 10 12  0 14 15  0 14  3  0 21 21  5  2 23
  4 14 15 18 19 10 20]"
11200,342,1.0,8,2,1812.99835729599,153.08046579360962,0,1433600,8812253,65793677,"[ 4  3  1  0  0  3  3  3  3  0  1  2  2  3  1  2  7  5  4  7  5  0  2  0
  4  3  2  2  1  3  5  2  3  5  0  1  1 13  3  0  4  6  0  5  7  0 11 13
  3 13 13  1 10  3  2 11 11  3 13 10  2 19 20  0 14 17  1 22 15  5 21 19
  4 18  1 18 19 10 20]"
11300,342,1.0,8,2,1828.4397702217102,154.41412925720215,0,1446400,8882233,66350091,"[ 3  0  0  0  0  3  0  1  3  0  1  2  0  1  0  3  6  4  4  7  5  0  2  0
  3  2  8  2  1  3  5  8  2  3 13  1  3  6 12  5  2  8  0  5  7  0 11 13
  3 13 13  1 10 15  2  3 16  5 12 11  3 14  3  4 15 17  0 20 19  1 21 20
  2 17 20 18 19 10 20]"
11400,342,1.0,8,2,1843.919204235077,154.794340133667,0,1459200,8951936,66904562,"[ 3  1  2  0  0  3  5  3  3  0  1  2  3  3  3  1  1  0  4  7  5  0  2  0
  3  4  7  2  1  3  2  0  7  1  4  5  1  3  4  2  8 10  0  5  7  0 11 13
  3 13 13  2  9 17  4 17  9  4 16 16  5 14 20  5 17 15  3  0 22  2 21  2
  4 15 22 18 19 10 20]"
11500,342,1.0,8,2,1859.1264164447784,152.07212209701538,0,1472000,9019894,67445074,"[ 0  3  1  0  0  3  5  0  1  0  1  2  0  2  2  3  8  6  4  7  5  0  2  0
  4  2  3  2  1  3  1 13  0  2 10 10  1  2 13  0  7  6  0  5  7  0 11 13
  2 13 13  4 10  3  3  3  3  0  2 16  5  2 19  5 23 18  4  0 22  2 14  2
  5  2 18 18 19 10 20]"
11600,342,1.0,8,2,1874.5157353878021,153.89318943023682,0,1484800,9088165,67988236,"[ 4  2  2  0  0  3  0  3  1  0  1  2  5  0  0  4  3  0  4  7  5  0  2  0
  0  6  1  2  1  3  1  4  9  1  0 10  3 10  4  5  5  5  0  5  7  0 11 13
  2 13 13  4 15 18  3 18  2  5 15 11  4 14 23  1 16 23  5 20 15  2 17 21
  4 14 18 18 19 10 20]"
11700,342,1.0,8,2,1889.8146724700928,152.9893708229065,0,1497600,9156397,68530841,"[ 1  0  2  0  0  3  4  0  0  0  1  2  3  2  3  1  7  0  4  7  5  0  2  0
  4  3  0  2  1  3  5  4  2  3 10 11  3 10 13  0  8  2  0  5  7  0 11 13
  2 13 13  4 18 18  1 16  9  1 18 15  1 21  1  3 21 15  2  2 19  3 14  2
  4 18 16 18 19 10 20]"
11800,342,1.0,8,2,1905.015106678009,152.0043420791626,0,1510400,9224237,69070714,"[ 4  0  2  0  0  3  2  0  0  0  1  2  3  0  2  0  6  8  4  7  5  0  2  0
  0  5  2  2  1  3  4 10  7  4  3  4  1 12  4  1  9 12  0  5  7  0 11 13
  3 13 13  1  1 12  1 12 12  0 18 16  5 21  0  4 21  3  5 23  0  3 20  1
  3 18 14 18 19 10 20]"
11900,342,1.0,8,2,1920.5161604881287,155.0105381011963,0,1523200,9293985,69625840,"[ 1  0  1  0  0  3  1  3  0  0  1  2  0  2  0  0  4  4  4  7  5  0  2  0
  3  5  7  2  1  3  4  1  9  2  2  1  0  4  1  5 10  6  0  5  7  0 11 13
  3 13 13  5 14 18  3 14 14  0  3  9  5 21 17  3 20  1  1 14 14  1 14  1
  2 21 17 18 19 10 20]"
12000,342,1.0,8,2,1936.03244805336,155.16287565231323,0,1536000,9362110,70168163,"[ 0  2  2  0  0  3  2  3  3  0  1  2  1  1  1  4  8  8  4  7  5  0  2  0
  4  1  2  2  1  3  1  7  8  5  5  0  0  5  9  1  5  4  0  5  7  0 11 13
  3 13 13  3 11  1  3 18 15  1 13  3  3 20 20  4  3 14  1 21  0  3 15  3
  3 18  1 18 19 10 20]"
12100,342,1.0,8,2,1951.331214427948,152.98766374588013,0,1548800,9429746,70706794,"[ 2  1  0  0  0  3  1  0  2  0  1  2  5  1  0  2  0  5  4  7  5  0  2  0
  3  6  4  2  1  3  5 10  5  4  9  6  1 10 12  2  5  6  0  5  7  0 11 13
  3 13 13  3 12 11  3  2 17  1 12 10  0  3  3  5 21  2  2 20 20  2  0 19
  5  0 18 18 19 10 20]"
12200,342,1.0,8,2,1966.6287605762482,152.9754614830017,0,1561600,9497465,71245562,"[ 1  1  1  0  0  3  1  3  1  0  1  2  2  3  0  0  4  5  4  7  5  0  2  0
  2  3  4  2  1  3  2  4  5  2  7 11  3  2  2  5 12  1  0  5  7  0 11 13
  2 13 13  1 10 12  5 12  2  1  1 13  0 22 14  3 17  2  5 18 14  1 17 17
  2 15 19 18 19 10 20]"
12300,342,1.0,8,2,1981.8982558250427,152.69495248794556,0,1574400,9564771,71780715,"[ 5  3  2  0  0  3  3  0  0  0  1  2  0  1  2  3  6  5  4  7  5  0  2  0
  0  5  1  2  1  3  1  8 11  2  7 11  1  3  5  1  8  0  0  5  7  0 11 13
  2 13 13  1  9 10  0 10  3  4 15 10  0 17 21  3 14 20  2 18 19  5 21 17
  2 22 18 18 19 10 20]"
12400,342,1.0,8,2,1997.4427797794342,155.4452395439148,0,1587200,9635436,72342386,"[ 4  1  2  0  0  3  5  1  3  0  1  2  1  0  0  3  2  5  4  7  5  0  2  0
  5  0  7  2  1  3  1 12  8  1 10  7  0 10 11  1 12  0  0  5  7  0 11 13
  2 13 13  1 10  2  4 17 16  0 16 13  1  3  2  5  2 14  2 16 21  1 17 22
  4 22 17 18 19 10 20]"
12500,342,1.0,8,2,2013.013499736786,155.70719957351685,0,1600000,9703787,72886737,"[ 2  3  0  0  0  3  4  2  1  0  1  2  3  0  3  3  1  5  4  7  5  0  2  0
  5  4  6  2  1  3  5  0 13  4  9  4  5  4 10  3 11  0  0  5  7  0 11 13
  3 13 13  3 11 14  1 11 13  2  2 18  5 23 16  3 16 14  1 14 15  1  2 18
  3 20 22 18 19 10 20]"
12600,342,1.0,8,2,2028.0841975212097,150.70697784423828,0,1612800,9771296,73423545,"[ 3  1  1  0  0  3  5  0  1  0  1  2  2  0  0  5  2  2  4  7  5  0  2  0
  4  3  1  2  1  3  1  3  3  2  5  2  5  9  9  4  5  0  0  5  7  0 11 13
  2 13 13  2  2 14  3  0  2  5 18 12  4 18 20  1 23 16  0  3  3  3 19 18
  1 20 15 18 19 10 20]"
12700,342,1.0,8,2,2043.4693503379822,153.8515281677246,0,1625600,9840210,73970618,"[ 4  2  3  0  0  3  3  3  3  0  1  2  1  2  2  5  4  5  4  7  5  0  2  0
  1  1  7  2  1  3  1  3  5  3 13  1  4  8 11  1 13  2  0  5  7  0 11 13
  2 13 13  2 11  1  4 13  3  2  3  3  1 16  1  1 16 23  2  3  3  3 21 21
  0 16 18 18 19 10 20]"
12800,342,1.0,8,2,2058.4095120429993,149.4016170501709,0,1638400,9908287,74510809,"[ 0  3  2  0  0  3  4  0  1  0  1  2  2  1  2  5  7  5  4  7  5  0  2  0
  5  4  0  2  1  3  0  8  5  1 11  1  3  4  3  4  0 10  0  5  7  0 11 13
  2 13 13  4  9 15  4 13  1  5 15  1  1  2 22  0 15 22  2 15  2  0  0 22
  3 16  1 18 19 10 20]"
12900,342,1.0,8,2,2073.444182872772,150.3467082977295,0,1651200,9975837,75047978,"[ 0  1  3  0  0  3  5  3  1  0  1  2  2  1  2  0  0  4  4  7  5  0  2  0
  4  2  4  2  1  3  4  4  8  4  5  9  4  5  1  5  4 12  0  5  7  0 11 13
  2 13 13  1  1 11  3 16  3  5 12  3  1 20 22  2 21 21  2 14  1  1 16 22
  4 21  3 18 19 10 20]"
13000,342,1.0,8,2,2088.6289160251617,151.84733152389526,0,1664000,10043451,75586613,"[ 3  2  2  0  0  3  4  1  1  0  1  2  1  1  1  4  3  2  4  7  5  0  2  0
  1  3  8  2  1  3  5  1 10  2  6  4  4  8 11  1  0  6  0  5  7  0 11 13
  3 13 13  5 17  3  0 10 10  5 15 10  0 19 19  2 17  2  5  1  0  0 14 17
  1 15 23 18 19 10 20]"
13100,342,1.0,8,2,2104.1355786323547,155.06662607192993,0,1676800,10111837,76130452,"[ 3  1  2  0  0  3  5  3  3  0  1  2  0  3  0  3  2  2  4  7  5  0  2  0
  1  2  0  2  1  3  0  5  5  2  7  5  2  7  9  1  1  9  0  5  7  0 11 13
  2 13 13  5  0  3  0  0 11  1  1  2  1 18  2  4 21  3  4 22 21  0 22 20
  3  1 16 18 19 10 20]"
13200,342,1.0,8,2,2119.298283100128,151.62704467773438,0,1689600,10179401,76667352,"[ 2  3  0  0  0  3  3  2  3  0  1  2  0  3  2  1  0  2  4  7  5  0  2  0
  1  0  8  2  1  3  3  2 11  5 10 13  3  6  9  2  7 11  0  5  7  0 11 13
  2 13 13  2 15  3  5  1  9  4  1  9  4 23 20  0 14  3  1 19  2  0  1 17
  5 23 20 18 19 10 20]"
13300,342,1.0,8,2,2134.451111793518,151.52828693389893,0,1702400,10248699,77218177,"[ 2  2  3  0  0  3  0  2  3  0  1  2  4  3  0  5  1  0  4  7  5  0  2  0
  5  5  4  2  1  3  4  9  4  3 11  9  4 13  4  4  7  9  0  5  7  0 11 13
  2 13 13  4  0  9  1  3 12  2 12  9  4 21 16  3  1 23  4 18  2  0 14  2
  2 16 17 18 19 10 20]"
13400,342,1.0,8,2,2149.6379663944244,151.86854600906372,0,1715200,10316698,77760052,"[ 2  2  1  0  0  3  0  1  3  0  1  2  4  3  2  3  7  5  4  7  5  0  2  0
  0  5  7  2  1  3  5 13  6  1 11  9  2  6  5  3  3  0  0  5  7  0 11 13
  2 13 13  2  1 18  1 14  1  4 16 13  4  2 22  5 20 14  4 20  0  3 22 22
  5 18  3 18 19 10 20]"
13500,342,1.0,8,2,2165.1851806640625,155.47214269638062,0,1728000,10385652,78308323,"[ 5  2  3  0  0  3  3  0  1  0  1  2  0  1  0  4  0  0  4  7  5  0  2  0
  2  5  7  2  1  3  5  2  1  0  1 12  3  6 12  1  9 13  0  5  7  0 11 13
  3 13 13  2 14  3  4 15 12  3 17 14  4 19  3  0 16  2  2 20  3  3  2  3
  5 21  1 18 19 10 20]"
13600,342,1.0,8,2,2180.9471843242645,157.62003660202026,0,1740800,10455981,78868386,"[ 5  2  3  0  0  3  4  3  1  0  1  2  4  1  0  2  2  7  4  7  5  0  2  0
  2  5  0  2  1  3  2  5  6  0  5  5  4  9  8  3  5 11  0  5  7  0 11 13
  3 13 13  5  9 12  2  0  9  2 11  2  3 19 15  1  2  1  2 16 19  5  2 17
  0 16  2 18 19 10 20]"
13700,342,1.0,8,2,2196.499839067459,155.5265474319458,0,1753600,10528493,79442322,"[ 0  1  3  0  0  3  2  3  0  0  1  2  5  3  2  1  7  3  4  7  5  0  2  0
  3  5  8  2  1  3  4 11  7  5 12  4  1 10  2  3  5 12  0  5  7  0 11 13
  1  1 18  1  3 14  5 13  9  2  0 11  0 16  2  1 14 21  4 20 23  1  1 17
  3  1 16 18 19 10  4]"
13800,342,1.0,8,2,2213.186693429947,166.86854362487793,0,1766400,10608028,80069522,"[ 0  1  3  0  0  3  1  1  3  0  1  2  3  0  1  2  0  7  4  7  5  0  2  0
  4  5  7  2  1  3  4  4  1  1  9  1  4  6  2  4  7  1  0  5  7  0 11 13
  5 11 12  1  0 18  2 13 13  0 14 11  1 19 14  5 22 21  4  2  0  1 22 23
  0  1  2 18 19 10  4]"
13900,342,1.0,8,2,2229.9656591415405,167.78965711593628,0,1779200,10687699,80697609,"[ 0  1  3  0  0  3  4  1  2  0  1  2  0  3  1  3  2  5  4  7  5  0  2  0
  4  8  4  2  1  3  4  6  0  3 13  7  5  5 13  1  4  0  0  5  7  0 11 13
  2 14 17  0  3 14  3  2 13  3 17  1  1 20 14  5 21 14  5  2 14  3 19 16
  5 14  2 18 19 10  4]"
14000,342,1.0,8,2,2246.637147426605,166.71488285064697,0,1792000,10766957,81322152,"[ 0  1  3  0  0  3  3  2  0  0  1  2  0  3  3  3  3  8  4  7  5  0  2  0
  0  2  1  2  1  3  5  7  6  0 10 10  2  3  8  2  7  9  0  5  7  0 11 13
  4  0 10  4  3  3  5 16  3  0 15  0  3 17 22  2 16 14  5 15 17  3 16 17
  3 20  3 18 19 10  4]"
14100,342,1.0,8,2,2263.159770488739,165.2262306213379,0,1804800,10846822,81952602,"[ 0  1  3  0  0  3  2  0  1  0  1  2  3  1  3  0  5  1  4  7  5  0  2  0
  4  7  4  2  1  3  3  6  9  4  6  7  1  8  5  2  7 13  0  5  7  0 11 13
  4  3 17  2  3 10  1 14  3  3  2 18  0 19  1  2 20  1  0  3 20  1 23  3
  2  0 17 18 19 10  4]"
14200,342,1.0,8,2,2279.9017770290375,167.42006540298462,0,1817600,10925390,82572496,"[ 0  1  3  0  0  3  2  0  0  0  1  2  3  1  1  4  5  6  4  7  5  0  2  0
  2  8  3  2  1  3  4  8 10  4 10  3  4 12 13  2 12  9  0  5  7  0 11 13
  4  2  2  0 14 14  3 17  1  3  2 15  3 19 21  2 15 22  2 19  0  2 22 20
  4 16  2 18 19 10  4]"
14300,342,1.0,8,2,2296.613486766815,167.1170973777771,0,1830400,11003577,83189987,"[ 0  3  0  0  0  3  0  1  3  0  1  2  4  2  0  0  7  8  4  7  5  0  2  0
  4  3  8  2  1  3  1  5 12  0 13 13  4  1  6  4 13  9  0  5  7  0 11 13
  1 13  3  3 11  0  1 11  9  1  9  0  1 19 21  2  0 22  1 23 19  0 14  3
  4 16 19 18 19 10  6]"
14400,342,1.0,8,2,2313.333337545395,167.19850778579712,0,1843200,11083682,83822233,"[ 0  3  1  0  0  3  0  1  2  0  1  2  4  3  3  0  0  4  4  7  5  0  2  0
  4  3  8  2  1  3  1  2  6  2  7  1  5  9  8  0  7  7  0  5  7  0 11 13
  4 18  9  2  2 13  2 10 12  3  0  3  2 23 23  3 14  0  1 19  2  3  1 14
  1 14 15 18 19 10  4]"
14500,342,1.0,8,2,2329.814593076706,164.81255531311035,0,1856000,11162607,84444289,"[ 0  3  1  0  0  3  5  1  1  0  1  2  2  3  0  5  1  5  4  7  5  0  2  0
  2  7  3  2  1  3  3  4  0  1 11  3  5  2  5  4 12 10  0  5  7  0 11 13
  5 14 11  1  0 17  0 15 15  1 12  0  3 18  2  2 14 16  0 18 20  3 15 19
  1  2 20 18 19 10  4]"
14600,342,1.0,8,2,2346.552850484848,167.3825740814209,0,1868800,11242624,85074855,"[ 0  3  1  0  0  3  0  1  2  0  1  2  2  3  0  1  2  1  4  7  5  0  2  0
  4  3  8  2  1  3  2 12  2  3 12  3  0  2  1  5 11  6  0  5  7  0 11 13
  1 12  9  2 15  0  4  9 15  2 18 16  4 14 23  2 19 20  0 20 16  0 17 21
  0 15 14 18 19 10  4]"
14700,342,1.0,8,2,2363.368709087372,168.15858602523804,0,1881600,11322457,85705242,"[ 0  3  1  0  0  3  4  0  2  0  1  2  4  2  1  2  2  1  4  7  5  0  2  0
  3  3  2  2  1  3  3  1  1  1  8  3  1  5  4  5  4  9  0  5  7  0 11 13
  4  0  2  1  1  1  0 17  1  0  0  1  4 18  1  0 19 16  2 19 17  5 18  2
  3 22  2 18 19 10  4]"
14800,342,1.0,8,2,2380.0893540382385,167.206449508667,0,1894400,11402486,86335600,"[ 0  3  1  0  0  3  1  2  1  0  1  2  3  0  1  5  8  0  4  7  5  0  2  0
  2  1  0  2  1  3  5  2  0  4  6  1  2 12  5  1 10 10  0  5  7  0 11 13
  4  3 14  1 17 15  0 18 12  5 16  1  1  1  1  1  0  2  4 16 19  0 17  1
  0 22 17 18 19 10  4]"
14900,342,1.0,8,2,2396.6002037525177,165.10849714279175,0,1907200,11480637,86952055,"[ 0  3  1  0  0  3  1  1  0  0  1  2  1  1  0  1  6  2  4  7  5  0  2  0
  4  5  5  2  1  3  2  0  0  2  1  2  1  4 10  3 13  6  0  5  7  0 11 13
  1 15 13  4  0 15  3  9 16  5  9  9  3 22  0  3 17  2  1 23 20  5  0 22
  5 18 19 18 19 10  4]"
15000,342,1.0,8,2,2413.313901901245,167.13698148727417,0,1920000,11560234,87579586,"[ 0  3  1  0  0  3  4  2  2  0  1  2  2  0  1  0  8  8  4  7  5  0  2  0
  3  0  3  2  1  3  4  4 12  5  4  8  2  8 10  5  0 13  0  5  7  0 11 13
  3  2  0  1 18 11  2  3  9  5  2 18  2 16  3  5  1 19  1 22 21  0 22 21
  4 18  0 18 19 10  4]"
15100,342,1.0,8,2,2429.9844348430634,166.70532941818237,0,1932800,11640795,88214405,"[ 0  3  1  0  0  3  3  3  2  0  1  2  1  1  2  0  5  4  4  7  5  0  2  0
  3  1  1  2  1  3  1 10  3  0  6  5  5  9  2  2  2  7  0  5  7  0 11 13
  3 13 11  5 18 13  5  2 10  0 14  9  5  1 23  1 18  1  5 18  0  3  2 17
  2  1  1 18 19 10  4]"
15200,342,1.0,8,2,2446.688714981079,167.04280138015747,0,1945600,11721004,88847066,"[ 0  3  1  0  0  3  1  1  3  0  1  2  0  3  3  0  7  2  4  7  5  0  2  0
  1  0  5  2  1  3  5  9  7  2  4 12  0  3  4  0 10  7  0  5  7  0 11 13
  4  9 13  0 12 15  3 11  1  0  0 13  3 22 23  5 20 17  0 21  0  5  3 18
  3 15 18 18 19 10  4]"
15300,342,1.0,8,2,2463.9190311431885,172.30316162109375,0,1958400,11801245,89480290,"[ 0  3  1  0  0  3  5  3  2  0  1  2  1  3  3  0  6  6  4  7  5  0  2  0
  2  4  0  2  1  3  0  0 11  5  1  7  2 12  6  5 12  6  0  5  7  0 11 13
  2 16 15  0 16  1  1 10  1  0  2  9  5 15 16  1 14 22  0 17  1  4  2 19
  1 18 17 18 19 10  4]"
15400,342,1.0,8,2,2480.447124004364,165.28092861175537,0,1971200,11880095,90102675,"[ 0  3  1  0  0  3  3  0  2  0  1  2  0  0  3  4  8  6  4  7  5  0  2  0
  0  5  1  2  1  3  1  0  3  5  7  3  1  5  2  1  7  5  0  5  7  0 11 13
  1  2 11  0 14 10  3  9  1  2  0 10  4  2 15  4 16 16  4 15 16  1  2 16
  5 23  0 18 19 10  4]"
15500,342,1.0,8,2,2497.3025031089783,168.55379104614258,0,1984000,11959375,90727482,"[ 0  3  1  0  0  3  4  1  0  0  1  2  2  2  1  2  3  4  4  7  5  0  2  0
  3  4  0  2  1  3  1  0  5  1  5 10  2  4 10  2 12 10  0  5  7  0 11 13
  3 12  9  5 12 16  5  0 15  1 18 10  2  3 15  5 23 18  1 21 17  3 21  3
  5 21 23 18 19 10  4]"
15600,342,1.0,8,2,2514.521322965622,172.18819856643677,0,1996800,12040206,91364029,"[ 0  3  1  0  0  3  4  1  1  0  1  2  4  0  3  0  5  2  4  7  5  0  2  0
  1  3  3  2  1  3  3  6  3  1  5  7  1  4  2  4  8  4  0  5  7  0 11 13
  3 17 13  1  2 11  0 16 17  5 15 13  0  0 20  2  1 17  1 20  2  2 18 22
  3 20 21 18 19 10  4]"
15700,342,1.0,8,2,2531.3910672664642,168.69744300842285,0,2009600,12120566,91997072,"[ 1  1  2  0  0  3  0  3  1  0  1  2  0  1  0  1  0  0  4  7  5  0  2  0
  0  2  8  2  1  3  4  2  3  5 10  2  3  2  1  5  4 13  0  5  7  0 11 13
  4 18 10  2 16  2  0  9 10  4  1 12  5 19 23  4  0  3  1  3  2  3 14 14
  5 23  2 18 19 10  6]"
15800,342,1.0,8,2,2548.2579123973846,168.6684513092041,0,2022400,12199298,92618388,"[ 4  2  3  0  0  3  0  3  1  0  1  2  1  3  0  2  1  4  4  7  5  0  2  0
  0  4  5  2  1  3  5  9  4  0 11  4  2 11  0  3  5  7  0  5  7  0 11 13
  0 18 18  0 17  2  0 12  1  1 13  2  1 22 18  0 19 17  2 16  1  2 14 20
  1  1 16 18 19 10  6]"
15900,342,1.0,8,2,2565.1501836776733,168.92271280288696,0,2035200,12278248,93240579,"[ 3  2  1  0  0  3  0  3  1  0  1  2  5  3  0  0  7  3  4  7  5  0  2  0
  0  3  0  2  1  3  2  2  1  2  4  8  0  2  7  1 11  4  0  5  7  0 11 13
  0 12 14  4 11 11  4  2 11  0 13 14  1 17 18  3 22 19  5  1 21  2 23 18
  2 19  1 18 19 10  6]"
16000,342,1.0,7,3,2580.518056869507,153.67873191833496,0,2048000,12354588,93784168,"[ 3  1  0  0  0  3  0  3  1  0  1  2  5  2  0  0  1  7  4  7  5  0  2  0
  5  1  2  0  0  1  0  3  1  4  3  3  3 10  8  4  8  6  0  5  7  2 12  3
  5  0 18  4 18 11  1 14  2  5 11 13  0 17 19  1 14 15  3  3  3  5 14  3
  5 14 23 18 21 10 14]"
16100,342,1.0,7,3,2595.063119649887,145.4506278038025,0,2060800,12426877,94287292,"[ 2  2  2  0  0  3  4  0  2  0  1  2  4  1  2  3  3  6  4  7  5  0  2  0
  3  3  2  5  0  2  0  3  1  3 11 10  0  8  5  4  0  5  0  5  7  1  0  9
  2 13 18  4 18 11  3 18 16  0 10  0  0 17 22  0 18 23  4 14 21  5  3  0
  2 19  1 18 21 10 14]"
16200,342,1.0,7,3,2609.698791742325,146.35672092437744,0,2073600,12498393,94785929,"[ 1  1  0  0  0  3  1  3  0  0  1  2  0  1  1  2  4  8  4  7  5  0  2  0
  1  7  8  4  4  5  0  3  1  0  3  0  4 12  1  3  4  0  0  5  7  1  1 10
  2 15 14  4 18 11  3  2  2  4 16  3  5 16  2  2 15 17  0 14 23  4 21  2
  5 14 15 18 21 10 14]"
16300,342,1.0,7,3,2625.048709154129,153.499174118042,0,2086400,12575206,95320834,"[ 0  0  0  0  0  3  2  0  1  0  1  2  0  1  3  2  4  2  4  7  5  0  2  0
  2  0  3  3  0  3  0 10 11  1  1  8  3  8  3  2 12  1  0  5  7  3  9 18
  4 14  3  4 18 11  3 11 12  4 12 17  3 19 20  3  3 15  2 23 19  2  3 23
  1 23 22 18 21 10  8]"
16400,342,1.0,7,3,2640.3912756443024,153.4256649017334,0,2099200,12652258,95857727,"[ 5  2  2  0  0  3  5  1  3  0  1  2  0  1  3  1  8  7  4  7  5  0  2  0
  3  1  4  0  3  6  4  1  2  4  1 10  3 11  2  2  6  7  0  5  7  3  3 17
  4 18 13  4 18 11  0 15 13  2  9 16  4  0 22  2  1  1  2 17  0  1 19  2
  4 22  3 18 21 10  8]"
16500,342,1.0,7,3,2655.8253071308136,154.3403148651123,0,2112000,12729728,96396920,"[ 0  1  2  0  0  3  5  2  0  0  1  2  0  1  3  3  3  6  4  7  5  0  2  0
  5  6  2  0  5  5  1  6  9  5 13 11  5  7  6  1  3  9  0  5  7  5  1 15
  5 18  1  4 18 11  3 18 18  3 12 13  2 14  0  5  0 15  0 16 19  5  2 15
  5 19  2 18 21 10  8]"
16600,342,1.0,7,3,2671.131103038788,153.05795907974243,0,2124800,12807927,96941760,"[ 4  1  2  0  0  3  2  0  0  0  1  2  0  1  3  1  8  1  4  7  5  0  2  0
  2  1  5  1  5  8  3 10  4  5  5  7  3  8 11  2  5 13  0  5  7  1 14 17
  0 11 13  4 18 11  1 11 12  2 17 15  2 21 20  2 21 15  4 16 22  4 20 19
  4 19 15 18 21 10  8]"
16700,342,1.0,7,3,2686.45809674263,153.26993703842163,0,2137600,12885080,97478726,"[ 0  3  3  0  0  3  1  3  0  0  1  2  0  1  3  1  6  5  4  7  5  0  2  0
  3  0  0  0  8  5  5  5 11  1  4  3  3 12 10  0  8  6  0  5  7  2 18  0
  2  0  0  4 18 11  1 16 17  3  0 14  5 14 20  2 21 19  0 21  1  0 21 14
  2 19 14 18 21 10  8]"
16800,342,1.0,7,3,2701.7606461048126,153.02549362182617,0,2150400,12963267,98022693,"[ 4  3  3  0  0  3  5  3  0  0  1  2  0  1  3  1  6  8  4  7  5  0  2  0
  4  3  7  5  7  5  5  7  3  3 10  8  3 10  2  0  5  3  0  5  7  1 13 14
  5 17 12  4 18 11  3 11 17  2 13 10  5 16  1  1  2 14  2 16 21  3 19 23
  1 18 21 18 21 10  8]"
16900,342,1.0,7,3,2716.899190187454,151.38544082641602,0,2163200,13040028,98557208,"[ 0  3  0  0  0  3  3  1  0  0  1  2  0  1  3  3  1  4  4  7  5  0  2  0
  5  0  6  0  0  5  2  2 12  4  8 10  3  0 13  0 11 12  0  5  7  1 16  1
  2  0  2  4 18 11  4  3 13  5 14 18  5 22 18  4  0 15  0 23 15  5  1 17
  0 23  3 18 21 10  8]"
17000,342,1.0,7,3,2731.9389202594757,150.39730072021484,0,2176000,13117142,99094248,"[ 0  0  2  0  0  3  0  1  3  0  1  2  0  1  3  0  5  7  4  7  5  0  2  0
  4  4  4  3  8  2  4 13  7  4  0 11  5 11  7  5  0  5  0  5  7  5 18 13
  0  3 13  4 18 11  0  9 13  0 12 13  2  3 18  4 21 15  2 16 22  1 21  1
  1 21  0 18 21 10  8]"
17100,342,1.0,7,3,2747.533565759659,155.94645500183105,0,2188800,13193999,99629459,"[ 2  3  0  0  0  3  2  3  2  0  1  2  0  1  3  3  2  5  4  7  5  0  2  0
  4  6  5  3  0  8  3  2 13  1  7  2  2 12  3  4 12  2  0  5  7  0 15 13
  5 10 11  4 18 11  3 12 14  3 10 17  1  3  0  0 15 23  0  3 22  1 23  2
  4 15 16 18 21 10  8]"
17200,342,1.0,7,3,2762.6673748493195,151.33809089660645,0,2201600,13269783,100157293,"[ 2  1  0  0  0  3  1  2  1  0  1  2  0  1  3  1  1  3  4  7  5  0  2  0
  1  3  5  2  6  4  5  2  2  2  5  6  0  7  4  4  6  0  0  5  7  5 14 18
  2  9 12  4 18 11  4 11  3  2 14  2  2 22 20  5 16  2  5 20 17  2 22  3
  4 16 19 18 21 10  8]"
17300,342,1.0,7,3,2777.872400522232,152.05025672912598,0,2214400,13346945,100694811,"[ 5  1  3  0  0  3  3  3  0  0  1  2  0  1  3  1  7  0  4  7  5  0  2  0
  2  3  6  5  5  0  2  0  6  1  6  3  0 13  2  4 13  7  0  5  7  1 16  0
  0 13 11  4 18 11  5 12 17  1 14  9  5 20 17  2 15  2  5  2 18  2 16 22
  2  1 17 18 21 10  8]"
17400,342,1.0,7,3,2792.940105676651,150.67705154418945,0,2227200,13423731,101230343,"[ 0  3  1  0  0  3  4  0  3  0  1  2  1  1  3  2  4  8  4  7  5  0  2  0
  1  0  4  0  8  0  4 11  0  2  9  9  0  6  7  2  6  6  0  5  7  1  3  1
  0  0 16  4 18 11  1 17 12  1 14 17  3 20 16  4  3 19  0 22 18  0  0 20
  0 15 23 18 21 10  4]"
17500,342,1.0,7,3,2808.08082818985,151.40722513198853,0,2240000,13500896,101767746,"[ 0  3  1  0  0  3  2  3  3  0  1  2  2  0  2  0  2  7  4  7  5  0  2  0
  3  8  8  4  0  6  4  8 13  5  3 11  5  6  1  1 10  3  0  5  7  1 13 11
  0 18 17  4 18 11  5 17  2  0 16 11  2  1  2  3  2  2  1 20 19  4 14  3
  4 21 15 18 21 10  4]"
17600,342,1.0,7,3,2823.259013414383,151.7818522453308,0,2252800,13577326,102300421,"[ 2  2  0  0  0  3  4  2  3  0  1  2  0  1  3  2  3  4  4  7  5  0  2  0
  0  1  8  0  4  6  5  2 11  3  7  2  5  2  8  3 13  5  0  5  7  4  9 12
  5  1  3  4 18 11  1  3 10  1 10 18  3 23 17  3 23 16  4 18 19  0 14 19
  5 14 21 18 21 10  8]"
17700,342,1.0,7,3,2838.6744487285614,154.15435314178467,0,2265600,13652858,102826714,"[ 1  2  1  0  0  3  3  3  1  0  1  2  0  1  3  2  1  0  4  7  5  0  2  0
  3  1  5  4  4  0  5  5  4  2  8 13  5 10 13  0  0 10  0  5  7  5  2  1
  3 10 15  4 18 11  4  2 10  1 11 17  5  1 17  5 18 18  1  1 23  5 16  0
  4  1 19 18 21 10  8]"
17800,342,1.0,7,3,2853.797931432724,151.23482704162598,0,2278400,13729261,103357666,"[ 1  3  1  0  0  3  1  3  3  0  1  2  0  1  3  5  5  2  4  7  5  0  2  0
  5  1  5  1  1  0  4  6 11  5  7  0  2  5  4  0  2 10  0  5  7  3 12  1
  4 13 12  4 18 11  5 14 11  2  9 10  0 18  2  2  0 23  0 18 21  5 20 14
  4  0 14 18 21 10  8]"
17900,342,1.0,7,3,2869.5553002357483,157.57368803024292,0,2291200,13806336,103894070,"[ 1  3  1  0  0  3  5  3  3  0  1  2  0  1  3  2  0  7  4  7  5  0  2  0
  4  7  2  1  5  8  1  2  1  3  8  5  0 11  0  2 12  6  0  5  7  5 15 16
  3 18 14  4 18 11  0 10 12  1 18 11  2  0 22  1  1 19  2 14 21  0 20  3
  0  2 23 18 21 10  8]"
18000,342,1.0,7,3,2884.989155769348,154.33855533599854,0,2304000,13883112,104428618,"[ 4  0  2  0  0  3  1  2  0  0  1  2  0  1  3  1  4  6  4  7  5  0  0  8
  0  2  0  0  0  8  5  1  8  0  6 10  0  2  4  4  6  5  0  5  7  0 16  9
  2  3 10  4 18 12  5 18 12  4 14 15  4 19 22  1 17 18  1 17 22  5 23 18
  2  3 19 18 21 10  8]"
18100,342,1.0,7,3,2900.881499528885,158.92343759536743,0,2316800,13962309,104980150,"[ 1  0  0  0  0  3  4  1  2  0  1  2  0  1  3  0  6  8  4  7  5  3  6  0
  0  2  0  2  6  0  0  3  7  1  1  2  0 10 12  2  0  8  0  5  7  0 12  2
  2 17 10  4 18 12  4 16  2  2  1 16  0 16 23  4  0  1  2  3 17  0 20 17
  2  3  0 18 21 10  8]"
18200,342,1.0,7,3,2916.2464051246643,153.6490559577942,0,2329600,14039109,105515518,"[ 5  2  1  0  0  3  4  2  0  0  1  2  0  1  3  2  7  8  4  7  5  2  5  2
  0  2  0  2  2  2  0  8  8  2  3 12  3 12  7  1 11  1  0  5  7  3 13 17
  2 11  0  4 18 12  0 15  9  2 10  3  4 19 18  5  0 23  4 20 17  2 19  1
  2 16  2 18 21 10  8]"
18300,342,1.0,7,3,2932.013320684433,157.66915559768677,0,2342400,14116654,106055488,"[ 3  2  1  0  0  3  1  0  0  0  1  2  0  1  3  0  0  0  4  7  5  4  8  8
  0  2  0  1  2  0  5 13 11  5  5  1  2  3  8  5  2  3  0  5  7  4 15 12
  4 14  0  4 18 12  1 14 18  5 12 12  1 19  1  2 20  3  1  0  3  3  1 14
  5 14 19 18 21 10  8]"
18400,342,1.0,7,3,2947.192139148712,151.78818464279175,0,2355200,14193467,106591697,"[ 0  0  1  0  0  3  4  1  2  0  1  2  0  1  3  1  2  4  4  7  5  0  0  4
  0  2  0  4  4  7  0  3  1  1 10  1  4 11 11  4 10 11  0  5  7  0 13 13
  5  0 17  4 18 12  0 14 13  1  1 18  1 22 14  2 23  0  1 18  2  2 22 15
  5  3  1 18 21 10  8]"
18500,342,1.0,7,3,2962.4797439575195,152.87604808807373,0,2368000,14269773,107122737,"[ 5  3  3  0  0  3  4  1  2  0  1  2  3  0  3  3  6  7  4  7  5  2  8  0
  0  2  0  1  5  1  3  8 12  4  4  2  0  7 12  0 10  1  0  5  7  4  0  9
  5  2  3  4 18 12  2  1  3  3 12 15  1 21  3  0  3  1  4 22 23  1 19 19
  2 16  1 18 21 10 25]"
18600,342,1.0,7,3,2976.775166273117,142.95422315597534,0,2380800,14340581,107616703,"[ 1  0  1  0  0  3  5  2  1  0  1  2  5  2  0  4  8  1  4  7  5  0  0  4
  0  2  0  0  8  7  0  2 10  0  1  3  3  5  8  1 12  5  0  5  7  5 17  0
  3 17  0  4 18 12  0 18 12  4 10 13  1  0 21  3  3 18  2  1 16  0 17  2
  3 16  2 18 21 10 15]"
18700,342,1.0,7,3,2991.5700137615204,147.9484748840332,0,2393600,14412494,108117426,"[ 4  0  3  0  0  3  2  2  0  0  1  2  5  1  1  0  3  7  4  7  5  5  4  7
  0  2  0  2  2  2  5  5  3  0  1  3  3 12  6  5  3  8  0  5  7  4  1 17
  1 10  1  4 18 12  3 17 12  4 11 14  4  1 17  0 18 23  0 15 15  2 16  3
  0 14  0 18 21 10 15]"
18800,342,1.0,7,3,3006.283899784088,147.1388602256775,0,2406400,14485446,108626027,"[ 2  3  2  0  0  3  3  3  0  0  1  2  2  3  1  3  0  0  4  7  5  1  1  7
  0  2  0  0  1  4  1  8  8  0  1  3  5  7  5  3  2 12  0  5  7  5 14 17
  5 11 16  4 18 12  3 14 16  2  0 16  1  3 17  3 15 16  2 22 19  5  3 21
  4 15 15 18 21 10 15]"
18900,342,1.0,7,3,3021.0264387130737,147.42538928985596,0,2419200,14557985,109131253,"[ 4  0  1  0  0  3  1  1  1  0  1  2  0  1  0  1  5  7  4  7  5  1  1  6
  0  2  0  5  6  1  2 13 12  0  1  3  2  8 10  0 13  9  0  5  7  0 17 15
  1 10 12  4 18 12  0  1 12  4  3 15  5  1 14  0  1 20  5 17 15  1 18  3
  1 21 18 18 21 10 15]"
19000,342,1.0,7,3,3035.2949302196503,142.68491506576538,0,2432000,14629154,109627856,"[ 4  0  2  0  0  3  5  0  2  0  1  2  1  2  0  3  6  3  4  7  5  2  6  6
  0  2  0  3  8  3  5 11  7  0  1  3  5  5 12  3  6  5  0  5  7  0  0  0
  2 12  1  4 18 12  3 13  3  0 16 18  3  1 15  0  3 17  1 22 14  1  0  0
  5 22 18 18 21 10 15]"
19100,342,1.0,7,3,3050.148243188858,148.53312969207764,0,2444800,14700003,110121505,"[ 3  3  2  0  0  3  5  1  1  0  1  2  1  1  1  3  2  8  4  7  5  4  5  6
  0  2  0  1  2  1  5  2  9  0  1  3  2  1  2  5 13  4  0  5  7  5 18 14
  3 13 13  4 18 12  1 18  0  3  0 13  2 22 15  5 15 20  4 17 23  4  0 23
  5  0 14 18 21 10 15]"
19200,342,1.0,7,3,3064.957781791687,148.0953860282898,0,2457600,14772279,110625009,"[ 5  1  3  0  0  3  4  1  0  0  1  2  1  2  3  2  1  3  4  7  5  5  3  7
  0  2  0  5  2  6  5 13  6  0  1  3  1 10  3  2 10  5  0  5  7  0 16 12
  5  2 17  4 18 12  1 15  1  5 10  3  2  0 20  4 18 21  3  1  1  2 19  2
  3  0 18 18 21 10 15]"
19300,342,1.0,7,3,3079.5792689323425,146.21487140655518,0,2470400,14843759,111122813,"[ 5  2  0  0  0  3  3  2  0  0  1  2  4  2  0  5  7  2  4  7  5  3  8  7
  0  2  0  2  7  0  2  5  6  0  1  3  4  0  3  3  1  6  0  5  7  4 11 11
  1 15 15  4 18 12  0 12 12  0 18 15  1  2 19  3 17  2  5  2  0  1  2 14
  2  3 15 18 21 10 15]"
19400,342,1.0,7,3,3094.30818772316,147.2891879081726,0,2483200,14914578,111616450,"[ 2  3  0  0  0  3  2  1  1  0  1  2  5  2  1  1  0  7  4  7  5  1  6  7
  0  2  0  3  6  8  3  8 12  0  1  3  4  5 11  1 10  0  0  5  7  3 16 14
  4  2 11  4 18 12  4 16  3  4  3 10  1 23 22  4  0  1  4  2 23  5 20 15
  0  2 20 18 21 10 15]"
19500,342,1.0,7,3,3108.582276582718,142.74088859558105,0,2496000,14985793,112112843,"[ 2  3  1  0  0  3  1  1  0  0  1  2  3  3  2  2  0  7  4  7  5  4  4  5
  0  2  0  5  6  2  3  5  5  0  1  3  2 11 10  3  6  0  0  5  7  2  0  1
  5  1 13  4 18 12  0  0 12  1  3  1  0 22 22  2 22 21  0 16 22  1 17  3
  2 14 16 18 21 10 15]"
19600,342,1.0,7,3,3122.9745829105377,143.92306327819824,0,2508800,15056668,112606690,"[ 4  0  0  0  0  3  3  2  0  0  1  2  0  3  2  3  2  7  4  7  5  2  3  5
  0  2  0  3  5  6  3 11  1  0  1  3  5 12 10  5 13  0  0  5  7  1  2  2
  3 10 14  4 18 12  3 10  0  3  1  9  5 21 21  4 22 20  4 21 23  0 22 19
  4 15  1 18 21 10 15]"
19700,342,1.0,7,3,3137.5590541362762,145.84471225738525,0,2521600,15127838,113101948,"[ 1  1  0  0  0  3  0  1  2  0  1  2  0  3  1  0  7  6  4  7  5  2  1  2
  0  2  0  5  2  8  4  2  2  5  3  3  2  8 12  4  8 12  0  5  7  4  0  2
  4  1 12  4 18 12  0  3 11  0  1  3  1 18 17  2  3 16  3 20 17  0 17  1
  4  3  0 18 21 10 23]"
19800,342,1.0,7,3,3152.2782595157623,147.19205379486084,0,2534400,15198210,113593369,"[ 1  0  0  0  0  3  4  0  0  0  1  2  4  3  0  3  6  6  4  7  5  4  3  6
  0  2  0  2  3  1  1  2  3  5  7  6  2 13  5  4  2  7  0  5  7  1 13 17
  0  3 10  4 18 12  3 15  3  0  1  3  3  0  2  0 20 16  1  1 22  2 23 18
  5 20 18 18 21 10 23]"
19900,342,1.0,7,3,3166.7876994609833,145.09439945220947,0,2547200,15268618,114085079,"[ 5  1  2  0  0  3  0  3  0  0  1  2  5  1  2  4  4  6  4  7  5  2  6  7
  0  2  0  2  6  7  1  6  5  1  5  1  3  5  1  5 13 11  0  5  7  5  1  9
  4  2 18  4 18 12  5 15 12  0  1  3  0 20 15  0  1  3  1 20 22  4 15  1
  5  2 20 18 21 10 23]"
20000,342,1.0,7,3,3181.333244085312,145.45544624328613,0,2560000,15339656,114580566,"[ 4  3  2  0  0  3  1  2  3  0  1  2  2  3  2  4  7  0  4  7  5  0  6  7
  0  2  0  0  7  6  0 11  7  4  2  7  1  4  6  3  0 13  0  5  7  1  0  9
  2 12  3  4 18 12  5 15  2  0  1  3  5 17 17  5 20 15  4 19 14  0 15  2
  3 22 20 18 21 10 23]"
20100,342,1.0,7,3,3195.994777441025,146.6153335571289,0,2572800,15411304,115080384,"[ 0  0  2  0  0  3  2  3  2  0  1  2  5  0  0  1  1  4  4  7  5  4  7  1
  0  2  0  1  7  2  0  4  9  1  2 13  1 12  8  0  2  5  0  5  7  2 17  1
  3 12 13  4 18 12  2  9 13  0  1  3  2 23 20  2  2 17  4 16  1  5  2 20
  4  2  1 18 21 10 23]"
20200,342,1.0,7,3,3210.527413368225,145.32635927200317,0,2585600,15483633,115584916,"[ 0  2  1  0  0  3  4  3  3  0  1  2  3  2  1  3  6  0  4  7  5  0  0  8
  0  2  0  0  6  2  2  5  0  4  9  3  1 11  4  4 11  1  0  5  7  1  3 12
  2 14 10  4 18 12  5 13 10  0  1  3  4 15 16  3 21 21  0  2  0  2  1 22
  1  1 18 18 21 10 23]"
20255,343,1.0,7,2,3218.5509688854218,145.88282758539373,0,2592640,15522763,115858986,"[ 0  2  0  0  0  3  4  0  3  0  1  2  3  3  1  2  7  0  4  7  5  4  1  6
  0  2  0  2  6  2  2  2  0  1 13  8  4 11  6  0 11  1  0  5  7  4  3 12
  0 12 17  1 18 12  4 13  2  0  1  3  2 15 16  2  3 16  3 23 14  5 17 22
  4 16 23 18 26 10 23]"
