generation,fitness,functionality,active_nodes,longest_path,time,gen_time,nc_gens,fitness_evals,graph_evals,node_evals,genotype
0,86.0,0.21875,10,4,0.014973878860473633,14.969348907470703,0,0,0,0,"[ 3  3  3  3  1  0  5  2  3  4  0  3  4  3  0  2  6  5  0  2  2  3  7  0
  4  1  8  0  8  8  0  2 10  0  5  8  3  7 13  3  7  7  0  3 11  2  0 14
  1 16  2  1 18  2  5  0  1  1 10  7  1 10 21  3 17 10  2 10 17  0  1 15
  1 19 12 28 28 28 20]"
100,334.0,0.984375,8,3,0.9046967029571533,8.897185325622559,41,400,4382,39811,"[ 5  2  1  0  2  0  0  3  2  4  0  2  5  3  1  2  0  3  0  1  2  1  8  8
  0  3  1  4  3  0  4 12  4  0 10  0  2  7  7  2  8  6  4  4  6  2  0  5
  5  6 15  1 12 10  1  0 16  1  4  2  3 10 21  5  9 10  2 15  6  1 10  5
  3 19 12 15 28 25 12]"
200,334.0,0.984375,8,3,1.5218117237091064,6.171109676361084,94,800,7372,64180,"[ 5  2  1  5  0  2  0  1  2  4  1  3  1  2  1  2  0  3  0  1  2  5  3  8
  0  3  1  2  5  3  4  6  1  0 10  3  0  5  5  4  7  8  1  9  6  2  5  2
  4  6  9  3  8 10  3 11  6  0  7 11  3 22 21  5  9 10  2 11  6  3 18  7
  3 19 12 15 28 25 12]"
300,335.0,0.984375,8,2,2.088782548904419,5.669667720794678,151,1200,10256,87977,"[ 5  2  3  2  0  3  5  2  2  4  0  0  1  0  3  2  0  3  0  1  2  5  0  8
  0  3  1  3  3  4  3  5  5  1 10  0  0 12  1  5  1 10  4  2  6  2  2  0
  5  6  1  4  2  4  3 10  6  4 16  9  3  9  1  5  9 10  1 18 11  0  2  4
  3 19 12 22 28 25 12]"
400,335.0,0.984375,8,2,2.737679958343506,6.488938331604004,211,1600,13107,111530,"[ 0  0  3  2  0  3  5  2  2  5  1  0  1  1  0  2  0  3  0  1  2  0  0  5
  0  3  1  3  3  6  0 12 13  0 11  2  3 13  5  1  9 10  5  2 13  2  2  0
  2  5  5  1  7  4  2  6  6  2 16  5  3 19 21  5  9 10  1  5 11  0 10 16
  3 19 12 22 28 25 12]"
500,336.0,0.984375,7,2,3.2807958126068115,5.431122779846191,261,2000,15867,133121,"[ 1  0  0  2  0  3  4  2  1  0  1  0  1  1  1  3  1  3  0  1  2  2  2  3
  0  3  1  2  3  6  5  1 13  2  5  6  3  6 10  0  0  7  4  0 13  2  2  0
  1 12  5  1 11 14  4 10 10  3 16  2  0  3  8  5  5 10  0  5 11  1 19 16
  3 19 12 22 28 25 12]"
600,336.0,0.984375,7,2,3.808744192123413,5.27944803237915,321,2400,18623,153175,"[ 5  0  0  2  0  3  4  2  0  5  2  2  3  3  0  3  5  0  0  1  2  5  6  0
  0  3  1  2  4  4  0 13  3  3  3  4  3 12  2  0  0  7  4  0  4  2  2  0
  1 14 12  2  8  7  4  2  3  1  7 17  4 12  5  5  5 10  3 20 11  3 18  9
  3 19 12  9 28 25 12]"
700,336.0,0.984375,7,2,4.338301181793213,5.295507907867432,383,2800,21325,172833,"[ 3  0  0  2  0  3  4  2  3  3  2  2  3  1  0  3  5  0  0  1  2  3  5  2
  0  3  1  3  7  4  2  3  5  1 11  8  3 12  2  2  4  7  2  0  8  2  2  0
  0 11  6  2 16  6  4 10  3  1  3 18  4  5  5  5  5 10  0  4  9  1 21 10
  3 19 12  9 28 25 12]"
800,336.0,0.984375,7,2,4.920736789703369,5.824263095855713,440,3200,24128,193100,"[ 5  2  0  2  0  3  4  2  3  4  2  2  3  1  3  3  5  0  0  1  2  3  6  2
  0  3  1  2  6  5  1 13  2  1 13  3  4  5  5  2  1  5  5 13  8  2  2  0
  4  8  6  2  1  4  0  1  3  5  3 12  2 19 20  5  5 10  1 17  9  0  6 19
  3 19 12  9 28 25 12]"
900,336.0,0.984375,7,2,5.499389171600342,5.786464214324951,502,3600,26640,211060,"[ 2  2  3  2  0  3  1  1  3  4  2  2  3  2  2  3  0  0  0  1  2  4  8  6
  0  3  1  2  3  4  0 11  0  1 13  2  1  9 13  2 12 12  1  1  1  2  2  0
  4  9  6  2  1  0  2 11  3  3  3 18  2  6  9  5  5 10  2 17  5  0 12 14
  3 19 12  7 28 25 12]"
1000,336.0,0.984375,7,2,6.068558931350708,5.691661834716797,567,4000,29155,229424,"[ 1  1  0  2  0  3  5  0  1  4  2  2  1  2  1  3  0  3  0  1  2  4  3  6
  0  3  1  1  6  8  2 11  0  1  5  2  1  7 12  5 12 13  4  1  6  2  2  0
  3  9 10  3 11 10  4 11  1  5  3  7  4  2 19  5  5 10  1  2 10  1  5 11
  3 19 12  7 28 25 12]"
1100,336.0,0.984375,7,2,6.581296920776367,5.1273369789123535,625,4400,31674,247364,"[ 3  1  0  2  0  3  0  0  3  4  2  2  4  3  2  3  0  3  0  1  2  2  1  5
  0  3  1  1  6  0  2  2 12  3 10  2  1  4 13  5  2  9  4  1  8  2  2  0
  3 12  2  3  7 10  5 12 10  5  4 13  2 20 14  5  5 10  5 22  5  1  5 11
  3 19 12  7 28 25 12]"
1200,336.0,0.984375,7,2,7.100802659988403,5.195004940032959,690,4800,34272,266020,"[ 3  1  1  2  0  3  4  0  0  4  2  2  1  1  3  2  7  6  0  1  2  3  5  7
  0  3  1  3  7  0  2  6 12  2 13  2  1  6 13  2  2  0  2  3 10  2 13  0
  0  1  2  4  0  3  0  8  9  1  3 15  5 16 12  5  5 10  5 10 16  1 21 12
  3 17 12  6 28 25 12]"
1300,336.0,0.984375,7,2,7.6456825733184814,5.448751449584961,751,5200,37003,285589,"[ 0  1  1  2  0  3  4  0  0  4  1  2  1  3  3  2  7  1  0  1  2  2  2  7
  0  3  1  0  0  1  2  2 12  1 13  0  0  6  2  2  2  0  5 12  3  3  1  4
  0  1  2  4  0  3  0  3  9  1 17  9  0 16  0  5  5 10  4 10 14  2 13 16
  3 17 12  6 28 25 12]"
1400,336.0,0.984375,7,2,8.19727873802185,5.515902042388916,811,5600,39733,304960,"[ 4  1  0  2  0  3  4  0  0  4  1  2  4  1  3  1  6  1  0  1  2  2  7  3
  0  3  1  1  0  7  5 12  0  5  4  7  2  6  8  2  2  0  5 12 13  4 10  1
  0 13 17  4 16  2  5  3  4  4 13  2  2 13  4  5  5 10  4 10 12  3 12 22
  3 17 12  6 28 25 12]"
1500,336.0,0.984375,7,2,8.770704984664917,5.734195709228516,868,6000,42374,323725,"[ 3  1  1  0  1  3  4  0  0  0  1  3  2  0  3  3  2  8  0  1  2  2  3  7
  0  3  1  0  5  8  1  2  9  0  6  7  1  5  9  2  2  0  1  3 11  4  4 18
  2 10 17  0 13  4  5 13  4  4 12  4  3 13  7  5  8 10  4 23  2  4  2  1
  3 17 12  6 28 25 12]"
1600,336.0,0.984375,7,2,9.46994423866272,6.992318630218506,928,6400,45116,343340,"[ 1  2  1  1  3  0  4  0  0  0  0  3  2  0  3  1  0  1  0  1  2  0  3  3
  0  3  1  5  0  5  3  9  9  4  6  5  5 13 11  2  2  0  1 11  2  2 16 18
  1 10 13  2  6 11  5  7  4  3 15  4  1 12  7  5  8 10  0 14 11  4  3 16
  3 17 12  6 28 25 12]"
1700,336.0,0.984375,7,2,10.142715454101562,6.7276740074157715,993,6800,47977,363751,"[ 1  2  0  3  3  0  4  0  0  0  1  0  2  0  3  1  0  4  0  1  2  0  3  1
  0  3  1  5  0  5  2  9  9  5 11 11  5  1  1  2  2  0  1  3 12  2 17  6
  1  2  7  2  8 14  5  7  4  3  0  7  1 17  7  5  8 10  0 15 11  1  1 20
  3 17 12  6 28 25 12]"
1800,336.0,0.984375,7,2,10.624359369277954,4.816398620605469,1053,7200,50686,383102,"[ 0  0  0  0  3  0  4  0  0  2  3  3  2  0  3  2  6  0  0  1  2  3  2  8
  0  3  1  3  0  5  2  3  1  5  3  9  5 10  1  2  2  0  3  5 12  2 10  9
  4  2  7  1  4 14  5  9  4  2  0 17  3  2 19  5  8 10  2  7 11  2  2 21
  3 17 12  6 28 25 12]"
1900,336.0,0.984375,7,2,11.111759185791016,4.873964786529541,1109,7600,53456,402815,"[ 2  2  3  0  1  1  4  0  0  5  0  3  2  0  3  3  8  0  0  1  2  3  3  0
  0  3  1  2  1  3  2  3  5  3 12  9  3 10  8  2  2  0  3  2 10  3 16 18
  0  0 10  1  4  6  5 12  4  2 16 17  3  2  3  5  8 10  2 15 15  3  9 13
  3 17 12  6 28 25 12]"
2000,336.0,0.984375,7,2,11.600237846374512,4.884731769561768,1172,8000,56247,422840,"[ 2  0  1  1  1  0  4  0  0  5  3  3  2  0  3  3  1  8  0  1  2  3  3  2
  0  3  1  4  1  0  2  0 13  3  0  2  3 12  5  2  2  0  3 13  1  2 16  9
  4  5 10  4  4  5  0  0 18  3 16  7  3  4  7  5  8 10  1 10 19  5 10  0
  3 17 12  6 28 25 12]"
2100,336.0,0.984375,7,2,12.147315979003906,5.470740795135498,1229,8400,59009,442829,"[ 2  1  1  4  2  2  4  0  0  5  1  3  2  0  3  3  0  7  0  1  2  0  3  2
  0  3  1  4  1  0  2  5 13  3  0  2  3  6  5  2  2  0  2  7  0  2 16 18
  0  4  7  4  4  9  2 14  1  3 18  7  2  4  1  5  8 10  3 11  7  0 10 10
  3 17 12  6 28 25 12]"
2200,336.0,0.984375,7,2,12.703246355056763,5.559267997741699,1288,8800,61761,462453,"[ 2  0  1  4  2  3  4  0  0  5  1  0  2  0  3  0  2  7  0  1  2  0  5  0
  0  3  1  4  8  4  0  8 10  2  0  8  3  5  8  2  2  0  5  8  0  5 14 18
  0 16  6  2 12  4  5  2  1  4 11  2  3  4  1  5  8 10  3 13 12  0  4 21
  3 17 12  6 28 25 12]"
2300,336.0,0.984375,7,2,13.300015687942505,5.967657566070557,1342,9200,64445,481303,"[ 1  0  1  0  3  2  4  0  0  5  0  1  2  0  3  1  4  6  0  1  2  2  7  3
  0  3  1  1  7  7  0  4  4  4 11  3  3  8  3  2  2  0  4  0 10  1  7  8
  0 13  5  5  1  1  0  4 14  4  1  2  2  3  8  5  8 10  5 22 17  5 10  8
  3 17 12  6 28 25 12]"
2400,336.0,0.984375,7,2,13.833142518997192,5.331218242645264,1408,9600,67156,500594,"[ 2  1  2  0  0  0  4  0  2  5  3  1  2  0  3  3  8  2  0  1  2  2  7  0
  0  3  1  5  5  5  0 11 13  5 11  3  3  3  0  2  2  0  0 13 13  3  2  3
  3  7  3  4  1  1  4 14 11  1  2 12  2  3  8  5  8 10  2 22 22  5 23 22
  3 17 12 21 28 25 12]"
2500,336.0,0.984375,7,2,14.297529220581055,4.643826484680176,1470,10000,69691,518727,"[ 5  1  0  1  1  0  0  3  1  2  3  1  2  0  3  1  3  2  0  1  2  4  5  0
  0  3  1  3  0  2  0  6  5  3 12 11  4  4  0  2  2  0  0  9  3  3 10 13
  5 12 17  4  1  1  3 10 18  5  2 14  2  3  5  5  8 10  3  7 21  2 21 10
  3 17 12 21 28 25 12]"
2600,336.0,0.984375,7,2,14.755399942398071,4.578664302825928,1535,10400,72273,537134,"[ 5  3  0  5  1  2  0  1  1  2  3  3  2  0  3  2  2  2  0  1  2  0  4  1
  0  3  1  3  3  2  0 10  9  3  9 11  4  4 11  2  2  0  5 13  4  2  6 10
  4 18  6  4  1  1  3 10 12  3  3  9  2  3  5  5  8 10  3  0 11  2 20 13
  3 17 12 21 28 25 12]"
2700,336.0,0.984375,7,2,15.271191358566284,5.157842636108398,1588,10800,75036,557107,"[ 5  2  1  0  1  2  0  1  0  4  3  3  2  0  3  0  2  6  0  1  2  0  7  1
  0  3  1  4  3  2  1 13 10  0  1  8  0 13  9  2  2  0  4  9  5  3 13  5
  4 14  6  4  1  1  3  4 13  3  7 11  2  2  2  5  8 10  1  2  2  2 21  4
  3 17 12 21 28 25 12]"
2800,336.0,0.984375,7,2,15.811175107955933,5.399796962738037,1651,11200,77669,576562,"[ 5  3  2  5  3  0  1  3  0  0  1  3  2  0  3  0  6  1  0  1  2  5  7  2
  0  3  1  4  3  5  3  1  6  4  3  8  0 11  9  2  2  0  1  9 13  4 13  2
  5 14 18  4  1  1  2  9  8  2  2 11  4  6 11  5  8 10  4 13 17  0  5  5
  3 17 12 21 28 25 12]"
2900,336.0,0.984375,7,2,16.289454221725464,4.782748222351074,1716,11600,80228,595020,"[ 5  3  0  0  3  0  2  1  3  4  2  0  2  0  3  3  4  0  0  1  2  4  7  3
  0  3  1  5  2  8  1 12 12  5  9  5  0 13  5  2  2  0  4 10 11  4 13  3
  2  4 18  4  1  1  1  8  3  2  2  4  4 12  0  5  8 10  2  7 22  3  7  4
  3 17 12 21 28 25 12]"
3000,336.0,0.984375,7,2,16.789366960525513,4.999074935913086,1782,12000,82664,612656,"[ 2  3  0  2  1  0  1  1  1  5  3  3  2  0  3  3  4  0  0  1  2  0  3  1
  0  3  1  2  3  0  3  0 12  5  6  0  1  1 12  2  2  0  3  9  5  5 13 15
  1 14 18  4  1  1  5  4  2  2  0  3  3 12  0  5  8 10  3  7  3  3  7 23
  3 17 12 21 28 25 12]"
3100,336.0,0.984375,7,2,17.275126457214355,4.8575592041015625,1837,12400,85467,632902,"[ 2  0  2  1  1  1  2  2  1  1  3  3  2  0  3  3  7  5  0  1  2  3  3  1
  0  3  1  0  0  7  4  9 11  5  8  3  1  0  5  2  2  0  1  9  8  5  4 11
  4 14 18  4  1  1  2  8 16  0 11 17  1  6 18  5  8 10  1  7  3  5 15 23
  3 17 12 21 28 25 12]"
3200,336.0,0.984375,7,2,17.72829794883728,4.531681537628174,1893,12800,88269,653162,"[ 2  0  2  0  2  0  4  2  0  3  0  3  2  0  3  3  7  0  0  1  2  0  3  5
  0  3  1  0  0  1  1  9 11  3  8  6  5 11  0  2  2  0  2  0 12  5 14 11
  1  7  4  4  1  1  4  5 15  4 11  1  5 14  2  5  8 10  1 13  4  3 12 16
  3 17 12 21 28 25 12]"
3300,336.0,0.984375,7,2,18.190638780593872,4.62336540222168,1956,13200,90882,672046,"[ 4  2  1  0  2  0  5  1  0  2  0  2  2  0  3  3  7  0  0  1  2  4  7  6
  0  3  1  4  3  1  1  9  4  2  0  3  0  2  6  1  6  0  3 12 11  5  8  6
  0 17  9  3  1  1  5 11  9  4 10 14  1 11  2  5  8 10  1  6  3  3 12 15
  3  7 12  9 28 25 12]"
3400,336.0,0.984375,7,2,18.678388357162476,4.87746000289917,2016,13600,93674,691987,"[ 5  1  0  2  0  1  5  1  3  2  0  2  2  0  3  3  7  2  0  1  2  4  8  3
  0  3  1  1  7  5  5  9  0  2  7  3  0  3 11  1 10  6  2  8  3  3 10 16
  0 17  5  1 15  6  3 15 11  2 10 13  3  3  2  5  8 10  4 12  3  0 17 15
  3  7 12  9 28 25 12]"
3500,336.0,0.984375,7,2,19.182586908340454,5.041947364807129,2071,14000,96324,711044,"[ 5  0  1  3  2  1  5  1  0  2  0  2  2  0  3  3  7  0  0  1  2  4  1  6
  0  3  1  5  2  8  4  9 12  5 13  4  5  5  2  0 11 12  2  6  5  0 14 16
  2  9  4  5 15  3  1 12 11  5 12  5  1 17  2  5  8 10  5  2  7  4 17 14
  3  7 12  9 28 25 12]"
3600,336.0,0.984375,7,2,19.63654613494873,4.539554119110107,2124,14400,99072,730646,"[ 5  0  1  2  2  2  3  1  3  2  0  2  2  0  3  3  0  7  0  1  2  5  5  8
  0  3  1  4  1  6  4  5  4  3 13  6  5  7  1  2 11  4  2  6  5  2 14 15
  2 18  4  2 15  5  5 16  3  4 17  5  3 22  2  5  8 10  3 12  7  2 10 23
  3  7 12  9 28 25 12]"
3700,336.0,0.984375,7,2,20.09691834449768,4.603672027587891,2190,14800,101567,748704,"[ 1  1  2  1  0  2  3  2  0  2  0  2  2  0  3  3  0  7  0  1  2  5  8  2
  0  3  1  4  4  0  4  4  3  0 10 10  1 11 12  1 13  1  0  1 13  0 14  8
  5 17  9  5 14  5  0  9 18  4 18  6  0  6 10  5  8 10  3  0 12  4  6 16
  3  7 12  9 28 25 12]"
3800,336.0,0.984375,7,2,20.624753713607788,5.278315544128418,2230,15200,104721,771373,"[ 4  3  0  4  1  3  0  2  1  2  0  2  2  0  3  3  8  0  4  1  2  5  2  5
  0  3  1  0  0  6  4  9  3  0  5  2  3 11 12  0  7  1  5 12 13  3 13 10
  1 17 16  1  8 15  2  3  7  5 16 15  0  6 13  5  8  6  5 11  6  2  6 22
  3  7 12  9 28 25 12]"
3900,336.0,0.984375,7,2,21.17506766319275,5.503079891204834,2280,15600,107622,792094,"[ 4  1  1  5  3  0  0  2  1  2  0  2  2  0  3  3  7  0  4  5  3  3  2  8
  0  3  1  0  5  4  3  5  3  2  5  2  5  4  4  2  7  2  3 12  5  3 13 10
  1  3  5  3 13 15  0  6  0  4 15 15  5 21 14  5  8  6  2 12 11  2  6 12
  3  7 12  9 28 25 12]"
4000,336.0,0.984375,7,2,21.65620493888855,4.811294078826904,2342,16000,110358,811547,"[ 1  1  1  5  0  0  0  2  1  2  0  2  2  0  3  3  7  0  4  5  3  3  6  4
  0  3  1  5  8  4  2 10  3  5  1 10  5 12  4  5  7  2  3 12  5  1 13  5
  1 10  5  3  6 15  0 17  8  4 15  1  5 13 14  5  8  6  2 12  3  3  6 20
  3  7 12  9 28 25 12]"
4100,336.0,0.984375,7,2,22.14631724357605,4.901084899902344,2395,16400,113288,832373,"[ 0  0  2  3  1  3  0  2  1  2  0  2  2  0  3  3  7  2  2  8  3  4  5  7
  0  3  1  5  2  0  2 11 11  5 12  3  0  0  1  4  9 11  1 10  3  3 14 15
  4 15  6  3  6 15  0  4  5  4  6  7  1 13 23  5  8  6  2  0  3  2  6 11
  3  7 12  9 28 25 12]"
4200,336.0,0.984375,7,2,22.621082305908203,4.747593402862549,2457,16800,116105,852512,"[ 4  0  0  1  1  3  0  2  1  2  0  2  2  0  3  3  7  8  0  8  1  4  5  0
  0  3  1  5  2  3  3 11  1  5  7 13  0  7 11  3  4  4  5 12  3  3  8 15
  4  2 11  3  7 17  0 12 17  5  0  9  3 20  1  5  8  6  2 13  3  0  7 10
  3  7 12  9 28 25 12]"
4300,336.0,0.984375,7,2,23.07717537879944,4.560866355895996,2523,17200,118803,871680,"[ 5  0  2  1  1  3  0  2  1  2  0  2  2  0  3  3  8  3  4  4  5  4  0  0
  0  3  1  0  6  3  2 11  1  2  7 13  1  4  2  3  0  9  5 12  3  0  2  7
  4  4 11  3  0  0  4 11  1  0 12  9  4  3 12  5  8  6  4  9  3  5 16 23
  3  7 12  9 28 25 12]"
4400,336.0,0.984375,7,2,23.590538024902344,5.1335859298706055,2582,17600,121777,892768,"[ 0  0  2  5  1  3  0  2  1  2  0  2  2  0  3  3  0  8  1  1  2  4  0  1
  0  3  1  4  1  4  1 11 13  3  7  1  1 11  3  2 13  2  5  9  0  3  7 12
  4  6 17  3  6 11  4 11  1  3 17  4  4 15 12  5  8  6  4  6 18  2  5 23
  3  7 12  9 28 25 12]"
4500,336.0,0.984375,7,2,24.209387063980103,6.188440322875977,2631,18000,124700,913899,"[ 2  1  2  1  2  3  0  2  1  2  0  2  2  0  3  3  8  7  4  5  3  1  2  7
  0  3  1  0  4  4  3 11  7  3  4 11  2  7  3  0  0  1  4 13 12  1 11 12
  3  8  5  3 15 17  3 15  7  1 14  3  5 15  6  5  8  6  2 15 22  2  2 19
  3  7 12  9 28 25 12]"
4600,336.0,0.984375,7,2,24.709251165390015,4.998605251312256,2686,18400,127555,934640,"[ 1  0  0  5  3  2  0  2  1  2  0  2  2  0  3  3  0  7  1  5  5  2  1  7
  0  3  1  3  4  7  2  0  1  0  2  5  1 11 13  5  1  4  4  3 12  4 18  4
  1 11 16  4  2 17  0 15 16  1 12 14  2 21  8  5  8  6  3 13 20  0  2 12
  3  7 12  9 28 25 12]"
4700,336.0,0.984375,7,2,25.20937204360962,5.0011491775512695,2742,18800,130350,954768,"[ 0  3  2  5  1  2  0  2  1  2  0  2  2  0  3  3  8  3  3  5  5  4  7  7
  0  3  1  3  0  6  2 11 10  0  6  5  2  7  9  1  5  4  2  3  0  0  8 10
  3 14 16  1 12 17  4 15 18  3 10  7  2 21 12  5  8  6  1 20 20  5  2  8
  3  7 12  9 28 25 12]"
4800,336.0,0.984375,7,2,25.72945547103882,5.200784206390381,2801,19200,133233,975229,"[ 5  3  3  5  0  0  0  2  1  2  0  2  2  0  3  3  8  0  1  8  6  0  4  6
  0  3  1  0  7  6  2  6  7  0 10 11  3  1  8  0  5  7  1  8  2  5  8  8
  3  7 12  1 12  4  4 17 12  3  3 10  0  5 15  5  8  6  1  7  5  4 19 21
  4 16  8  9 20 25 12]"
4900,336.0,0.984375,7,2,26.238250970840454,5.08791446685791,2852,19600,136172,996162,"[ 3  3  0  4  3  1  0  2  1  2  0  2  2  0  3  3  8  7  1  6  6  4  1  2
  0  3  1  1  4  5  4  5  9  5  2  7  3  0  7  2  9  7  4  8  7  5  8 16
  3  7 12  2  8  9  4  7 14  3  5  0  1 20 14  5  8  6  3  7  4  4  9 21
  4  3 15  9 20 25 12]"
5000,336.0,0.984375,7,2,26.753602027893066,5.153477191925049,2900,20000,138982,1016125,"[ 3  0  0  2  3  2  0  2  1  2  0  2  2  0  3  0  1  7  1  3  0  3  8  3
  0  3  1  2  6  6  4  6  1  4  2 10  3  4  0  0  0  1  0 13  8  2  8 17
  3  7 12  0 10  7  4 13 10  1  4  4  0 18  5  5  8  6  3  9 18  2  5 17
  1  3 10 11 20 25 12]"
5100,336.0,0.984375,7,2,27.251184463500977,4.975781440734863,2948,20400,142027,1037673,"[ 1  0  1  3  0  2  0  2  1  2  0  2  2  0  3  2  1  0  5  4  1  3  8  7
  0  3  1  2  8  6  4  7  6  3 12 13  4 13  0  4  0  7  0  2  0  0  7  9
  3  7 12  3 10 13  4  1 18  5  3 11  3 19  5  5  8  6  3  9 14  1  5  0
  2  3  2 11 20 25 12]"
5200,336.0,0.984375,7,2,27.730659008026123,4.794704914093018,3006,20800,144889,1057892,"[ 0  0  3  5  1  1  0  2  1  2  0  2  2  0  3  4  1  6  5  4  1  3  0  7
  0  3  1  2  8  7  3 12  6  4 10 13  2  9  1  4  0  7  0  0  0  1  7  9
  3  7 12  2  2  1  0 16 13  2 13 11  3  3  5  5  8  6  1 16  5  1  8  5
  1 20  2 11 20 25 12]"
5300,336.0,0.984375,7,2,28.232467889785767,5.018050670623779,3061,21200,147746,1078300,"[ 3  1  2  2  0  0  0  2  1  2  0  2  2  0  3  1  1  3  5  7  1  3  2  7
  0  3  1  1  3  7  0 13  9  4 11 12  2  1 13  4  4  7  5  0  4  5 11  6
  3  7 12  2  2  1  0 10 13  2 13 15  3  5  5  5  8  6  2  8 15  1  8  5
  5 20  2 11 20 25 12]"
5323,341,1.0,8,3,28.37676191329956,6.273425143697987,3074,21292,148377,1082788,"[ 3  1  0  0  0  0  0  2  1  2  0  2  2  0  3  3  3  3  3  8  1  3  8  7
  0  3  1  3  0  7  5  2  9  0 11 12  1  1 13  4  4  7  5 12  7  5 11  6
  3  7 12  2 12  6  5  1 17  2  1  8  3 23  5  5  8  6  2  8 15  1  8  5
  5 20  2 15 20 25 12]"
5400,341,1.0,8,3,28.793065309524536,5.406450915646243,3118,21600,150418,1098973,"[ 2  1  1  2  1  2  0  2  1  2  0  2  2  0  3  1  8  1  3  8  1  3  8  7
  0  3  1  0  0  5  2  2  9  0 11  6  1  1 10  1  4  5  1 12  4  2 11 11
  3  7 12  3 12  3  1 14 17  4 10 16  3 23 13  5  8  6  2 23 17  2  8  6
  1 20  2 15 20 25 12]"
5500,341,1.0,8,3,29.370208501815796,5.771393775939941,3165,22000,152865,1118466,"[ 0  0  0  2  0  2  0  2  1  2  0  2  2  0  3  2  8  1  4  8  5  3  7  2
  0  3  1  0  5  5  4  0 10  0  9  6  3  9 10  1  6  5  1  9  2  1 13  6
  3  7 12  4  4  5  4  5 17  4 14  6  0  1 13  5  8  6  4 23  5  5 23  7
  4 13  9 15 20 25 12]"
5600,342,1.0,7,3,29.82918882369995,4.589748382568359,3225,22400,154932,1133914,"[ 3  0  2  2  1  2  0  2  1  2  0  2  2  0  3  2  2  8  2  8  1  1  7  0
  0  3  1  1  7  5  2  8  2  5  7 11  3  9 10  3  8  5  0  9  4  0 18  3
  3  7 12  4 14 15  4 14 18  0 11  6  1 23 13  5  8  6  4 20  0  5 20  7
  4  6  8 27 20 25 12]"
5700,342,1.0,8,2,30.27914047241211,4.499471187591553,3277,22800,157248,1151491,"[ 3  1  2  2  1  2  0  2  1  2  0  2  2  0  3  1  5  4  2  8  5  1  3  3
  0  3  1  3  1  1  5  4 12  0  8 11  3  7  4  3  8  5  3  9  6  2  6  3
  3  7 12  2  6 15  4 14  8  0 18 12  3  4 13  5  8  6  2 20 19  5 21  7
  0  6 19 17 20 25 12]"
5800,342,1.0,8,2,30.809258937835693,5.3011393547058105,3333,23200,159797,1171660,"[ 3  0  3  2  1  2  0  2  1  2  0  2  2  0  3  3  0  3  0  5  0  1  3  3
  0  3  1  5  6  6  2  7  9  0  1 13  5  0 12  3  8  5  3 11  6  2  4  7
  3  7 12  1  9  2  0 15  6  2  8  6  4 13 13  5  8  6  3  4 19  0  1  1
  0  1 23 17 20 25 12]"
5900,342,1.0,8,2,31.350481271743774,5.412185192108154,3383,23600,162421,1192460,"[ 1  3  1  2  1  2  0  2  1  2  0  2  2  0  3  0  4  6  3  5  0  1  3  0
  0  3  1  1  6  4  0  1 12  3 11 12  5  3 13  3  8  5  4  8  6  2  9 13
  3  7 12  0  2  6  5 10 16  0 10  3  0 18 17  5  8  6  3 18  0  0 21 14
  1 14  2 17 20 25 12]"
6000,342,1.0,8,2,32.00311517715454,6.526293754577637,3445,24000,164871,1211821,"[ 4  0  0  2  1  2  0  2  1  2  0  2  2  0  3  4  1  5  3  3  8  5  4  0
  0  3  1  1  8  0  1  3  4  3  1 13  5 10 10  3  8  5  2  6  8  5  3  7
  3  7 12  0  2  6  4 18  4  3  5  3  0 23  1  5  8  6  4 16  0  2  4 14
  1 14  1 17 20 25 12]"
6100,342,1.0,8,2,32.54020667076111,5.370879173278809,3495,24400,167596,1233192,"[ 4  2  3  2  1  2  0  2  1  2  0  2  2  0  3  4  0  5  4  3  8  3  3  3
  0  3  1  1  8  0  4  0  2  5 11 13  3  5 12  3  8  5  2  1  8  3  2  3
  3  7 12  1  3 12  0 18 17  5  5  9  0 10 13  5  8  6  4 16 15  5  1  6
  0  4  2 17 20 25 12]"
6200,342,1.0,8,2,33.075782775878906,5.355722904205322,3553,24800,170198,1253819,"[ 5  1  3  2  1  2  0  2  1  2  0  2  2  0  3  5  1  5  0  0  7  3  3  0
  0  3  1  4  8  0  4 11  2  1  7 12  3  4 12  3  8  5  2  1  8  2 12  3
  3  7 12  4 12 11  1 18 17  5  8 11  5 17 13  5  8  6  5  2 15  1 12 21
  0 21 20 17 20 25 12]"
6300,342,1.0,8,2,33.570008754730225,4.942216873168945,3603,25200,172631,1273159,"[ 4  1  3  2  1  2  0  2  1  2  0  2  2  0  3  4  1  1  0  8  7  2  8  7
  0  3  1  1  5  0  4  2  3  3 10 10  0 10 12  3  8  5  0 13  4  5  6 11
  3  7 12  4 17 15  4 14 18  1  4 18  4  2 15  5  8  6  0  3 13  3  8  7
  4 23 13 17 20 25 12]"
6400,342,1.0,8,2,34.09908366203308,5.290679931640625,3654,25600,175161,1293102,"[ 3  0  3  2  1  2  0  2  1  2  0  2  2  0  3  4  1  1  1  3  7  3  7  3
  0  3  1  3  5  6  5  2  3  1  0  7  2  2  0  3  8  5  3 10  2  3  1 11
  3  7 12  0 17 10  2  2 14  0  4 15  3  5 12  5  8  6  2  3 12  1  5  7
  2  4 23 17 20 25 12]"
6500,342,1.0,8,2,34.68046998977661,5.8138275146484375,3708,26000,177749,1313594,"[ 2  0  1  2  1  2  0  2  1  2  0  2  2  0  3  0  1  8  1  6  3  1  7  3
  0  3  1  5  3  6  1  6  1  2  7  3  2  8  1  3  8  5  3 10  3  5 13 10
  3  7 12  0  0 10  2 15 11  5 16 17  1 11 17  5  8  6  1  9 20  4 13 10
  2  7 23 17 20 25 12]"
6600,342,1.0,8,2,35.224628925323486,5.441544055938721,3772,26400,180095,1332008,"[ 1  0  1  2  1  2  0  3  1  2  0  2  2  0  3  0  1  2  1  3  7  0  1  7
  0  3  1  4  3  7  1  1  1  4 13  0  4  5  2  3  8  5  3  8  3  5  8 10
  3  7 12  0  0 12  4 13  1  1 16  2  1 11  6  5  8  9  5  9 20  3  5 20
  3  7 14 17 20 25 12]"
6700,342,1.0,8,2,35.765928506851196,5.41295051574707,3826,26800,182589,1351637,"[ 1  3  2  2  1  2  5  3  3  2  0  2  2  0  3  0  1  2  1  5  0  4  1  3
  0  3  1  4  2  5  1  1 12  4  7  5  4 13  2  3  8  5  5  9  2  4  0  6
  3  7 12  1 15 16  4  3 17  5  1 11  4 20  9  5  8  9  5 10 10  4 12  6
  0 20 14 17 20 25 12]"
6800,342,1.0,8,2,36.26038932800293,4.944555759429932,3887,27200,184861,1369552,"[ 3  1  1  2  1  2  1  3  2  2  0  2  2  0  3  0  1  2  3  6  4  1  1  7
  0  3  1  1  2  8  2 13  8  0  1  8  4  0 13  3  8  5  5  8  2  4  0  6
  3  7 12  3 16  9  4  5 17  5 15  1  5 13 18  5  8  9  2 15 10  2 17  6
  1 10  7 17 20 25 12]"
6900,342,1.0,8,2,36.78073811531067,5.203444957733154,3937,27600,187396,1389661,"[ 3  0  1  2  1  2  3  3  2  2  0  2  2  0  3  0  1  2  2  7  5  0  5  4
  0  3  1  0  1  6  0  2  1  1  5 11  2  0 13  3  8  5  1 13 13  2 15 10
  3  7 12  0 11  9  4 13 13  5 13  1  2  1 23  5  8  9  5  5 13  5 14 14
  4 10  4 17 20 25 12]"
7000,342,1.0,8,2,37.37529802322388,5.945529937744141,3989,28000,189911,1409611,"[ 0  3  0  2  1  2  2  3  2  2  0  2  2  0  3  0  1  2  5  4  5  0  6  8
  0  3  1  0  1  3  5  2  8  0  8 10  0  3  4  3  8  5  1  6  8  2 15  7
  3  7 12  5  9  0  4 10  6  1  6 12  2  7 11  5  8  9  5 12 23  2  9 20
  2 10  4 17 20 25 12]"
7100,342,1.0,8,2,37.994818449020386,6.195130348205566,4047,28400,192463,1429900,"[ 0  2  0  2  1  2  2  1  2  2  0  2  2  0  3  0  1  2  5  8  4  1  7  5
  0  3  1  3  1  3  5  6  8  4 11 11  0  4  7  3  8  6  0  2  0  4 16  8
  3  7 12  3 17  3  3 17  1  2  0 12  0 22 20  5  8  9  0 20  1  2  9 20
  3 10 19 17 20 25 12]"
7146,343,1.0,7,2,38.2128472328186,4.739657692287279,4071,28584,193549,1438435,"[ 4  2  0  2  1  2  2  1  2  2  0  2  2  0  3  0  1  2  4  8  6  2  7  7
  0  3  1  3  1  6  5  3 13  2 12 11  0  4  0  3  8  6  1  8  6  4 16  8
  3  7 12  3 17  5  1 17 14  2  1  6  0 22 15  5  8  9  1 20  1  1  8 20
  0 10 19 17 20 10 12]"
