generation,fitness,functionality,active_nodes,longest_path,time,gen_time,nc_gens,fitness_evals,graph_evals,node_evals,genotype
0,161.0,0.4375,6,3,0.018739700317382812,18.73493194580078,0,0,0,0,"[ 1  2  0  1  0  1  5  1  1  1  1  0  0  0  2  5  8  7  0  5  6  0  8  6
  3  0  3  2  2  1  5  6 11  4  5  0  0  4  8  5  1  8  1  5  4  3  1 15
  1 13 10  5  3  6  3  1 15  3  9 17  5  8  7  5 11 16  5 12 16  4  3  6
  2 17  4 17 17 28 27]"
100,294.0,0.84375,4,2,0.8297839164733887,8.11039686203003,22,400,5704,30472,"[ 4  0  1  5  3  0  5  3  2  0  1  2  3  2  3  5  7  7  3  0  6  1  0  3
  5  1  5  0  2  8  5  3  3  0  5 10  0  3  7  0 10 12  0  5  4  4 18  0
  0 14  1  3  9 16  3 16 14  1  9 10  5  8  3  3  5  5  0 21 19  5 10 12
  2 11  7 16 24  7 16]"
200,306.0,0.875,3,1,1.4892795085906982,6.594879627227783,85,800,10846,48991,"[ 2  2  0  1  1  3  0  0  2  0  1  2  2  3  2  1  7  7  5  0  8  4  7  5
  0  2  8  0  2  0  1  5 13  1  3 11  0  3  1  3 13  1  2  5  3  1  5  4
  3 11  2  2  7  5  4 12  5  2  8 16  4 12  1  0 11  9  0 17  4  2 17 17
  5 22  4 13 13  7 16]"
300,315.0,0.90625,4,1,2.2660751342773438,7.767913341522217,153,1200,16100,71743,"[ 5  1  3  3  0  2  4  2  2  0  0  2  4  1  0  3  0  7  2  1  5  2  3  4
  2  2  6  0  2  0  1  4  8  0  3  7  0  3  1  0  2  1  3  3  3  3 16  8
  5 14 15  5  7 17  4 16  9  4  4  4  2  6  1  2  3 19  4 22  7  2 23 23
  1 17  7  6 13 17 16]"
400,315.0,0.90625,4,1,2.921999216079712,6.559183597564697,207,1600,21277,94150,"[ 0  1  2  4  0  0  4  2  2  3  2  1  1  1  2  2  1  0  3  8  3  0  1  4
  5  2  4  0  2  0  1 10 12  0 13 11  0  3  1  0  9  7  2 11  1  5 18 11
  2 11  1  4 15  7  4 18 13  1  6 18  5 13 14  5 20 18  4  4  2  4 13 13
  0 13 21  6 13  4 16]"
500,315.0,0.90625,4,1,3.6701266765594482,7.481210231781006,264,2000,26457,116624,"[ 0  1  2  4  0  0  4  2  3  4  1  2  1  3  2  2  4  0  3  7  2  4  1  1
  2  2  0  0  2  0  3  4  8  5  5 12  0  3  1  1  2  9  3  7  0  3 18  4
  0  6 17  0 10  5  4 12  0  1  3  4  3 12 16  5  2 19  1  4 11  4 10 17
  0 16 20  5 13  4 16]"
600,315.0,0.90625,4,1,4.3616650104522705,6.915326118469238,323,2400,31535,138688,"[ 0  1  2  4  0  0  3  2  3  0  3  3  3  2  2  1  4  2  2  4  1  2  5  2
  3  8  1  0  2  0  4  7  6  5  5  8  0  3  1  1 11  9  1  5  7  3 18  4
  2  7 13  5  4 16  4  1  6  2  4 15  0  4 16  5 13 12  1 21 11  5 12 18
  0 16 22  5 13  4 16]"
700,315.0,0.90625,4,1,5.121546268463135,7.5986528396606445,374,2800,36742,160931,"[ 0  1  2  4  0  0  3  2  0  2  1  1  3  2  3  0  5  6  5  8  5  2  2  0
  2  8  4  0  2  0  4  2 10  5  2  2  0  3  1  1  9  9  1  5  7  3 17 12
  5 18 12  4  6  1  3 16  6  0  0 18  1  4  2  2 23  1  4 18  3  1 18 20
  5 10  8  5 13  4 16]"
800,315.0,0.90625,4,1,5.8283631801605225,7.068111896514893,427,3200,42007,183322,"[ 0  1  2  4  0  0  1  0  1  1  3  0  4  1  1  3  2  6  0  8  2  2  2  0
  3  5  6  0  2  0  3  9  5  3  7 10  0  3  1  1  0  3  2  9 12  0 17  5
  0 13  6  2 16  1  1 12  0  3  2 10  1 20  4  3  7 23  1 20 15  3 19 19
  4  0  8  5 13  4 16]"
900,315.0,0.90625,4,1,6.600196599960327,7.718298435211182,488,3600,47120,205648,"[ 0  1  2  4  0  0  1  3  3  1  1  3  5  1  1  2  4  6  3  5  2  0  0  3
  3  5  8  0  2  0  4  1  7  2  6  7  0  3  1  2 11  3  4  4  9  0  5  0
  0  3 15  2 12 12  2  7  0  4 15 10  4 22 10  1 16  3  3 18 18  5 20  6
  4 14  6  5 13  4 16]"
1000,315.0,0.90625,4,1,7.313621282577515,7.134196758270264,543,4000,52211,227177,"[ 1  2  2  4  0  0  4  1  3  2  0  3  0  1  2  3  7  1  3  4  8  2  1  6
  2  8  0  0  2  0  4 10 12  0  3  0  0  3  1  3  0  1  0  0  6  2  8 15
  0 16 11  5  9  5  3  9  0  4 15 12  3 22 20  4  6  2  2 16 13  1 17 10
  4  1 16  5 13  8 16]"
1100,315.0,0.90625,4,1,8.065752744674683,7.521257400512695,600,4400,57358,249098,"[ 0  2  2  4  0  0  5  0  0  2  3  3  0  1  2  2  2  7  4  4  5  1  1  8
  5  3  8  0  2  0  5 10  1  2  8 10  0  3  1  0  7  7  0 12  0  0  7  7
  1 12  8  3  3  5  1 18  1  3  8 10  1  3 13  0  9  6  1  6 16  4  3 22
  2 17 16  5 13  8 16]"
1200,315.0,0.90625,4,1,8.730589628219604,6.648311614990234,653,4800,62498,271087,"[ 3  0  0  4  0  0  3  3  0  3  3  1  0  1  2  2  8  4  0  0  1  3  8  2
  5  5  1  0  2  0  0  5  1  2  7 10  0  3  1  5  4  5  2 11  2  1 17  0
  1  0 11  4 17  8  0 10 16  4  7  7  0 17 17  3  2 21  4 11 13  0 13 15
  1 18  5  5 13  8 16]"
1300,315.0,0.90625,4,1,9.38261365890503,6.520202159881592,716,5200,67594,293543,"[ 4  0  0  1  0  2  2  1  0  3  0  1  1  2  3  4  4  8  0  1  2  3  8  8
  1  5  6  0  2  0  2 12 11  4  5 10  0  3  1  5  8 11  5 11 12  4 18  5
  2 15  1  0  8  8  4  7 10  4  7  4  4 17 13  3 20  3  4  8 13  4  1  9
  3  8 22  4 13 10 16]"
1400,315.0,0.90625,4,1,10.052526235580444,6.699075698852539,773,5600,72663,315884,"[ 4  0  0  4  3  0  1  0  1  5  2  2  4  3  1  0  6  1  0  1  2  1  8  2
  3  3  7  0  2  0  0  5  3  1  1 13  0  3  1  3  2  4  1  9  1  2  3  3
  5 14  1  0 14 16  5  5  0  4  0 16  5  9  2  1 18 17  2 16  2  5 18  9
  2  1 23  4 13 10 16]"
1500,315.0,0.90625,4,1,10.735331535339355,6.828007698059082,840,6000,77836,338821,"[ 4  0  0  4  3  3  5  3  0  0  2  0  5  3  0  2  0  6  0  1  2  0  5  2
  2  7  0  0  2  0  1  6 11  0  1 12  0  3  1  0  5  2  1  8 11  5 17  8
  2 14 16  5 14  3  1 17 10  0 14 16  4  9 20  2  4 12  2  8  1  4 13 12
  5 12 20  4 13 10 16]"
1600,315.0,0.90625,4,1,11.437896013259888,7.025606632232666,902,6400,83020,361150,"[ 4  0  0  3  0  1  1  3  0  0  2  0  4  1  0  4  4  3  0  1  2  0  7  1
  0  2  0  0  4  0  2 12  7  2 10 13  0  3  1  5  1  4  0  8  7  1  2  6
  5  0  0  0 14  3  4  7 11  4 14  7  4 16 13  2  4  7  0 22 18  3 14 18
  1  7  4  4 12 10 16]"
1700,315.0,0.90625,4,1,12.136283874511719,6.983797550201416,956,6800,88181,383979,"[ 4  0  0  5  2  3  4  3  3  0  0  0  1  1  3  1  4  7  0  1  2  3  1  7
  0  2  0  0  4  7  4 11  7  2  3  8  0  3  1  2  3  4  2 13  4  1  3 17
  5 16 10  0 10 16  5 18 11  0 16  7  2 16  3  4 17  1  2 15 18  5 14  1
  2  7  4  6 12 10 16]"
1800,315.0,0.90625,4,1,12.845147371292114,7.088596820831299,1015,7200,93345,406461,"[ 4  1  2  3  0  1  4  3  3  3  0  0  4  1  3  4  3  5  0  1  2  2  0  5
  0  2  0  1  4  5  0  8  7  5  9 13  0  3  1  0  7 10  3  3 10  3  5  6
  0 16 18  2  3 16  3 14  9  5  6  4  1 10  7  4  2  6  0  7 22  4 19  1
  0 19 10  6 12 10 16]"
1900,315.0,0.90625,4,1,13.648960590362549,8.03807258605957,1077,7600,98547,429529,"[ 0  1  0  0  0  2  4  3  3  5  1  1  5  3  1  1  4  3  0  1  2  1  3  1
  0  2  0  1  4  6  1  8  1  5  9 11  0  3  1  0 13  4  1 11 10  4  5  6
  1 14 14  5  3  6  2 11  2  5  6  5  5  3 10  4  8  0  4 14 23  4 19 20
  0  7  6  6 12 10 16]"
2000,315.0,0.90625,4,1,14.54794454574585,8.989782333374023,1136,8000,103794,452066,"[ 0  0  2  3  2  2  4  3  3  5  3  0  2  2  0  5  4  0  0  1  2  0  6  6
  0  2  0  2  6  2  2  6  8  2 10  8  0  3  1  5  4  7  5 10 10  5 17  1
  5  1 18  4  3  3  0 15 11  5  6  3  5  3 21  5  8  6  1  6  3  0  0 16
  0  3 23 21 12 10 16]"
2100,315.0,0.90625,4,1,15.366269588470459,8.18319320678711,1198,8400,108952,474814,"[ 2  2  3  3  2  2  4  1  0  5  0  1  0  3  0  2  8  3  0  1  2  0  6  6
  0  2  0  1  2  5  2  1  2  5 10  8  0  3  1  0  6  4  0  8  1  0 17  7
  0  6  8  4  3  3  1 16  6  1 17  7  5 14  5  5 23 17  1 21  9  5  7 15
  2  4 14 21 12 10 16]"
2200,315.0,0.90625,4,1,16.29276466369629,9.26487922668457,1252,8800,114154,498416,"[ 0  2  0  0  3  1  3  2  3  2  0  2  1  1  0  0  3  6  0  1  2  4  5  0
  1  1  3  0  4  6  0  8  4  5 10 12  0  3  1  4  3  3  0  1  5  0  4 15
  2  4  3  4  3  3  3 18 13  4 14 12  0 12 22  5  0  7  5  1  6  3 17 12
  1  7 22 21  4 10 16]"
2300,316.0,0.921875,6,3,17.24552059173584,9.52749252319336,1302,9200,119428,521955,"[ 0  2  0  0  1  3  1  3  1  3  2  3  5  3  1  0  8  4  0  1  2  4  7  4
  2  5  3  0  2  3  0 12  3  1  3  4  0  3  9  3  3  3  0 10 10  0 14 15
  0 17 14  4  3  3  5  4  3  5 12 13  0  3  9  5  3 21  3  6  4  4 13 12
  2  5 23 16  4 10  5]"
2400,319.0,0.921875,4,2,18.203582525253296,9.580554962158203,1343,9600,124662,549903,"[ 0  2  0  0  1  3  1  3  1  3  2  1  5  2  0  0  3  4  0  1  2  0  3  3
  4  3  7  5  4  5  5  0  9  2  0  9  0  1  9  3  7  3  2  4 10  3  5  8
  1 11 18  2  2 11  1  7  8  0  4  3  3 23  4  0  4  8  1 17 19  2 13 20
  0  5  4 28  4 10  5]"
2500,319.0,0.921875,4,2,19.034339904785156,8.307530879974365,1406,10000,129609,571800,"[ 0  2  0  0  1  3  4  1  1  5  2  1  5  3  1  1  2  7  0  1  2  0  8  4
  0  2  6  4  3  7  3  7  6  1  9  9  5  9 10  3  7  9  0  4  2  5  9 17
  2  3  6  5  9 14  2 15  8  5  4  2  2 19 17  3 20 19  0 11 19  2 22 14
  0  5  4 28  4 10  5]"
2600,319.0,0.921875,4,2,19.942007064819336,9.076626300811768,1464,10400,134454,593295,"[ 0  2  0  0  1  3  4  1  3  2  2  3  2  1  1  3  1  4  0  1  2  2  6  1
  0  6  8  4  4  1  3 13  2  3  6  4  4  4  2  2  7  9  0  1  6  2  9 17
  5  3 11  5  1 12  0  1  6  0 16  3  2 13 15  0 23  1  0 22 10  0 10 11
  0  5  4 28  4 10  5]"
2700,319.0,0.921875,4,2,20.74957013130188,8.075563907623291,1528,10800,139472,615584,"[ 0  2  0  0  1  3  0  3  3  0  1  0  4  3  3  3  6  3  0  1  2  4  4  1
  1  5  8  5  4  8  4  8  4  2  6  4  3  8  2  5  6  5  3  6  1  2 17 11
  1  4  0  3  4  3  4  0 18  2 17  3  5 10  7  1 22 21  0  0 10  5 14 15
  0  5  4 28  4 10  5]"
2800,319.0,0.921875,4,2,21.507304430007935,7.577273845672607,1585,11200,144420,638357,"[ 0  2  0  0  1  3  1  3  0  5  2  3  5  1  1  5  5  5  0  1  2  1  2  3
  1  8  6  4  6  3  4  8  5  1 11  3  5 12 11  1  3  3  0  3  5  5 17 15
  3 16  1  5 11 15  4 16  9  3 13  9  3 22 20  2 20  8  5 18 10  1 16 15
  0  5  4 28  4 10  5]"
2900,319.0,0.921875,4,2,22.26784873008728,7.605373859405518,1642,11600,149420,660437,"[ 0  2  0  0  1  3  5  0  0  1  0  3  4  0  2  5  7  6  0  1  2  1  0  5
  5  1  2  1  8  2  0  4  0  3  0  1  0 12  9  3  1  4  2 11 10  5 11 13
  1  4 10  1  6 15  0 14  7  3 15  2  0  9 13  0  3  3  4 18  1  1 13  2
  0  5  4 28  4 10  5]"
3000,319.0,0.921875,4,2,23.18134355545044,9.13489580154419,1700,12000,154487,682903,"[ 0  2  0  0  1  3  5  2  1  0  1  3  0  2  3  4  6  7  0  1  2  3  0  0
  3  0  2  1  1  6  0  3  7  1 12  6  3 12  1  4  5 10  2  8 10  4 10  8
  1  6 15  3 11  4  1 10  9  1 15  2  2 20 23  4  8  6  1  4  1  3  6 19
  0  5  4 28  4 10  5]"
3100,319.0,0.921875,4,2,23.878568172454834,6.972212791442871,1763,12400,159511,705296,"[ 0  2  0  0  1  3  2  3  1  5  2  3  5  2  2  4  0  7  0  1  2  0  1  0
  3  0  7  5  1  6  0  9  7  1  7  5  5  5  7  1  9  7  0  9 10  1  0  0
  4  2 12  1  9  6  2 10 12  3 18  1  0  8  7  2  0  3  1 10 10  3  6 12
  0  5  4 28  4 10  5]"
3200,319.0,0.921875,4,2,24.571447134017944,6.928730010986328,1819,12800,164489,727145,"[ 0  2  0  0  1  3  0  0  1  0  0  3  3  0  0  3  0  3  1  4  0  4  5  1
  2  0  1  5  1  7  4  7  8  2  8  6  4  2 11  2  7  5  1  7  3  1 14 14
  3 14 11  1 17  4  3  6  4  4  1  9  5  5 22  1 11 14  5 10 20  3  6  4
  0  5  4 28  4  7  5]"
3300,319.0,0.921875,4,2,25.262197732925415,6.907451152801514,1872,13200,169554,749487,"[ 0  2  0  0  1  3  3  2  1  0  0  3  3  2  1  3  2  7  3  0  0  1  6  8
  2  2  6  1  4  7  4  1 13  1  5  3  4  0  3  4  4  2  1  6  5  2 14  1
  4 10  9  1  5 15  1  3  4  2 11 18  3 10  8  1 12  1  3  9 15  4  1 21
  0  5  4 28  4  7  5]"
3400,319.0,0.921875,4,2,26.001784801483154,7.39581823348999,1918,13600,174528,771272,"[ 0  2  0  0  1  3  1  1  0  0  0  3  0  0  2  5  1  1  4  1  8  5  5  0
  2  4  6  0  6  6  4  5  5  4 11 11  3  2 10  5  9  3  3 12  8  2 16  1
  0 18 14  3 11  2  4  2 18  2 18  4  1  8 23  0  0 14  5 16 20  5  0  2
  0  5  4 28  4  7  5]"
3500,319.0,0.921875,4,2,26.70653986930847,7.0475077629089355,1966,14000,179394,793272,"[ 0  2  0  0  1  3  2  0  1  0  0  3  0  2  2  5  3  5  1  7  6  3  8  3
  1  7  8  4  6  2  4  1 11  0  6  0  5  2  0  2 11  0  4  2 12  4  0 18
  2  3 14  0  0  4  1  8 15  2 14 15  5 17 12  4  1  0  1  7 23  5 23 19
  0  5  4 28  4  7  5]"
3600,319.0,0.921875,4,2,27.44822597503662,7.416820526123047,2020,14400,184336,815570,"[ 0  2  0  0  1  3  5  0  3  5  3  0  0  1  1  5  3  7  2  8  7  0  4  1
  0  3  0  0  1  6  0  7 12  2  3  8  2  2  0  5  7  8  5 12  9  3 18  6
  5  9  1  1 18  1  4  5 15  4 18 14  4 17  9  4  3  6  0  9  9  3 11 20
  0  5  4 28  4 12  5]"
3700,319.0,0.921875,4,2,28.042004823684692,5.937700271606445,2079,14800,189140,837392,"[ 0  2  0  0  1  3  4  3  3  1  2  0  2  0  3  5  6  3  1  8  0  1  5  1
  0  3  0  0  5  4  5  5 10  5  5  2  3  6  8  2  9  5  5  7  1  2  3  5
  4  4 13  3  2  3  5 17  3  5  3 14  3  6 12  4 13  8  2 12 22  0 15 11
  0  5  4 28  4 12  5]"
3800,319.0,0.921875,4,2,28.788270235061646,7.462596893310547,2134,15200,194007,859167,"[ 0  2  0  0  1  3  2  2  0  0  1  2  3  0  3  0  3  6  2  2  5  5  3  3
  0  3  0  4  0  8  1  0 11  5  1  5  4  6  0  0  9 11  3  0  2  3 12  1
  2  1  6  2  8 18  5 13 11  5 12 14  3  9  9  3 17  3  5  3  7  4 16 10
  0  5  4 28  4 12  5]"
3900,319.0,0.921875,4,2,29.565791130065918,7.77515172958374,2185,15600,198754,880457,"[ 0  2  0  0  1  3  2  3  0  3  2  1  3  1  2  4  3  2  4  8  3  3  1  4
  0  3  0  5  3  6  1  7  2  0  9  4  3 10  5  5  4  7  4  6  9  1  1  3
  0  8 12  2 14 18  4  5  3  1 13  2  1  9 21  1 14  9  5 22  3  4  3 19
  0  5  4 28  4 12  5]"
4000,319.0,0.921875,4,2,30.251572847366333,6.857781410217285,2248,16000,203518,901278,"[ 0  2  0  0  1  3  2  1  0  3  2  1  4  0  2  4  0  8  2  1  1  3  1  3
  0  3  0  4  0  7  1  8  8  3 12  2  2  9 11  0 12  2  4  5 12  0 11 16
  2 17  8  1 10  9  4  8  2  1  8  5  2 23 22  2  3 21  4 18 10  3  1 14
  0  5  4 28  4 12  5]"
4100,319.0,0.921875,4,2,30.93700885772705,6.854286193847656,2303,16400,208395,922912,"[ 0  2  0  0  1  3  0  2  1  3  0  1  3  2  0  2  6  8  5  8  4  3  6  0
  0  7  0  5  1  4  2  2  7  0  1  2  3  9  9  5 10 10  2  3  2  5  6  7
  5 13 13  1 12 14  3 18  2  1 14  4  4 14 22  1  0 19  4 20 18  2 20  7
  0  5  4 28  4 15  5]"
4200,319.0,0.921875,4,2,31.695394277572632,7.583799362182617,2360,16800,213291,945492,"[ 0  2  0  0  1  3  3  2  2  0  2  0  5  1  3  2  7  0  2  8  4  0  5  6
  2  7  0  0  1  4  1 11  7  0  1  2  2 10  9  0  7  2  2 11 13  5  7  5
  4  1  0  5 12  1  3 12 14  1  2  3  2  9  2  4 14 19  4  3 18  3 16 14
  0  5  4 28  4 15  5]"
4300,319.0,0.921875,4,2,32.40862059593201,7.132225036621094,2408,17200,218309,967796,"[ 0  2  0  0  1  3  1  1  0  1  0  2  5  2  3  1  5  8  3  8  7  4  5  2
  2  2  8  2  1  3  3  9  6  0  1  2  5  5  3  2  9 12  4  1  6  1  2  1
  3  4 16  2  8  2  2  6  8  3 13  3  2  1  8  5 12  8  5  9 23  3  8 19
  0  5  4 28  4 15  5]"
4400,319.0,0.921875,4,2,33.11051416397095,7.018899917602539,2465,17600,223215,989862,"[ 0  2  0  0  1  3  1  0  2  0  2  1  4  3  0  4  1  4  3  1  0  2  2  3
  4  6  8  0  8  6  5 10 11  0  1  2  4  5  8  1  7  3  4 11  9  3  5 12
  1  8  0  2 11  4  2  7  7  4 12 10  3 14  7  4 20 19  3 23 19  2  1  6
  0  5  4 28  4 15  5]"
4500,319.0,0.921875,4,2,33.878804206848145,7.682857513427734,2514,18000,228207,1012445,"[ 0  2  0  0  1  3  0  0  3  5  1  3  4  3  2  0  6  3  3  0  0  1  7  5
  3  0  5  5  7  0  0 10 11  0  3  2  3  3  1  3  4  7  2  6  4  5  8 12
  1 16 17  3 18  1  0  4 15  0  3 14  1 20 12  3 10 18  1  6 20  0  7 15
  0  5  4 28  4  6  5]"
4600,319.0,0.921875,4,2,34.60525393486023,7.264447212219238,2564,18400,233169,1034796,"[ 0  2  0  0  1  3  0  0  3  1  1  0  5  1  0  4  6  0  5  6  4  5  7  7
  5  1  0  5  5  8  2  7  0  5  3 11  5 12 10  2  3  8  3  7  6  5 10 12
  3  6 11  3  9  3  5  9  7  5  1  9  0 23 16  2  5 17  4 19  6  2  9  9
  0  5  4 28  4  6  5]"
4700,319.0,0.921875,4,2,35.325270652770996,7.200119495391846,2616,18800,238044,1056603,"[ 0  2  0  0  1  3  0  0  3  0  2  3  5  3  3  5  6  2  2  8  0  2  1  5
  5  7  8  0  4  8  1  5  6  4 12  4  0  9  0  5  4  6  2  9 11  1  9  8
  5  7  7  5 17  3  4  6 13  0 15 14  0  4 13  5  3  2  4 22 18  4 11  3
  0  5  4 28  4  6  5]"
4800,319.0,0.921875,4,2,36.105751276016235,7.804765701293945,2679,19200,242785,1079687,"[ 0  2  0  0  1  3  1  2  0  2  2  1  5  3  0  0  0  5  3  5  7  5  8  4
  5  0  8  3  5  3  2  9  4  1  4  6  2 11 10  1  9 11  1 10 13  5 16  3
  2 17 17  4 13 16  3 10  0  0  0  3  5 20 11  1  8  3  2 22 18  3 16 18
  0  5  4 28  4 23  5]"
4900,319.0,0.921875,4,2,36.80894923210144,7.0319390296936035,2741,19600,247457,1102085,"[ 0  2  0  0  1  3  3  0  0  0  3  2  0  1  1  4  0  6  1  6  8  0  1  8
  1  1  2  2  0  8  2  5 10  0 12 12  0  3 10  2  7 10  1 11 13  5 12  3
  1 15 17  5 18  5  0 14 14  0  0  3  3  3 23  3 15  3  2 14  4  5 20  0
  0  5  4 28  4 23  5]"
5000,319.0,0.921875,4,2,37.54602885246277,7.370755672454834,2802,20000,252345,1125069,"[ 0  2  0  0  1  3  3  3  2  4  2  2  1  0  1  0  5  6  4  5  6  3  2  2
  3  7  5  3  0  2  1  4  4  1  9  8  2  3  9  3 10  7  2  4  9  4  3  1
  5 11 18  1 13  1  3  4 13  0  0  3  2  3 23  0 17  6  0 11 10  3  9 12
  0  5  4 28  4 23  5]"
5100,319.0,0.921875,4,2,38.40969657897949,8.636620044708252,2856,20400,257237,1147550,"[ 0  2  0  0  1  3  2  0  1  5  3  0  4  1  1  3  2  2  2  4  7  3  2  0
  4  1  5  4  6  2  5  1  6  0  6  7  1  6  6  5 10  4  5  3 10  3 15  1
  0  9 18  0  5 16  4  1 18  0  0  3  2 13  4  0 16 18  0 17  0  0  3  0
  0  5  4 28  4 23  5]"
5200,319.0,0.921875,4,2,39.07964897155762,6.699485778808594,2898,20800,262169,1169333,"[ 0  2  0  0  1  3  0  1  2  5  3  3  5  0  1  3  7  4  1  7  1  2  5  3
  0  1  0  3  0  5  2 10  5  1 13  6  1  5  6  2  2  4  0  5  5  1 15 14
  0 16  9  4 12  0  4  0 12  5  0  3  1 16 19  4  6  6  3 22  5  2 21  1
  0  5  4 28  4  6  5]"
5300,319.0,0.921875,4,2,39.82789993286133,7.48246431350708,2945,21200,267111,1190953,"[ 0  2  0  0  1  3  0  1  2  1  3  1  2  0  3  5  2  3  4  7  3  2  6  2
  4  8  1  5  4  5  3  7  8  2  6  6  5 10  6  1  6  7  5 13  3  3 15 14
  5 13 14  0 13 16  5 17 16  2 10 13  1 12  0  3 19  1  2  3  6  2 23 22
  0  5  4 28  4  6  5]"
5400,319.0,0.921875,4,2,40.53284192085266,7.049374580383301,3001,21600,272129,1213695,"[ 0  2  0  0  1  3  0  1  2  1  3  1  3  2  3  4  0  5  2  4  3  1  4  7
  5  2  7  1  7  8  4 10  8  5  3  7  0  7  2  5 10 12  0  2 12  1  0 16
  4 16 13  5 11 17  0  3  0  4 14  2  1 10  0  0 17 23  1  3 22  2  3 18
  0  5  4 28  4  6  5]"
5500,319.0,0.921875,4,2,41.29717445373535,7.643277645111084,3045,22000,277292,1237113,"[ 0  2  0  0  1  3  0  1  2  2  1  2  3  2  3  2  6  1  4  4  3  2  1  5
  4  0  8  1  8  5  4  8  5  0  7  5  5  8 11  4  8  7  4  4  1  0  7  2
  2 10  9  1  5 15  3  1  9  4 14  9  4  8 21  0 11  7  5  3 18  0  6  7
  0  5  4 28  4  6  5]"
5600,319.0,0.921875,4,2,41.947609424591064,6.5042924880981445,3095,22400,282352,1259468,"[ 0  2  0  0  1  3  0  1  2  5  0  3  2  3  2  1  5  8  2  6  0  2  1  4
  0  0  0  5  1  0  4  5  6  2  2 11  2  8  3  4  1  8  2  5  3  4  6 14
  4 10  6  5 16 15  3 14  9  1 10  6  2 18  6  2 17 23  5  6 10  1 15  8
  0  5  4 28  4  6  5]"
5700,319.0,0.921875,4,2,42.71944832801819,7.718322277069092,3142,22800,287337,1281547,"[ 0  2  0  0  1  3  0  1  2  4  2  1  0  3  1  1  5  3  1  2  4  4  1  3
  5  3  6  3  7  0  0  0 11  5  7 11  0  1  5  0  1  2  3 10  5  5 16 14
  0  0 10  5  2 18  3  3  9  4  6 18  1 11  0  3 10 15  4 16  2  2 21 10
  0  5  4 28  4  6  5]"
5800,319.0,0.921875,4,2,43.41947269439697,7.0002055168151855,3201,23200,292402,1304002,"[ 0  2  0  0  1  3  5  2  2  5  0  1  0  1  2  1  6  0  3  2  1  3  3  6
  5  7  3  2  7  5  1  1  9  3 13  1  4  6  6  3  5  4  4 11  5  5 10  4
  4 12 15  2 13 14  2  4  2  5 14 11  2  9 12  3  8 13  5  4 12  0  1  2
  0  5  4 28  4 27  5]"
5900,319.0,0.921875,4,2,44.12564420700073,7.06167459487915,3251,23600,297499,1327575,"[ 0  2  0  0  1  3  3  2  2  5  0  3  3  1  3  4  4  5  4  7  0  0  1  0
  3  4  3  1  7  6  3 11 13  1 10 10  5  0 11  5  8  3  3  6  7  0 16 14
  0 11  5  3 14 17  4  4 15  5 15 17  3 12 15  2 18 17  2 21 13  0  1  2
  0  5  4 28  4 27  5]"
6000,319.0,0.921875,4,2,44.906521797180176,7.808728218078613,3308,24000,302481,1350680,"[ 0  2  0  0  1  3  4  3  3  5  0  2  2  2  3  0  0  1  5  3  4  2  7  0
  2  2  2  2  5  0  3 10  1  1  1 10  2  3  5  1 13  3  5 12  0  0 11 11
  1 11  5  2 10 16  2  5 14  5 17 12  0 20 10  3 16  8  0  7  5  0  1  2
  0  5  4 28  4 27  5]"
6100,329.0,0.96875,8,3,45.57053756713867,6.6400980949401855,3369,24400,307294,1375310,"[ 0  2  0  0  1  3  4  1  3  2  0  3  2  0  3  2  1  6  5  4  4  3  2  2
  0  5  0  5  1  7  2 11  7  2  1  4  4  2  4  4 12  7  1  3  0  4 11 11
  4  9 12  3 11 12  0 17 14  2 17  5  0 14  7  3 10 17  5  2 14  0 13 14
  0  5  4 28  4 27  5]"
6200,334.0,0.984375,8,3,46.44955039024353,8.790078163146973,3419,24800,311389,1408169,"[ 0  2  0  0  1  3  4  3  1  2  0  3  2  0  1  0  1  7  3  7  3  3  2  2
  0  5  2  5  1  7  2 11  1  2  0  0  4  3 11  3 10  0  4  3  7  0 14  4
  4  9 13  4 18 12  1 18  4  2 17  8  4  0  3  2 18 14  5 15 17  5 13 14
  0  5  4 28  4 27  5]"
6300,334.0,0.984375,8,3,47.20797944068909,7.584235668182373,3473,25200,314361,1432017,"[ 0  2  0  0  1  3  2  0  2  2  0  3  5  0  1  0  8  2  4  8  2  3  2  2
  0  4  4  5  1  7  2 11  1  3  6  3  2  7 12  2  4  0  4  3  1  1  2  4
  3 16 13  2  5 11  1 18  8  2 18  9  4  6  3  0 18  7  0 15 17  5 13 14
  0  5  4 28  4 27  5]"
6400,334.0,0.984375,8,3,47.92085313796997,7.1286940574646,3532,25600,317235,1455167,"[ 0  2  0  0  1  3  2  2  3  2  0  3  0  2  0  2  8  7  5  3  8  2  2  1
  0  3  7  5  1  7  2 11  1  3  3 10  0  5 11  2  4  3  3  3  9  5 10 13
  0 16  3  1  4  9  4  3  8  5  0  0  2 20  3  2  3 16  2  2 16  5 13 14
  0  5  4 28  4 27  5]"
6500,334.0,0.984375,8,3,48.603323221206665,6.824636459350586,3587,26000,319957,1476817,"[ 0  2  0  0  1  3  4  1  0  2  0  3  2  1  2  3  7  5  5  8  3  2  2  1
  0  2  8  5  1  7  4 11  1  3  3  5  3 12  6  5  7  6  3 11  3  2  6  7
  0 11  7  4  4  9  5 16 12  5  3 12  3  1  4  2 21  5  2  0 16  5 13 14
  0  5  4 28  4 27  5]"
6600,334.0,0.984375,8,3,49.26531410217285,6.619865894317627,3645,26400,322717,1498810,"[ 0  2  0  0  1  3  4  1  0  2  0  3  0  0  0  5  5  5  5  1  3  2  2  1
  0  8  0  5  1  7  2 11  1  0  4  3  2 12 10  1  5 13  2 13  9  3  9  7
  3  2  6  4  1  7  0 16  7  0  3 12  4 19 18  4 21  7  3  0 11  5 13 14
  0  5  4 28  4 27  5]"
6700,334.0,0.984375,8,3,49.88681435585022,6.214964389801025,3692,26800,325787,1523852,"[ 0  2  0  0  1  3  5  0  1  2  0  3  1  0  0  0  4  3  0  1  7  2  2  1
  2  7  6  5  1  7  4 11  1  0  4  3  0  9  9  0 12 12  1 10  3  3  3 12
  3 17 16  4 13 12  5 14 17  0  8  0  3 19  2  3  7 15  3 20  7  5 13 14
  0  5  4 28  4 27  5]"
6800,334.0,0.984375,8,3,50.510945081710815,6.241247653961182,3749,27200,328591,1546591,"[ 0  2  0  0  1  3  5  3  1  2  0  3  1  0  3  1  4  3  5  1  6  2  2  1
  5  7  2  5  1  7  4 11  1  3 12  3  2  8  6  0 11  8  5 10  3  5  1  4
  2  7 15  2 13  3  5  4 15  4  6  2  3 13  2  3 13  8  1 20  5  5 13 14
  0  5  4 28  4 27  5]"
6900,334.0,0.984375,8,3,51.155821323394775,6.448698043823242,3800,27600,331687,1571247,"[ 0  2  0  0  1  3  5  1  3  2  0  3  1  2  0  1  6  6  1  1  2  2  2  1
  4  5  0  5  1  7  4 11  1  2 13  5  2  0  4  1  3  4  1  4  7  5  6 10
  0  1  0  4  0 15  2  3 12  4  1 14  4 20  2  5  8  4  2  9 19  5 13 14
  0  5  4 28  4 27  5]"
7000,337.0,0.984375,6,2,51.75943636894226,6.036109924316406,3856,28000,334518,1592366,"[ 0  2  0  0  1  3  2  1  3  2  0  3  2  1  1  2  2  2  1  1  3  2  2  1
  4  5  0  5  1  5  4  0  1  5  4  6  2  4  6  3 13  2  3  4  1  3 16  0
  2 17  0  3 12  6  2  1 14  2  7 14  4 11  7  1 11  4  1 15 21  2  2 14
  0  5  4 28  4 24  5]"
7100,337.0,0.984375,6,2,52.30129623413086,5.418541431427002,3909,28400,337602,1611699,"[ 0  2  0  0  1  3  0  2  2  2  0  3  2  0  0  2  6  7  0  0  0  2  2  1
  4  1  7  3  8  0  1  5  2  1  1 11  2  5  3  3  5 12  3 12  8  0 18 18
  2  3 15  2  1 16  1 16 11  4 11  8  4 11  7  0 23 14  0 15 15  1  2 10
  0  5  4 28  4 24  5]"
7200,337.0,0.984375,6,2,52.94018507003784,6.38883113861084,3953,28800,340759,1631311,"[ 0  2  0  0  1  3  3  2  3  2  0  3  2  3  0  1  1  6  0  0  0  2  2  1
  1  0  3  1  6  7  3 10 11  2 12  8  2  3  2  3  6  8  2  3  4  4 18  4
  2 16 18  3 11 14  0  0 12  4  9  1  4 11  7  3  7 11  2  7 15  3 14 20
  3  5 19 25  4 24  5]"
7300,337.0,0.984375,6,2,53.4928252696991,5.526323318481445,4008,29200,343800,1650308,"[ 0  2  0  0  1  3  4  1  3  2  0  3  0  3  2  3  1  5  2  0  0  2  2  1
  2  4  4  1  7  2  4  7  5  3 12 12  2 12  1  3  6 10  2  6  9  5 11  2
  1 16 18  3 13  2  3  0  2  5  3 14  4 11  7  3  7 11  3  7 15  2 23  6
  4 17 20 25  4 24  5]"
7315,341,1.0,8,3,53.58204913139343,5.9478600819905605,4019,29260,344207,1652894,"[ 0  2  0  0  1  3  3  1  3  2  0  3  0  3  0  3  1  5  5  0  0  2  2  1
  2  4  4  3  7  2  4  7 13  3  5 12  5 12  1  3  6 10  4  6  9  5 11 13
  1 16 18  3 13  2  3  7  2  5  3 14  4 11  7  3  7 11  3 18 15  4  8  6
  2 21 23 25 15 24  5]"
7362,343,1.0,7,2,53.8876953125,6.5029681997096285,4038,29448,345475,1662909,"[ 0  2  2  0  1  3  5  1  1  2  0  3  5  1  0  3  1  8  4  4  2  2  2  1
  2  0  2  3  7  2  4  1  0  3  5 12  5 12  2  3  1  1  4 13  4  5 11 13
  4 16 13  2 18  2  3  3  2  3  5  2  4 11  7  3  7 11  3 18 15  1  8  9
  2 21 23 25 15 24  5]"
