generation,fitness,functionality,active_nodes,longest_path,time,gen_time,nc_gens,fitness_evals,graph_evals,node_evals,genotype
0,159.0,0.4375,8,3,0.006528615951538086,6.525516510009766,0,0,0,0,"[ 0  2  0  0  0  0  1  1  2  2  0  3  2  0  2  4  1  4  1  7  8  2  4  6
  3  3  5  2  2  8  0 12 11  2  3  1  0  9  9  4  3  7  0  8 13  3 15  1
  3  1 17  0 12  2  5 13 11  2  2 15  3 19 15  5 21  3  0  3 20  2 18  2
  5 21  1 13  1 12 14]"
100,317.0,0.921875,6,2,6.610257625579834,66.03726625442505,0,6400,87694,422140,"[ 2  0  3  0  2  0  2  2  1  0  1  2  2  2  0  0  1  3  0  5  5  0  3  2
  0  3  0  0  5  3  3 12  1  3  4  6  3 10  6  5 12  0  3  9  5  5  3 13
  1 14 17  0  1 14  4 10 17  3 11  2  0 21 21  5  3 22  1 22 20  2  0 23
  4 18 22 15  5 12  9]"
194,342,1.0,8,2,13.676471948623657,75.17246489829206,0,12416,160511,954067,"[ 2  0  3  1  3  3  2  2  1  1  1  2  4  3  2  0  1  3  2  0  2  2  1  0
  0  3  0  2  4  5  0 12 11  3  4  6  5 12  6  5  8 10  5 12  8  1 14  3
  2 10  3  0 18 12  3 10  9  4  3 12  4  2 18  4  0  1  3 23 23  5  3 22
  4 20  3 15 22 16  9]"
200,342,1.0,8,2,13.936627626419067,43.358961741129555,0,12800,162641,970911,"[ 2  0  3  1  3  3  2  2  1  1  1  2  4  3  2  0  1  3  2  0  2  2  5  0
  0  3  0  2  4  5  0 12 11  3  4  6  5 12  6  5  8 10  5 12  8  1 14 13
  2 17  3  0 18 12  3 10  9  4  3 12  4 15 18  4  0  1  3 23 23  5  3  1
  4  1  3 15 22 16  9]"
300,342,1.0,8,2,18.38256025314331,44.45929765701294,0,19200,198729,1256499,"[ 2  1  3  2  3  0  2  2  1  3  1  2  2  1  1  0  1  3  2  0  2  5  0  3
  0  3  0  0  2  1  1  9  4  3  5  6  5 12  6  0 10  4  0  1 12  5 18 15
  5 17 11  4  1  9  3 10  9  0 10 13  1 14 15  5 19 18  5 17 23  0 21 20
  1  3 17 15 22 16  9]"
400,342,1.0,8,2,22.822896480560303,44.40333366394043,0,25600,234914,1542716,"[ 4  3  3  2  3  0  2  2  1  1  1  1  2  2  3  0  1  3  2  0  2  1  6  4
  0  3  0  4  5  5  1  3  3  3  5  6  5 12  6  0  5 12  0  9 11  3  2 10
  0 12 18  4 15  9  3 10  9  1  2 12  4  2 18  4 14 14  2  3 21  1  2 17
  2 16  3 15 22 16  9]"
413,343,1.0,7,2,23.40132713317871,44.494445507343,0,26432,239552,1579224,"[ 4  3  3  2  3  0  2  2  1  3  3  0  2  2  3  0  1  3  2  0  2  1  4  7
  0  3  0  4  6  5  3  3  3  3  5  6  5 12  6  0  0 12  0  9 11  2  2 18
  0 11 18  3  1  9  3 10  9  2  2 12  4  1  0  4 15 14  2  2 21  1  2 17
  2 14  3 15 22 13  9]"
