generation,fitness,functionality,active_nodes,longest_path,time,gen_time,nc_gens,fitness_evals,graph_evals,node_evals,genotype
0,192.0,0.53125,5,3,0.0058917999267578125,5.889177322387695,0,0,0,0,"[ 2  2  2  2  0  0  1  1  2  2  3  1  5  1  0  1  3  4  1  5  5  4  8  6
  4  1  0  5  5  1  5  4  4  2  8 12  0 12 10  5  1  2  5  8  6  1 13 18
  2 10  1  5 10 13  3 18  2  1  3 16  1 22 21  2 16  3  4 23 22  4 18 18
  0 17 18 17  8 27  2]"
100,333.0,0.984375,9,3,27.20927357673645,272.03378915786743,0,25600,294145,1916180,"[ 2  0  3  5  3  1  2  0  3  2  1  2  0  2  0  0  1  3  2  0  3  1  8  1
  5  6  5  3  4  7  1 11  0  1  1  8  0  1  2  0  7  8  5  8  4  1 10 10
  1 13 17  2  1  0  5 16 15  5  1 18  5 23 21  5 15 23  4  3  3  4 16 14
  5 16 19 13  8 28  9]"
110,336,1.0,12,4,29.967751026153564,275.8474826812744,0,28160,318082,2130344,"[ 2  0  3  5  3  1  0  0  3  2  1  2  0  2  0  0  1  3  2  0  3  4  8  1
  3  7  5  3  4  7  1 13  4  1  1  8  0  1  2  1  0  8  5  8  4  1 10 10
  1 17 17  2  1  0  4 17 15  5 14 18  4 22 21  5 15 23  4  3  3  3 17 14
  5 16 19 13 23 28  9]"
200,336,1.0,12,4,53.07932639122009,256.79525004492865,0,51200,470423,3932048,"[ 2  0  3  2  3  2  0  1  3  2  1  2  0  2  0  0  1  3  2  0  3  0  4  1
  3  2  4  3  4  7  1 13  4  1  9  7  0  1  2  4  0  6  5  8  4  0 10 10
  5 13 16  0  1 15  0 17 10  5 14 18  3  3  3  5 15 18  0 20 16  2 18 19
  5 16 19 13 23 28  9]"
300,336,1.0,12,4,78.61154365539551,255.32214641571045,0,76800,637654,5911055,"[ 2  0  3  2  2  3  0  2  3  2  1  2  0  2  0  0  1  3  2  0  3  2  3  4
  2  4  2  3  4  7  1 13  4  3  8  1  0  1  2  1 10  7  5  8  4  0 10 10
  3 16 18  2 14  9  4  2 16  5 14 18  1  3 22  2 15  2  2 21 18  3 17 23
  5 16 19 13 23 28  9]"
400,339,1.0,9,4,98.90851759910583,202.96971559524536,0,102400,790416,7321527,"[ 2  0  3  0  1  3  3  2  3  2  1  2  0  2  0  0  1  3  1  6  5  3  5  5
  4  7  5  3  4  7  4 13  4  1  2  9  4  1 11  4  4  7  5  8  4  1 10 14
  2 11 10  3  3  3  3 12 10  5 14 18  3 14 18  4  0 22  2  0 21  5 17 20
  5 17 16 13 23 17  9]"
500,339,1.0,9,4,118.34251666069031,194.33996200561523,0,128000,937242,8629263,"[ 2  0  3  4  1  2  3  3  1  2  1  2  0  2  0  0  1  3  4  1  5  3  7  5
  4  7  8  3  4  7  4 13  4  5  8  4  3  9  3  4  4  7  5  6  4  4 13 17
  1  0  0  0 12  3  3  2  2  5 14 15  3 19 22  1  2 14  2  0 18  4  2 16
  0  3  2 13 23 17  9]"
600,339,1.0,9,4,137.62522745132446,192.8270721435547,0,153600,1083475,9929579,"[ 2  0  3  0  2  1  4  0  1  2  1  2  0  2  0  0  1  3  0  1  5  1  7  2
  3  0  0  3  4  7  4 13  4  5  8  4  2  8  6  4  4  7  4  5  0  2 11  3
  4 15 13  2  3 10  1  3 10  5 14 15  0 19 16  0 20 21  3  0  2  0 16  2
  5 20 23 13 23 17  9]"
700,339,1.0,9,4,157.0892207622528,194.63990449905396,0,179200,1231633,11246730,"[ 2  0  3  3  0  3  0  2  3  2  1  2  0  2  0  0  1  3  1  5  4  1  7  1
  0  7  1  3  4  7  1 13  4  5  8  4  5  6  9  4  4  7  3  5  3  4 12  3
  1 15  0  3  9 14  1 16 16  5 14 15  1 22 17  0 16  0  1  0 14  1 22  2
  3  1 15 13 23 17  9]"
800,339,1.0,9,4,176.45541954040527,193.66195917129517,0,204800,1377976,12548863,"[ 2  0  3  4  1  3  4  0  3  2  1  2  0  2  0  0  1  3  5  8  4  3  3  0
  1  2  1  3  4  7  1 13  4  5  8  4  1  7  3  4  4  7  3  9  1  2 18 11
  4 18  0  0 16 18  5  3 17  5 14 15  3  2 16  2 16 16  0  1 22  3 14 14
  2 15  0 13 23 17  9]"
900,339,1.0,9,4,196.1065158843994,196.5109372138977,0,230400,1524868,13857142,"[ 2  0  3  1  2  1  4  2  0  2  1  2  0  2  0  0  1  3  1  8  6  3  0  7
  4  0  8  3  4  7  1 13  4  5  8  4  0  7  6  4  4  7  1  9  6  1 10 10
  2  1 18  5  9 10  0  0 12  5 14 15  1 18 19  2 19  0  3  2 18  3 16 14
  2 22  0 13 23 17  9]"
1000,339,1.0,9,4,215.56567883491516,194.59160327911377,0,256000,1670181,15151530,"[ 2  0  3  1  2  1  4  3  2  2  1  2  0  2  0  0  1  3  2  5  8  1  5  1
  5  7  8  3  4  7  1 13  4  5  8  4  2 11  6  4  4  7  2 12  3  4 15  0
  1  3  3  4 16 16  3  0  0  3 18 11  0 23 16  5 16 19  2 18  0  5 15 14
  1 14  2 13 27 17  9]"
1100,339,1.0,9,4,235.0698881149292,195.04206895828247,0,281600,1816720,16456863,"[ 2  0  3  2  1  2  4  3  0  2  1  2  0  2  0  0  1  3  0  7  3  5  5  3
  5  3  8  3  4  7  1 13  4  5  8  4  4  4  0  4  4  7  2  3 11  3 13  9
  2 12 17  4  2 17  0 15  3  4 15 13  2 14 18  5 15 15  0  3  3  5 15 14
  1 22 21 13 27 17  9]"
1200,339,1.0,9,4,254.42157292366028,193.51681232452393,0,307200,1962044,17752197,"[ 2  0  3  2  1  1  4  1  1  2  1  2  0  2  0  0  1  3  2  8  1  4  8  3
  1  8  7  3  4  7  4 13  4  5  8  4  5  0  0  4  4  7  2  5  1  1 13 12
  2  3  3  4 16  3  3 11  3  3  0  3  2 16  0  3 22  0  5 22  3  5 15 14
  0 17 22 13 27 17  9]"
1300,339,1.0,9,4,273.8342559337616,194.1268014907837,0,332800,2108536,19055807,"[ 2  0  3  0  2  1  4  0  3  2  1  2  0  2  0  0  1  3  2  4  6  4  2  1
  4  6  7  3  4  7  1 13  4  5  8  4  0  9  8  4  4  7  1  3  1  3 15  0
  0 13  3  0  9  3  5 16 16  2 10  1  0 22 19  5  1 16  4 17 23  5 15 14
  1  2 16 13 27 17  9]"
1400,339,1.0,9,4,292.98811626434326,191.53856992721558,0,358400,2253284,20344423,"[ 2  0  3  5  3  2  4  2  2  2  1  2  0  2  0  0  1  3  3  8  2  5  5  8
  3  0  4  3  4  7  1 13  4  5  8  4  4  2  9  4  4  7  1 12  7  4 16 12
  4  0 18  2 15 14  4 15 17  0 14 18  3 22 20  1  3  1  4  3 17  5 15 14
  2  2 20 13 27 17  9]"
1500,339,1.0,9,4,312.35099816322327,193.62878799438477,0,384000,2398730,21643013,"[ 2  0  3  1  0  2  1  2  3  2  1  2  0  2  0  0  1  3  3  8  4  2  8  3
  5  2  7  3  4  7  4 13  4  5  8  4  4  3  1  4  4  7  1 10  6  2 16  0
  1  2 18  1 13 18  1 14  3  2  0 15  0  0 22  4 23  3  5  2  0  5 15 14
  4 14 15 13 27 17  9]"
1600,339,1.0,9,4,331.92465472221375,195.73653936386108,0,409600,2543768,22936503,"[ 2  0  3  1  3  1  3  0  3  2  1  2  0  2  0  0  1  3  1  0  7  1  3  5
  3  0  7  3  4  7  4 13  4  5  8  4  5 12  8  4  4  7  3 12  6  5 15  3
  2 10 10  2 18 17  5 10 11  2 18 16  1  2 17  0  1  3  4  2 15  5 15 14
  3 20 14 13 27 17  9]"
1700,339,1.0,9,4,350.99601674079895,190.71359634399414,0,435200,2684984,24197119,"[ 2  0  3  1  3  2  3  1  0  2  1  2  0  2  0  0  2  3  0  1  7  4  5  5
  1  2  5  3  4  7  4 13  4  5  8  4  5 12  5  4  4  7  3  3 12  5  0  0
  5 14  3  5  2  9  3  3 11  2  3 10  4 16  1  0  1  3  2 15 18  5 15 14
  2 21  0 13 27 17 25]"
1800,339,1.0,9,4,370.01198530197144,190.15965700149536,0,460800,2827603,25468523,"[ 2  0  3  0  3  2  3  2  0  2  1  2  0  2  0  4  6  7  5  7  3  3  8  0
  2  0  3  3  4  7  4 13  4  5  8  4  5  8  6  4  4  7  0  2  1  5 14 13
  5  0 15  1 12 15  0 14  0  2  3  0  3  2  1  0  1  3  0 18 21  5 15 14
  3  0  0 13 27 17 25]"
1900,339,1.0,9,4,388.97150921821594,189.59521055221558,0,486400,2966564,26709894,"[ 2  0  3  0  0  2  3  3  0  2  1  2  0  2  0  5  0  5  3  2  2  5  0  5
  2  8  6  3  4  7  4 13  4  5  8  4  0  4 10  4  4  7  0 13  5  2 11  0
  5  0 10  2 12 17  4  1  0  5  9  0  0 23 21  0  1  3  5 20  0  5 15 14
  3 21  0 13 27 17 25]"
2000,339,1.0,9,4,407.85853457450867,188.87022733688354,0,512000,3107112,27965576,"[ 2  0  3  0  1  2  5  1  2  2  1  2  0  0  2  3  3  5  1  7  4  4  5  7
  0  3  6  3  4  7  4 13  4  5  8  4  2  6  1  4  4  7  2  6  8  5 15  0
  5  0 18  1 10 10  5  3  1  4 14  0  1 17 15  0  1  3  0 17 20  5 15 14
  5 19 17 13 27 17 25]"
2100,341,1.0,8,3,427.24187183380127,193.83334398269653,0,537600,3256298,29270005,"[ 2  0  3  0  3  1  3  0  2  2  1  2  0  0  2  3  3  1  0  0  2  2  3  0
  2  4  7  3  4  7  4  0  4  5  8  9  1  4  7  4  4  7  5  1  6  4 17  3
  5  2 11  0 16 10  0 18 15  5 13 14  0  2 18  0 14 22  2  3  0  1 15  0
  0 15  0 13 21 17  5]"
2200,342,1.0,8,2,445.4731378555298,182.31263399124146,0,563200,3408838,30474975,"[ 2  0  3  0  3  1  0  3  0  2  1  2  1  0  0  0  1  3  0  0  2  5  1  0
  5  6  5  3  4  7  3  2 13  4  7  0  2 12 11  4  4  7  2  1  3  2 12 14
  0 16  1  1 12  3  0 18 10  2 11 15  1 15 21  3 14  2  2 14 15  4  2  1
  0  3 17 13 22 17  5]"
2300,342,1.0,8,2,463.6446461677551,181.71505451202393,0,588800,3559473,31666943,"[ 2  0  3  0  3  1  3  3  0  2  1  2  3  0  2  4  3  8  0  0  2  2  3  2
  4  4  1  3  4  7  0  0  6  1 10 12  1  3  7  4  4  7  2  1  3  5  3 13
  3 10 15  0 15  9  0 18 10  3 10 12  5  3 16  2 18 22  3 17  1  4 17  0
  4 18 17 13 22 17  5]"
2400,342,1.0,8,2,481.9103047847748,182.65655279159546,0,614400,3710908,32863323,"[ 2  0  3  0  3  1  2  0  3  2  1  2  3  2  2  5  4  0  0  0  2  2  7  4
  1  0  5  3  4  7  0 11  0  5 12 12  2  3  1  4  4  7  2  1  3  3 10 16
  0 10 18  2 17 11  2  9 12  1  3  0  2 23 17  5 23 14  5  3 21  0 21 18
  3 19 23 13 20 17  5]"
2500,342,1.0,8,2,499.85168957710266,179.4138216972351,0,640000,3861252,34048718,"[ 2  0  3  0  3  1  1  3  3  2  1  2  1  2  3  3  8  2  0  0  2  5  1  0
  3  7  3  3  4  7  1  9  8  1  1  7  3  6  7  4  4  7  2  1  3  1 18  1
  0 10 18  4  9  2  5 17 18  1 14 17  1 21  1  1  3  2  3 20  2  0  1  0
  2 16  1 13 20 17  5]"
2600,342,1.0,8,2,517.8279809951782,179.7628903388977,0,665600,4011138,35234296,"[ 2  0  3  0  3  1  0  1  1  2  1  2  2  3  1  5  1  1  0  0  2  4  5  4
  3  7  8  3  4  7  2  6  6  4  1 10  3  0  2  4  4  7  2  1  3  2 17 12
  0 10 18  4 11 18  0 12 16  2 18 18  1 15 18  5 14 18  1  2 14  2 19  2
  2  2 15 13 20 17  5]"
2700,342,1.0,8,2,536.0161828994751,181.88199281692505,0,691200,4162324,36429528,"[ 2  0  3  0  3  1  3  0  0  2  1  2  0  0  3  3  2  1  0  0  2  5  4  2
  2  8  5  3  4  7  3 12  2  0  2  0  4 12  2  4  4  7  2  1  3  1 10 12
  0 10 18  3 15  2  1 12 17  3 13 18  2 22 17  5 14 17  1  3 17  5 19  1
  3  3 15 13 20 17  5]"
2800,342,1.0,8,2,554.0873975753784,180.7121229171753,0,716800,4312644,37617247,"[ 2  0  3  0  3  1  2  3  0  2  1  2  5  1  2  2  4  4  0  0  2  1  8  2
  2  3  6  3  4  7  0  9 12  0  0  6  3 13  7  4  4  7  2  1  3  5  1  9
  0 10 18  4 12 12  5 16 18  0 18 18  5 23 16  3  3  1  1 22 17  3 23  1
  5 22  2 13 20 17  5]"
2900,342,1.0,8,2,572.1022763252258,180.14876127243042,0,742400,4462996,38804447,"[ 2  0  3  0  3  1  0  0  0  2  1  2  5  3  1  3  8  2  0  0  2  3  3  8
  0  7  8  3  4  7  1  2  8  4  3  3  4  6 10  4  4  7  2  1  3  1  3  1
  0 10 18  2 13  2  4 14 12  4  0 12  0 19 19  5 23  1  5 19 15  4 18 14
  2 14 23 13 20 17  5]"
3000,342,1.0,8,2,590.5691385269165,184.66859817504883,0,768000,4616021,40012242,"[ 2  0  3  0  1  1  0  1  3  2  1  2  3  3  2  3  8  2  0  0  2  3  5  6
  2  3  6  3  4  7  5  1  3  4  7  0  1  6  6  4  4  7  2  1  3  5  3 10
  0 10 18  5 10 18  1  2 18  3 12 14  1  1  3  1 21 14  3 18 15  3 23  2
  0 18  2 13 20 17  6]"
3100,342,1.0,8,2,608.9564507007599,183.87309074401855,0,793600,4768212,41214138,"[ 2  0  3  1  2  2  0  1  3  2  1  2  1  1  2  0  3  6  0  0  2  2  7  0
  3  5  4  3  4  7  5  0 12  3  4  0  1  8  4  4  4  7  2  1  3  4  3  0
  0 10 18  2 18  0  1  1 17  4 15 15  4  1  3  5  1 18  2  0 20  0 21 17
  2 16 18 13 20 17  6]"
3200,342,1.0,8,2,627.0769765377045,181.2052321434021,0,819200,4919349,42406780,"[ 2  0  3  4  1  3  0  1  3  2  1  2  0  2  3  3  8  7  0  0  2  4  7  1
  2  8  3  3  4  7  0  7  6  4  4  6  5 10  4  4  4  7  2  1  3  2  3  9
  0 10 18  1 12 18  5  1 18  2 13 13  3  1 16  4 16  2  3 20 15  4  1  3
  5 14 15 13 20 17  6]"
3300,342,1.0,8,2,645.2695708274841,181.92591667175293,0,844800,5070640,43603152,"[ 2  0  3  0  3  2  0  1  3  2  1  2  1  2  2  0  4  4  0  0  2  4  7  4
  4  0  1  3  4  7  1  9  1  5  1  5  2 12  5  2 11  7  2  1  3  3 15  9
  0 10 18  2 16 13  5 15 14  4 15 10  5  2 15  0  1 20  3  0 18  2 21  3
  2 20 19 13 20 11  6]"
3400,342,1.0,8,2,663.5184209346771,182.48847484588623,0,870400,5224450,44817971,"[ 2  0  3  5  2  1  0  1  3  2  1  2  2  0  1  5  2  6  0  0  2  4  7  4
  5  3  7  3  4  7  4  9  2  3 10  2  3 12 10  3 12 11  2  1  3  4  0  3
  0 10 18  2 12  9  0 14 16  0  9 14  4  3  1  2 22 22  5 15 18  4  1 23
  3 15 21 13 20 11  6]"
3500,342,1.0,8,2,681.7271254062653,182.08701848983765,0,896000,5375705,46012995,"[ 2  0  3  1  3  2  0  1  3  2  1  2  1  1  2  3  0  3  0  0  2  4  7  4
  2  6  5  3  4  7  4  9  7  0  9 11  3 12  4  4  0  6  2  1  3  5 14 16
  0 10 18  1 18 14  5 18  2  0 14 11  3 20 22  5 23  1  5 22 23  0  1 21
  3  2 16 13 20 11  6]"
3600,342,1.0,8,2,699.5506420135498,178.23514223098755,0,921600,5522187,47173579,"[ 2  0  3  4  0  3  0  2  3  2  1  2  4  3  1  5  6  5  0  0  2  4  7  4
  2  0  4  3  4  7  2  6  4  4  5  7  5 10 11  2  4  3  2  1  3  0 11 18
  0 10 18  2 18 18  5 14 14  5 14  3  0 21 22  3 20  0  5 14 23  4 20 15
  1 21 18 13 20 11 21]"
3700,342,1.0,8,2,716.5832097530365,170.32564878463745,0,947200,5656627,48246256,"[ 2  0  3  4  3  2  0  2  2  2  1  2  4  0  1  3  4  6  0  0  2  4  7  4
  2  8  5  3  4  7  1  5  8  0  4  8  0 12  6  3  4  6  2  1  3  2 18 11
  0 10 18  2 18 18  0 11 16  0  3 10  3  0  0  5 16 18  5 16 18  5 21  2
  5 14 22 13 20 11 21]"
3800,342,1.0,8,2,733.5322725772858,169.49060201644897,0,972800,5789322,49304908,"[ 2  0  3  2  0  3  3  3  3  2  1  2  3  3  3  2  1  7  0  0  2  4  7  4
  3  5  6  3  4  7  2  7  8  3  5 11  4 11  8  3  4  9  2  1  3  4  2  3
  0 10 18  2 18 18  1 13  3  1 17 10  3 18 23  4 21 20  1 23 18  2 15 19
  1 23 20 13 20 11 21]"
3900,342,1.0,8,2,750.4802513122559,169.47975873947144,0,998400,5924459,50381500,"[ 2  0  3  4  0  2  3  0  1  2  1  2  2  1  0  4  3  1  0  0  2  4  7  4
  4  2  1  3  4  7  1  0  8  0  4 12  0  0  9  5 11 10  2  1  3  0 11 11
  0 10 18  2 18 18  5 18 17  5  9  3  2 18 23  2 21 19  5 18 20  3  1  3
  1 15  3 13 20 11 21]"
4000,342,1.0,8,2,767.4026031494141,169.22349452972412,0,1024000,6059308,51455076,"[ 2  0  3  0  3  0  2  3  0  2  1  2  0  3  1  4  5  0  0  0  2  4  7  4
  4  8  3  3  4  7  3  4  3  4  9 12  0  1  3  1  2  0  2  1  3  5 15 16
  0 10 18  3 18 18  3 12  2  3  9  2  2 20 17  4 17 20  2 22 17  0 17  0
  2 15  0 13 20 11 21]"
4100,342,1.0,8,2,785.6404845714569,182.37878561019897,0,1049600,6211910,52659172,"[ 2  0  3  4  0  0  5  0  3  2  1  2  0  3  1  0  0  0  0  0  2  4  7  4
  4  5  2  3  4  7  0 10  5  0  9  3  2 10 11  0  4  0  2  1  3  0 15 17
  0 10 18  0 14 10  2 13  2  2  3  2  2 14 19  1 21 19  4  0 19  0  3 20
  0  3  2 13 20 11  8]"
4200,342,1.0,8,2,804.0017046928406,183.61217498779297,0,1075200,6365612,53872459,"[ 2  0  3  5  1  1  4  1  0  2  1  2  0  3  1  1  4  0  0  0  2  4  7  4
  0  7  0  3  4  7  5  3 13  1  2  8  5  5 12  5 12  0  2  1  3  5 18 11
  0 10 18  4 12  1  2 16 14  5 12 10  0 23 17  2 19  1  4  0 19  0  3 23
  4 18 17 13 20 11  8]"
4300,342,1.0,8,2,822.1810700893402,181.79362297058105,0,1100800,6517815,55073101,"[ 2  0  3  2  1  0  5  1  1  2  1  2  0  3  1  5  1  1  0  0  2  4  7  4
  0  8  8  3  4  7  0  3 13  5  0  3  4  4 11  0  6  2  2  1  3  4 18 12
  0 10 18  2 16 14  2 11 15  5 11 17  1 20 20  0 17 19  2 16 20  3 14 18
  0 18  3 13 20 11  8]"
4400,342,1.0,8,2,840.7526242733002,185.7155179977417,0,1126400,6669732,56273324,"[ 2  0  3  3  1  0  0  2  0  2  1  2  0  3  1  0  6  1  0  0  2  4  7  4
  0  2  1  3  4  7  0 10  0  4  4 13  4  5  5  3  6  2  2  1  3  4 14 10
  0 10 18  5  1 12  0 12  3  0 10 18  2 15  2  2 19  3  2 16  0  0 14 23
  0  3 14 13 20 11  8]"
4500,342,1.0,8,2,859.2318007946014,184.7917342185974,0,1152000,6824438,57494743,"[ 2  0  3  1  0  3  5  1  0  2  1  2  0  3  1  3  0  7  0  0  2  4  7  4
  3  2  5  3  4  7  0  3 10  4  7 10  0  5  9  4  2  0  2  1  3  2 14  9
  0 10 18  3  1 11  1 10  1  1  0 11  2 17 14  2 19 20  4 20  1  0 23 21
  2  1 18 13 20 11  8]"
4600,342,1.0,8,2,877.6158058643341,183.84002208709717,0,1177600,6977975,58706616,"[ 2  0  3  2  2  2  2  2  3  2  1  2  0  3  1  3  0  4  0  0  2  4  7  4
  4  7  4  3  4  7  4  9 13  0  3 11  3  3  4  0 12  5  2  1  3  3 15 15
  0 10 18  4 17 12  1 15 10  5  9 15  3 14 19  0 18  1  0  1  0  0 21 21
  2  1 15 13 20 11  8]"
4700,342,1.0,8,2,895.9159986972809,183.00190210342407,0,1203200,7132281,59923063,"[ 2  0  3  2  2  1  3  2  3  2  1  2  0  3  1  3  5  0  0  0  2  4  7  4
  0  8  6  3  4  7  0  6  0  0  7  7  0  6  2  5  2 12  2  1  3  2 15 10
  0 10 18  5  1 17  2  1 17  0  9 15  1  2 19  1 18  2  3 18  0  1 16 22
  2  1 15 13 20 11  8]"
4800,342,1.0,8,2,914.0715253353119,181.55523538589478,0,1228800,7285077,61129777,"[ 2  0  3  4  2  3  5  2  0  2  1  2  0  3  1  4  4  0  0  0  2  4  7  4
  4  0  6  3  4  7  1  6  0  0  2 11  4  4  1  4  8  8  2  1  3  3 12  0
  0 10 18  5 15 17  2  9  3  3 14  3  5 15 20  1 14  2  0 20 23  2 23  3
  4 18  0 13 20 11  8]"
4900,342,1.0,8,2,932.3281276226044,182.5659990310669,0,1254400,7438646,62344011,"[ 2  0  3  2  1  1  3  2  1  2  1  2  0  3  1  2  5  6  0  0  2  4  7  4
  2  8  3  3  4  7  0  6 11  2 12  2  1 13  9  4  9  0  2  1  3  4 18  0
  0 10 18  4 16 14  2 17  0  4  3 17  4 22  2  4 23  3  1 15 23  5 17  0
  5 17 22 13 20 11  8]"
5000,342,1.0,8,2,950.5836508274078,182.55520582199097,0,1280000,7588936,63529917,"[ 2  0  3  1  0  0  1  0  0  2  1  2  0  3  1  5  3  4  0  0  2  4  7  4
  2  7  5  3  4  7  5 12 12  3  0 11  5  4  1  4  1  1  2  1  3  4 10 11
  0 10 18  3 11  0  0 18 14  5 17  1  5 16 17  2  3  3  3  1  1  5 15  2
  5 23 15 13 20 11  8]"
5100,342,1.0,8,2,969.0877795219421,185.04125833511353,0,1305600,7743378,64749577,"[ 2  0  3  1  3  0  2  0  2  2  1  2  0  3  1  2  3  1  0  0  2  4  7  4
  5  5  1  3  4  7  3 11  6  3  4  9  5  8  7  1 12  7  2  1  3  5 10 18
  0 10  9  0 10  1  2  3 12  1  3  9  0 14 22  1  3 21  0 22 16  5 23 17
  2 18 14 13 20 11  8]"
5200,342,1.0,8,2,987.7285132408142,186.407310962677,0,1331200,7900242,65987914,"[ 2  0  3  4  1  1  0  2  0  2  1  2  0  3  1  2  3  1  0  0  2  4  7  4
  2  1  3  3  4  7  3  8  5  2  0 11  1  7  2  4 11  5  4 12  9  2 16  9
  0 10  9  0  1 18  5 10  1  4 11  0  2 16 16  0  3 22  2 20 22  2 23 15
  3  2 23 13 20 11  8]"
5300,342,1.0,8,2,1006.3978898525238,186.69373750686646,0,1356800,8057115,67225692,"[ 2  0  3  2  3  3  5  3  3  2  1  2  0  3  1  2  7  5  0  0  2  4  7  4
  2  1  3  3  4  7  4  1  3  2  7  6  2 13  1  2  2 11  2  4  8  4  0  3
  0 10 12  0 13 15  3 15 13  2  2 10  0 22 15  5  3  2  2  1 17  0 14  0
  5 15  2 13 20 11  8]"
5400,342,1.0,8,2,1025.0361931324005,186.3830065727234,0,1382400,8213451,68460057,"[ 2  0  3  3  3  2  4  1  0  2  1  2  0  3  1  0  0  8  0  0  2  4  7  4
  2  1  3  3  4  7  0  2  9  5  9  7  3  6  8  0  4  1  3  8 10  1  1  3
  0 10 12  5 16 10  0 13  9  4  9  9  1 18 16  3 14  3  5 15  2  4 16 19
  4  2  0 13 20 11  8]"
5500,342,1.0,8,2,1043.7033278942108,186.67132377624512,0,1408000,8368843,69688322,"[ 2  0  3  0  2  0  4  3  3  2  1  2  0  3  1  2  4  0  0  0  2  4  7  4
  2  1  3  3  4  7  1  5  2  2  0  0  5  4  2  4 10 10  1  4  9  4 13 11
  0 10 12  0  3 11  0 18  1  2 10 16  3  3 14  0 22  0  1 22  2  3  2 21
  0 19 15 13 20 11  8]"
5600,342,1.0,8,2,1062.1625599861145,184.59229230880737,0,1433600,8523837,70911758,"[ 2  0  3  2  0  0  4  2  3  2  1  2  0  3  1  2  3  3  0  0  2  4  7  4
  2  1  3  3  4  7  1 10 11  5  4 11  2 12 13  1  6 10  4  3 13  2 13  1
  0 10 12  4 14 11  1 14 17  0 18 12  4 23 17  4 14 16  4 22 15  3 18  1
  4 18 15 13 20 11  8]"
5700,342,1.0,8,2,1080.7563087940216,185.93745470046997,0,1459200,8678535,72134031,"[ 2  0  3  5  1  2  0  0  1  2  1  2  0  3  1  0  0  6  0  0  2  4  7  4
  2  1  3  3  4  7  3  4 13  0  9  7  5  0  0  0  4  3  3  2  1  5 13 17
  0 10 12  5  3  0  1 14  9  4  0  2  2  0  1  4  3 22  3  2 18  0 16 23
  2 23 17 13 20 11  8]"
5800,342,1.0,8,2,1099.1025557518005,183.4624457359314,0,1484800,8833505,73360630,"[ 2  0  3  2  2  1  3  1  3  2  1  2  0  3  1  1  6  6  0  0  2  4  7  4
  2  1  3  3  4  7  4  0  1  4  9  8  5  2  2  1 13  8  5  9  5  2 18 10
  0 10 12  3 12 14  2  9 11  5  3 10  1 21  3  0 22  0  5 20  2  0 15 20
  1  2 17 13 20 11  8]"
5900,342,1.0,8,2,1117.6077058315277,185.05147457122803,0,1510400,8989542,74593491,"[ 2  0  3  0  2  3  3  2  0  2  1  2  0  3  1  4  1  8  0  0  2  4  7  4
  2  1  3  3  4  7  0 12  0  0  1 11  3  9 12  1  0  2  3  1  1  1 11 10
  0 10 12  3  3  0  4 16 11  0  1 15  1  1 19  0 17 23  3  0 15  3  3 18
  2 21 15 13 20 11  8]"
6000,342,1.0,8,2,1136.1773958206177,185.69687604904175,0,1536000,9147344,75838621,"[ 2  0  3  5  1  3  5  1  1  2  1  2  0  3  1  5  4  2  0  0  2  4  7  4
  2  1  3  3  4  7  1  7  6  5  0  1  1 11 10  4 10  1  2  4  6  1 13 15
  0 10 12  2 14  9  5 13 17  3  9  1  3 18  3  5 20 14  1 18 15  0 20 15
  1 16 17 13 20 11  8]"
6100,342,1.0,8,2,1154.795949459076,186.1855125427246,0,1561600,9303740,77073455,"[ 2  0  3  0  0  3  3  2  2  2  1  2  0  3  1  0  1  8  0  0  2  4  7  4
  2  1  3  3  4  7  0  9  6  1  1 10  5 11  8  4  9  3  5  5 10  5 16  0
  0 10 12  3  1 13  5 12 17  1  3  1  5 17  2  1  3 19  2  2 21  1  0 23
  2 18 22 13 20 11  8]"
6200,342,1.0,8,2,1173.1388502120972,183.42895984649658,0,1587200,9459143,78301057,"[ 2  0  3  0  3  3  4  3  0  2  1  2  0  3  1  3  3  0  0  0  2  4  7  4
  2  1  3  3  4  7  0  2  6  5  0 10  5 10  4  4  0  5  2 13 10  5 14  1
  0 10 12  3 12 11  5 10  9  1 15 18  1 19  2  1  1 15  2 14 20  3 18 15
  5 20 15 13 20 11  8]"
6300,342,1.0,8,2,1191.8102865219116,186.71433925628662,0,1612800,9615101,79532833,"[ 2  0  3  2  1  1  2  2  3  2  1  2  0  3  1  4  3  1  0  0  2  4  7  4
  2  1  3  3  4  7  0  9  1  3  5  3  1 12  1  4  9  1  3  5  0  3 11 11
  0 10 12  0 13 18  5  3 13  2  3  3  2 16 18  5 19  0  5 22 22  2 18 14
  0 20  3 13 20 11  8]"
6400,342,1.0,8,2,1210.1941885948181,183.83899211883545,0,1638400,9769579,80752028,"[ 2  0  3  2  1  0  1  2  2  2  1  2  0  0  1  2  8  7  0  0  2  4  7  4
  2  1  3  3  4  7  5  5 11  4  5  4  1 10  0  0  3  1  3  5  4  5  9 16
  0 10 12  2 18  2  5  3 17  3 11 15  0 16 17  4 19 20  3 18  0  4 23 22
  3 23  2 13 20 11 17]"
6500,342,1.0,8,2,1228.313918352127,181.1972689628601,0,1664000,9918588,81927483,"[ 2  0  3  4  3  1  5  1  0  2  1  2  0  1  3  5  2  4  0  0  2  4  7  4
  2  1  3  3  4  7  1  8  3  5  6  9  1 13 13  0  3  1  2  6 11  0  2 17
  0 10 12  1 18  1  3  2 18  3 12 12  3 14 18  5 19 14  2 19  3  0  1 22
  3 14 16 13 20 11 17]"
6600,342,1.0,8,2,1246.3901364803314,180.76215505599976,0,1689600,10069193,83115999,"[ 2  0  3  4  3  0  5  3  3  2  1  2  4  2  0  1  3  6  0  0  2  4  7  4
  2  1  3  3  4  7  4  7  2  3  6  5  2  6  2  0  3  1  1  7  0  0 14 11
  0 10 12  3 16 14  5 16 18  5 13 18  1 20  3  5 23 22  2 21 19  5 18 22
  4 18  2 13 20 11 17]"
6700,342,1.0,8,2,1264.518601179123,181.28462076187134,0,1715200,10219116,84301284,"[ 2  0  3  1  2  2  3  3  1  2  1  2  4  3  0  0  3  3  0  0  2  4  7  4
  2  1  3  3  4  7  5  7  7  2 10  1  2 10  2  0  3  1  4  9  8  4 18  3
  0 10 12  2 17 12  0  2 16  2  1 10  0 18 16  3 20 22  4  3 16  5 16 21
  0 19 23 13 20 11 17]"
6800,342,1.0,8,2,1282.6231124401093,181.0450839996338,0,1740800,10368375,85479591,"[ 2  0  3  3  3  0  2  2  1  2  1  2  1  2  2  1  1  8  0  0  2  4  7  4
  2  1  3  3  4  7  5 12  8  5  0 12  2  3  4  0  3  1  4  1  8  4 12 10
  0 10 12  1 15  0  0 13  3  1  0 11  0 17  0  4 19  3  0  1 14  1 14 23
  1  1 23 13 20 11 17]"
6900,342,1.0,8,2,1300.5824928283691,179.5937728881836,0,1766400,10518322,86662390,"[ 2  0  3  2  2  2  2  1  1  2  1  2  2  2  0  1  3  8  0  0  2  4  7  4
  2  1  3  3  4  7  1 12  8  1  1  5  5 12  4  0  3  1  4 10  6  4  0 18
  0 10 12  1 17 11  0 11 16  1  0  3  3 20 15  4 17 15  2  3  0  4  0 14
  3 15  1 13 20 11 17]"
7000,342,1.0,8,2,1318.554176568985,179.71681118011475,0,1792000,10667620,87841907,"[ 2  0  3  4  3  0  3  2  0  2  1  2  3  0  1  5  2  3  0  0  2  4  7  4
  2  1  3  3  4  7  3  2  2  1 12  6  0 11 10  0  3  1  1 13 12  5  1 17
  0 10 12  1  1 18  1 15 18  4 10  0  4 15 23  5 22 19  2 17 15  1 16 23
  4 21  3 13 20 11 17]"
7100,342,1.0,8,2,1336.720806837082,181.66627645492554,0,1817600,10816820,89020735,"[ 2  0  3  3  1  1  1  3  1  2  1  2  1  1  2  4  0  3  0  0  2  4  7  4
  2  1  3  3  4  7  5  0  8  4  0  5  1  3  8  0  3  1  3 12  0  3 17 10
  0 10 12  1 12  1  1 13 16  5  9 16  0 14  1  5 17 19  3  0 18  4  1  1
  4 21  0 13 20 11 17]"
7200,342,1.0,8,2,1354.7044446468353,179.83635187149048,0,1843200,10966606,90202690,"[ 2  0  3  3  3  2  1  3  2  2  1  2  0  3  2  4  4  8  0  0  2  4  7  4
  2  1  3  3  4  7  5  9  5  0  1  0  3  4  2  0  3  1  0 12  4  0 11 18
  0 10 12  2 12 18  4  2 17  3 14 17  2 15  3  2 21 16  3  1 18  3 22  0
  1 15 17 13 20 11 17]"
7300,342,1.0,8,2,1372.7845335006714,180.8008575439453,0,1868800,11115258,91375832,"[ 2  0  3  3  0  3  1  0  1  2  1  2  1  2  2  4  4  3  0  0  2  4  7  4
  2  1  3  3  4  7  0 11 10  2  5  0  1  4  4  0  3  1  5  5  1  1 16  9
  0 10 12  0 16  0  3  0 18  5 17  0  3 15 21  1  2 16  3 18 23  0  1 17
  4  0 14 13 20 11 17]"
7400,342,1.0,8,2,1390.9742140769958,181.89677953720093,0,1894400,11264175,92552269,"[ 2  0  3  5  0  3  1  0  2  2  1  2  5  2  2  2  0  6  0  0  2  4  7  4
  2  1  3  3  4  7  0 13 11  1  7 13  3  9 13  0  3  1  3  9 13  4 17 13
  0 10 12  1  1  1  2  0 17  0 14 12  5 19  1  0  0  1  1  3 22  2 19 19
  3 14 20 13 20 11 17]"
7500,342,1.0,8,2,1409.1767070293427,182.02490091323853,0,1920000,11415162,93743563,"[ 2  0  3  2  1  3  4  2  3  2  1  2  0  1  0  4  1  8  0  0  2  4  7  4
  2  1  3  3  4  7  3  2  8  2  3 11  3  8 12  0  3  1  3  7  8  0  9 16
  0 10 12  2 11 17  2 10 17  3 12 14  0 21  2  1 22 21  4 15  2  4  3  2
  3  2  1 13 20 11 17]"
7600,342,1.0,8,2,1427.6024277210236,184.25718069076538,0,1945600,11570314,94968714,"[ 2  0  3  0  1  3  4  3  0  2  1  2  3  1  0  3  5  2  0  0  2  4  7  4
  2  1  3  3  4  7  1 13 10  2  3  1  2 12 10  4  6  5  2  2  4  4  2  9
  0 10 12  1  3  0  1 15  9  2 18  3  1 22 21  0 23 17  0  3 20  3 19  2
  4 17 22 13 20 11  5]"
7700,342,1.0,8,2,1445.746640920639,181.4421010017395,0,1971200,11722998,96173561,"[ 2  0  3  0  1  3  4  2  3  2  1  2  0  3  2  3  0  2  0  0  2  4  7  4
  1  6  1  3  4  7  5  9  7  2  3  1  2 11  3  1  4  1  5 11 10  4 17 16
  0 10 15  4  1 15  1  2 10  2 18 17  3 15 19  0  0  1  2  0  0  2 22 17
  0  3 17 13 20 11  5]"
7800,342,1.0,8,2,1463.892148733139,181.45504474639893,0,1996800,11876014,97381419,"[ 2  0  3  0  1  3  2  0  3  2  1  2  1  3  3  3  3  3  0  0  2  4  7  4
  5  0  7  3  4  7  3  2  3  2  3  1  1 11  6  4  3  1  0  4  5  5  9  3
  0 10 15  2 12 16  2 15  1  3 15 13  0 14 23  4 19  3  4 14  1  0  3 15
  3  0 18 13 20 11  5]"
7900,342,1.0,8,2,1482.5001771450043,186.08025789260864,0,2022400,12027383,98576084,"[ 2  0  3  0  1  3  4  0  2  2  1  2  4  3  2  4  7  2  0  0  2  4  7  4
  1  5  4  3  4  7  1 13 10  2  3  1  2 10  0  4  2  2  4 11  4  5 12  2
  0 10 15  0  9  2  0 17 18  3 16  1  5  1 21  0 22  1  4 16  0  0 17  1
  3 14 23 13 20 11  5]"
8000,342,1.0,8,2,1500.8855633735657,183.85383367538452,0,2048000,12180147,99782379,"[ 2  0  3  0  1  3  3  2  2  2  1  2  2  3  0  4  6  2  0  0  2  4  7  4
  2  5  0  3  4  7  1  6  4  2  3  1  2  2 10  2  7 13  2  8  0  2 18  0
  0 10 15  4  9  9  4 15 10  2  1 12  1 19 17  2 18 19  5 15 14  5 18 15
  2  0 20 13 20 11  5]"
8100,342,1.0,8,2,1519.206874370575,183.21308135986328,0,2073600,12333570,100993159,"[ 2  0  3  0  1  3  0  2  0  2  1  2  1  3  2  2  0  0  0  0  2  4  7  4
  3  5  7  3  4  7  4  5  2  2  3  1  3 12  8  1  1 12  2  6  0  1 15 15
  0 10 15  0 12 13  0 15 12  3 14 16  4 22 20  1 17 15  3 16 18  3 15  0
  2 18 23 13 20 11  5]"
8200,342,1.0,8,2,1537.4214353561401,182.14558362960815,0,2099200,12485649,102194841,"[ 2  0  3  0  1  3  2  2  3  2  1  2  3  1  3  2  7  0  0  0  2  4  7  4
  4  4  6  3  4  7  1 12 10  2  3  1  2  2  9  2 13 10  4  6  6  0 18 11
  0 10 15  2 16 16  5 12 17  2 11  1  4 20 14  3 23 21  1 22  2  3  2 15
  5 14 23 13 20 11  5]"
8300,342,1.0,8,2,1555.7508821487427,183.29444408416748,0,2124800,12638428,103402376,"[ 2  0  3  0  1  3  3  0  2  2  1  2  0  1  0  2  4  0  0  0  2  1  7  4
  4  7  4  3  4  7  0  7  0  2  3  1  4 10  0  2  0  8  5  6  3  4  0 16
  0 10 15  4  9 18  1 17 10  0 11 13  1 16  2  5 18 20  0 22 20  1 21 21
  3 18 22 13 20 12  5]"
8400,342,1.0,8,2,1573.7214255332947,179.70539331436157,0,2150400,12789147,104591536,"[ 2  0  3  0  1  3  5  1  2  2  1  2  1  0  3  1  5  6  0  0  2  1  1  7
  4  7  4  3  4  7  3  9 13  2  3  1  3 13 12  2  6 12  0 12  8  3 12 15
  0 10 15  2 10 10  5 18 16  2  2 14  5 15 14  1 21 18  4  2 18  1 18 14
  2 20  2 13 20 12  5]"
8500,342,1.0,8,2,1591.9652676582336,182.43839502334595,0,2176000,12942073,105799336,"[ 2  0  3  0  1  3  5  3  2  2  1  2  4  3  3  0  0  3  0  0  2  0  2  7
  4  7  4  3  4  7  3  1  8  2  3  1  2  1 12  4  6 13  4  0  0  5 18 15
  0 10 15  5 12 10  0 13  1  4 13 15  1 19 16  5 17 18  0  3 14  4 19 22
  0  1 15 13 20 12  5]"
8600,342,1.0,8,2,1610.3611109256744,183.95840883255005,0,2201600,13095599,107011117,"[ 2  0  3  0  1  3  1  1  2  2  1  2  2  3  2  5  8  4  0  0  2  1  7  8
  4  7  4  3  4  7  2 12  4  2  3  1  5  9 10  2  0  5  0  0  0  0 17  2
  0 10 15  2 12 14  4 18 18  1 14 16  1  0 19  3 14 16  0 21 16  0 14  2
  1  1  2 13 20 12  5]"
8700,342,1.0,8,2,1629.0108375549316,186.49723768234253,0,2227200,13249751,108228402,"[ 2  0  3  0  1  3  4  1  1  2  1  2  0  3  0  3  5  6  0  0  2  4  0  8
  4  7  4  3  4  7  1  1  7  2  3  1  3 13  7  2  8  1  4  6  0  3 10  0
  0 10 15  5 18 13  3 12 18  3  2 12  3 23 18  2 16 15  5  3 19  2 23 22
  3 22 14 13 20 12  5]"
8800,342,1.0,8,2,1647.3653497695923,183.54509830474854,0,2252800,13402413,109434010,"[ 2  0  3  0  1  3  3  3  1  2  1  2  5  1  3  4  7  6  0  0  2  4  7  1
  4  7  4  3  4  7  4  7  2  2  3  1  2  1 13  4  4  0  1  4 10  4 13  2
  0 10 15  1 18 13  4 14 18  4 15  1  2  1 17  1 14 14  3 19 19  1 19 16
  3 22  1 13 20 12  5]"
8900,342,1.0,8,2,1665.3400518894196,179.746994972229,0,2278400,13552118,110617243,"[ 2  0  3  0  1  3  0  3  1  2  1  2  5  1  1  2  0  6  0  0  2  4  8  7
  4  7  4  3  4  7  4  9 10  2  3  1  4  1  2  4 12  7  0  7  0  4  9 15
  0 10 15  0  3 11  4 14 12  4  9  3  3 21  2  0 16 16  3  2  3  2 15 21
  0 22 23 13 20 12  5]"
9000,342,1.0,8,2,1683.3667056560516,180.26650190353394,0,2304000,13703815,111815086,"[ 2  0  3  0  1  3  2  1  2  2  1  2  2  3  2  2  8  7  0  0  2  2  1  5
  4  7  4  3  4  7  0  1 13  2  3  1  3  3  6  2 12 10  3  8  4  4  1  0
  0 10 15  0 14 10  0 11  3  2 13 14  3 19 18  0 15  1  1 19 19  0  3 16
  0 20 16 13 20 12  5]"
9100,342,1.0,8,2,1701.725105524063,183.58397483825684,0,2329600,13856938,113023470,"[ 2  0  3  0  1  3  2  3  0  2  1  2  0  3  0  2  7  7  0  0  2  5  3  0
  4  7  4  3  4  7  2  7  1  2  3  1  4 12  0  4  0  1  5  5  4  3  2  2
  0 10 15  2  1 10  2 18 11  4  1 11  3  1 23  1 21  3  4  1 18  1 17  0
  1 21 22 13 20 12  5]"
9200,342,1.0,8,2,1720.1070683002472,183.8196039199829,0,2355200,14008796,114221966,"[ 2  0  3  0  1  3  2  3  0  2  1  2  2  1  1  1  7  3  0  0  2  3  5  6
  4  7  4  3  4  7  5 13 11  2  3  1  2 10  4  3  1  4  0  6  3  5  2 10
  0 10 15  1 15 10  5 15  1  5  3 15  3 22  2  0 21 14  4  2 16  2 17  2
  4 23  0 13 20 12  5]"
9300,342,1.0,8,2,1738.3456707000732,182.385995388031,0,2380800,14160625,115420815,"[ 2  0  3  0  1  3  1  0  3  2  1  2  0  3  1  5  6  3  0  0  2  1  8  1
  4  7  4  3  4  7  2  2  1  2  3  1  5  7 10  5  0  1  0 11  3  5  9 12
  0 10 15  2 10 17  3 10 17  0  0 13  5 22 14  2 16 16  5  0 21  0  3 22
  3  1 14 13 20 12  5]"
9400,342,1.0,8,2,1756.8489162921906,185.0324296951294,0,2406400,14312879,116623621,"[ 2  0  3  0  1  3  0  0  0  2  1  2  5  3  1  5  7  3  0  0  2  0  3  0
  4  7  4  3  4  7  0  5  8  2  3  1  4  9  2  3  8  3  5  0  5  0 12 14
  0 10 15  5 14 18  2 15 18  0  9 18  1 22 21  4 16 14  5 15  3  0 15 16
  3 21  0 13 20 12  5]"
9500,342,1.0,8,2,1775.1194622516632,182.70543575286865,0,2432000,14467737,117845672,"[ 2  0  3  0  1  3  1  1  2  2  1  2  2  1  1  4  1  0  0  0  2  0  2  6
  4  7  4  3  4  7  0 13 11  2  3  1  4  8  9  5  8 12  2  0  9  4 14  0
  0 10 15  4  0 12  5 15  9  0 15 15  2 22 22  1 15  2  2  3 20  1 22  2
  5 20 18 13 20 12  5]"
9600,342,1.0,8,2,1793.4060728549957,182.86607265472412,0,2457600,14620685,119053226,"[ 2  0  3  0  1  3  1  2  3  2  1  2  0  0  3  1  0  3  0  0  2  1  5  2
  4  7  4  3  4  7  3  9  3  2  3  1  3  7  9  4 13 11  5  4  8  0 12  3
  0 10 15  5  0 16  2  0  1  3  3 15  1  0  0  1 21 20  0  3 19  3 17  2
  4 19 18 13 20 12  5]"
9700,342,1.0,8,2,1811.6176137924194,182.11537837982178,0,2483200,14772420,120251649,"[ 2  0  3  0  1  3  4  3  2  2  1  2  2  3  1  1  4  5  0  0  2  4  7  2
  4  7  4  3  4  7  5 10  0  2  3  1  4  0 12  0  0  2  4  1  4  5 14 11
  0 10 15  5 10 16  5 13 15  4 14 14  2 21  0  3  1  0  4 19  1  5 23 19
  3 15 15 13 20 12  5]"
9800,342,1.0,8,2,1828.7426455020905,171.2502884864807,0,2508800,14909288,121340106,"[ 2  0  3  0  1  1  1  0  2  2  1  2  4  2  0  0  2  0  0  0  5  2  0  4
  4  7  4  3  4  7  3  1  2  2  3  1  1  1 13  3  3  3  5  6  2  2  0  0
  0  9 15  3 16 14  1  9 15  1 15 14  5 21 16  5 23 20  1 21 20  5 23 15
  2 15 15 13 20 12 28]"
9900,342,1.0,8,2,1846.6327068805695,178.90058755874634,0,2534400,15054016,122486831,"[ 2  0  3  0  1  3  5  2  1  2  1  2  5  2  1  0  2  0  1  4  1  1  2  1
  4  7  4  3  4  7  3  7  4  2  3  1  5 11  2  3  6  7  1  4  7  1 18 17
  0  9 15  0 18 10  0  3  1  3 11 11  1 23  1  0  2 23  0 19 15  3 15 19
  3 23  2 13 20 12  5]"
10000,342,1.0,8,2,1864.6040651798248,179.71355676651,0,2560000,15202820,123661767,"[ 2  0  3  0  1  3  4  3  0  2  1  2  4  1  0  0  2  0  1  0  5  4  7  6
  4  7  4  3  6  8  1  7  3  2  3  1  4  4  2  3  2  5  3  4  7  0  3 11
  0  9 15  4  0 10  3 10  9  3  2 18  5 20 22  2  0  1  2 17 15  3 21 21
  0 19 16 18 20 12  5]"
10100,342,1.0,8,2,1882.397392988205,177.93325185775757,0,2585600,15350866,124829997,"[ 2  0  3  0  1  3  2  2  1  2  1  2  5  1  3  0  2  0  0  8  0  4  8  5
  4  7  4  2  5  8  0  4 13  2  3  1  4 11  8  0  7  3  3  4  7  0 12 10
  0  9 15  0 10 10  1 13 13  4 16 14  0 14  3  5 18 16  1  3 20  5 14 17
  3 15 18 18 20 12  5]"
10200,342,1.0,8,2,1900.3163514137268,179.1895604133606,0,2611200,15499165,126000852,"[ 2  0  3  0  1  3  5  3  2  2  1  2  4  2  0  0  2  0  4  4  2  2  4  6
  4  7  4  1  0  3  5  2  4  2  3  1  0  8 13  5  1  9  3  4  7  5 10 18
  0  9 15  4 11  9  4 11 16  1 15 16  0 19  1  5 18 21  4 22 20  3 20 20
  3 15 16 18 20 12  5]"
10300,342,1.0,8,2,1918.2675068378448,179.51152324676514,0,2636800,15647258,127170102,"[ 2  0  3  0  1  3  0  1  3  2  1  2  2  3  0  0  2  0  5  0  0  2  0  1
  4  7  4  4  1  6  5  6  7  2  3  1  0 10  0  3 12 10  3  4  7  2  1 18
  0  9 15  4 15 15  5 15 15  2 13  0  3 14 14  2 18  1  1  3 17  1 20 21
  3 17 22 18 20 12  5]"
10400,342,1.0,8,2,1936.0021843910217,177.3467493057251,0,2662400,15794075,128330224,"[ 2  0  3  0  1  3  5  3  0  2  1  2  5  2  0  0  2  0  2  4  5  0  4  4
  4  7  4  5  1  8  1 13 11  2  3  1  3 13 10  0  1 10  3  4  7  3 10 17
  0  9 15  4  3  3  1 12 15  1 18 18  3  0 14  4 15 15  1 17 20  2 19 19
  0 21 21 18 20 12  5]"
10500,342,1.0,8,2,1953.9198474884033,179.17660236358643,0,2688000,15942042,129498886,"[ 2  0  3  0  1  3  0  3  3  2  1  2  2  0  0  0  2  0  5  7  0  3  1  8
  4  7  4  0  3  0  2  9  4  2  3  1  3  1  0  2 10 13  3  4  7  0 13  9
  0  9 15  2  1 18  1 14 13  3 13 11  3 15 16  0 20 20  4 19 23  5 21 20
  0 15  0 18 20 12  5]"
10600,342,1.0,8,2,1972.0279664993286,181.08115911483765,0,2713600,16091144,130676830,"[ 2  0  3  0  1  3  5  1  1  2  1  2  1  2  3  0  2  0  3  4  0  5  3  5
  4  7  4  5  8  8  3  1  8  2  3  1  0 11  9  3 13  5  3  4  7  3 12  3
  0  9 15  5 18  9  4 13 17  5  2 15  4  2  1  1  3  1  0  1 17  2 19  1
  1 23  3 18 20 12  5]"
10700,342,1.0,8,2,1990.0214343070984,179.93465185165405,0,2739200,16239973,131852164,"[ 2  0  3  0  1  3  1  3  1  2  1  2  2  3  3  0  2  0  2  0  1  5  3  7
  4  7  4  5  1  8  0  1  2  2  3  1  3  1  1  5  5  9  3  4  7  3 14 15
  0  9 15  5 18  2  3  1  0  5 15  0  2  3 15  1 14 16  4  2 18  5 19 21
  0 16  0 18 20 12  5]"
10800,342,1.0,8,2,2007.8644025325775,178.42965602874756,0,2764800,16386371,133007487,"[ 2  0  3  5  2  2  1  2  1  2  1  2  1  3  2  0  2  0  0  3  1  5  7  0
  4  7  4  0  4  1  2 13  9  2  3  1  0  8  4  3  9 13  3  4  7  4 13 14
  0  9 15  5  3 14  0 14  3  4 18 17  5 14 15  4 15 17  3 18  1  4 22 19
  4 15 15 18 20 12 10]"
10900,342,1.0,8,2,2025.4681494235992,176.03744268417358,0,2790400,16530779,134145905,"[ 2  0  3  3  2  1  5  3  2  2  1  2  4  2  1  5  4  0  0  3  1  4  8  0
  4  7  4  0  0  2  2  0 13  2  3  1  2 13  9  5  9 10  3  4  7  0 15  3
  0 13 15  2 13 13  0 12  1  0  2 13  2 20 17  1 19 19  0 18  1  3 16 20
  5 20 18 18 20 12 10]"
11000,342,1.0,8,2,2043.0301280021667,175.61976194381714,0,2816000,16675598,135286369,"[ 2  0  3  0  0  3  3  2  0  2  1  2  2  1  2  4  2  8  0  3  1  0  6  3
  4  7  4  0  0  2  1 12 10  2  3  1  3  4  0  0 12  7  3  4  7  3 17  3
  0 13 15  4 13  0  0 11 12  2 17 15  4 18 20  4  2 23  4 15 16  2  1 14
  4 22 18 18 20 12 10]"
11100,342,1.0,8,2,2060.7789998054504,177.4886918067932,0,2841600,16820123,136426035,"[ 2  0  3  5  2  3  1  2  1  2  1  2  0  0  2  2  2  8  0  3  1  4  8  0
  4  7  4  0  0  2  1  6  3  2  3  1  0  0  3  0  2 11  3  4  7  2 10 11
  0 13 15  3  3  3  0  2 14  0  3 13  4 15 19  5 22  3  0 15 17  3 23 18
  4 21 21 18 20 12 10]"
11200,342,1.0,8,2,2078.266527414322,174.8752498626709,0,2867200,16961606,137543953,"[ 2  0  3  4  0  3  4  0  2  2  1  2  2  2  1  2  6  4  0  3  1  1  5  4
  4  8  4  0  0  2  5  3  9  2  3  1  4  8 10  5  9 13  5 10  4  1 15 11
  0 13 15  1 16  0  2 17 11  0 10 13  0  1  0  4 16 21  1 20 21  5 23  3
  0 22 17 23 20 12 10]"
11300,342,1.0,8,2,2095.506341934204,172.39811658859253,0,2892800,17100886,138644904,"[ 2  0  3  5  3  3  0  0  3  3  3  2  2  2  1  4  0  3  0  3  1  5  6  0
  4  8  4  0  0  2  1  2  1  2  3  1  5  8  9  3  4  3  3 11  0  1 12 12
  0 13 15  0 13 18  2  1  3  0 10 13  1  3 22  5 22 21  2 15 20  2 20 15
  4 23 23 23 20 12 10]"
11400,342,1.0,8,2,2112.8871114254,173.80765199661255,0,2918400,17242967,139766933,"[ 2  0  3  5  3  3  3  2  3  4  0  3  2  2  1  0  5  3  0  3  1  1  2  1
  4  8  4  0  0  2  3  2  1  2  3  1  3 13  3  3  9  1  5 11  7  1 12  3
  0 13 15  4  9 18  2 12  9  0 10 13  5  3 14  0 21 14  0 23 16  0  3 21
  5 15 15 23 20 12 10]"
11500,342,1.0,8,2,2130.1327295303345,172.45615482330322,0,2944000,17382867,140871823,"[ 2  0  3  5  2  2  4  3  1  0  1  3  2  2  1  5  7  5  0  3  1  0  8  4
  4  8  4  0  0  2  5 11 10  2  3  1  5 10  3  0 10  7  4 12 13  0 12 15
  0 13 15  2  0 10  5 10 18  0 10 13  3 17 17  1 20 19  2 22  2  3 20  2
  3 22 21 23 20 12 10]"
11600,342,1.0,8,2,2147.473931312561,173.41198444366455,0,2969600,17522021,141970822,"[ 2  0  3  4  1  3  2  3  0  5  3  0  2  2  1  3  6  3  0  3  1  0  7  7
  4  8  4  0  0  2  0  0  2  2  3  1  1  2  6  1 10 10  0 12  1  1  1  0
  0 13 15  1 10  1  3 12  3  0 10 13  4 17 22  0 22 14  0 16 19  2  3 20
  1 23 14 23 20 12 10]"
11700,342,1.0,8,2,2164.7400131225586,172.6607894897461,0,2995200,17663507,143088569,"[ 2  0  3  2  1  2  5  3  1  2  0  2  2  2  1  4  7  0  0  3  1  5  8  8
  4  8  4  0  0  2  0  2 11  2  3  1  4  0  5  1  4  0  4  0  0  4 11  2
  0 13 15  5  0  2  3  2 10  0 10 13  3  3  2  3  2 14  0 21  0  3 21  3
  1 15  0 23 20 12 10]"
11800,342,1.0,8,2,2182.439868211746,176.99852466583252,0,3020800,17804752,144206017,"[ 2  0  3  2  1  2  3  1  1  0  1  3  2  0  1  1  6  8  0  3  1  0  0  4
  4  5  4  0  0  2  5  4  8  2  3  1  5  3  5  1 12  9  3  7  5  2 11  9
  0 13 15  2 10 11  2 15  0  0 10 13  2 14 19  5 16 22  1 21  2  2 17 16
  2 15 17 23 20 12 10]"
11900,342,1.0,8,2,2199.6698668003082,172.2999620437622,0,3046400,17944591,145312901,"[ 2  0  3  2  1  2  2  2  2  4  3  1  2  1  0  4  1  0  0  3  1  3  8  5
  4  5  4  0  0  2  0 13  6  2  3  1  5 13  8  1  9  3  2  7  5  4 16 15
  0 13 15  2  2  2  1 16 10  0 10 13  3 16 20  0 14 15  0 20 18  2  3  1
  3 14 17 23 20 12 10]"
12000,342,1.0,8,2,2217.2089438438416,175.39074420928955,0,3072000,18085474,146425966,"[ 2  0  3  5  3  2  2  1  0  4  1  3  2  1  2  3  1  4  0  3  1  1  4  5
  4  8  4  0  0  2  2  0  6  2  3  1  2 13  0  2  6  5  1 12  5  4 15 14
  0 13 15  2 11  1  2 17 10  0 10 13  5 20 23  2 18 23  5 19 18  0 19 18
  4 15 14 23 20 12 10]"
12100,342,1.0,8,2,2234.460476398468,172.51529693603516,0,3097600,18226169,147537740,"[ 2  0  3  5  1  2  5  1  0  2  2  1  2  3  2  3  4  2  0  3  1  3  4  3
  4  7  4  0  0  2  5 11  6  2  3  1  3  9  7  0  9 10  3 10 13  5 18 10
  0 13 15  4 11 16  2  1 16  0 10 13  1 16 14  1 21 22  5  1  2  5 21  0
  1  3 15 23 20 12 10]"
12200,342,1.0,8,2,2251.736307144165,172.75827646255493,0,3123200,18366475,148646686,"[ 2  0  3  2  3  1  5  2  0  2  2  1  5  1  2  3  6  2  0  3  1  3  2  6
  4  7  4  0  0  2  5  8  2  2  3  1  5  3  9  2 10  0  3 10  8  1 13 11
  0 13 15  4 13  3  0 18 14  0 10 13  0 20 21  4 22 15  4 20  3  3  2 15
  2 23 15 23 20 12 10]"
12300,342,1.0,8,2,2269.120701789856,173.84392261505127,0,3148800,18508219,149766953,"[ 2  0  3  4  0  3  4  0  3  2  2  1  3  3  1  4  3  2  0  3  1  5  0  0
  4  7  4  0  0  2  1  5  4  2  3  1  1  7 11  1 13  7  5  9  3  2 13 11
  0 13 15  2 15  2  3 15 16  0 10 13  1 18 16  3 18 23  0  3 23  3 14 18
  5  2 15 23 20 12 10]"
12400,342,1.0,8,2,2286.464718580246,173.44013929367065,0,3174400,18647705,150868120,"[ 2  0  3  1  1  0  5  1  0  2  2  1  1  1  2  1  3  4  0  3  1  2  5  8
  4  7  4  0  0  2  5 10  8  2  3  1  4  8  2  0  6  4  5  6  0  5 18 17
  0 13 15  2  1 10  0 15  2  0 10 13  1  3 15  2  3 18  3 16 18  2 17 20
  0  1  1 23 20 12 10]"
12500,342,1.0,8,2,2303.867401599884,174.0268039703369,0,3200000,18788224,151977309,"[ 2  0  3  3  3  3  2  0  3  2  2  1  3  1  3  0  0  5  0  3  1  1  0  7
  4  7  4  0  0  2  3  8  0  2  3  1  5  4 11  3  8 11  4  9  9  5 10 14
  0 13 15  1  9 18  2 15 15  0 10 13  0 23  0  0 18  0  4 19  3  0 20 14
  5 16 22 23 20 12 10]"
12600,342,1.0,8,2,2321.1202352046967,172.52830743789673,0,3225600,18927395,153077922,"[ 2  2  1  4  2  2  2  0  3  2  2  0  0  0  2  4  5  5  0  3  1  3  2  7
  1  2  4  0  0  2  3 11  7  2  3  1  3  1 11  5  1  4  4  6  4  0  3 15
  0 13 15  5  0 17  2 14 18  0 10 13  2  3  1  0 22 16  3  2 21  0 15 20
  4  2 15 23 20 18 10]"
12700,342,1.0,8,2,2338.480115890503,173.59878063201904,0,3251200,19067413,154184709,"[ 2  2  1  2  2  3  2  0  3  2  1  2  0  2  2  5  3  5  0  3  1  1  7  1
  0  8  6  0  0  2  5 10 13  2  3  1  2  9  5  4  1  1  4  6  7  1 13 13
  0 13 15  4 12  9  4  3 10  0 10 13  1 23 18  0 23 14  0  2  3  5  1 16
  2 17  2 23 20 18 10]"
12800,342,1.0,8,2,2355.773946285248,172.93827772140503,0,3276800,19206542,155285190,"[ 4  2  3  2  3  0  3  0  0  2  1  2  2  2  3  4  2  0  0  3  1  1  2  4
  4  7  7  0  0  2  3  7 12  2  3  1  4  9 10  1 11  3  4  5  7  4 13 15
  0 13 15  0  1 13  2 16 18  0 10 13  4 21 23  3  1 22  4  2 22  2  3 22
  4  1 17 23 20 18 10]"
12900,342,1.0,8,2,2372.8559057712555,170.8195662498474,0,3302400,19344772,156379635,"[ 3  0  3  2  3  0  0  2  3  2  1  2  0  1  2  1  5  7  0  3  1  1  2  1
  1  0  2  0  0  2  4  9  5  2  3  1  1  3  9  0 12  8  4  5  7  3 15 17
  0 13 15  4 13 18  5  1 13  0 10 13  3 20 21  2 17 19  3 22 22  4  3 22
  4 22  1 23 20 18 10]"
13000,342,1.0,8,2,2389.903804540634,170.47896146774292,0,3328000,19482447,157468332,"[ 2  0  0  2  3  0  3  2  3  2  1  2  3  3  2  5  6  7  0  3  1  5  8  0
  0  0  8  0  0  2  4  8  7  2  3  1  0 12 13  0 10  8  4  5  7  2 17  3
  0 13 15  3 13 10  1 10 16  0 10 13  5  2 20  3 14 20  4  2 17  0  3  1
  1 15 14 23 20 18 10]"
13100,342,1.0,8,2,2407.045196056366,171.4138889312744,0,3353600,19621286,158565411,"[ 1  1  2  2  3  0  0  0  2  2  1  2  2  0  1  4  7  0  0  3  1  3  5  0
  4  3  2  0  0  2  0  6  3  2  3  1  0  7 11  2  2 13  4  5  7  5 17  3
  0 13 15  5 12 18  3  2  9  0 10 13  3  3 14  2 14 18  4  0  1  5  3 22
  0  1 22 23 20 18 10]"
13200,342,1.0,8,2,2424.183616399765,171.384174823761,0,3379200,19758028,159645651,"[ 0  1  3  2  3  0  2  2  1  1  1  1  4  1  3  2  4  2  0  3  1  1  2  7
  2  1  2  0  0  2  4  5 10  2  3  1  4  5  8  0  2  2  4  5 12  5  1 13
  0 13 15  0  0 13  1 14 12  0 10 13  3 22 14  4 14 23  2 15 15  4  3 22
  2 20  3 23 20 18 10]"
13300,342,1.0,8,2,2441.783968448639,176.0034942626953,0,3404800,19897688,160749106,"[ 4  1  1  2  3  0  2  2  1  4  3  1  2  1  2  1  0  6  0  3  1  5  3  1
  0  0  2  0  0  2  1 12 11  2  3  1  3 13 13  4 10 12  4  5  6  1 10 13
  0 13 15  4 11  1  2  9  9  0 10 13  2  1 21  2 22 16  4  2 16  4 20 17
  2 19  3 23 20 18 10]"
13400,342,1.0,8,2,2459.2634100914,174.7943878173828,0,3430400,20036956,161852197,"[ 3  0  3  2  3  0  2  2  1  2  2  3  2  3  1  3  5  8  0  3  1  0  5  0
  2  3  1  0  0  2  2  3  1  2  3  1  2  3  0  3  7  3  4  5  6  0 16  3
  0 13 15  5 14 11  0 15 16  0 10 13  1 14  1  1 15 22  0 16  3  0 20 15
  1 18 18 23 20 18 10]"
13500,342,1.0,8,2,2476.354978084564,170.91565132141113,0,3456000,20174718,162941717,"[ 0  2  3  2  3  0  2  2  1  4  1  2  1  0  1  4  6  7  0  3  1  0  4  3
  4  2  0  0  0  2  4  9  9  2  3  1  4 11 13  3 10  8  4  5  6  5 12  0
  0 13 15  3 16  1  5 16 11  0 10 13  2 17  1  4 18 21  4 22 21  2 23  2
  0 19 18 23 20 18 10]"
13600,342,1.0,8,2,2493.7856130599976,174.306321144104,0,3481600,20314977,164051798,"[ 2  0  2  2  3  0  2  2  1  2  0  3  2  0  0  5  7  2  0  3  1  2  2  2
  4  8  3  0  0  2  4 11 12  2  3  1  5 13  0  5 12 10  4  5  6  5 16 18
  0 13 15  4 10 12  4  9 15  0 10 13  4 21 17  4 23  0  4 15  3  3  2 19
  4 22  3 23 20 18 10]"
13700,342,1.0,8,2,2511.1046648025513,173.1904911994934,0,3507200,20454364,165155153,"[ 3  3  0  2  3  0  2  2  1  5  0  1  2  1  2  0  7  4  0  3  1  0  4  7
  3  3  3  0  0  2  1  4 12  2  3  1  0  5  3  1  6  4  4  5  8  1  1 11
  0 13 15  5  0 12  1 17  2  0 10 13  3 16  1  2 22 14  4  0 19  1 21 17
  5  1  1 23 20 18 10]"
13800,342,1.0,8,2,2528.3246936798096,172.20025539398193,0,3532800,20593783,166259150,"[ 1  2  1  2  3  0  2  2  0  4  2  0  2  1  2  3  7  2  0  3  1  4  0  7
  5  6  5  0  0  2  1  5  2  2  3  1  5  9  2  1  5  6  4  5  8  5 16  2
  0 13 15  5  0  1  5 13 14  0 10 13  2 22 20  4 18  0  0 19  0  5 23 22
  5 18 14 23 20 18 10]"
13900,342,1.0,8,2,2545.641484975815,173.1678867340088,0,3558400,20734099,167368398,"[ 2  2  1  2  3  0  0  3  0  4  0  3  2  1  2  4  6  4  0  3  1  5  5  8
  5  1  8  0  0  2  3  5  8  2  3  1  0 11 12  1  5  7  4  5  8  4 11  0
  0 13 15  2  2  1  3  9 17  2 11  1  4  1 20  2  3 15  5 21 21  0 14 18
  2 18 20 14 20 18 10]"
14000,342,1.0,8,2,2563.292300462723,176.5081286430359,0,3584000,20879085,168512570,"[ 4  2  1  2  3  0  0  3  3  5  1  3  2  1  2  2  1  3  0  3  1  5  3  3
  0  6  2  0  0  2  3  5  8  2  3 13  1 13  2  3  4  7  4  5  8  1 11 18
  0 13  9  0 16 16  2  9  2  3  9 17  1 20 14  3  3 16  4 19 19  1  3 23
  2 22 15 14 20 18 10]"
14100,342,1.0,8,2,2581.200646877289,179.08343315124512,0,3609600,21025862,169671053,"[ 4  1  1  2  3  0  4  0  3  5  2  3  2  1  2  2  1  3  0  3  1  2  8  2
  2  1  6  0  0  2  3  5  8  4  4  4  3  3  3  5  5  1  4  5  8  1  3 14
  0 13  9  1 16 13  5 17 17  0 11 13  5  3 18  4 23 22  2 17 17  4 18  0
  1 18 19 14 20 18 10]"
14200,342,1.0,8,2,2598.9475247859955,177.46875047683716,0,3635200,21173580,170836237,"[ 2  0  1  2  3  0  5  0  1  2  2  2  2  1  2  2  1  3  2  6  6  5  4  8
  4  0  0  0  0  2  3  5  8  4  2  5  0  3  1  5  1  0  4  5  8  1 17 13
  0 13  9  3 13 16  1  1 16  2 18 13  0 21  0  2 16 20  5 21 20  3  2 23
  4  3 15 14 20 18 16]"
14300,342,1.0,8,2,2616.668955564499,177.21428155899048,0,3660800,21318589,171981605,"[ 4  3  0  2  3  0  0  3  0  5  3  2  2  1  2  2  1  3  5  7  0  0  7  3
  4  3  5  0  0  2  3  5  8  5  8  4  0  3  1  1 12 12  4  5  8  3 12  3
  0 13  9  2 10  3  1  9 14  2 11  1  2 16 19  3 16 16  1 14 21  1 22 19
  2  3  0 14 20 18 16]"
14400,342,1.0,8,2,2634.3435156345367,176.74556970596313,0,3686400,21463187,173123329,"[ 4  1  0  2  3  0  2  2  2  5  3  2  2  1  2  2  1  3  2  8  0  1  4  6
  1  3  2  0  0  2  3  5  8  3 11  4  0  3  1  1 11  0  4  5  8  5  0 10
  0 13  9  1 10  3  3  1 18  4 14  2  3  0 16  5 17 20  5 22 15  5 23  3
  0 23 15 14 20 18 16]"
14500,342,1.0,8,2,2652.4678163528442,181.24298095703125,0,3712000,21609552,174279631,"[ 3  2  0  2  3  0  0  2  0  4  1  0  2  1  2  2  1  3  3  3  2  0  4  3
  3  7  3  0  0  2  3  5  8  4  0  1  0  3  1  1  6 11  4  5  8  4 18 18
  0 13  9  5 13  2  0  1  1  2 18 11  5 15 20  0 15 20  1 14 15  3 14 14
  5 15 16 14 20 18 16]"
14600,342,1.0,8,2,2670.2607996463776,177.92980432510376,0,3737600,21755543,175433233,"[ 4  1  3  2  3  0  1  2  3  5  1  1  2  1  2  2  1  3  1  4  8  4  5  2
  5  6  4  0  0  2  3  5  8  1  6  1  0  3  1  4 13  5  4  5  8  1 13  0
  0 13  9  5  1 13  4  2  3  5 12  2  4  1 20  5 15 14  0 20 22  4 21 22
  0 16 15 14 20 18 16]"
14700,342,1.0,8,2,2688.0651350021362,178.04332733154297,0,3763200,21900864,176582169,"[ 2  1  1  2  3  0  2  3  0  5  3  1  2  1  2  2  1  3  1  4  6  1  4  2
  3  3  8  0  0  2  3  5  8  3  3 11  0  3  1  5  4 10  4  5  8  1 10  9
  0 13  9  1 18 15  5  2  3  1  1 10  3 18 22  2 20 16  4  1  2  2  1 23
  4 17 17 14 20 18 16]"
14800,342,1.0,8,2,2706.0979087352753,180.32771110534668,0,3788800,22048713,177750487,"[ 0  1  3  2  3  0  3  2  3  5  1  0  2  1  2  2  1  3  3  3  0  0  1  6
  0  0  1  0  0  2  3  5  8  0  6 11  0  3  1  0  0  3  4  5  8  0  3  9
  0 13  9  4 17  0  5 15 10  1 13  9  1 22 14  1 18 19  2 21 23  0 21  2
  2 15 18 14 20 18 16]"
14900,342,1.0,8,2,2723.878520488739,177.80608892440796,0,3814400,22196118,178912843,"[ 4  1  2  2  3  0  2  2  2  1  2  2  2  1  2  2  1  3  4  8  6  2  1  3
  0  5  3  0  0  2  3  5  8  1  5  7  0  3  1  0 13  8  4  5  8  5 13  3
  0 13  9  1 18 16  4  1  9  1  3  9  4 23  1  4 15 20  2 14 19  4 21 15
  3 23 15 14 20 18 16]"
15000,342,1.0,8,2,2741.651335954666,177.72812843322754,0,3840000,22342294,180066307,"[ 2  1  3  2  3  0  1  0  3  0  3  2  2  1  2  2  1  3  4  0  5  0  6  3
  4  6  5  0  0  2  3  5  8  0  9  1  0  3  1  3  5  3  4  5  8  1 16 10
  0 13  9  1 16  9  5  9  2  1  3 13  1 16 15  5 15 19  4  3 22  1  0  2
  1 15 15 14 20 18 16]"
15100,342,1.0,8,2,2759.4355194568634,177.84180641174316,0,3865600,22487368,181212673,"[ 2  3  0  2  3  0  5  2  3  5  1  1  2  1  2  2  1  3  5  7  5  4  2  6
  0  8  6  0  0  2  3  5  8  0 11  7  0  3  1  3  6  6  4  5  8  4  9 15
  0 13  9  0  9 13  5 14 17  1  2 18  5  3 18  0  0 21  5 14 22  0 14  0
  3  1 16 14 20 18 16]"
15200,342,1.0,8,2,2777.307940006256,178.7241792678833,0,3891200,22634917,182378791,"[ 0  3  1  2  3  0  1  2  1  3  0  3  2  1  2  2  1  3  1  6  2  4  3  7
  5  5  8  0  0  2  3  5  8  4  0  7  2  6  6  5  8  8  4  5  8  1 18  2
  0 13  9  3  9 16  3 17 14  1  2 16  1 18 16  0 21 22  5 22 17  5  0 22
  4 20 21 14 20 18  4]"
15300,342,1.0,8,2,2795.7702169418335,184.62274074554443,0,3916800,22787242,183582742,"[ 0  3  1  2  3  0  0  2  1  0  1  3  2  1  2  2  1  3  5  6  0  2  7  6
  4  6  7  0  0  2  3  5  8  4  7  7  4  7  1  3 11  6  4  5  8  4  2 12
  0 13  9  4 11 11  0 18 15  0 15 18  3 14  3  0 21 17  1  3 20  4 23  3
  0 23 20 14 20 18  4]"
15400,342,1.0,8,2,2813.9415335655212,181.71314477920532,0,3942400,22938483,184779416,"[ 0  3  1  2  3  0  1  3  2  4  2  1  2  1  2  0  0  4  2  2  5  2  1  3
  3  3  4  0  0  2  3  5  8  2  5 10  3  7  1  2  8  9  4  5  8  1  0 13
  0 13 11  4  0 11  0 10  3  2  1 10  3 21 15  5 17  0  0 16 22  5 18 17
  3  3  3 14 20 18  4]"
15425,343,1.0,7,2,2818.44646859169,180.19728660583496,0,3948800,22976323,185078036,"[ 0  3  1  2  3  0  0  0  2  2  2  0  2  1  2  0  0  4  2  5  3  2  1  3
  3  4  7  0  0  2  3  5  8  4  5 12  3  7  1  2  8  9  4  5  8  1  2 13
  0 13 11  3 12 15  1 18  1  2  1 12  4 21 15  3 17  0  5 16 16  3 18 17
  2  3  3 14 12 18  4]"
