generation,fitness,functionality,active_nodes,longest_path,time,gen_time,nc_gens,fitness_evals,graph_evals,node_evals,genotype
0,209.0,0.59375,7,4,0.006379365921020508,6.374359130859375,0,0,0,0,"[ 5  3  2  0  0  1  5  2  3  1  2  1  1  1  2  2  7  1  0  2  1  3  3  8
  0  5  4  4  6  6  3  6 13  2  3  6  3 11  3  5 13  1  4  2  1  1 16 16
  3 16  0  3 12 10  1  3 14  2 11  9  0 18 21  5 15 14  2 18 19  5 16 14
  0  0  0 25  0 28  5]"
100,327.0,0.96875,9,4,22.049046754837036,220.4266333580017,0,25600,292040,1699355,"[ 3  1  1  0  3  1  0  2  0  5  1  0  5  2  0  0  1  1  2  2  1  1  2  0
  0  5  6  5  5  7  4  9  1  0 11 11  2 12  8  1  1  2  4 10 11  5  2 15
  5  3 10  5 10  2  5 15 15  1 13  0  3 23 14  4 22 17  4 21 22  1 18 22
  0 23 20 12  6 28  5]"
200,334.0,0.984375,8,3,40.78830885887146,187.39259243011475,0,51200,472571,3163805,"[ 2  3  1  0  3  1  0  2  0  4  3  1  3  0  0  1  3  7  2  2  1  0  4  8
  0  5  6  2  3  3  4  9  5  1  8  1  0  6  8  4  0  1  1  1 11  4 16 14
  5  3 10  0 13 16  3 12 15  1 13  0  1 17  2  2 15  1  1 19  2  5 23  1
  5 23 20 12  6 28  5]"
300,334.0,0.984375,8,3,58.901504039764404,181.13191604614258,0,76800,647452,4560269,"[ 4  3  0  0  3  1  0  2  0  4  2  0  2  3  3  5  2  1  2  2  1  4  3  1
  0  5  6  3  1  1  1  1 11  5  9 10  5  8  2  1  0  8  0 11  5  3 13 18
  5  3 10  0 17 14  4  9 17  2 16  9  5 22  0  2 15  0  2  0  2  5  0  1
  5 17 20 12  6 28  5]"
400,334.0,0.984375,8,3,76.9005982875824,179.99090909957886,0,102400,821981,5945115,"[ 2  0  1  0  3  1  0  2  0  1  0  1  3  3  3  0  8  5  2  2  1  5  2  7
  0  5  6  3  2  8  3  8 13  2  0  1  5  7  6  1  0  8  5  0  2  3 12 15
  5  3 10  1 11 13  5  3 10  4  0 13  5 14  0  2 17 23  5  1 14  4  1 15
  5 17 20 12  6 28  5]"
500,334.0,0.984375,8,3,95.01567792892456,181.15076303482056,0,128000,997729,7342814,"[ 2  1  0  0  3  1  0  2  0  3  1  0  3  3  0  3  3  6  2  2  1  2  8  7
  0  5  6  0  6  1  1  2  3  0 10 13  4  4 12  4  0  8  2  1 10  4 16  1
  5  3 10  5  0  3  2 16  2  1  3  3  4 21 17  4 22 15  2  2 19  3  0 14
  5 17 20 12  6 28  5]"
600,334.0,0.984375,8,3,113.08797597885132,180.7229495048523,0,153600,1172609,8735503,"[ 0  2  3  0  3  1  0  2  0  2  1  3  3  3  0  3  4  3  2  2  1  0  3  0
  0  5  6  4  5  4  3  9 13  4  6 10  3  0 12  4  0  8  2  5  3  1 17 12
  5  3 10  0  0 18  4  2 12  3 17 16  4  3 14  1 20 18  4  0  2  4 20 19
  5 17 20 12  6 28  5]"
700,334.0,0.984375,8,3,131.22010016441345,181.32120609283447,0,179200,1349147,10136662,"[ 2  1  0  0  3  1  0  2  0  0  0  3  3  3  3  2  6  6  2  2  1  5  4  6
  0  5  6  1  4  3  2  6  4  0  6  5  2  0  5  1  0  8  1  8  8  1 12  1
  5  3 10  0 16  1  2  2 12  4  9  2  3 21 21  5 21 22  5 18  2  4 17 18
  5 17 20 12  6 28  5]"
710,340,1.0,9,3,133.1076259613037,188.75222206115723,0,181760,1367688,10284950,"[ 0  1  0  0  3  1  0  2  0  2  0  3  3  3  3  4  0  4  2  2  1  1  3  6
  0  5  6  1  5  3  2  6  4  4  6 12  2  3  5  1  0  8  1  3  8  1  3 15
  5  3 10  0 16 18  2 18  1  2 12 10  3  1 22  5 23 22  5 18  2  4 16 18
  5 17 20 12 15 28  5]"
800,340,1.0,9,3,147.6013240814209,161.04105048709448,0,204800,1487395,11352790,"[ 3  0  3  0  3  1  0  2  0  5  0  0  3  3  3  3  4  8  2  2  1  1  3  0
  0  5  6  5  6  2  4  8  1  4  6 12  4  3  3  1  0  8  2  8  8  2  3 16
  5  3 10  3  1 16  2  0  9  2  2  9  3 19 19  1  3 21  4 14  3  0  0 18
  5 17 20 12 15 28  5]"
900,340,1.0,9,3,163.69412541389465,160.92798233032227,0,230400,1620026,12536218,"[ 3  3  3  0  3  1  0  2  0  2  3  3  3  0  3  0  2  1  2  2  1  0  3  0
  0  5  6  5  4  2  4  8 11  4  6 12  3  6  7  1  0  7  5 10 13  1  9  0
  5  3 10  0  1  3  2 18  9  5 14 11  4 19  0  0 20 18  5 14  0  3 18  2
  5 17 20 12 15 28  5]"
1000,340,1.0,9,3,179.84886074066162,161.5473198890686,0,256000,1753297,13725401,"[ 3  3  3  0  3  1  0  2  0  3  3  0  3  3  1  1  3  1  2  2  1  3  5  3
  0  5  6  1  3  0  5  9 12  4  6 12  3  2  5  4  0  7  1 10  6  3  9  0
  5  3 10  3  3 15  0 15 16  5 16  9  3  2 20  3 16 21  1 16  3  3 16  2
  5 17 20 12 15 28  5]"
1100,340,1.0,9,3,195.74706864356995,158.98204803466797,0,281600,1883735,14890088,"[ 5  1  1  0  3  1  0  2  0  5  3  0  3  2  1  1  5  1  2  2  1  5  0  3
  0  5  6  1  8  2  0  2 10  4  6 12  3  1  2  1  0  7  2  0 13  5 14 15
  5  3 10  5 16  1  2 14 12  2  1 14  5 20 22  0 15 23  2  3 18  2  1  1
  5 17 20 12 15 28  5]"
1200,340,1.0,9,3,211.83758902549744,160.90517044067383,0,307200,2016613,16076266,"[ 4  3  0  0  3  1  0  2  0  5  3  0  1  0  0  2  1  1  2  2  1  3  8  8
  0  5  6  4  2  2  1 12  4  4  6 12  5  9  3  1  0  7  0  3  9  4  0 11
  5  3 10  5 14  1  3 15  3  1 14  3  3 23 17  1 14 16  5  1 18  4 21 21
  5 17 20 12 15 28  5]"
1300,340,1.0,9,3,227.78361892700195,159.4602608680725,0,332800,2147753,17245135,"[ 1  2  0  0  3  1  0  2  0  5  0  3  4  3  2  3  8  4  2  2  1  1  1  8
  0  5  6  0  3  6  1  7 10  4  6 12  2  9  7  1  0  7  3 12  6  3 11 15
  5  3 10  0 17 17  2  0  0  3 15 17  1  1 20  0 17  2  0 21 20  1 19 17
  5 17 20 12 15 28  5]"
1400,340,1.0,9,3,243.60930061340332,158.25677394866943,0,358400,2277101,18399760,"[ 1  1  2  0  3  1  0  2  0  5  0  3  1  1  1  1  1  5  2  2  1  5  3  2
  0  5  6  0  7  8  1  9 10  4  6 12  1  0 10  1  0  7  0  1 10  5 18 15
  5  3 10  3  1  1  5  9  0  5 16 17  3 20  3  2 15 17  4 14 18  0 21 17
  5 17 20 12 15 28  5]"
1500,340,1.0,9,3,259.5825889110565,159.73284721374512,0,384000,2408351,19570531,"[ 0  1  0  0  3  1  0  2  0  3  0  3  4  2  2  1  2  1  2  2  1  2  7  8
  0  5  6  4  6  3  2 11  9  4  6 12  1  4  3  1  0  7  4  0  2  3  3 13
  5  3 10  1 18 18  5 16  9  1  3 12  1  2 17  2  0 14  1 18  1  2 20 20
  5 17 20 12 15 28  5]"
1600,340,1.0,9,3,275.5858829021454,160.0329041481018,0,409600,2539498,20742524,"[ 3  3  0  0  3  1  0  2  0  4  1  3  2  0  0  4  8  4  2  2  1  5  8  7
  0  5  6  2  7  3  2  6 12  4  6 12  0  1 11  1  0  4  5  0  9  4  1  2
  5  3 10  1 14  2  0 15 18  0  9  3  5 14 15  2 15 18  2 19 22  2 17  2
  5 17 20 12 15 28  5]"
1700,340,1.0,9,3,291.7570083141327,161.71121835708618,0,435200,2673306,21937255,"[ 3  3  0  0  3  1  0  2  0  2  1  0  3  1  2  3  4  6  2  2  1  5  7  4
  0  5  6  2  8  0  0  6 11  4  6 12  3  4 13  1  0  4  2  7 10  3  2 12
  5  3 10  3 14 18  5 15  2  4 18  9  0 15 20  3  0 16  0 17  0  4  1  3
  5 17 20 12 15 28  5]"
1800,340,1.0,9,3,307.8492126464844,160.92200994491577,0,460800,2805902,23121565,"[ 3  3  0  0  3  1  0  2  0  2  2  0  2  1  3  5  2  5  2  2  1  5  0  2
  0  5  6  3  8  4  5  9  5  4  6 12  0  0 12  4  0  4  4  5 13  0 18  9
  5  3 10  4 17 14  0 11  2  4  0 10  1  1 20  5  3 14  4 22  3  0 17 23
  5 17 20 12 15 28  5]"
1900,340,1.0,9,3,323.78537249565125,159.36156272888184,0,486400,2936871,24288720,"[ 5  3  0  0  3  1  0  2  0  0  1  1  1  0  1  4  0  5  2  2  1  4  7  4
  0  5  6  2  5  0  5  5  5  4  6 12  5  8 10  1  0  4  1  7  5  4 17 10
  5  3 10  4 14  0  0 16  1  3 16  1  4  0  1  4  1  0  0 22 20  1 16  2
  5 17 20 12 15 28  5]"
2000,340,1.0,9,3,339.7792468070984,159.93870496749878,0,512000,3068373,25462518,"[ 3  3  0  0  3  1  0  2  0  5  1  1  2  2  2  4  1  6  2  2  1  5  3  5
  0  5  6  0  1  7  4  6  1  4  6 12  4 13  7  1  0  4  2  6 11  4 16 10
  5  3 10  0  9 12  5 15  9  3 15 15  4  3 23  2 20  2  1 23  3  5  0  0
  5 17 20 12 15 28  5]"
2100,340,1.0,9,3,355.9162402153015,161.3698959350586,0,537600,3201646,26651382,"[ 3  0  3  0  3  1  0  2  0  5  3  2  5  0  3  5  5  1  2  2  1  0  4  4
  0  5  6  4  4  7  0  9  4  4  6 12  0  6  8  1  0  4  1  7  8  2 10 10
  5  3 10  1  1 13  1  0 16  0 16 14  3  1  0  3 22 19  4  3 22  0 18  1
  5 17 20 12 15 28  5]"
2200,340,1.0,9,3,371.8950915336609,159.78848218917847,0,563200,3333124,27823202,"[ 3  0  3  0  3  1  0  2  0  2  1  0  4  2  3  4  5  3  2  2  1  0  3  1
  0  5  6  2  2  5  5  1  9  4  6 12  0 13  3  4  0  4  3 12  6  3 10 17
  5  3 10  0  3  3  2  9 17  3  0  3  1 17 16  5 15 23  5 20 19  0  2 16
  5 17 20 12 15 28  5]"
2300,340,1.0,9,3,387.9497752189636,160.54680347442627,0,588800,3465074,28998336,"[ 3  0  3  0  3  1  0  2  0  4  1  2  5  0  3  4  1  1  2  2  1  2  4  8
  0  5  6  2  6  2  1  1 10  4  6 12  1  3  8  1  0  4  0  0  5  3 10 16
  5  3 10  5 16 16  2 11 11  0  0 12  5  1 18  0 14  0  0  2 15  0 15 14
  5 17 20 12 15 28  5]"
2400,340,1.0,9,3,404.077552318573,161.27774000167847,0,614400,3597057,30175143,"[ 2  3  3  0  3  1  0  2  0  0  0  2  0  3  1  4  8  2  2  2  1  4  7  4
  0  5  6  2  0  5  5 10  7  4  6 12  0  7  6  1  0  4  2 12 11  3 15 16
  5  3 10  3 16  9  1 15 11  2 16 14  0 18 20  3  0  1  4  3 20  1 18 16
  5 17 20 12 15 28  5]"
2500,342,1.0,7,3,419.3672170639038,152.89661407470703,0,640000,3749121,31243069,"[ 3  0  2  0  3  1  0  2  0  0  0  3  3  1  1  3  3  7  2  2  1  2  5  8
  0  5  6  3  3  4  5 10  7  4  6 12  2  7  8  1  6  0  5  2 10  3  3 16
  4 18  9  4  9  9  2  2  1  5 13 15  0 18 17  5  3 22  0 20 23  4 20 16
  1 16 19 12 15 14  5]"
2600,342,1.0,7,3,434.60440015792847,152.3717999458313,0,665600,3902020,32306704,"[ 1  2  3  0  3  1  0  2  0  0  0  3  3  1  2  5  0  6  2  2  1  3  7  2
  0  5  6  5  8  5  5 10  7  4  6 12  2  1 12  1  0  0  0  3  4  5  3 12
  4 15 17  1 12 11  2 16  3  1  1 16  2 15 22  3 16  0  1 15  2  4  3 18
  3 23 21 12 15 14  5]"
2700,342,1.0,7,3,449.95868039131165,153.5427737236023,0,691200,4057006,33384156,"[ 1  0  1  0  3  1  0  2  0  0  0  3  4  0  3  3  4  1  2  2  1  5  0  0
  0  5  6  2  7  0  5 10  7  4  6 12  3 13 10  0  0  3  0  1  6  3 10  3
  4 13 18  5  3  3  0 16 14  3 11 17  0 23  0  4  0 23  0  2 16  0 21  1
  0 23  0 12 15 14  5]"
2800,342,1.0,7,3,465.57620882987976,156.1752486228943,0,716800,4209663,34446059,"[ 1  3  1  0  3  1  0  2  0  0  0  3  3  1  0  3  0  5  2  2  1  3  8  0
  0  5  6  2  0  2  5 10  7  4  6 12  2  2  0  2  3  5  2  3  2  0 18 14
  1 11  0  0 10  2  5 12 17  3 13  2  2 23  3  2  2 18  1 15 18  5  2 22
  3 21 16 12 15 14  5]"
2900,342,1.0,7,3,480.90648126602173,153.3026933670044,0,742400,4362985,35512694,"[ 1  0  2  0  3  1  0  2  0  0  0  3  3  3  2  5  8  2  2  2  1  2  2  7
  0  5  6  1  6  1  5 10  7  4  6 12  4  7  2  2  9  6  0 13 13  4 16 18
  1 11  2  5 15  1  4 18  2  5  9 12  3  3 16  4 20 14  2 15 21  5 20 17
  1 22  0 12 15 14  5]"
3000,342,1.0,7,3,496.1946737766266,152.8818917274475,0,768000,4516895,36582856,"[ 4  3  2  0  3  1  0  2  0  0  0  3  1  2  0  0  7  8  2  2  1  0  6  3
  0  5  6  4  8  7  5 10  7  4  6 12  4  0  3  2  9  7  3  4 13  5  1  9
  4  9  0  5 18 15  5 18 12  1  1  3  0 21 14  2 14 14  3 15 21  5  1  1
  0  3  0 12 15 14  5]"
3100,342,1.0,7,3,511.4963719844818,153.01695108413696,0,793600,4670649,37654780,"[ 0  3  0  0  3  1  0  2  0  4  1  1  4  1  1  2  4  5  2  2  1  1  3  8
  0  5  6  0  7  8  5 10  4  4  6 12  2  2  5  1  6  4  4  1 10  5 14 11
  2 14 13  2  0  0  5 17 11  0  2 12  4 20 23  4 19 23  3 16 15  3 22 21
  2 18 22 12 15 14  5]"
3200,342,1.0,7,3,526.7736551761627,152.7728033065796,0,819200,4824124,38722665,"[ 0  3  0  0  3  1  0  2  0  3  2  1  5  3  0  3  5  6  2  2  1  4  0  4
  0  5  6  3  2  1  5 10  4  4  6 12  2  2 11  0  9  5  1  1  5  5 17 11
  0  1  9  1  2 13  5 14 17  1 17  3  0 14  2  4 14 20  0  3  0  3  2 17
  1 21  2 12 15 14  5]"
3300,342,1.0,7,3,542.0014410018921,152.27782726287842,0,844800,4976901,39785533,"[ 0  3  0  0  3  1  0  2  0  5  3  1  4  2  1  5  3  8  2  2  1  3  1  8
  0  5  6  4  2  5  5 10  4  4  6 12  1  3  2  2  3  1  0  6  0  3  3  2
  3  3 11  2 10 15  4 17 16  4  1 14  0 21 14  4 18 17  5 23 18  0  0 20
  3 20 17 12 15 14  5]"
3400,342,1.0,7,3,557.4412784576416,154.39834594726562,0,870400,5133005,40871775,"[ 0  3  0  0  3  1  0  2  0  2  2  1  2  2  1  5  5  8  0  5  2  0  1  6
  0  5  6  3  7  7  5  8  4  4  6 12  2  6  6  2  3  5  0  2 11  1 10 18
  2  0  9  0 18 11  4 13 17  3 13  9  3 20  0  3 15 21  5 16 16  4 17  0
  1 14 14 12 15 14  5]"
3500,342,1.0,7,3,573.0571393966675,156.1585807800293,0,896000,5291845,41976311,"[ 0  3  0  0  3  1  0  2  0  5  0  3  2  2  1  1  7  5  1  1  0  5  2  4
  0  5  6  5  3  4  5  8  4  4  6 12  3  4  2  5  2 12  1  8 10  5 11 16
  3  9  2  1  1 15  3 14  9  5 13  2  3 20 15  1 21 22  2 19  1  2 16 18
  1 14 22 12 15 14  5]"
3600,342,1.0,7,3,588.5886914730072,155.31548976898193,0,921600,5449052,43070817,"[ 0  3  0  0  3  1  0  2  0  0  1  1  2  2  1  5  0  5  2  8  1  0  7  7
  0  5  6  1  3  8  5  8  4  4  6 12  2  1  9  1  7  2  4  0  2  3 15 16
  3 17 14  3 12 10  0 16 10  3 13 15  3  2 15  1 21  3  2 16  2  1  0  3
  4 22 15 12 15 14  5]"
3700,342,1.0,7,3,604.2007427215576,156.12047910690308,0,947200,5607435,44173294,"[ 0  3  0  0  3  1  0  2  0  3  0  3  2  2  1  5  6  7  3  5  0  5  6  7
  0  5  6  4  8  6  5  8  4  4  6 12  5  4  3  1  9 10  1  3  5  0 15 17
  3 13 14  2 18 14  3 12 10  5 15 14  4  0 19  3 17 21  1 21 18  4 18 21
  4  2 20 12 15 14  5]"
3800,342,1.0,7,3,619.8753151893616,156.74569129943848,0,972800,5766856,45282770,"[ 0  3  0  0  3  1  0  2  0  2  0  3  2  2  1  1  0  6  1  3  0  0  0  3
  0  5  6  2  4  3  5  8  4  4  6 12  5  0  7  3  1 13  5  5  3  4  9 17
  3 16  1  1 10 18  3  3 16  1 15  2  0 23  2  0 14  2  3 21  0  4 18 16
  2 17 21 12 15 14  5]"
3900,342,1.0,7,3,635.3342537879944,154.58935260772705,0,998400,5923388,46371502,"[ 0  3  0  0  3  1  0  2  0  4  0  3  0  0  1  2  2  1  5  3  5  3  1  2
  0  5  6  2  4  0  5  9  4  4  6 12  0 13  3  5 12 12  2 13 13  3  0  1
  2 13  1  5 10  2  4 18  1  3 14 16  5 18 15  1 16  0  5 14 20  3 14 19
  4 14 20 12 15 14  5]"
4000,342,1.0,7,3,650.7248284816742,153.9057159423828,0,1024000,6078575,47450333,"[ 0  3  0  0  3  1  0  2  0  4  1  0  4  0  1  2  2  1  4  3  5  0  7  2
  0  5  6  4  1  0  5  9  4  4  6 12  3 12  1  1  0  0  4  4  5  0 16 12
  0  9 11  5  0 15  1 13 17  3 17 17  3 19 19  0  0 21  5 22 17  3 17 17
  0  2  3 12 15 14  5]"
4100,342,1.0,7,3,665.9373106956482,152.1247935295105,0,1049600,6231220,48511742,"[ 0  3  0  0  3  1  0  2  0  4  0  1  4  2  1  2  2  1  2  3  0  1  4  1
  0  5  6  2  7  0  5  9  4  4  6 12  0  1  7  4  3  6  5  6  6  2 13 17
  3 11  2  0  0  9  0 16 11  1  2 13  3 14 15  0 15 23  5 22 19  5 19 15
  2  0  3 12 15 14  5]"
4200,342,1.0,7,3,681.1704580783844,152.3314380645752,0,1075200,6383952,49575026,"[ 0  3  0  0  3  1  0  2  0  1  3  1  1  0  1  2  2  1  2  6  4  5  2  5
  0  5  6  3  7  3  5  9  4  4  6 12  2  1 11  2  5  2  5 12 11  4 12  0
  4 17 16  0 16 10  2  9 15  1 11 11  1 16 15  4 14 14  4  2 20  5 16 15
  1 17 23 12 15 14  5]"
4300,342,1.0,7,3,696.5154325962067,153.44971179962158,0,1100800,6536757,50637872,"[ 0  3  0  0  3  1  0  2  0  3  1  3  3  2  0  2  2  1  2  1  2  0  0  2
  0  5  6  0  7  2  5 10  4  4  6 12  4  1 12  3  8 12  5  8  1  4 12  0
  0 15  1  0 14 13  2 13  0  1 11 17  0 15 22  5 21  0  2  1 23  3  3 23
  0  3 16 12 15 14  5]"
4400,342,1.0,7,3,711.7291233539581,152.13687419891357,0,1126400,6689413,51699396,"[ 0  3  0  0  3  1  0  2  0  3  2  3  4  1  1  3  7  5  2  1  2  5  3  6
  0  5  6  4  2  1  5 10  4  4  6 12  5  4  8  1  8  2  1  7  5  1  3 16
  4 15  0  3 17  9  2 16 10  1  9  3  1 23 16  3  1 19  1 21  3  5 19 14
  5 15 19 12 15 14  5]"
4500,342,1.0,7,3,727.1420495510101,154.12922859191895,0,1152000,6844756,52779832,"[ 0  3  0  0  3  1  0  2  0  2  2  3  1  0  1  0  2  1  2  1  2  3  7  6
  0  5  6  5  5  0  5 10  4  4  6 12  3  0  5  4  4  3  3 11  8  4 13  3
  4 10  3  0 11 13  1 13  1  0  1 17  0 16  2  3 19 19  1  0 19  4 16  2
  2 21 19 12 15 14  5]"
4600,342,1.0,7,3,742.3721113204956,152.30059146881104,0,1177600,6998124,53845372,"[ 0  3  0  0  3  1  0  2  0  3  2  3  2  2  0  5  2  8  2  1  2  1  7  2
  0  5  6  5  4  1  5 10  4  4  6 12  3  0  9  1 12  6  2  3  9  5  0 18
  5  0  3  2 16 10  3 14 15  1  1  3  1  0 23  2 20  3  2 17 21  2  1  3
  2  1  2 12 15 14  5]"
4700,342,1.0,7,3,757.5646026134491,151.92488193511963,0,1203200,7150609,54907098,"[ 0  3  0  0  3  1  0  2  0  0  1  0  0  0  1  1  3  0  2  1  2  1  7  2
  0  5  6  4  5  7  5 10  4  4  6 12  4 11  9  2 11  5  1  3  3  2 13 13
  2 10  3  5  2 16  2 13  1  5 15  9  2 22  2  1 17 14  5 19 14  0  3  3
  4  2  1 12 15 14  5]"
4800,342,1.0,7,3,773.0025990009308,154.3799328804016,0,1228800,7306367,55991899,"[ 0  3  0  0  3  1  0  2  0  4  3  1  2  2  1  4  2  1  2  8  2  3  1  2
  0  5  6  5  3  3  5  8  4  4  6 12  1  5  9  1  7  0  2 13 13  1  9 12
  1  0 11  5 10 14  0 13 11  1 11 15  3  2 16  1  2 21  1  3  0  3 16  0
  4 18 18 12 15 14  5]"
4900,342,1.0,7,3,788.5832517147064,155.80649137496948,0,1254400,7464707,57092478,"[ 0  3  0  0  3  1  0  2  0  1  1  3  2  2  1  0  5  1  2  6  4  1  1  4
  0  5  6  1  7  1  5  8  4  4  6 12  1  3  0  0  2  7  0 12 12  3 11 10
  3 10 16  0  1  1  5 14  9  1 13  1  3 17  0  1 15  1  3 19 23  2 18 22
  1  3 22 12 15 14  5]"
5000,342,1.0,7,3,804.2670466899872,156.83791637420654,0,1280000,7624601,58203098,"[ 0  3  0  0  3  1  0  2  0  5  0  0  2  2  1  2  3  6  3  3  7  0  4  6
  0  5  6  0  1  1  5  8  4  4  6 12  3 12  7  5 12  3  2 11  6  0 12 17
  4 14  0  1  3 13  2  3  2  1  9  3  5 17 18  1 21 19  4  2  1  5 16 23
  2 15  1 12 15 14  5]"
5100,342,1.0,7,3,819.8605561256409,155.93506574630737,0,1305600,7782987,59304894,"[ 0  3  0  0  3  1  0  2  0  2  1  0  2  2  1  2  2  3  0  5  0  4  3  5
  0  5  6  4  6  3  5  8  4  4  6 12  2  5 11  0  3 13  2  9 11  0  3 16
  5 10 14  3 16 15  2 17  2  4  3 15  0 21 20  2 19 20  3 15 22  0  2 17
  5  3 19 12 15 14  5]"
5200,342,1.0,7,3,835.5141677856445,156.53608560562134,0,1331200,7942175,60412406,"[ 0  3  0  0  3  1  0  2  0  4  1  1  2  2  1  3  4  8  3  3  7  0  3  4
  0  5  6  0  5  5  5  8  4  4  6 12  1  8  6  1  8 10  4  9 13  0  0 18
  0 10 15  5 16 11  5 14 18  0  9 16  0  0 23  1  0 18  1 16  2  4  1  0
  0 15 19 12 15 14  5]"
5300,342,1.0,7,3,851.1386222839355,156.2445092201233,0,1356800,8100979,61516671,"[ 0  3  0  0  3  1  0  2  0  0  3  3  2  2  1  2  4  5  5  2  5  3  3  1
  0  5  6  2  4  0  5  8  4  4  6 12  5  6  7  0  5 11  4  5  9  5 16  0
  0 10  3  3 13  0  2 18 16  1  3 15  4  0  2  1 19 16  4 17 20  1 21 21
  0 17 23 12 15 14  5]"
5400,342,1.0,7,3,866.7857213020325,156.47095680236816,0,1382400,8260423,62625224,"[ 0  3  0  0  3  1  0  2  0  2  1  3  2  2  1  3  4  5  5  2  0  3  3  7
  0  5  6  4  2  0  5  8  4  4  6 12  5  5  8  3  0  8  1 10  1  3 13 10
  1 15 14  2 14 12  4  2  1  5 13 16  0 21  2  4  3 21  4 21 20  5 22 19
  2 20 22 12 15 14  5]"
5500,342,1.0,7,3,882.5663268566132,157.80602931976318,0,1408000,8421909,63747191,"[ 0  3  0  0  3  1  0  2  0  5  3  2  2  2  1  4  5  8  5  4  0  3  6  6
  0  5  6  3  5  8  5  8  4  4  6 12  0 13  5  1  0  0  2 11  9  1 18 13
  3 18 16  1 13 16  0  1  2  2 18  0  1 17  3  1 21 22  1  0  3  1 19 17
  0  0 17 12 15 14  5]"
5600,342,1.0,7,3,898.1690444946289,156.0271453857422,0,1433600,8580408,64849804,"[ 0  3  0  0  3  1  0  2  0  2  0  0  2  2  1  4  3  0  5  0  8  5  1  1
  0  5  6  3  2  1  5  8  4  4  6 12  0  2  0  0 11  9  3  4  9  0  0 16
  1 16  2  3 12 14  4 10 10  1 15  1  1  2 16  5 20 20  2 14  0  5 21 16
  2 16  1 12 15 14  5]"
5700,342,1.0,7,3,913.9326062202454,157.63558387756348,0,1459200,8741579,65970715,"[ 0  3  0  0  3  1  0  2  0  4  2  0  2  2  1  5  4  5  0  1  8  0  2  3
  0  5  6  1  1  4  5  8  4  4  6 12  5 12  4  1 10  0  4  8  6  4 15 15
  3 16 16  1 17 15  4 18 15  4 10 10  1  2 19  0 15 21  0 23 14  0 22 21
  0 15 14 12 15 14  5]"
5800,342,1.0,7,3,929.6184391975403,156.85829877853394,0,1484800,8901491,67081442,"[ 0  3  0  0  3  1  0  2  0  4  2  2  2  2  1  1  6  3  4  1  2  2  7  0
  0  5  6  0  6  3  5  8  4  4  6 12  3 12 12  3  7  2  5  1 10  1 17 13
  5 12  2  4 16 15  1  2  9  2 12  1  4  2  0  3 16  2  1  0 20  4 21  1
  5 16  0 12 15 14  5]"
5900,342,1.0,7,3,945.2393667697906,156.2092423439026,0,1510400,9060409,68186126,"[ 0  3  0  0  3  1  0  2  0  5  2  2  2  2  1  1  3  0  4  8  3  1  5  8
  0  5  6  3  6  2  5  8  4  4  6 12  2  8 11  3  3 10  2 12  5  0 13  9
  3 15  3  1 17 13  0  3 15  5 10 16  5 14 21  4 18  2  4 17 21  5 23 23
  5  3 16 12 15 14  5]"
6000,342,1.0,7,3,960.8780362606049,156.3866639137268,0,1536000,9219628,69293070,"[ 0  3  0  0  3  1  0  2  0  1  1  1  2  2  1  2  4  3  0  3  3  5  5  2
  0  5  6  2  7  8  5  8  4  4  6 12  0  0 11  0  9  6  2  6 11  0  0 11
  0 14  2  2 18 10  1 12 16  1 13 17  0 18 18  4 22 15  0 17  0  0 15  3
  1  1 20 12 15 14  5]"
6100,342,1.0,7,3,976.5193636417389,156.41323804855347,0,1561600,9377974,70394872,"[ 0  3  0  0  3  1  0  2  0  5  0  0  2  2  1  4  8  8  4  1  5  4  2  7
  0  5  6  2  2  5  5  8  4  4  6 12  3  5 10  2  4  5  5  7  5  4  1 10
  5  9  3  1 16  0  1 10  3  1 10 17  2 19  2  4 22 18  0 20  2  4 22  3
  1  2 15 12 15 14  5]"
6200,342,1.0,7,3,992.0719704627991,155.52603721618652,0,1587200,9535656,71491745,"[ 0  3  0  0  3  1  0  2  0  0  0  0  2  2  1  2  8  1  5  0  5  2  5  1
  0  5  6  0  0  5  5  8  4  4  6 12  4 12  0  1 13  8  4  6  7  4 12 17
  1  3  0  0 15 13  0 15  9  2  9 16  4 17  2  3 21  2  0 15 17  0  2 16
  0 18  3 12 15 14  5]"
6300,342,1.0,7,3,1007.6603126525879,155.88338613510132,0,1612800,9694608,72594897,"[ 0  3  0  0  3  1  0  2  0  5  2  2  2  2  1  3  1  0  2  4  8  2  2  0
  0  5  6  1  0  1  5  8  4  4  6 12  4  7  2  1  5  5  4  0 13  4 15  0
  1  3 17  2  9 14  1 13  1  0 14 10  1  2 17  3 14  3  5 14 16  4  1 16
  2  0 14 12 15 14  5]"
6400,342,1.0,7,3,1023.2797343730927,156.1941909790039,0,1638400,9853587,73699615,"[ 0  3  0  0  3  1  0  2  0  4  0  3  2  2  1  2  0  4  1  5  5  0  2  0
  0  5  6  4  1  0  5  8  4  4  6 12  2  1  6  0  5 13  1 13 12  3 17  1
  1 14 15  0 11 11  4  0  1  4 14 13  3  2  0  4  0 17  4  0 23  4 20  0
  0 18 15 12 15 14  5]"
6500,342,1.0,7,3,1038.8932392597198,156.13502264022827,0,1664000,10012417,74804267,"[ 0  3  0  0  3  1  0  2  0  3  2  2  2  2  1  5  7  6  5  3  8  2  2  6
  0  5  6  2  7  6  5  8  4  4  6 12  4 10  8  5  3  9  0 11  2  1 17 13
  1  1 14  2 11  0  1  2 15  3  9  1  3 14  1  2 14 21  5 23 23  1 22 14
  0 16 20 12 15 14  5]"
6600,342,1.0,7,3,1054.5737397670746,156.80497646331787,0,1689600,10172149,75915002,"[ 0  3  0  0  3  1  0  2  0  2  3  3  2  2  1  3  3  4  2  0  2  1  6  3
  0  5  6  4  0  3  5  8  4  4  6 12  0  7  5  5  1 12  2  3 12  5 18 17
  5  3 11  2 12 16  4  9  2  3 12 13  2 20 16  1 14 17  2  3  3  3 15 19
  4 23 22 12 15 14  5]"
6700,342,1.0,7,3,1070.169988155365,155.96245288848877,0,1715200,10330889,77018290,"[ 0  3  0  0  3  1  0  2  0  2  1  1  2  2  1  1  4  5  4  5  5  0  4  3
  0  5  6  5  5  0  5  8  4  4  6 12  0  7  4  5  3  5  0  9  1  1 18 16
  5 16 15  3  2  0  1  1 18  0 17  1  4 23  2  4 18 18  2  2  1  2 18  3
  3 19 14 12 15 14  5]"
6800,342,1.0,7,3,1085.8292918205261,156.59300565719604,0,1740800,10490328,78125711,"[ 0  3  0  0  3  1  0  2  0  3  2  0  2  2  1  1  1  0  3  5  8  0  0  3
  0  5  6  0  6  1  5  8  4  4  6 12  0  4 13  1 11  3  3  1  5  0 10 14
  5 13  0  3 18  3  0 11 18  2  1  0  4 14 22  3  0 20  3 16 16  4 23 23
  3 20 17 12 15 14  5]"
6900,342,1.0,7,3,1101.5005588531494,156.71263456344604,0,1766400,10650132,79236012,"[ 0  3  0  0  3  1  0  2  0  4  2  2  2  2  1  0  3  0  1  2  8  0  5  0
  0  5  6  4  8  0  5  8  4  4  6 12  3  5  0  3  2  2  5  5 10  3 11 18
  3 11 15  5 13 14  2  0 18  0  3 13  3 17 16  2 18 18  3  0 22  3 18 17
  1  3 15 12 15 14  5]"
7000,342,1.0,7,3,1117.1841614246368,156.8359923362732,0,1792000,10809838,80347078,"[ 0  3  0  0  3  1  0  2  0  0  1  2  2  2  1  2  3  8  4  2  8  1  7  4
  0  5  6  5  4  1  5  8  4  4  6 12  0 12  6  2 13  4  4  3  1  1 14 10
  2 13 11  4  9 16  1 10  9  2  9 16  5  2 21  1 18 15  4 22 23  2 15  1
  3 18 17 12 15 14  5]"
7100,342,1.0,7,3,1132.8611648082733,156.76999807357788,0,1817600,10969471,81457844,"[ 0  3  0  0  3  1  0  2  0  0  2  1  2  2  1  1  0  1  1  5  5  2  1  7
  0  5  6  0  8  6  5  8  4  4  6 12  1 10  4  3 13  3  4  7  0  3 13 16
  1 10  3  5  0  9  5 11 10  2  2 17  4 17 15  4 20 20  5 23 15  2  2 17
  3 15  1 12 15 14  5]"
7200,342,1.0,7,3,1148.5744643211365,157.13296175003052,0,1843200,11129373,82571081,"[ 0  3  0  0  3  1  0  2  0  0  1  0  2  2  1  5  1  6  2  4  3  4  5  5
  0  5  6  3  4  4  5  8  4  4  6 12  1  9  7  3  6 12  4  0 10  5 16 10
  2 16  1  3 11 18  4 12 14  1 12 17  4  1 18  2 14 17  4 22  0  1 14 23
  4  3  1 12 15 14  5]"
7300,342,1.0,7,3,1164.446875333786,158.7240743637085,0,1868800,11290586,83692037,"[ 0  3  0  0  3  1  0  2  0  4  1  0  2  2  1  0  3  5  1  7  8  0  1  4
  0  5  6  5  1  7  5  8  4  4  6 12  4 13  3  3  1  7  1  8  6  3 10 17
  0 15 18  1 13  0  0 15 12  0 15  2  3 18 15  0 23 18  5 15 22  1 22  3
  4 22 19 12 15 14  5]"
7400,342,1.0,7,3,1180.103438615799,156.56559467315674,0,1894400,11449611,84798937,"[ 0  3  0  0  3  1  0  2  0  5  3  0  2  2  1  2  1  3  5  7  7  3  4  4
  0  5  6  1  6  2  5  8  4  4  6 12  1 13  7  0  7  6  1 12  9  2 12  0
  4 16 16  5 18 13  4 18 16  5 16 13  1 22 21  2  3 19  2  1 20  0 21 23
  1 20  2 12 15 14  5]"
7500,342,1.0,7,3,1195.6269154548645,155.23473501205444,0,1920000,11606831,85892651,"[ 0  3  0  0  3  1  0  2  0  5  1  1  2  2  1  3  3  4  0  5  6  4  2  8
  0  5  6  1  7  7  5  8  4  4  6 12  2  8  5  4 12  5  3 11 10  1 14 17
  0 15  3  2  3  9  3 11 14  2 14 13  2  2 19  3 16 22  1 17 22  3 17 15
  1  1 20 12 15 14  5]"
7600,342,1.0,7,3,1211.3460471630096,157.19127893447876,0,1945600,11766751,87005022,"[ 0  3  0  0  3  1  0  2  0  0  1  3  2  2  1  4  7  5  0  7  7  5  8  7
  0  5  6  0  6  5  5  8  4  4  6 12  4  5 11  0 10  5  3  7  1  1  3  2
  3  1 17  5 14 15  2 18 14  3 16 13  4 23 20  1 17 16  3 15 18  3 20 18
  3 23 22 12 15 14  5]"
7700,342,1.0,7,3,1226.9574851989746,156.11434936523438,0,1971200,11924904,88106240,"[ 0  3  0  0  3  1  0  2  0  4  1  0  2  2  1  0  8  6  3  3  0  2  4  4
  0  5  6  4  3  8  5  8  4  4  6 12  4  0  8  3  6  3  2  8 13  1 15 12
  5 14 15  4 10  3  2  9 11  2 16 15  5 14 21  1 23 21  0 20 16  4 20  3
  1 17 15 12 15 14  5]"
7800,342,1.0,7,3,1242.7558023929596,157.98314094543457,0,1996800,12086336,89228842,"[ 0  3  0  0  3  1  0  2  0  5  1  0  2  2  1  3  6  6  2  2  1  3  4  7
  0  5  6  1  7  0  5  8  4  4  6 12  4  2  9  4  0  6  0  3  3  1  3  1
  3  0 18  2 11  0  3 12  9  4 12 13  3  0 18  1 16 17  2 17  2  1 14 14
  4 22 22 12 15 14  5]"
7900,342,1.0,7,3,1258.4210550785065,156.65249347686768,0,2022400,12245809,90338051,"[ 0  3  0  0  3  1  0  2  0  2  0  3  2  2  1  1  1  0  2  6  8  2  5  1
  0  5  6  5  5  4  5  8  4  4  6 12  3  2  2  4  2  2  1  0 11  0  9 17
  4 16 14  5 11 10  1 16  0  1 14 13  5 16 21  3  2 17  5  2  3  4 19 20
  3 17 17 12 15 14  5]"
8000,342,1.0,7,3,1273.9868767261505,155.65818309783936,0,2048000,12403386,91434878,"[ 0  3  0  0  3  1  0  2  0  5  3  2  2  2  1  1  6  8  1  0  8  4  8  1
  0  5  6  3  4  7  5  8  4  4  6 12  2  6 13  5  0  6  1  0  9  5 18 11
  3 16  2  5 11  3  0 13  0  2  3 16  2 16 17  3 18 22  3  1 17  0 14  1
  4 17 15 12 15 14  5]"
8100,342,1.0,7,3,1289.6260652542114,156.39184951782227,0,2073600,12562870,92543651,"[ 0  3  0  0  3  1  0  2  0  3  2  2  2  2  1  0  1  5  0  8  2  1  3  5
  0  5  6  3  2  5  5  8  4  4  6 12  2  6 10  5 13  3  2  7  5  1 18 14
  4  0 13  3  2  3  3 18 16  3  1 16  0 17  3  0 15 23  4 17 17  4 14 18
  2  3  0 12 15 14  5]"
8200,342,1.0,7,3,1305.3192739486694,156.932053565979,0,2099200,12723039,93656741,"[ 0  3  0  0  3  1  0  2  0  5  0  0  2  2  1  4  4  4  4  0  8  0  0  4
  0  5  6  2  5  2  5  8  4  4  6 12  3  3  0  0  0  4  5  5 11  1  0  2
  3 15  3  1 11  2  2 10 11  3 16 10  1 22 16  3  1 16  3 19  3  4 19  0
  4  3 16 12 15 14  5]"
8300,342,1.0,7,3,1321.0132126808167,156.93935632705688,0,2124800,12883400,94770905,"[ 0  3  0  0  3  1  0  2  0  1  3  1  2  2  1  3  5  7  0  3  3  5  5  1
  0  5  6  2  0  2  5  8  4  4  6 12  2  6  7  0  0  1  1  4 11  3  1 17
  4  9 11  1  2  9  0 18  9  0  3 13  4 15 17  2  1 22  3  2  1  0 14  2
  0  1 23 12 15 14  5]"
8400,342,1.0,7,3,1336.6680891513824,156.54873371124268,0,2150400,13042721,95878888,"[ 0  3  0  0  3  1  0  2  0  1  1  3  2  2  1  4  2  1  3  4  7  2  4  5
  0  5  6  2  7  4  5  8  4  4  6 12  4  8 10  0 11 11  2  6  4  3 12  0
  5 16  0  1 18 17  1 17  3  0 18 14  0 14 23  1 19 16  4  0 19  1 21 15
  5 19 15 12 15 14  5]"
8500,342,1.0,7,3,1352.4985675811768,158.30475091934204,0,2176000,13204571,97005376,"[ 0  3  0  0  3  1  0  2  0  0  3  0  2  2  1  4  8  6  5  8  7  3  7  3
  0  5  6  2  6  6  5  8  7  4  6 12  0  4 11  5  5  3  0  5  8  0 14 12
  0  3  9  3 11 11  3 10  1  4 17 11  5  1 20  1 17  1  3 16  3  0 23 21
  0 19 21 12 15 14  5]"
8600,342,1.0,7,3,1368.5307693481445,160.32198905944824,0,2201600,13364471,98117269,"[ 1  0  1  0  3  1  0  2  0  0  3  0  2  2  1  3  6  7  3  2  1  4  6  1
  0  5  6  0  3  5  5  8  7  4  6 12  2  8  1  3  4  5  3 13 10  4  1 15
  5 13  3  3 10 17  0 14 16  0 11  0  0 21  3  0  3  2  3 15 16  2 15 20
  3 22 15 12 15 14  5]"
8700,342,1.0,7,3,1384.1256761550903,155.94903469085693,0,2227200,13522728,99217532,"[ 2  0  2  0  3  1  0  2  0  0  3  0  2  2  1  2  7  5  5  8  5  0  8  3
  0  5  6  5  4  4  5  8  7  4  6 12  0 11 10  2  4  5  0 11  9  5 14 14
  5 10  9  2  2 18  5 15 12  0 14 10  1  1 17  0 21  2  2 19  2  1 21 19
  2 14 15 12 15 14  5]"
8800,342,1.0,7,3,1399.8569734096527,157.3129439353943,0,2252800,13683015,100333037,"[ 2  0  0  0  3  1  0  2  0  0  3  0  2  2  1  5  6  3  5  1  7  5  4  4
  0  5  6  0  5  7  5  8  7  4  6 12  2  1  4  4  0  5  1  8 10  1 18 18
  2  3 15  4  0 13  0 13 18  1  3  0  4 18 17  3  0  2  5 14  2  0 21 18
  5 22 18 12 15 14  5]"
8900,342,1.0,7,3,1415.4029138088226,155.45937061309814,0,2278400,13840872,101430162,"[ 5  0  3  0  3  1  0  2  0  0  3  0  2  2  1  2  8  8  2  5  3  5  3  8
  0  5  6  3  0  5  5  8  7  4  6 12  3  3 11  5  1  5  3  0  0  5 14 10
  2 13  2  4  2  0  2 12 12  2 14  0  4  1  1  5  2 14  2  0 17  3 20 17
  2 16  0 12 15 14  5]"
9000,342,1.0,7,3,1431.1082527637482,157.05336093902588,0,2304000,14001192,102543277,"[ 2  2  1  0  3  1  0  2  0  0  3  0  2  2  1  1  0  0  2  5  3  0  4  0
  0  5  6  2  8  6  5  8  7  4  6 12  5 12 10  4 13  2  3  1  1  0  9  0
  1 18 14  5 12 18  3 10 12  1 16 15  5  2  1  5 21  0  0  0 14  0 16  0
  3 19  1 12 15 14  5]"
9100,342,1.0,7,3,1446.5828964710236,154.74640369415283,0,2329600,14158087,103633572,"[ 3  0  0  0  3  1  0  2  0  0  3  0  1  1  1  1  2  0  2  2  1  4  0  7
  0  5  6  5  8  4  5 10  7  4  6 12  1  6  4  5  9  6  4  0  1  1  9 13
  0 13  2  2 15 14  3 17  3  2  0  2  4  3 22  2 21  0  2 22  0  1 18 14
  3  1 20 12 15 14  5]"
9200,342,1.0,7,3,1462.000477552414,154.17577981948853,0,2355200,14313933,104717296,"[ 0  3  0  0  3  1  0  2  0  4  3  0  1  1  1  4  6  4  2  2  1  3  7  1
  0  5  6  4  7  4  5 10  4  4  6 12  1  5  1  0  9  6  0  0  9  1 16 17
  5 10 16  2 15 16  3 17  0  1 12 15  2 17 22  5 15 21  4 14  3  2  0 18
  3 18 16 12 15 14  5]"
9300,342,1.0,7,3,1477.2921018600464,152.9162073135376,0,2380800,14467514,105786022,"[ 0  3  0  0  3  1  0  2  0  3  2  3  2  0  0  4  6  7  2  2  1  2  6  6
  0  5  6  5  1  0  5 10  4  4  6 12  1 11 12  4  1 13  2  6  0  3 14 14
  1 18  9  4 16  9  4 17 13  2 16  1  5 18 19  3 21  1  5 20  3  5  0  3
  2  2  2 12 15 14  5]"
9400,342,1.0,7,3,1492.5608024597168,152.68697500228882,0,2406400,14621017,106853306,"[ 0  3  0  0  3  1  0  2  0  1  3  3  5  0  2  4  1  8  2  2  1  2  3  8
  0  5  6  2  8  6  5 10  4  4  6 12  0  1  1  5 12  6  0 10  2  1 16 11
  4  1 17  1 14  2  3 11 14  2  9 14  4 19 15  4 14 17  1 23 21  5 18  0
  2  2  1 12 15 14  5]"
9500,342,1.0,7,3,1507.7682540416718,152.0744824409485,0,2432000,14773441,107913665,"[ 0  1  0  0  3  1  0  2  0  2  0  3  2  1  2  2  1  7  0  2  1  1  1  3
  0  5  6  1  5  5  5  5  5  4  6 12  4  8  7  1  8  9  5 10  9  5  3  9
  1 14 10  0  9 11  0 12 15  1 15 18  0  3 19  1  1 19  0 20  0  5 20  1
  3  2 20 12 15 16  5]"
9600,342,1.0,7,3,1523.1090490818024,153.40792179107666,0,2457600,14927523,108987859,"[ 4  0  1  0  3  1  0  2  0  2  0  3  2  1  2  4  6  1  4  6  6  4  8  7
  0  5  6  5  2  8  0 10 11  4  6 12  0  7  0  5  9  9  2  3 11  4 17 11
  5  1 16  5  9 12  3 12  9  5 18  2  0  3  2  4 22 17  2 14 19  1 23 22
  5 15  3 12 15 11  5]"
9700,342,1.0,7,3,1538.6027331352234,154.9368119239807,0,2483200,15084142,110078108,"[ 2  0  3  0  3  1  0  2  0  0  1  2  2  1  2  3  0  6  2  6  6  4  8  4
  0  5  6  1  6  1  2 11  5  4  6 12  5  0 13  3 13  2  1  2  3  4 16 13
  3 14  3  3 14 12  0 18  0  0 17  0  0  1 21  4 21 17  3  0 17  2 16 22
  5 21 14 12 15 11  5]"
9800,342,1.0,7,3,1554.184918642044,155.8218240737915,0,2508800,15242441,111180087,"[ 2  0  3  0  3  1  0  2  0  0  3  1  2  1  2  5  0  3  4  1  3  4  8  4
  0  5  6  0  0  1  5  0  4  4  6 12  3  3 13  2  2 12  3 11  6  2 17 10
  2 10  1  0 17 10  2 10 15  3 13 12  3 21 22  3 19 15  4  2 23  5 14 15
  4 16  2 12 15 11  5]"
9900,342,1.0,7,3,1569.5936126708984,154.0869116783142,0,2534400,15397976,112263721,"[ 2  0  3  0  3  1  0  2  0  2  3  3  2  1  2  2  1  2  3  1  5  4  8  4
  0  5  6  5  4  7  3  5  4  4  6 12  4  9  3  3 13 13  4  6  9  0 16 14
  0 17 12  5  9 10  4 13 14  2  9 18  3 16 22  4  1 18  3 17 14  0 22  1
  1 23 16 12 15 11  5]"
10000,342,1.0,7,3,1585.001792192459,154.0817642211914,0,2560000,15553442,113347124,"[ 2  0  3  0  3  1  0  2  0  4  3  3  2  1  2  2  1  1  2  0  3  4  8  4
  0  5  6  3  8  1  3  0 13  4  6 12  2 10 10  4  5 13  2  9  7  5 12 14
  2 18  9  5 13 12  3 10 13  0  2 11  5 15 14  5  0 15  3 15  3  4 20 18
  0 19 17 12 15 11  5]"
10100,342,1.0,7,3,1600.4968671798706,154.9507212638855,0,2585600,15710107,114438880,"[ 2  0  3  0  3  1  0  2  0  0  3  2  2  1  2  5  7  2  4  6  3  4  8  4
  0  5  6  0  6  3  3  2  3  4  6 12  4 12  6  4  6  0  2  6  4  1  1 18
  1 13 14  5 16 11  2 15  0  4 13  3  5 23 23  0 17 14  1 18 15  2  0 22
  4 23 15 12 15 11  5]"
10200,342,1.0,7,3,1616.016648054123,155.19777536392212,0,2611200,15867458,115533671,"[ 2  0  3  0  3  1  0  2  0  1  2  2  2  2  1  0  0  7  5  1  1  4  8  4
  0  5  6  3  6  7  1 13 13  4  6 12  4  1 10  1  0  8  4  1  7  2  2 16
  5 14  3  0  9 17  5 15  9  4 15 14  5 22 23  0 15 21  4 20 19  1  2 21
  3 18 14 12 15 11  5]"
10300,342,1.0,7,3,1631.4711792469025,154.54528093338013,0,2636800,16023905,116623024,"[ 2  0  3  0  3  1  0  2  0  2  2  0  2  2  1  1  4  4  1  4  5  4  8  4
  0  5  6  5  3  2  5 13  6  4  6 12  2  4  3  2  3  0  0 11  2  0  1 15
  0 14 14  2 15 18  2 15 10  5 13  3  0 22  3  0 22 15  0 22 18  5  2 20
  1 21 14 12 15 11  5]"
10400,342,1.0,7,3,1647.0456473827362,155.74464559555054,0,2662400,16182193,117724834,"[ 2  0  3  0  3  1  0  2  0  0  0  2  2  2  1  3  5  4  1  7  2  4  8  4
  0  5  6  0  0  8  3  3 12  4  6 12  3  5  5  4  4  5  0  7 13  4  9  3
  3 14 12  5  9  9  0  1 12  5 12 15  1 22 16  4 18  0  0  2  3  4 22 16
  1 21 16 12 15 11  5]"
10500,342,1.0,7,3,1662.5244975090027,154.7884702682495,0,2688000,16338973,118816634,"[ 2  0  3  0  3  1  0  2  0  2  1  2  4  3  1  4  1  5  2  2  6  4  7  4
  0  5  6  5  4  3  0  3 13  4  6 12  0 10 12  3  3  2  2 10  9  5 14  9
  2  1 17  0  0  0  0 18 11  0  2 18  3 15 16  2 20 16  2  2  3  1 21 16
  2 21 21 12 15 11  5]"
10600,342,1.0,7,3,1678.1052613258362,155.8076024055481,0,2713600,16497054,119917480,"[ 2  0  3  0  3  1  0  2  0  2  1  2  3  3  3  2  4  4  4  8  1  4  7  4
  0  5  6  2  8  8  0 13 10  4  6 12  2  3  4  2  2 11  0  0  3  2 16  9
  5  9 10  4  9  0  2 18  9  1 10  3  2 17  2  2 19 23  0 14 14  3 23 16
  3  1 19 12 15 11  5]"
10700,342,1.0,7,3,1693.5305700302124,154.25305366516113,0,2739200,16652850,121003355,"[ 2  0  3  0  3  1  0  2  0  2  1  2  3  1  1  1  4  6  2  8  0  4  7  4
  0  5  6  2  5  1  5  1 13  4  6 12  0  9  1  5  2  3  3  7  1  3 14 17
  5  9 17  0  9 17  5 12  9  1  3 10  2  1 20  3  0 21  2 19  2  2 17 18
  5 23 20 12 15 11  5]"
10800,342,1.0,7,3,1709.0037779808044,154.7320532798767,0,2764800,16809457,122093861,"[ 2  0  3  0  3  1  0  2  0  2  1  2  0  3  1  0  5  7  1  3  1  4  7  4
  0  5  6  2  8  0  4  8 13  4  6 12  1 13  8  3  2  5  1  6  3  0 18  2
  2 17 12  4 16  2  2  3  0  2 11  1  2 18 16  1  1 23  5 18 18  2 20  3
  4 22 20 12 15 11  5]"
10900,342,1.0,7,3,1724.4775063991547,154.7372531890869,0,2790400,16966262,123185392,"[ 2  0  3  0  3  1  0  2  0  2  1  2  0  3  3  0  6  3  2  5  3  4  7  4
  0  5  6  2  0  6  1  7  7  4  6 12  0  9  1  2  3 12  4 12  2  2 18  2
  4 12 11  3 14  9  1 18 15  2  2 12  0  1 19  3  3 19  1 21  0  5 16 23
  3 22 20 12 15 11  5]"
11000,342,1.0,7,3,1739.976209640503,154.9869990348816,0,2816000,17123151,124277360,"[ 2  0  3  0  3  1  0  2  0  2  1  2  1  0  1  5  3  5  1  7  8  4  7  4
  0  5  6  0  5  4  1 12  1  4  6 12  4 10 12  5  4  9  1  3  8  2 12 14
  5 15 11  2  0 17  0 12 12  1 15 10  3 14 18  5 19 17  2  0  1  1 16 20
  1  1  3 12 15 11  5]"
11100,342,1.0,7,3,1755.389161348343,154.1294813156128,0,2841600,17278930,125361671,"[ 2  0  3  0  3  1  0  2  0  2  1  2  2  2  3  1  5  0  5  2  8  4  7  4
  0  5  6  0  2  2  2  3  1  4  6 12  5  2  8  4  4  2  3 10  8  1 14 12
  5  3 14  4  1 12  1  1  3  4  2 17  3  0 15  0 18 17  0 22  3  4 15 15
  0 22  2 12 15 11  5]"
11200,342,1.0,7,3,1770.8425104618073,154.53346252441406,0,2867200,17435262,126449675,"[ 2  0  3  0  3  1  0  2  0  2  1  2  0  3  3  4  5  4  0  8  8  4  7  4
  0  5  6  1  1  5  2 11 12  4  6 12  2  9  7  5  9  8  1 10  2  3  1 16
  1 12  3  0 11 12  0  2 11  5 17  2  5 19  1  5  2  0  4 20  0  5 15 18
  1 23 21 12 15 11  5]"
11300,342,1.0,7,3,1786.3847289085388,155.4221534729004,0,2892800,17592719,127546878,"[ 2  0  3  0  3  1  0  2  0  2  1  2  4  2  1  5  8  6  4  1  6  4  7  4
  0  5  6  4  8  6  2  0  7  4  6 12  5 11  8  3  3  9  3 10  0  0 12 18
  4 16 12  2 13 18  4 16 13  0  9 14  0 19 22  3 18  3  5 22 18  5 17 22
  1  2 18 12 15 11  5]"
11400,342,1.0,7,3,1801.7518758773804,153.67143630981445,0,2918400,17747561,128625117,"[ 2  0  3  0  3  1  0  2  0  2  1  2  3  0  1  4  7  4  2  7  3  4  7  4
  0  5  6  1  8  6  4  2  2  4  6 12  5  8  8  5 10  8  1  3  8  5  0 13
  5 16 10  1  1 11  2  9  9  5  1  0  1  0 20  1 23 18  0 22 14  2 21 21
  5 18 17 12 15 11  5]"
11500,342,1.0,7,3,1817.1773822307587,154.25503253936768,0,2944000,17903421,129711045,"[ 2  0  3  0  3  1  0  2  0  2  1  2  5  2  1  4  7  4  4  0  7  0  5  0
  0  5  6  1  2  5  5  0  2  4  6 12  1  4  5  2  9 12  0  7  9  5 16 14
  5 14  9  4 18 18  0 17  9  2  1 13  2  0 20  2 14 22  1 22  0  3  3 16
  5 22  0 12 15  9  5]"
11600,342,1.0,7,3,1832.6754808425903,154.98095512390137,0,2969600,18060751,130805572,"[ 2  0  3  0  3  1  0  2  0  2  1  2  3  1  2  4  7  4  0  3  4  3  7  8
  0  5  6  1  0  8  3 10  0  4  6 12  1  4  4  4 10  7  3  2 13  3 17 10
  3  0 17  4 12  2  1 16  3  0 12  2  5  3 19  0 19 22  2 22 15  3 17 18
  1  1  1 12 15  9  5]"
11700,342,1.0,7,3,1848.17786860466,155.02384424209595,0,2995200,18217869,131899571,"[ 2  0  3  0  3  1  0  2  0  2  1  2  3  2  0  4  7  4  0  1  1  3  1  2
  0  5  6  2  4  0  4  2 13  4  6 12  1  8  4  4  6  5  4 12  3  3 17  9
  1 17  3  1 14  2  0 16 12  2 14  2  3  1 14  2 14  3  2 14 20  4 22 18
  1 22 19 12 15  9  5]"
11800,342,1.0,7,3,1863.7025594711304,155.2468752861023,0,3020800,18375115,132995116,"[ 2  0  3  0  3  1  0  2  0  2  1  2  0  1  2  4  7  4  2  8  4  2  0  2
  0  5  6  0  0  0  0  6  8  4  6 12  3  8  4  3  5  5  2 12  1  2 17 14
  5 15  9  3 18 18  0 14  3  0 12 14  2  0 16  3 22 21  4 19 18  5 21  3
  1  3 23 12 15  9  5]"
11900,342,1.0,7,3,1879.2074115276337,155.0484848022461,0,3046400,18532291,134089184,"[ 2  0  3  0  3  1  0  2  0  2  1  2  5  2  0  4  7  4  2  5  8  0  8  1
  0  5  6  3  1  5  2  9 11  4  6 12  5  9  0  5 10  2  5  0  0  1 14 13
  3 14 11  1 15  2  3 13 16  1 15  1  3 18  0  1 22 19  1 16  2  1 14 17
  5  0 17 12 15  9  5]"
12000,342,1.0,7,3,1894.7326011657715,155.25187015533447,0,3072000,18690079,135186800,"[ 2  0  3  0  3  1  0  2  0  2  1  2  3  2  0  4  7  4  0  0  1  2  6  8
  0  5  6  4  1  7  0  5  3  4  6 12  4  8  8  2  6 11  4 11 13  2 14  0
  5  2 12  2  3  1  5 11 14  5 14 18  4 18 15  3 22 15  1 14  1  5  2 21
  5 19  0 12 15  9  5]"
12100,342,1.0,7,3,1910.277615070343,155.45010566711426,0,3097600,18847542,136284195,"[ 2  0  3  0  3  1  0  2  0  2  1  2  5  3  0  0  5  2  5  2  0  3  6  3
  0  5  6  4  4  7  1 13 13  4  6 12  4  2  4  1  3  0  1 10  7  4 17 15
  0 17  3  2 17  3  0  0 10  0 17 18  2 14  1  0 20  3  2 22 14  5 22  2
  3  0 23 12 15 13  5]"
12200,342,1.0,7,3,1925.766066789627,154.8844861984253,0,3123200,19004601,137377978,"[ 2  0  3  0  3  1  0  2  0  2  1  2  0  3  1  0  2  8  1  4  4  5  0  2
  0  5  6  4  4  7  0  7  4  4  6 12  1  1  8  5  9  4  3  5  5  5  1 13
  1 13 18  5  0 13  2 13  1  5 17  2  5  2 16  4 22  0  1 23 14  3 22  1
  5 18 14 12 15 13  5]"
12300,342,1.0,7,3,1941.1978290081024,154.31758642196655,0,3148800,19160732,138464782,"[ 2  0  3  0  3  1  0  2  0  2  1  2  5  3  0  5  8  1  2  5  5  0  0  3
  0  5  6  4  4  7  5  0  8  4  6 12  3  8  0  3  2 11  3 11  5  4 17  2
  2 13 10  2 12 15  4  9  2  0 18  2  0 21 14  1  0 16  0 22 16  0  1  0
  1 23 18 12 15 13  5]"
12400,342,1.0,7,3,1956.5941441059113,153.9631175994873,0,3174400,19316428,139548259,"[ 2  0  3  0  3  1  0  2  0  2  1  2  1  3  0  5  0  0  1  0  6  1  8  4
  0  5  6  4  4  7  2  9  1  4  6 12  5  7 13  4  8  4  0  2  1  4  3 12
  5 18 16  0 12 10  4 11  1  0 14 14  0 15 18  1  1 17  5 19  0  4  3 20
  2  3  3 12 15 13  5]"
12500,342,1.0,7,3,1971.9139003753662,153.19753170013428,0,3200000,19470699,140621717,"[ 2  0  3  0  3  1  0  2  0  2  1  2  2  2  1  2  3  8  1  8  1  2  6  3
  0  5  6  4  4  7  1  5  2  4  6 12  3  4 10  3  1  7  5 12  3  5 10 11
  1 12  2  0 18 16  3  3 16  1 17 11  0 15 17  1 20  3  0 17  2  4 23 21
  0  0 18 12 15 13  5]"
12600,342,1.0,7,3,1987.3127222061157,153.98818492889404,0,3225600,19626330,141704679,"[ 2  0  3  0  3  1  0  2  0  2  1  2  1  0  3  4  5  3  0  6  7  3  0  5
  0  5  6  4  4  7  1  2 11  4  6 12  3  2  8  5 13  4  3  3  7  5 15  9
  1 13  0  0 15 14  3  1  0  5 18 11  5 17  1  5 19  2  4  3 16  3 21 18
  5  0 18 12 15 13  5]"
12700,342,1.0,7,3,2002.7351133823395,154.22388315200806,0,3251200,19782243,142790028,"[ 2  0  3  0  3  1  0  2  0  2  1  2  1  2  0  0  7  0  2  3  4  2  5  5
  0  5  6  4  4  7  0  6  3  4  6 12  1 13  2  1 12  6  1  7 13  1  1  1
  5  9 11  4 11 12  2 12  1  1 11  1  1 15  3  4 21 20  4 22 17  2 19 18
  5 18 17 12 15 13  5]"
12800,342,1.0,7,3,2018.203530073166,154.6841335296631,0,3276800,19939142,143881560,"[ 2  0  3  0  3  1  0  2  0  2  1  2  0  0  0  4  2  7  4  8  0  1  5  5
  0  5  6  4  4  7  0  4  9  4  6 12  0 13  6  5  7 13  3  3  1  0  3  9
  5  2 18  1  1  2  2  3  9  0 18 11  0 15 17  2 15 21  4  3 15  4  0  3
  5 17 14 12 15 13  5]"
12900,342,1.0,7,3,2033.6647822856903,154.61248874664307,0,3302400,20095160,144967862,"[ 2  0  3  0  3  1  0  2  0  2  1  2  3  0  3  5  6  2  4  3  7  3  3  4
  0  5  6  4  4  7  2  7  7  4  6 12  2  8  2  2  9 12  4 13  3  3 17 15
  0 15 18  5 18  9  4  9  9  2 14 13  5 18 22  4 23 21  3 19 16  1 20 21
  5 17  2 12 15 13  5]"
13000,342,1.0,7,3,2049.0857088565826,154.20922994613647,0,3328000,20250846,146052819,"[ 2  0  3  0  3  1  0  2  0  2  1  2  3  3  1  0  1  0  2  4  6  5  8  6
  0  5  6  4  4  7  5  7  8  4  6 12  0 11 12  1  5  0  4  6  7  4  3 18
  0  3 12  5 16 16  4  9  3  2  1 10  5  3 17  4  2  3  0 16 16  4 15 14
  4 19  2 12 15 13  5]"
13100,342,1.0,7,3,2064.609055042267,155.23343086242676,0,3353600,20408615,147149912,"[ 2  0  3  0  3  1  0  2  0  2  1  2  1  0  1  3  4  8  4  2  6  0  4  1
  0  5  6  4  4  7  0  3  2  4  6 12  4  7  7  5  3 11  4  2 10  1  3 11
  0 12 16  4 10 10  2  3  0  5  1 16  2 14  3  0 18  2  0  0 18  2 18  0
  0  0 20 12 15 13  5]"
13200,342,1.0,7,3,2079.944626569748,153.3556842803955,0,3379200,20562755,148224079,"[ 2  0  3  0  3  1  0  2  0  2  1  2  0  0  1  2  3  0  0  5  5  0  7  1
  0  5  6  0  4  7  4  9  7  4  6 12  2  5  0  3  4  5  2  9  9  5 11  9
  5 12 17  4 10 14  1 16  3  2 16 11  0  1  3  4 19  1  5 17 22  2 15  1
  1 15 18 12 15 14  5]"
13300,342,1.0,7,3,2095.2379682064056,152.93338537216187,0,3404800,20716018,149292364,"[ 2  0  3  0  3  1  0  2  0  2  1  2  4  3  3  3  7  8  0  7  8  1  1  5
  0  5  6  5  2  0  4  4  7  4  6 12  1  8  9  2  2  9  3 10 13  0  9  2
  3 12  0  1  9  1  1  0 18  4 17  3  4  1 17  5 14  0  5 19  2  1 14 23
  3 14  2 12 15 14  5]"
13400,342,1.0,7,3,2110.5844411849976,153.46469640731812,0,3430400,20869901,150365822,"[ 2  0  3  0  3  1  0  2  0  2  1  2  1  0  0  2  8  7  3  5  4  4  5  8
  0  5  6  3  0  5  4  4  7  4  6 12  1  6  0  5 11  1  4  1  1  0 11 17
  1  9 11  2 18 14  2 12 18  2  0 11  0 22 14  0  3  0  4 20 21  5 16  1
  5 23 18 12 15 14  5]"
13500,342,1.0,7,3,2125.99759888649,154.13153886795044,0,3456000,21023691,151437636,"[ 2  0  3  0  3  1  0  2  0  2  1  2  3  3  1  3  6  3  2  0  5  4  3  3
  0  5  6  2  6  0  4  4  7  4  6 12  2  1  7  1  5  1  5  8  4  3 12  0
  4 15 15  0 11 16  3 14  9  5 12 15  0 23 17  2  1 22  0  3 21  2 18 16
  5 22  0 12 15 14  5]"
13600,342,1.0,7,3,2141.35040473938,153.52802753448486,0,3481600,21178527,152515931,"[ 2  0  3  0  3  1  0  2  0  2  1  2  2  0  1  5  0  5  1  6  8  1  8  4
  0  5  6  2  2  0  4  4  7  4  6 12  1  1  9  0 11 13  2  5 11  1 12  0
  0 12  3  1 11 16  2  1 12  5 10 17  3 16  1  1 20 22  5 20 15  3 19  3
  3  2 23 12 15 14  5]"
13700,342,1.0,7,3,2156.7396490573883,153.89240741729736,0,3507200,21333556,153595810,"[ 2  0  3  0  3  1  0  2  0  0  1  2  2  2  1  0  5  3  2  2  0  1  1  4
  0  5  6  2  5  2  4  4  8  4  6 12  1  6 12  1 13 10  5 12  1  4 12 16
  5 17  0  3  1  0  4 10 15  3 17  2  3 23 17  1  0 21  1  2  0  2 19 17
  2  0 18 12 15 14  5]"
13800,342,1.0,7,3,2172.135404586792,153.95752906799316,0,3532800,21488701,154677710,"[ 2  0  3  0  3  1  0  2  0  4  0  1  2  2  1  1  5  4  3  1  1  5  0  5
  0  5  6  2  4  8  4  4  8  4  6 12  3 12 13  2  8  5  4 11  4  0 18 16
  1  2 17  1  2 14  1 12 16  0 11 18  0  2  3  0 14 16  4 18 21  1 15 23
  0  3 14 12 15 14  5]"
13900,342,1.0,7,3,2187.4782497882843,153.42841863632202,0,3558400,21642662,155752314,"[ 2  0  3  0  3  1  0  2  0  0  3  1  2  2  1  3  6  1  5  2  6  3  6  8
  0  5  6  2  7  4  4  4  8  4  6 12  1  8 11  5  7  3  0 13  2  1 13 14
  2 12  3  3 11 18  2  0  3  0 11 14  4 18 21  1 19 22  1 14 21  5 20 17
  2 18  3 12 15 14  5]"
14000,342,1.0,7,3,2202.863131046295,153.84878158569336,0,3584000,21797227,156831388,"[ 2  0  3  0  3  1  0  2  0  4  3  1  2  2  1  1  8  3  0  7  7  3  4  8
  0  5  6  0  5  6  4  4  8  4  6 12  3 11  3  4  5  3  3  7  7  1  9 11
  2  9 17  4 18  3  0 11 10  0 16  9  3  1 21  3  1 19  0 19 19  0 18 15
  1 20 17 12 15 14  5]"
14100,342,1.0,7,3,2218.2489635944366,153.85828971862793,0,3609600,21951572,157908236,"[ 2  0  3  0  3  1  0  2  0  1  3  2  2  2  1  4  3  0  0  8  6  4  3  7
  0  5  6  4  4  1  4  4  8  4  6 12  0  7  1  2  7  2  4 12  9  5 15 14
  2 15 12  2 18 18  3  2 18  0 18  9  0  3  2  5  3 15  0  2 15  0 18 23
  0 22 22 12 15 14  5]"
14200,342,1.0,7,3,2233.542606115341,152.93639659881592,0,3635200,22105082,158978378,"[ 2  0  3  0  3  1  0  2  0  5  0  0  2  2  1  0  7  6  2  6  4  1  3  7
  0  5  6  1  1  8  4  4  8  4  6 12  1  7  1  1  6 10  1 13  4  5 10 18
  1 14 17  4  2 14  3 10  0  1 15  3  5  2 22  3 15 15  1  2  0  0 17 22
  3  2 14 12 15 14  5]"
14300,342,1.0,7,3,2248.901117324829,153.5850739479065,0,3660800,22259673,160056015,"[ 2  0  3  0  3  1  0  2  0  2  0  2  2  2  1  2  7  3  0  8  6  3  2  7
  0  5  6  1  5  8  4  4  8  4  6 12  3  2 10  1  2  2  0 11  3  5 17 12
  5  2  9  4 17 10  1 16 10  0 16  9  3  2 18  0 14 18  3 18 22  1 14 23
  3  0  3 12 15 14  5]"
14400,342,1.0,7,3,2264.7993071079254,158.98186683654785,0,3686400,22413589,161130161,"[ 2  0  3  0  3  1  0  2  0  0  1  2  2  2  1  4  7  5  0  8  6  2  2  7
  0  5  6  4  3  7  4  4  8  4  6 12  4  6  4  4  7  6  2  6 12  2 16 16
  3 14 15  2 13 11  4 18 12  1 18  9  5 18 22  5 15 23  3 22 19  4 23 18
  5 19  2 12 15 14  5]"
14500,342,1.0,7,3,2280.153063774109,153.53753328323364,0,3712000,22566962,162200102,"[ 2  0  3  0  3  1  0  2  0  4  0  2  2  2  1  5  6  3  5  5  5  2  8  8
  0  5  6  0  5  7  4  4  8  4  6 12  4  0  8  2  6  9  2  0  3  5  2 16
  0 12 15  1  1  3  4 11 11  0 15  3  4 21  3  4  0 18  1 19 17  3  0 22
  5 21 23 12 15 14  5]"
14600,342,1.0,7,3,2295.3882942199707,152.35227346420288,0,3737600,22719683,163264482,"[ 2  0  3  0  3  1  0  2  0  5  3  1  2  2  1  2  1  3  0  8  0  5  3  7
  0  5  6  1  2  3  4  4  8  4  6 12  3  0  8  2  5  8  2  7  1  2 10 18
  1 16  0  4 15 10  3 15  1  5 14 14  1 17 18  2 15  1  2 19 20  5 17 14
  2 15 17 12 15 14  5]"
14700,342,1.0,7,3,2310.832044363022,154.4374680519104,0,3763200,22875577,164351769,"[ 2  0  3  0  3  1  0  2  0  0  2  0  2  2  1  2  1  2  3  7  8  4  3  1
  0  5  6  0  2  1  4  4  8  4  6 12  4  3  1  5  2 11  3  2  2  4  3 17
  0  1 17  3  3 15  4 15 10  1 17 16  3 16  1  4 22  1  5 15 21  2  0  0
  5 21 16 12 15 14  5]"
14800,342,1.0,7,3,2326.1798012256622,153.47753763198853,0,3788800,23030139,165429317,"[ 2  0  3  0  3  1  0  2  0  0  3  2  2  2  1  3  8  1  5  7  7  5  4  7
  0  5  6  2  0  1  4  4  8  4  6 12  4  3  4  1  7  2  1  1  0  4  0  0
  5 13  2  1 15 13  4 14 17  1  0  3  1 22 16  5 21 21  4 15 14  5 14  1
  5 21  1 12 15 14  5]"
14900,342,1.0,7,3,2341.58105635643,154.01252031326294,0,3814400,23185248,166510698,"[ 2  0  3  0  3  1  0  2  0  1  2  3  2  2  1  2  1  3  5  3  3  5  0  7
  0  5  6  5  6  7  4  4  8  4  6 12  0  2  1  1  5 11  4  5  6  0  1 11
  5  1 15  1 15 11  3 10  1  0  3 18  1  3 16  5  0 21  5 20 20  2  1 16
  5  1 17 12 15 14  5]"
15000,342,1.0,7,3,2356.893826007843,153.12767028808594,0,3840000,23339372,167584403,"[ 2  0  3  0  3  1  0  2  0  0  2  0  2  2  1  4  4  5  1  7  7  4  0  3
  0  5  6  2  0  7  4  4  8  4  6 12  5  7  3  5 10  5  3 12  9  2 18 16
  3  2 15  1 12  0  5 13 18  5  2  3  2  2  3  4 22 14  0 18 21  3 22 23
  3 14 18 12 15 14  5]"
15100,342,1.0,7,3,2372.3922901153564,154.984610080719,0,3865600,23495836,168675341,"[ 2  0  3  0  3  1  0  2  0  4  0  1  2  2  1  0  4  8  0  7  5  2  5  4
  0  5  6  3  5  6  4  4  8  4  6 12  0 13  3  0  1  8  5 11  3  1  9 14
  2 14  3  4 14 11  2 12  0  3  0 12  1 15  1  2 19 17  3 15  2  1 16 20
  4 16 17 12 15 14  5]"
15200,342,1.0,7,3,2387.7065126895905,153.1421947479248,0,3891200,23649928,169748996,"[ 2  0  3  0  3  1  0  2  0  0  0  1  2  2  1  1  4  5  2  6  8  5  0  3
  0  5  6  5  3  1  4  4  8  4  6 12  2 11  8  2  5  6  5 11  3  5 15  9
  2  2  1  5 17 17  2  1 14  0 15 17  4 14  3  0  3 14  0 16 23  4 18  2
  5  1 17 12 15 14  5]"
15300,342,1.0,7,3,2403.12605881691,154.19543027877808,0,3916800,23805698,170833785,"[ 2  0  3  0  3  1  0  2  0  3  2  3  2  2  1  2  1  4  3  8  4  4  0  1
  0  5  6  2  3  5  4  4  8  4  6 12  1  9  6  0 12  6  5  8  2  1  9 18
  1 13  3  4 18  9  5 10  0  5 14 12  0  0 19  4  0  0  5 23 19  0 22 19
  4  3  2 12 15 14  5]"
15400,342,1.0,7,3,2418.7125854492188,155.86523532867432,0,3942400,23960718,171912828,"[ 2  0  3  0  3  1  0  2  0  1  3  1  2  2  1  0  3  0  4  0  6  4  0  5
  0  5  6  1  1  7  4  4  8  4  6 12  5  1  8  2 12  0  1  2  0  5 11 10
  5 14  1  2 15 13  5 12 18  3  1 18  1 18 17  3  2 15  3 20 22  0 17  2
  2  3 19 12 15 14  5]"
15500,342,1.0,7,3,2434.0500423908234,153.37454080581665,0,3968000,24115445,172990362,"[ 2  0  3  0  3  1  0  2  0  0  2  0  2  2  1  0  0  1  2  1  7  2  2  3
  0  5  6  4  0  2  4  4  8  4  6 12  1  3  3  3  8 11  4  8  2  0  3 13
  2 15 16  1  2  1  4  0 14  2 10 12  1 18 21  2 20 17  0  0  1  3 17  1
  2  3 14 12 15 14  5]"
15600,342,1.0,7,3,2449.4884922504425,154.3844723701477,0,3993600,24271449,174077418,"[ 2  0  3  0  3  1  0  2  0  1  2  1  2  2  1  3  4  0  0  5  7  5  7  6
  0  5  6  5  5  0  4  4  8  4  6 12  5 11  7  0  9 12  2  3  2  3 10  2
  1  9  2  1  1 14  5 15 14  4 18 17  1 16 23  3 21 18  4  2 15  4 15  1
  1 14 20 12 15 14  5]"
15700,342,1.0,7,3,2464.8248913288116,153.3639621734619,0,4019200,24425379,175150602,"[ 2  0  3  0  3  1  0  2  0  2  1  3  2  2  1  0  4  6  0  8  3  5  5  8
  0  5  6  2  7  6  4  4  8  4  6 12  2 12  6  2  2 10  1 10 13  4 10  2
  0 12  1  2 17 11  0  1 10  5  1  2  1 21  0  5 21 15  0 18 16  5 22  1
  3 21 14 12 15 14  5]"
15800,342,1.0,7,3,2480.2052211761475,153.80326509475708,0,4044800,24580422,176230797,"[ 2  0  3  0  3  1  0  2  0  4  2  0  2  2  1  0  5  1  4  4  8  4  1  8
  0  5  6  2  3  4  4  4  8  4  6 12  3  9  6  1  9 12  2 11 12  0 10  0
  1 10  9  5 16  2  2  1 16  0 10  2  0 21 21  0 18  2  5 23 23  4 20 14
  4 15 22 12 15 14  5]"
15900,342,1.0,7,3,2495.5788037776947,153.73566150665283,0,4070400,24735055,177308596,"[ 2  0  3  0  3  1  0  2  0  4  2  1  2  2  1  4  0  5  4  2  3  5  1  6
  0  5  6  4  1  0  4  4  8  4  6 12  4  2  5  2  9  2  0  3  0  5 11  0
  1 15 18  4  9  0  0 18 13  5 10 16  3  3 20  4  3 22  2 23 21  5 14 23
  3 18  1 12 15 14  5]"
16000,342,1.0,7,3,2511.039525985718,154.60719108581543,0,4096000,24891556,178398408,"[ 2  0  3  0  3  1  0  2  0  2  1  1  2  2  1  2  5  1  0  5  4  2  1  8
  0  5  6  4  1  4  4  4  8  4  6 12  4  9  6  4  3  0  4 10  5  0 11 13
  0 17 16  4 11  0  0  9  1  1 14 18  0  1 21  0  2  3  0 16 22  3 21 15
  2 16  2 12 15 14  5]"
16100,342,1.0,7,3,2526.3623955249786,153.22865962982178,0,4121600,25045546,179472005,"[ 2  0  3  0  3  1  0  2  0  1  2  3  2  2  1  0  4  1  1  8  6  5  1  3
  0  5  6  1  1  2  4  4  8  4  6 12  4  0  9  3 10  0  5  5 13  5  2 10
  5 17 13  2  2 10  1 12 18  5 17  9  3 19 20  1 16 21  0 16  3  0 20 20
  1 21 16 12 15 14  5]"
16200,342,1.0,7,3,2546.822911500931,204.60512161254883,0,4147200,25198603,180539215,"[ 2  0  3  0  3  1  0  2  0  2  3  1  2  2  1  1  0  5  4  5  7  1  4  7
  0  5  6  1  4  8  4  4  8  4  6 12  2  6  2  3 10  0  0  8 12  1  3  2
  5  1 16  4 15 12  1 14 18  4 15 14  3 21  3  4 18 15  3 21 23  5 18 17
  2 17 14 12 15 14  5]"
16300,342,1.0,7,3,2562.7560250759125,159.33110237121582,0,4172800,25352756,181613647,"[ 2  0  3  0  3  1  0  2  0  0  2  0  2  2  1  1  6  2  1  2  3  3  0  5
  0  5  6  4  5  2  4  4  8  4  6 12  2  8  5  5  0 10  1 12  2  2 18 16
  1 12  9  2  0 16  4 14 14  2  1  0  1 23 19  3 23  1  0 14 18  2 23  2
  5 21 18 12 15 14  5]"
16400,342,1.0,7,3,2578.4539239406586,156.97895288467407,0,4198400,25507897,182694990,"[ 2  0  3  0  3  1  0  2  0  2  1  0  2  2  1  2  2  3  3  1  1  3  7  5
  0  5  6  3  6  2  4  4  8  4  6 12  2 10  7  0  4 13  2  1  2  4 12  3
  2  9 17  5 10  3  4 16 15  1 16 16  4 15  3  2  2  2  1  1 22  5  1  1
  4 17 16 12 15 14  5]"
16500,342,1.0,7,3,2594.1059606075287,156.5203332901001,0,4224000,25663494,183779525,"[ 2  0  3  0  3  1  0  2  0  5  0  0  2  2  1  0  6  1  3  8  8  0  8  4
  0  5  6  5  1  2  4  4  8  4  6 12  5 11  1  2  9 11  2 12 10  4 11  0
  0 12  1  3  2 18  4 17 14  0 18  9  4 19 21  4 15 21  1  1 16  3 22 18
  2  0  3 12 15 14  5]"
16600,342,1.0,7,3,2609.3490812778473,152.43117809295654,0,4249600,25815640,184840785,"[ 2  0  3  0  3  1  0  2  0  4  3  3  2  2  1  3  2  4  3  7  7  5  1  1
  0  5  6  1  2  3  4  4  8  4  6 12  1  0  5  4  9 11  1  5  7  4 10 11
  4 15  9  3  3 18  2  3  1  5 13 18  2 16 22  4  0 14  3  1 18  2  2 20
  2  0 15 12 15 14  5]"
16700,342,1.0,7,3,2625.0126457214355,156.63561344146729,0,4275200,25972019,185930537,"[ 2  0  3  0  3  1  0  2  0  0  2  1  2  2  1  3  5  8  3  4  2  3  6  5
  0  5  6  1  5  1  4  4  8  4  6 12  2 10 13  3  7  0  0  1  6  0  9 10
  3 15  1  1  3  2  4 11 15  2  9 14  0 21 21  1 21 22  5 15  2  0  1 16
  2 18 15 12 15 14  5]"
16800,342,1.0,7,3,2640.418409347534,154.05760288238525,0,4300800,26127541,187013009,"[ 2  0  3  0  3  1  0  2  0  2  3  3  2  2  1  5  5  1  0  1  3  3  0  1
  0  5  6  4  6  0  4  4  8  4  6 12  2  8  6  1  0  2  1  7  6  1 11  0
  3 15 11  4 16 18  2 10  9  0  9 15  4 22 19  5 20 16  1 15 21  5  3 21
  2  2 19 12 15 14  5]"
16900,342,1.0,7,3,2656.0003776550293,155.8196520805359,0,4326400,26285161,188111116,"[ 2  0  3  0  3  1  0  2  0  5  2  2  2  2  1  5  1  6  2  5  0  3  5  6
  0  5  6  4  5  5  4  4  8  4  6 12  4  2  0  3  3  2  3  1  4  5 10 18
  2 12 18  4 11 16  3 16 12  0  2  1  4  3  1  4 20 15  0 14  1  3 17 16
  3 22 18 12 15 14  5]"
17000,342,1.0,7,3,2671.4196779727936,154.19297218322754,0,4352000,26440551,189192611,"[ 2  0  3  0  3  1  0  2  0  3  3  1  2  2  1  4  8  8  1  1  2  4  2  6
  0  5  6  2  5  6  4  4  8  4  6 12  1  3 10  2  6  0  4  0  6  3 16 18
  5  2  1  0 12  1  4  0 18  4 15 18  4  2  1  4  0 18  0  3  3  0 20 21
  0 21 22 12 15 14  5]"
17100,342,1.0,7,3,2686.840179681778,154.20498371124268,0,4377600,26595429,190272568,"[ 2  0  3  0  3  1  0  2  0  5  1  0  2  2  1  0  5  7  5  8  3  1  6  3
  0  5  6  2  5  2  4  4  8  4  6 12  5 13 12  2  8  8  4 10  9  0 10 17
  0 18  9  5 10  9  0 10  2  4 13 12  3 23  1  5  3 15  3  2 17  0 17 21
  0  0 23 12 15 14  5]"
17200,342,1.0,7,3,2702.276666879654,154.3648386001587,0,4403200,26750970,191356987,"[ 2  0  3  0  3  1  0  2  0  2  1  1  2  2  1  0  6  3  3  8  2  0  3  1
  0  5  6  2  0  5  4  4  8  4  6 12  4 13  7  2  8  5  0  1  7  5 13 18
  5 16 11  3 18 11  4 12 11  4  1  2  3  1 18  0 19 22  4 19 22  5 19 19
  0  2 21 12 15 14  5]"
17300,342,1.0,7,3,2717.4693756103516,151.92705631256104,0,4428800,26902890,192416047,"[ 2  0  3  0  3  1  0  2  0  5  2  1  2  2  1  3  1  2  4  5  0  2  7  7
  0  5  6  5  5  8  4  4  8  4  6 12  5  3  7  2  3  6  1 13  7  5 13  2
  0 16 10  4 12 12  3 17 16  5 16 14  3  3 20  1 19 21  0 19 18  1 15  3
  1 17  2 12 15 14  5]"
17400,342,1.0,7,3,2732.871020078659,154.01641368865967,0,4454400,27058218,193498103,"[ 2  0  3  0  3  1  0  2  0  4  2  2  2  2  1  3  1  3  5  2  2  3  8  1
  0  5  6  4  5  4  4  4  8  4  6 12  5  7 12  4 11  9  1  6  9  1  1 11
  2 17  2  2 10 17  1 15 10  3 13 15  5  2 15  4 14 20  3  2 20  5 19 23
  0 23 23 12 15 14  5]"
17500,342,1.0,7,3,2748.2013669013977,153.3034372329712,0,4480000,27212087,194571236,"[ 2  0  3  0  3  1  0  2  0  3  1  1  2  3  1  4  2  6  2  4  0  5  2  1
  0  5  6  2  2  1  4  4  8  4  6 12  4  4 13  5  0 10  0  2 10  1 12  2
  4 10 16  5 12  0  2  2  0  4 16  9  0 15 15  0  0 18  3 17  2  2 16  2
  5 20 19 12 15 16  5]"
17600,342,1.0,7,3,2763.172017812729,149.7064757347107,0,4505600,27360867,195607938,"[ 2  0  3  0  3  1  0  2  0  5  2  2  0  0  3  5  2  5  1  3  5  2  5  1
  0  5  6  2  2  1  1  9  1  4  6 12  4  4 13  4  4  1  1  9  1  2 18  2
  3  9 16  4 12 12  2 11  0  3  1 10  3 20 21  3 14 18  1 23  0  3 16 15
  2  0 14 12 15 16  5]"
17700,342,1.0,7,3,2778.2796087265015,151.07587814331055,0,4531200,27511390,196657480,"[ 2  0  3  0  3  1  0  2  0  2  2  2  5  0  0  4  3  0  3  3  2  2  6  1
  0  5  6  2  2  1  3  6  0  4  6 12  4  4 13  5 11  1  4 11  9  0  1 12
  5 14 14  2 18 14  3  1 13  5 18  2  4  0 19  0  3  3  2 16 19  4 14 21
  0  0 14 12 15 16  5]"
17800,342,1.0,7,3,2793.456709623337,151.77098035812378,0,4556800,27661003,197699597,"[ 2  0  3  0  3  1  0  2  0  3  1  0  5  2  0  2  1  6  4  7  1  2  1  1
  0  5  6  2  2  1  4  6 12  4  6 12  4  4 13  4 10  8  2 12  0  3  9 18
  4  2 12  2 15  1  3 10 15  0 15 13  3 17 14  0  1 15  5  2  1  1  1  1
  4  2 14 12 15 16  5]"
17900,342,1.0,7,3,2808.4873235225677,150.3061056137085,0,4582400,27810413,198740724,"[ 2  0  3  0  3  1  0  2  0  5  3  0  1  2  0  0  5  0  5  8  6  5  4  5
  0  5  6  2  2  1  5  0  6  4  6 12  4  4 13  1  8  0  1 13  7  3 17 13
  2 11 18  3 15 11  3 12 13  2 15  3  0 17 16  4 22  2  1 14 22  0  1 15
  2  1  0 12 15 16  5]"
18000,342,1.0,7,3,2823.553606748581,150.66280364990234,0,4608000,27959978,199784701,"[ 2  0  3  0  3  1  0  2  0  3  3  0  1  0  2  5  3  8  2  4  4  3  8  5
  0  5  6  2  2  1  2 11  8  4  6 12  4  4 13  1  8  6  4  3 12  0 17 15
  5 14 10  5 13 15  2 10 17  2 15 17  5 15 19  0 22 19  1 14 17  5  1 19
  1 15  3 12 15 16  5]"
18100,342,1.0,7,3,2838.476735830307,149.23126220703125,0,4633600,28107739,200815079,"[ 2  0  3  0  3  1  0  2  0  5  1  0  2  3  3  3  7  1  1  7  2  2  1  1
  0  5  6  2  2  1  0  0 12  4  6 12  4  4 13  3  7 11  0  8 12  4 12 15
  4 11  1  2 11 12  2 16 15  3  1 10  2 14 18  0 19 20  5 21  2  5  0 20
  0  1 15 12 15 16  5]"
18200,342,1.0,7,3,2853.522409439087,150.4567050933838,0,4659200,28256814,201855572,"[ 2  0  3  0  3  1  0  2  0  2  0  3  4  2  1  1  7  5  4  8  6  1  0  1
  0  5  6  2  2  1  0  0  0  4  6 12  4  4 13  2  3  9  4 12  0  0  3  2
  2 17 15  1 14 17  0  0 13  3 15 15  1 18 19  1  2 22  2  1  3  0 14 20
  3 14 15 12 15 16  5]"
18300,342,1.0,7,3,2868.561685323715,150.3927230834961,0,4684800,28406534,202898130,"[ 2  0  3  0  3  1  0  2  0  5  1  0  0  3  3  3  4  6  5  5  3  1  6  1
  0  5  6  2  2  1  3  2  8  4  6 12  4  4 13  4  3 13  0  9  5  1  3 12
  4  2 10  4 10 11  4 15  9  4 14  1  5 20 15  1 15  2  1  2 21  3 22 14
  4  0 16 12 15 16  5]"
18400,342,1.0,7,3,2883.4293608665466,148.67672443389893,0,4710400,28552858,203919425,"[ 2  0  3  0  3  1  0  2  0  1  0  3  4  0  3  2  8  8  4  0  4  1  5  1
  0  5  6  2  2  1  5  1  6  4  6 12  4  4 13  4  5  9  0 11 11  2 14 16
  2 10  2  5 11 14  4  1 11  2 14  0  3 19 15  0 22 21  1 21  3  0 15 17
  3 15 22 12 15 16  5]"
18500,342,1.0,7,3,2898.402932167053,149.73567962646484,0,4736000,28700818,204951203,"[ 1  0  0  0  3  1  0  2  0  0  2  3  2  0  3  3  1  5  0  1  5  5  8  4
  0  5  6  2  2  1  0 13 10  4  6 12  4  8 13  3  2 10  4  5  6  3 15 13
  5  9 16  3  9 15  4  2  1  0 11 13  4 19 20  1 16 20  5 22 19  5 17 20
  2 17 15 12 15 16  5]"
18600,342,1.0,7,3,2913.4765164852142,150.73580741882324,0,4761600,28850496,205995861,"[ 3  1  0  0  3  1  0  2  0  2  0  2  2  0  3  5  0  2  4  6  8  5  5  1
  0  5  6  2  2  1  3 13  7  4  6 12  4  8 13  2  2 11  3 13  4  4  9 13
  4 15 17  4  1 11  2 17 11  5 11  3  4  2 16  1  2 23  5  1 20  3 16 15
  5 20 17 12 15 16  5]"
18700,342,1.0,7,3,2928.5218670368195,150.45347213745117,0,4787200,29000067,207038735,"[ 2  2  0  0  3  1  0  2  0  5  3  2  2  0  3  3  4  6  3  0  4  2  8  8
  0  5  6  2  2  1  3 12  4  4  6 12  4  8 13  4  8  9  3 13  2  1  1 10
  4 14  9  3 14 13  3 12 18  1 12 18  0 21 15  0 21 19  3 20  3  0  1  2
  3 16 14 12 15 16  5]"
18800,342,1.0,7,3,2943.4921419620514,149.70271825790405,0,4812800,29148281,208073151,"[ 3  1  2  0  3  1  0  2  0  5  3  0  2  0  3  3  7  3  0  5  4  3  8  5
  0  5  6  2  2  1  3  9 13  4  6 12  4  8 13  1 11  8  3 12  4  1 16  2
  2 16 14  1  1 14  4 13 14  2 16  9  4 18 16  3  0  1  4 17  0  3 23  0
  2 20  2 12 15 16  5]"
18900,342,1.0,7,3,2958.418883085251,149.26737546920776,0,4838400,29296135,209104357,"[ 0  0  0  0  3  1  0  2  0  1  0  2  2  0  3  4  2  3  3  3  1  4  1  5
  0  5  6  2  2  1  0  1  1  4  6 12  4  8 13  5  0  8  1 10 12  3 11  9
  5  9 17  1  2 13  5 15 17  4 10 13  5  2  3  2 17  1  5 17 15  1 23 21
  3 23 19 12 15 16  5]"
19000,342,1.0,7,3,2973.4113841056824,149.92498397827148,0,4864000,29444901,210142691,"[ 0  2  2  0  3  1  0  2  0  4  3  3  2  0  3  2  5  2  3  4  0  5  3  5
  0  5  6  2  2  1  5 13  6  4  6 12  4  8 13  0 10  8  0 10  1  0 15  3
  3 15 14  2 18 13  3  9 16  2 18 11  2 14 21  4 15 15  0 14 21  3  2 23
  3  0 23 12 15 16  5]"
19100,342,1.0,7,3,2988.34552025795,149.34133291244507,0,4889600,29592521,211172275,"[ 1  2  3  0  3  1  0  2  0  3  1  2  2  0  3  0  2  7  1  0  4  5  4  4
  0  5  6  2  2  1  5  9  9  4  6 12  4  8 13  4  2  7  3 10  8  3 10 12
  3 12 13  0 13 11  3  1 17  5  0  1  4 20 19  1 22 21  5 22 21  3  3 21
  0 15 23 12 15 16  5]"
19200,342,1.0,7,3,3003.3718314170837,150.26308298110962,0,4915200,29741494,212212899,"[ 1  0  3  0  3  1  0  2  0  0  2  3  2  0  3  1  2  0  0  7  3  1  5  6
  0  5  6  2  2  1  5  4 11  4  6 12  4  8 13  0  6  4  1  7  1  0 18 16
  1 12  2  4  9  1  3  0 13  2 11 17  2 23 19  4 14 16  5  2  1  4 17 22
  5 17 20 12 15 16  5]"
19300,342,1.0,7,3,3018.282366991043,149.10531759262085,0,4940800,29889070,213241568,"[ 0  2  3  0  3  1  0  2  0  3  2  0  2  0  3  4  8  8  3  5  1  1  1  8
  0  5  6  2  2  1  5  8  3  4  6 12  4  8 13  0 12  7  3  4  8  2 10  2
  4 14 14  0 13 18  0  2  3  5  2 17  1 23 19  1 14 21  3 14 22  4 23 15
  0 15 14 12 15 16  5]"
19400,342,1.0,7,3,3033.2444927692413,149.62122440338135,0,4966400,30037529,214276664,"[ 4  2  3  0  3  1  0  2  0  2  3  2  2  0  3  1  3  5  0  0  7  0  5  6
  0  5  6  2  2  1  5  3  2  4  6 12  4  8 13  2 12  0  5 10  5  1  9  1
  4 13  0  4 12  1  1 14 11  1 16 16  0  1 14  2 18 18  5 21 17  2  1 21
  0  3 21 12 15 16  5]"
19500,342,1.0,7,3,3048.2249915599823,149.8049545288086,0,4992000,30186264,215313751,"[ 1  0  1  0  3  1  0  2  0  2  3  3  2  0  3  0  8  7  4  4  5  3  2  5
  0  5  6  2  2  1  4  9  3  4  6 12  4  8 13  4  3 11  0  0  6  0  9  9
  4 11  3  3 16  3  1  3 13  3  3 13  2  3  3  4 20 21  1  3 19  0  2 15
  0 16 18 12 15 16  5]"
19600,342,1.0,7,3,3063.3313784599304,151.06383562088013,0,5017600,30336971,216364730,"[ 4  0  2  0  3  1  0  2  0  4  1  0  2  0  3  4  0  7  3  1  0  5  2  2
  0  5  6  2  2  1  4  2  6  4  6 12  4  8 13  5  7  9  3  1  6  5 13 11
  0 15  2  2  3 15  0  0 11  1  9 13  4 15 15  5  3  2  3 23 14  3 16 15
  5 23 22 12 15 16  5]"
19700,342,1.0,7,3,3078.2292153835297,148.97833824157715,0,5043200,30484454,217392764,"[ 0  1  0  0  3  1  0  2  0  3  3  3  2  0  3  4  2  6  4  8  8  1  2  5
  0  5  6  2  2  1  0  3  6  4  6 12  4  8 13  1  9  9  2  2  5  1 12 16
  5  3 17  5  3 16  3 15 13  2 13  1  1 15 19  3  3  0  3  2 17  3 15 15
  4  2 15 12 15 16  5]"
19800,342,1.0,7,3,3093.304402589798,150.75183868408203,0,5068800,30634542,218439709,"[ 2  1  1  0  3  1  0  2  0  1  0  2  2  0  3  1  5  3  0  7  8  3  5  5
  0  5  6  2  2  1  5 11  2  4  6 12  4  8 13  2  5  1  5 10 10  5 18 11
  0 11 18  5 12 16  3 13 13  0 13 12  1 17  0  3 16  2  4 18  0  5 17 19
  4  2  1 12 15 16  5]"
19900,342,1.0,7,3,3108.5143010616302,152.0989489555359,0,5094400,30786479,219499817,"[ 3  1  1  0  3  1  0  2  0  2  2  1  2  0  3  3  7  4  2  4  2  5  7  8
  0  5  6  5  4  1  5  0  9  4  6 12  4  8  7  3  3  6  5  0  1  5  2 17
  5 12 12  1  1  3  0 17  2  5 14  0  3  2  0  5  2 16  1 18 17  2 18 14
  0 23 18 12 15 16  5]"
20000,342,1.0,7,3,3123.9308156967163,154.16511058807373,0,5120000,30942046,220583709,"[ 0  3  3  0  3  1  0  2  0  2  2  1  2  0  3  4  8  7  3  7  2  3  4  4
  0  5  6  3  2  1  3  5  6  4  6 12  4  8  7  0  5 12  4  0  5  3  2 14
  5 10 14  5 12 18  2 18 15  5 17  3  4  0 21  4 22 17  2 17  1  4 15 22
  0 22  0 12 15 16  5]"
