generation,fitness,functionality,active_nodes,longest_path,time,gen_time,nc_gens,fitness_evals,graph_evals,node_evals,genotype
0,155.0,0.40625,4,1,0.014890909194946289,14.885187149047852,0,0,0,0,"[ 3  2  2  3  1  1  5  0  0  5  3  2  2  2  0  0  3  8  3  0  3  2  3  2
  0  4  7  2  3  4  4 12 10  5 11 13  0  9  6  3  0  0  5  7 12  4  7 16
  5  3  1  2 17 15  1  5  7  1 14  8  0 19 23  1 15  9  0  9  0  2 23 23
  5 21  1 10  8  6  7]"
100,311.0,0.90625,7,2,1.267141342163086,12.52246379852295,23,400,5809,31921,"[ 3  1  1  2  0  2  0  1  3  0  2  2  2  0  3  4  1  6  3  8  3  2  1  3
  1  6  0  5  7  8  0 12  6  1  0  1  4  9  5  2  5  5  5  3 10  2  7  5
  1 11  3  2 15 16  4 18  8  5 17 11  0 13 13  0  2  2  0 17 11  3  0 23
  0 20 14 10 17 13  6]"
200,317.0,0.921875,6,2,2.438206434249878,11.710610389709473,69,800,10571,62440,"[ 3  0  0  2  0  2  0  1  3  1  3  3  2  0  3  4  4  0  3  8  3  2  2  8
  3  0  0  5  1  8  3  6  0  5  7  3  0  9  2  3  6  5  3  4  7  4 16 14
  1 18 11  2 15 16  4  4  8  4 14 16  0  0 23  5  2 13  1 16 11  4 20  2
  3 22 22 10 17 13  6]"
300,317.0,0.921875,6,2,3.555966377258301,11.1775541305542,113,1200,15216,90814,"[ 3  1  3  2  0  2  0  1  3  2  2  1  2  0  3  5  5  4  3  8  3  2  3  7
  3  6  6  5  8  1  5  4  9  4 11  7  0 10  2  3  6  5  0  5  9  5  5  7
  1  7 18  4 17 11  1 11 18  0 17 11  5 11  9  5 15 15  4  3 21  3  1  9
  3  3 23 10 17 13  6]"
400,322.0,0.9375,6,2,4.634350061416626,10.783793926239014,152,1600,19692,118136,"[ 5  1  1  2  0  2  0  1  3  4  2  3  2  1  3  2  1  4  3  8  5  4  1  5
  5  5  8  5  5  6  1  9  2  4  1 13  0  6  3  3  6  5  4  1  0  5  1 16
  0  8  1  4  1 12  0 16  0  3 11 11  3 10  0  5 13 18  5  0 14  1  1 10
  5 17 12 10 17 13  6]"
500,322.0,0.9375,6,2,5.656339168548584,10.219850540161133,204,2000,23866,143482,"[ 1  2  2  2  0  2  0  1  3  4  0  0  2  1  3  0  2  8  3  8  5  2  4  0
  2  6  7  5  5  6  1  8  8  3  3  8  4  6  4  3  6  5  4  6 10  5 14 18
  2  8 11  2  4 12  5 11  6  3 15  2  4 10  1  3  9  3  0 10 17  1 17  0
  3 13  0 10 17 13  6]"
600,322.0,0.9375,6,2,6.651346445083618,9.950032234191895,258,2400,27906,168016,"[ 1  2  0  2  0  2  0  1  3  2  3  2  2  1  3  5  5  7  3  8  5  2  3  3
  5  5  6  5  5  6  1 10  1  1  2 12  3  7 11  3  6  5  0  4 10  4  6 10
  1  8  9  0  3 12  2 17  6  3 15 13  4  0 13  2 22 17  1 13 17  3  2  0
  1 15 19 10 17 13  6]"
700,322.0,0.9375,6,2,7.62580132484436,9.744510650634766,314,2800,31826,191882,"[ 1  3  1  2  0  2  0  1  3  0  3  3  2  1  3  5  5  1  3  8  5  0  6  1
  3  4  1  5  5  6  2  5  8  1  9  7  3  7 11  3  6  5  4  8  0  0  9 10
  5 17  4  5  5 14  4 18  3  3 15 17  0  9 18  5 22 17  4 13 17  4  0 20
  4 13  0 10 17 13  6]"
800,322.0,0.9375,6,2,8.615467309951782,9.89661455154419,371,3200,35847,216279,"[ 4  3  1  2  0  2  0  1  3  0  2  3  2  1  3  5  5  6  3  8  5  3  4  1
  4  8  1  5  5  6  2  7 12  0  9 12  1  0 12  3  6  5  1  5  4  3  9 13
  1  9  1  1  6 13  3  1  7  1  4 17  0  3 13  3 22 23  2 16 10  2 17 20
  5 11 14 10 17 13  6]"
900,322.0,0.9375,6,2,9.604710578918457,9.892394542694092,422,3600,39880,240613,"[ 0  3  0  2  0  2  0  1  3  4  2  2  2  1  3  1  5  3  3  8  5  3  3  3
  3  8  1  5  5  6  4  7  0  0  7 12  1 10  8  3  6  5  1  8  6  3  1 10
  5 16 17  1 15 13  2 13  0  4  1 17  1 19 18  3 13 10  5 12  3  2 20 12
  0  2  1 10 17 13  6]"
1000,322.0,0.9375,6,2,10.603273868560791,9.985594749450684,480,4000,43954,265155,"[ 4  3  1  2  0  2  0  1  3  3  2  2  2  1  3  2  7  3  3  8  5  5  5  8
  5  7  4  5  5  6  2  5  0  4 12  4  5 13  8  3  6  5  1  9  6  4  1  8
  5  9  7  1  2 18  2 13  0  4 17  4  5 21 16  1 21 18  5 18  0  5 11 18
  3  2 11 10 17 13  6]"
1100,322.0,0.9375,6,2,11.593814611434937,9.905357360839844,540,4400,47944,289484,"[ 2  1  2  2  0  2  0  1  3  5  1  2  2  1  3  5  1  3  3  8  5  2  5  8
  4  3  5  5  5  6  4  5 10  1  6  2  0  6 11  3  6  5  0  3  7  0  4 17
  5  7 18  0  4 12  1 16 15  2 13  6  1 22 10  4 21 19  1 18  0  3 19 14
  1 21 12 10 17 13  6]"
1200,322.0,0.9375,6,2,12.588860273361206,9.950413703918457,592,4800,51961,313969,"[ 1  2  1  2  0  2  0  1  3  2  0  2  2  1  3  2  1  2  3  8  5  2  5  7
  4  3  6  5  5  6  3  8  4  0  6  2  0 12 13  3  6  5  0  0  7  5  4 14
  2 14 13  5 15 12  2  2 12  5 12 10  5  9  9  2  2 19  2 18 19  4  1  2
  4 21  1 10 17 13  6]"
1300,322.0,0.9375,6,2,13.584105968475342,9.95241403579712,641,5200,55956,338410,"[ 4  2  2  2  0  2  0  1  3  5  1  0  2  1  3  2  1  7  3  8  5  2  1  7
  1  1  1  5  5  6  5  7 13  3  6  0  4 13  6  3  6  5  3  0  8  4 18 12
  2  9 15  0 11 13  1 13 16  0  2 15  4  3 16  5 10  1  0  1 18  1 14  3
  4 12 21 10 17 13  6]"
1400,322.0,0.9375,6,2,14.577694416046143,9.93584156036377,697,5600,60002,362833,"[ 5  2  2  2  0  2  0  1  3  0  3  2  2  1  3  2  3  0  3  8  5  5  2  2
  0  0  3  5  5  6  1  3  2  0  6  4  2  0 10  3  6  5  3  7  9  4  3 12
  0 16  7  4  4 10  5  8 10  1 12 18  3 13 10  0 23 11  2 16 18  5 21  3
  1  2 11 10 17 13  6]"
1500,322.0,0.9375,6,2,15.564589738845825,9.868910312652588,752,6000,63972,387005,"[ 2  0  1  2  0  2  0  1  3  0  3  3  2  1  3  2  4  7  3  8  5  2  6  5
  5  8  7  5  5  6  3  7 13  1  7  9  3  1  2  3  6  5  0 12 13  3  6  0
  0 17 15  2  6  1  1 13  4  2  1  2  5 12 15  1 14 11  4 20 10  0 17 12
  5  2 11 10 17 13  6]"
1600,322.0,0.9375,6,2,16.534268617630005,9.696745872497559,811,6400,67862,410681,"[ 2  2  1  2  0  2  0  1  3  3  1  2  2  1  3  2  6  1  3  8  5  2  1  2
  5  8  8  5  5  6  5  5  7  3  3  8  5 10  2  3  6  5  2  5  8  3  3 16
  1  7  4  1 16  3  0 13  7  4  1 14  5 18 18  0 21 12  4 23 19  4 17 22
  5  3 18 10 17 13  6]"
1700,322.0,0.9375,6,2,17.528183698654175,9.939110279083252,864,6800,71879,434999,"[ 4  2  1  2  0  2  0  1  3  3  1  1  2  1  3  0  7  2  3  8  5  3  3  8
  1  3  7  5  5  6  3 10  2  3 12  0  3 10  2  3  6  5  1  3  0  0 16  8
  2 11  8  3 14  5  5  2  7  1  5  5  5  1 18  1 10 16  1 16 19  3 12 23
  5  3  2 10 17 13  6]"
1800,322.0,0.9375,6,2,18.5445396900177,10.163512229919434,909,7200,76037,460170,"[ 4  2  2  2  0  2  0  1  3  5  3  1  2  1  3  0  2  7  3  8  5  3  4  5
  1  3  0  5  5  6  3  7  8  0  3  0  5  5  5  3  6  5  5  3 12  5  7  7
  2  2 15  1 14 18  2  6 10  2  3 15  0 16 18  5  9 19  4 16 19  4  0  3
  2  3 13 10 17 13  6]"
1900,322.0,0.9375,6,2,19.55718684196472,10.126426219940186,963,7600,80174,485315,"[ 5  3  0  2  0  2  0  1  3  1  1  0  2  1  3  5  6  0  3  8  5  4  3  3
  5  6  8  5  5  6  1 13  7  0  3  4  1  5  4  3  6  5  5 11 13  3 16  2
  5 13  1  0 16  2  1 18  9  2 16 15  0 13 23  2 11 13  3  2  0  3 20 10
  2  3 15 10 17 13  6]"
2000,322.0,0.9375,6,2,20.572932481765747,10.157408714294434,1021,8000,84323,510503,"[ 0  3  0  2  0  2  0  1  3  4  1  0  2  1  3  4  0  0  3  8  5  0  3  4
  4  5  8  5  5  6  1  2  0  0  8  9  5  5  1  3  6  5  5  0  8  3  8  7
  5  0  1  1 15  1  3  9  8  1  6 15  0 23 17  1 10 20  3 16 11  5 23 10
  2 17 17 10 17 13  6]"
2100,322.0,0.9375,6,2,21.57890772819519,10.059714317321777,1074,8400,88423,535244,"[ 2  3  0  2  0  2  0  1  3  2  1  3  2  1  3  4  5  0  3  8  5  2  8  4
  4  1  2  5  5  6  1 11 11  0 10  6  2  6  2  3  6  5  5  1  6  2  8 12
  1 12  8  3  9  6  2  9 10  2  6 15  5  3  9  0 14  1  2  1 16  4 15 21
  3  2  9 10 17 13  6]"
2200,322.0,0.9375,6,2,22.584286212921143,10.053739547729492,1120,8800,92490,560117,"[ 4  3  3  2  0  2  0  1  3  2  0  3  2  1  3  2  7  0  3  8  5  1  3  8
  3  5  2  5  5  6  0  6  1  3 10 13  1 13  2  3  6  5  5  1  9  5 17 16
  1 18  1  2 18 12  1  9  3  5  8 18  5 18  9  4 14 18  4  1 16  2 21 16
  4  2 19 10 17 13  6]"
2300,322.0,0.9375,6,2,23.58217978477478,9.97889518737793,1166,9200,96533,584692,"[ 2  0  3  2  0  2  0  1  3  2  0  0  2  1  3  2  3  1  3  8  5  4  7  6
  5  0  2  5  5  6  2 10  6  5  5 12  0  6  2  3  6  5  4  6 12  5 11 13
  4  3  8  3  3 16  3 18 13  2 16  0  4  9  9  4 14 19  4  1 16  4 21 16
  5  1 22 10 17 13  6]"
2400,322.0,0.9375,6,2,24.591837644577026,10.096538066864014,1212,9600,100642,609626,"[ 2  2  3  2  0  2  0  1  3  2  0  2  2  1  3  3  0  5  3  8  5  5  8  8
  5  6  2  5  5  6  1 13 10  4  2 12  4 12  7  3  6  5  2  8 10  4 11 16
  0 13  5  1  5 16  0 11  5  0  3  5  5 18  0  5 23 23  5 23 20  3  2  3
  2  9  9 10 17 13  6]"
2500,322.0,0.9375,6,2,25.622905731201172,10.310642719268799,1255,10000,104849,635269,"[ 0  2  1  2  0  2  0  1  3  5  1  3  2  1  3  5  6  5  3  8  5  0  5  5
  5  5  0  5  5  6  4 11  3  3 10 10  5  9  6  3  6  5  3  2  0  1 14 17
  3 16 15  5  2 16  0 18 17  0 13  2  2 20  1  1 23 18  2  9 20  2 16 11
  2  2  1 10 17 13  6]"
2600,322.0,0.9375,6,2,26.731386423110962,11.084764003753662,1301,10400,109471,663634,"[ 0  2  1  2  0  2  0  1  3  5  2  2  2  1  3  0  2  2  3  8  5  3  7  2
  5  0  6  5  5  8  5 11  3  3 10  3  0  9 13  3  6  5  2  2  8  3  8  2
  4  8 15  5  2  3  0  6 17  4 18 12  2 10  9  4 23 12  0  9 18  0 16 21
  3 20 15 10 17  4  6]"
2700,322.0,0.9375,6,2,27.88282537460327,11.514346599578857,1356,10800,114334,693168,"[ 0  2  1  2  0  2  0  1  3  5  3  3  2  1  3  2  2  5  3  8  5  2  8  2
  2  4  2  5  7  5  5 13  2  3 10  3  0 12 11  3  6  5  1  7  8  1 10  2
  2  4  9  5 14 11  2 16 18  0 14 12  4 18  3  3  1 22  3 18 19  2 17  1
  4 20 22 10 17  4  6]"
2800,322.0,0.9375,6,2,29.032564640045166,11.497349739074707,1397,11200,119245,722987,"[ 0  2  1  2  0  2  0  1  3  3  2  1  2  1  3  3  4  0  3  8  5  2  2  2
  3  2  1  4  7  4  3  1  1  3  8  1  3 11 13  3  6  5  2  2  5  2 18  0
  5  4 16  1 17  3  2  1  9  0 16  7  5  2 19  3  9 16  1 13  2  5  9 17
  1 12  9 10 17  4  6]"
2900,322.0,0.9375,6,2,30.151926279067993,11.193573474884033,1463,11600,124033,751653,"[ 0  2  1  2  0  2  0  1  3  3  3  3  2  1  3  1  6  3  3  8  5  2  7  2
  3  6  8  3  8  8  1  9  1  3  8  4  1 11  7  3  6  5  2 13 10  2  9  4
  0  7 11  2 17  6  4  1  7  4  0 11  0  0  3  0  3 16  1  0  2  5  9 18
  3 12  2 10 17  4  6]"
3000,322.0,0.9375,6,2,31.294273853302002,11.423430442810059,1507,12000,128924,781255,"[ 0  2  1  2  0  2  0  1  3  1  0  1  2  1  3  1  8  8  3  8  5  3  1  3
  4  6  7  4  2  7  3  2  3  1 11  4  3  2  7  3  6  5  2  2 10  2  4  4
  3 16 14  5 17  9  3 11  1  4  8 11  0 12 18  5 13 12  1 14 13  4 16 13
  4 16  2 10 17  4  6]"
3100,322.0,0.9375,6,2,32.41923475265503,11.249568462371826,1558,12400,133685,810122,"[ 0  2  1  2  0  2  0  1  3  1  1  2  2  1  3  0  8  3  3  8  5  4  5  0
  0  6  5  1  8  4  4  2  9  5  7 12  3 11 13  3  6  5  0  0  2  1  4  4
  1 18 17  0 14 11  2  3  8  1  6  6  4 10 10  1 13  2  2 19 20  2 13 13
  3  1 20 10 17  4  6]"
3200,322.0,0.9375,6,2,33.56229305267334,11.430540084838867,1614,12800,138589,839611,"[ 0  2  1  2  0  2  0  1  3  1  0  2  2  1  3  3  8  1  3  8  5  3  1  8
  3  1  3  1  6  1  5  7  7  0  1  5  3  6  5  3  6  5  0 11  7  5 16  9
  1  2 13  1 10  5  2  5 12  2  6  4  5  3 10  2 13  0  0  1 11  3 19 15
  5 22 15 10 17  4  6]"
3300,322.0,0.9375,6,2,34.70318126678467,11.408836841583252,1669,13200,143438,868953,"[ 0  2  1  2  0  2  0  1  3  0  0  0  2  1  3  3  8  1  3  8  5  2  6  2
  3  0  2  4  6  8  4 13 12  4 10  5  3  5  9  3  6  5  5  5  7  4 16  9
  0  1 13  0  1  5  5 15 17  2  0 14  5  3 10  0 12  0  1 13 18  4 19 15
  5 18 15 10 17  4  6]"
3400,322.0,0.9375,6,2,35.82958173751831,11.263961791992188,1730,13600,148235,897915,"[ 0  2  1  2  0  2  0  1  3  0  2  1  2  1  3  3  0  1  3  8  5  2  2  5
  1  7  2  4  1  5  5  9  9  4  0  5  0 12  1  3  6  5  0  5  6  2 16  6
  2  5 13  3  1  5  5 10  2  4  0 11  3 15 10  4 23 22  2  1 16  1 18  3
  3  0 15 10 17  4  6]"
3500,322.0,0.9375,6,2,36.96004390716553,11.30458116531372,1778,14000,153020,926825,"[ 0  2  1  2  0  2  0  1  3  0  3  0  2  1  3  3  7  6  3  8  5  0  6  5
  3  7  8  1  7  8  3  7  0  2  5  9  4  5 10  3  6  5  4  9  2  5  8 15
  3 14 14  3  7 15  0 14 16  0  1  9  5 22 11  1 22  0  5 15 23  1 15 15
  3 22 20 10 17  4  6]"
3600,322.0,0.9375,6,2,38.11960768699646,11.595597267150879,1838,14400,157929,956753,"[ 0  2  1  2  0  2  0  1  3  1  1  2  2  1  3  1  0  4  3  8  5  1  3  6
  1  4  0  5  7  5  4 11 12  1  8  1  0  3  7  3  6  5  1  8  6  0 11  9
  1  1  7  3 13 13  1  3 16  5  6 18  2  2 21  1  2 16  4 15  1  1 22 17
  2 14 22 10 17  4  6]"
3700,322.0,0.9375,6,2,39.28422951698303,11.646180152893066,1885,14800,162886,986830,"[ 0  2  1  2  0  2  0  1  3  1  2  3  2  1  3  0  4  5  3  8  5  2  6  3
  0  7  1  3  2  2  0  5 11  5  3  0  2  2 11  3  6  5  1 11  2  0  7  0
  1  5  3  4 14 16  1  3 14  2  9 18  0 17  9  3 16 15  4 19 20  1 22 17
  4 21 12 10 17  4  6]"
3800,325.0,0.953125,7,3,40.427690267562866,11.434569358825684,1931,15200,167744,1016294,"[ 0  2  1  2  0  2  0  1  3  3  2  2  2  0  3  4  5  5  3  8  5  4  8  7
  4  7  2  2  5  6  5  1  6  4  5 10  2 13 11  3  6  5  4 11  2  0  3  3
  3 10 14  4 10  4  1  1 14  4 15 18  2 12  1  2 16 16  0 16 22  3  1  1
  2 12 22 10 17 21  6]"
3900,325.0,0.953125,7,3,41.55049753189087,11.228032112121582,1971,15600,171938,1045959,"[ 0  2  1  2  0  2  0  1  3  5  1  1  4  3  2  4  5  7  3  8  5  1  1  7
  0  3  8  2  0  3  5  1  8  1 13  5  5 10  3  3  6  5  2  9  2  1  1 14
  0  3 14  4 10  4  1  3  4  3  3  5  3 20  3  1  9 16  3  0 16  1 20 11
  1 17  1 10 17 21  6]"
4000,325.0,0.953125,7,3,42.65213894844055,11.016371250152588,2015,16000,176029,1074932,"[ 0  2  1  2  0  2  0  1  3  0  1  3  4  3  2  1  6  7  3  8  5  2  0  5
  5  8  0  3  2  2  4 11  7  4  3  8  0  9  4  3  6  5  2 10 11  5  1  3
  0  4  3  4 10  4  2  6 14  2 14  1  3 13 16  0 18 23  3 18 15  0  0 18
  5 15  1 10 17 21  6]"
4100,325.0,0.953125,7,3,43.763309478759766,11.1116623878479,2064,16400,180158,1104109,"[ 0  2  1  2  0  2  0  1  3  0  0  1  4  3  2  1  2  1  3  8  5  5  6  5
  0  7  5  0  8  3  1 11  1  1 13  8  1  2  4  3  6  5  4  8 11  0  1 14
  2 10  4  4 10  4  4  0 14  5  5 11  3  9 11  5 10 16  5 20 12  4 18  0
  5 18  3 10 17 21  6]"
4200,325.0,0.953125,7,3,44.82036781311035,10.570542812347412,2114,16800,184023,1131487,"[ 0  2  1  2  0  2  0  1  3  4  1  1  4  3  2  4  2  4  3  8  5  4  8  5
  0  1  4  2  7  2  1 12  1  4 11  4  0  2  9  3  6  5  5  7 11  3 15  6
  5 18  2  4 10  4  3 15  7  0  2 13  3 11  1  3 12 23  5 21 21  0 16 10
  2 18 12 10 17 21  6]"
4300,325.0,0.953125,7,3,45.951613664627075,11.312417984008789,2158,17200,188206,1161121,"[ 0  2  1  2  0  2  0  1  3  1  0  0  2  3  3  4  1  5  3  8  5  2  7  1
  4  3  8  5  6  1  4  5  5  1 13  1  0  5  7  3  6  5  4  4 13  3  4 13
  5 15 14  4 10  4  3 17 17  0 18 15  2  9 19  3  3  3  3 20 16  5  0 10
  5  3 11 10 17 21  6]"
4400,325.0,0.953125,7,3,47.07512331008911,11.235055923461914,2211,17600,192405,1190645,"[ 0  2  1  2  0  2  0  1  3  0  1  1  2  1  3  4  6  8  3  8  5  3  4  1
  4  3  6  3  1  6  2  2  4  5  4  1  5  5  7  5 10  5  4  5 12  3  4 13
  0  3  1  4 10  4  2 17 11  0  0 15  1 23 19  0  9  2  2 18 16  5  1 13
  5  0 10 10 17 21  6]"
4500,325.0,0.953125,7,3,48.17474699020386,10.99618911743164,2268,18000,196487,1219554,"[ 0  2  1  2  0  2  2  1  2  0  0  1  2  1  3  3  0  0  3  8  5  4  4  5
  3  3  3  3  5  0  0  2  2  0 11  2  1  9 12  5 10  5  0  5  5  3  2 16
  0  3  1  4 10  4  4  4 10  1 12 11  4 23 18  1 23 19  3 18 22  2  3 13
  5 13 13 10 17 21 20]"
4600,325.0,0.953125,7,3,49.2782666683197,11.035153865814209,2318,18400,200581,1248680,"[ 0  2  1  2  0  2  2  1  1  3  2  2  2  1  3  1  8  6  3  8  5  3  8  1
  4  1  8  4  5  6  5  8  7  3  8  2  2  3  4  3 10  5  4 11  3  5  1  3
  0  3  1  4 10  4  5 18 10  4  8  8  0 22 13  0 23 12  3 15 20  4  9 13
  2 13 13 10 17 21 20]"
4700,325.0,0.953125,7,3,50.37890887260437,11.006381511688232,2374,18800,204672,1277546,"[ 0  2  1  2  0  2  4  1  1  4  1  3  2  1  3  3  0  1  3  8  5  2  6  1
  3  4  5  3  5  3  1  9  7  4  8  2  2  3 10  5 10  5  3  9  2  5  7 14
  0  3  1  4 10  4  4  6 10  4 15 12  4 18 19  1 17 22  2 12 13  0  3  1
  1 17 19 10 17 21 20]"
4800,325.0,0.953125,7,3,51.47558355331421,10.96670150756836,2431,19200,208743,1306324,"[ 0  2  1  2  0  2  4  0  0  1  3  3  2  1  3  0  0  6  3  8  5  2  0  6
  3  4  7  3  5  3  1  9 10  5  6  2  5  5 10  5 10  5  1  9  2  5  7  9
  0  3  1  4 10  4  2 15 10  3 18  9  1  9 23  1 18  1  1 12  1  4  2 19
  0 17  2 10 17 21 20]"
4900,325.0,0.953125,7,3,52.59412860870361,11.185412406921387,2486,19600,212885,1335848,"[ 0  2  1  2  0  2  5  3  2  3  1  2  2  1  3  5  3  6  3  8  5  2  1  6
  5  4  1  0  2  3  4 10  6  0  6  6  3 13  8  5 10  5  0  6  1  4  7  4
  0  3  1  4 10  4  2 15  4  5  7 12  0  3 17  5 18  9  0 12  1  1  2 19
  4 13  2 10 17 21 20]"
5000,325.0,0.953125,7,3,53.65797996520996,10.638468265533447,2542,20000,216786,1363582,"[ 0  2  1  2  0  2  5  3  3  3  1  3  2  1  3  3  7  1  3  8  5  3  1  5
  4  6  5  0  5  6  2  4  2  0  6  3  4 11  4  5 10  5  5  7  1  2 10 11
  0  3  1  4 10  4  0 15 15  4  8 16  1  0 13  3 21 14  5  3 18  4 20 22
  3 14 14 10 17 21 20]"
5100,325.0,0.953125,7,3,54.74388146400452,10.858969688415527,2602,20400,220818,1392083,"[ 0  2  1  2  0  2  5  3  3  0  2  0  2  1  3  3  2  1  3  8  5  3  1  0
  4  2  5  0  2  6  1  7  2  3 11 10  2 11  2  5 10  5  3  3  1  2  6  3
  0  3  1  4 10  4  0 11 10  0  8  6  4 13 13  1 21  2  1  3 11  3 10 20
  3 21 14 10 17 21 20]"
5200,325.0,0.953125,7,3,55.84147596359253,10.97590446472168,2660,20800,224812,1420887,"[ 0  2  1  2  0  2  3  2  2  2  0  3  2  1  3  3  7  3  3  8  5  0  1  0
  0  8  7  5  7  4  0  9 13  3 13  7  2  8  3  5 10  5  5  3  0  4 17 16
  0  3  1  4 10  4  0  8  1  0 14  6  1 13 12  5 18  2  5  0 11  4 10 21
  2 17 22 10 17 21 20]"
5300,325.0,0.953125,7,3,56.963194847106934,11.217150688171387,2715,21200,228971,1450646,"[ 0  2  1  2  0  2  1  3  2  0  3  2  2  1  3  4  7  3  3  8  5  4  5  2
  0  6  2  0  1  1  2  8 12  5  5  4  2  8  2  3 10  5  5  6  7  3  1 11
  0  3  1  4 10  4  4  4  1  3 17 16  2 21 18  1 21 16  4 10 18  3 11  3
  4  9 11 10 17 21 20]"
5400,325.0,0.953125,7,3,58.06062698364258,10.974273681640625,2771,21600,233001,1479447,"[ 0  2  1  2  0  2  0  1  0  2  0  2  2  1  3  3  6  1  3  8  5  2  4  8
  3  8  6  5  5  2  2  4 12  2  3  5  2 13  7  3 10  5  5  6  7  3  1 16
  0  3  1  4 10  4  3 12  5  0 15  3  4 21 22  1 21 18  1 20 18  1 13 11
  3  9  3 10 17 21 20]"
5500,325.0,0.953125,7,3,59.163248777389526,11.026175022125244,2830,22000,237030,1508402,"[ 0  2  1  2  0  2  2  0  0  2  3  2  2  1  3  2  6  6  3  8  5  1  0  6
  4  5  4  0  5  2  2  4 12  2  3  2  1  3  5  5 10  5  5  9  8  4 11  8
  0  3  1  4 10  4  0 11 13  0  3 14  1  2 22  1  9 18  2 21 12  0 22 11
  4 23 18 10 17 21 20]"
5589,338,1.0,10,4,60.20504069328308,11.705470888802175,2878,22356,240613,1536753,"[ 0  2  1  2  0  2  2  3  0  2  3  0  2  1  3  2  8  6  3  8  5  1  0  8
  2  1  4  4  8  5  0  1 10  5  2 13  5  0 12  3 10  5  0  9  0  2 11  4
  0  3  1  4 18  4  4  7 13  5  2  2  4 19  9  3 12 13  4 16 20  0 22 23
  3 15 13 10 17 21 20]"
5600,338,1.0,10,4,60.31408166885376,9.912447495894,2884,22400,240908,1539635,"[ 0  2  1  2  0  2  2  3  0  2  3  0  2  1  3  2  0  6  3  8  5  1  0  8
  2  6  3  4  8  5  0  1 10  5  2  2  2  0 12  3 10  5  0  9  0  2 11  4
  0  3  1  4 18  4  4  7 13  5  2  2  4 19  9  0 12 13  4 16 20  0 22 23
  3 15 13 10 17 21 20]"
5700,338,1.0,10,4,61.37964940071106,10.65563678741455,2927,22800,243905,1569128,"[ 0  2  1  2  0  2  2  0  3  2  3  3  2  1  3  2  0  7  3  8  5  4  0  6
  4  8  0  1  2  0  1  1  4  2  1  5  2  0  7  5 10  5  0  9  0  2  4 16
  0  3  1  4 18  4  3 18  3  4 17 13  4 20 15  0 14 13  4 16 23  1 16  9
  5 17  2 10 17 21 20]"
5800,341,1.0,8,3,62.45005488395691,10.704011917114258,2969,23200,246969,1598588,"[ 0  2  1  2  0  2  4  2  0  2  2  3  2  1  3  4  8  7  3  8  5  4  4  1
  0  0  7  0  5  2  3 12  5  3 10  7  0  0  9  5 10  5  0  3  0  5  8  0
  0  3  1  4 18  4  1 10  9  5  8 13  2 16 19  1 16 16  1 10 22  3 22 14
  5 16  2 10 17 21 20]"
5900,341,1.0,8,3,63.261537313461304,8.114776611328125,3024,23600,249484,1618526,"[ 0  2  1  2  0  2  0  2  0  2  2  3  2  1  3  4  8  7  3  8  5  4  0  3
  0  4  6  4  5  2  5  1  5  3 10  7  5  3  9  3 10  5  0  3  0  5 18  5
  0  3  1  4 18  4  2 12 14  3  8  7  1 19 19  4 18 15  4 14 16  4 22 10
  5 16 15 10 17 21 20]"
6000,341,1.0,8,3,64.0752329826355,8.136913776397705,3074,24000,252008,1638528,"[ 0  2  1  2  0  2  5  2  1  2  0  3  2  1  3  4  8  3  3  8  5  2  4  8
  3  4  2  0  3  1  0  1  2  1  5  9  5  2  9  5 10  5  0  3  0  5 18 18
  0  3  1  4 18  4  4 12 15  3 10 11  1 19 18  0  2 23  3 10  3  3  2 18
  1  2  0 10 17 21 20]"
6100,341,1.0,8,3,64.8968071937561,8.215701580047607,3128,24400,254562,1658744,"[ 0  2  1  2  0  2  1  1  2  3  2  2  2  1  3  0  4  8  3  8  5  2  4  8
  4  8  1  1  8  0  3  7 11  5 13  9  2 13  0  5 10  5  0  3  0  5  5 14
  0  3  1  4 18  4  4  5 12  2 13  1  3  0 18  4 20 23  3  1  3  2 15 22
  4 12  0 10 17 21 20]"
6200,341,1.0,8,3,65.73514723777771,8.383355140686035,3182,24800,257183,1679609,"[ 0  2  1  2  0  2  1  2  1  5  2  2  2  1  3  1  4  8  3  8  5  2  7  0
  5  8  1  1  7  6  1  2  6  0  0  7  4 13 11  5 10  5  0  3  0  1 13  4
  0  3  1  4 18  4  3  0  0  2 13 17  3 13 18  0 13 14  4 10 14  1  2 18
  3 18 23 10 17 21 20]"
6300,341,1.0,8,3,66.56618142127991,8.310294151306152,3238,25200,259763,1700037,"[ 0  2  1  2  0  2  1  3  0  3  0  0  2  1  3  0  4  8  3  8  5  2  5  6
  3  8  5  3  7  1  4  9  3  0  3  5  1  3  2  5 10  5  0  3  0  5 13  4
  0  3  1  4 18  4  1 11 10  5 12 18  2 12 18  4 16  1  4 10  2  1 14  1
  0 18 20 10 17 21 20]"
6400,341,1.0,8,3,67.43016624450684,8.639802932739258,3285,25600,262511,1721762,"[ 0  2  1  2  0  2  5  1  0  2  1  3  2  1  3  3  4  5  3  8  5  3  2  0
  3  2  3  3  0  7  2  9  3  0  3  8  1  9 13  3 10  5  0  3  0  4  1 14
  0  3  1  4 18  4  4 16 14  1 11  3  5 15  0  0 14  1  1 23 18  3 18 22
  4  0 17 10 17 21 20]"
6500,341,1.0,8,3,68.25084781646729,8.206770420074463,3344,26000,265071,1742040,"[ 0  2  1  2  0  2  3  1  2  4  0  3  2  1  3  4  4  3  3  8  5  1  7  1
  5  3  4  4  4  0  0  8  9  0  3  3  1  1  7  3 10  5  0  3  0  4  9 17
  0  3  1  4 18  4  4 15 18  0  9  8  2  2  0  1 22  1  2 21 14  2 18 14
  5 10 17 10 17 21 20]"
6600,341,1.0,8,3,69.10545563697815,8.546035289764404,3395,26400,267775,1763350,"[ 0  2  1  2  0  2  3  2  2  0  1  3  2  1  3  3  4  2  3  8  5  4  8  4
  3  3  2  4  6  0  4 12  7  3  2  5  1  2 11  3 10  5  0  3  0  5  6 10
  5 12  1  4 18  4  3  5  4  1  9  6  0  2  1  5 15 10  4 10  0  3 10  3
  0  3 10 10 17 21  7]"
6700,341,1.0,8,3,69.97982692718506,8.743669986724854,3450,26800,270587,1785533,"[ 0  2  1  2  0  2  3  3  0  0  1  3  2  1  3  4  4  7  3  8  5  3  8  2
  2  8  6  2  6  8  4  2  7  5  5  4  0  4  5  5 10  5  0  3  0  4  1 14
  2  5  7  4 18  4  2  0 10  1  7  6  1 11 18  1 15 22  4 22 21  0 21 12
  2 17 10 10 17 21  7]"
6800,342,1.0,8,2,70.82863664627075,8.488056659698486,3502,27200,273251,1806660,"[ 0  2  1  2  0  2  4  2  3  0  1  3  2  1  3  4  2  7  3  8  5  3  7  2
  5  0  2  4  6  8  4  6  5  5  3  3  5  3  3  3  7  5  0  3  0  4 17  6
  3  5 11  4 18  4  4 18 11  1  9  6  0 13 14  4 22 14  1 10 14  5 21 21
  2 21 12 10 17 21  7]"
6900,342,1.0,8,2,71.6788010597229,8.501598834991455,3554,27600,275968,1828103,"[ 0  2  1  2  0  2  4  2  2  0  1  3  2  1  3  0  1  4  3  8  5  3  7  2
  5  5  0  4  8  8  5 10 12  1  3  2  4  3 13  3  7  5  0  3  0  5 17 14
  0  5 12  4 18  4  4  1  2  1  4  6  0 11 16  0 18 10  3 17 22  4  3 22
  2 21 12 10 17 21  7]"
7000,342,1.0,8,2,72.536456823349,8.576514720916748,3604,28000,278734,1849806,"[ 0  2  1  2  0  2  4  3  2  0  1  3  2  1  3  3  7  5  3  8  5  3  5  2
  5  4  8  3  2  3  5  2  5  4  0  3  5 12 13  3  7  5  0  3  0  5  7 15
  0  7 12  4 18  4  4  4  5  1  8  6  0 12  0  0 18 20  3 17 22  2 21 12
  0  9 15 10 17 21  7]"
7100,342,1.0,8,2,73.46168422698975,9.252231121063232,3647,28400,281760,1873699,"[ 0  2  1  2  0  2  3  0  0  0  1  3  2  1  3  3  3  5  3  8  5  3  7  5
  4  2  8  3  2  7  2  1  1  5  2  0  3 11 11  3  7  5  0  3  0  5 15  0
  1 17  3  4 18  4  2  7 13  0  9 17  3 12  3  3 13 15  1 17 12  2 21 19
  0 21 15 10 17 21  7]"
7200,342,1.0,8,2,74.26448082923889,8.027918338775635,3708,28800,284274,1893435,"[ 0  2  1  2  0  2  3  0  1  0  1  3  2  1  3  3  4  1  3  8  5  4  8  4
  4  0  3  3  3  1  2 12  0  4 12  4  4  4  2  3  7  5  0  3  0  5 15  0
  5  9  4  4 18  4  2  8  2  4  9  5  1 12 11  0 23 15  1 17 18  0 21 13
  5 18 15 10 17 21  7]"
7300,342,1.0,8,2,75.12383770942688,8.593528270721436,3762,29200,287040,1915150,"[ 0  2  1  2  0  2  5  0  2  0  1  3  2  1  3  1  8  1  3  8  5  4  8  3
  4  0  3  0  3  6  1  1  0  4  7 11  2  0  6  3  7  5  0  3  0  4  3  0
  2  3  4  4 18  4  5 17  7  4 18 10  4 21 18  0 23 21  1 17 20  0  1 13
  2 17  1 10 17 21  7]"
7400,342,1.0,8,2,76.01343536376953,8.895936012268066,3814,29600,289914,1937728,"[ 0  2  1  2  0  2  4  0  2  0  1  3  2  1  3  1  4  2  3  8  5  2  0  5
  0  8  0  2  1  8  1  4  6  1 12  4  0  0  7  3  7  5  0  3  0  2  3  0
  4  7  8  4 18  4  1  6  7  1  3 18  5 21 18  5 17 21  4 10  0  5  9 14
  4 23 19 10 17 21  7]"
7500,342,1.0,8,2,76.8628933429718,8.494534492492676,3862,30000,292630,1959137,"[ 0  2  1  2  0  2  2  3  1  0  1  3  2  1  3  5  7  2  3  6  5  2  5  5
  1  6  6  0  6  1  5  4  6  4  1  8  5  5  0  3  7  5  0  3  0  3  3  1
  4 18 10  4 18  4  4  9  9  1 16  5  3  0 10  2 17 23  5  2 23  0 15 18
  3  3 20 10 17 21  7]"
7600,342,1.0,8,2,77.67882490158081,8.15927505493164,3923,30400,295189,1979135,"[ 0  2  1  2  0  2  2  3  1  0  1  3  1  0  3  2  5  3  3  6  5  1  4  2
  1  3  6  0  5  7  3  7 11  3  5 12  5  1  1  3  7  5  0  3  0  1  3 14
  3 10  8  4 18  4  3  9 17  2  6  5  3  2 17  0 17 19  3 18 19  0  3 22
  3 22 22 10 17 21  7]"
7700,342,1.0,8,2,78.51708388328552,8.38254451751709,3970,30800,297858,2000105,"[ 0  2  1  2  0  2  2  3  1  0  1  3  5  2  3  0  5  3  3  6  5  1  6  2
  1  4  5  1  7  1  3 13  1  2  6 12  2 10  5  3  7  5  0  3  0  5  0  1
  3  1  6  4 18  4  0  9  4  0  2 11  3  2 23  5 11  2  4 18 10  2 18 10
  2 17 10 10 17 21  7]"
7800,342,1.0,8,2,79.3880136013031,8.709259033203125,4014,31200,300661,2022273,"[ 0  2  1  2  0  2  2  3  1  0  1  3  2  1  3  0  4  0  3  6  5  0  8  8
  5  1  5  4  1  7  2  9  1  2  3 12  5 12  4  3  7  5  0  3  0  3  1 16
  1  1  0  4 18  4  0  9  0  2 16  6  0  2 18  4  2  2  0 19 19  4 17 13
  5 18  9 10 17 21  7]"
7900,342,1.0,8,2,80.2532594203949,8.652338981628418,4061,31600,303430,2044124,"[ 0  2  1  2  0  2  2  1  1  0  1  3  2  1  3  3  3  2  3  8  5  1  1  2
  1  1  5  4  1  6  2  9  8  5  2 12  1  7 13  3  7  5  0  3  0  0  0  6
  4  5  0  4 18  4  1 12 13  4  1  5  0 21 18  4 10  2  0 19  1  2 21 16
  5 16 16 10 17 21  7]"
8000,342,1.0,8,2,81.14539837837219,8.921349048614502,4116,32000,306323,2066980,"[ 0  2  1  2  0  2  2  1  0  0  1  3  2  1  3  1  2  3  3  8  5  2  0  2
  5  1  7  5  1  6  0 10  1  5 12 12  5  9 13  3  7  5  0  3  0  5 11  3
  5  5  9  4 18  4  1 14  3  4 17 11  3  3 22  3  3  2  0 15 14  1 22 20
  4 16  0 10 17 21  7]"
8100,342,1.0,8,2,81.99891591072083,8.535130023956299,4167,32400,309045,2088434,"[ 0  2  1  2  0  2  2  2  3  0  1  3  2  1  3  1  6  5  3  8  5  5  8  3
  5  3  2  5  0  4  1 10  7  5  6  0  1 10 13  3  7  5  0  3  0  1 10  5
  5  5  9  4 18  4  5 17 10  3 17 13  3 23 16  0 10 18  2 22 14  5  3 14
  4 20 22 10 17 21  7]"
8200,342,1.0,8,2,82.77817940711975,7.7925944328308105,4235,32800,311434,2107223,"[ 0  2  1  2  0  2  0  3  0  0  1  3  2  1  3  1  6  6  3  8  5  3  8  3
  4  3  2  5  0  2  1 10  6  5  6  0  4 13 13  3  7  5  0  3  0  1  7  1
  5 15  9  4 18  4  3 17 10  4 14 13  3 23 16  0 21 10  2 23 14  1 22  3
  2 20  9 10 17 21  7]"
8300,342,1.0,8,2,83.65857911109924,8.803951740264893,4283,33200,314276,2129683,"[ 0  2  1  2  0  2  4  2  0  0  1  3  2  1  3  2  2  7  3  8  5  1  7  2
  5  1  6  5  1  8  0  1  4  5 13  4  1  4  8  3  7  5  0  3  0  0  0 15
  4 15 14  4 18  4  3 11  2  0  1  4  1  3  0  2 23 13  5 23 22  2 21 17
  5 20 19 10 17 21  7]"
8400,342,1.0,8,2,84.4888265132904,8.302433490753174,4333,33600,316885,2150239,"[ 0  2  1  2  0  2  2  2  3  0  1  3  2  1  3  1  7  8  3  8  5  1  7  2
  3  0  6  5  7  8  1  5  5  3  7  9  1  4  7  3  7  5  0  3  0  4 11 14
  5 17 14  4 18  4  5  0  1  4  6 14  1 13 23  1 16 21  5  2 15  2 21 17
  3 17  9 10 17 21  7]"
8500,342,1.0,8,2,85.32912921905518,8.402981758117676,4391,34000,319566,2171205,"[ 0  2  1  2  0  2  2  1  3  0  1  3  2  1  3  4  7  3  3  6  5  4  7  2
  1  0  2  5  7  7  1 10 12  5  1  9  0  5 13  3  7  5  0  3  0  1 11 14
  3  4  9  4 18  4  0  8 13  4 11  0  0 21 22  2 22  9  5 18 15  5  0 12
  4 17 10 10 17 21  7]"
8600,342,1.0,8,2,86.10383534431458,7.747018337249756,4455,34400,321969,2190047,"[ 0  2  1  2  0  2  2  1  3  0  1  3  2  2  3  0  1  3  3  6  5  5  1  3
  2  4  7  1  8  7  5 11  8  5  1  9  0  7  2  3  7  5  0  3  0  2 11  3
  1  4 11  4 18  4  1 10  9  0 11 16  1 17  0  5 10 11  3 17 13  4  3 19
  2 17  3 10 17 21  7]"
8700,342,1.0,8,2,86.93705439567566,8.332149982452393,4505,34800,324603,2210801,"[ 0  2  1  2  0  2  2  1  3  0  1  3  5  1  0  0  7  4  3  6  5  2  8  7
  1  1  7  0  5  3  5  8  8  3  1  1  3  2  2  3  7  5  0  3  0  3 10 14
  0  0  9  4 18  4  0  5  9  4 11 16  4  1 20  4 20 11  3  3 12  2  0 12
  2  1 21 10 17 21  7]"
8800,342,1.0,8,2,87.76953792572021,8.324792385101318,4554,35200,327224,2231504,"[ 0  2  1  2  0  2  2  1  3  0  1  3  0  1  0  4  5  3  3  6  5  3  3  0
  5  4  4  4  7  4  4  6  8  2 12  8  3 10  2  3  7  5  0  3  0  0  9 15
  4  0  2  4 18  4  3 17  5  0  5 17  0  1 19  4 20  9  2  3  3  5 18  9
  2  1 15 10 17 21  7]"
8900,342,1.0,7,3,88.43204188346863,6.624996662139893,4614,35600,329267,2245789,"[ 0  2  1  2  0  2  0  0  2  0  1  3  5  3  1  4  2  3  2  6  4  1  0  0
  1  0  5  5  4  5  0  8 13  5 12 10  1  0  7  3  7  5  0  3  0  0  8 13
  5 14 16  4 18  4  3 17  5  0  5 12  2 10 10  4  0 18  1 23 13  0 19 15
  2 21  1 22 17 21  7]"
9000,342,1.0,7,3,89.11791634559631,6.858704090118408,4673,36000,331404,2260789,"[ 0  2  1  2  0  2  1  0  2  0  1  3  4  3  0  2  3  3  2  2  2  1  8  3
  1  3  2  1  4  5  4  0  5  5 12  0  3 13  9  3  7  5  0  3  0  5  8 13
  4 12  9  4 18  4  5 17  5  5 10 15  0 17 11  2 14 22  1 18 13  0 19 15
  3 23 11 22 17 21  7]"
9100,342,1.0,7,3,89.78536367416382,6.6744279861450195,4729,36400,333492,2275348,"[ 0  2  1  2  0  2  1  0  2  0  1  3  4  0  1  1  3  6  2  7  4  5  6  3
  2  1  4  3  3  2  1  9  5  5  0 12  2  0  9  3  7  5  0  3  0  4 12 14
  2 13 11  4 18  4  5 17  5  5 12 17  4 22  1  4 14 15  5 17 13  4 22  9
  1  2 10 22 17 21  7]"
9200,342,1.0,7,3,90.48359417915344,6.982266902923584,4784,36800,335728,2290886,"[ 0  2  1  2  0  2  3  0  3  0  1  3  4  3  1  0  3  0  0  0  5  5  6  4
  2  2  4  0  5  2  0  5  0  1 11  5  5  1  9  3  7  5  0  3  0  1 15  4
  2 13 10  4 18  4  5 17  5  3  9  9  3 22 15  1 14  9  1 17 13  3  2 19
  5 15  9 22 17 21  7]"
9300,342,1.0,7,3,91.1612823009491,6.776838302612305,4841,37200,337851,2305741,"[ 0  2  1  2  0  2  1  2  3  0  1  3  1  0  3  5  2  4  2  3  5  1  6  4
  5  2  5  5  5  0  0  5  4  4  5  4  5 12  9  3  7  5  0  3  0  1 15 17
  2 13 12  4 18  4  5 17  5  3  9  9  2 12 11  5 11  9  0 15 13  3 12 12
  1 19  3 22 17 21  7]"
9400,342,1.0,7,3,91.80245447158813,6.411678791046143,4908,37600,339788,2319245,"[ 0  2  1  2  0  2  1  0  3  0  1  3  2  0  1  5  2  7  5  4  6  1  7  4
  4  1  5  5  5  0  0  7  7  4  4  4  5 12  9  3  7  5  0  3  0  1 14  0
  3  1 13  4 18  4  3 17  5  3  9  9  2 12 10  5 18 13  4  3 11  1 16 15
  4 20  3 22 17 21  7]"
9500,342,1.0,7,3,92.49669337272644,6.942346096038818,4961,38000,342003,2334667,"[ 0  2  1  2  0  2  5  1  1  0  1  3  4  3  1  1  2  3  1  8  6  1  0  4
  4  7  6  5  4  3  4 10  7  4  3  0  5 12  7  3  7  5  0  3  0  2 14  4
  2 16 12  4 18  4  5 17  5  0  1  5  3 12 13  5 23  2  4 18 11  1 16 15
  3 16 22 22 17 21  7]"
9600,342,1.0,7,3,93.15533828735352,6.586403846740723,5019,38400,344044,2348987,"[ 0  2  1  2  0  2  2  3  3  0  1  3  5  2  0  5  6  6  4  0  8  1  1  2
  5  4  3  4  3  3  4 10  9  4 10  7  2 10  7  3  7  5  0  3  0  2 14 15
  1  9 13  4 18  4  5 17  5  0  6  5  5  1  2  2 23  2  1 16 19  1 17 11
  5 17 22 22 17 21  7]"
9700,342,1.0,7,3,93.81117963790894,6.558370590209961,5080,38800,346035,2363053,"[ 0  2  1  2  0  2  2  1  3  0  1  3  0  2  0  5  6  8  2  0  7  4  2  5
  5  0  3  5  2  6  4 11  3  4  1 13  3 10 13  3  7  5  0  3  0  3 14 15
  1  3  7  4 18  4  5 17  5  2  6 14  2  1  2  1  3 17  1 16 19  1 17 17
  5  3  0 22 17 21  7]"
9800,342,1.0,7,3,94.53738951683044,7.262053489685059,5128,39200,348382,2379504,"[ 0  2  1  2  0  2  2  2  3  0  1  3  1  2  1  0  3  5  0  2  8  2  3  6
  3  0  3  3  6  8  1 12 11  0  9  6  5  0  3  3  7  5  0  3  0  5  2 17
  2 11  4  4 18  4  3 17  5  0  5  8  1 18 22  4 18 17  1  9 22  5  2  1
  1 14 23 22 17 21  7]"
9900,342,1.0,7,3,95.2498574256897,7.124631404876709,5182,39600,350655,2395440,"[ 0  2  1  2  0  2  4  1  1  0  1  3  4  1  3  1  4  3  4  3  3  2  1  3
  0  6  5  3  7  2  5  4  3  5  5  2  2  9  5  3  7  5  0  3  0  3  2 12
  2 17  6  4 18  4  3 17  5  2  9  1  4 23  9  3 23 14  0 15 17  5 23  2
  0 10  2 22 17 21  7]"
10000,342,1.0,7,3,95.91486620903015,6.650042533874512,5240,40000,352719,2409840,"[ 0  2  1  2  0  2  4  1  0  0  1  3  1  0  0  4  7  3  1  3  7  3  4  3
  2  2  1  1  4  2  2  6  4  5  6  3  0  5 12  3  7  5  0  3  0  5  1  9
  2 16  6  4 18  4  3 17  5  1  0 11  5 23  1  5  9 21  1 15 12  3 16 19
  3  9  1 22 17 21  7]"
10100,342,1.0,7,3,96.62199187278748,7.071218490600586,5291,40400,355003,2425712,"[ 0  2  1  2  0  2  4  2  2  0  1  3  3  0  1  4  7  3  1  4  0  3  3  1
  4  2  3  3  5  7  3  6 11  4 10  9  0  5 13  3  7  5  0  3  0  5  1  4
  2  9 11  4 18  4  3 17  5  4 14 18  5 14 19  3 22 21  5 22  0  5  1 14
  4 17 11 22 17 21  7]"
10200,342,1.0,7,3,97.3213472366333,6.993505954742432,5342,40800,357240,2441335,"[ 0  2  1  2  0  2  4  1  1  0  1  3  3  1  1  0  1  6  2  4  2  4  3  5
  5  2  0  2  2  0  0  6  2  4  0  9  3  4  3  3  7  5  0  3  0  3  5  8
  0  9 17  4 18  4  3 17  5  1  3 16  2 11 17  2 17  3  5  1 13  4 21 15
  0 11 16 22 17 21  7]"
10300,342,1.0,7,3,98.02771639823914,7.063648700714111,5394,41200,359495,2457104,"[ 0  2  1  2  0  2  4  0  1  0  1  3  3  1  1  0  1  1  2  2  7  4  4  3
  0  2  0  2  6  0  2  4  2  5  4  7  2  4 13  3  7  5  0  3  0  3 18 12
  0  9  4  4 18  4  5 17  5  0  4  1  5 21  3  4 17  0  4 23  3  4 13 11
  0  9  9 22 17 21  7]"
10400,342,1.0,7,3,98.7463014125824,7.18580961227417,5440,41600,361836,2473392,"[ 0  2  1  2  0  2  3  1  1  0  1  3  1  3  3  5  6  3  0  7  0  3  7  0
  4  6  4  1  8  7  2 11  0  5  2  1  5 10  3  3  7  5  0  3  0  3 11  6
  5  7 14  4 18  4  3 17  5  3  0  1  5 10 13  1 16  3  2 10  2  1  2 10
  2 13 15 22 17 21  7]"
10500,342,1.0,7,3,99.39084482192993,6.4453887939453125,5501,42000,363794,2487161,"[ 0  2  1  2  0  2  3  1  1  0  1  3  4  0  3  3  6  0  3  7  8  3  8  6
  3  2  8  1  8  8  2 11  9  2  3  0  4  0  3  3  7  5  0  3  0  3  6 13
  0  7  0  4 18  4  3 17  5  5 10  0  5 16 13  1 18  3  0 22 12  1  2 15
  3  2 15 22 17 21  7]"
10600,342,1.0,7,3,100.06387305259705,6.730237007141113,5552,42400,365898,2501911,"[ 0  2  1  2  0  2  3  1  1  0  1  3  0  1  1  4  5  2  3  3  1  4  4  2
  1  1  0  1  5  1  1  6  2  5  0 11  1  0  1  3  7  5  0  3  0  2  2 13
  5  2 13  4 18  4  5 17  5  4  2  3  5 17 13  5 11 21  0  0 13  2 13 22
  3 23 20 22 17 21  7]"
10700,342,1.0,7,3,100.77335166931152,7.094745635986328,5601,42800,368192,2517901,"[ 0  2  1  2  0  2  3  1  1  0  1  3  1  3  3  1  5  2  3  8  1  5  3  2
  2  7  2  1  7  6  4  8  6  5  5 10  1 11  1  3  7  5  0  3  0  2  1 10
  3  4 18  4 18  4  5 17  5  3 13  9  5 17 19  1  9  0  4 17 12  2 13  9
  5 23 20 22 17 21  7]"
10800,342,1.0,7,3,101.42492961883545,6.5157365798950195,5663,43200,370186,2531869,"[ 0  2  1  2  0  2  2  1  1  0  1  3  3  3  1  0  5  5  3  4  3  4  4  3
  2  7  8  2  7  8  5  6 12  5  3  7  5  6  1  3  7  5  0  3  0  2 11 15
  0  4 18  4 18  4  3 17  5  1 17  8  5 21 19  5 14 22  0 20 14  2 20  9
  5  2  2 22 17 21  7]"
10900,342,1.0,7,3,102.12321329116821,6.982791423797607,5718,43600,372440,2547484,"[ 0  2  1  2  0  2  3  0  0  0  1  3  3  0  2  0  7  3  4  6  3  0  3  4
  2  7  8  2  7  8  1  5  6  3  3  8  5  1  3  3  7  5  0  3  0  2  9 17
  5  5  9  4 18  4  3 17  5  4 15  8  2 10  1  3 14  2  3  3  9  2 13 18
  3 16 23 22 17 21  7]"
11000,342,1.0,7,3,102.78950810432434,6.662907600402832,5775,44000,374539,2562103,"[ 0  2  1  2  0  2  0  2  0  0  1  3  3  2  0  2  6  8  1  2  4  3  2  4
  5  6  8  2  4  3  1 13  4  3 12  6  5  8  3  3  7  5  0  3  0  2  9  5
  2  3 15  4 18  4  5 17  5  0 14  8  2  3 19  1  0 18  2 12 23  2 11 18
  3 18 23 22 17 21  7]"
11100,342,1.0,7,3,103.48310375213623,6.935913562774658,5824,44400,376745,2577482,"[ 0  2  1  2  0  2  0  2  1  0  1  3  4  3  2  5  0  8  4  6  7  3  6  3
  5  5  0  0  1  7  0  2 11  3  1  2  4  7  3  3  7  5  0  3  0  0  9  1
  3  5  7  4 18  4  5 17  5  1  5  8  2 15  9  4 12  9  1 21  2  4 11 19
  1 18 13 22 17 21  7]"
11200,342,1.0,7,3,104.17149209976196,6.883840560913086,5883,44800,378919,2592750,"[ 0  2  1  2  0  2  3  1  2  0  1  3  4  2  1  1  7  8  4  0  7  3  0  3
  3  5  4  0  0  7  1  2  7  1  1  6  3  7  9  3  7  5  0  3  0  5  9  2
  3  5  6  4 18  4  3 17  5  2 13  4  2 17  9  5  9 10  1 23 12  1  9 21
  1  0 23 22 17 21  7]"
11300,342,1.0,7,3,104.84536981582642,6.738731861114502,5938,45200,381032,2607441,"[ 0  2  1  2  0  2  1  0  2  0  1  3  4  2  0  2  3  3  4  2  1  5  2  3
  3  6  5  2  7  7  5 12  6  0 11  1  3  7  1  3  7  5  0  3  0  5 18 11
  3  8  6  4 18  4  5 17  5  2 13  3  2 23 12  5 11  3  2 16 19  1  0 17
  3 10 23 22 17 21  7]"
11400,342,1.0,7,3,105.56129002571106,7.159156799316406,5986,45600,383351,2623597,"[ 0  2  1  2  0  2  4  3  0  0  1  3  1  2  1  1  5  2  2  2  0  1  4  1
  5  2  2  0  3  1  4  5  8  5 12  1  4  7  8  3  7  5  0  3  0  5 15 12
  4  8  3  4 18  4  5 17  5  1 16 17  3 23 15  2 14 17  1 19 22  0  0  0
  3 22 19 22 17 21  7]"
11500,342,1.0,7,3,106.24915289878845,6.8785810470581055,6038,46000,385536,2638833,"[ 0  2  1  2  0  2  1  0  2  0  1  3  1  0  0  2  4  6  0  4  0  4  4  6
  5  1  2  5  2  5  1  4 12  1  8 12  3 12  2  3  7  5  0  3  0  4 15  7
  5  8 16  4 18  4  5 17  5  5  5 16  2 19 23  2 23 12  4 15 13  5 19 20
  4 16 19 22 17 21  7]"
11600,342,1.0,7,3,106.94119930267334,6.92042350769043,6100,46400,387749,2654243,"[ 0  2  1  2  0  2  2  0  1  0  1  3  3  0  0  4  0  0  4  4  5  5  4  6
  5  1  7  1  8  2  4  5  1  4  8  2  1  2 11  3  7  5  0  3  0  4 15  7
  0  7 15  4 18  4  3 17  5  1  5 15  2 12 21  4 16 18  1 19 13  2 16 17
  3  3 19 22 17 21  7]"
11700,342,1.0,7,3,107.6314754486084,6.902720928192139,6151,46800,389892,2669317,"[ 0  2  1  2  0  2  0  3  1  0  1  3  5  0  3  4  4  8  4  8  5  5  7  5
  5  8  7  0  4  1  2 11  4  3  3 13  4  3 11  3  7  5  0  3  0  3 11 11
  3 15  0  4 18  4  3 17  5  3  5 15  3  2 15  5 16 19  0 21 16  4 13 20
  0  2  3 22 17 21  7]"
11800,342,1.0,7,3,108.3342809677124,7.028012275695801,6211,47200,392122,2684982,"[ 0  2  1  2  0  2  4  3  2  0  1  3  2  0  3  2  0  2  1  4  8  5  6  3
  2  1  4  0  8  0  3  5  9  0  1 11  4  5  7  3  7  5  0  3  0  3  9  6
  3  0  1  4 18  4  5 17  5  1 14  3  1 11 19  4 21  0  0  2 21  5 13 14
  5 17 21 22 17 21  7]"
11900,342,1.0,7,3,109.02149605751038,6.872107982635498,6250,47600,394309,2700260,"[ 0  2  1  2  0  2  0  2  3  0  1  3  2  1  1  2  5  3  3  4  4  0  8  3
  2  6  2  4  6  0  4  7 13  2  5  6  5  2  6  3  7  5  0  3  0  4 16 18
  5  9  1  4 18  4  3 17  5  1 11  4  5  3 10  5 22 20  0 15 13  3 19 14
  0 14 15 22 17 21  7]"
12000,342,1.0,7,3,109.695321559906,6.7382121086120605,6310,48000,396433,2715078,"[ 0  2  1  2  0  2  1  2  0  0  1  3  4  1  0  5  0  3  2  8  2  0  8  2
  4  4  0  4  6  5  5  7 13  2  5  7  5  2 13  3  7  5  0  3  0  5  5  3
  0  9 17  4 18  4  5 17  5  1  5 12  1 19  0  1 22 23  4  1 19  2 15  2
  3 23  9 22 17 21  7]"
12100,342,1.0,7,3,110.43632960319519,7.410037517547607,6364,48400,398873,2732112,"[ 0  2  1  2  0  2  5  2  3  0  1  3  4  0  2  0  3  3  0  3  8  1  0  3
  4  6  5  2  2  6  3  4  4  4 11  7  3  2  5  3  7  5  0  3  0  1  5  6
  0 18 13  4 18  4  3 17  5  2 10  2  1 19 19  2 22  0  0 15  0  1 18 15
  0  3 20 22 17 21  7]"
12200,342,1.0,7,3,111.10550284385681,6.691684722900391,6421,48800,400978,2746793,"[ 0  2  1  2  0  2  5  2  2  0  1  3  2  2  1  5  8  2  0  3  0  0  0  3
  2  5  6  5  2  6  2  0 13  2  3 11  3 10  1  3  7  5  5  9  0  2  9  6
  3  9  0  4 11  4  3 17  5  1 13  5  0 17  0  4 21 17  1 20  0  1  1 10
  2 14 23 22 17 21  7]"
12300,342,1.0,7,3,111.77884078025818,6.733336448669434,6477,49200,403110,2761635,"[ 0  2  1  2  0  2  1  3  1  0  1  3  3  3  2  5  7  7  4  8  5  0  0  3
  5  5  6  4  8  0  0 13  0  4  9  0  5 11 12  3  7  5  5 13  5  2  6  6
  3  3  6  4 11  4  5 17  5  4 13  3  5  1 11  2 21 23  1 18  2  3  1 10
  2 14  1 22 17 21  7]"
12400,342,1.0,7,3,112.48129510879517,7.024502754211426,6535,49600,405383,2777400,"[ 0  2  1  2  0  2  5  3  3  0  1  3  4  1  0  4  2  7  4  6  4  0  0  3
  0  4  8  5  8  5  5 13  1  4  7  9  3 11  6  3  7  5  1 12 12  3  6  6
  2  3  6  4 11  4  3 17  5  2  3  8  1  3 14  1  1 23  3 18 18  3  1 10
  2 11  1 22 17 21  7]"
12500,342,1.0,7,3,113.19394540786743,7.126457691192627,6585,50000,407699,2793549,"[ 0  2  1  2  0  2  2  3  3  0  1  3  1  1  3  4  7  4  4  1  4  0  0  3
  5  4  2  3  8  0  5  2 12  3 13  5  3  3  2  3  7  5  0  1 12  1 18 17
  1  6  6  4 11  4  5 17  5  1  2  9  0 15 16  1 11  3  0 14 18  5  1 21
  4 19 14 22 17 21  7]"
12600,342,1.0,7,3,113.89351463317871,6.995654106140137,6645,50400,409932,2809172,"[ 0  2  1  2  0  2  0  0  3  0  1  3  2  0  0  4  4  4  4  8  0  0  0  3
  0  4  2  5  8  1  5 10  3  3 13 11  4  9  1  3  7  5  1  4  0  1 13  3
  1  2 11  4 11  4  3 17  5  1  8  9  5  9 14  2 20 16  3 14 18  4 22 10
  5 14  3 22 17 21  7]"
12700,342,1.0,7,3,114.62015509605408,7.266366481781006,6695,50800,412307,2825698,"[ 0  2  1  2  0  2  3  2  1  0  1  3  2  1  0  4  4  3  4  4  0  0  0  3
  0  3  8  5  3  1  2  2  3  3 13 11  2  3 11  3  7  5  2  7  8  1 13  4
  5  2 11  4 11  4  5 17  5  0 10  7  0 23 14  2  9 15  3 11 18  2 20 10
  4 14 23 22 17 21  7]"
12800,342,1.0,7,3,115.29934573173523,6.791863441467285,6751,51200,414446,2840699,"[ 0  2  1  2  0  2  3  3  2  0  1  3  2  0  3  3  4  8  4  5  0  0  0  3
  0  1  4  0  5  8  0  9  8  3  6  3  2  0  7  3  7  5  2  4  4  4  4  3
  3  2 10  4 11  4  3 17  5  0 18  7  5 23 12  2 20 13  2 10  0  0 15 10
  2  1 21 22 17 21  7]"
12900,342,1.0,7,3,115.99649953842163,6.971490383148193,6805,51600,416695,2856365,"[ 0  2  1  2  0  2  0  3  0  0  1  3  0  2  0  1  3  8  3  8  7  0  0  3
  1  1  7  1  7  8  1  5  5  2 10  9  2  4  8  3  7  5  5  4 12  4 10  3
  1 12  8  4 11  4  5 17  5  0  3  5  4 23 11  2 20 22  2  3 23  0 23 20
  2 19 21 22 17 21  7]"
13000,342,1.0,7,3,116.6939263343811,6.974217891693115,6857,52000,418942,2872113,"[ 0  2  1  2  0  2  3  3  1  0  1  3  0  0  0  0  8  8  1  6  7  0  0  3
  2  1  3  1  0  5  1  6  5  4  4  9  0  6  6  3  7  5  5 10  7  2 14  1
  1  6  8  4 11  4  5 17  5  5  3  5  5 21  2  2 11 16  2  3  9  5 23  9
  0 13 21 22 17 21  7]"
13100,342,1.0,7,3,117.4367504119873,7.4281907081604,6907,52400,421348,2888981,"[ 0  2  1  2  0  2  1  3  1  0  1  3  2  0  1  1  4  2  5  6  2  0  0  3
  5  8  8  1  5  6  2  5 12  4  1  1  2  0  1  3  7  5  3  7 12  1 15 17
  5 13 10  4 11  4  3 17  5  5  2  7  3 15  2  4  1 10  4 15 16  1 23 16
  3 23 16 22 17 21  7]"
13200,342,1.0,7,3,118.13880825042725,7.020537853240967,6965,52800,423610,2904759,"[ 0  2  1  2  0  2  1  3  1  0  1  3  4  3  1  1  5  4  3  8  2  0  0  3
  2  8  6  1  0  5  2  3 11  1  1  1  4  6 10  3  7  5  3  4 12  2 13  0
  2 13 12  4 11  4  3 17  5  4  2  7  3 15  2  4 13 21  1  9 14  4 23 16
  5 12 16 22 17 21  7]"
13300,342,1.0,7,3,118.83211755752563,6.933047771453857,7023,53200,425816,2920134,"[ 0  2  1  2  0  2  2  2  2  0  1  3  5  2  2  4  0  8  4  6  8  0  0  3
  3  8  6  0  1  5  4  9 10  1  1  6  0  6  1  3  7  5  4  4  6  1 11  0
  2 10  6  4 11  4  3 17  5  2  2  7  3 15 22  5 13 15  1  9 14  4 16 18
  5 16 16 22 17 21  7]"
13400,342,1.0,7,3,119.53606653213501,7.039449214935303,7074,53600,428090,2935933,"[ 0  2  1  2  0  2  1  2  1  0  1  3  1  3  1  3  0  6  5  5  2  0  0  3
  4  8  6  1  7  4  2  2 13  1 10 11  0  4  3  3  7  5  2  4  6  1  1 15
  4  9  7  4 11  4  5 17  5  1  2  3  0 20 22  2 13  2  1  1 13  4 23 13
  5  1 15 22 17 21  7]"
13500,342,1.0,7,3,120.29093813896179,7.548668384552002,7117,54000,430600,2953426,"[ 0  2  1  2  0  2  4  2  2  0  1  3  4  2  2  3  4  7  4  7  1  0  0  3
  2  8  6  3  1  4  4  2  0  4 11  9  5  1  0  3  7  5  0  4  6  2 17 10
  2 16  5  4 11  4  5 17  5  1 17 11  4 22 21  3 20 14  5 20 23  3 13 13
  3 22 23 22 17 21  7]"
13600,342,1.0,7,3,120.99813342094421,7.0719099044799805,7160,54400,432886,2969372,"[ 0  2  1  2  0  2  4  1  1  0  1  3  2  1  2  5  8  3  5  1  5  0  0  3
  2  7  1  2  5  8  4  2  7  5 11 10  1  1  9  3  7  5  3 12 10  0 17  8
  4  7 11  4 11  4  3 17  5  2  3  6  2 14 21  5 21 16  3 20  3  3  1 21
  3 13  0 22 17 21  7]"
13700,342,1.0,7,3,121.70528364181519,7.0714569091796875,7219,54800,435153,2985137,"[ 0  2  1  2  0  2  2  2  3  0  1  3  0  1  1  0  8  6  3  2  4  0  0  3
  5  8  2  4  7  1  1  2  1  0  9  5  4 10  0  3  7  5  5 12 10  2  9  9
  5 11 12  4 11  4  3 17  5  2 10 15  2  1 14  2  2 18  3 23 10  4 18 13
  1 13 21 22 17 21  7]"
13800,342,1.0,7,3,122.38065218925476,6.753640174865723,7281,55200,437279,2999933,"[ 0  2  1  2  0  2  1  3  3  0  1  3  0  2  1  5  8  0  3  5  4  0  0  3
  5  3  4  1  6  1  4  6  8  4  4  5  2 10  1  3  7  5  4  1 10  2  9  9
  1 11 12  4 11  8  5 17  5  5 12 16  3 18  0  4 11 18  2 23 14  4 15 11
  1  3 21 22 17 21  7]"
13900,342,1.0,7,3,123.08196473121643,7.01308012008667,7334,55600,439524,3015536,"[ 4  0  1  2  0  2  0  2  3  0  1  3  0  2  1  2  4  4  5  7  8  0  0  3
  4  3  4  1  5  1  1  2  3  3 10  5  1  0  1  3  7  5  3  5  7  2 12  6
  0  6 18  4 11  8  3 17  5  5  6  9  2 20 11  0  2 18  2 12 14  4 14 18
  1 22 21 22 17 21  7]"
14000,342,1.0,7,3,123.75119829177856,6.692290306091309,7395,56000,441627,3030203,"[ 2  2  1  2  0  2  5  0  2  0  1  3  0  2  1  3  1  4  1  5  3  0  0  3
  5  2  0  2  1  1  1  2  3  4  6 12  0 13  6  3  7  5  5  9  1  3  6 14
  3  1  5  4 11  8  3 17  5  3 11  2  5 20 16  5 21 21  2 17 14  2 18  9
  1 22 21 22 17 21  7]"
14100,342,1.0,7,3,124.44647002220154,6.952672004699707,7450,56400,443864,3045719,"[ 5  2  0  2  0  2  3  0  2  0  1  3  0  2  1  4  2  2  2  1  3  0  0  3
  3  7  0  3  5  1  3  7  3  1  6  4  1  6 11  3  7  5  4  1  3  3  9  1
  3  9 15  4 11  8  5 17  5  2 11  4  5 14 12  5 14 14  1 15 16  2 17 21
  0 11 23 22 17 21  7]"
14200,342,1.0,7,3,125.12647199630737,6.799976825714111,7509,56800,446000,3060582,"[ 4  1  1  2  0  2  1  2  1  0  1  3  0  2  1  2  0  8  5  8  2  0  0  8
  0  6  0  3  1  0  0  1  2  3 10  0  5  0 11  3  7  5  0  0  3  5 18  7
  2  1  7  4 18  8  5 17  5  5  6  8  2 22  2  3 16 23  1 20 16  2 17 11
  3  0  1 22 17 21  7]"
14300,342,1.0,7,3,125.79052710533142,6.64050817489624,7567,57200,448061,3074943,"[ 4  1  1  2  0  2  1  1  3  0  1  3  0  2  1  3  4  2  5  8  6  0  0  5
  0  6  8  4  7  0  0  3  2  2 10  6  4  5 11  3  7  5  0  0  3  2  3  6
  3  1 12  4 18  8  5 17  5  0 10 18  1 14 17  2 14 23  1 16 11  4 17 11
  5 22  1 22 17 21  7]"
14400,342,1.0,7,3,126.45973634719849,6.692047119140625,7624,57600,450159,3089584,"[ 0  3  2  2  0  2  5  1  0  0  1  3  0  2  1  1  4  0  3  4  5  1  0  5
  0  6  1  0  6  0  0  0 11  2  9  6  3  5 13  3  7  5  0  0  3  2  3  6
  3  2  6  4 18  8  5 17  5  1  7  9  2 12 23  1 20 15  2  1  0  2 17 19
  3 22 22 22 17 21  7]"
14500,342,1.0,7,3,127.15986657142639,7.001256942749023,7676,58000,452412,3105290,"[ 5  3  3  2  0  2  5  1  3  0  1  3  0  2  1  5  5  6  5  2  4  2  6  7
  5  5  1  0  1  4  4  1  9  1 12 13  3  1  3  3  7  5  0  0  3  0 10  6
  4 11  7  4 18  8  5 17  5  1  7 16  3  9 13  2 23  2  0  1 13  2  0 19
  5 12 17 22 17 21  7]"
14600,342,1.0,7,3,127.84472823143005,6.848573684692383,7724,58400,454580,3120388,"[ 3  1  1  2  0  2  5  1  1  0  1  3  0  2  1  4  4  6  0  1  4  2  6  2
  4  8  0  2  1  8  5  1 13  4 12 13  0  1  3  3  7  5  0  0  3  0  9  3
  4 11 18  4 18  8  5 17  5  1  3 16  2 15 19  3 23 20  5  2 13  5  2  0
  4  9 22 22 17 21  7]"
14700,342,1.0,7,3,128.5445957183838,6.998631954193115,7779,58800,456812,3136010,"[ 5  2  0  2  0  2  3  3  3  0  1  3  0  2  1  4  2  6  4  6  0  2  0  2
  0  8  7  0  6  8  4  8  0  5 12  2  0  7  6  3  7  5  0  0  3  0 15 18
  4  1 11  4 18  8  5 17  5  2  3 16  5 14 19  1 15 22  0 12 13  0  0 15
  4  9 12 22 17 21  7]"
14800,342,1.0,7,3,129.22797536849976,6.833751201629639,7841,59200,458960,3151008,"[ 0  1  3  2  0  2  5  3  1  0  1  3  0  2  1  4  1  1  0  8  0  4  5  1
  4  8  7  0  2  8  3  8  4  4  2  8  3  6  6  3  7  5  0  0  3  3  4 15
  1 11 13  4 18  8  3 17  5  4 18 13  5  2 20  5 22 22  0 18 15  1 16  1
  0  9 22 22 17 21  7]"
14900,342,1.0,7,3,129.929447889328,7.014684677124023,7896,59600,461220,3166726,"[ 1  2  2  2  0  2  3  3  0  0  1  3  0  2  1  4  2  1  2  4  1  0  4  6
  2  2  1  4  3  5  0  6 10  3  1  0  0  8  5  3  7  5  0  0  3  1  7 17
  0  4  6  4 18  8  5 17  5  4 18 13  5 16 20  4 21  0  0 13 16  3 16 15
  4 18 12 22 17 21  7]"
15000,342,1.0,7,3,130.62395215034485,6.94500207901001,7955,60000,463431,3182117,"[ 0  3  0  2  0  2  5  3  2  0  1  3  0  2  1  5  0  7  2  0  6  0  5  1
  2  2  6  5  3  1  0  3  6  4  3  8  2  8 10  3  7  5  0  0  3  3  0  5
  2  6 10  4 18  8  5 17  5  1 18  1  2 16  2  0 22 12  0 21 15  5  9  3
  2 21  1 22 17 21  7]"
15100,342,1.0,7,3,131.28295493125916,6.589987277984619,8015,60400,465477,3196372,"[ 5  0  0  2  0  2  1  0  0  0  1  3  0  2  1  3  2  6  2  0  7  1  5  2
  0  2  5  5  3  1  4 11  6  0  3  3  3 11  4  3  7  5  0  0  3  4  1 11
  2 10  1  4 18  8  5 17  5  5  6  1  0 20  0  0 15 19  0 14 17  5 13 18
  0 22 23 22 17 21  7]"
15200,342,1.0,7,3,131.9387595653534,6.5580010414123535,8075,60800,467508,3210570,"[ 2  1  1  2  0  2  1  1  0  0  1  3  0  2  1  3  2  3  2  5  1  0  1  3
  3  2  6  1  3  1  4 13 12  0  3  1  2 11  4  3  7  5  0  0  3  2 13 11
  0 13  0  4 18  8  5 17  5  5  6  1  0 20 12  0  0 13  3 14 17  4  0 18
  0 12  3 22 17 21  7]"
15300,342,1.0,7,3,132.57335758209229,6.345932483673096,8141,61200,469429,3223977,"[ 5  3  1  2  0  2  3  0  3  0  1  3  0  2  1  1  2  5  0  6  7  3  2  2
  3  2  6  0  8  1  4  7 12  0  4  7  2  6 10  3  7  5  0  0  3  0  5  1
  0 17  3  4 18  8  5 17  5  5 18  7  2  3 12  4  9 12  0 11 18  4 10 19
  5  2 22 22 17 21  7]"
15400,342,1.0,7,3,133.25913333892822,6.857717037200928,8197,61600,471597,3239096,"[ 1  1  1  2  0  2  0  2  3  0  1  3  0  2  1  1  2  5  4  1  4  1  5  4
  3  5  8  0  8  1  1  1  0  2  1  7  1  6 12  3  7  5  0  0  3  0  6  8
  3 11  2  4 18  8  3 17  5  0  7  7  0  9 10  4  9 12  3 15 19  3 23 19
  1  0  1 22 17 21  7]"
15500,342,1.0,7,3,133.9521484375,6.930105686187744,8255,62000,473828,3254622,"[ 5  1  1  2  0  2  0  0  3  0  1  3  0  2  1  2  3  7  4  5  8  1  5  1
  5  5  7  0  8  8  4  2  0  0  1 13  1  6 12  3  7  5  4  1  0  1 11 11
  3  2 12  4  6  8  5 17  5  1  3  5  5  9  9  1  3  3  4  1 19  3 23 19
  4  0  1 22 17 21  7]"
15600,342,1.0,7,3,134.65122365951538,6.990714073181152,8305,62400,476041,3270045,"[ 1  2  1  2  0  2  0  0  3  0  1  3  0  2  1  5  8  0  4  7  3  0  3  6
  5  5  5  3  1  8  1  9  6  0  7  8  1  8  6  3  7  5  0 12  4  4 11  2
  2 16 12  4  6  8  3 17  5  4 16  6  3 20 10  1 10  3  3 21 14  5 16 22
  1 14  9 22 17 21  7]"
15700,342,1.0,7,3,135.3289110660553,6.77682638168335,8357,62800,478199,3285014,"[ 0  1  1  2  0  2  0  0  3  0  1  3  0  2  1  3  6  8  3  8  3  0  3  5
  5  3  2  0  1  6  1 13  7  5  7  6  4  7  4  3  7  5  4  4 13  2 13  2
  1  6  4  4  6  8  3 17  5  3 16  1  5 20 21  5  0  3  5 20 15  0 20 14
  1 10  0 22 17 21  7]"
15800,342,1.0,7,3,136.03972911834717,7.108142375946045,8410,63200,480508,3301050,"[ 1  1  2  2  0  2  0  0  3  0  1  3  0  2  1  4  1  2  1  7  2  0  3  3
  3  0  2  0  6  5  4  1  8  2  0  7  5  7  4  3  7  5  0  4  0  2  1 11
  1  7  6  4  6  8  3 17  5  5 12  4  0  1 20  5 16  3  1 14 15  0  0  9
  1 11 20 22 17 21  7]"
15900,342,1.0,7,3,136.77117323875427,7.314400672912598,8464,63600,482904,3317730,"[ 4  1  1  2  0  2  0  0  3  0  1  3  0  2  1  4  1  6  1  7  7  5  8  6
  3  5  2  1  2  2  1  1 11  4  0  4  3  8  4  3  7  5  3  4  0  2 13 16
  1  8  6  4  6  8  5 17  5  2  9  5  4 14 10  4  1 23  4  3  0  5  0 10
  2 21 20 22 17 21  7]"
16000,342,1.0,7,3,137.46576595306396,6.9458818435668945,8516,64000,485136,3333257,"[ 0  2  1  2  0  2  0  0  3  0  1  3  0  2  1  1  1  4  1  2  8  4  4  4
  2  7  3  3  6  3  2  1 12  4  6 12  3 11  2  3  7  5  3  6  9  4 12  7
  1 15 12  4  6  8  5 17  5  3 13  5  4 16 14  2 12 23  4  2 21  0 17 22
  1 23  3 22 17 21  7]"
16100,342,1.0,7,3,138.19822216033936,7.324512004852295,8565,64400,487568,3350095,"[ 1  3  2  2  0  2  0  0  3  0  1  3  0  2  1  2  2  2  1  2  5  0  7  4
  4  7  8  1  6  3  1  1 12  3  6  4  1  7  1  3  7  5  4  7  7  3  7  7
  5  4 12  4  6  8  5 17  5  5 12 13  4 15 14  1 15 21  0 22 11  0 17 11
  2 22 20 22 17 21  7]"
16200,342,1.0,7,3,138.93843245506287,7.402060031890869,8616,64800,490013,3367083,"[ 3  2  0  2  0  2  0  0  3  0  1  3  0  2  1  2  4  7  2  1  8  0  7  4
  4  2  7  1  1  5  0  1  2  3  1  8  3  7  9  3  7  5  3 11  7  4 14  6
  4  1 17  4  6 14  5 17  5  1 11  8  2 20  3  2 15 20  2 10 18  3 19 11
  4  2 20 22 17 21  7]"
16280,343,1.0,7,2,139.46707105636597,6.607925891876221,8659,65120,491667,3378571,"[ 1  2  3  2  0  2  0  0  3  0  1  3  0  1  1  2  3  5  1  6  8  3  7  4
  2  2  0  1  1  0  0  1  2  3  1  3  4  3  9  3  7  5  3 10  8  4 14  6
  0  1  5  0  6 14  3 17  5  4 11 15  5  3  3  2 15 11  1  3 18  5  0 11
  2 10 20 21 17 19  7]"
