generation,fitness,functionality,active_nodes,longest_path,time,gen_time,nc_gens,fitness_evals,graph_evals,node_evals,genotype
0,221.0,0.625,5,4,0.006772518157958984,6.768941879272461,0,0,0,0,"[ 1  3  2  5  3  1  3  2  2  4  0  2  1  1  0  5  1  1  0  3  3  3  0  7
  4  5  5  0  5  2  3  2 11  2  8 13  1 11  4  4  9 13  2  5  0  1 11 13
  5  9  2  3 10  1  4 11  2  3 10 12  2 15  3  1 23  1  4 17 20  1  2 22
  4 21  3 14 27  1  1]"
100,276.0,0.78125,2,2,0.3202507495880127,3.134753704071045,96,400,5437,16053,"[ 1  3  2  5  3  1  3  2  2  4  0  2  1  1  2  5  1  1  0  3  3  3  0  7
  4  8  5  0  5  2  3  2  9  2  8 13  1 11  0  4  9  3  2  5  0  1 11  9
  5  9  2  0 16  1  4  2  9  3  0 16  2 17 15  1 19  1  4 17 18  1  2 22
  4 21  3 14 14  1  1]"
200,276.0,0.78125,2,2,0.624549388885498,3.0429553985595703,196,800,10761,31743,"[ 1  3  2  5  3  1  3  2  2  4  0  2  1  1  2  5  1  1  0  3  3  3  0  7
  4  8  5  0  5  2  3  2  9  2  8 13  1 11  0  4  9  3  2  5  0  1 11  9
  5  9  2  0 16  1  4  2  9  3  0 16  2 17 15  1 19  1  4 17 18  1  2 22
  4 21  3 14 14  1  1]"
300,276.0,0.78125,2,2,0.9313783645629883,3.068256378173828,296,1200,16048,47351,"[ 1  3  2  5  3  1  3  2  2  4  0  2  1  1  2  5  1  1  0  3  3  3  0  7
  4  8  5  0  5  2  3  2  9  2  8 13  1 11  0  4  9  3  2  5  0  1 11  9
  5  9  2  0 16  1  4  2  9  3  0 16  2 17 15  1 19  1  4 17 18  1  2 22
  4 21  3 14 14  1  1]"
400,276.0,0.78125,2,2,1.2313096523284912,2.999279499053955,396,1600,21264,62850,"[ 1  3  2  5  3  1  3  2  2  4  0  2  1  1  2  5  1  1  0  3  3  3  0  7
  4  8  5  0  5  2  3  2  9  2  8 13  1 11  0  4  9  3  2  5  0  1 11  9
  5  9  2  0 16  1  4  2  9  3  0 16  2 17 15  1 19  1  4 17 18  1  2 22
  4 21  3 14 14  1  1]"
500,276.0,0.78125,2,2,1.5315971374511719,3.0028438568115234,496,2000,26477,78453,"[ 1  3  2  5  3  1  3  2  2  4  0  2  1  1  2  5  1  1  0  3  3  3  0  7
  4  8  5  0  5  2  3  2  9  2  8 13  1 11  0  4  9  3  2  5  0  1 11  9
  5  9  2  0 16  1  4  2  9  3  0 16  2 17 15  1 19  1  4 17 18  1  2 22
  4 21  3 14 14  1  1]"
600,295.0,0.84375,3,2,1.8421344757080078,3.105344772338867,594,2400,31626,95319,"[ 1  3  2  5  3  1  3  2  2  4  0  2  1  1  2  5  1  1  0  3  3  3  0  7
  2  8  5  0  5  2  3  2  9  2  8 13  1 11  0  4  9  3  2  5  0  1 11  9
  5  9  2  0  3  1  4  2  9  3  0 16  2 17 15  1 19  1  4 17 18  1  2 22
  4 21  3 14 14  1 21]"
700,303.0,0.875,5,2,2.1647331714630127,3.2259559631347656,693,2800,36566,114685,"[ 1  3  2  5  3  1  3  2  2  4  0  2  1  1  2  5  1  1  0  7  3  3  0  7
  2  8  5  0  5  2  3  2  9  2  8  2  1 11  0  4  9  3  2  5  0  1 11  9
  5  9  2  0  3  1  4  2  9  3  0 16  2 17 15  1 19  1  4 17 18  1  2 22
  4 21  3 14 14 10 21]"
800,304.0,0.875,4,2,2.526979684829712,3.622434139251709,792,3200,41667,139692,"[ 1  3  2  5  3  1  3  2  2  4  0  2  1  1  2  5  1  1  0  0  3  3  0  7
  2  8  5  0  5  2  3  2  9  2  8  2  1 11  0  4  9  3  2  5  0  1 11  9
  5  9  2  0  3  1  4  2  9  3  0 16  2 17 15  1 19  1  4 17 18  1  2 22
  4 21  3 14 14 10 21]"
900,304.0,0.875,4,2,2.8717494010925293,3.4476637840270996,892,3600,46746,162693,"[ 1  3  2  5  3  1  3  2  2  4  0  2  1  1  2  5  1  1  0  0  3  3  0  7
  2  8  5  0  5  2  3  2  9  2  8  2  1 11  0  4  9  3  2  5  0  1 11  9
  5  9  2  0  3  1  4  2  9  3  0 16  2 17 15  1 19  1  4 17 18  1  2 22
  4 21  3 14 14 10 21]"
1000,304.0,0.875,4,2,3.218881130218506,3.4712862968444824,992,4000,51793,185929,"[ 1  3  2  5  3  1  3  2  2  4  0  2  1  1  2  5  1  1  0  0  3  3  0  7
  2  8  5  0  5  2  3  2  9  2  8  2  1 11  0  4  9  3  2  5  0  1 11  9
  5  9  2  0  3  1  4  2  9  3  0 16  2 17 15  1 19  1  4 17 18  1  2 22
  4 21  3 14 14 10 21]"
1100,304.0,0.875,4,2,3.5615124702453613,3.4262847900390625,1092,4400,56823,208722,"[ 1  3  2  5  3  1  3  2  2  4  0  2  1  1  2  5  1  1  0  0  3  3  0  7
  2  8  5  0  5  2  3  2  9  2  8  2  1 11  0  4  9  3  2  5  0  1 11  9
  5  9  2  0  3  1  4  2  9  3  0 16  2 17 15  1 19  1  4 17 18  1  2 22
  4 21  3 14 14 10 21]"
1200,304.0,0.875,4,2,3.904658555984497,3.4314322471618652,1192,4800,61742,231587,"[ 1  3  2  5  3  1  3  2  2  4  0  2  1  1  2  5  1  1  0  0  3  3  0  7
  2  8  5  0  5  2  3  2  9  2  8  2  1 11  0  4  9  3  2  5  0  1 11  9
  5  9  2  0  3  1  4  2  9  3  0 16  2 17 15  1 19  1  4 17 18  1  2 22
  4 21  3 14 14 10 21]"
1300,304.0,0.875,4,2,4.249143123626709,3.444814682006836,1292,5200,66762,254452,"[ 1  3  2  5  3  1  3  2  2  4  0  2  1  1  2  5  1  1  0  0  3  3  0  7
  2  8  5  0  5  2  3  2  9  2  8  2  1 11  0  4  9  3  2  5  0  1 11  9
  5  9  2  0  3  1  4  2  9  3  0 16  2 17 15  1 19  1  4 17 18  1  2 22
  4 21  3 14 14 10 21]"
1400,304.0,0.875,4,2,4.5855937004089355,3.3644771575927734,1392,5600,71756,276647,"[ 1  3  2  5  3  1  3  2  2  4  0  2  1  1  2  5  1  1  0  0  3  3  0  7
  2  8  5  0  5  2  3  2  9  2  8  2  1 11  0  4  9  3  2  5  0  1 11  9
  5  9  2  0  3  1  4  2  9  3  0 16  2 17 15  1 19  1  4 17 18  1  2 22
  4 21  3 14 14 10 21]"
1500,304.0,0.875,4,2,4.933726787567139,3.481302261352539,1492,6000,76806,300169,"[ 1  3  2  5  3  1  3  2  2  4  0  2  1  1  2  5  1  1  0  0  3  3  0  7
  2  8  5  0  5  2  3  2  9  2  8  2  1 11  0  4  9  3  2  5  0  1 11  9
  5  9  2  0  3  1  4  2  9  3  0 16  2 17 15  1 19  1  4 17 18  1  2 22
  4 21  3 14 14 10 21]"
1600,304.0,0.875,4,2,5.281705141067505,3.479747772216797,1592,6400,81908,323364,"[ 1  3  2  5  3  1  3  2  2  4  0  2  1  1  2  5  1  1  0  0  3  3  0  7
  2  8  5  0  5  2  3  2  9  2  8  2  1 11  0  4  9  3  2  5  0  1 11  9
  5  9  2  0  3  1  4  2  9  3  0 16  2 17 15  1 19  1  4 17 18  1  2 22
  4 21  3 14 14 10 21]"
1700,304.0,0.875,4,2,5.6302196979522705,3.485116958618164,1692,6800,87045,346909,"[ 1  3  2  5  3  1  3  2  2  4  0  2  1  1  2  5  1  1  0  0  3  3  0  7
  2  8  5  0  5  2  3  2  9  2  8  2  1 11  0  4  9  3  2  5  0  1 11  9
  5  9  2  0  3  1  4  2  9  3  0 16  2 17 15  1 19  1  4 17 18  1  2 22
  4 21  3 14 14 10 21]"
1800,304.0,0.875,4,2,5.983291387557983,3.5306882858276367,1792,7200,92151,370780,"[ 1  3  2  5  3  1  3  2  2  4  0  2  1  1  2  5  1  1  0  0  3  3  0  7
  2  8  5  0  5  2  3  2  9  2  8  2  1 11  0  4  9  3  2  5  0  1 11  9
  5  9  2  0  3  1  4  2  9  3  0 16  2 17 15  1 19  1  4 17 18  1  2 22
  4 21  3 14 14 10 21]"
1900,304.0,0.875,4,2,6.322858572006226,3.3956432342529297,1892,7600,97123,393427,"[ 1  3  2  5  3  1  3  2  2  4  0  2  1  1  2  5  1  1  0  0  3  3  0  7
  2  8  5  0  5  2  3  2  9  2  8  2  1 11  0  4  9  3  2  5  0  1 11  9
  5  9  2  0  3  1  4  2  9  3  0 16  2 17 15  1 19  1  4 17 18  1  2 22
  4 21  3 14 14 10 21]"
2000,304.0,0.875,4,2,6.6640191078186035,3.411579132080078,1992,8000,102088,416195,"[ 1  3  2  5  3  1  3  2  2  4  0  2  1  1  2  5  1  1  0  0  3  3  0  7
  2  8  5  0  5  2  3  2  9  2  8  2  1 11  0  4  9  3  2  5  0  1 11  9
  5  9  2  0  3  1  4  2  9  3  0 16  2 17 15  1 19  1  4 17 18  1  2 22
  4 21  3 14 14 10 21]"
2100,304.0,0.875,4,2,7.01592493057251,3.5190320014953613,2092,8400,107216,439287,"[ 1  3  2  5  3  1  3  2  2  4  0  2  1  1  2  5  1  1  0  0  3  3  0  7
  2  8  5  0  5  2  3  2  9  2  8  2  1 11  0  4  9  3  2  5  0  1 11  9
  5  9  2  0  3  1  4  2  9  3  0 16  2 17 15  1 19  1  4 17 18  1  2 22
  4 21  3 14 14 10 21]"
2200,304.0,0.875,4,2,7.361910820007324,3.4598255157470703,2192,8800,112148,461669,"[ 1  3  2  5  3  1  3  2  2  4  0  2  1  1  2  5  1  1  0  0  3  3  0  7
  2  8  5  0  5  2  3  2  9  2  8  2  1 11  0  4  9  3  2  5  0  1 11  9
  5  9  2  0  3  1  4  2  9  3  0 16  2 17 15  1 19  1  4 17 18  1  2 22
  4 21  3 14 14 10 21]"
2300,304.0,0.875,4,2,7.696987628936768,3.3507394790649414,2292,9200,117033,483971,"[ 1  3  2  5  3  1  3  2  2  4  0  2  1  1  2  5  1  1  0  0  3  3  0  7
  2  8  5  0  5  2  3  2  9  2  8  2  1 11  0  4  9  3  2  5  0  1 11  9
  5  9  2  0  3  1  4  2  9  3  0 16  2 17 15  1 19  1  4 17 18  1  2 22
  4 21  3 14 14 10 21]"
2400,304.0,0.875,4,2,8.044640064239502,3.4764957427978516,2392,9600,122058,507125,"[ 1  3  2  5  3  1  3  2  2  4  0  2  1  1  2  5  1  1  0  0  3  3  0  7
  2  8  5  0  5  2  3  2  9  2  8  2  1 11  0  4  9  3  2  5  0  1 11  9
  5  9  2  0  3  1  4  2  9  3  0 16  2 17 15  1 19  1  4 17 18  1  2 22
  4 21  3 14 14 10 21]"
2500,304.0,0.875,4,2,8.393561840057373,3.4891867637634277,2492,10000,127135,530211,"[ 1  3  2  5  3  1  3  2  2  4  0  2  1  1  2  5  1  1  0  0  3  3  0  7
  2  8  5  0  5  2  3  2  9  2  8  2  1 11  0  4  9  3  2  5  0  1 11  9
  5  9  2  0  3  1  4  2  9  3  0 16  2 17 15  1 19  1  4 17 18  1  2 22
  4 21  3 14 14 10 21]"
2600,304.0,0.875,4,2,8.744094848632812,3.5053014755249023,2592,10400,132287,553574,"[ 1  3  2  5  3  1  3  2  2  4  0  2  1  1  2  5  1  1  0  0  3  3  0  7
  2  8  5  0  5  2  3  2  9  2  8  2  1 11  0  4  9  3  2  5  0  1 11  9
  5  9  2  0  3  1  4  2  9  3  0 16  2 17 15  1 19  1  4 17 18  1  2 22
  4 21  3 14 14 10 21]"
2700,304.0,0.875,4,2,9.093920946121216,3.498234748840332,2692,10800,137317,576898,"[ 1  3  2  5  3  1  3  2  2  4  0  2  1  1  2  5  1  1  0  0  3  3  0  7
  2  8  5  0  5  2  3  2  9  2  8  2  1 11  0  4  9  3  2  5  0  1 11  9
  5  9  2  0  3  1  4  2  9  3  0 16  2 17 15  1 19  1  4 17 18  1  2 22
  4 21  3 14 14 10 21]"
2800,304.0,0.875,4,2,9.44679856300354,3.52874755859375,2792,11200,142361,599807,"[ 1  3  2  5  3  1  3  2  2  4  0  2  1  1  2  5  1  1  0  0  3  3  0  7
  2  8  5  0  5  2  3  2  9  2  8  2  1 11  0  4  9  3  2  5  0  1 11  9
  5  9  2  0  3  1  4  2  9  3  0 16  2 17 15  1 19  1  4 17 18  1  2 22
  4 21  3 14 14 10 21]"
2900,304.0,0.875,4,2,9.79180645942688,3.4500479698181152,2892,11600,147434,622960,"[ 1  3  2  5  3  1  3  2  2  4  0  2  1  1  2  5  1  1  0  0  3  3  0  7
  2  8  5  0  5  2  3  2  9  2  8  2  1 11  0  4  9  3  2  5  0  1 11  9
  5  9  2  0  3  1  4  2  9  3  0 16  2 17 15  1 19  1  4 17 18  1  2 22
  4 21  3 14 14 10 21]"
3000,304.0,0.875,4,2,10.13669729232788,3.4488725662231445,2992,12000,152494,645690,"[ 1  3  2  5  3  1  3  2  2  4  0  2  1  1  2  5  1  1  0  0  3  3  0  7
  2  8  5  0  5  2  3  2  9  2  8  2  1 11  0  4  9  3  2  5  0  1 11  9
  5  9  2  0  3  1  4  2  9  3  0 16  2 17 15  1 19  1  4 17 18  1  2 22
  4 21  3 14 14 10 21]"
3100,304.0,0.875,4,2,10.481884717941284,3.451848030090332,3092,12400,157460,668689,"[ 1  3  2  5  3  1  3  2  2  4  0  2  1  1  2  5  1  1  0  0  3  3  0  7
  2  8  5  0  5  2  3  2  9  2  8  2  1 11  0  4  9  3  2  5  0  1 11  9
  5  9  2  0  3  1  4  2  9  3  0 16  2 17 15  1 19  1  4 17 18  1  2 22
  4 21  3 14 14 10 21]"
3200,308.0,0.90625,8,4,10.87118911743164,3.8930153846740723,3190,12800,162636,697282,"[ 1  3  2  5  0  1  3  2  2  4  0  2  1  1  2  5  1  1  0  0  3  3  0  7
  2  8  5  0  5  0  3  2  9  2  8  2  1 11  0  4 11  3  2  5  0  1 11  0
  2  9  2  0  3  1  4  2  9  3  0 16  2 17 15  0 19  2  4  0 18  1  2 22
  4 21  3 14 25 10 21]"
3300,312.0,0.90625,6,2,11.322396993637085,4.51204776763916,3289,13200,167991,733376,"[ 1  3  2  5  0  1  3  2  2  4  0  2  1  1  2  5  1  1  0  0  3  3  0  7
  2  8  5  0  5  0  3  2  9  2  8  2  1 11  0  4 11  3  2  5  0  1  0  0
  2  9  2  0  3  1  4  2  9  3  0 16  2 17 15  0 19  2  4  0 18  1  2 22
  4 21 19 14 25 10 21]"
3400,313.0,0.90625,5,2,11.745282173156738,4.228825569152832,3388,13600,173190,766421,"[ 1  3  2  5  0  1  3  2  2  4  0  2  1  1  2  5  1  1  0  0  3  3  0  7
  2  8  5  0  5  0  3  2  9  2  8  2  1 11  0  4 11  3  2  5  0  1  0  0
  2  9  2  0  3  1  4  2  9  3  0 16  2 17 15  0  0  2  4  0 18  1  2 22
  4 21 19 14 25 10 21]"
3500,313.0,0.90625,5,2,12.135395288467407,3.9011073112487793,3488,14000,178436,795012,"[ 1  3  2  5  0  1  3  2  2  4  0  2  1  1  2  5  1  1  0  0  3  3  0  7
  2  8  5  0  5  0  3  2  9  2  8  2  1 11  0  4 11  3  2  5  0  1  0  0
  2  9  2  0  3  1  4  2  9  3  0 16  2 17 15  0  0  2  4  0 18  1  2 22
  4 21 19 14 25 10 21]"
3600,313.0,0.90625,5,2,12.520196437835693,3.847982883453369,3588,14400,183581,823118,"[ 1  3  2  5  0  1  3  2  2  4  0  2  1  1  2  5  1  1  0  0  3  3  0  7
  2  8  5  0  5  0  3  2  9  2  8  2  1 11  0  4 11  3  2  5  0  1  0  0
  2  9  2  0  3  1  4  2  9  3  0 16  2 17 15  0  0  2  4  0 18  1  2 22
  4 21 19 14 25 10 21]"
3700,313.0,0.90625,5,2,12.914299488067627,3.940997123718262,3688,14800,188918,852104,"[ 1  3  2  5  0  1  3  2  2  4  0  2  1  1  2  5  1  1  0  0  3  3  0  7
  2  8  5  0  5  0  3  2  9  2  8  2  1 11  0  4 11  3  2  5  0  1  0  0
  2  9  2  0  3  1  4  2  9  3  0 16  2 17 15  0  0  2  4  0 18  1  2 22
  4 21 19 14 25 10 21]"
3800,313.0,0.90625,5,2,13.299243211746216,3.8494086265563965,3788,15200,194105,880192,"[ 1  3  2  5  0  1  3  2  2  4  0  2  1  1  2  5  1  1  0  0  3  3  0  7
  2  8  5  0  5  0  3  2  9  2  8  2  1 11  0  4 11  3  2  5  0  1  0  0
  2  9  2  0  3  1  4  2  9  3  0 16  2 17 15  0  0  2  4  0 18  1  2 22
  4 21 19 14 25 10 21]"
3900,313.0,0.90625,5,2,13.693432807922363,3.9418673515319824,3888,15600,199418,909117,"[ 1  3  2  5  0  1  3  2  2  4  0  2  1  1  2  5  1  1  0  0  3  3  0  7
  2  8  5  0  5  0  3  2  9  2  8  2  1 11  0  4 11  3  2  5  0  1  0  0
  2  9  2  0  3  1  4  2  9  3  0 16  2 17 15  0  0  2  4  0 18  1  2 22
  4 21 19 14 25 10 21]"
4000,313.0,0.90625,5,2,14.087247371673584,3.938112258911133,3988,16000,204681,937807,"[ 1  3  2  5  0  1  3  2  2  4  0  2  1  1  2  5  1  1  0  0  3  3  0  7
  2  8  5  0  5  0  3  2  9  2  8  2  1 11  0  4 11  3  2  5  0  1  0  0
  2  9  2  0  3  1  4  2  9  3  0 16  2 17 15  0  0  2  4  0 18  1  2 22
  4 21 19 14 25 10 21]"
4100,313.0,0.90625,5,2,14.473161458969116,3.85911226272583,4088,16400,209847,966133,"[ 1  3  2  5  0  1  3  2  2  4  0  2  1  1  2  5  1  1  0  0  3  3  0  7
  2  8  5  0  5  0  3  2  9  2  8  2  1 11  0  4 11  3  2  5  0  1  0  0
  2  9  2  0  3  1  4  2  9  3  0 16  2 17 15  0  0  2  4  0 18  1  2 22
  4 21 19 14 25 10 21]"
4200,313.0,0.90625,5,2,14.867351055145264,3.941869735717774,4188,16800,215093,995029,"[ 1  3  2  5  0  1  3  2  2  4  0  2  1  1  2  5  1  1  0  0  3  3  0  7
  2  8  5  0  5  0  3  2  9  2  8  2  1 11  0  4 11  3  2  5  0  1  0  0
  2  9  2  0  3  1  4  2  9  3  0 16  2 17 15  0  0  2  4  0 18  1  2 22
  4 21 19 14 25 10 21]"
4300,313.0,0.90625,5,2,15.255028009414673,3.8767385482788086,4288,17200,220305,1023289,"[ 1  3  2  5  0  1  3  2  2  4  0  2  1  1  2  5  1  1  0  0  3  3  0  7
  2  8  5  0  5  0  3  2  9  2  8  2  1 11  0  4 11  3  2  5  0  1  0  0
  2  9  2  0  3  1  4  2  9  3  0 16  2 17 15  0  0  2  4  0 18  1  2 22
  4 21 19 14 25 10 21]"
4400,313.0,0.90625,5,2,15.647600412368774,3.9256930351257324,4388,17600,225560,1052037,"[ 1  3  2  5  0  1  3  2  2  4  0  2  1  1  2  5  1  1  0  0  3  3  0  7
  2  8  5  0  5  0  3  2  9  2  8  2  1 11  0  4 11  3  2  5  0  1  0  0
  2  9  2  0  3  1  4  2  9  3  0 16  2 17 15  0  0  2  4  0 18  1  2 22
  4 21 19 14 25 10 21]"
4500,313.0,0.90625,5,2,16.042012453079224,3.944089412689209,4488,18000,230887,1081079,"[ 1  3  2  5  0  1  3  2  2  4  0  2  1  1  2  5  1  1  0  0  3  3  0  7
  2  8  5  0  5  0  3  2  9  2  8  2  1 11  0  4 11  3  2  5  0  1  0  0
  2  9  2  0  3  1  4  2  9  3  0 16  2 17 15  0  0  2  4  0 18  1  2 22
  4 21 19 14 25 10 21]"
4600,313.0,0.90625,5,2,16.468018531799316,4.2600274085998535,4588,18400,236165,1110277,"[ 1  3  2  5  0  1  3  2  2  4  0  2  1  1  2  5  1  1  0  0  3  3  0  7
  2  8  5  0  5  0  3  2  9  2  8  2  1 11  0  4 11  3  2  5  0  1  0  0
  2  9  2  0  3  1  4  2  9  3  0 16  2 17 15  0  0  2  4  0 18  1  2 22
  4 21 19 14 25 10 21]"
4700,313.0,0.90625,5,2,16.860536813735962,3.925154209136963,4688,18800,241355,1138516,"[ 1  3  2  5  0  1  3  2  2  4  0  2  1  1  2  5  1  1  0  0  3  3  0  7
  2  8  5  0  5  0  3  2  9  2  8  2  1 11  0  4 11  3  2  5  0  1  0  0
  2  9  2  0  3  1  4  2  9  3  0 16  2 17 15  0  0  2  4  0 18  1  2 22
  4 21 19 14 25 10 21]"
4800,313.0,0.90625,5,2,17.245441436767578,3.849010467529297,4788,19200,246518,1166466,"[ 1  3  2  5  0  1  3  2  2  4  0  2  1  1  2  5  1  1  0  0  3  3  0  7
  2  8  5  0  5  0  3  2  9  2  8  2  1 11  0  4 11  3  2  5  0  1  0  0
  2  9  2  0  3  1  4  2  9  3  0 16  2 17 15  0  0  2  4  0 18  1  2 22
  4 21 19 14 25 10 21]"
4900,313.0,0.90625,5,2,17.634682416915894,3.892378807067871,4888,19600,251857,1195119,"[ 1  3  2  5  0  1  3  2  2  4  0  2  1  1  2  5  1  1  0  0  3  3  0  7
  2  8  5  0  5  0  3  2  9  2  8  2  1 11  0  4 11  3  2  5  0  1  0  0
  2  9  2  0  3  1  4  2  9  3  0 16  2 17 15  0  0  2  4  0 18  1  2 22
  4 21 19 14 25 10 21]"
5000,313.0,0.90625,5,2,18.021329879760742,3.866443634033203,4988,20000,257047,1222976,"[ 1  3  2  5  0  1  3  2  2  4  0  2  1  1  2  5  1  1  0  0  3  3  0  7
  2  8  5  0  5  0  3  2  9  2  8  2  1 11  0  4 11  3  2  5  0  1  0  0
  2  9  2  0  3  1  4  2  9  3  0 16  2 17 15  0  0  2  4  0 18  1  2 22
  4 21 19 14 25 10 21]"
5100,313.0,0.90625,5,2,18.413209676742554,3.9187645912170415,5088,20400,262308,1251642,"[ 1  3  2  5  0  1  3  2  2  4  0  2  1  1  2  5  1  1  0  0  3  3  0  7
  2  8  5  0  5  0  3  2  9  2  8  2  1 11  0  4 11  3  2  5  0  1  0  0
  2  9  2  0  3  1  4  2  9  3  0 16  2 17 15  0  0  2  4  0 18  1  2 22
  4 21 19 14 25 10 21]"
5200,313.0,0.90625,5,2,18.799546718597412,3.8633346557617188,5188,20800,267533,1279876,"[ 1  3  2  5  0  1  3  2  2  4  0  2  1  1  2  5  1  1  0  0  3  3  0  7
  2  8  5  0  5  0  3  2  9  2  8  2  1 11  0  4 11  3  2  5  0  1  0  0
  2  9  2  0  3  1  4  2  9  3  0 16  2 17 15  0  0  2  4  0 18  1  2 22
  4 21 19 14 25 10 21]"
5300,313.0,0.90625,5,2,19.182223558425903,3.826742172241211,5288,21200,272664,1307918,"[ 1  3  2  5  0  1  3  2  2  4  0  2  1  1  2  5  1  1  0  0  3  3  0  7
  2  8  5  0  5  0  3  2  9  2  8  2  1 11  0  4 11  3  2  5  0  1  0  0
  2  9  2  0  3  1  4  2  9  3  0 16  2 17 15  0  0  2  4  0 18  1  2 22
  4 21 19 14 25 10 21]"
5400,313.0,0.90625,5,2,19.57941460609436,3.971879482269287,5388,21600,277944,1336955,"[ 1  3  2  5  0  1  3  2  2  4  0  2  1  1  2  5  1  1  0  0  3  3  0  7
  2  8  5  0  5  0  3  2  9  2  8  2  1 11  0  4 11  3  2  5  0  1  0  0
  2  9  2  0  3  1  4  2  9  3  0 16  2 17 15  0  0  2  4  0 18  1  2 22
  4 21 19 14 25 10 21]"
5500,313.0,0.90625,5,2,19.962724447250366,3.8330674171447754,5488,22000,283095,1365105,"[ 1  3  2  5  0  1  3  2  2  4  0  2  1  1  2  5  1  1  0  0  3  3  0  7
  2  8  5  0  5  0  3  2  9  2  8  2  1 11  0  4 11  3  2  5  0  1  0  0
  2  9  2  0  3  1  4  2  9  3  0 16  2 17 15  0  0  2  4  0 18  1  2 22
  4 21 19 14 25 10 21]"
5600,313.0,0.90625,5,2,20.360669374465942,3.9794182777404785,5588,22400,288393,1394592,"[ 1  3  2  5  0  1  3  2  2  4  0  2  1  1  2  5  1  1  0  0  3  3  0  7
  2  8  5  0  5  0  3  2  9  2  8  2  1 11  0  4 11  3  2  5  0  1  0  0
  2  9  2  0  3  1  4  2  9  3  0 16  2 17 15  0  0  2  4  0 18  1  2 22
  4 21 19 14 25 10 21]"
5700,313.0,0.90625,5,2,20.757741689682007,3.9706945419311523,5688,22800,293720,1423740,"[ 1  3  2  5  0  1  3  2  2  4  0  2  1  1  2  5  1  1  0  0  3  3  0  7
  2  8  5  0  5  0  3  2  9  2  8  2  1 11  0  4 11  3  2  5  0  1  0  0
  2  9  2  0  3  1  4  2  9  3  0 16  2 17 15  0  0  2  4  0 18  1  2 22
  4 21 19 14 25 10 21]"
5800,313.0,0.90625,5,2,21.14115047454834,3.834052085876465,5788,23200,298914,1451907,"[ 1  3  2  5  0  1  3  2  2  4  0  2  1  1  2  5  1  1  0  0  3  3  0  7
  2  8  5  0  5  0  3  2  9  2  8  2  1 11  0  4 11  3  2  5  0  1  0  0
  2  9  2  0  3  1  4  2  9  3  0 16  2 17 15  0  0  2  4  0 18  1  2 22
  4 21 19 14 25 10 21]"
5900,313.0,0.90625,5,2,21.52955412864685,3.8840079307556152,5888,23600,304168,1480414,"[ 1  3  2  5  0  1  3  2  2  4  0  2  1  1  2  5  1  1  0  0  3  3  0  7
  2  8  5  0  5  0  3  2  9  2  8  2  1 11  0  4 11  3  2  5  0  1  0  0
  2  9  2  0  3  1  4  2  9  3  0 16  2 17 15  0  0  2  4  0 18  1  2 22
  4 21 19 14 25 10 21]"
6000,313.0,0.90625,5,2,21.91150665283203,3.8194942474365234,5988,24000,309303,1508396,"[ 1  3  2  5  0  1  3  2  2  4  0  2  1  1  2  5  1  1  0  0  3  3  0  7
  2  8  5  0  5  0  3  2  9  2  8  2  1 11  0  4 11  3  2  5  0  1  0  0
  2  9  2  0  3  1  4  2  9  3  0 16  2 17 15  0  0  2  4  0 18  1  2 22
  4 21 19 14 25 10 21]"
6100,313.0,0.90625,5,2,22.305427312850952,3.9391732215881348,6088,24400,314559,1537319,"[ 1  3  2  5  0  1  3  2  2  4  0  2  1  1  2  5  1  1  0  0  3  3  0  7
  2  8  5  0  5  0  3  2  9  2  8  2  1 11  0  4 11  3  2  5  0  1  0  0
  2  9  2  0  3  1  4  2  9  3  0 16  2 17 15  0  0  2  4  0 18  1  2 22
  4 21 19 14 25 10 21]"
6200,313.0,0.90625,5,2,22.703766584396362,3.9833617210388184,6188,24800,319850,1566466,"[ 1  3  2  5  0  1  3  2  2  4  0  2  1  1  2  5  1  1  0  0  3  3  0  7
  2  8  5  0  5  0  3  2  9  2  8  2  1 11  0  4 11  3  2  5  0  1  0  0
  2  9  2  0  3  1  4  2  9  3  0 16  2 17 15  0  0  2  4  0 18  1  2 22
  4 21 19 14 25 10 21]"
6300,313.0,0.90625,5,2,23.096088409423828,3.923189640045166,6288,25200,325151,1595623,"[ 1  3  2  5  0  1  3  2  2  4  0  2  1  1  2  5  1  1  0  0  3  3  0  7
  2  8  5  0  5  0  3  2  9  2  8  2  1 11  0  4 11  3  2  5  0  1  0  0
  2  9  2  0  3  1  4  2  9  3  0 16  2 17 15  0  0  2  4  0 18  1  2 22
  4 21 19 14 25 10 21]"
6400,313.0,0.90625,5,2,23.47925114631653,3.8315987586975098,6388,25600,330265,1623601,"[ 1  3  2  5  0  1  3  2  2  4  0  2  1  1  2  5  1  1  0  0  3  3  0  7
  2  8  5  0  5  0  3  2  9  2  8  2  1 11  0  4 11  3  2  5  0  1  0  0
  2  9  2  0  3  1  4  2  9  3  0 16  2 17 15  0  0  2  4  0 18  1  2 22
  4 21 19 14 25 10 21]"
6500,313.0,0.90625,5,2,23.865734815597534,3.8648080825805664,6488,26000,335397,1651760,"[ 1  3  2  5  0  1  3  2  2  4  0  2  1  1  2  5  1  1  0  0  3  3  0  7
  2  8  5  0  5  0  3  2  9  2  8  2  1 11  0  4 11  3  2  5  0  1  0  0
  2  9  2  0  3  1  4  2  9  3  0 16  2 17 15  0  0  2  4  0 18  1  2 22
  4 21 19 14 25 10 21]"
6600,313.0,0.90625,5,2,24.25645875930786,3.907210826873779,6588,26400,340717,1680350,"[ 1  3  2  5  0  1  3  2  2  4  0  2  1  1  2  5  1  1  0  0  3  3  0  7
  2  8  5  0  5  0  3  2  9  2  8  2  1 11  0  4 11  3  2  5  0  1  0  0
  2  9  2  0  3  1  4  2  9  3  0 16  2 17 15  0  0  2  4  0 18  1  2 22
  4 21 19 14 25 10 21]"
6700,313.0,0.90625,5,2,24.63995051383972,3.8348913192749023,6688,26800,345806,1708065,"[ 1  3  2  5  0  1  3  2  2  4  0  2  1  1  2  5  1  1  0  0  3  3  0  7
  2  8  5  0  5  0  3  2  9  2  8  2  1 11  0  4 11  3  2  5  0  1  0  0
  2  9  2  0  3  1  4  2  9  3  0 16  2 17 15  0  0  2  4  0 18  1  2 22
  4 21 19 14 25 10 21]"
6800,313.0,0.90625,5,2,25.03049635887146,3.9054298400878906,6788,27200,350997,1736590,"[ 1  3  2  5  0  1  3  2  2  4  0  2  1  1  2  5  1  1  0  0  3  3  0  7
  2  8  5  0  5  0  3  2  9  2  8  2  1 11  0  4 11  3  2  5  0  1  0  0
  2  9  2  0  3  1  4  2  9  3  0 16  2 17 15  0  0  2  4  0 18  1  2 22
  4 21 19 14 25 10 21]"
6900,313.0,0.90625,5,2,25.415879487991333,3.8538026809692383,6888,27600,356147,1764744,"[ 1  3  2  5  0  1  3  2  2  4  0  2  1  1  2  5  1  1  0  0  3  3  0  7
  2  8  5  0  5  0  3  2  9  2  8  2  1 11  0  4 11  3  2  5  0  1  0  0
  2  9  2  0  3  1  4  2  9  3  0 16  2 17 15  0  0  2  4  0 18  1  2 22
  4 21 19 14 25 10 21]"
7000,313.0,0.90625,5,2,25.80950927734375,3.9362692832946777,6988,28000,361389,1793770,"[ 1  3  2  5  0  1  3  2  2  4  0  2  1  1  2  5  1  1  0  0  3  3  0  7
  2  8  5  0  5  0  3  2  9  2  8  2  1 11  0  4 11  3  2  5  0  1  0  0
  2  9  2  0  3  1  4  2  9  3  0 16  2 17 15  0  0  2  4  0 18  1  2 22
  4 21 19 14 25 10 21]"
7100,313.0,0.90625,5,2,26.19647789001465,3.869659900665283,7088,28400,366523,1822240,"[ 1  3  2  5  0  1  3  2  2  4  0  2  1  1  2  5  1  1  0  0  3  3  0  7
  2  8  5  0  5  0  3  2  9  2  8  2  1 11  0  4 11  3  2  5  0  1  0  0
  2  9  2  0  3  1  4  2  9  3  0 16  2 17 15  0  0  2  4  0 18  1  2 22
  4 21 19 14 25 10 21]"
7200,313.0,0.90625,5,2,26.587283611297607,3.908030986785889,7188,28800,371735,1850628,"[ 1  3  2  5  0  1  3  2  2  4  0  2  1  1  2  5  1  1  0  0  3  3  0  7
  2  8  5  0  5  0  3  2  9  2  8  2  1 11  0  4 11  3  2  5  0  1  0  0
  2  9  2  0  3  1  4  2  9  3  0 16  2 17 15  0  0  2  4  0 18  1  2 22
  4 21 19 14 25 10 21]"
7300,313.0,0.90625,5,2,26.972979307174683,3.856930732727051,7288,29200,376917,1878852,"[ 1  3  2  5  0  1  3  2  2  4  0  2  1  1  2  5  1  1  0  0  3  3  0  7
  2  8  5  0  5  0  3  2  9  2  8  2  1 11  0  4 11  3  2  5  0  1  0  0
  2  9  2  0  3  1  4  2  9  3  0 16  2 17 15  0  0  2  4  0 18  1  2 22
  4 21 19 14 25 10 21]"
7400,313.0,0.90625,5,2,27.357307195663452,3.843252658843994,7388,29600,382092,1906842,"[ 1  3  2  5  0  1  3  2  2  4  0  2  1  1  2  5  1  1  0  0  3  3  0  7
  2  8  5  0  5  0  3  2  9  2  8  2  1 11  0  4 11  3  2  5  0  1  0  0
  2  9  2  0  3  1  4  2  9  3  0 16  2 17 15  0  0  2  4  0 18  1  2 22
  4 21 19 14 25 10 21]"
7500,314.0,0.90625,4,2,27.729917526245117,3.726077079772949,7487,30000,387164,1933344,"[ 1  3  2  5  0  1  3  2  2  4  0  2  1  1  2  5  1  1  0  0  3  3  0  7
  2  8  5  2  5  0  3  2  9  2  8  2  0 11  0  4 11  3  2  5  0  1  0 16
  2  9  2  0  3  1  4  2  9  3  0 16  2 17 15  0  0  2  4  0 18  1  2 22
  4 21 21 28 25 10 21]"
7600,314.0,0.90625,4,2,28.090860605239868,3.6094021797180176,7587,30400,392192,1958041,"[ 1  3  2  5  0  1  3  2  2  4  0  2  1  1  2  5  1  1  0  0  3  3  0  7
  2  8  5  2  5  0  3  2  9  2  8  2  0 11  0  4 11  3  2  5  0  1  0 16
  2  9  2  0  3  1  4  2  9  3  0 16  2 17 15  0  0  2  4  0 18  1  2 22
  4 21 21 28 25 10 21]"
7700,314.0,0.90625,4,2,28.444379568099976,3.535163402557373,7687,30800,397207,1982356,"[ 1  3  2  5  0  1  3  2  2  4  0  2  1  1  2  5  1  1  0  0  3  3  0  7
  2  8  5  2  5  0  3  2  9  2  8  2  0 11  0  4 11  3  2  5  0  1  0 16
  2  9  2  0  3  1  4  2  9  3  0 16  2 17 15  0  0  2  4  0 18  1  2 22
  4 21 21 28 25 10 21]"
7800,314.0,0.90625,4,2,28.795173168182373,3.5079050064086914,7787,31200,402097,2006137,"[ 1  3  2  5  0  1  3  2  2  4  0  2  1  1  2  5  1  1  0  0  3  3  0  7
  2  8  5  2  5  0  3  2  9  2  8  2  0 11  0  4 11  3  2  5  0  1  0 16
  2  9  2  0  3  1  4  2  9  3  0 16  2 17 15  0  0  2  4  0 18  1  2 22
  4 21 21 28 25 10 21]"
7900,314.0,0.90625,4,2,29.1479229927063,3.5274672508239746,7887,31600,407016,2030074,"[ 1  3  2  5  0  1  3  2  2  4  0  2  1  1  2  5  1  1  0  0  3  3  0  7
  2  8  5  2  5  0  3  2  9  2  8  2  0 11  0  4 11  3  2  5  0  1  0 16
  2  9  2  0  3  1  4  2  9  3  0 16  2 17 15  0  0  2  4  0 18  1  2 22
  4 21 21 28 25 10 21]"
8000,314.0,0.90625,4,2,29.500324964523315,3.523991107940674,7987,32000,411949,2054040,"[ 1  3  2  5  0  1  3  2  2  4  0  2  1  1  2  5  1  1  0  0  3  3  0  7
  2  8  5  2  5  0  3  2  9  2  8  2  0 11  0  4 11  3  2  5  0  1  0 16
  2  9  2  0  3  1  4  2  9  3  0 16  2 17 15  0  0  2  4  0 18  1  2 22
  4 21 21 28 25 10 21]"
8100,314.0,0.90625,4,2,29.86301898956299,3.6269092559814453,8087,32400,416961,2078915,"[ 1  3  2  5  0  1  3  2  2  4  0  2  1  1  2  5  1  1  0  0  3  3  0  7
  2  8  5  2  5  0  3  2  9  2  8  2  0 11  0  4 11  3  2  5  0  1  0 16
  2  9  2  0  3  1  4  2  9  3  0 16  2 17 15  0  0  2  4  0 18  1  2 22
  4 21 21 28 25 10 21]"
8200,314.0,0.90625,4,2,30.207828044891357,3.448057174682617,8187,32800,421816,2102046,"[ 1  3  2  5  0  1  3  2  2  4  0  2  1  1  2  5  1  1  0  0  3  3  0  7
  2  8  5  2  5  0  3  2  9  2  8  2  0 11  0  4 11  3  2  5  0  1  0 16
  2  9  2  0  3  1  4  2  9  3  0 16  2 17 15  0  0  2  4  0 18  1  2 22
  4 21 21 28 25 10 21]"
8300,314.0,0.90625,4,2,30.56685519218445,3.590242862701416,8287,33200,426862,2126504,"[ 1  3  2  5  0  1  3  2  2  4  0  2  1  1  2  5  1  1  0  0  3  3  0  7
  2  8  5  2  5  0  3  2  9  2  8  2  0 11  0  4 11  3  2  5  0  1  0 16
  2  9  2  0  3  1  4  2  9  3  0 16  2 17 15  0  0  2  4  0 18  1  2 22
  4 21 21 28 25 10 21]"
8400,314.0,0.90625,4,2,30.920559644699097,3.537015914916992,8387,33600,431762,2149910,"[ 1  3  2  5  0  1  3  2  2  4  0  2  1  1  2  5  1  1  0  0  3  3  0  7
  2  8  5  2  5  0  3  2  9  2  8  2  0 11  0  4 11  3  2  5  0  1  0 16
  2  9  2  0  3  1  4  2  9  3  0 16  2 17 15  0  0  2  4  0 18  1  2 22
  4 21 21 28 25 10 21]"
8500,314.0,0.90625,4,2,31.274472951889038,3.539104461669922,8487,34000,436654,2173953,"[ 1  3  2  5  0  1  3  2  2  4  0  2  1  1  2  5  1  1  0  0  3  3  0  7
  2  8  5  2  5  0  3  2  9  2  8  2  0 11  0  4 11  3  2  5  0  1  0 16
  2  9  2  0  3  1  4  2  9  3  0 16  2 17 15  0  0  2  4  0 18  1  2 22
  4 21 21 28 25 10 21]"
8600,314.0,0.90625,4,2,31.629588842391968,3.5511302947998047,8587,34400,441677,2197794,"[ 1  3  2  5  0  1  3  2  2  4  0  2  1  1  2  5  1  1  0  0  3  3  0  7
  2  8  5  2  5  0  3  2  9  2  8  2  0 11  0  4 11  3  2  5  0  1  0 16
  2  9  2  0  3  1  4  2  9  3  0 16  2 17 15  0  0  2  4  0 18  1  2 22
  4 21 21 28 25 10 21]"
8700,314.0,0.90625,4,2,31.979894399642944,3.5030245780944824,8687,34800,446652,2221876,"[ 1  3  2  5  0  1  3  2  2  4  0  2  1  1  2  5  1  1  0  0  3  3  0  7
  2  8  5  2  5  0  3  2  9  2  8  2  0 11  0  4 11  3  2  5  0  1  0 16
  2  9  2  0  3  1  4  2  9  3  0 16  2 17 15  0  0  2  4  0 18  1  2 22
  4 21 21 28 25 10 21]"
8800,314.0,0.90625,4,2,32.32688903808594,3.4699130058288574,8787,35200,451534,2245368,"[ 1  3  2  5  0  1  3  2  2  4  0  2  1  1  2  5  1  1  0  0  3  3  0  7
  2  8  5  2  5  0  3  2  9  2  8  2  0 11  0  4 11  3  2  5  0  1  0 16
  2  9  2  0  3  1  4  2  9  3  0 16  2 17 15  0  0  2  4  0 18  1  2 22
  4 21 21 28 25 10 21]"
8900,314.0,0.90625,4,2,32.6813542842865,3.544626235961914,8887,35600,456443,2269623,"[ 1  3  2  5  0  1  3  2  2  4  0  2  1  1  2  5  1  1  0  0  3  3  0  7
  2  8  5  2  5  0  3  2  9  2  8  2  0 11  0  4 11  3  2  5  0  1  0 16
  2  9  2  0  3  1  4  2  9  3  0 16  2 17 15  0  0  2  4  0 18  1  2 22
  4 21 21 28 25 10 21]"
9000,314.0,0.90625,4,2,33.03242301940918,3.5106563568115234,8987,36000,461395,2293344,"[ 1  3  2  5  0  1  3  2  2  4  0  2  1  1  2  5  1  1  0  0  3  3  0  7
  2  8  5  2  5  0  3  2  9  2  8  2  0 11  0  4 11  3  2  5  0  1  0 16
  2  9  2  0  3  1  4  2  9  3  0 16  2 17 15  0  0  2  4  0 18  1  2 22
  4 21 21 28 25 10 21]"
9100,314.0,0.90625,4,2,33.386788845062256,3.5436296463012695,9087,36400,466401,2317496,"[ 1  3  2  5  0  1  3  2  2  4  0  2  1  1  2  5  1  1  0  0  3  3  0  7
  2  8  5  2  5  0  3  2  9  2  8  2  0 11  0  4 11  3  2  5  0  1  0 16
  2  9  2  0  3  1  4  2  9  3  0 16  2 17 15  0  0  2  4  0 18  1  2 22
  4 21 21 28 25 10 21]"
9200,314.0,0.90625,4,2,33.73938250541687,3.5259032249450684,9187,36800,471318,2341574,"[ 1  3  2  5  0  1  3  2  2  4  0  2  1  1  2  5  1  1  0  0  3  3  0  7
  2  8  5  2  5  0  3  2  9  2  8  2  0 11  0  4 11  3  2  5  0  1  0 16
  2  9  2  0  3  1  4  2  9  3  0 16  2 17 15  0  0  2  4  0 18  1  2 22
  4 21 21 28 25 10 21]"
9300,314.0,0.90625,4,2,34.09771513938904,3.5833024978637695,9287,37200,476348,2366337,"[ 1  3  2  5  0  1  3  2  2  4  0  2  1  1  2  5  1  1  0  0  3  3  0  7
  2  8  5  2  5  0  3  2  9  2  8  2  0 11  0  4 11  3  2  5  0  1  0 16
  2  9  2  0  3  1  4  2  9  3  0 16  2 17 15  0  0  2  4  0 18  1  2 22
  4 21 21 28 25 10 21]"
9400,314.0,0.90625,4,2,34.44994258880615,3.5222482681274414,9387,37600,481337,2390321,"[ 1  3  2  5  0  1  3  2  2  4  0  2  1  1  2  5  1  1  0  0  3  3  0  7
  2  8  5  2  5  0  3  2  9  2  8  2  0 11  0  4 11  3  2  5  0  1  0 16
  2  9  2  0  3  1  4  2  9  3  0 16  2 17 15  0  0  2  4  0 18  1  2 22
  4 21 21 28 25 10 21]"
9500,314.0,0.90625,4,2,34.806679010391235,3.567333221435547,9487,38000,486329,2414709,"[ 1  3  2  5  0  1  3  2  2  4  0  2  1  1  2  5  1  1  0  0  3  3  0  7
  2  8  5  2  5  0  3  2  9  2  8  2  0 11  0  4 11  3  2  5  0  1  0 16
  2  9  2  0  3  1  4  2  9  3  0 16  2 17 15  0  0  2  4  0 18  1  2 22
  4 21 21 28 25 10 21]"
9600,314.0,0.90625,4,2,35.158929109573364,3.522477149963379,9587,38400,491334,2438506,"[ 1  3  2  5  0  1  3  2  2  4  0  2  1  1  2  5  1  1  0  0  3  3  0  7
  2  8  5  2  5  0  3  2  9  2  8  2  0 11  0  4 11  3  2  5  0  1  0 16
  2  9  2  0  3  1  4  2  9  3  0 16  2 17 15  0  0  2  4  0 18  1  2 22
  4 21 21 28 25 10 21]"
9700,314.0,0.90625,4,2,35.50908422470093,3.5015225410461426,9687,38800,496224,2462252,"[ 1  3  2  5  0  1  3  2  2  4  0  2  1  1  2  5  1  1  0  0  3  3  0  7
  2  8  5  2  5  0  3  2  9  2  8  2  0 11  0  4 11  3  2  5  0  1  0 16
  2  9  2  0  3  1  4  2  9  3  0 16  2 17 15  0  0  2  4  0 18  1  2 22
  4 21 21 28 25 10 21]"
9800,314.0,0.90625,4,2,35.85886025428772,3.4977293014526367,9787,39200,501138,2485821,"[ 1  3  2  5  0  1  3  2  2  4  0  2  1  1  2  5  1  1  0  0  3  3  0  7
  2  8  5  2  5  0  3  2  9  2  8  2  0 11  0  4 11  3  2  5  0  1  0 16
  2  9  2  0  3  1  4  2  9  3  0 16  2 17 15  0  0  2  4  0 18  1  2 22
  4 21 21 28 25 10 21]"
9900,314.0,0.90625,4,2,36.215250730514526,3.563876152038574,9887,39600,506082,2510283,"[ 1  3  2  5  0  1  3  2  2  4  0  2  1  1  2  5  1  1  0  0  3  3  0  7
  2  8  5  2  5  0  3  2  9  2  8  2  0 11  0  4 11  3  2  5  0  1  0 16
  2  9  2  0  3  1  4  2  9  3  0 16  2 17 15  0  0  2  4  0 18  1  2 22
  4 21 21 28 25 10 21]"
10000,315.0,0.90625,4,1,36.55668783187866,3.414337635040283,9986,40000,511050,2532907,"[ 1  3  2  5  0  1  3  3  2  5  0  2  1  1  0  0  1  1  0  0  3  3  0  7
  4  8  5  2  5  0  5  2  9  2  8  2  0 11  0  4  3  3  2  5  0  1  0 16
  2  9  2  0  3  1  4  2  9  3  0 16  2 17 15  0  0  2  1  0 18  1  2 22
  4 21 21 17 25 10 21]"
10100,315.0,0.90625,4,1,36.89903235435486,3.4234189987182617,10086,40400,515964,2555479,"[ 1  3  2  5  0  1  3  3  2  5  0  2  1  1  0  0  1  1  0  0  3  3  0  7
  4  8  5  2  5  0  5  2  9  2  8  2  0 11  0  4  3  3  2  5  0  1  0 16
  2  9  2  0  3  1  4  2  9  3  0 16  2 17 15  0  0  2  1  0 18  1  2 22
  4 21 21 17 25 10 21]"
10200,315.0,0.90625,4,1,37.23647212982178,3.3743691444396973,10186,40800,520872,2577779,"[ 1  3  2  5  0  1  3  3  2  5  0  2  1  1  0  0  1  1  0  0  3  3  0  7
  4  8  5  2  5  0  5  2  9  2  8  2  0 11  0  4  3  3  2  5  0  1  0 16
  2  9  2  0  3  1  4  2  9  3  0 16  2 17 15  0  0  2  1  0 18  1  2 22
  4 21 21 17 25 10 21]"
10300,315.0,0.90625,4,1,37.572951316833496,3.3647656440734863,10286,41200,525718,2600175,"[ 1  3  2  5  0  1  3  3  2  5  0  2  1  1  0  0  1  1  0  0  3  3  0  7
  4  8  5  2  5  0  5  2  9  2  8  2  0 11  0  4  3  3  2  5  0  1  0 16
  2  9  2  0  3  1  4  2  9  3  0 16  2 17 15  0  0  2  1  0 18  1  2 22
  4 21 21 17 25 10 21]"
10400,315.0,0.90625,4,1,37.91415071487427,3.4119653701782227,10386,41600,530644,2622988,"[ 1  3  2  5  0  1  3  3  2  5  0  2  1  1  0  0  1  1  0  0  3  3  0  7
  4  8  5  2  5  0  5  2  9  2  8  2  0 11  0  4  3  3  2  5  0  1  0 16
  2  9  2  0  3  1  4  2  9  3  0 16  2 17 15  0  0  2  1  0 18  1  2 22
  4 21 21 17 25 10 21]"
10500,315.0,0.90625,4,1,38.25732898712158,3.4317493438720703,10486,42000,535580,2645653,"[ 1  3  2  5  0  1  3  3  2  5  0  2  1  1  0  0  1  1  0  0  3  3  0  7
  4  8  5  2  5  0  5  2  9  2  8  2  0 11  0  4  3  3  2  5  0  1  0 16
  2  9  2  0  3  1  4  2  9  3  0 16  2 17 15  0  0  2  1  0 18  1  2 22
  4 21 21 17 25 10 21]"
10600,315.0,0.90625,4,1,38.60058236122131,3.4325051307678223,10586,42400,540558,2668722,"[ 1  3  2  5  0  1  3  3  2  5  0  2  1  1  0  0  1  1  0  0  3  3  0  7
  4  8  5  2  5  0  5  2  9  2  8  2  0 11  0  4  3  3  2  5  0  1  0 16
  2  9  2  0  3  1  4  2  9  3  0 16  2 17 15  0  0  2  1  0 18  1  2 22
  4 21 21 17 25 10 21]"
10700,315.0,0.90625,4,1,38.93541598320007,3.3483099937438965,10686,42800,545382,2690822,"[ 1  3  2  5  0  1  3  3  2  5  0  2  1  1  0  0  1  1  0  0  3  3  0  7
  4  8  5  2  5  0  5  2  9  2  8  2  0 11  0  4  3  3  2  5  0  1  0 16
  2  9  2  0  3  1  4  2  9  3  0 16  2 17 15  0  0  2  1  0 18  1  2 22
  4 21 21 17 25 10 21]"
10800,315.0,0.90625,4,1,39.281933307647705,3.465142250061035,10786,43200,550275,2713655,"[ 1  3  2  5  0  1  3  3  2  5  0  2  1  1  0  0  1  1  0  0  3  3  0  7
  4  8  5  2  5  0  5  2  9  2  8  2  0 11  0  4  3  3  2  5  0  1  0 16
  2  9  2  0  3  1  4  2  9  3  0 16  2 17 15  0  0  2  1  0 18  1  2 22
  4 21 21 17 25 10 21]"
10900,315.0,0.90625,4,1,39.6126389503479,3.307027816772461,10886,43600,555031,2735450,"[ 1  3  2  5  0  1  3  3  2  5  0  2  1  1  0  0  1  1  0  0  3  3  0  7
  4  8  5  2  5  0  5  2  9  2  8  2  0 11  0  4  3  3  2  5  0  1  0 16
  2  9  2  0  3  1  4  2  9  3  0 16  2 17 15  0  0  2  1  0 18  1  2 22
  4 21 21 17 25 10 21]"
11000,315.0,0.90625,4,1,39.945587158203125,3.329453468322754,10986,44000,559862,2757698,"[ 1  3  2  5  0  1  3  3  2  5  0  2  1  1  0  0  1  1  0  0  3  3  0  7
  4  8  5  2  5  0  5  2  9  2  8  2  0 11  0  4  3  3  2  5  0  1  0 16
  2  9  2  0  3  1  4  2  9  3  0 16  2 17 15  0  0  2  1  0 18  1  2 22
  4 21 21 17 25 10 21]"
11100,315.0,0.90625,4,1,40.28451919555664,3.389294147491455,11086,44400,564773,2780264,"[ 1  3  2  5  0  1  3  3  2  5  0  2  1  1  0  0  1  1  0  0  3  3  0  7
  4  8  5  2  5  0  5  2  9  2  8  2  0 11  0  4  3  3  2  5  0  1  0 16
  2  9  2  0  3  1  4  2  9  3  0 16  2 17 15  0  0  2  1  0 18  1  2 22
  4 21 21 17 25 10 21]"
11200,315.0,0.90625,4,1,40.62358546257019,3.390636444091797,11186,44800,569649,2803273,"[ 1  3  2  5  0  1  3  3  2  5  0  2  1  1  0  0  1  1  0  0  3  3  0  7
  4  8  5  2  5  0  5  2  9  2  8  2  0 11  0  4  3  3  2  5  0  1  0 16
  2  9  2  0  3  1  4  2  9  3  0 16  2 17 15  0  0  2  1  0 18  1  2 22
  4 21 21 17 25 10 21]"
11300,315.0,0.90625,4,1,40.960649490356445,3.3706116676330566,11286,45200,574546,2825380,"[ 1  3  2  5  0  1  3  3  2  5  0  2  1  1  0  0  1  1  0  0  3  3  0  7
  4  8  5  2  5  0  5  2  9  2  8  2  0 11  0  4  3  3  2  5  0  1  0 16
  2  9  2  0  3  1  4  2  9  3  0 16  2 17 15  0  0  2  1  0 18  1  2 22
  4 21 21 17 25 10 21]"
11400,315.0,0.90625,4,1,41.302202224731445,3.415498733520508,11386,45600,579512,2848269,"[ 1  3  2  5  0  1  3  3  2  5  0  2  1  1  0  0  1  1  0  0  3  3  0  7
  4  8  5  2  5  0  5  2  9  2  8  2  0 11  0  4  3  3  2  5  0  1  0 16
  2  9  2  0  3  1  4  2  9  3  0 16  2 17 15  0  0  2  1  0 18  1  2 22
  4 21 21 17 25 10 21]"
11500,315.0,0.90625,4,1,41.64155459403992,3.3934974670410156,11486,46000,584373,2870981,"[ 1  3  2  5  0  1  3  3  2  5  0  2  1  1  0  0  1  1  0  0  3  3  0  7
  4  8  5  2  5  0  5  2  9  2  8  2  0 11  0  4  3  3  2  5  0  1  0 16
  2  9  2  0  3  1  4  2  9  3  0 16  2 17 15  0  0  2  1  0 18  1  2 22
  4 21 21 17 25 10 21]"
11600,315.0,0.90625,4,1,41.986425161361694,3.4486746788024902,11586,46400,589324,2893948,"[ 1  3  2  5  0  1  3  3  2  5  0  2  1  1  0  0  1  1  0  0  3  3  0  7
  4  8  5  2  5  0  5  2  9  2  8  2  0 11  0  4  3  3  2  5  0  1  0 16
  2  9  2  0  3  1  4  2  9  3  0 16  2 17 15  0  0  2  1  0 18  1  2 22
  4 21 21 17 25 10 21]"
11700,315.0,0.90625,4,1,42.3211236000061,3.3469533920288086,11686,46800,594123,2916328,"[ 1  3  2  5  0  1  3  3  2  5  0  2  1  1  0  0  1  1  0  0  3  3  0  7
  4  8  5  2  5  0  5  2  9  2  8  2  0 11  0  4  3  3  2  5  0  1  0 16
  2  9  2  0  3  1  4  2  9  3  0 16  2 17 15  0  0  2  1  0 18  1  2 22
  4 21 21 17 25 10 21]"
11800,315.0,0.90625,4,1,42.660727739334106,3.396015167236328,11786,47200,599040,2939117,"[ 1  3  2  5  0  1  3  3  2  5  0  2  1  1  0  0  1  1  0  0  3  3  0  7
  4  8  5  2  5  0  5  2  9  2  8  2  0 11  0  4  3  3  2  5  0  1  0 16
  2  9  2  0  3  1  4  2  9  3  0 16  2 17 15  0  0  2  1  0 18  1  2 22
  4 21 21 17 25 10 21]"
11900,315.0,0.90625,4,1,43.005990982055664,3.452601432800293,11886,47600,604008,2962159,"[ 1  3  2  5  0  1  3  3  2  5  0  2  1  1  0  0  1  1  0  0  3  3  0  7
  4  8  5  2  5  0  5  2  9  2  8  2  0 11  0  4  3  3  2  5  0  1  0 16
  2  9  2  0  3  1  4  2  9  3  0 16  2 17 15  0  0  2  1  0 18  1  2 22
  4 21 21 17 25 10 21]"
12000,315.0,0.90625,4,1,43.339627504348755,3.336336612701416,11986,48000,608893,2984538,"[ 1  3  2  5  0  1  3  3  2  5  0  2  1  1  0  0  1  1  0  0  3  3  0  7
  4  8  5  2  5  0  5  2  9  2  8  2  0 11  0  4  3  3  2  5  0  1  0 16
  2  9  2  0  3  1  4  2  9  3  0 16  2 17 15  0  0  2  1  0 18  1  2 22
  4 21 21 17 25 10 21]"
12100,315.0,0.90625,4,1,43.678452491760254,3.388221263885498,12086,48400,613803,3007232,"[ 1  3  2  5  0  1  3  3  2  5  0  2  1  1  0  0  1  1  0  0  3  3  0  7
  4  8  5  2  5  0  5  2  9  2  8  2  0 11  0  4  3  3  2  5  0  1  0 16
  2  9  2  0  3  1  4  2  9  3  0 16  2 17 15  0  0  2  1  0 18  1  2 22
  4 21 21 17 25 10 21]"
12200,315.0,0.90625,4,1,44.0369017124176,3.584463596343994,12186,48800,618741,3029731,"[ 1  3  2  5  0  1  3  3  2  5  0  2  1  1  0  0  1  1  0  0  3  3  0  7
  4  8  5  2  5  0  5  2  9  2  8  2  0 11  0  4  3  3  2  5  0  1  0 16
  2  9  2  0  3  1  4  2  9  3  0 16  2 17 15  0  0  2  1  0 18  1  2 22
  4 21 21 17 25 10 21]"
12300,315.0,0.90625,4,1,44.37580490112305,3.389003276824951,12286,49200,623587,3052315,"[ 1  3  2  5  0  1  3  3  2  5  0  2  1  1  0  0  1  1  0  0  3  3  0  7
  4  8  5  2  5  0  5  2  9  2  8  2  0 11  0  4  3  3  2  5  0  1  0 16
  2  9  2  0  3  1  4  2  9  3  0 16  2 17 15  0  0  2  1  0 18  1  2 22
  4 21 21 17 25 10 21]"
12400,315.0,0.90625,4,1,44.71350884437561,3.3770108222961426,12386,49600,628441,3074936,"[ 1  3  2  5  0  1  3  3  2  5  0  2  1  1  0  0  1  1  0  0  3  3  0  7
  4  8  5  2  5  0  5  2  9  2  8  2  0 11  0  4  3  3  2  5  0  1  0 16
  2  9  2  0  3  1  4  2  9  3  0 16  2 17 15  0  0  2  1  0 18  1  2 22
  4 21 21 17 25 10 21]"
12500,315.0,0.90625,4,1,45.05401349067688,3.405017852783203,12486,50000,633342,3097703,"[ 1  3  2  5  0  1  3  3  2  5  0  2  1  1  0  0  1  1  0  0  3  3  0  7
  4  8  5  2  5  0  5  2  9  2  8  2  0 11  0  4  3  3  2  5  0  1  0 16
  2  9  2  0  3  1  4  2  9  3  0 16  2 17 15  0  0  2  1  0 18  1  2 22
  4 21 21 17 25 10 21]"
12600,315.0,0.90625,4,1,45.400460720062256,3.4644389152526855,12586,50400,638317,3120922,"[ 1  3  2  5  0  1  3  3  2  5  0  2  1  1  0  0  1  1  0  0  3  3  0  7
  4  8  5  2  5  0  5  2  9  2  8  2  0 11  0  4  3  3  2  5  0  1  0 16
  2  9  2  0  3  1  4  2  9  3  0 16  2 17 15  0  0  2  1  0 18  1  2 22
  4 21 21 17 25 10 21]"
12700,315.0,0.90625,4,1,45.73818063735962,3.3771705627441406,12686,50800,643206,3143280,"[ 1  3  2  5  0  1  3  3  2  5  0  2  1  1  0  0  1  1  0  0  3  3  0  7
  4  8  5  2  5  0  5  2  9  2  8  2  0 11  0  4  3  3  2  5  0  1  0 16
  2  9  2  0  3  1  4  2  9  3  0 16  2 17 15  0  0  2  1  0 18  1  2 22
  4 21 21 17 25 10 21]"
12800,315.0,0.90625,4,1,46.080188512802124,3.4200501441955566,12786,51200,648136,3166214,"[ 1  3  2  5  0  1  3  3  2  5  0  2  1  1  0  0  1  1  0  0  3  3  0  7
  4  8  5  2  5  0  5  2  9  2  8  2  0 11  0  4  3  3  2  5  0  1  0 16
  2  9  2  0  3  1  4  2  9  3  0 16  2 17 15  0  0  2  1  0 18  1  2 22
  4 21 21 17 25 10 21]"
12900,315.0,0.90625,4,1,46.428624629974365,3.48433256149292,12886,51600,653130,3189747,"[ 1  3  2  5  0  1  3  3  2  5  0  2  1  1  0  0  1  1  0  0  3  3  0  7
  4  8  5  2  5  0  5  2  9  2  8  2  0 11  0  4  3  3  2  5  0  1  0 16
  2  9  2  0  3  1  4  2  9  3  0 16  2 17 15  0  0  2  1  0 18  1  2 22
  4 21 21 17 25 10 21]"
13000,315.0,0.90625,4,1,46.763182640075684,3.3455491065979004,12986,52000,658005,3212184,"[ 1  3  2  5  0  1  3  3  2  5  0  2  1  1  0  0  1  1  0  0  3  3  0  7
  4  8  5  2  5  0  5  2  9  2  8  2  0 11  0  4  3  3  2  5  0  1  0 16
  2  9  2  0  3  1  4  2  9  3  0 16  2 17 15  0  0  2  1  0 18  1  2 22
  4 21 21 17 25 10 21]"
13100,315.0,0.90625,4,1,47.10110425949097,3.37918758392334,13086,52400,662964,3234484,"[ 1  3  2  5  0  1  3  3  2  5  0  2  1  1  0  0  1  1  0  0  3  3  0  7
  4  8  5  2  5  0  5  2  9  2  8  2  0 11  0  4  3  3  2  5  0  1  0 16
  2  9  2  0  3  1  4  2  9  3  0 16  2 17 15  0  0  2  1  0 18  1  2 22
  4 21 21 17 25 10 21]"
13200,315.0,0.90625,4,1,47.438119888305664,3.3701324462890625,13186,52800,667726,3256580,"[ 1  3  2  5  0  1  3  3  2  5  0  2  1  1  0  0  1  1  0  0  3  3  0  7
  4  8  5  2  5  0  5  2  9  2  8  2  0 11  0  4  3  3  2  5  0  1  0 16
  2  9  2  0  3  1  4  2  9  3  0 16  2 17 15  0  0  2  1  0 18  1  2 22
  4 21 21 17 25 10 21]"
13300,315.0,0.90625,4,1,47.774635791778564,3.3651328086853027,13286,53200,672590,3279256,"[ 1  3  2  5  0  1  3  3  2  5  0  2  1  1  0  0  1  1  0  0  3  3  0  7
  4  8  5  2  5  0  5  2  9  2  8  2  0 11  0  4  3  3  2  5  0  1  0 16
  2  9  2  0  3  1  4  2  9  3  0 16  2 17 15  0  0  2  1  0 18  1  2 22
  4 21 21 17 25 10 21]"
13400,315.0,0.90625,4,1,48.10741138458252,3.3277249336242676,13386,53600,677370,3301166,"[ 1  3  2  5  0  1  3  3  2  5  0  2  1  1  0  0  1  1  0  0  3  3  0  7
  4  8  5  2  5  0  5  2  9  2  8  2  0 11  0  4  3  3  2  5  0  1  0 16
  2  9  2  0  3  1  4  2  9  3  0 16  2 17 15  0  0  2  1  0 18  1  2 22
  4 21 21 17 25 10 21]"
13500,315.0,0.90625,4,1,48.45629549026489,3.4888124465942383,13486,54000,682263,3323938,"[ 1  3  2  5  0  1  3  3  2  5  0  2  1  1  0  0  1  1  0  0  3  3  0  7
  4  8  5  2  5  0  5  2  9  2  8  2  0 11  0  4  3  3  2  5  0  1  0 16
  2  9  2  0  3  1  4  2  9  3  0 16  2 17 15  0  0  2  1  0 18  1  2 22
  4 21 21 17 25 10 21]"
13600,315.0,0.90625,4,1,48.80562686920166,3.4932851791381836,13586,54400,687170,3346888,"[ 1  3  2  5  0  1  3  3  2  5  0  2  1  1  0  0  1  1  0  0  3  3  0  7
  4  8  5  2  5  0  5  2  9  2  8  2  0 11  0  4  3  3  2  5  0  1  0 16
  2  9  2  0  3  1  4  2  9  3  0 16  2 17 15  0  0  2  1  0 18  1  2 22
  4 21 21 17 25 10 21]"
13700,315.0,0.90625,4,1,49.14486360549927,3.392338752746582,13686,54800,692059,3369471,"[ 1  3  2  5  0  1  3  3  2  5  0  2  1  1  0  0  1  1  0  0  3  3  0  7
  4  8  5  2  5  0  5  2  9  2  8  2  0 11  0  4  3  3  2  5  0  1  0 16
  2  9  2  0  3  1  4  2  9  3  0 16  2 17 15  0  0  2  1  0 18  1  2 22
  4 21 21 17 25 10 21]"
13800,315.0,0.90625,4,1,49.47543168067932,3.305652141571045,13786,55200,696861,3391282,"[ 1  3  2  5  0  1  3  3  2  5  0  2  1  1  0  0  1  1  0  0  3  3  0  7
  4  8  5  2  5  0  5  2  9  2  8  2  0 11  0  4  3  3  2  5  0  1  0 16
  2  9  2  0  3  1  4  2  9  3  0 16  2 17 15  0  0  2  1  0 18  1  2 22
  4 21 21 17 25 10 21]"
13900,315.0,0.90625,4,1,49.80929636955261,3.338615894317627,13886,55600,701709,3413569,"[ 1  3  2  5  0  1  3  3  2  5  0  2  1  1  0  0  1  1  0  0  3  3  0  7
  4  8  5  2  5  0  5  2  9  2  8  2  0 11  0  4  3  3  2  5  0  1  0 16
  2  9  2  0  3  1  4  2  9  3  0 16  2 17 15  0  0  2  1  0 18  1  2 22
  4 21 21 17 25 10 21]"
14000,315.0,0.90625,4,1,50.15145254135132,3.4215259552001953,13986,56000,706642,3436611,"[ 1  3  2  5  0  1  3  3  2  5  0  2  1  1  0  0  1  1  0  0  3  3  0  7
  4  8  5  2  5  0  5  2  9  2  8  2  0 11  0  4  3  3  2  5  0  1  0 16
  2  9  2  0  3  1  4  2  9  3  0 16  2 17 15  0  0  2  1  0 18  1  2 22
  4 21 21 17 25 10 21]"
14100,315.0,0.90625,4,1,50.49479651451111,3.433411121368408,14086,56400,711629,3459502,"[ 1  3  2  5  0  1  3  3  2  5  0  2  1  1  0  0  1  1  0  0  3  3  0  7
  4  8  5  2  5  0  5  2  9  2  8  2  0 11  0  4  3  3  2  5  0  1  0 16
  2  9  2  0  3  1  4  2  9  3  0 16  2 17 15  0  0  2  1  0 18  1  2 22
  4 21 21 17 25 10 21]"
14200,315.0,0.90625,4,1,50.834208488464355,3.3940911293029785,14186,56800,716467,3482191,"[ 1  3  2  5  0  1  3  3  2  5  0  2  1  1  0  0  1  1  0  0  3  3  0  7
  4  8  5  2  5  0  5  2  9  2  8  2  0 11  0  4  3  3  2  5  0  1  0 16
  2  9  2  0  3  1  4  2  9  3  0 16  2 17 15  0  0  2  1  0 18  1  2 22
  4 21 21 17 25 10 21]"
14300,315.0,0.90625,4,1,51.17568874359131,3.414771556854248,14286,57200,721402,3504840,"[ 1  3  2  5  0  1  3  3  2  5  0  2  1  1  0  0  1  1  0  0  3  3  0  7
  4  8  5  2  5  0  5  2  9  2  8  2  0 11  0  4  3  3  2  5  0  1  0 16
  2  9  2  0  3  1  4  2  9  3  0 16  2 17 15  0  0  2  1  0 18  1  2 22
  4 21 21 17 25 10 21]"
14400,315.0,0.90625,4,1,51.50561261177063,3.2992100715637207,14386,57600,726146,3526888,"[ 1  3  2  5  0  1  3  3  2  5  0  2  1  1  0  0  1  1  0  0  3  3  0  7
  4  8  5  2  5  0  5  2  9  2  8  2  0 11  0  4  3  3  2  5  0  1  0 16
  2  9  2  0  3  1  4  2  9  3  0 16  2 17 15  0  0  2  1  0 18  1  2 22
  4 21 21 17 25 10 21]"
14500,315.0,0.90625,4,1,51.83655786514282,3.3094191551208496,14486,58000,731009,3548751,"[ 1  3  2  5  0  1  3  3  2  5  0  2  1  1  0  0  1  1  0  0  3  3  0  7
  4  8  5  2  5  0  5  2  9  2  8  2  0 11  0  4  3  3  2  5  0  1  0 16
  2  9  2  0  3  1  4  2  9  3  0 16  2 17 15  0  0  2  1  0 18  1  2 22
  4 21 21 17 25 10 21]"
14600,315.0,0.90625,4,1,52.177305936813354,3.40745210647583,14586,58400,735962,3571860,"[ 1  3  2  5  0  1  3  3  2  5  0  2  1  1  0  0  1  1  0  0  3  3  0  7
  4  8  5  2  5  0  5  2  9  2  8  2  0 11  0  4  3  3  2  5  0  1  0 16
  2  9  2  0  3  1  4  2  9  3  0 16  2 17 15  0  0  2  1  0 18  1  2 22
  4 21 21 17 25 10 21]"
14700,315.0,0.90625,4,1,52.507001876831055,3.296933174133301,14686,58800,740799,3593632,"[ 1  3  2  5  0  1  3  3  2  5  0  2  1  1  0  0  1  1  0  0  3  3  0  7
  4  8  5  2  5  0  5  2  9  2  8  2  0 11  0  4  3  3  2  5  0  1  0 16
  2  9  2  0  3  1  4  2  9  3  0 16  2 17 15  0  0  2  1  0 18  1  2 22
  4 21 21 17 25 10 21]"
14800,315.0,0.90625,4,1,52.837016105651855,3.3001112937927246,14786,59200,745645,3615522,"[ 1  3  2  5  0  1  3  3  2  5  0  2  1  1  0  0  1  1  0  0  3  3  0  7
  4  8  5  2  5  0  5  2  9  2  8  2  0 11  0  4  3  3  2  5  0  1  0 16
  2  9  2  0  3  1  4  2  9  3  0 16  2 17 15  0  0  2  1  0 18  1  2 22
  4 21 21 17 25 10 21]"
14900,315.0,0.90625,4,1,53.191115617752075,3.540956974029541,14886,59600,750606,3639105,"[ 1  3  2  5  0  1  3  3  2  5  0  2  1  1  0  0  1  1  0  0  3  3  0  7
  4  8  5  2  5  0  5  2  9  2  8  2  0 11  0  4  3  3  2  5  0  1  0 16
  2  9  2  0  3  1  4  2  9  3  0 16  2 17 15  0  0  2  1  0 18  1  2 22
  4 21 21 17 25 10 21]"
15000,315.0,0.90625,4,1,53.53057646751404,3.3945798873901367,14986,60000,755474,3661728,"[ 1  3  2  5  0  1  3  3  2  5  0  2  1  1  0  0  1  1  0  0  3  3  0  7
  4  8  5  2  5  0  5  2  9  2  8  2  0 11  0  4  3  3  2  5  0  1  0 16
  2  9  2  0  3  1  4  2  9  3  0 16  2 17 15  0  0  2  1  0 18  1  2 22
  4 21 21 17 25 10 21]"
15100,315.0,0.90625,4,1,53.86665177345276,3.360724449157715,15086,60400,760386,3683888,"[ 1  3  2  5  0  1  3  3  2  5  0  2  1  1  0  0  1  1  0  0  3  3  0  7
  4  8  5  2  5  0  5  2  9  2  8  2  0 11  0  4  3  3  2  5  0  1  0 16
  2  9  2  0  3  1  4  2  9  3  0 16  2 17 15  0  0  2  1  0 18  1  2 22
  4 21 21 17 25 10 21]"
15200,315.0,0.90625,4,1,54.20492625236511,3.382716178894043,15186,60800,765275,3706375,"[ 1  3  2  5  0  1  3  3  2  5  0  2  1  1  0  0  1  1  0  0  3  3  0  7
  4  8  5  2  5  0  5  2  9  2  8  2  0 11  0  4  3  3  2  5  0  1  0 16
  2  9  2  0  3  1  4  2  9  3  0 16  2 17 15  0  0  2  1  0 18  1  2 22
  4 21 21 17 25 10 21]"
15300,315.0,0.90625,4,1,54.550041913986206,3.4511280059814453,15286,61200,770238,3729499,"[ 1  3  2  5  0  1  3  3  2  5  0  2  1  1  0  0  1  1  0  0  3  3  0  7
  4  8  5  2  5  0  5  2  9  2  8  2  0 11  0  4  3  3  2  5  0  1  0 16
  2  9  2  0  3  1  4  2  9  3  0 16  2 17 15  0  0  2  1  0 18  1  2 22
  4 21 21 17 25 10 21]"
15400,315.0,0.90625,4,1,54.87521290779114,3.2516837120056152,15386,61600,774928,3750936,"[ 1  3  2  5  0  1  3  3  2  5  0  2  1  1  0  0  1  1  0  0  3  3  0  7
  4  8  5  2  5  0  5  2  9  2  8  2  0 11  0  4  3  3  2  5  0  1  0 16
  2  9  2  0  3  1  4  2  9  3  0 16  2 17 15  0  0  2  1  0 18  1  2 22
  4 21 21 17 25 10 21]"
15500,315.0,0.90625,4,1,55.21339392662048,3.381776809692383,15486,62000,779816,3773300,"[ 1  3  2  5  0  1  3  3  2  5  0  2  1  1  0  0  1  1  0  0  3  3  0  7
  4  8  5  2  5  0  5  2  9  2  8  2  0 11  0  4  3  3  2  5  0  1  0 16
  2  9  2  0  3  1  4  2  9  3  0 16  2 17 15  0  0  2  1  0 18  1  2 22
  4 21 21 17 25 10 21]"
15600,315.0,0.90625,4,1,55.55106568336487,3.3766889572143555,15586,62400,784594,3795548,"[ 1  3  2  5  0  1  3  3  2  5  0  2  1  1  0  0  1  1  0  0  3  3  0  7
  4  8  5  2  5  0  5  2  9  2  8  2  0 11  0  4  3  3  2  5  0  1  0 16
  2  9  2  0  3  1  4  2  9  3  0 16  2 17 15  0  0  2  1  0 18  1  2 22
  4 21 21 17 25 10 21]"
15700,315.0,0.90625,4,1,55.883034229278564,3.3196592330932617,15686,62800,789335,3817743,"[ 1  3  2  5  0  1  3  3  2  5  0  2  1  1  0  0  1  1  0  0  3  3  0  7
  4  8  5  2  5  0  5  2  9  2  8  2  0 11  0  4  3  3  2  5  0  1  0 16
  2  9  2  0  3  1  4  2  9  3  0 16  2 17 15  0  0  2  1  0 18  1  2 22
  4 21 21 17 25 10 21]"
15800,315.0,0.90625,4,1,56.2183198928833,3.35282564163208,15786,63200,794133,3840021,"[ 1  3  2  5  0  1  3  3  2  5  0  2  1  1  0  0  1  1  0  0  3  3  0  7
  4  8  5  2  5  0  5  2  9  2  8  2  0 11  0  4  3  3  2  5  0  1  0 16
  2  9  2  0  3  1  4  2  9  3  0 16  2 17 15  0  0  2  1  0 18  1  2 22
  4 21 21 17 25 10 21]"
15900,315.0,0.90625,4,1,56.561320543289185,3.4299778938293457,15886,63600,799036,3862981,"[ 1  3  2  5  0  1  3  3  2  5  0  2  1  1  0  0  1  1  0  0  3  3  0  7
  4  8  5  2  5  0  5  2  9  2  8  2  0 11  0  4  3  3  2  5  0  1  0 16
  2  9  2  0  3  1  4  2  9  3  0 16  2 17 15  0  0  2  1  0 18  1  2 22
  4 21 21 17 25 10 21]"
16000,315.0,0.90625,4,1,56.905900955200195,3.445765972137451,15986,64000,803893,3885450,"[ 1  3  2  5  0  1  3  3  2  5  0  2  1  1  0  0  1  1  0  0  3  3  0  7
  4  8  5  2  5  0  5  2  9  2  8  2  0 11  0  4  3  3  2  5  0  1  0 16
  2  9  2  0  3  1  4  2  9  3  0 16  2 17 15  0  0  2  1  0 18  1  2 22
  4 21 21 17 25 10 21]"
16100,315.0,0.90625,4,1,57.24733257293701,3.41428279876709,16086,64400,808761,3908076,"[ 1  3  2  5  0  1  3  3  2  5  0  2  1  1  0  0  1  1  0  0  3  3  0  7
  4  8  5  2  5  0  5  2  9  2  8  2  0 11  0  4  3  3  2  5  0  1  0 16
  2  9  2  0  3  1  4  2  9  3  0 16  2 17 15  0  0  2  1  0 18  1  2 22
  4 21 21 17 25 10 21]"
16200,315.0,0.90625,4,1,57.59820008277893,3.5086464881896973,16186,64800,813733,3931261,"[ 1  3  2  5  0  1  3  3  2  5  0  2  1  1  0  0  1  1  0  0  3  3  0  7
  4  8  5  2  5  0  5  2  9  2  8  2  0 11  0  4  3  3  2  5  0  1  0 16
  2  9  2  0  3  1  4  2  9  3  0 16  2 17 15  0  0  2  1  0 18  1  2 22
  4 21 21 17 25 10 21]"
16300,315.0,0.90625,4,1,57.932279109954834,3.340761661529541,16286,65200,818604,3953312,"[ 1  3  2  5  0  1  3  3  2  5  0  2  1  1  0  0  1  1  0  0  3  3  0  7
  4  8  5  2  5  0  5  2  9  2  8  2  0 11  0  4  3  3  2  5  0  1  0 16
  2  9  2  0  3  1  4  2  9  3  0 16  2 17 15  0  0  2  1  0 18  1  2 22
  4 21 21 17 25 10 21]"
16400,315.0,0.90625,4,1,58.274176597595215,3.4189438819885254,16386,65600,823589,3976010,"[ 1  3  2  5  0  1  3  3  2  5  0  2  1  1  0  0  1  1  0  0  3  3  0  7
  4  8  5  2  5  0  5  2  9  2  8  2  0 11  0  4  3  3  2  5  0  1  0 16
  2  9  2  0  3  1  4  2  9  3  0 16  2 17 15  0  0  2  1  0 18  1  2 22
  4 21 21 17 25 10 21]"
16500,315.0,0.90625,4,1,58.611199617385864,3.370201587677002,16486,66000,828522,3998521,"[ 1  3  2  5  0  1  3  3  2  5  0  2  1  1  0  0  1  1  0  0  3  3  0  7
  4  8  5  2  5  0  5  2  9  2  8  2  0 11  0  4  3  3  2  5  0  1  0 16
  2  9  2  0  3  1  4  2  9  3  0 16  2 17 15  0  0  2  1  0 18  1  2 22
  4 21 21 17 25 10 21]"
16600,315.0,0.90625,4,1,58.94542336463928,3.3422040939331055,16586,66400,833368,4020580,"[ 1  3  2  5  0  1  3  3  2  5  0  2  1  1  0  0  1  1  0  0  3  3  0  7
  4  8  5  2  5  0  5  2  9  2  8  2  0 11  0  4  3  3  2  5  0  1  0 16
  2  9  2  0  3  1  4  2  9  3  0 16  2 17 15  0  0  2  1  0 18  1  2 22
  4 21 21 17 25 10 21]"
16700,315.0,0.90625,4,1,59.28810119628906,3.4267497062683105,16686,66800,838332,4043766,"[ 1  3  2  5  0  1  3  3  2  5  0  2  1  1  0  0  1  1  0  0  3  3  0  7
  4  8  5  2  5  0  5  2  9  2  8  2  0 11  0  4  3  3  2  5  0  1  0 16
  2  9  2  0  3  1  4  2  9  3  0 16  2 17 15  0  0  2  1  0 18  1  2 22
  4 21 21 17 25 10 21]"
16800,315.0,0.90625,4,1,59.62941288948059,3.4130859375,16786,67200,843284,4066543,"[ 1  3  2  5  0  1  3  3  2  5  0  2  1  1  0  0  1  1  0  0  3  3  0  7
  4  8  5  2  5  0  5  2  9  2  8  2  0 11  0  4  3  3  2  5  0  1  0 16
  2  9  2  0  3  1  4  2  9  3  0 16  2 17 15  0  0  2  1  0 18  1  2 22
  4 21 21 17 25 10 21]"
16900,315.0,0.90625,4,1,59.973209619522095,3.437936305999756,16886,67600,848200,4089542,"[ 1  3  2  5  0  1  3  3  2  5  0  2  1  1  0  0  1  1  0  0  3  3  0  7
  4  8  5  2  5  0  5  2  9  2  8  2  0 11  0  4  3  3  2  5  0  1  0 16
  2  9  2  0  3  1  4  2  9  3  0 16  2 17 15  0  0  2  1  0 18  1  2 22
  4 21 21 17 25 10 21]"
17000,315.0,0.90625,4,1,60.309365034103394,3.361525535583496,16986,68000,853044,4111699,"[ 1  3  2  5  0  1  3  3  2  5  0  2  1  1  0  0  1  1  0  0  3  3  0  7
  4  8  5  2  5  0  5  2  9  2  8  2  0 11  0  4  3  3  2  5  0  1  0 16
  2  9  2  0  3  1  4  2  9  3  0 16  2 17 15  0  0  2  1  0 18  1  2 22
  4 21 21 17 25 10 21]"
17100,315.0,0.90625,4,1,60.649937868118286,3.4056973457336426,17086,68400,857997,4134406,"[ 1  3  2  5  0  1  3  3  2  5  0  2  1  1  0  0  1  1  0  0  3  3  0  7
  4  8  5  2  5  0  5  2  9  2  8  2  0 11  0  4  3  3  2  5  0  1  0 16
  2  9  2  0  3  1  4  2  9  3  0 16  2 17 15  0  0  2  1  0 18  1  2 22
  4 21 21 17 25 10 21]"
17200,315.0,0.90625,4,1,60.990185260772705,3.4024429321289062,17186,68800,862947,4157146,"[ 1  3  2  5  0  1  3  3  2  5  0  2  1  1  0  0  1  1  0  0  3  3  0  7
  4  8  5  2  5  0  5  2  9  2  8  2  0 11  0  4  3  3  2  5  0  1  0 16
  2  9  2  0  3  1  4  2  9  3  0 16  2 17 15  0  0  2  1  0 18  1  2 22
  4 21 21 17 25 10 21]"
17300,315.0,0.90625,4,1,61.326162815093994,3.3597445487976074,17286,69200,867704,4179355,"[ 1  3  2  5  0  1  3  3  2  5  0  2  1  1  0  0  1  1  0  0  3  3  0  7
  4  8  5  2  5  0  5  2  9  2  8  2  0 11  0  4  3  3  2  5  0  1  0 16
  2  9  2  0  3  1  4  2  9  3  0 16  2 17 15  0  0  2  1  0 18  1  2 22
  4 21 21 17 25 10 21]"
17400,315.0,0.90625,4,1,61.66653895378113,3.4037280082702637,17386,69600,872563,4202018,"[ 1  3  2  5  0  1  3  3  2  5  0  2  1  1  0  0  1  1  0  0  3  3  0  7
  4  8  5  2  5  0  5  2  9  2  8  2  0 11  0  4  3  3  2  5  0  1  0 16
  2  9  2  0  3  1  4  2  9  3  0 16  2 17 15  0  0  2  1  0 18  1  2 22
  4 21 21 17 25 10 21]"
17500,315.0,0.90625,4,1,62.00662088394165,3.4007906913757324,17486,70000,877456,4224797,"[ 1  3  2  5  0  1  3  3  2  5  0  2  1  1  0  0  1  1  0  0  3  3  0  7
  4  8  5  2  5  0  5  2  9  2  8  2  0 11  0  4  3  3  2  5  0  1  0 16
  2  9  2  0  3  1  4  2  9  3  0 16  2 17 15  0  0  2  1  0 18  1  2 22
  4 21 21 17 25 10 21]"
17600,315.0,0.90625,4,1,62.342044830322266,3.35421085357666,17586,70400,882302,4247186,"[ 1  3  2  5  0  1  3  3  2  5  0  2  1  1  0  0  1  1  0  0  3  3  0  7
  4  8  5  2  5  0  5  2  9  2  8  2  0 11  0  4  3  3  2  5  0  1  0 16
  2  9  2  0  3  1  4  2  9  3  0 16  2 17 15  0  0  2  1  0 18  1  2 22
  4 21 21 17 25 10 21]"
17700,315.0,0.90625,4,1,62.68259882926941,3.4055161476135254,17686,70800,887188,4269663,"[ 1  3  2  5  0  1  3  3  2  5  0  2  1  1  0  0  1  1  0  0  3  3  0  7
  4  8  5  2  5  0  5  2  9  2  8  2  0 11  0  4  3  3  2  5  0  1  0 16
  2  9  2  0  3  1  4  2  9  3  0 16  2 17 15  0  0  2  1  0 18  1  2 22
  4 21 21 17 25 10 21]"
17800,315.0,0.90625,4,1,63.03043341636658,3.4783148765563965,17786,71200,892089,4292246,"[ 1  3  2  5  0  1  3  3  2  5  0  2  1  1  0  0  1  1  0  0  3  3  0  7
  4  8  5  2  5  0  5  2  9  2  8  2  0 11  0  4  3  3  2  5  0  1  0 16
  2  9  2  0  3  1  4  2  9  3  0 16  2 17 15  0  0  2  1  0 18  1  2 22
  4 21 21 17 25 10 21]"
17900,315.0,0.90625,4,1,63.36862874031067,3.3819222450256348,17886,71600,896940,4314590,"[ 1  3  2  5  0  1  3  3  2  5  0  2  1  1  0  0  1  1  0  0  3  3  0  7
  4  8  5  2  5  0  5  2  9  2  8  2  0 11  0  4  3  3  2  5  0  1  0 16
  2  9  2  0  3  1  4  2  9  3  0 16  2 17 15  0  0  2  1  0 18  1  2 22
  4 21 21 17 25 10 21]"
18000,315.0,0.90625,4,1,63.709452867507935,3.408210277557373,17986,72000,901904,4337258,"[ 1  3  2  5  0  1  3  3  2  5  0  2  1  1  0  0  1  1  0  0  3  3  0  7
  4  8  5  2  5  0  5  2  9  2  8  2  0 11  0  4  3  3  2  5  0  1  0 16
  2  9  2  0  3  1  4  2  9  3  0 16  2 17 15  0  0  2  1  0 18  1  2 22
  4 21 21 17 25 10 21]"
18100,315.0,0.90625,4,1,64.0527708530426,3.4331536293029785,18086,72400,906873,4360289,"[ 1  3  2  5  0  1  3  3  2  5  0  2  1  1  0  0  1  1  0  0  3  3  0  7
  4  8  5  2  5  0  5  2  9  2  8  2  0 11  0  4  3  3  2  5  0  1  0 16
  2  9  2  0  3  1  4  2  9  3  0 16  2 17 15  0  0  2  1  0 18  1  2 22
  4 21 21 17 25 10 21]"
18200,315.0,0.90625,4,1,64.39087724685669,3.381035327911377,18186,72800,911724,4383104,"[ 1  3  2  5  0  1  3  3  2  5  0  2  1  1  0  0  1  1  0  0  3  3  0  7
  4  8  5  2  5  0  5  2  9  2  8  2  0 11  0  4  3  3  2  5  0  1  0 16
  2  9  2  0  3  1  4  2  9  3  0 16  2 17 15  0  0  2  1  0 18  1  2 22
  4 21 21 17 25 10 21]"
18300,315.0,0.90625,4,1,64.72938442230225,3.3850455284118652,18286,73200,916652,4405830,"[ 1  3  2  5  0  1  3  3  2  5  0  2  1  1  0  0  1  1  0  0  3  3  0  7
  4  8  5  2  5  0  5  2  9  2  8  2  0 11  0  4  3  3  2  5  0  1  0 16
  2  9  2  0  3  1  4  2  9  3  0 16  2 17 15  0  0  2  1  0 18  1  2 22
  4 21 21 17 25 10 21]"
18400,315.0,0.90625,4,1,65.08305168151855,3.536648750305176,18386,73600,921688,4429569,"[ 1  3  2  5  0  1  3  3  2  5  0  2  1  1  0  0  1  1  0  0  3  3  0  7
  4  8  5  2  5  0  5  2  9  2  8  2  0 11  0  4  3  3  2  5  0  1  0 16
  2  9  2  0  3  1  4  2  9  3  0 16  2 17 15  0  0  2  1  0 18  1  2 22
  4 21 21 17 25 10 21]"
18500,315.0,0.90625,4,1,65.42419791221619,3.411436080932617,18486,74000,926585,4452201,"[ 1  3  2  5  0  1  3  3  2  5  0  2  1  1  0  0  1  1  0  0  3  3  0  7
  4  8  5  2  5  0  5  2  9  2  8  2  0 11  0  4  3  3  2  5  0  1  0 16
  2  9  2  0  3  1  4  2  9  3  0 16  2 17 15  0  0  2  1  0 18  1  2 22
  4 21 21 17 25 10 21]"
18600,315.0,0.90625,4,1,65.76246500015259,3.3826398849487305,18586,74400,931420,4474478,"[ 1  3  2  5  0  1  3  3  2  5  0  2  1  1  0  0  1  1  0  0  3  3  0  7
  4  8  5  2  5  0  5  2  9  2  8  2  0 11  0  4  3  3  2  5  0  1  0 16
  2  9  2  0  3  1  4  2  9  3  0 16  2 17 15  0  0  2  1  0 18  1  2 22
  4 21 21 17 25 10 21]"
18700,315.0,0.90625,4,1,66.09601211547852,3.335440158843994,18686,74800,936288,4496883,"[ 1  3  2  5  0  1  3  3  2  5  0  2  1  1  0  0  1  1  0  0  3  3  0  7
  4  8  5  2  5  0  5  2  9  2  8  2  0 11  0  4  3  3  2  5  0  1  0 16
  2  9  2  0  3  1  4  2  9  3  0 16  2 17 15  0  0  2  1  0 18  1  2 22
  4 21 21 17 25 10 21]"
18800,315.0,0.90625,4,1,66.43643879890442,3.40423583984375,18786,75200,941219,4519496,"[ 1  3  2  5  0  1  3  3  2  5  0  2  1  1  0  0  1  1  0  0  3  3  0  7
  4  8  5  2  5  0  5  2  9  2  8  2  0 11  0  4  3  3  2  5  0  1  0 16
  2  9  2  0  3  1  4  2  9  3  0 16  2 17 15  0  0  2  1  0 18  1  2 22
  4 21 21 17 25 10 21]"
18900,315.0,0.90625,4,1,66.77422332763672,3.377811908721924,18886,75600,946166,4542128,"[ 1  3  2  5  0  1  3  3  2  5  0  2  1  1  0  0  1  1  0  0  3  3  0  7
  4  8  5  2  5  0  5  2  9  2  8  2  0 11  0  4  3  3  2  5  0  1  0 16
  2  9  2  0  3  1  4  2  9  3  0 16  2 17 15  0  0  2  1  0 18  1  2 22
  4 21 21 17 25 10 21]"
19000,315.0,0.90625,4,1,67.10496687889099,3.3074092864990234,18986,76000,950988,4564008,"[ 1  3  2  5  0  1  3  3  2  5  0  2  1  1  0  0  1  1  0  0  3  3  0  7
  4  8  5  2  5  0  5  2  9  2  8  2  0 11  0  4  3  3  2  5  0  1  0 16
  2  9  2  0  3  1  4  2  9  3  0 16  2 17 15  0  0  2  1  0 18  1  2 22
  4 21 21 17 25 10 21]"
19100,315.0,0.90625,4,1,67.44558501243591,3.4061551094055176,19086,76400,955933,4586705,"[ 1  3  2  5  0  1  3  3  2  5  0  2  1  1  0  0  1  1  0  0  3  3  0  7
  4  8  5  2  5  0  5  2  9  2  8  2  0 11  0  4  3  3  2  5  0  1  0 16
  2  9  2  0  3  1  4  2  9  3  0 16  2 17 15  0  0  2  1  0 18  1  2 22
  4 21 21 17 25 10 21]"
19200,315.0,0.90625,4,1,67.77708601951599,3.314981460571289,19186,76800,960732,4608763,"[ 1  3  2  5  0  1  3  3  2  5  0  2  1  1  0  0  1  1  0  0  3  3  0  7
  4  8  5  2  5  0  5  2  9  2  8  2  0 11  0  4  3  3  2  5  0  1  0 16
  2  9  2  0  3  1  4  2  9  3  0 16  2 17 15  0  0  2  1  0 18  1  2 22
  4 21 21 17 25 10 21]"
19300,315.0,0.90625,4,1,68.11316275596619,3.360738754272461,19286,77200,965540,4630957,"[ 1  3  2  5  0  1  3  3  2  5  0  2  1  1  0  0  1  1  0  0  3  3  0  7
  4  8  5  2  5  0  5  2  9  2  8  2  0 11  0  4  3  3  2  5  0  1  0 16
  2  9  2  0  3  1  4  2  9  3  0 16  2 17 15  0  0  2  1  0 18  1  2 22
  4 21 21 17 25 10 21]"
19400,315.0,0.90625,4,1,68.44992113113403,3.3675575256347656,19386,77600,970385,4653379,"[ 1  3  2  5  0  1  3  3  2  5  0  2  1  1  0  0  1  1  0  0  3  3  0  7
  4  8  5  2  5  0  5  2  9  2  8  2  0 11  0  4  3  3  2  5  0  1  0 16
  2  9  2  0  3  1  4  2  9  3  0 16  2 17 15  0  0  2  1  0 18  1  2 22
  4 21 21 17 25 10 21]"
19500,315.0,0.90625,4,1,68.79096102714539,3.410367965698242,19486,78000,975223,4676270,"[ 1  3  2  5  0  1  3  3  2  5  0  2  1  1  0  0  1  1  0  0  3  3  0  7
  4  8  5  2  5  0  5  2  9  2  8  2  0 11  0  4  3  3  2  5  0  1  0 16
  2  9  2  0  3  1  4  2  9  3  0 16  2 17 15  0  0  2  1  0 18  1  2 22
  4 21 21 17 25 10 21]"
19600,315.0,0.90625,4,1,69.13161826133728,3.406543731689453,19586,78400,980173,4698944,"[ 1  3  2  5  0  1  3  3  2  5  0  2  1  1  0  0  1  1  0  0  3  3  0  7
  4  8  5  2  5  0  5  2  9  2  8  2  0 11  0  4  3  3  2  5  0  1  0 16
  2  9  2  0  3  1  4  2  9  3  0 16  2 17 15  0  0  2  1  0 18  1  2 22
  4 21 21 17 25 10 21]"
19700,315.0,0.90625,4,1,69.47047019004822,3.388490676879883,19686,78800,985043,4721808,"[ 1  3  2  5  0  1  3  3  2  5  0  2  1  1  0  0  1  1  0  0  3  3  0  7
  4  8  5  2  5  0  5  2  9  2  8  2  0 11  0  4  3  3  2  5  0  1  0 16
  2  9  2  0  3  1  4  2  9  3  0 16  2 17 15  0  0  2  1  0 18  1  2 22
  4 21 21 17 25 10 21]"
19800,315.0,0.90625,4,1,69.81482338905334,3.4435033798217773,19786,79200,990039,4744523,"[ 1  3  2  5  0  1  3  3  2  5  0  2  1  1  0  0  1  1  0  0  3  3  0  7
  4  8  5  2  5  0  5  2  9  2  8  2  0 11  0  4  3  3  2  5  0  1  0 16
  2  9  2  0  3  1  4  2  9  3  0 16  2 17 15  0  0  2  1  0 18  1  2 22
  4 21 21 17 25 10 21]"
19900,315.0,0.90625,4,1,70.15484166145325,3.4001541137695312,19886,79600,995036,4767311,"[ 1  3  2  5  0  1  3  3  2  5  0  2  1  1  0  0  1  1  0  0  3  3  0  7
  4  8  5  2  5  0  5  2  9  2  8  2  0 11  0  4  3  3  2  5  0  1  0 16
  2  9  2  0  3  1  4  2  9  3  0 16  2 17 15  0  0  2  1  0 18  1  2 22
  4 21 21 17 25 10 21]"
20000,315.0,0.90625,4,1,70.4936592578888,3.3881473541259766,19986,80000,999972,4789774,"[ 1  3  2  5  0  1  3  3  2  5  0  2  1  1  0  0  1  1  0  0  3  3  0  7
  4  8  5  2  5  0  5  2  9  2  8  2  0 11  0  4  3  3  2  5  0  1  0 16
  2  9  2  0  3  1  4  2  9  3  0 16  2 17 15  0  0  2  1  0 18  1  2 22
  4 21 21 17 25 10 21]"
20100,315.0,0.90625,4,1,70.82689094543457,3.3322858810424805,20086,80400,1004800,4811818,"[ 1  3  2  5  0  1  3  3  2  5  0  2  1  1  0  0  1  1  0  0  3  3  0  7
  4  8  5  2  5  0  5  2  9  2  8  2  0 11  0  4  3  3  2  5  0  1  0 16
  2  9  2  0  3  1  4  2  9  3  0 16  2 17 15  0  0  2  1  0 18  1  2 22
  4 21 21 17 25 10 21]"
20200,315.0,0.90625,4,1,71.16890215873718,3.420078754425049,20186,80800,1009720,4834637,"[ 1  3  2  5  0  1  3  3  2  5  0  2  1  1  0  0  1  1  0  0  3  3  0  7
  4  8  5  2  5  0  5  2  9  2  8  2  0 11  0  4  3  3  2  5  0  1  0 16
  2  9  2  0  3  1  4  2  9  3  0 16  2 17 15  0  0  2  1  0 18  1  2 22
  4 21 21 17 25 10 21]"
20300,315.0,0.90625,4,1,71.50798487663269,3.390800952911377,20286,81200,1014662,4857137,"[ 1  3  2  5  0  1  3  3  2  5  0  2  1  1  0  0  1  1  0  0  3  3  0  7
  4  8  5  2  5  0  5  2  9  2  8  2  0 11  0  4  3  3  2  5  0  1  0 16
  2  9  2  0  3  1  4  2  9  3  0 16  2 17 15  0  0  2  1  0 18  1  2 22
  4 21 21 17 25 10 21]"
20400,315.0,0.90625,4,1,71.84581065177917,3.3782291412353516,20386,81600,1019564,4879639,"[ 1  3  2  5  0  1  3  3  2  5  0  2  1  1  0  0  1  1  0  0  3  3  0  7
  4  8  5  2  5  0  5  2  9  2  8  2  0 11  0  4  3  3  2  5  0  1  0 16
  2  9  2  0  3  1  4  2  9  3  0 16  2 17 15  0  0  2  1  0 18  1  2 22
  4 21 21 17 25 10 21]"
20500,315.0,0.90625,4,1,72.18435502052307,3.3854150772094727,20486,82000,1024498,4902060,"[ 1  3  2  5  0  1  3  3  2  5  0  2  1  1  0  0  1  1  0  0  3  3  0  7
  4  8  5  2  5  0  5  2  9  2  8  2  0 11  0  4  3  3  2  5  0  1  0 16
  2  9  2  0  3  1  4  2  9  3  0 16  2 17 15  0  0  2  1  0 18  1  2 22
  4 21 21 17 25 10 21]"
20600,315.0,0.90625,4,1,72.53578925132751,3.5143113136291504,20586,82400,1029543,4925612,"[ 1  3  2  5  0  1  3  3  2  5  0  2  1  1  0  0  1  1  0  0  3  3  0  7
  4  8  5  2  5  0  5  2  9  2  8  2  0 11  0  4  3  3  2  5  0  1  0 16
  2  9  2  0  3  1  4  2  9  3  0 16  2 17 15  0  0  2  1  0 18  1  2 22
  4 21 21 17 25 10 21]"
20700,315.0,0.90625,4,1,72.8858847618103,3.5009264945983887,20686,82800,1034491,4948429,"[ 1  3  2  5  0  1  3  3  2  5  0  2  1  1  0  0  1  1  0  0  3  3  0  7
  4  8  5  2  5  0  5  2  9  2  8  2  0 11  0  4  3  3  2  5  0  1  0 16
  2  9  2  0  3  1  4  2  9  3  0 16  2 17 15  0  0  2  1  0 18  1  2 22
  4 21 21 17 25 10 21]"
20800,315.0,0.90625,4,1,73.22880840301514,3.4292030334472656,20786,83200,1039377,4971247,"[ 1  3  2  5  0  1  3  3  2  5  0  2  1  1  0  0  1  1  0  0  3  3  0  7
  4  8  5  2  5  0  5  2  9  2  8  2  0 11  0  4  3  3  2  5  0  1  0 16
  2  9  2  0  3  1  4  2  9  3  0 16  2 17 15  0  0  2  1  0 18  1  2 22
  4 21 21 17 25 10 21]"
20900,315.0,0.90625,4,1,73.56456780433655,3.357563018798828,20886,83600,1044286,4993695,"[ 1  3  2  5  0  1  3  3  2  5  0  2  1  1  0  0  1  1  0  0  3  3  0  7
  4  8  5  2  5  0  5  2  9  2  8  2  0 11  0  4  3  3  2  5  0  1  0 16
  2  9  2  0  3  1  4  2  9  3  0 16  2 17 15  0  0  2  1  0 18  1  2 22
  4 21 21 17 25 10 21]"
21000,315.0,0.90625,4,1,73.90308427810669,3.385133743286133,20986,84000,1049131,5016421,"[ 1  3  2  5  0  1  3  3  2  5  0  2  1  1  0  0  1  1  0  0  3  3  0  7
  4  8  5  2  5  0  5  2  9  2  8  2  0 11  0  4  3  3  2  5  0  1  0 16
  2  9  2  0  3  1  4  2  9  3  0 16  2 17 15  0  0  2  1  0 18  1  2 22
  4 21 21 17 25 10 21]"
21100,315.0,0.90625,4,1,74.24292969703674,3.398427963256836,21086,84400,1053965,5038849,"[ 1  3  2  5  0  1  3  3  2  5  0  2  1  1  0  0  1  1  0  0  3  3  0  7
  4  8  5  2  5  0  5  2  9  2  8  2  0 11  0  4  3  3  2  5  0  1  0 16
  2  9  2  0  3  1  4  2  9  3  0 16  2 17 15  0  0  2  1  0 18  1  2 22
  4 21 21 17 25 10 21]"
21200,315.0,0.90625,4,1,74.58438086509705,3.414480686187744,21186,84800,1058814,5061318,"[ 1  3  2  5  0  1  3  3  2  5  0  2  1  1  0  0  1  1  0  0  3  3  0  7
  4  8  5  2  5  0  5  2  9  2  8  2  0 11  0  4  3  3  2  5  0  1  0 16
  2  9  2  0  3  1  4  2  9  3  0 16  2 17 15  0  0  2  1  0 18  1  2 22
  4 21 21 17 25 10 21]"
21300,315.0,0.90625,4,1,74.92811822891235,3.437345027923584,21286,85200,1063730,5084747,"[ 1  3  2  5  0  1  3  3  2  5  0  2  1  1  0  0  1  1  0  0  3  3  0  7
  4  8  5  2  5  0  5  2  9  2  8  2  0 11  0  4  3  3  2  5  0  1  0 16
  2  9  2  0  3  1  4  2  9  3  0 16  2 17 15  0  0  2  1  0 18  1  2 22
  4 21 21 17 25 10 21]"
21400,315.0,0.90625,4,1,75.26672029495239,3.3859872817993164,21386,85600,1068605,5107285,"[ 1  3  2  5  0  1  3  3  2  5  0  2  1  1  0  0  1  1  0  0  3  3  0  7
  4  8  5  2  5  0  5  2  9  2  8  2  0 11  0  4  3  3  2  5  0  1  0 16
  2  9  2  0  3  1  4  2  9  3  0 16  2 17 15  0  0  2  1  0 18  1  2 22
  4 21 21 17 25 10 21]"
21500,315.0,0.90625,4,1,75.6005392074585,3.338160514831543,21486,86000,1073353,5129393,"[ 1  3  2  5  0  1  3  3  2  5  0  2  1  1  0  0  1  1  0  0  3  3  0  7
  4  8  5  2  5  0  5  2  9  2  8  2  0 11  0  4  3  3  2  5  0  1  0 16
  2  9  2  0  3  1  4  2  9  3  0 16  2 17 15  0  0  2  1  0 18  1  2 22
  4 21 21 17 25 10 21]"
21600,315.0,0.90625,4,1,75.93842220306396,3.3787965774536133,21586,86400,1078155,5151908,"[ 1  3  2  5  0  1  3  3  2  5  0  2  1  1  0  0  1  1  0  0  3  3  0  7
  4  8  5  2  5  0  5  2  9  2  8  2  0 11  0  4  3  3  2  5  0  1  0 16
  2  9  2  0  3  1  4  2  9  3  0 16  2 17 15  0  0  2  1  0 18  1  2 22
  4 21 21 17 25 10 21]"
21700,315.0,0.90625,4,1,76.2804925441742,3.4206700325012207,21686,86800,1083090,5174812,"[ 1  3  2  5  0  1  3  3  2  5  0  2  1  1  0  0  1  1  0  0  3  3  0  7
  4  8  5  2  5  0  5  2  9  2  8  2  0 11  0  4  3  3  2  5  0  1  0 16
  2  9  2  0  3  1  4  2  9  3  0 16  2 17 15  0  0  2  1  0 18  1  2 22
  4 21 21 17 25 10 21]"
21800,315.0,0.90625,4,1,76.6238181591034,3.433229923248291,21786,87200,1088059,5197898,"[ 1  3  2  5  0  1  3  3  2  5  0  2  1  1  0  0  1  1  0  0  3  3  0  7
  4  8  5  2  5  0  5  2  9  2  8  2  0 11  0  4  3  3  2  5  0  1  0 16
  2  9  2  0  3  1  4  2  9  3  0 16  2 17 15  0  0  2  1  0 18  1  2 22
  4 21 21 17 25 10 21]"
21900,315.0,0.90625,4,1,76.96599340438843,3.4217214584350586,21886,87600,1093034,5220621,"[ 1  3  2  5  0  1  3  3  2  5  0  2  1  1  0  0  1  1  0  0  3  3  0  7
  4  8  5  2  5  0  5  2  9  2  8  2  0 11  0  4  3  3  2  5  0  1  0 16
  2  9  2  0  3  1  4  2  9  3  0 16  2 17 15  0  0  2  1  0 18  1  2 22
  4 21 21 17 25 10 21]"
22000,315.0,0.90625,4,1,77.30421996116638,3.382232189178467,21986,88000,1097989,5242642,"[ 1  3  2  5  0  1  3  3  2  5  0  2  1  1  0  0  1  1  0  0  3  3  0  7
  4  8  5  2  5  0  5  2  9  2  8  2  0 11  0  4  3  3  2  5  0  1  0 16
  2  9  2  0  3  1  4  2  9  3  0 16  2 17 15  0  0  2  1  0 18  1  2 22
  4 21 21 17 25 10 21]"
22100,315.0,0.90625,4,1,77.63966751098633,3.3544468879699707,22086,88400,1102860,5265165,"[ 1  3  2  5  0  1  3  3  2  5  0  2  1  1  0  0  1  1  0  0  3  3  0  7
  4  8  5  2  5  0  5  2  9  2  8  2  0 11  0  4  3  3  2  5  0  1  0 16
  2  9  2  0  3  1  4  2  9  3  0 16  2 17 15  0  0  2  1  0 18  1  2 22
  4 21 21 17 25 10 21]"
22200,315.0,0.90625,4,1,77.97794127464294,3.382711410522461,22186,88800,1107770,5287756,"[ 1  3  2  5  0  1  3  3  2  5  0  2  1  1  0  0  1  1  0  0  3  3  0  7
  4  8  5  2  5  0  5  2  9  2  8  2  0 11  0  4  3  3  2  5  0  1  0 16
  2  9  2  0  3  1  4  2  9  3  0 16  2 17 15  0  0  2  1  0 18  1  2 22
  4 21 21 17 25 10 21]"
22300,315.0,0.90625,4,1,78.31833958625793,3.403952121734619,22286,89200,1112679,5310159,"[ 1  3  2  5  0  1  3  3  2  5  0  2  1  1  0  0  1  1  0  0  3  3  0  7
  4  8  5  2  5  0  5  2  9  2  8  2  0 11  0  4  3  3  2  5  0  1  0 16
  2  9  2  0  3  1  4  2  9  3  0 16  2 17 15  0  0  2  1  0 18  1  2 22
  4 21 21 17 25 10 21]"
22400,315.0,0.90625,4,1,78.65180253982544,3.3346033096313477,22386,89600,1117509,5332249,"[ 1  3  2  5  0  1  3  3  2  5  0  2  1  1  0  0  1  1  0  0  3  3  0  7
  4  8  5  2  5  0  5  2  9  2  8  2  0 11  0  4  3  3  2  5  0  1  0 16
  2  9  2  0  3  1  4  2  9  3  0 16  2 17 15  0  0  2  1  0 18  1  2 22
  4 21 21 17 25 10 21]"
22500,315.0,0.90625,4,1,78.9916980266571,3.398926258087158,22486,90000,1122404,5354834,"[ 1  3  2  5  0  1  3  3  2  5  0  2  1  1  0  0  1  1  0  0  3  3  0  7
  4  8  5  2  5  0  5  2  9  2  8  2  0 11  0  4  3  3  2  5  0  1  0 16
  2  9  2  0  3  1  4  2  9  3  0 16  2 17 15  0  0  2  1  0 18  1  2 22
  4 21 21 17 25 10 21]"
22600,315.0,0.90625,4,1,79.32457160949707,3.328707218170166,22586,90400,1127200,5376952,"[ 1  3  2  5  0  1  3  3  2  5  0  2  1  1  0  0  1  1  0  0  3  3  0  7
  4  8  5  2  5  0  5  2  9  2  8  2  0 11  0  4  3  3  2  5  0  1  0 16
  2  9  2  0  3  1  4  2  9  3  0 16  2 17 15  0  0  2  1  0 18  1  2 22
  4 21 21 17 25 10 21]"
22700,315.0,0.90625,4,1,79.65716457366943,3.3258986473083496,22686,90800,1132015,5399026,"[ 1  3  2  5  0  1  3  3  2  5  0  2  1  1  0  0  1  1  0  0  3  3  0  7
  4  8  5  2  5  0  5  2  9  2  8  2  0 11  0  4  3  3  2  5  0  1  0 16
  2  9  2  0  3  1  4  2  9  3  0 16  2 17 15  0  0  2  1  0 18  1  2 22
  4 21 21 17 25 10 21]"
22800,315.0,0.90625,4,1,79.9941635131836,3.3699607849121094,22786,91200,1136808,5421372,"[ 1  3  2  5  0  1  3  3  2  5  0  2  1  1  0  0  1  1  0  0  3  3  0  7
  4  8  5  2  5  0  5  2  9  2  8  2  0 11  0  4  3  3  2  5  0  1  0 16
  2  9  2  0  3  1  4  2  9  3  0 16  2 17 15  0  0  2  1  0 18  1  2 22
  4 21 21 17 25 10 21]"
22900,315.0,0.90625,4,1,80.33160090446472,3.374345302581787,22886,91600,1141661,5443826,"[ 1  3  2  5  0  1  3  3  2  5  0  2  1  1  0  0  1  1  0  0  3  3  0  7
  4  8  5  2  5  0  5  2  9  2  8  2  0 11  0  4  3  3  2  5  0  1  0 16
  2  9  2  0  3  1  4  2  9  3  0 16  2 17 15  0  0  2  1  0 18  1  2 22
  4 21 21 17 25 10 21]"
23000,315.0,0.90625,4,1,80.67405843734741,3.424549102783203,22986,92000,1146700,5466541,"[ 1  3  2  5  0  1  3  3  2  5  0  2  1  1  0  0  1  1  0  0  3  3  0  7
  4  8  5  2  5  0  5  2  9  2  8  2  0 11  0  4  3  3  2  5  0  1  0 16
  2  9  2  0  3  1  4  2  9  3  0 16  2 17 15  0  0  2  1  0 18  1  2 22
  4 21 21 17 25 10 21]"
23100,315.0,0.90625,4,1,81.01391077041626,3.3984947204589844,23086,92400,1151587,5489020,"[ 1  3  2  5  0  1  3  3  2  5  0  2  1  1  0  0  1  1  0  0  3  3  0  7
  4  8  5  2  5  0  5  2  9  2  8  2  0 11  0  4  3  3  2  5  0  1  0 16
  2  9  2  0  3  1  4  2  9  3  0 16  2 17 15  0  0  2  1  0 18  1  2 22
  4 21 21 17 25 10 21]"
23200,315.0,0.90625,4,1,81.35621380805969,3.422999382019043,23186,92800,1156516,5511900,"[ 1  3  2  5  0  1  3  3  2  5  0  2  1  1  0  0  1  1  0  0  3  3  0  7
  4  8  5  2  5  0  5  2  9  2  8  2  0 11  0  4  3  3  2  5  0  1  0 16
  2  9  2  0  3  1  4  2  9  3  0 16  2 17 15  0  0  2  1  0 18  1  2 22
  4 21 21 17 25 10 21]"
23300,315.0,0.90625,4,1,81.68566370010376,3.2944750785827637,23286,93200,1161316,5533733,"[ 1  3  2  5  0  1  3  3  2  5  0  2  1  1  0  0  1  1  0  0  3  3  0  7
  4  8  5  2  5  0  5  2  9  2  8  2  0 11  0  4  3  3  2  5  0  1  0 16
  2  9  2  0  3  1  4  2  9  3  0 16  2 17 15  0  0  2  1  0 18  1  2 22
  4 21 21 17 25 10 21]"
23400,315.0,0.90625,4,1,82.02607131004333,3.4040451049804688,23386,93600,1166175,5556174,"[ 1  3  2  5  0  1  3  3  2  5  0  2  1  1  0  0  1  1  0  0  3  3  0  7
  4  8  5  2  5  0  5  2  9  2  8  2  0 11  0  4  3  3  2  5  0  1  0 16
  2  9  2  0  3  1  4  2  9  3  0 16  2 17 15  0  0  2  1  0 18  1  2 22
  4 21 21 17 25 10 21]"
23500,315.0,0.90625,4,1,82.36903190612793,3.429577350616455,23486,94000,1171129,5579154,"[ 1  3  2  5  0  1  3  3  2  5  0  2  1  1  0  0  1  1  0  0  3  3  0  7
  4  8  5  2  5  0  5  2  9  2  8  2  0 11  0  4  3  3  2  5  0  1  0 16
  2  9  2  0  3  1  4  2  9  3  0 16  2 17 15  0  0  2  1  0 18  1  2 22
  4 21 21 17 25 10 21]"
23600,315.0,0.90625,4,1,82.69831371307373,3.2927894592285156,23586,94400,1175908,5601052,"[ 1  3  2  5  0  1  3  3  2  5  0  2  1  1  0  0  1  1  0  0  3  3  0  7
  4  8  5  2  5  0  5  2  9  2  8  2  0 11  0  4  3  3  2  5  0  1  0 16
  2  9  2  0  3  1  4  2  9  3  0 16  2 17 15  0  0  2  1  0 18  1  2 22
  4 21 21 17 25 10 21]"
23700,315.0,0.90625,4,1,83.03854608535767,3.4022903442382812,23686,94800,1180835,5623591,"[ 1  3  2  5  0  1  3  3  2  5  0  2  1  1  0  0  1  1  0  0  3  3  0  7
  4  8  5  2  5  0  5  2  9  2  8  2  0 11  0  4  3  3  2  5  0  1  0 16
  2  9  2  0  3  1  4  2  9  3  0 16  2 17 15  0  0  2  1  0 18  1  2 22
  4 21 21 17 25 10 21]"
23800,315.0,0.90625,4,1,83.37921452522278,3.40665340423584,23786,95200,1185721,5646324,"[ 1  3  2  5  0  1  3  3  2  5  0  2  1  1  0  0  1  1  0  0  3  3  0  7
  4  8  5  2  5  0  5  2  9  2  8  2  0 11  0  4  3  3  2  5  0  1  0 16
  2  9  2  0  3  1  4  2  9  3  0 16  2 17 15  0  0  2  1  0 18  1  2 22
  4 21 21 17 25 10 21]"
23900,315.0,0.90625,4,1,83.71960806846619,3.403904438018799,23886,95600,1190573,5669153,"[ 1  3  2  5  0  1  3  3  2  5  0  2  1  1  0  0  1  1  0  0  3  3  0  7
  4  8  5  2  5  0  5  2  9  2  8  2  0 11  0  4  3  3  2  5  0  1  0 16
  2  9  2  0  3  1  4  2  9  3  0 16  2 17 15  0  0  2  1  0 18  1  2 22
  4 21 21 17 25 10 21]"
24000,315.0,0.90625,4,1,84.06305742263794,3.434462547302246,23986,96000,1195501,5692036,"[ 1  3  2  5  0  1  3  3  2  5  0  2  1  1  0  0  1  1  0  0  3  3  0  7
  4  8  5  2  5  0  5  2  9  2  8  2  0 11  0  4  3  3  2  5  0  1  0 16
  2  9  2  0  3  1  4  2  9  3  0 16  2 17 15  0  0  2  1  0 18  1  2 22
  4 21 21 17 25 10 21]"
24100,315.0,0.90625,4,1,84.39449191093445,3.3143162727355957,24086,96400,1200303,5713883,"[ 1  3  2  5  0  1  3  3  2  5  0  2  1  1  0  0  1  1  0  0  3  3  0  7
  4  8  5  2  5  0  5  2  9  2  8  2  0 11  0  4  3  3  2  5  0  1  0 16
  2  9  2  0  3  1  4  2  9  3  0 16  2 17 15  0  0  2  1  0 18  1  2 22
  4 21 21 17 25 10 21]"
24200,315.0,0.90625,4,1,84.72622466087341,3.3172965049743652,24186,96800,1205109,5736163,"[ 1  3  2  5  0  1  3  3  2  5  0  2  1  1  0  0  1  1  0  0  3  3  0  7
  4  8  5  2  5  0  5  2  9  2  8  2  0 11  0  4  3  3  2  5  0  1  0 16
  2  9  2  0  3  1  4  2  9  3  0 16  2 17 15  0  0  2  1  0 18  1  2 22
  4 21 21 17 25 10 21]"
24300,315.0,0.90625,4,1,85.07572388648987,3.4949612617492676,24286,97200,1210143,5759619,"[ 1  3  2  5  0  1  3  3  2  5  0  2  1  1  0  0  1  1  0  0  3  3  0  7
  4  8  5  2  5  0  5  2  9  2  8  2  0 11  0  4  3  3  2  5  0  1  0 16
  2  9  2  0  3  1  4  2  9  3  0 16  2 17 15  0  0  2  1  0 18  1  2 22
  4 21 21 17 25 10 21]"
24400,315.0,0.90625,4,1,85.40914249420166,3.3341598510742188,24386,97600,1215014,5781592,"[ 1  3  2  5  0  1  3  3  2  5  0  2  1  1  0  0  1  1  0  0  3  3  0  7
  4  8  5  2  5  0  5  2  9  2  8  2  0 11  0  4  3  3  2  5  0  1  0 16
  2  9  2  0  3  1  4  2  9  3  0 16  2 17 15  0  0  2  1  0 18  1  2 22
  4 21 21 17 25 10 21]"
24500,315.0,0.90625,4,1,85.7462055683136,3.3706021308898926,24486,98000,1219849,5803891,"[ 1  3  2  5  0  1  3  3  2  5  0  2  1  1  0  0  1  1  0  0  3  3  0  7
  4  8  5  2  5  0  5  2  9  2  8  2  0 11  0  4  3  3  2  5  0  1  0 16
  2  9  2  0  3  1  4  2  9  3  0 16  2 17 15  0  0  2  1  0 18  1  2 22
  4 21 21 17 25 10 21]"
24600,315.0,0.90625,4,1,86.09026718139648,3.440582752227783,24586,98400,1224894,5826982,"[ 1  3  2  5  0  1  3  3  2  5  0  2  1  1  0  0  1  1  0  0  3  3  0  7
  4  8  5  2  5  0  5  2  9  2  8  2  0 11  0  4  3  3  2  5  0  1  0 16
  2  9  2  0  3  1  4  2  9  3  0 16  2 17 15  0  0  2  1  0 18  1  2 22
  4 21 21 17 25 10 21]"
24700,315.0,0.90625,4,1,86.42785501480103,3.3758544921875,24686,98800,1229813,5849476,"[ 1  3  2  5  0  1  3  3  2  5  0  2  1  1  0  0  1  1  0  0  3  3  0  7
  4  8  5  2  5  0  5  2  9  2  8  2  0 11  0  4  3  3  2  5  0  1  0 16
  2  9  2  0  3  1  4  2  9  3  0 16  2 17 15  0  0  2  1  0 18  1  2 22
  4 21 21 17 25 10 21]"
24800,315.0,0.90625,4,1,86.76798892021179,3.401308059692383,24786,99200,1234717,5872095,"[ 1  3  2  5  0  1  3  3  2  5  0  2  1  1  0  0  1  1  0  0  3  3  0  7
  4  8  5  2  5  0  5  2  9  2  8  2  0 11  0  4  3  3  2  5  0  1  0 16
  2  9  2  0  3  1  4  2  9  3  0 16  2 17 15  0  0  2  1  0 18  1  2 22
  4 21 21 17 25 10 21]"
24900,315.0,0.90625,4,1,87.10145878791809,3.334670066833496,24886,99600,1239591,5894188,"[ 1  3  2  5  0  1  3  3  2  5  0  2  1  1  0  0  1  1  0  0  3  3  0  7
  4  8  5  2  5  0  5  2  9  2  8  2  0 11  0  4  3  3  2  5  0  1  0 16
  2  9  2  0  3  1  4  2  9  3  0 16  2 17 15  0  0  2  1  0 18  1  2 22
  4 21 21 17 25 10 21]"
25000,315.0,0.90625,4,1,87.44340205192566,3.4193992614746094,24986,100000,1244521,5917150,"[ 1  3  2  5  0  1  3  3  2  5  0  2  1  1  0  0  1  1  0  0  3  3  0  7
  4  8  5  2  5  0  5  2  9  2  8  2  0 11  0  4  3  3  2  5  0  1  0 16
  2  9  2  0  3  1  4  2  9  3  0 16  2 17 15  0  0  2  1  0 18  1  2 22
  4 21 21 17 25 10 21]"
25100,315.0,0.90625,4,1,87.77843236923218,3.3502745628356934,25086,100400,1249442,5939702,"[ 1  3  2  5  0  1  3  3  2  5  0  2  1  1  0  0  1  1  0  0  3  3  0  7
  4  8  5  2  5  0  5  2  9  2  8  2  0 11  0  4  3  3  2  5  0  1  0 16
  2  9  2  0  3  1  4  2  9  3  0 16  2 17 15  0  0  2  1  0 18  1  2 22
  4 21 21 17 25 10 21]"
25200,315.0,0.90625,4,1,88.11136317253113,3.3292794227600098,25186,100800,1254328,5961809,"[ 1  3  2  5  0  1  3  3  2  5  0  2  1  1  0  0  1  1  0  0  3  3  0  7
  4  8  5  2  5  0  5  2  9  2  8  2  0 11  0  4  3  3  2  5  0  1  0 16
  2  9  2  0  3  1  4  2  9  3  0 16  2 17 15  0  0  2  1  0 18  1  2 22
  4 21 21 17 25 10 21]"
25300,315.0,0.90625,4,1,88.44293093681335,3.3156466484069824,25286,101200,1259136,5983780,"[ 1  3  2  5  0  1  3  3  2  5  0  2  1  1  0  0  1  1  0  0  3  3  0  7
  4  8  5  2  5  0  5  2  9  2  8  2  0 11  0  4  3  3  2  5  0  1  0 16
  2  9  2  0  3  1  4  2  9  3  0 16  2 17 15  0  0  2  1  0 18  1  2 22
  4 21 21 17 25 10 21]"
25400,315.0,0.90625,4,1,88.77415084838867,3.3121728897094727,25386,101600,1263961,6005574,"[ 1  3  2  5  0  1  3  3  2  5  0  2  1  1  0  0  1  1  0  0  3  3  0  7
  4  8  5  2  5  0  5  2  9  2  8  2  0 11  0  4  3  3  2  5  0  1  0 16
  2  9  2  0  3  1  4  2  9  3  0 16  2 17 15  0  0  2  1  0 18  1  2 22
  4 21 21 17 25 10 21]"
25500,315.0,0.90625,4,1,89.12387728691101,3.4972405433654785,25486,102000,1268887,6028665,"[ 1  3  2  5  0  1  3  3  2  5  0  2  1  1  0  0  1  1  0  0  3  3  0  7
  4  8  5  2  5  0  5  2  9  2  8  2  0 11  0  4  3  3  2  5  0  1  0 16
  2  9  2  0  3  1  4  2  9  3  0 16  2 17 15  0  0  2  1  0 18  1  2 22
  4 21 21 17 25 10 21]"
25600,315.0,0.90625,4,1,89.46622610092163,3.423464298248291,25586,102400,1273793,6051826,"[ 1  3  2  5  0  1  3  3  2  5  0  2  1  1  0  0  1  1  0  0  3  3  0  7
  4  8  5  2  5  0  5  2  9  2  8  2  0 11  0  4  3  3  2  5  0  1  0 16
  2  9  2  0  3  1  4  2  9  3  0 16  2 17 15  0  0  2  1  0 18  1  2 22
  4 21 21 17 25 10 21]"
25700,315.0,0.90625,4,1,89.80324172973633,3.3701276779174805,25686,102800,1278616,6074528,"[ 1  3  2  5  0  1  3  3  2  5  0  2  1  1  0  0  1  1  0  0  3  3  0  7
  4  8  5  2  5  0  5  2  9  2  8  2  0 11  0  4  3  3  2  5  0  1  0 16
  2  9  2  0  3  1  4  2  9  3  0 16  2 17 15  0  0  2  1  0 18  1  2 22
  4 21 21 17 25 10 21]"
25800,315.0,0.90625,4,1,90.13750171661377,3.342568874359131,25786,103200,1283439,6096974,"[ 1  3  2  5  0  1  3  3  2  5  0  2  1  1  0  0  1  1  0  0  3  3  0  7
  4  8  5  2  5  0  5  2  9  2  8  2  0 11  0  4  3  3  2  5  0  1  0 16
  2  9  2  0  3  1  4  2  9  3  0 16  2 17 15  0  0  2  1  0 18  1  2 22
  4 21 21 17 25 10 21]"
25900,315.0,0.90625,4,1,90.47435069084167,3.3684587478637695,25886,103600,1288274,6119345,"[ 1  3  2  5  0  1  3  3  2  5  0  2  1  1  0  0  1  1  0  0  3  3  0  7
  4  8  5  2  5  0  5  2  9  2  8  2  0 11  0  4  3  3  2  5  0  1  0 16
  2  9  2  0  3  1  4  2  9  3  0 16  2 17 15  0  0  2  1  0 18  1  2 22
  4 21 21 17 25 10 21]"
26000,315.0,0.90625,4,1,90.8057188987732,3.3136558532714844,25986,104000,1293064,6141434,"[ 1  3  2  5  0  1  3  3  2  5  0  2  1  1  0  0  1  1  0  0  3  3  0  7
  4  8  5  2  5  0  5  2  9  2  8  2  0 11  0  4  3  3  2  5  0  1  0 16
  2  9  2  0  3  1  4  2  9  3  0 16  2 17 15  0  0  2  1  0 18  1  2 22
  4 21 21 17 25 10 21]"
26100,315.0,0.90625,4,1,91.14218783378601,3.3646583557128906,26086,104400,1297996,6163929,"[ 1  3  2  5  0  1  3  3  2  5  0  2  1  1  0  0  1  1  0  0  3  3  0  7
  4  8  5  2  5  0  5  2  9  2  8  2  0 11  0  4  3  3  2  5  0  1  0 16
  2  9  2  0  3  1  4  2  9  3  0 16  2 17 15  0  0  2  1  0 18  1  2 22
  4 21 21 17 25 10 21]"
26200,315.0,0.90625,4,1,91.47517991065979,3.3298897743225098,26186,104800,1302831,6186130,"[ 1  3  2  5  0  1  3  3  2  5  0  2  1  1  0  0  1  1  0  0  3  3  0  7
  4  8  5  2  5  0  5  2  9  2  8  2  0 11  0  4  3  3  2  5  0  1  0 16
  2  9  2  0  3  1  4  2  9  3  0 16  2 17 15  0  0  2  1  0 18  1  2 22
  4 21 21 17 25 10 21]"
26300,315.0,0.90625,4,1,91.81004691123962,3.3486437797546387,26286,105200,1307734,6208502,"[ 1  3  2  5  0  1  3  3  2  5  0  2  1  1  0  0  1  1  0  0  3  3  0  7
  4  8  5  2  5  0  5  2  9  2  8  2  0 11  0  4  3  3  2  5  0  1  0 16
  2  9  2  0  3  1  4  2  9  3  0 16  2 17 15  0  0  2  1  0 18  1  2 22
  4 21 21 17 25 10 21]"
26400,315.0,0.90625,4,1,92.15343761444092,3.4338808059692383,26386,105600,1312608,6231622,"[ 1  3  2  5  0  1  3  3  2  5  0  2  1  1  0  0  1  1  0  0  3  3  0  7
  4  8  5  2  5  0  5  2  9  2  8  2  0 11  0  4  3  3  2  5  0  1  0 16
  2  9  2  0  3  1  4  2  9  3  0 16  2 17 15  0  0  2  1  0 18  1  2 22
  4 21 21 17 25 10 21]"
26500,315.0,0.90625,4,1,92.49581861495972,3.423783779144287,26486,106000,1317457,6254189,"[ 1  3  2  5  0  1  3  3  2  5  0  2  1  1  0  0  1  1  0  0  3  3  0  7
  4  8  5  2  5  0  5  2  9  2  8  2  0 11  0  4  3  3  2  5  0  1  0 16
  2  9  2  0  3  1  4  2  9  3  0 16  2 17 15  0  0  2  1  0 18  1  2 22
  4 21 21 17 25 10 21]"
26600,315.0,0.90625,4,1,92.83979511260986,3.4397387504577637,26586,106400,1322451,6276995,"[ 1  3  2  5  0  1  3  3  2  5  0  2  1  1  0  0  1  1  0  0  3  3  0  7
  4  8  5  2  5  0  5  2  9  2  8  2  0 11  0  4  3  3  2  5  0  1  0 16
  2  9  2  0  3  1  4  2  9  3  0 16  2 17 15  0  0  2  1  0 18  1  2 22
  4 21 21 17 25 10 21]"
26700,315.0,0.90625,4,1,93.1750590801239,3.3526110649108887,26686,106800,1327322,6299244,"[ 1  3  2  5  0  1  3  3  2  5  0  2  1  1  0  0  1  1  0  0  3  3  0  7
  4  8  5  2  5  0  5  2  9  2  8  2  0 11  0  4  3  3  2  5  0  1  0 16
  2  9  2  0  3  1  4  2  9  3  0 16  2 17 15  0  0  2  1  0 18  1  2 22
  4 21 21 17 25 10 21]"
26800,315.0,0.90625,4,1,93.50958561897278,3.3452343940734863,26786,107200,1332125,6321562,"[ 1  3  2  5  0  1  3  3  2  5  0  2  1  1  0  0  1  1  0  0  3  3  0  7
  4  8  5  2  5  0  5  2  9  2  8  2  0 11  0  4  3  3  2  5  0  1  0 16
  2  9  2  0  3  1  4  2  9  3  0 16  2 17 15  0  0  2  1  0 18  1  2 22
  4 21 21 17 25 10 21]"
26900,315.0,0.90625,4,1,93.84874558448792,3.391573429107666,26886,107600,1337027,6344134,"[ 1  3  2  5  0  1  3  3  2  5  0  2  1  1  0  0  1  1  0  0  3  3  0  7
  4  8  5  2  5  0  5  2  9  2  8  2  0 11  0  4  3  3  2  5  0  1  0 16
  2  9  2  0  3  1  4  2  9  3  0 16  2 17 15  0  0  2  1  0 18  1  2 22
  4 21 21 17 25 10 21]"
27000,315.0,0.90625,4,1,94.19028782844543,3.415391445159912,26986,108000,1341964,6366882,"[ 1  3  2  5  0  1  3  3  2  5  0  2  1  1  0  0  1  1  0  0  3  3  0  7
  4  8  5  2  5  0  5  2  9  2  8  2  0 11  0  4  3  3  2  5  0  1  0 16
  2  9  2  0  3  1  4  2  9  3  0 16  2 17 15  0  0  2  1  0 18  1  2 22
  4 21 21 17 25 10 21]"
27100,315.0,0.90625,4,1,94.53465294837952,3.443617820739746,27086,108400,1346899,6389542,"[ 1  3  2  5  0  1  3  3  2  5  0  2  1  1  0  0  1  1  0  0  3  3  0  7
  4  8  5  2  5  0  5  2  9  2  8  2  0 11  0  4  3  3  2  5  0  1  0 16
  2  9  2  0  3  1  4  2  9  3  0 16  2 17 15  0  0  2  1  0 18  1  2 22
  4 21 21 17 25 10 21]"
27200,315.0,0.90625,4,1,94.86869025230408,3.3403444290161133,27186,108800,1351682,6411639,"[ 1  3  2  5  0  1  3  3  2  5  0  2  1  1  0  0  1  1  0  0  3  3  0  7
  4  8  5  2  5  0  5  2  9  2  8  2  0 11  0  4  3  3  2  5  0  1  0 16
  2  9  2  0  3  1  4  2  9  3  0 16  2 17 15  0  0  2  1  0 18  1  2 22
  4 21 21 17 25 10 21]"
27300,315.0,0.90625,4,1,95.20382237434387,3.351292610168457,27286,109200,1356574,6433748,"[ 1  3  2  5  0  1  3  3  2  5  0  2  1  1  0  0  1  1  0  0  3  3  0  7
  4  8  5  2  5  0  5  2  9  2  8  2  0 11  0  4  3  3  2  5  0  1  0 16
  2  9  2  0  3  1  4  2  9  3  0 16  2 17 15  0  0  2  1  0 18  1  2 22
  4 21 21 17 25 10 21]"
27400,315.0,0.90625,4,1,95.54137253761292,3.3754730224609375,27386,109600,1361491,6456255,"[ 1  3  2  5  0  1  3  3  2  5  0  2  1  1  0  0  1  1  0  0  3  3  0  7
  4  8  5  2  5  0  5  2  9  2  8  2  0 11  0  4  3  3  2  5  0  1  0 16
  2  9  2  0  3  1  4  2  9  3  0 16  2 17 15  0  0  2  1  0 18  1  2 22
  4 21 21 17 25 10 21]"
27500,315.0,0.90625,4,1,95.86848330497742,3.2710766792297363,27486,110000,1366292,6477993,"[ 1  3  2  5  0  1  3  3  2  5  0  2  1  1  0  0  1  1  0  0  3  3  0  7
  4  8  5  2  5  0  5  2  9  2  8  2  0 11  0  4  3  3  2  5  0  1  0 16
  2  9  2  0  3  1  4  2  9  3  0 16  2 17 15  0  0  2  1  0 18  1  2 22
  4 21 21 17 25 10 21]"
27600,315.0,0.90625,4,1,96.205806016922,3.3731961250305176,27586,110400,1371209,6500338,"[ 1  3  2  5  0  1  3  3  2  5  0  2  1  1  0  0  1  1  0  0  3  3  0  7
  4  8  5  2  5  0  5  2  9  2  8  2  0 11  0  4  3  3  2  5  0  1  0 16
  2  9  2  0  3  1  4  2  9  3  0 16  2 17 15  0  0  2  1  0 18  1  2 22
  4 21 21 17 25 10 21]"
27700,315.0,0.90625,4,1,96.54458022117615,3.3877134323120117,27686,110800,1376093,6522728,"[ 1  3  2  5  0  1  3  3  2  5  0  2  1  1  0  0  1  1  0  0  3  3  0  7
  4  8  5  2  5  0  5  2  9  2  8  2  0 11  0  4  3  3  2  5  0  1  0 16
  2  9  2  0  3  1  4  2  9  3  0 16  2 17 15  0  0  2  1  0 18  1  2 22
  4 21 21 17 25 10 21]"
27800,315.0,0.90625,4,1,96.88285541534424,3.382718563079834,27786,111200,1381023,6545026,"[ 1  3  2  5  0  1  3  3  2  5  0  2  1  1  0  0  1  1  0  0  3  3  0  7
  4  8  5  2  5  0  5  2  9  2  8  2  0 11  0  4  3  3  2  5  0  1  0 16
  2  9  2  0  3  1  4  2  9  3  0 16  2 17 15  0  0  2  1  0 18  1  2 22
  4 21 21 17 25 10 21]"
27900,315.0,0.90625,4,1,97.21616649627686,3.3330821990966797,27886,111600,1385865,6567281,"[ 1  3  2  5  0  1  3  3  2  5  0  2  1  1  0  0  1  1  0  0  3  3  0  7
  4  8  5  2  5  0  5  2  9  2  8  2  0 11  0  4  3  3  2  5  0  1  0 16
  2  9  2  0  3  1  4  2  9  3  0 16  2 17 15  0  0  2  1  0 18  1  2 22
  4 21 21 17 25 10 21]"
28000,315.0,0.90625,4,1,97.55533862113953,3.391692638397217,27986,112000,1390774,6589909,"[ 1  3  2  5  0  1  3  3  2  5  0  2  1  1  0  0  1  1  0  0  3  3  0  7
  4  8  5  2  5  0  5  2  9  2  8  2  0 11  0  4  3  3  2  5  0  1  0 16
  2  9  2  0  3  1  4  2  9  3  0 16  2 17 15  0  0  2  1  0 18  1  2 22
  4 21 21 17 25 10 21]"
28100,315.0,0.90625,4,1,97.88806080818176,3.327193260192871,28086,112400,1395586,6611928,"[ 1  3  2  5  0  1  3  3  2  5  0  2  1  1  0  0  1  1  0  0  3  3  0  7
  4  8  5  2  5  0  5  2  9  2  8  2  0 11  0  4  3  3  2  5  0  1  0 16
  2  9  2  0  3  1  4  2  9  3  0 16  2 17 15  0  0  2  1  0 18  1  2 22
  4 21 21 17 25 10 21]"
28200,315.0,0.90625,4,1,98.21667647361755,3.286125659942627,28186,112800,1400426,6633527,"[ 1  3  2  5  0  1  3  3  2  5  0  2  1  1  0  0  1  1  0  0  3  3  0  7
  4  8  5  2  5  0  5  2  9  2  8  2  0 11  0  4  3  3  2  5  0  1  0 16
  2  9  2  0  3  1  4  2  9  3  0 16  2 17 15  0  0  2  1  0 18  1  2 22
  4 21 21 17 25 10 21]"
28300,315.0,0.90625,4,1,98.55757689476013,3.40897798538208,28286,113200,1405278,6655752,"[ 1  3  2  5  0  1  3  3  2  5  0  2  1  1  0  0  1  1  0  0  3  3  0  7
  4  8  5  2  5  0  5  2  9  2  8  2  0 11  0  4  3  3  2  5  0  1  0 16
  2  9  2  0  3  1  4  2  9  3  0 16  2 17 15  0  0  2  1  0 18  1  2 22
  4 21 21 17 25 10 21]"
28400,315.0,0.90625,4,1,98.8957166671753,3.381364345550537,28386,113600,1410120,6677910,"[ 1  3  2  5  0  1  3  3  2  5  0  2  1  1  0  0  1  1  0  0  3  3  0  7
  4  8  5  2  5  0  5  2  9  2  8  2  0 11  0  4  3  3  2  5  0  1  0 16
  2  9  2  0  3  1  4  2  9  3  0 16  2 17 15  0  0  2  1  0 18  1  2 22
  4 21 21 17 25 10 21]"
28500,315.0,0.90625,4,1,99.22939848899841,3.336789608001709,28486,114000,1415000,6700041,"[ 1  3  2  5  0  1  3  3  2  5  0  2  1  1  0  0  1  1  0  0  3  3  0  7
  4  8  5  2  5  0  5  2  9  2  8  2  0 11  0  4  3  3  2  5  0  1  0 16
  2  9  2  0  3  1  4  2  9  3  0 16  2 17 15  0  0  2  1  0 18  1  2 22
  4 21 21 17 25 10 21]"
28600,315.0,0.90625,4,1,99.57164359092712,3.422420024871826,28586,114400,1419932,6722767,"[ 1  3  2  5  0  1  3  3  2  5  0  2  1  1  0  0  1  1  0  0  3  3  0  7
  4  8  5  2  5  0  5  2  9  2  8  2  0 11  0  4  3  3  2  5  0  1  0 16
  2  9  2  0  3  1  4  2  9  3  0 16  2 17 15  0  0  2  1  0 18  1  2 22
  4 21 21 17 25 10 21]"
28700,315.0,0.90625,4,1,99.9141743183136,3.425281047821045,28686,114800,1424870,6745815,"[ 1  3  2  5  0  1  3  3  2  5  0  2  1  1  0  0  1  1  0  0  3  3  0  7
  4  8  5  2  5  0  5  2  9  2  8  2  0 11  0  4  3  3  2  5  0  1  0 16
  2  9  2  0  3  1  4  2  9  3  0 16  2 17 15  0  0  2  1  0 18  1  2 22
  4 21 21 17 25 10 21]"
28800,315.0,0.90625,4,1,100.25517535209656,3.4099769592285156,28786,115200,1429826,6768433,"[ 1  3  2  5  0  1  3  3  2  5  0  2  1  1  0  0  1  1  0  0  3  3  0  7
  4  8  5  2  5  0  5  2  9  2  8  2  0 11  0  4  3  3  2  5  0  1  0 16
  2  9  2  0  3  1  4  2  9  3  0 16  2 17 15  0  0  2  1  0 18  1  2 22
  4 21 21 17 25 10 21]"
28900,315.0,0.90625,4,1,100.59990501403809,3.447268009185791,28886,115600,1434837,6791481,"[ 1  3  2  5  0  1  3  3  2  5  0  2  1  1  0  0  1  1  0  0  3  3  0  7
  4  8  5  2  5  0  5  2  9  2  8  2  0 11  0  4  3  3  2  5  0  1  0 16
  2  9  2  0  3  1  4  2  9  3  0 16  2 17 15  0  0  2  1  0 18  1  2 22
  4 21 21 17 25 10 21]"
29000,315.0,0.90625,4,1,100.93829131126404,3.3838272094726562,28986,116000,1439758,6814320,"[ 1  3  2  5  0  1  3  3  2  5  0  2  1  1  0  0  1  1  0  0  3  3  0  7
  4  8  5  2  5  0  5  2  9  2  8  2  0 11  0  4  3  3  2  5  0  1  0 16
  2  9  2  0  3  1  4  2  9  3  0 16  2 17 15  0  0  2  1  0 18  1  2 22
  4 21 21 17 25 10 21]"
29100,315.0,0.90625,4,1,101.286630153656,3.4833598136901855,29086,116400,1444817,6837768,"[ 1  3  2  5  0  1  3  3  2  5  0  2  1  1  0  0  1  1  0  0  3  3  0  7
  4  8  5  2  5  0  5  2  9  2  8  2  0 11  0  4  3  3  2  5  0  1  0 16
  2  9  2  0  3  1  4  2  9  3  0 16  2 17 15  0  0  2  1  0 18  1  2 22
  4 21 21 17 25 10 21]"
29200,315.0,0.90625,4,1,101.62021923065186,3.335862159729004,29186,116800,1449616,6860013,"[ 1  3  2  5  0  1  3  3  2  5  0  2  1  1  0  0  1  1  0  0  3  3  0  7
  4  8  5  2  5  0  5  2  9  2  8  2  0 11  0  4  3  3  2  5  0  1  0 16
  2  9  2  0  3  1  4  2  9  3  0 16  2 17 15  0  0  2  1  0 18  1  2 22
  4 21 21 17 25 10 21]"
29300,315.0,0.90625,4,1,101.96146655082703,3.412446975708008,29286,117200,1454467,6882607,"[ 1  3  2  5  0  1  3  3  2  5  0  2  1  1  0  0  1  1  0  0  3  3  0  7
  4  8  5  2  5  0  5  2  9  2  8  2  0 11  0  4  3  3  2  5  0  1  0 16
  2  9  2  0  3  1  4  2  9  3  0 16  2 17 15  0  0  2  1  0 18  1  2 22
  4 21 21 17 25 10 21]"
29400,315.0,0.90625,4,1,102.30194854736328,3.4047913551330566,29386,117600,1459329,6905380,"[ 1  3  2  5  0  1  3  3  2  5  0  2  1  1  0  0  1  1  0  0  3  3  0  7
  4  8  5  2  5  0  5  2  9  2  8  2  0 11  0  4  3  3  2  5  0  1  0 16
  2  9  2  0  3  1  4  2  9  3  0 16  2 17 15  0  0  2  1  0 18  1  2 22
  4 21 21 17 25 10 21]"
29500,315.0,0.90625,4,1,102.64745736122131,3.455057144165039,29486,118000,1464336,6928379,"[ 1  3  2  5  0  1  3  3  2  5  0  2  1  1  0  0  1  1  0  0  3  3  0  7
  4  8  5  2  5  0  5  2  9  2  8  2  0 11  0  4  3  3  2  5  0  1  0 16
  2  9  2  0  3  1  4  2  9  3  0 16  2 17 15  0  0  2  1  0 18  1  2 22
  4 21 21 17 25 10 21]"
29600,315.0,0.90625,4,1,102.97836112976074,3.309009075164795,29586,118400,1469159,6950239,"[ 1  3  2  5  0  1  3  3  2  5  0  2  1  1  0  0  1  1  0  0  3  3  0  7
  4  8  5  2  5  0  5  2  9  2  8  2  0 11  0  4  3  3  2  5  0  1  0 16
  2  9  2  0  3  1  4  2  9  3  0 16  2 17 15  0  0  2  1  0 18  1  2 22
  4 21 21 17 25 10 21]"
29700,315.0,0.90625,4,1,103.3191237449646,3.407597541809082,29686,118800,1474162,6973000,"[ 1  3  2  5  0  1  3  3  2  5  0  2  1  1  0  0  1  1  0  0  3  3  0  7
  4  8  5  2  5  0  5  2  9  2  8  2  0 11  0  4  3  3  2  5  0  1  0 16
  2  9  2  0  3  1  4  2  9  3  0 16  2 17 15  0  0  2  1  0 18  1  2 22
  4 21 21 17 25 10 21]"
29800,315.0,0.90625,4,1,103.65275621414185,3.3362960815429688,29786,119200,1479002,6995152,"[ 1  3  2  5  0  1  3  3  2  5  0  2  1  1  0  0  1  1  0  0  3  3  0  7
  4  8  5  2  5  0  5  2  9  2  8  2  0 11  0  4  3  3  2  5  0  1  0 16
  2  9  2  0  3  1  4  2  9  3  0 16  2 17 15  0  0  2  1  0 18  1  2 22
  4 21 21 17 25 10 21]"
29900,315.0,0.90625,4,1,103.99337148666382,3.4061241149902344,29886,119600,1483872,7017895,"[ 1  3  2  5  0  1  3  3  2  5  0  2  1  1  0  0  1  1  0  0  3  3  0  7
  4  8  5  2  5  0  5  2  9  2  8  2  0 11  0  4  3  3  2  5  0  1  0 16
  2  9  2  0  3  1  4  2  9  3  0 16  2 17 15  0  0  2  1  0 18  1  2 22
  4 21 21 17 25 10 21]"
30000,315.0,0.90625,4,1,104.33296871185303,3.3959436416625977,29986,120000,1488777,7040805,"[ 1  3  2  5  0  1  3  3  2  5  0  2  1  1  0  0  1  1  0  0  3  3  0  7
  4  8  5  2  5  0  5  2  9  2  8  2  0 11  0  4  3  3  2  5  0  1  0 16
  2  9  2  0  3  1  4  2  9  3  0 16  2 17 15  0  0  2  1  0 18  1  2 22
  4 21 21 17 25 10 21]"
