generation,fitness,functionality,active_nodes,longest_path,time,gen_time,nc_gens,fitness_evals,graph_evals,node_evals,genotype
0,198.0,0.5625,9,3,0.006610870361328125,6.608009338378906,0,0,0,0,"[ 0  3  1  4  1  1  5  0  1  3  0  2  4  0  0  3  0  7  2  2  8  1  5  8
  2  2  8  0  3  8  4  1 13  2  6  3  4  1  3  3  8  4  2  0 12  5  0 15
  4 11 16  4  0 15  2 15 13  0  2 14  5 19 19  3  0 15  4 22  1  0 22 14
  0 23 20 22 11  9 13]"
100,314.0,0.90625,4,2,0.8782303333282471,8.716111183166504,18,800,10770,50622,"[ 0  3  1  0  2  2  2  2  2  0  2  1  4  3  0  2  0  8  0  0  0  3  1  7
  0  0  2  2  7  0  0 11 13  1  2 11  3  2  9  5  3  6  5 12 10  5 10 17
  0 16 13  0 12  3  2 14 16  3 11  0  5 16  1  4 18  1  3 16  2  1 22 23
  4 21 22 21 12  7  4]"
200,314.0,0.90625,4,2,1.711160659790039,8.32927942276001,50,1600,21309,97247,"[ 0  3  1  4  2  2  5  3  2  0  2  1  2  1  0  1  1  3  5  5  4  5  5  7
  0  0  2  2  6  3  0  8  8  5  5  3  3  2  0  3  7 13  3  0  9  0 16 17
  2 14  2  0 12  1  1  9 17  4 12 10  0 15  1  2  1 22  3 20  1  0 20 17
  2 19 15 21 12  7  4]"
300,315.0,0.90625,4,1,2.519665479660034,8.08502197265625,78,2400,31641,141403,"[ 0  3  1  4  2  2  1  0  1  0  2  1  2  3  2  5  6  3  3  0  7  3  6  3
  0  0  2  5  3  4  2  4  7  3  2  4  4  4  4  4  9  0  0  7  6  0  2 14
  0 15  0  5  9 14  1 15  9  4  0  0  4  0 19  0 15  0  4 21 22  3  3 18
  1 20 20  5 12  7  4]"
400,315.0,0.90625,4,1,3.3474066257476807,8.277385234832764,97,3200,42069,185815,"[ 0  3  1  4  2  2  5  0  1  0  2  1  1  1  0  2  8  8  2  8  3  4  5  3
  0  0  2  0  4  3  1  4  5  0 10  2  3  1  8  0 11 13  0 11  5  3 15 14
  5  9 18  4 17 15  2 11 14  1 12 15  5 18 23  5 20 21  4 21 21  4 19 17
  3 17 19  5 12  7  4]"
500,315.0,0.90625,4,1,4.150805950164795,8.033971786499023,121,4000,52447,230075,"[ 0  3  1  2  0  1  5  3  1  0  2  1  1  1  3  4  3  3  2  1  4  0  0  4
  0  0  2  2  1  1  4  7  3  4  4  3  5  0  0  0 12 13  4  0 10  4  2  2
  3  0  0  2 13 16  0  9 10  0 10 18  1  2 19  3 21  0  3 20  0  5  0  3
  4 14 17 19 12  7  4]"
600,315.0,0.90625,4,1,4.953364610671997,8.025562763214111,153,4800,62769,273361,"[ 0  3  1  4  0  0  5  2  1  0  2  1  1  3  1  2  1  1  3  4  7  1  6  8
  0  0  2  4  1  3  4  6  2  2  4  6  5  9  7  0  4  9  2  1  0  1 18  3
  3 17 12  5  2  1  3 15 15  0 10 15  1  2  3  1 22 17  0  1 18  1 18  3
  5 17 14  5 12  7  4]"
700,332.0,0.96875,6,2,5.778803110122681,8.254363536834717,175,5600,71876,323607,"[ 0  3  1  4  0  0  0  0  3  0  2  1  3  3  0  0  5  4  4  7  6  4  7  4
  0  0  2  3  8  8  0 10  4  5 10  4  3 10  6  1  4  8  2  5  3  4 11 18
  1  1 11  2 13  3  4 12 12  0  0 18  1 23 18  0 16  2  0 14 23  0 17 14
  5 14  2  5 12 10  4]"
800,332.0,0.96875,6,2,6.55629825592041,7.774925231933594,201,6400,79873,370972,"[ 0  3  1  4  0  0  0  0  3  0  2  1  3  2  0  0  0  1  4  7  6  1  7  1
  0  0  2  0  5  2  1  1 12  0 11  1  4 13 12  3  9  4  0  2  8  2 10 12
  2 17  3  3 12 12  3 11  0  5  0 13  4  0 19  5  2 21  2 16 21  5 19 18
  5 18  1  5 12 10  4]"
900,337.0,0.984375,6,2,7.274951696395874,7.1865105628967285,224,7200,87084,413866,"[ 0  3  1  2  1  0  0  0  3  0  2  1  1  0  2  0  6  7  4  7  6  0  1  0
  0  0  2  2  3  6  3 13  0  3 11 12  3 13  4  3 12  2  3 13  9  1 14 13
  2  0  9  3 15 14  3  3  2  5  0 10  5 15  0  0  2 14  3 17 15  3  2 23
  5 23 16  9 12 10  4]"
1000,337.0,0.984375,6,2,7.930896282196045,6.55942440032959,252,8000,93249,451626,"[ 0  3  1  1  0  3  0  0  3  0  2  1  5  2  1  0  6  7  4  7  6  0  8  5
  0  0  2  4  4  1  0  0  3  2  7  6  1  7  7  2  0  8  3  3 11  4 18 18
  0  9 13  3 17 12  3  3  3  2 18  2  2 20 23  2  3 16  0 22 16  2  0  2
  5  1 15  9 12 10  4]"
1100,337.0,0.984375,6,2,8.578808307647705,6.479096412658691,277,8800,99478,489235,"[ 0  3  1  4  0  2  0  0  3  0  2  1  4  0  3  0  6  7  4  7  6  4  7  2
  0  0  2  5  3  1  0  2  9  4  6  2  2  2 11  0 12  4  1 10  0  3 17 18
  3  0 17  5  2 10  1 12 11  0 11 12  3 23 22  1 21 14  5 20 20  0 23  2
  2 16 23  9 12 10  4]"
1200,337.0,0.984375,6,2,9.244215965270996,6.654057502746582,304,9600,105850,528218,"[ 0  3  1  4  3  0  0  0  3  0  2  1  4  1  1  0  6  7  4  7  6  2  2  2
  0  0  2  2  6  2  5  2  8  4  4  5  0  3  1  1  4  6  2  3  9  1  9  0
  1 14  9  0 11 17  0 18 14  0 15 15  1  3 14  1 21 22  1 14 18  1 14 20
  2 19  3  9 12 10  4]"
1300,337.0,0.984375,6,2,9.915972471237183,6.717538833618164,335,10400,112325,567629,"[ 0  3  1  4  0  2  0  0  3  0  2  1  4  0  1  0  6  7  4  7  6  0  4  7
  0  0  2  4  8  5  2 10 13  3 11  4  3  0 13  1  4  1  2  1  9  0 17  3
  1 15 14  5  0  9  1 18 11  4  3 10  3  0  0  4 16 14  5  0 15  0 23 21
  4 17 23  9 12 10  4]"
1400,337.0,0.984375,6,2,10.572180986404419,6.562061309814453,365,11200,118472,605142,"[ 0  3  1  2  1  2  0  0  3  0  2  1  3  3  1  0  6  7  4  7  6  1  4  6
  0  0  2  2  3  7  0  8 10  5 13  1  3  3 13  4  3 13  3 11 11  5  2 14
  1 14 13  4 11 11  3  2 14  0 18 10  3 16  0  1 15 15  0 23 20  0  0 22
  2 20  1  9 12 10  4]"
1500,337.0,0.984375,6,2,11.293315649032593,7.211322784423828,393,12000,124789,643515,"[ 0  3  1  0  2  3  0  0  3  0  2  1  1  3  1  0  6  7  4  7  6  3  6  5
  0  0  2  5  8  1  2  3  3  5  4  5  1  0  0  1  3  2  0 12 13  3  9  9
  5 14  9  4 17 12  0 18 11  0 15 13  0  1 20  0 14 19  2 21 21  4  3 22
  0 16 19  9 12 10  4]"
1600,337.0,0.984375,6,2,11.961315393447876,6.679973602294922,419,12800,131272,682828,"[ 0  3  1  4  3  2  0  0  3  0  2  1  5  2  2  0  6  7  4  7  6  5  2  7
  0  0  2  5  4  8  3  4  6  1 12 11  1 11  4  4  5 11  1 12  6  1  9  1
  2 12 14  2  9 17  5 15 15  3 11 14  0 14 14  3 17 18  0 20 20  4 20 22
  5  2 15  9 12 10  4]"
1700,337.0,0.984375,6,2,12.620827198028564,6.595094203948975,450,13600,137680,721534,"[ 0  3  1  4  2  0  0  0  3  0  2  1  1  1  1  0  6  7  4  7  6  5  8  2
  0  0  2  2  1  2  4  0  2  2  9 10  1 13 12  0  5 13  1  8  2  5 13  2
  1 13 11  3 17 12  1 12 12  2 16 15  4 20 14  3 15 16  2  0 23  5 23 21
  1 17 15  9 12 10  4]"
1800,337.0,0.984375,6,2,13.27658987045288,6.557605266571045,480,14400,143957,759843,"[ 0  3  1  3  2  3  0  0  3  0  2  1  5  2  2  0  6  7  4  7  6  2  8  6
  0  0  2  4  0  8  2  0  3  1  5 10  5  6 10  0  5  6  0 12  9  1 13 17
  4 13  0  4 10  9  5 11 10  1  1 15  3 20 16  3 15 18  2 16 16  3 23 22
  1 17 15  9 12 10  4]"
1900,337.0,0.984375,6,2,13.933661699295044,6.570696830749512,508,15200,150281,798572,"[ 0  3  2  1  0  0  0  0  3  0  2  1  4  1  3  0  6  7  4  7  6  5  6  6
  0  0  2  4  4  8  1  0  0  4  4 11  0 11  7  5  0  8  3  2  7  2 16 15
  4  3 11  4 10 17  3 15 15  5 12 14  0  1  3  3 23 20  0 15 19  3 14 16
  1 22 15  9 12 10 24]"
2000,337.0,0.984375,6,2,14.636382102966309,7.02716588973999,540,16000,156298,835917,"[ 2  3  3  1  0  0  0  0  3  0  2  1  0  0  2  0  6  7  4  7  6  0  8  5
  0  0  2  4  8  6  5  3  8  2  1  0  0 12  9  1  1  9  3  0 12  0 13 11
  2 13  0  5 18 16  5 12  1  3 11  2  0  1  3  3 21 23  3  0 19  4 17 15
  1 17 15  9 12 10 24]"
2100,337.0,0.984375,6,2,15.342140197753906,7.057554721832275,568,16800,162487,874179,"[ 0  3  1  4  1  2  0  0  3  0  2  1  0  3  3  0  6  7  4  7  6  4  6  0
  0  0  2  4  3  8  0  4  6  4  3  3  4 11 10  2  8  0  2  0 13  5 16 17
  4  0 15  5 18 15  0  9 12  5 13 15  0  1  3  4 21 15  5 14 19  5 17 19
  5  2 15  9 12 10  4]"
2200,337.0,0.984375,6,2,16.00625514984131,6.641128063201904,594,17600,168933,913243,"[ 0  3  1  1  0  2  0  0  3  0  2  1  5  2  1  0  6  7  4  7  6  4  4  5
  0  0  2  4  2  1  1 11  0  2  1 10  0  8  4  5  7  5  4  0  3  4 11 18
  4  0 15  3 16  9  1  3  0  0  0  1  1 15 19  1 16 15  3 19  2  5  2 23
  4 15  3  9 12 10  4]"
2300,337.0,0.984375,6,2,16.656856298446655,6.505987644195557,620,18400,175145,951143,"[ 0  3  1  3  2  2  0  0  3  0  2  1  5  0  0  0  6  7  4  7  6  4  5  5
  0  0  2  5  2  8  2  0  5  4  5 13  4 10  6  1  4  2  4 12  4  0  2  0
  3 17 18  3 12 14  2  9 15  0 14  1  5  3 23  2 16  2  4 22 23  2 18 16
  0 15 14  9 12 10  4]"
2400,337.0,0.984375,6,2,17.31256914138794,6.557104587554932,648,19200,181437,989446,"[ 0  3  1  1  0  2  0  0  3  0  2  1  5  2  1  0  6  7  4  7  6  2  1  8
  0  0  2  2  1  6  3  7  0  5  9 12  0 11 11  3  7  1  5  9  4  2 11 13
  0  9  2  0  3  9  3  0 17  0  9 12  4 16 20  4 17 17  1 19 16  3 17  0
  3  0 17  9 12 10  4]"
2500,337.0,0.984375,6,2,17.971392393112183,6.5882134437561035,670,20000,187806,1027963,"[ 0  3  1  5  3  3  0  0  3  0  2  1  1  2  1  0  6  7  4  7  6  3  2  0
  0  0  2  2  4  5  2  5  8  0  6 11  5  2  6  4  2  6  5 10  6  1 15 15
  4  0 14  2 10  3  3  1 17  5  3  9  2  3 15  0 19  1  2  1 21  1  0 15
  1  0  1  9 12 10  4]"
2600,337.0,0.984375,6,2,18.618491649627686,6.470966339111328,703,20800,193960,1065327,"[ 0  3  1  5  2  2  0  0  3  0  2  1  0  3  0  0  6  7  4  7  6  3  1  0
  0  0  2  4  8  4  2  5  3  2  5  8  5  2 13  4  7  0  5 11  0  4 16 16
  3  0  0  2 15  3  3  3 12  1 13  9  5 21 15  2 18  3  3 18 14  3  1 22
  1  0 18  9 12 10  4]"
2700,337.0,0.984375,6,2,19.285093545913696,6.665997505187988,734,21600,200261,1103869,"[ 0  3  1  0  2  2  0  0  3  0  2  1  0  1  0  0  6  7  4  7  6  2  6  2
  0  0  2  4  3  0  3  6  1  2  3 13  3  3 10  4 12 10  4  0 11  4  3 16
  1  1  2  2 11 18  5  9 16  3  3 13  4 15 17  0 19  2  1  2  0  3 14  1
  3 15 17  9 12 10  4]"
2800,337.0,0.984375,6,2,19.927882194519043,6.427860260009766,767,22400,206407,1141098,"[ 0  3  1  2  0  2  0  0  3  0  2  1  3  0  0  0  6  7  4  7  6  2  0  8
  0  0  2  1  4  1  0  9  9  2  0  9  2  3  4  2  4  3  3 10 12  2 16 12
  2  1 17  2 14 14  3 16 14  5  3 17  0 20 14  0 14 16  2 23 19  1 20 22
  3 19 18  9 12 10  4]"
2900,337.0,0.984375,6,2,20.592702627182007,6.6481852531433105,798,23200,212710,1179755,"[ 0  2  1  3  2  3  0  0  3  0  2  1  1  1  2  0  6  7  4  7  6  0  4  7
  0  0  2  0  3  1  5  9  5  3  1 10  3  6 10  0 10  2  0  6  1  4 11 16
  5 13 17  0 13  2  0 18  1  3 15 16  2 20  3  3  2 16  4  1 22  4 17  3
  0 20 17  9 12 10 13]"
3000,337.0,0.984375,6,2,21.246766090393066,6.5406107902526855,823,24000,218988,1218197,"[ 3  0  1  5  2  2  0  0  3  0  2  1  3  1  1  0  6  7  4  7  6  0  2  6
  0  0  2  0  3  1  5 10  8  1  2 11  5  3  8  4  8  5  5  2  4  4 11  9
  5 11 17  4 13  9  0 13  2  2 12  2  1 23 17  5 17 23  4 22 19  1  0 20
  3 17 23  9 12 10 13]"
3100,337.0,0.984375,6,2,21.9006564617157,6.538882255554199,861,24800,225248,1256315,"[ 3  0  1  2  3  1  0  0  3  0  2  1  3  2  2  0  6  7  4  7  6  3  3  6
  0  0  2  0  3  1  4  1  8  3  3 10  1 13  2  4  4  3  3  6  2  0  9  2
  3 15 11  3  1  1  2 17 14  0 14 15  5 14 22  5  3 23  0  2  0  0 17 15
  4  1 23  9 12 10 13]"
3200,337.0,0.984375,6,2,22.57210874557495,6.714496612548828,894,25600,231526,1294670,"[ 4  1  3  4  2  2  0  0  3  0  2  1  5  3  1  0  6  7  4  7  6  0  0  6
  0  0  2  0  3  1  1  6 11  3 12 13  1  6  2  3  7  0  5  3  0  5  3  9
  3 11  9  3  2 16  2 13  2  4 15 16  0 17 17  4  3  2  5 20  0  2 14 15
  1 17 22  9 12 10 13]"
3300,337.0,0.984375,6,2,23.239559173583984,6.674478054046631,921,26400,237854,1333288,"[ 4  1  2  3  3  1  0  0  3  0  2  1  0  3  1  0  6  7  4  7  6  0  2  0
  5  6  5  0  3  1  4 13  7  1  5  3  3 11  2  0  2  3  3  8  5  3 13 16
  2 13 14  5 16 13  4  1  1  3 18 12  3 14 19  2  3  1  2 23 15  0 19 23
  2 16 18  9 11 10 13]"
3400,337.0,0.984375,6,2,23.872187614440918,6.326260566711426,953,27200,243858,1369764,"[ 1  1  2  1  2  3  0  0  3  0  2  1  0  0  1  0  6  7  4  7  6  0  2  0
  5  3  7  0  3  1  5  2 11  5  8  1  1 12  1  2 13  7  3  2  6  2 18  0
  3  3 15  1  0 16  1 10  2  0  2 13  0 18 20  0 18  3  2 15 20  0 18 14
  4 16  2  9 11 10 13]"
3500,337.0,0.984375,6,2,24.53222918510437,6.600394248962402,978,28000,250206,1408333,"[ 3  2  0  2  0  2  0  0  3  0  2  1  0  1  2  0  6  7  4  7  6  0  2  0
  4  8  8  0  3  1  5  1 12  2 11  8  2  0 11  1  9  7  0 11 12  4 18  1
  5 15 13  4 18  3  0 14  9  5 11  3  1 18  0  4 18  3  3  0 20  0 20  1
  0 20 16  9 11 10 13]"
3600,337.0,0.984375,6,2,25.19550085067749,6.632695198059082,1001,28800,256503,1447053,"[ 0  1  0  1  2  1  0  0  3  0  2  1  5  2  3  0  6  7  4  7  6  0  2  0
  1  1  6  0  3  1  1  5  7  0  5  8  1  5  8  4  4  8  2  5 11  5 16  9
  5  2 12  1 17 16  0  0  9  0 10  3  4 18 20  5 18 20  2 22 19  0  1  0
  0  0 23  9 11 10 13]"
3607,341,1.0,8,3,25.240541458129883,6.43399783543178,1006,28856,256917,1449592,"[ 0  1  0  1  2  1  0  0  3  0  2  1  2  2  0  0  6  7  4  7  6  0  2  0
  2  1  6  0  3  1  1  5  7  0  5  8  1  8  8  4  4  8  2  5 11  5 16  9
  5 15  1  1 15 16  1  0  9  0 14  3  0  3 20  5 22 20  2 22 19  0  1  0
  2  0  0  9 19 10 13]"
3700,341,1.0,8,3,25.8112370967865,6.136489170853809,1033,29600,261223,1483722,"[ 3  1  3  3  0  1  0  0  3  0  2  1  2  2  0  0  6  7  4  7  6  1  3  0
  3  1  6  0  3  1  5 13 12  3 13  6  1  8  8  3  2  8  5  6  0  5 16  9
  1 16 16  5 14 14  5  0 15  0 14 10  1  1 18  2 16 22  0  1 17  0  3 20
  4 22  0  9 19 10 13]"
3800,341,1.0,8,3,26.4042010307312,5.92961311340332,1069,30400,265544,1517977,"[ 2  2  1  3  2  2  0  0  3  0  2  1  2  2  0  0  6  7  4  7  6  4  2  5
  4  8  0  0  3  1  1  7  1  4  1  1  1  8  8  3 10 13  2 12  0  5 16  9
  1  1 12  3 18 14  1 13  9  2 16  3  5  1 14  2 21  2  4 22 21  2  3 17
  0 20 14  9 19 10 13]"
3900,341,1.0,8,3,27.01668667793274,6.12483024597168,1111,31200,270057,1553795,"[ 2  3  3  0  1  0  0  0  3  0  2  1  2  2  0  0  6  7  4  7  6  3  3  7
  4  8  3  0  3  1  4  4 11  2  1  8  1 13  8  3  7  2  2 11  0  3 16  9
  3  1 13  4 14 17  2 10  3  3 17  0  5  0 23  3  1  2  3 20 19  0 18 14
  0  1  3  9 19 10 13]"
4000,341,1.0,8,3,27.640401601791382,6.237123012542725,1137,32000,274638,1590214,"[ 2  3  0  4  0  3  0  0  3  0  2  1  2  2  0  0  6  7  4  7  6  3  0  5
  0  5  6  0  3  1  1  3 11  0  8  8  1 13  8  2 11  1  2  8  5  3  9 16
  5 15 14  1 11 13  2 18 18  4 12 11  1 22 22  3  1 21  1  0  3  4 15 22
  3 22 21  9 19 10 13]"
4100,341,1.0,8,3,28.294862031936646,6.544585227966309,1162,32800,279714,1630621,"[ 1  0  0  5  1  3  0  0  3  0  2  1  2  2  0  0  6  7  4  7  6  2  6  5
  4  1  5  0  3  1  1 11  9  2  6  1  1  8  8  5 10  1  5  6 13  3  9 16
  2 12 10  5 13 11  0 13 17  5 12 17  1  2 14  5  3 20  5 17 16  1 14 22
  2  1  3  9 19 10 13]"
4200,341,1.0,8,3,28.90304660797119,6.081817150115967,1186,33600,284217,1666512,"[ 5  0  1  0  0  3  0  0  3  0  2  1  2  2  0  0  6  7  4  7  6  5  8  8
  5  1  8  0  3  1  2  4  0  5  5  7  0  8  8  4  8  9  5  0  3  3 13 16
  2  2 18  0 12 10  4  0  0  5  3 15  1 16 20  1 19 21  2 23  1  2  2 14
  0 16 23  9 19 10 13]"
4300,341,1.0,8,3,29.508718490600586,6.056699752807617,1214,34400,288753,1702678,"[ 0  0  3  4  0  2  0  0  3  0  2  1  2  2  0  0  6  7  4  7  6  3  4  4
  3  1  3  0  3  1  2  8  8  3 12 13  0  8  8  0  8  1  5  0  0  5  9 16
  2 16 15  5 11 18  1 17 13  2 12 10  5 15  1  4  2 15  5 17 17  3  0  3
  1  1  1  9 19 10 13]"
4400,341,1.0,8,3,30.163737297058105,6.550145149230957,1240,35200,293702,1741962,"[ 2  0  3  5  2  3  0  0  3  0  2  1  2  2  0  0  6  7  4  7  6  5  4  4
  1  8  1  0  3  1  2  8  9  2  2  4  1  8  8  1 11  5  3  5  2  3 13 16
  4 14 15  5 18 10  0 14  0  5  3 13  3 21  3  5 20  2  0  3 21  1 22  3
  0  0 22  9 19 10 13]"
4500,341,1.0,8,3,30.80071210861206,6.369724273681641,1270,36000,298528,1780259,"[ 3  3  1  1  3  0  0  0  3  0  2  1  2  2  0  0  6  7  4  7  6  1  7  1
  0  0  5  0  3  1  3 11  9  5  8 13  1  8  8  5 13 12  0 12  2  3 13 16
  2 18  0  3  0  9  5  1  2  2  3 10  5 17  3  1 22 17  3 23 19  3 17 21
  0 19 20  9 19 10 13]"
4600,341,1.0,8,3,31.46321702003479,6.625027656555176,1291,36800,303704,1821342,"[ 3  3  1  0  1  2  0  0  3  0  2  1  2  2  0  0  6  7  4  7  6  3  2  1
  0  6  0  0  3  1  1  7  5  5  0  8  0  8  8  0 13  2  0  2  8  3 13 16
  4 18 16  0 11 17  5  1 13  5 18 17  5 19  1  4 20 18  1 18  2  1  3 23
  2 20 19  9 19 10 13]"
4700,341,1.0,8,3,32.091020345687866,6.278009414672852,1322,37600,308478,1859211,"[ 0  0  0  2  3  3  0  0  3  0  2  1  2  2  0  0  6  7  4  7  6  1  1  3
  1  8  5  0  3  1  4 13  0  5 11  2  1  8  8  5  7  4  4  1 10  3  9 16
  4  2 13  1 14 18  5  2 13  4 17  9  3 19 22  5  0 18  1 16 16  0  3 23
  1  2 16  9 19 10 13]"
4800,341,1.0,8,3,32.731749057769775,6.407260894775391,1345,38400,313397,1898214,"[ 1  0  3  2  3  3  0  0  3  0  2  1  2  2  0  0  6  7  4  7  6  5  8  5
  5  1  4  0  3  1  5  3 11  0 11  6  1  8  8  4  4  4  3  0  3  3  9 16
  4 15 13  2 18 12  4  2  1  4  3  3  1 19 19  3 16 18  5 17 23  4 22 18
  2 23 16  9 19 10 13]"
4900,341,1.0,8,3,33.37485408782959,6.431031227111816,1372,39200,318311,1937372,"[ 5  0  2  2  2  1  0  0  3  0  2  1  2  2  0  0  6  7  4  7  6  1  0  7
  3  4  3  0  3  1  3  4  5  0  1  9  1  8  8  2  4 13  0  5  2  5  9 16
  2  1 13  2 14  2  4 12 18  2  9  9  2 22 16  2 18 23  4 18 18  1  0 23
  5 21  1  9 19 10 13]"
5000,341,1.0,8,3,34.055118560791016,6.802618503570557,1398,40000,323355,1977592,"[ 2  0  3  1  2  3  0  0  3  0  2  1  2  2  0  0  6  7  4  7  6  4  1  5
  2  7  5  0  3  1  4  4  3  1 11  9  1  8  8  1  4  4  0 12  0  5  9 16
  1 13 13  2  0  2  2 15 12  5 18 14  4 21 23  1 23 21  5  3 14  1 14  2
  4 23 16  9 19 10 13]"
5100,341,1.0,8,3,34.67517352104187,6.200528144836426,1415,40800,327979,2014317,"[ 3  3  2  1  1  0  0  0  3  0  2  1  2  2  0  0  6  7  4  7  6  2  4  4
  0  5  8  0  3  1  4  4  0  3  2  2  1  8 13  5 13  7  0  6  3  2 16 16
  1 11  9  1 17 18  5  2 17  1  1  0  3  3  3  0 19  0  2 19 21  4  1 22
  5  0  0  9 19 10 13]"
5200,341,1.0,8,3,35.26681685447693,5.916409492492676,1444,41600,332319,2048786,"[ 4  2  1  3  2  1  0  0  3  0  2  1  2  2  0  0  6  7  4  7  6  1  0  4
  5  4  1  0  3  1  0 12  2  3 10  6  1  8 13  3 13  0  4  1  9  3 16 13
  1 11 12  3  0 12  5  3 11  1 14  0  0  3  0  0  2 16  5 19 21  2 22 19
  2 21  0  9 19 10 13]"
5300,341,1.0,8,3,35.90330266952515,6.364834308624268,1472,42400,337192,2087449,"[ 1  1  2  4  0  0  0  0  3  0  2  1  2  2  0  0  6  7  4  7  6  0  7  2
  2  6  5  0  3  1  0  7  1  0 10 11  0  8  8  1  7  2  2  2 12  5 16  9
  3  9  9  3 16 12  0 11  2  5  3 17  4 14  1  3 17 22  1 20  1  5  0 20
  3 20  1  9 19 10 13]"
5400,341,1.0,8,3,36.53823661804199,6.349320411682129,1494,43200,342026,2125911,"[ 3  0  1  3  1  0  0  0  3  0  2  1  2  2  0  0  6  7  4  7  6  2  7  6
  5  2  0  0  3  1  0  7  6  0  5  9  0  8  8  0  4  3  1 11  9  3 16 13
  1  9 17  3 13 15  5 15 15  5  2 14  4 15 14  5 21 23  5 21 14  4 19 23
  4 18  1  9 19 10 13]"
5458,343,1.0,7,2,36.901400566101074,6.261406273677431,1510,43664,344803,2147998,"[ 3  2  3  0  1  2  0  0  3  0  2  1  2  2  0  0  6  7  4  7  6  2  2  0
  2  1  8  0  3  1  0 12  0  1  0  9  1  8 13  5  4  2  2  9 12  3 11 13
  5  0  3  3 13  2  5 15 14  0  2 10  0 17 17  5 21  2  5  3 14  1 19  0
  2  2  1  9 19 10 13]"
