generation,fitness,functionality,active_nodes,longest_path,time,gen_time,nc_gens,fitness_evals,graph_evals,node_evals,genotype
0,210.0,0.59375,7,3,0.008032560348510742,8.028030395507812,0,0,0,0,"[ 0  1  3  5  2  2  4  1  3  1  2  3  2  3  2  2  0  1  0  4  0  0  8  0
  1  2  2  5  7  4  2  8  7  1 12  3  4  5  6  3  1  5  1  6 10  3 17  1
  2 16 11  4 14 11  3  1  2  2 16 11  1 15 21  1 23  0  3 18 18  4 21 21
  3  1  0 17  9 19 13]"
100,312.0,0.90625,6,2,0.5193874835968018,5.113506317138672,93,400,5487,41721,"[ 0  1  3  5  2  2  4  1  3  1  2  3  1  3  2  0  0  2  0  7  0  0  3  0
  1  2  2  0  3  4  2  8  7  1 12  3  2  5  6  3  1  5  1  6  9  3 17  1
  2 16 11  4 12 11  2  1  2  1 16 11  1 15 21  1 23  0  3 18 18  2 21  3
  3  1  0 17  9 11 13]"
200,313.0,0.90625,5,2,0.9146437644958496,3.9525246620178223,192,800,10892,69632,"[ 0  1  3  5  2  2  4  1  3  1  2  3  1  3  2  0  0  2  0  7  0  0  3  0
  1  2  2  0  3  4  2  8  7  1 12  3  2  5  6  3  1  5  1  6  9  3 17  1
  2 16 11  4 12 11  2  1  2  1 16 11  1 15 21  1 23  0  3 18 18  2 21  3
  3  1  0 17  9 11  4]"
300,313.0,0.90625,5,2,1.3420393466949463,4.2739176750183105,292,1200,16151,96902,"[ 0  1  3  5  2  2  4  1  3  1  2  3  1  3  2  0  0  2  0  7  0  0  3  0
  1  2  2  0  3  4  2  8  7  1 12  3  2  5  6  3  1  5  1  6  9  3 17  1
  2 16 11  4 12 11  2  1  2  1 16 11  1 15 21  1 23  0  3 18 18  2 21  3
  3  1  0 17  9 11  4]"
400,313.0,0.90625,5,2,1.7481441497802734,4.061007499694824,392,1600,21625,125136,"[ 0  1  3  5  2  2  4  1  3  1  2  3  1  3  2  0  0  2  0  7  0  0  3  0
  1  2  2  0  3  4  2  8  7  1 12  3  2  5  6  3  1  5  1  6  9  3 17  1
  2 16 11  4 12 11  2  1  2  1 16 11  1 15 21  1 23  0  3 18 18  2 21  3
  3  1  0 17  9 11  4]"
500,313.0,0.90625,5,2,2.1486690044403076,4.005212783813477,492,2000,27053,152971,"[ 0  1  3  5  2  2  4  1  3  1  2  3  1  3  2  0  0  2  0  7  0  0  3  0
  1  2  2  0  3  4  2  8  7  1 12  3  2  5  6  3  1  5  1  6  9  3 17  1
  2 16 11  4 12 11  2  1  2  1 16 11  1 15 21  1 23  0  3 18 18  2 21  3
  3  1  0 17  9 11  4]"
600,313.0,0.90625,5,2,2.541130542755127,3.9245724678039546,592,2400,32376,180426,"[ 0  1  3  5  2  2  4  1  3  1  2  3  1  3  2  0  0  2  0  7  0  0  3  0
  1  2  2  0  3  4  2  8  7  1 12  3  2  5  6  3  1  5  1  6  9  3 17  1
  2 16 11  4 12 11  2  1  2  1 16 11  1 15 21  1 23  0  3 18 18  2 21  3
  3  1  0 17  9 11  4]"
700,313.0,0.90625,5,2,2.946178674697876,4.050445556640625,692,2800,37791,208211,"[ 0  1  3  5  2  2  4  1  3  1  2  3  1  3  2  0  0  2  0  7  0  0  3  0
  1  2  2  0  3  4  2  8  7  1 12  3  2  5  6  3  1  5  1  6  9  3 17  1
  2 16 11  4 12 11  2  1  2  1 16 11  1 15 21  1 23  0  3 18 18  2 21  3
  3  1  0 17  9 11  4]"
800,313.0,0.90625,5,2,3.3482484817504883,4.020657539367676,792,3200,43267,236090,"[ 0  1  3  5  2  2  4  1  3  1  2  3  1  3  2  0  0  2  0  7  0  0  3  0
  1  2  2  0  3  4  2  8  7  1 12  3  2  5  6  3  1  5  1  6  9  3 17  1
  2 16 11  4 12 11  2  1  2  1 16 11  1 15 21  1 23  0  3 18 18  2 21  3
  3  1  0 17  9 11  4]"
900,313.0,0.90625,5,2,3.7567901611328125,4.085381031036377,892,3600,48666,263696,"[ 0  1  3  5  2  2  4  1  3  1  2  3  1  3  2  0  0  2  0  7  0  0  3  0
  1  2  2  0  3  4  2  8  7  1 12  3  2  5  6  3  1  5  1  6  9  3 17  1
  2 16 11  4 12 11  2  1  2  1 16 11  1 15 21  1 23  0  3 18 18  2 21  3
  3  1  0 17  9 11  4]"
1000,313.0,0.90625,5,2,4.155618667602539,3.9882493019104004,992,4000,54010,290790,"[ 0  1  3  5  2  2  4  1  3  1  2  3  1  3  2  0  0  2  0  7  0  0  3  0
  1  2  2  0  3  4  2  8  7  1 12  3  2  5  6  3  1  5  1  6  9  3 17  1
  2 16 11  4 12 11  2  1  2  1 16 11  1 15 21  1 23  0  3 18 18  2 21  3
  3  1  0 17  9 11  4]"
1100,313.0,0.90625,5,2,4.641778230667114,4.861557483673096,1092,4400,59462,318506,"[ 0  1  3  5  2  2  4  1  3  1  2  3  1  3  2  0  0  2  0  7  0  0  3  0
  1  2  2  0  3  4  2  8  7  1 12  3  2  5  6  3  1  5  1  6  9  3 17  1
  2 16 11  4 12 11  2  1  2  1 16 11  1 15 21  1 23  0  3 18 18  2 21  3
  3  1  0 17  9 11  4]"
1200,313.0,0.90625,5,2,5.048828125,4.070460796356201,1192,4800,64807,346045,"[ 0  1  3  5  2  2  4  1  3  1  2  3  1  3  2  0  0  2  0  7  0  0  3  0
  1  2  2  0  3  4  2  8  7  1 12  3  2  5  6  3  1  5  1  6  9  3 17  1
  2 16 11  4 12 11  2  1  2  1 16 11  1 15 21  1 23  0  3 18 18  2 21  3
  3  1  0 17  9 11  4]"
1300,313.0,0.90625,5,2,5.466141223907471,4.17309045791626,1292,5200,70133,373599,"[ 0  1  3  5  2  2  4  1  3  1  2  3  1  3  2  0  0  2  0  7  0  0  3  0
  1  2  2  0  3  4  2  8  7  1 12  3  2  5  6  3  1  5  1  6  9  3 17  1
  2 16 11  4 12 11  2  1  2  1 16 11  1 15 21  1 23  0  3 18 18  2 21  3
  3  1  0 17  9 11  4]"
1400,313.0,0.90625,5,2,5.923246383666992,4.571011066436768,1392,5600,75485,400737,"[ 0  1  3  5  2  2  4  1  3  1  2  3  1  3  2  0  0  2  0  7  0  0  3  0
  1  2  2  0  3  4  2  8  7  1 12  3  2  5  6  3  1  5  1  6  9  3 17  1
  2 16 11  4 12 11  2  1  2  1 16 11  1 15 21  1 23  0  3 18 18  2 21  3
  3  1  0 17  9 11  4]"
1500,313.0,0.90625,5,2,6.328263998031616,4.050137996673584,1492,6000,80944,428642,"[ 0  1  3  5  2  2  4  1  3  1  2  3  1  3  2  0  0  2  0  7  0  0  3  0
  1  2  2  0  3  4  2  8  7  1 12  3  2  5  6  3  1  5  1  6  9  3 17  1
  2 16 11  4 12 11  2  1  2  1 16 11  1 15 21  1 23  0  3 18 18  2 21  3
  3  1  0 17  9 11  4]"
1600,313.0,0.90625,5,2,6.7588160037994385,4.305481910705566,1592,6400,86320,455858,"[ 0  1  3  5  2  2  4  1  3  1  2  3  1  3  2  0  0  2  0  7  0  0  3  0
  1  2  2  0  3  4  2  8  7  1 12  3  2  5  6  3  1  5  1  6  9  3 17  1
  2 16 11  4 12 11  2  1  2  1 16 11  1 15 21  1 23  0  3 18 18  2 21  3
  3  1  0 17  9 11  4]"
1700,313.0,0.90625,5,2,7.188412666320801,4.295928478240967,1692,6800,91630,483383,"[ 0  1  3  5  2  2  4  1  3  1  2  3  1  3  2  0  0  2  0  7  0  0  3  0
  1  2  2  0  3  4  2  8  7  1 12  3  2  5  6  3  1  5  1  6  9  3 17  1
  2 16 11  4 12 11  2  1  2  1 16 11  1 15 21  1 23  0  3 18 18  2 21  3
  3  1  0 17  9 11  4]"
1800,313.0,0.90625,5,2,7.620050430297852,4.316339492797852,1792,7200,96937,510170,"[ 0  1  3  5  2  2  4  1  3  1  2  3  1  3  2  0  0  2  0  7  0  0  3  0
  1  2  2  0  3  4  2  8  7  1 12  3  2  5  6  3  1  5  1  6  9  3 17  1
  2 16 11  4 12 11  2  1  2  1 16 11  1 15 21  1 23  0  3 18 18  2 21  3
  3  1  0 17  9 11  4]"
1900,313.0,0.90625,5,2,8.01823115348816,3.9817762374877925,1892,7600,102280,537631,"[ 0  1  3  5  2  2  4  1  3  1  2  3  1  3  2  0  0  2  0  7  0  0  3  0
  1  2  2  0  3  4  2  8  7  1 12  3  2  5  6  3  1  5  1  6  9  3 17  1
  2 16 11  4 12 11  2  1  2  1 16 11  1 15 21  1 23  0  3 18 18  2 21  3
  3  1  0 17  9 11  4]"
2000,313.0,0.90625,5,2,8.419556140899658,4.013211727142334,1992,8000,107634,564974,"[ 0  1  3  5  2  2  4  1  3  1  2  3  1  3  2  0  0  2  0  7  0  0  3  0
  1  2  2  0  3  4  2  8  7  1 12  3  2  5  6  3  1  5  1  6  9  3 17  1
  2 16 11  4 12 11  2  1  2  1 16 11  1 15 21  1 23  0  3 18 18  2 21  3
  3  1  0 17  9 11  4]"
2100,313.0,0.90625,5,2,8.82487964630127,4.053201675415039,2092,8400,113005,592775,"[ 0  1  3  5  2  2  4  1  3  1  2  3  1  3  2  0  0  2  0  7  0  0  3  0
  1  2  2  0  3  4  2  8  7  1 12  3  2  5  6  3  1  5  1  6  9  3 17  1
  2 16 11  4 12 11  2  1  2  1 16 11  1 15 21  1 23  0  3 18 18  2 21  3
  3  1  0 17  9 11  4]"
2200,313.0,0.90625,5,2,9.280344724655151,4.554605484008789,2192,8800,118500,620917,"[ 0  1  3  5  2  2  4  1  3  1  2  3  1  3  2  0  0  2  0  7  0  0  3  0
  1  2  2  0  3  4  2  8  7  1 12  3  2  5  6  3  1  5  1  6  9  3 17  1
  2 16 11  4 12 11  2  1  2  1 16 11  1 15 21  1 23  0  3 18 18  2 21  3
  3  1  0 17  9 11  4]"
2300,313.0,0.90625,5,2,9.733437299728394,4.530889987945557,2292,9200,123861,648624,"[ 0  1  3  5  2  2  4  1  3  1  2  3  1  3  2  0  0  2  0  7  0  0  3  0
  1  2  2  0  3  4  2  8  7  1 12  3  2  5  6  3  1  5  1  6  9  3 17  1
  2 16 11  4 12 11  2  1  2  1 16 11  1 15 21  1 23  0  3 18 18  2 21  3
  3  1  0 17  9 11  4]"
2400,313.0,0.90625,5,2,10.141279220581055,4.078378677368164,2392,9600,129197,675555,"[ 0  1  3  5  2  2  4  1  3  1  2  3  1  3  2  0  0  2  0  7  0  0  3  0
  1  2  2  0  3  4  2  8  7  1 12  3  2  5  6  3  1  5  1  6  9  3 17  1
  2 16 11  4 12 11  2  1  2  1 16 11  1 15 21  1 23  0  3 18 18  2 21  3
  3  1  0 17  9 11  4]"
2500,313.0,0.90625,5,2,10.552370309829712,4.110872745513916,2492,10000,134590,703044,"[ 0  1  3  5  2  2  4  1  3  1  2  3  1  3  2  0  0  2  0  7  0  0  3  0
  1  2  2  0  3  4  2  8  7  1 12  3  2  5  6  3  1  5  1  6  9  3 17  1
  2 16 11  4 12 11  2  1  2  1 16 11  1 15 21  1 23  0  3 18 18  2 21  3
  3  1  0 17  9 11  4]"
2600,315.0,0.90625,4,1,10.954198122024536,4.018239974975586,2591,10400,139915,729788,"[ 0  1  3  5  2  2  4  1  1  1  2  3  2  3  2  0  0  2  0  4  1  0  3  0
  0  2  2  3  3  4  2  6  7  1 12 10  2  5  6  3  1  5  5  6  9  3 17 14
  3 16  0  4 12 15  2 10  2  1 16 11  2  2 21  1 23  0  3 18 18  4 21  3
  3  1 19  6  9 11  4]"
2700,315.0,0.90625,4,1,11.316186666488647,3.619844913482666,2691,10800,145007,751407,"[ 0  1  3  5  2  2  4  1  1  1  2  3  2  3  2  0  0  2  0  4  1  0  3  0
  0  2  2  3  3  4  2  6  7  1 12 10  2  5  6  3  1  5  5  6  9  3 17 14
  3 16  0  4 12 15  2 10  2  1 16 11  2  2 21  1 23  0  3 18 18  4 21  3
  3  1 19  6  9 11  4]"
2800,315.0,0.90625,4,1,11.690310001373291,3.7411975860595703,2791,11200,150121,773336,"[ 0  1  3  5  2  2  4  1  1  1  2  3  2  3  2  0  0  2  0  4  1  0  3  0
  0  2  2  3  3  4  2  6  7  1 12 10  2  5  6  3  1  5  5  6  9  3 17 14
  3 16  0  4 12 15  2 10  2  1 16 11  2  2 21  1 23  0  3 18 18  4 21  3
  3  1 19  6  9 11  4]"
2900,315.0,0.90625,4,1,12.045344591140747,3.5503029823303223,2891,11600,155099,794256,"[ 0  1  3  5  2  2  4  1  1  1  2  3  2  3  2  0  0  2  0  4  1  0  3  0
  0  2  2  3  3  4  2  6  7  1 12 10  2  5  6  3  1  5  5  6  9  3 17 14
  3 16  0  4 12 15  2 10  2  1 16 11  2  2 21  1 23  0  3 18 18  4 21  3
  3  1 19  6  9 11  4]"
3000,315.0,0.90625,4,1,12.409774541854858,3.644258975982666,2991,12000,160206,815718,"[ 0  1  3  5  2  2  4  1  1  1  2  3  2  3  2  0  0  2  0  4  1  0  3  0
  0  2  2  3  3  4  2  6  7  1 12 10  2  5  6  3  1  5  5  6  9  3 17 14
  3 16  0  4 12 15  2 10  2  1 16 11  2  2 21  1 23  0  3 18 18  4 21  3
  3  1 19  6  9 11  4]"
3100,315.0,0.90625,4,1,12.781827688217163,3.7204861640930176,3091,12400,165371,838008,"[ 0  1  3  5  2  2  4  1  1  1  2  3  2  3  2  0  0  2  0  4  1  0  3  0
  0  2  2  3  3  4  2  6  7  1 12 10  2  5  6  3  1  5  5  6  9  3 17 14
  3 16  0  4 12 15  2 10  2  1 16 11  2  2 21  1 23  0  3 18 18  4 21  3
  3  1 19  6  9 11  4]"
3200,315.0,0.90625,4,1,13.138479232788086,3.5664796829223633,3191,12800,170521,859897,"[ 0  1  3  5  2  2  4  1  1  1  2  3  2  3  2  0  0  2  0  4  1  0  3  0
  0  2  2  3  3  4  2  6  7  1 12 10  2  5  6  3  1  5  5  6  9  3 17 14
  3 16  0  4 12 15  2 10  2  1 16 11  2  2 21  1 23  0  3 18 18  4 21  3
  3  1 19  6  9 11  4]"
3300,315.0,0.90625,4,1,13.482593774795532,3.4411120414733887,3291,13200,175574,881271,"[ 0  1  3  5  2  2  4  1  1  1  2  3  2  3  2  0  0  2  0  4  1  0  3  0
  0  2  2  3  3  4  2  6  7  1 12 10  2  5  6  3  1  5  5  6  9  3 17 14
  3 16  0  4 12 15  2 10  2  1 16 11  2  2 21  1 23  0  3 18 18  4 21  3
  3  1 19  6  9 11  4]"
3400,315.0,0.90625,4,1,13.917093753814697,4.344956874847412,3391,13600,180710,902992,"[ 0  1  3  5  2  2  4  1  1  1  2  3  2  3  2  0  0  2  0  4  1  0  3  0
  0  2  2  3  3  4  2  6  7  1 12 10  2  5  6  3  1  5  5  6  9  3 17 14
  3 16  0  4 12 15  2 10  2  1 16 11  2  2 21  1 23  0  3 18 18  4 21  3
  3  1 19  6  9 11  4]"
3500,315.0,0.90625,4,1,14.326975584030151,4.098784923553467,3491,14000,185906,925025,"[ 0  1  3  5  2  2  4  1  1  1  2  3  2  3  2  0  0  2  0  4  1  0  3  0
  0  2  2  3  3  4  2  6  7  1 12 10  2  5  6  3  1  5  5  6  9  3 17 14
  3 16  0  4 12 15  2 10  2  1 16 11  2  2 21  1 23  0  3 18 18  4 21  3
  3  1 19  6  9 11  4]"
3600,315.0,0.90625,4,1,14.697595119476318,3.7061572074890137,3591,14400,191025,946935,"[ 0  1  3  5  2  2  4  1  1  1  2  3  2  3  2  0  0  2  0  4  1  0  3  0
  0  2  2  3  3  4  2  6  7  1 12 10  2  5  6  3  1  5  5  6  9  3 17 14
  3 16  0  4 12 15  2 10  2  1 16 11  2  2 21  1 23  0  3 18 18  4 21  3
  3  1 19  6  9 11  4]"
3700,315.0,0.90625,4,1,15.060059547424316,3.6246109008789062,3691,14800,196188,969042,"[ 0  1  3  5  2  2  4  1  1  1  2  3  2  3  2  0  0  2  0  4  1  0  3  0
  0  2  2  3  3  4  2  6  7  1 12 10  2  5  6  3  1  5  5  6  9  3 17 14
  3 16  0  4 12 15  2 10  2  1 16 11  2  2 21  1 23  0  3 18 18  4 21  3
  3  1 19  6  9 11  4]"
3800,315.0,0.90625,4,1,15.424998760223389,3.6493515968322754,3791,15200,201323,991236,"[ 0  1  3  5  2  2  4  1  1  1  2  3  2  3  2  0  0  2  0  4  1  0  3  0
  0  2  2  3  3  4  2  6  7  1 12 10  2  5  6  3  1  5  5  6  9  3 17 14
  3 16  0  4 12 15  2 10  2  1 16 11  2  2 21  1 23  0  3 18 18  4 21  3
  3  1 19  6  9 11  4]"
3900,315.0,0.90625,4,1,15.818048477172852,3.9304590225219727,3891,15600,206366,1012572,"[ 0  1  3  5  2  2  4  1  1  1  2  3  2  3  2  0  0  2  0  4  1  0  3  0
  0  2  2  3  3  4  2  6  7  1 12 10  2  5  6  3  1  5  5  6  9  3 17 14
  3 16  0  4 12 15  2 10  2  1 16 11  2  2 21  1 23  0  3 18 18  4 21  3
  3  1 19  6  9 11  4]"
4000,315.0,0.90625,4,1,16.180802583694458,3.6275076866149902,3991,16000,211433,1034403,"[ 0  1  3  5  2  2  4  1  1  1  2  3  2  3  2  0  0  2  0  4  1  0  3  0
  0  2  2  3  3  4  2  6  7  1 12 10  2  5  6  3  1  5  5  6  9  3 17 14
  3 16  0  4 12 15  2 10  2  1 16 11  2  2 21  1 23  0  3 18 18  4 21  3
  3  1 19  6  9 11  4]"
4100,315.0,0.90625,4,1,16.550489902496338,3.6968278884887695,4091,16400,216477,1055772,"[ 0  1  3  5  2  2  4  1  1  1  2  3  2  3  2  0  0  2  0  4  1  0  3  0
  0  2  2  3  3  4  2  6  7  1 12 10  2  5  6  3  1  5  5  6  9  3 17 14
  3 16  0  4 12 15  2 10  2  1 16 11  2  2 21  1 23  0  3 18 18  4 21  3
  3  1 19  6  9 11  4]"
4200,315.0,0.90625,4,1,16.911468029022217,3.609745502471924,4191,16800,221456,1076998,"[ 0  1  3  5  2  2  4  1  1  1  2  3  2  3  2  0  0  2  0  4  1  0  3  0
  0  2  2  3  3  4  2  6  7  1 12 10  2  5  6  3  1  5  5  6  9  3 17 14
  3 16  0  4 12 15  2 10  2  1 16 11  2  2 21  1 23  0  3 18 18  4 21  3
  3  1 19  6  9 11  4]"
4300,315.0,0.90625,4,1,17.277807235717773,3.663356304168701,4291,17200,226534,1098894,"[ 0  1  3  5  2  2  4  1  1  1  2  3  2  3  2  0  0  2  0  4  1  0  3  0
  0  2  2  3  3  4  2  6  7  1 12 10  2  5  6  3  1  5  5  6  9  3 17 14
  3 16  0  4 12 15  2 10  2  1 16 11  2  2 21  1 23  0  3 18 18  4 21  3
  3  1 19  6  9 11  4]"
4400,315.0,0.90625,4,1,17.63417148590088,3.5636019706726074,4391,17600,231558,1120628,"[ 0  1  3  5  2  2  4  1  1  1  2  3  2  3  2  0  0  2  0  4  1  0  3  0
  0  2  2  3  3  4  2  6  7  1 12 10  2  5  6  3  1  5  5  6  9  3 17 14
  3 16  0  4 12 15  2 10  2  1 16 11  2  2 21  1 23  0  3 18 18  4 21  3
  3  1 19  6  9 11  4]"
4500,315.0,0.90625,4,1,18.002889394760132,3.687136173248291,4491,18000,236450,1141625,"[ 0  1  3  5  2  2  4  1  1  1  2  3  2  3  2  0  0  2  0  4  1  0  3  0
  0  2  2  3  3  4  2  6  7  1 12 10  2  5  6  3  1  5  5  6  9  3 17 14
  3 16  0  4 12 15  2 10  2  1 16 11  2  2 21  1 23  0  3 18 18  4 21  3
  3  1 19  6  9 11  4]"
4600,315.0,0.90625,4,1,18.348973035812378,3.4607982635498047,4591,18400,241553,1163163,"[ 0  1  3  5  2  2  4  1  1  1  2  3  2  3  2  0  0  2  0  4  1  0  3  0
  0  2  2  3  3  4  2  6  7  1 12 10  2  5  6  3  1  5  5  6  9  3 17 14
  3 16  0  4 12 15  2 10  2  1 16 11  2  2 21  1 23  0  3 18 18  4 21  3
  3  1 19  6  9 11  4]"
4700,315.0,0.90625,4,1,18.692967891693115,3.4399056434631348,4691,18800,246672,1185026,"[ 0  1  3  5  2  2  4  1  1  1  2  3  2  3  2  0  0  2  0  4  1  0  3  0
  0  2  2  3  3  4  2  6  7  1 12 10  2  5  6  3  1  5  5  6  9  3 17 14
  3 16  0  4 12 15  2 10  2  1 16 11  2  2 21  1 23  0  3 18 18  4 21  3
  3  1 19  6  9 11  4]"
4800,315.0,0.90625,4,1,19.072640895843506,3.79669189453125,4791,19200,251797,1206727,"[ 0  1  3  5  2  2  4  1  1  1  2  3  2  3  2  0  0  2  0  4  1  0  3  0
  0  2  2  3  3  4  2  6  7  1 12 10  2  5  6  3  1  5  5  6  9  3 17 14
  3 16  0  4 12 15  2 10  2  1 16 11  2  2 21  1 23  0  3 18 18  4 21  3
  3  1 19  6  9 11  4]"
4900,315.0,0.90625,4,1,19.570286750793457,4.976415634155273,4891,19600,256762,1227890,"[ 0  1  3  5  2  2  4  1  1  1  2  3  2  3  2  0  0  2  0  4  1  0  3  0
  0  2  2  3  3  4  2  6  7  1 12 10  2  5  6  3  1  5  5  6  9  3 17 14
  3 16  0  4 12 15  2 10  2  1 16 11  2  2 21  1 23  0  3 18 18  4 21  3
  3  1 19  6  9 11  4]"
5000,315.0,0.90625,4,1,20.02728843688965,4.569978713989258,4991,20000,261867,1249780,"[ 0  1  3  5  2  2  4  1  1  1  2  3  2  3  2  0  0  2  0  4  1  0  3  0
  0  2  2  3  3  4  2  6  7  1 12 10  2  5  6  3  1  5  5  6  9  3 17 14
  3 16  0  4 12 15  2 10  2  1 16 11  2  2 21  1 23  0  3 18 18  4 21  3
  3  1 19  6  9 11  4]"
5100,315.0,0.90625,4,1,20.43582797050476,4.085352420806885,5091,20400,266901,1270804,"[ 0  1  3  5  2  2  4  1  1  1  2  3  2  3  2  0  0  2  0  4  1  0  3  0
  0  2  2  3  3  4  2  6  7  1 12 10  2  5  6  3  1  5  5  6  9  3 17 14
  3 16  0  4 12 15  2 10  2  1 16 11  2  2 21  1 23  0  3 18 18  4 21  3
  3  1 19  6  9 11  4]"
5200,315.0,0.90625,4,1,20.84147047996521,4.056391716003418,5191,20800,271980,1292929,"[ 0  1  3  5  2  2  4  1  1  1  2  3  2  3  2  0  0  2  0  4  1  0  3  0
  0  2  2  3  3  4  2  6  7  1 12 10  2  5  6  3  1  5  5  6  9  3 17 14
  3 16  0  4 12 15  2 10  2  1 16 11  2  2 21  1 23  0  3 18 18  4 21  3
  3  1 19  6  9 11  4]"
5300,315.0,0.90625,4,1,21.192307472229004,3.5083365440368652,5291,21200,277023,1314361,"[ 0  1  3  5  2  2  4  1  1  1  2  3  2  3  2  0  0  2  0  4  1  0  3  0
  0  2  2  3  3  4  2  6  7  1 12 10  2  5  6  3  1  5  5  6  9  3 17 14
  3 16  0  4 12 15  2 10  2  1 16 11  2  2 21  1 23  0  3 18 18  4 21  3
  3  1 19  6  9 11  4]"
5400,315.0,0.90625,4,1,21.569577932357788,3.7726688385009766,5391,21600,282190,1336522,"[ 0  1  3  5  2  2  4  1  1  1  2  3  2  3  2  0  0  2  0  4  1  0  3  0
  0  2  2  3  3  4  2  6  7  1 12 10  2  5  6  3  1  5  5  6  9  3 17 14
  3 16  0  4 12 15  2 10  2  1 16 11  2  2 21  1 23  0  3 18 18  4 21  3
  3  1 19  6  9 11  4]"
5500,315.0,0.90625,4,1,21.918416738510132,3.4883522987365723,5491,22000,287186,1358056,"[ 0  1  3  5  2  2  4  1  1  1  2  3  2  3  2  0  0  2  0  4  1  0  3  0
  0  2  2  3  3  4  2  6  7  1 12 10  2  5  6  3  1  5  5  6  9  3 17 14
  3 16  0  4 12 15  2 10  2  1 16 11  2  2 21  1 23  0  3 18 18  4 21  3
  3  1 19  6  9 11  4]"
5600,315.0,0.90625,4,1,22.28138780593872,3.6296701431274414,5591,22400,292191,1379519,"[ 0  1  3  5  2  2  4  1  1  1  2  3  2  3  2  0  0  2  0  4  1  0  3  0
  0  2  2  3  3  4  2  6  7  1 12 10  2  5  6  3  1  5  5  6  9  3 17 14
  3 16  0  4 12 15  2 10  2  1 16 11  2  2 21  1 23  0  3 18 18  4 21  3
  3  1 19  6  9 11  4]"
5700,315.0,0.90625,4,1,22.636285543441772,3.5489416122436523,5691,22800,297233,1401292,"[ 0  1  3  5  2  2  4  1  1  1  2  3  2  3  2  0  0  2  0  4  1  0  3  0
  0  2  2  3  3  4  2  6  7  1 12 10  2  5  6  3  1  5  5  6  9  3 17 14
  3 16  0  4 12 15  2 10  2  1 16 11  2  2 21  1 23  0  3 18 18  4 21  3
  3  1 19  6  9 11  4]"
5800,315.0,0.90625,4,1,23.15681743621826,5.205280780792236,5791,23200,302200,1422414,"[ 0  1  3  5  2  2  4  1  1  1  2  3  2  3  2  0  0  2  0  4  1  0  3  0
  0  2  2  3  3  4  2  6  7  1 12 10  2  5  6  3  1  5  5  6  9  3 17 14
  3 16  0  4 12 15  2 10  2  1 16 11  2  2 21  1 23  0  3 18 18  4 21  3
  3  1 19  6  9 11  4]"
5900,315.0,0.90625,4,1,23.592430353164673,4.356091022491455,5891,23600,307309,1444435,"[ 0  1  3  5  2  2  4  1  1  1  2  3  2  3  2  0  0  2  0  4  1  0  3  0
  0  2  2  3  3  4  2  6  7  1 12 10  2  5  6  3  1  5  5  6  9  3 17 14
  3 16  0  4 12 15  2 10  2  1 16 11  2  2 21  1 23  0  3 18 18  4 21  3
  3  1 19  6  9 11  4]"
6000,315.0,0.90625,4,1,23.954935550689697,3.625011444091797,5991,24000,312419,1466154,"[ 0  1  3  5  2  2  4  1  1  1  2  3  2  3  2  0  0  2  0  4  1  0  3  0
  0  2  2  3  3  4  2  6  7  1 12 10  2  5  6  3  1  5  5  6  9  3 17 14
  3 16  0  4 12 15  2 10  2  1 16 11  2  2 21  1 23  0  3 18 18  4 21  3
  3  1 19  6  9 11  4]"
6100,315.0,0.90625,4,1,24.30296516418457,3.4802627563476562,6091,24400,317466,1487657,"[ 0  1  3  5  2  2  4  1  1  1  2  3  2  3  2  0  0  2  0  4  1  0  3  0
  0  2  2  3  3  4  2  6  7  1 12 10  2  5  6  3  1  5  5  6  9  3 17 14
  3 16  0  4 12 15  2 10  2  1 16 11  2  2 21  1 23  0  3 18 18  4 21  3
  3  1 19  6  9 11  4]"
6200,315.0,0.90625,4,1,24.654349327087402,3.513805866241455,6191,24800,322527,1509121,"[ 0  1  3  5  2  2  4  1  1  1  2  3  2  3  2  0  0  2  0  4  1  0  3  0
  0  2  2  3  3  4  2  6  7  1 12 10  2  5  6  3  1  5  5  6  9  3 17 14
  3 16  0  4 12 15  2 10  2  1 16 11  2  2 21  1 23  0  3 18 18  4 21  3
  3  1 19  6  9 11  4]"
6300,315.0,0.90625,4,1,25.003705739974976,3.493528366088867,6291,25200,327599,1530734,"[ 0  1  3  5  2  2  4  1  1  1  2  3  2  3  2  0  0  2  0  4  1  0  3  0
  0  2  2  3  3  4  2  6  7  1 12 10  2  5  6  3  1  5  5  6  9  3 17 14
  3 16  0  4 12 15  2 10  2  1 16 11  2  2 21  1 23  0  3 18 18  4 21  3
  3  1 19  6  9 11  4]"
6400,315.0,0.90625,4,1,25.352932929992676,3.4922385215759277,6391,25600,332728,1552577,"[ 0  1  3  5  2  2  4  1  1  1  2  3  2  3  2  0  0  2  0  4  1  0  3  0
  0  2  2  3  3  4  2  6  7  1 12 10  2  5  6  3  1  5  5  6  9  3 17 14
  3 16  0  4 12 15  2 10  2  1 16 11  2  2 21  1 23  0  3 18 18  4 21  3
  3  1 19  6  9 11  4]"
6500,315.0,0.90625,4,1,25.697004079818726,3.440670967102051,6491,26000,337868,1574384,"[ 0  1  3  5  2  2  4  1  1  1  2  3  2  3  2  0  0  2  0  4  1  0  3  0
  0  2  2  3  3  4  2  6  7  1 12 10  2  5  6  3  1  5  5  6  9  3 17 14
  3 16  0  4 12 15  2 10  2  1 16 11  2  2 21  1 23  0  3 18 18  4 21  3
  3  1 19  6  9 11  4]"
6600,315.0,0.90625,4,1,26.03917384147644,3.42165470123291,6591,26400,343014,1595983,"[ 0  1  3  5  2  2  4  1  1  1  2  3  2  3  2  0  0  2  0  4  1  0  3  0
  0  2  2  3  3  4  2  6  7  1 12 10  2  5  6  3  1  5  5  6  9  3 17 14
  3 16  0  4 12 15  2 10  2  1 16 11  2  2 21  1 23  0  3 18 18  4 21  3
  3  1 19  6  9 11  4]"
6700,315.0,0.90625,4,1,26.38554286956787,3.4636569023132324,6691,26800,348129,1617625,"[ 0  1  3  5  2  2  4  1  1  1  2  3  2  3  2  0  0  2  0  4  1  0  3  0
  0  2  2  3  3  4  2  6  7  1 12 10  2  5  6  3  1  5  5  6  9  3 17 14
  3 16  0  4 12 15  2 10  2  1 16 11  2  2 21  1 23  0  3 18 18  4 21  3
  3  1 19  6  9 11  4]"
6800,315.0,0.90625,4,1,26.724910497665405,3.3936357498168945,6791,27200,353113,1639121,"[ 0  1  3  5  2  2  4  1  1  1  2  3  2  3  2  0  0  2  0  4  1  0  3  0
  0  2  2  3  3  4  2  6  7  1 12 10  2  5  6  3  1  5  5  6  9  3 17 14
  3 16  0  4 12 15  2 10  2  1 16 11  2  2 21  1 23  0  3 18 18  4 21  3
  3  1 19  6  9 11  4]"
6900,315.0,0.90625,4,1,27.069664001464844,3.4474992752075195,6891,27600,358289,1661388,"[ 0  1  3  5  2  2  4  1  1  1  2  3  2  3  2  0  0  2  0  4  1  0  3  0
  0  2  2  3  3  4  2  6  7  1 12 10  2  5  6  3  1  5  5  6  9  3 17 14
  3 16  0  4 12 15  2 10  2  1 16 11  2  2 21  1 23  0  3 18 18  4 21  3
  3  1 19  6  9 11  4]"
7000,315.0,0.90625,4,1,27.418081283569336,3.4841322898864746,6991,28000,363441,1683368,"[ 0  1  3  5  2  2  4  1  1  1  2  3  2  3  2  0  0  2  0  4  1  0  3  0
  0  2  2  3  3  4  2  6  7  1 12 10  2  5  6  3  1  5  5  6  9  3 17 14
  3 16  0  4 12 15  2 10  2  1 16 11  2  2 21  1 23  0  3 18 18  4 21  3
  3  1 19  6  9 11  4]"
7100,315.0,0.90625,4,1,27.753697872161865,3.3561348915100098,7091,28400,368504,1704806,"[ 0  1  3  5  2  2  4  1  1  1  2  3  2  3  2  0  0  2  0  4  1  0  3  0
  0  2  2  3  3  4  2  6  7  1 12 10  2  5  6  3  1  5  5  6  9  3 17 14
  3 16  0  4 12 15  2 10  2  1 16 11  2  2 21  1 23  0  3 18 18  4 21  3
  3  1 19  6  9 11  4]"
7200,315.0,0.90625,4,1,28.097405195236206,3.437037467956543,7191,28800,373595,1726528,"[ 0  1  3  5  2  2  4  1  1  1  2  3  2  3  2  0  0  2  0  4  1  0  3  0
  0  2  2  3  3  4  2  6  7  1 12 10  2  5  6  3  1  5  5  6  9  3 17 14
  3 16  0  4 12 15  2 10  2  1 16 11  2  2 21  1 23  0  3 18 18  4 21  3
  3  1 19  6  9 11  4]"
7300,315.0,0.90625,4,1,28.433622121810913,3.362135887145996,7291,29200,378583,1747640,"[ 0  1  3  5  2  2  4  1  1  1  2  3  2  3  2  0  0  2  0  4  1  0  3  0
  0  2  2  3  3  4  2  6  7  1 12 10  2  5  6  3  1  5  5  6  9  3 17 14
  3 16  0  4 12 15  2 10  2  1 16 11  2  2 21  1 23  0  3 18 18  4 21  3
  3  1 19  6  9 11  4]"
7400,315.0,0.90625,4,1,28.7836332321167,3.500072956085205,7391,29600,383734,1769780,"[ 0  1  3  5  2  2  4  1  1  1  2  3  2  3  2  0  0  2  0  4  1  0  3  0
  0  2  2  3  3  4  2  6  7  1 12 10  2  5  6  3  1  5  5  6  9  3 17 14
  3 16  0  4 12 15  2 10  2  1 16 11  2  2 21  1 23  0  3 18 18  4 21  3
  3  1 19  6  9 11  4]"
7500,315.0,0.90625,4,1,29.12702989578247,3.4339284896850586,7491,30000,388886,1791823,"[ 0  1  3  5  2  2  4  1  1  1  2  3  2  3  2  0  0  2  0  4  1  0  3  0
  0  2  2  3  3  4  2  6  7  1 12 10  2  5  6  3  1  5  5  6  9  3 17 14
  3 16  0  4 12 15  2 10  2  1 16 11  2  2 21  1 23  0  3 18 18  4 21  3
  3  1 19  6  9 11  4]"
7600,315.0,0.90625,4,1,29.462411403656006,3.3537793159484863,7591,30400,393890,1813026,"[ 0  1  3  5  2  2  4  1  1  1  2  3  2  3  2  0  0  2  0  4  1  0  3  0
  0  2  2  3  3  4  2  6  7  1 12 10  2  5  6  3  1  5  5  6  9  3 17 14
  3 16  0  4 12 15  2 10  2  1 16 11  2  2 21  1 23  0  3 18 18  4 21  3
  3  1 19  6  9 11  4]"
7700,315.0,0.90625,4,1,29.809914588928223,3.4749960899353027,7691,30800,398994,1834948,"[ 0  1  3  5  2  2  4  1  1  1  2  3  2  3  2  0  0  2  0  4  1  0  3  0
  0  2  2  3  3  4  2  6  7  1 12 10  2  5  6  3  1  5  5  6  9  3 17 14
  3 16  0  4 12 15  2 10  2  1 16 11  2  2 21  1 23  0  3 18 18  4 21  3
  3  1 19  6  9 11  4]"
7800,315.0,0.90625,4,1,30.149240732192993,3.393228054046631,7791,31200,404127,1856639,"[ 0  1  3  5  2  2  4  1  1  1  2  3  2  3  2  0  0  2  0  4  1  0  3  0
  0  2  2  3  3  4  2  6  7  1 12 10  2  5  6  3  1  5  5  6  9  3 17 14
  3 16  0  4 12 15  2 10  2  1 16 11  2  2 21  1 23  0  3 18 18  4 21  3
  3  1 19  6  9 11  4]"
7900,315.0,0.90625,4,1,30.49789524078369,3.486509323120117,7891,31600,409272,1878716,"[ 0  1  3  5  2  2  4  1  1  1  2  3  2  3  2  0  0  2  0  4  1  0  3  0
  0  2  2  3  3  4  2  6  7  1 12 10  2  5  6  3  1  5  5  6  9  3 17 14
  3 16  0  4 12 15  2 10  2  1 16 11  2  2 21  1 23  0  3 18 18  4 21  3
  3  1 19  6  9 11  4]"
8000,315.0,0.90625,4,1,30.84462881088257,3.4672999382019043,7991,32000,414367,1900677,"[ 0  1  3  5  2  2  4  1  1  1  2  3  2  3  2  0  0  2  0  4  1  0  3  0
  0  2  2  3  3  4  2  6  7  1 12 10  2  5  6  3  1  5  5  6  9  3 17 14
  3 16  0  4 12 15  2 10  2  1 16 11  2  2 21  1 23  0  3 18 18  4 21  3
  3  1 19  6  9 11  4]"
8100,315.0,0.90625,4,1,31.175146102905273,3.3051371574401855,8091,32400,419326,1921766,"[ 0  1  3  5  2  2  4  1  1  1  2  3  2  3  2  0  0  2  0  4  1  0  3  0
  0  2  2  3  3  4  2  6  7  1 12 10  2  5  6  3  1  5  5  6  9  3 17 14
  3 16  0  4 12 15  2 10  2  1 16 11  2  2 21  1 23  0  3 18 18  4 21  3
  3  1 19  6  9 11  4]"
8200,315.0,0.90625,4,1,31.516685485839844,3.41536283493042,8191,32800,424398,1943669,"[ 0  1  3  5  2  2  4  1  1  1  2  3  2  3  2  0  0  2  0  4  1  0  3  0
  0  2  2  3  3  4  2  6  7  1 12 10  2  5  6  3  1  5  5  6  9  3 17 14
  3 16  0  4 12 15  2 10  2  1 16 11  2  2 21  1 23  0  3 18 18  4 21  3
  3  1 19  6  9 11  4]"
8300,315.0,0.90625,4,1,31.853344678878784,3.36655855178833,8291,33200,429446,1965307,"[ 0  1  3  5  2  2  4  1  1  1  2  3  2  3  2  0  0  2  0  4  1  0  3  0
  0  2  2  3  3  4  2  6  7  1 12 10  2  5  6  3  1  5  5  6  9  3 17 14
  3 16  0  4 12 15  2 10  2  1 16 11  2  2 21  1 23  0  3 18 18  4 21  3
  3  1 19  6  9 11  4]"
8400,315.0,0.90625,4,1,32.18434762954712,3.3099961280822754,8391,33600,434502,1986317,"[ 0  1  3  5  2  2  4  1  1  1  2  3  2  3  2  0  0  2  0  4  1  0  3  0
  0  2  2  3  3  4  2  6  7  1 12 10  2  5  6  3  1  5  5  6  9  3 17 14
  3 16  0  4 12 15  2 10  2  1 16 11  2  2 21  1 23  0  3 18 18  4 21  3
  3  1 19  6  9 11  4]"
8500,315.0,0.90625,4,1,32.526601791381836,3.4225034713745117,8491,34000,439596,2008258,"[ 0  1  3  5  2  2  4  1  1  1  2  3  2  3  2  0  0  2  0  4  1  0  3  0
  0  2  2  3  3  4  2  6  7  1 12 10  2  5  6  3  1  5  5  6  9  3 17 14
  3 16  0  4 12 15  2 10  2  1 16 11  2  2 21  1 23  0  3 18 18  4 21  3
  3  1 19  6  9 11  4]"
8600,315.0,0.90625,4,1,32.860783100128174,3.3417749404907227,8591,34400,444649,2029640,"[ 0  1  3  5  2  2  4  1  1  1  2  3  2  3  2  0  0  2  0  4  1  0  3  0
  0  2  2  3  3  4  2  6  7  1 12 10  2  5  6  3  1  5  5  6  9  3 17 14
  3 16  0  4 12 15  2 10  2  1 16 11  2  2 21  1 23  0  3 18 18  4 21  3
  3  1 19  6  9 11  4]"
8700,315.0,0.90625,4,1,33.20202136039734,3.412344455718994,8691,34800,449766,2051473,"[ 0  1  3  5  2  2  4  1  1  1  2  3  2  3  2  0  0  2  0  4  1  0  3  0
  0  2  2  3  3  4  2  6  7  1 12 10  2  5  6  3  1  5  5  6  9  3 17 14
  3 16  0  4 12 15  2 10  2  1 16 11  2  2 21  1 23  0  3 18 18  4 21  3
  3  1 19  6  9 11  4]"
8800,315.0,0.90625,4,1,33.542380571365356,3.4035563468933105,8791,35200,454827,2073270,"[ 0  1  3  5  2  2  4  1  1  1  2  3  2  3  2  0  0  2  0  4  1  0  3  0
  0  2  2  3  3  4  2  6  7  1 12 10  2  5  6  3  1  5  5  6  9  3 17 14
  3 16  0  4 12 15  2 10  2  1 16 11  2  2 21  1 23  0  3 18 18  4 21  3
  3  1 19  6  9 11  4]"
8900,315.0,0.90625,4,1,33.8803927898407,3.3800888061523438,8891,35600,459864,2094483,"[ 0  1  3  5  2  2  4  1  1  1  2  3  2  3  2  0  0  2  0  4  1  0  3  0
  0  2  2  3  3  4  2  6  7  1 12 10  2  5  6  3  1  5  5  6  9  3 17 14
  3 16  0  4 12 15  2 10  2  1 16 11  2  2 21  1 23  0  3 18 18  4 21  3
  3  1 19  6  9 11  4]"
9000,315.0,0.90625,4,1,34.229957580566406,3.495607376098633,8991,36000,465035,2116353,"[ 0  1  3  5  2  2  4  1  1  1  2  3  2  3  2  0  0  2  0  4  1  0  3  0
  0  2  2  3  3  4  2  6  7  1 12 10  2  5  6  3  1  5  5  6  9  3 17 14
  3 16  0  4 12 15  2 10  2  1 16 11  2  2 21  1 23  0  3 18 18  4 21  3
  3  1 19  6  9 11  4]"
9100,315.0,0.90625,4,1,34.59716033935547,3.6719894409179688,9091,36400,470193,2138152,"[ 0  1  3  5  2  2  4  1  1  1  2  3  2  3  2  0  0  2  0  4  1  0  3  0
  0  2  2  3  3  4  2  6  7  1 12 10  2  5  6  3  1  5  5  6  9  3 17 14
  3 16  0  4 12 15  2 10  2  1 16 11  2  2 21  1 23  0  3 18 18  4 21  3
  3  1 19  6  9 11  4]"
9200,315.0,0.90625,4,1,34.94023370742798,3.4306955337524414,9191,36800,475248,2159830,"[ 0  1  3  5  2  2  4  1  1  1  2  3  2  3  2  0  0  2  0  4  1  0  3  0
  0  2  2  3  3  4  2  6  7  1 12 10  2  5  6  3  1  5  5  6  9  3 17 14
  3 16  0  4 12 15  2 10  2  1 16 11  2  2 21  1 23  0  3 18 18  4 21  3
  3  1 19  6  9 11  4]"
9300,315.0,0.90625,4,1,35.28229784965515,3.4206032752990723,9291,37200,480318,2181784,"[ 0  1  3  5  2  2  4  1  1  1  2  3  2  3  2  0  0  2  0  4  1  0  3  0
  0  2  2  3  3  4  2  6  7  1 12 10  2  5  6  3  1  5  5  6  9  3 17 14
  3 16  0  4 12 15  2 10  2  1 16 11  2  2 21  1 23  0  3 18 18  4 21  3
  3  1 19  6  9 11  4]"
9400,315.0,0.90625,4,1,35.631247758865356,3.4894537925720215,9391,37600,485377,2203304,"[ 0  1  3  5  2  2  4  1  1  1  2  3  2  3  2  0  0  2  0  4  1  0  3  0
  0  2  2  3  3  4  2  6  7  1 12 10  2  5  6  3  1  5  5  6  9  3 17 14
  3 16  0  4 12 15  2 10  2  1 16 11  2  2 21  1 23  0  3 18 18  4 21  3
  3  1 19  6  9 11  4]"
9500,315.0,0.90625,4,1,35.98824334144592,3.56992244720459,9491,38000,490447,2224884,"[ 0  1  3  5  2  2  4  1  1  1  2  3  2  3  2  0  0  2  0  4  1  0  3  0
  0  2  2  3  3  4  2  6  7  1 12 10  2  5  6  3  1  5  5  6  9  3 17 14
  3 16  0  4 12 15  2 10  2  1 16 11  2  2 21  1 23  0  3 18 18  4 21  3
  3  1 19  6  9 11  4]"
9600,315.0,0.90625,4,1,36.33704710006714,3.488004207611084,9591,38400,495511,2246727,"[ 0  1  3  5  2  2  4  1  1  1  2  3  2  3  2  0  0  2  0  4  1  0  3  0
  0  2  2  3  3  4  2  6  7  1 12 10  2  5  6  3  1  5  5  6  9  3 17 14
  3 16  0  4 12 15  2 10  2  1 16 11  2  2 21  1 23  0  3 18 18  4 21  3
  3  1 19  6  9 11  4]"
9700,315.0,0.90625,4,1,36.699830055236816,3.627793788909912,9691,38800,500619,2268283,"[ 0  1  3  5  2  2  4  1  1  1  2  3  2  3  2  0  0  2  0  4  1  0  3  0
  0  2  2  3  3  4  2  6  7  1 12 10  2  5  6  3  1  5  5  6  9  3 17 14
  3 16  0  4 12 15  2 10  2  1 16 11  2  2 21  1 23  0  3 18 18  4 21  3
  3  1 19  6  9 11  4]"
9800,315.0,0.90625,4,1,37.067689180374146,3.678557872772217,9791,39200,505777,2290100,"[ 0  1  3  5  2  2  4  1  1  1  2  3  2  3  2  0  0  2  0  4  1  0  3  0
  0  2  2  3  3  4  2  6  7  1 12 10  2  5  6  3  1  5  5  6  9  3 17 14
  3 16  0  4 12 15  2 10  2  1 16 11  2  2 21  1 23  0  3 18 18  4 21  3
  3  1 19  6  9 11  4]"
9900,315.0,0.90625,4,1,37.418139934539795,3.504471778869629,9891,39600,510877,2312068,"[ 0  1  3  5  2  2  4  1  1  1  2  3  2  3  2  0  0  2  0  4  1  0  3  0
  0  2  2  3  3  4  2  6  7  1 12 10  2  5  6  3  1  5  5  6  9  3 17 14
  3 16  0  4 12 15  2 10  2  1 16 11  2  2 21  1 23  0  3 18 18  4 21  3
  3  1 19  6  9 11  4]"
10000,315.0,0.90625,4,1,37.77446627616882,3.563213348388672,9991,40000,516049,2333646,"[ 0  1  3  5  2  2  4  1  1  1  2  3  2  3  2  0  0  2  0  4  1  0  3  0
  0  2  2  3  3  4  2  6  7  1 12 10  2  5  6  3  1  5  5  6  9  3 17 14
  3 16  0  4 12 15  2 10  2  1 16 11  2  2 21  1 23  0  3 18 18  4 21  3
  3  1 19  6  9 11  4]"
10100,315.0,0.90625,4,1,38.137226819992065,3.6275649070739746,10091,40400,521189,2355526,"[ 0  1  3  5  2  2  4  1  1  1  2  3  2  3  2  0  0  2  0  4  1  0  3  0
  0  2  2  3  3  4  2  6  7  1 12 10  2  5  6  3  1  5  5  6  9  3 17 14
  3 16  0  4 12 15  2 10  2  1 16 11  2  2 21  1 23  0  3 18 18  4 21  3
  3  1 19  6  9 11  4]"
10200,315.0,0.90625,4,1,38.53842091560364,4.011907577514648,10191,40800,526308,2377417,"[ 0  1  3  5  2  2  4  1  1  1  2  3  2  3  2  0  0  2  0  4  1  0  3  0
  0  2  2  3  3  4  2  6  7  1 12 10  2  5  6  3  1  5  5  6  9  3 17 14
  3 16  0  4 12 15  2 10  2  1 16 11  2  2 21  1 23  0  3 18 18  4 21  3
  3  1 19  6  9 11  4]"
10300,315.0,0.90625,4,1,38.90676164627075,3.6833715438842773,10291,41200,531386,2399059,"[ 0  1  3  5  2  2  4  1  1  1  2  3  2  3  2  0  0  2  0  4  1  0  3  0
  0  2  2  3  3  4  2  6  7  1 12 10  2  5  6  3  1  5  5  6  9  3 17 14
  3 16  0  4 12 15  2 10  2  1 16 11  2  2 21  1 23  0  3 18 18  4 21  3
  3  1 19  6  9 11  4]"
10400,315.0,0.90625,4,1,39.25455164909363,3.4778642654418945,10391,41600,536383,2420307,"[ 0  1  3  5  2  2  4  1  1  1  2  3  2  3  2  0  0  2  0  4  1  0  3  0
  0  2  2  3  3  4  2  6  7  1 12 10  2  5  6  3  1  5  5  6  9  3 17 14
  3 16  0  4 12 15  2 10  2  1 16 11  2  2 21  1 23  0  3 18 18  4 21  3
  3  1 19  6  9 11  4]"
10500,315.0,0.90625,4,1,39.63729763031006,3.8274145126342773,10491,42000,541504,2442186,"[ 0  1  3  5  2  2  4  1  1  1  2  3  2  3  2  0  0  2  0  4  1  0  3  0
  0  2  2  3  3  4  2  6  7  1 12 10  2  5  6  3  1  5  5  6  9  3 17 14
  3 16  0  4 12 15  2 10  2  1 16 11  2  2 21  1 23  0  3 18 18  4 21  3
  3  1 19  6  9 11  4]"
10600,315.0,0.90625,4,1,40.01416254043579,3.768608570098877,10591,42400,546657,2464367,"[ 0  1  3  5  2  2  4  1  1  1  2  3  2  3  2  0  0  2  0  4  1  0  3  0
  0  2  2  3  3  4  2  6  7  1 12 10  2  5  6  3  1  5  5  6  9  3 17 14
  3 16  0  4 12 15  2 10  2  1 16 11  2  2 21  1 23  0  3 18 18  4 21  3
  3  1 19  6  9 11  4]"
10700,315.0,0.90625,4,1,40.3672308921814,3.5306429862976074,10691,42800,551756,2486293,"[ 0  1  3  5  2  2  4  1  1  1  2  3  2  3  2  0  0  2  0  4  1  0  3  0
  0  2  2  3  3  4  2  6  7  1 12 10  2  5  6  3  1  5  5  6  9  3 17 14
  3 16  0  4 12 15  2 10  2  1 16 11  2  2 21  1 23  0  3 18 18  4 21  3
  3  1 19  6  9 11  4]"
10800,315.0,0.90625,4,1,40.71469473838806,3.474600315093994,10791,43200,556834,2508081,"[ 0  1  3  5  2  2  4  1  1  1  2  3  2  3  2  0  0  2  0  4  1  0  3  0
  0  2  2  3  3  4  2  6  7  1 12 10  2  5  6  3  1  5  5  6  9  3 17 14
  3 16  0  4 12 15  2 10  2  1 16 11  2  2 21  1 23  0  3 18 18  4 21  3
  3  1 19  6  9 11  4]"
10900,315.0,0.90625,4,1,41.063711404800415,3.490118980407715,10891,43600,561933,2529745,"[ 0  1  3  5  2  2  4  1  1  1  2  3  2  3  2  0  0  2  0  4  1  0  3  0
  0  2  2  3  3  4  2  6  7  1 12 10  2  5  6  3  1  5  5  6  9  3 17 14
  3 16  0  4 12 15  2 10  2  1 16 11  2  2 21  1 23  0  3 18 18  4 21  3
  3  1 19  6  9 11  4]"
11000,315.0,0.90625,4,1,41.41314768791199,3.4943151473999023,10991,44000,567029,2551383,"[ 0  1  3  5  2  2  4  1  1  1  2  3  2  3  2  0  0  2  0  4  1  0  3  0
  0  2  2  3  3  4  2  6  7  1 12 10  2  5  6  3  1  5  5  6  9  3 17 14
  3 16  0  4 12 15  2 10  2  1 16 11  2  2 21  1 23  0  3 18 18  4 21  3
  3  1 19  6  9 11  4]"
11100,315.0,0.90625,4,1,41.74920296669006,3.3605170249938965,11091,44400,572049,2572809,"[ 0  1  3  5  2  2  4  1  1  1  2  3  2  3  2  0  0  2  0  4  1  0  3  0
  0  2  2  3  3  4  2  6  7  1 12 10  2  5  6  3  1  5  5  6  9  3 17 14
  3 16  0  4 12 15  2 10  2  1 16 11  2  2 21  1 23  0  3 18 18  4 21  3
  3  1 19  6  9 11  4]"
11200,315.0,0.90625,4,1,42.0827374458313,3.3353090286254883,11191,44800,577040,2593992,"[ 0  1  3  5  2  2  4  1  1  1  2  3  2  3  2  0  0  2  0  4  1  0  3  0
  0  2  2  3  3  4  2  6  7  1 12 10  2  5  6  3  1  5  5  6  9  3 17 14
  3 16  0  4 12 15  2 10  2  1 16 11  2  2 21  1 23  0  3 18 18  4 21  3
  3  1 19  6  9 11  4]"
11300,315.0,0.90625,4,1,42.42826294898987,3.455221652984619,11291,45200,582300,2616158,"[ 0  1  3  5  2  2  4  1  1  1  2  3  2  3  2  0  0  2  0  4  1  0  3  0
  0  2  2  3  3  4  2  6  7  1 12 10  2  5  6  3  1  5  5  6  9  3 17 14
  3 16  0  4 12 15  2 10  2  1 16 11  2  2 21  1 23  0  3 18 18  4 21  3
  3  1 19  6  9 11  4]"
11400,315.0,0.90625,4,1,42.77111220359802,3.4284567832946777,11391,45600,587351,2637854,"[ 0  1  3  5  2  2  4  1  1  1  2  3  2  3  2  0  0  2  0  4  1  0  3  0
  0  2  2  3  3  4  2  6  7  1 12 10  2  5  6  3  1  5  5  6  9  3 17 14
  3 16  0  4 12 15  2 10  2  1 16 11  2  2 21  1 23  0  3 18 18  4 21  3
  3  1 19  6  9 11  4]"
11500,315.0,0.90625,4,1,43.12065553665161,3.4953808784484863,11491,46000,592452,2659900,"[ 0  1  3  5  2  2  4  1  1  1  2  3  2  3  2  0  0  2  0  4  1  0  3  0
  0  2  2  3  3  4  2  6  7  1 12 10  2  5  6  3  1  5  5  6  9  3 17 14
  3 16  0  4 12 15  2 10  2  1 16 11  2  2 21  1 23  0  3 18 18  4 21  3
  3  1 19  6  9 11  4]"
11600,315.0,0.90625,4,1,43.46239733695984,3.417370319366455,11591,46400,597546,2681266,"[ 0  1  3  5  2  2  4  1  1  1  2  3  2  3  2  0  0  2  0  4  1  0  3  0
  0  2  2  3  3  4  2  6  7  1 12 10  2  5  6  3  1  5  5  6  9  3 17 14
  3 16  0  4 12 15  2 10  2  1 16 11  2  2 21  1 23  0  3 18 18  4 21  3
  3  1 19  6  9 11  4]"
11700,315.0,0.90625,4,1,43.80437731742859,3.419766426086426,11691,46800,602596,2702729,"[ 0  1  3  5  2  2  4  1  1  1  2  3  2  3  2  0  0  2  0  4  1  0  3  0
  0  2  2  3  3  4  2  6  7  1 12 10  2  5  6  3  1  5  5  6  9  3 17 14
  3 16  0  4 12 15  2 10  2  1 16 11  2  2 21  1 23  0  3 18 18  4 21  3
  3  1 19  6  9 11  4]"
11800,315.0,0.90625,4,1,44.156187534332275,3.518068790435791,11791,47200,607718,2724755,"[ 0  1  3  5  2  2  4  1  1  1  2  3  2  3  2  0  0  2  0  4  1  0  3  0
  0  2  2  3  3  4  2  6  7  1 12 10  2  5  6  3  1  5  5  6  9  3 17 14
  3 16  0  4 12 15  2 10  2  1 16 11  2  2 21  1 23  0  3 18 18  4 21  3
  3  1 19  6  9 11  4]"
11900,315.0,0.90625,4,1,44.49922442436218,3.430328369140625,11891,47600,612794,2746436,"[ 0  1  3  5  2  2  4  1  1  1  2  3  2  3  2  0  0  2  0  4  1  0  3  0
  0  2  2  3  3  4  2  6  7  1 12 10  2  5  6  3  1  5  5  6  9  3 17 14
  3 16  0  4 12 15  2 10  2  1 16 11  2  2 21  1 23  0  3 18 18  4 21  3
  3  1 19  6  9 11  4]"
12000,315.0,0.90625,4,1,44.897196531295776,3.979678153991699,11991,48000,617971,2768512,"[ 0  1  3  5  2  2  4  1  1  1  2  3  2  3  2  0  0  2  0  4  1  0  3  0
  0  2  2  3  3  4  2  6  7  1 12 10  2  5  6  3  1  5  5  6  9  3 17 14
  3 16  0  4 12 15  2 10  2  1 16 11  2  2 21  1 23  0  3 18 18  4 21  3
  3  1 19  6  9 11  4]"
12100,315.0,0.90625,4,1,45.44755697250366,5.503561496734619,12091,48400,623025,2789955,"[ 0  1  3  5  2  2  4  1  1  1  2  3  2  3  2  0  0  2  0  4  1  0  3  0
  0  2  2  3  3  4  2  6  7  1 12 10  2  5  6  3  1  5  5  6  9  3 17 14
  3 16  0  4 12 15  2 10  2  1 16 11  2  2 21  1 23  0  3 18 18  4 21  3
  3  1 19  6  9 11  4]"
12200,315.0,0.90625,4,1,45.865833044052124,4.182717800140381,12191,48800,628127,2811529,"[ 0  1  3  5  2  2  4  1  1  1  2  3  2  3  2  0  0  2  0  4  1  0  3  0
  0  2  2  3  3  4  2  6  7  1 12 10  2  5  6  3  1  5  5  6  9  3 17 14
  3 16  0  4 12 15  2 10  2  1 16 11  2  2 21  1 23  0  3 18 18  4 21  3
  3  1 19  6  9 11  4]"
12300,315.0,0.90625,4,1,46.231693983078,3.658573627471924,12291,49200,633319,2833970,"[ 0  1  3  5  2  2  4  1  1  1  2  3  2  3  2  0  0  2  0  4  1  0  3  0
  0  2  2  3  3  4  2  6  7  1 12 10  2  5  6  3  1  5  5  6  9  3 17 14
  3 16  0  4 12 15  2 10  2  1 16 11  2  2 21  1 23  0  3 18 18  4 21  3
  3  1 19  6  9 11  4]"
12400,315.0,0.90625,4,1,46.59402656555176,3.6232900619506836,12391,49600,638428,2855633,"[ 0  1  3  5  2  2  4  1  1  1  2  3  2  3  2  0  0  2  0  4  1  0  3  0
  0  2  2  3  3  4  2  6  7  1 12 10  2  5  6  3  1  5  5  6  9  3 17 14
  3 16  0  4 12 15  2 10  2  1 16 11  2  2 21  1 23  0  3 18 18  4 21  3
  3  1 19  6  9 11  4]"
12500,315.0,0.90625,4,1,46.99734568595886,4.033157825469971,12491,50000,643672,2877875,"[ 0  1  3  5  2  2  4  1  1  1  2  3  2  3  2  0  0  2  0  4  1  0  3  0
  0  2  2  3  3  4  2  6  7  1 12 10  2  5  6  3  1  5  5  6  9  3 17 14
  3 16  0  4 12 15  2 10  2  1 16 11  2  2 21  1 23  0  3 18 18  4 21  3
  3  1 19  6  9 11  4]"
12600,315.0,0.90625,4,1,47.394734144210815,3.973846435546875,12591,50400,648777,2899320,"[ 0  1  3  5  2  2  4  1  1  1  2  3  2  3  2  0  0  2  0  4  1  0  3  0
  0  2  2  3  3  4  2  6  7  1 12 10  2  5  6  3  1  5  5  6  9  3 17 14
  3 16  0  4 12 15  2 10  2  1 16 11  2  2 21  1 23  0  3 18 18  4 21  3
  3  1 19  6  9 11  4]"
12700,315.0,0.90625,4,1,47.745920181274414,3.511819839477539,12691,50800,653807,2920969,"[ 0  1  3  5  2  2  4  1  1  1  2  3  2  3  2  0  0  2  0  4  1  0  3  0
  0  2  2  3  3  4  2  6  7  1 12 10  2  5  6  3  1  5  5  6  9  3 17 14
  3 16  0  4 12 15  2 10  2  1 16 11  2  2 21  1 23  0  3 18 18  4 21  3
  3  1 19  6  9 11  4]"
12800,315.0,0.90625,4,1,48.15546274185181,4.095392227172852,12791,51200,658909,2942570,"[ 0  1  3  5  2  2  4  1  1  1  2  3  2  3  2  0  0  2  0  4  1  0  3  0
  0  2  2  3  3  4  2  6  7  1 12 10  2  5  6  3  1  5  5  6  9  3 17 14
  3 16  0  4 12 15  2 10  2  1 16 11  2  2 21  1 23  0  3 18 18  4 21  3
  3  1 19  6  9 11  4]"
12900,315.0,0.90625,4,1,48.505648612976074,3.5018229484558105,12891,51600,663961,2964132,"[ 0  1  3  5  2  2  4  1  1  1  2  3  2  3  2  0  0  2  0  4  1  0  3  0
  0  2  2  3  3  4  2  6  7  1 12 10  2  5  6  3  1  5  5  6  9  3 17 14
  3 16  0  4 12 15  2 10  2  1 16 11  2  2 21  1 23  0  3 18 18  4 21  3
  3  1 19  6  9 11  4]"
13000,315.0,0.90625,4,1,48.857489585876465,3.518369197845459,12991,52000,668971,2985767,"[ 0  1  3  5  2  2  4  1  1  1  2  3  2  3  2  0  0  2  0  4  1  0  3  0
  0  2  2  3  3  4  2  6  7  1 12 10  2  5  6  3  1  5  5  6  9  3 17 14
  3 16  0  4 12 15  2 10  2  1 16 11  2  2 21  1 23  0  3 18 18  4 21  3
  3  1 19  6  9 11  4]"
13100,315.0,0.90625,4,1,49.23629975318909,3.7880659103393555,13091,52400,674163,3008039,"[ 0  1  3  5  2  2  4  1  1  1  2  3  2  3  2  0  0  2  0  4  1  0  3  0
  0  2  2  3  3  4  2  6  7  1 12 10  2  5  6  3  1  5  5  6  9  3 17 14
  3 16  0  4 12 15  2 10  2  1 16 11  2  2 21  1 23  0  3 18 18  4 21  3
  3  1 19  6  9 11  4]"
13200,315.0,0.90625,4,1,49.602399587631226,3.6609673500061035,13191,52800,679314,3030257,"[ 0  1  3  5  2  2  4  1  1  1  2  3  2  3  2  0  0  2  0  4  1  0  3  0
  0  2  2  3  3  4  2  6  7  1 12 10  2  5  6  3  1  5  5  6  9  3 17 14
  3 16  0  4 12 15  2 10  2  1 16 11  2  2 21  1 23  0  3 18 18  4 21  3
  3  1 19  6  9 11  4]"
13300,315.0,0.90625,4,1,49.94685077667236,3.4444713592529297,13291,53200,684301,3051492,"[ 0  1  3  5  2  2  4  1  1  1  2  3  2  3  2  0  0  2  0  4  1  0  3  0
  0  2  2  3  3  4  2  6  7  1 12 10  2  5  6  3  1  5  5  6  9  3 17 14
  3 16  0  4 12 15  2 10  2  1 16 11  2  2 21  1 23  0  3 18 18  4 21  3
  3  1 19  6  9 11  4]"
13400,315.0,0.90625,4,1,50.30338931083679,3.565354347229004,13391,53600,689420,3073239,"[ 0  1  3  5  2  2  4  1  1  1  2  3  2  3  2  0  0  2  0  4  1  0  3  0
  0  2  2  3  3  4  2  6  7  1 12 10  2  5  6  3  1  5  5  6  9  3 17 14
  3 16  0  4 12 15  2 10  2  1 16 11  2  2 21  1 23  0  3 18 18  4 21  3
  3  1 19  6  9 11  4]"
13500,315.0,0.90625,4,1,50.66479730606079,3.614044189453125,13491,54000,694526,3095330,"[ 0  1  3  5  2  2  4  1  1  1  2  3  2  3  2  0  0  2  0  4  1  0  3  0
  0  2  2  3  3  4  2  6  7  1 12 10  2  5  6  3  1  5  5  6  9  3 17 14
  3 16  0  4 12 15  2 10  2  1 16 11  2  2 21  1 23  0  3 18 18  4 21  3
  3  1 19  6  9 11  4]"
13600,315.0,0.90625,4,1,51.0344762802124,3.696751594543457,13591,54400,699604,3117398,"[ 0  1  3  5  2  2  4  1  1  1  2  3  2  3  2  0  0  2  0  4  1  0  3  0
  0  2  2  3  3  4  2  6  7  1 12 10  2  5  6  3  1  5  5  6  9  3 17 14
  3 16  0  4 12 15  2 10  2  1 16 11  2  2 21  1 23  0  3 18 18  4 21  3
  3  1 19  6  9 11  4]"
13700,315.0,0.90625,4,1,51.414750814437866,3.8027071952819824,13691,54800,704578,3138893,"[ 0  1  3  5  2  2  4  1  1  1  2  3  2  3  2  0  0  2  0  4  1  0  3  0
  0  2  2  3  3  4  2  6  7  1 12 10  2  5  6  3  1  5  5  6  9  3 17 14
  3 16  0  4 12 15  2 10  2  1 16 11  2  2 21  1 23  0  3 18 18  4 21  3
  3  1 19  6  9 11  4]"
13800,315.0,0.90625,4,1,51.762064695358276,3.4731030464172363,13791,55200,709558,3160200,"[ 0  1  3  5  2  2  4  1  1  1  2  3  2  3  2  0  0  2  0  4  1  0  3  0
  0  2  2  3  3  4  2  6  7  1 12 10  2  5  6  3  1  5  5  6  9  3 17 14
  3 16  0  4 12 15  2 10  2  1 16 11  2  2 21  1 23  0  3 18 18  4 21  3
  3  1 19  6  9 11  4]"
13900,315.0,0.90625,4,1,52.11491799354553,3.5284972190856934,13891,55600,714676,3181845,"[ 0  1  3  5  2  2  4  1  1  1  2  3  2  3  2  0  0  2  0  4  1  0  3  0
  0  2  2  3  3  4  2  6  7  1 12 10  2  5  6  3  1  5  5  6  9  3 17 14
  3 16  0  4 12 15  2 10  2  1 16 11  2  2 21  1 23  0  3 18 18  4 21  3
  3  1 19  6  9 11  4]"
14000,315.0,0.90625,4,1,52.48403525352478,3.691134452819824,13991,56000,719708,3203313,"[ 0  1  3  5  2  2  4  1  1  1  2  3  2  3  2  0  0  2  0  4  1  0  3  0
  0  2  2  3  3  4  2  6  7  1 12 10  2  5  6  3  1  5  5  6  9  3 17 14
  3 16  0  4 12 15  2 10  2  1 16 11  2  2 21  1 23  0  3 18 18  4 21  3
  3  1 19  6  9 11  4]"
14100,315.0,0.90625,4,1,52.827592849731445,3.435540199279785,14091,56400,724774,3225240,"[ 0  1  3  5  2  2  4  1  1  1  2  3  2  3  2  0  0  2  0  4  1  0  3  0
  0  2  2  3  3  4  2  6  7  1 12 10  2  5  6  3  1  5  5  6  9  3 17 14
  3 16  0  4 12 15  2 10  2  1 16 11  2  2 21  1 23  0  3 18 18  4 21  3
  3  1 19  6  9 11  4]"
14200,315.0,0.90625,4,1,53.17507314682007,3.474764823913574,14191,56800,729954,3247377,"[ 0  1  3  5  2  2  4  1  1  1  2  3  2  3  2  0  0  2  0  4  1  0  3  0
  0  2  2  3  3  4  2  6  7  1 12 10  2  5  6  3  1  5  5  6  9  3 17 14
  3 16  0  4 12 15  2 10  2  1 16 11  2  2 21  1 23  0  3 18 18  4 21  3
  3  1 19  6  9 11  4]"
14300,315.0,0.90625,4,1,53.516772985458374,3.4169673919677734,14291,57200,735080,3269448,"[ 0  1  3  5  2  2  4  1  1  1  2  3  2  3  2  0  0  2  0  4  1  0  3  0
  0  2  2  3  3  4  2  6  7  1 12 10  2  5  6  3  1  5  5  6  9  3 17 14
  3 16  0  4 12 15  2 10  2  1 16 11  2  2 21  1 23  0  3 18 18  4 21  3
  3  1 19  6  9 11  4]"
14400,315.0,0.90625,4,1,53.857282876968384,3.4050679206848145,14391,57600,740206,3291577,"[ 0  1  3  5  2  2  4  1  1  1  2  3  2  3  2  0  0  2  0  4  1  0  3  0
  0  2  2  3  3  4  2  6  7  1 12 10  2  5  6  3  1  5  5  6  9  3 17 14
  3 16  0  4 12 15  2 10  2  1 16 11  2  2 21  1 23  0  3 18 18  4 21  3
  3  1 19  6  9 11  4]"
14500,315.0,0.90625,4,1,54.20013499259949,3.428490161895752,14491,58000,745253,3313196,"[ 0  1  3  5  2  2  4  1  1  1  2  3  2  3  2  0  0  2  0  4  1  0  3  0
  0  2  2  3  3  4  2  6  7  1 12 10  2  5  6  3  1  5  5  6  9  3 17 14
  3 16  0  4 12 15  2 10  2  1 16 11  2  2 21  1 23  0  3 18 18  4 21  3
  3  1 19  6  9 11  4]"
14600,315.0,0.90625,4,1,54.53655529022217,3.3641648292541504,14591,58400,750316,3334748,"[ 0  1  3  5  2  2  4  1  1  1  2  3  2  3  2  0  0  2  0  4  1  0  3  0
  0  2  2  3  3  4  2  6  7  1 12 10  2  5  6  3  1  5  5  6  9  3 17 14
  3 16  0  4 12 15  2 10  2  1 16 11  2  2 21  1 23  0  3 18 18  4 21  3
  3  1 19  6  9 11  4]"
14700,315.0,0.90625,4,1,54.87360763549805,3.370482921600342,14691,58800,755341,3356255,"[ 0  1  3  5  2  2  4  1  1  1  2  3  2  3  2  0  0  2  0  4  1  0  3  0
  0  2  2  3  3  4  2  6  7  1 12 10  2  5  6  3  1  5  5  6  9  3 17 14
  3 16  0  4 12 15  2 10  2  1 16 11  2  2 21  1 23  0  3 18 18  4 21  3
  3  1 19  6  9 11  4]"
14800,315.0,0.90625,4,1,55.23064661026001,3.5703587532043457,14791,59200,760407,3378409,"[ 0  1  3  5  2  2  4  1  1  1  2  3  2  3  2  0  0  2  0  4  1  0  3  0
  0  2  2  3  3  4  2  6  7  1 12 10  2  5  6  3  1  5  5  6  9  3 17 14
  3 16  0  4 12 15  2 10  2  1 16 11  2  2 21  1 23  0  3 18 18  4 21  3
  3  1 19  6  9 11  4]"
14900,315.0,0.90625,4,1,55.58117437362671,3.505244255065918,14891,59600,765602,3400506,"[ 0  1  3  5  2  2  4  1  1  1  2  3  2  3  2  0  0  2  0  4  1  0  3  0
  0  2  2  3  3  4  2  6  7  1 12 10  2  5  6  3  1  5  5  6  9  3 17 14
  3 16  0  4 12 15  2 10  2  1 16 11  2  2 21  1 23  0  3 18 18  4 21  3
  3  1 19  6  9 11  4]"
15000,315.0,0.90625,4,1,55.92148160934448,3.403031826019287,14991,60000,770721,3422053,"[ 0  1  3  5  2  2  4  1  1  1  2  3  2  3  2  0  0  2  0  4  1  0  3  0
  0  2  2  3  3  4  2  6  7  1 12 10  2  5  6  3  1  5  5  6  9  3 17 14
  3 16  0  4 12 15  2 10  2  1 16 11  2  2 21  1 23  0  3 18 18  4 21  3
  3  1 19  6  9 11  4]"
15100,315.0,0.90625,4,1,56.27264738082886,3.511624336242676,15091,60400,775948,3444330,"[ 0  1  3  5  2  2  4  1  1  1  2  3  2  3  2  0  0  2  0  4  1  0  3  0
  0  2  2  3  3  4  2  6  7  1 12 10  2  5  6  3  1  5  5  6  9  3 17 14
  3 16  0  4 12 15  2 10  2  1 16 11  2  2 21  1 23  0  3 18 18  4 21  3
  3  1 19  6  9 11  4]"
15200,315.0,0.90625,4,1,56.61211848258972,3.3946752548217773,15191,60800,780972,3465803,"[ 0  1  3  5  2  2  4  1  1  1  2  3  2  3  2  0  0  2  0  4  1  0  3  0
  0  2  2  3  3  4  2  6  7  1 12 10  2  5  6  3  1  5  5  6  9  3 17 14
  3 16  0  4 12 15  2 10  2  1 16 11  2  2 21  1 23  0  3 18 18  4 21  3
  3  1 19  6  9 11  4]"
15300,315.0,0.90625,4,1,57.00204038619995,3.8991832733154297,15291,61200,786047,3487659,"[ 0  1  3  5  2  2  4  1  1  1  2  3  2  3  2  0  0  2  0  4  1  0  3  0
  0  2  2  3  3  4  2  6  7  1 12 10  2  5  6  3  1  5  5  6  9  3 17 14
  3 16  0  4 12 15  2 10  2  1 16 11  2  2 21  1 23  0  3 18 18  4 21  3
  3  1 19  6  9 11  4]"
15400,315.0,0.90625,4,1,57.34533929824829,3.432953357696533,15391,61600,791128,3509176,"[ 0  1  3  5  2  2  4  1  1  1  2  3  2  3  2  0  0  2  0  4  1  0  3  0
  0  2  2  3  3  4  2  6  7  1 12 10  2  5  6  3  1  5  5  6  9  3 17 14
  3 16  0  4 12 15  2 10  2  1 16 11  2  2 21  1 23  0  3 18 18  4 21  3
  3  1 19  6  9 11  4]"
15500,315.0,0.90625,4,1,57.698909759521484,3.5356688499450684,15491,62000,796343,3531808,"[ 0  1  3  5  2  2  4  1  1  1  2  3  2  3  2  0  0  2  0  4  1  0  3  0
  0  2  2  3  3  4  2  6  7  1 12 10  2  5  6  3  1  5  5  6  9  3 17 14
  3 16  0  4 12 15  2 10  2  1 16 11  2  2 21  1 23  0  3 18 18  4 21  3
  3  1 19  6  9 11  4]"
15600,315.0,0.90625,4,1,58.09822058677673,3.993072509765625,15591,62400,801421,3553377,"[ 0  1  3  5  2  2  4  1  1  1  2  3  2  3  2  0  0  2  0  4  1  0  3  0
  0  2  2  3  3  4  2  6  7  1 12 10  2  5  6  3  1  5  5  6  9  3 17 14
  3 16  0  4 12 15  2 10  2  1 16 11  2  2 21  1 23  0  3 18 18  4 21  3
  3  1 19  6  9 11  4]"
15700,315.0,0.90625,4,1,58.46373701095581,3.6551260948181152,15691,62800,806362,3574606,"[ 0  1  3  5  2  2  4  1  1  1  2  3  2  3  2  0  0  2  0  4  1  0  3  0
  0  2  2  3  3  4  2  6  7  1 12 10  2  5  6  3  1  5  5  6  9  3 17 14
  3 16  0  4 12 15  2 10  2  1 16 11  2  2 21  1 23  0  3 18 18  4 21  3
  3  1 19  6  9 11  4]"
15800,315.0,0.90625,4,1,58.810750246047974,3.4700965881347656,15791,63200,811421,3596475,"[ 0  1  3  5  2  2  4  1  1  1  2  3  2  3  2  0  0  2  0  4  1  0  3  0
  0  2  2  3  3  4  2  6  7  1 12 10  2  5  6  3  1  5  5  6  9  3 17 14
  3 16  0  4 12 15  2 10  2  1 16 11  2  2 21  1 23  0  3 18 18  4 21  3
  3  1 19  6  9 11  4]"
15900,315.0,0.90625,4,1,59.23296523094177,4.222111701965332,15891,63600,816609,3618691,"[ 0  1  3  5  2  2  4  1  1  1  2  3  2  3  2  0  0  2  0  4  1  0  3  0
  0  2  2  3  3  4  2  6  7  1 12 10  2  5  6  3  1  5  5  6  9  3 17 14
  3 16  0  4 12 15  2 10  2  1 16 11  2  2 21  1 23  0  3 18 18  4 21  3
  3  1 19  6  9 11  4]"
16000,315.0,0.90625,4,1,59.59411692619324,3.611478805541992,15991,64000,821782,3641133,"[ 0  1  3  5  2  2  4  1  1  1  2  3  2  3  2  0  0  2  0  4  1  0  3  0
  0  2  2  3  3  4  2  6  7  1 12 10  2  5  6  3  1  5  5  6  9  3 17 14
  3 16  0  4 12 15  2 10  2  1 16 11  2  2 21  1 23  0  3 18 18  4 21  3
  3  1 19  6  9 11  4]"
16100,315.0,0.90625,4,1,59.95156741142273,3.5744667053222656,16091,64400,827045,3663415,"[ 0  1  3  5  2  2  4  1  1  1  2  3  2  3  2  0  0  2  0  4  1  0  3  0
  0  2  2  3  3  4  2  6  7  1 12 10  2  5  6  3  1  5  5  6  9  3 17 14
  3 16  0  4 12 15  2 10  2  1 16 11  2  2 21  1 23  0  3 18 18  4 21  3
  3  1 19  6  9 11  4]"
16200,315.0,0.90625,4,1,60.38506841659546,4.33497428894043,16191,64800,832180,3685233,"[ 0  1  3  5  2  2  4  1  1  1  2  3  2  3  2  0  0  2  0  4  1  0  3  0
  0  2  2  3  3  4  2  6  7  1 12 10  2  5  6  3  1  5  5  6  9  3 17 14
  3 16  0  4 12 15  2 10  2  1 16 11  2  2 21  1 23  0  3 18 18  4 21  3
  3  1 19  6  9 11  4]"
16300,315.0,0.90625,4,1,60.75021243095398,3.651406764984131,16291,65200,837266,3707238,"[ 0  1  3  5  2  2  4  1  1  1  2  3  2  3  2  0  0  2  0  4  1  0  3  0
  0  2  2  3  3  4  2  6  7  1 12 10  2  5  6  3  1  5  5  6  9  3 17 14
  3 16  0  4 12 15  2 10  2  1 16 11  2  2 21  1 23  0  3 18 18  4 21  3
  3  1 19  6  9 11  4]"
16400,315.0,0.90625,4,1,61.128150939941406,3.7793540954589844,16391,65600,842389,3729348,"[ 0  1  3  5  2  2  4  1  1  1  2  3  2  3  2  0  0  2  0  4  1  0  3  0
  0  2  2  3  3  4  2  6  7  1 12 10  2  5  6  3  1  5  5  6  9  3 17 14
  3 16  0  4 12 15  2 10  2  1 16 11  2  2 21  1 23  0  3 18 18  4 21  3
  3  1 19  6  9 11  4]"
16500,315.0,0.90625,4,1,61.48577642440796,3.576216697692871,16491,66000,847508,3750970,"[ 0  1  3  5  2  2  4  1  1  1  2  3  2  3  2  0  0  2  0  4  1  0  3  0
  0  2  2  3  3  4  2  6  7  1 12 10  2  5  6  3  1  5  5  6  9  3 17 14
  3 16  0  4 12 15  2 10  2  1 16 11  2  2 21  1 23  0  3 18 18  4 21  3
  3  1 19  6  9 11  4]"
16600,315.0,0.90625,4,1,61.832377433776855,3.4659767150878906,16591,66400,852467,3772465,"[ 0  1  3  5  2  2  4  1  1  1  2  3  2  3  2  0  0  2  0  4  1  0  3  0
  0  2  2  3  3  4  2  6  7  1 12 10  2  5  6  3  1  5  5  6  9  3 17 14
  3 16  0  4 12 15  2 10  2  1 16 11  2  2 21  1 23  0  3 18 18  4 21  3
  3  1 19  6  9 11  4]"
16700,315.0,0.90625,4,1,62.17439389228821,3.42012882232666,16691,66800,857562,3794038,"[ 0  1  3  5  2  2  4  1  1  1  2  3  2  3  2  0  0  2  0  4  1  0  3  0
  0  2  2  3  3  4  2  6  7  1 12 10  2  5  6  3  1  5  5  6  9  3 17 14
  3 16  0  4 12 15  2 10  2  1 16 11  2  2 21  1 23  0  3 18 18  4 21  3
  3  1 19  6  9 11  4]"
16800,315.0,0.90625,4,1,62.515414237976074,3.410162925720215,16791,67200,862621,3815347,"[ 0  1  3  5  2  2  4  1  1  1  2  3  2  3  2  0  0  2  0  4  1  0  3  0
  0  2  2  3  3  4  2  6  7  1 12 10  2  5  6  3  1  5  5  6  9  3 17 14
  3 16  0  4 12 15  2 10  2  1 16 11  2  2 21  1 23  0  3 18 18  4 21  3
  3  1 19  6  9 11  4]"
16900,315.0,0.90625,4,1,62.8567054271698,3.4128737449645996,16891,67600,867685,3836841,"[ 0  1  3  5  2  2  4  1  1  1  2  3  2  3  2  0  0  2  0  4  1  0  3  0
  0  2  2  3  3  4  2  6  7  1 12 10  2  5  6  3  1  5  5  6  9  3 17 14
  3 16  0  4 12 15  2 10  2  1 16 11  2  2 21  1 23  0  3 18 18  4 21  3
  3  1 19  6  9 11  4]"
17000,315.0,0.90625,4,1,63.2072651386261,3.505558967590332,16991,68000,872833,3858960,"[ 0  1  3  5  2  2  4  1  1  1  2  3  2  3  2  0  0  2  0  4  1  0  3  0
  0  2  2  3  3  4  2  6  7  1 12 10  2  5  6  3  1  5  5  6  9  3 17 14
  3 16  0  4 12 15  2 10  2  1 16 11  2  2 21  1 23  0  3 18 18  4 21  3
  3  1 19  6  9 11  4]"
17100,315.0,0.90625,4,1,63.551066875457764,3.437981605529785,17091,68400,877945,3881058,"[ 0  1  3  5  2  2  4  1  1  1  2  3  2  3  2  0  0  2  0  4  1  0  3  0
  0  2  2  3  3  4  2  6  7  1 12 10  2  5  6  3  1  5  5  6  9  3 17 14
  3 16  0  4 12 15  2 10  2  1 16 11  2  2 21  1 23  0  3 18 18  4 21  3
  3  1 19  6  9 11  4]"
17200,315.0,0.90625,4,1,63.88783550262451,3.367645740509033,17191,68800,882859,3902055,"[ 0  1  3  5  2  2  4  1  1  1  2  3  2  3  2  0  0  2  0  4  1  0  3  0
  0  2  2  3  3  4  2  6  7  1 12 10  2  5  6  3  1  5  5  6  9  3 17 14
  3 16  0  4 12 15  2 10  2  1 16 11  2  2 21  1 23  0  3 18 18  4 21  3
  3  1 19  6  9 11  4]"
17300,315.0,0.90625,4,1,64.22565817832947,3.3781909942626953,17291,69200,887839,3923413,"[ 0  1  3  5  2  2  4  1  1  1  2  3  2  3  2  0  0  2  0  4  1  0  3  0
  0  2  2  3  3  4  2  6  7  1 12 10  2  5  6  3  1  5  5  6  9  3 17 14
  3 16  0  4 12 15  2 10  2  1 16 11  2  2 21  1 23  0  3 18 18  4 21  3
  3  1 19  6  9 11  4]"
17400,315.0,0.90625,4,1,64.56285643577576,3.3719468116760254,17391,69600,892927,3945118,"[ 0  1  3  5  2  2  4  1  1  1  2  3  2  3  2  0  0  2  0  4  1  0  3  0
  0  2  2  3  3  4  2  6  7  1 12 10  2  5  6  3  1  5  5  6  9  3 17 14
  3 16  0  4 12 15  2 10  2  1 16 11  2  2 21  1 23  0  3 18 18  4 21  3
  3  1 19  6  9 11  4]"
17500,315.0,0.90625,4,1,64.9027373790741,3.398773670196533,17491,70000,898007,3966819,"[ 0  1  3  5  2  2  4  1  1  1  2  3  2  3  2  0  0  2  0  4  1  0  3  0
  0  2  2  3  3  4  2  6  7  1 12 10  2  5  6  3  1  5  5  6  9  3 17 14
  3 16  0  4 12 15  2 10  2  1 16 11  2  2 21  1 23  0  3 18 18  4 21  3
  3  1 19  6  9 11  4]"
17600,315.0,0.90625,4,1,65.28328561782837,3.8053393363952637,17591,70400,903230,3989005,"[ 0  1  3  5  2  2  4  1  1  1  2  3  2  3  2  0  0  2  0  4  1  0  3  0
  0  2  2  3  3  4  2  6  7  1 12 10  2  5  6  3  1  5  5  6  9  3 17 14
  3 16  0  4 12 15  2 10  2  1 16 11  2  2 21  1 23  0  3 18 18  4 21  3
  3  1 19  6  9 11  4]"
17700,315.0,0.90625,4,1,65.64213681221008,3.5884761810302734,17691,70800,908384,4011066,"[ 0  1  3  5  2  2  4  1  1  1  2  3  2  3  2  0  0  2  0  4  1  0  3  0
  0  2  2  3  3  4  2  6  7  1 12 10  2  5  6  3  1  5  5  6  9  3 17 14
  3 16  0  4 12 15  2 10  2  1 16 11  2  2 21  1 23  0  3 18 18  4 21  3
  3  1 19  6  9 11  4]"
17800,315.0,0.90625,4,1,65.98155403137207,3.394138813018799,17791,71200,913433,4032742,"[ 0  1  3  5  2  2  4  1  1  1  2  3  2  3  2  0  0  2  0  4  1  0  3  0
  0  2  2  3  3  4  2  6  7  1 12 10  2  5  6  3  1  5  5  6  9  3 17 14
  3 16  0  4 12 15  2 10  2  1 16 11  2  2 21  1 23  0  3 18 18  4 21  3
  3  1 19  6  9 11  4]"
17900,315.0,0.90625,4,1,66.34283709526062,3.612794876098633,17891,71600,918450,4054197,"[ 0  1  3  5  2  2  4  1  1  1  2  3  2  3  2  0  0  2  0  4  1  0  3  0
  0  2  2  3  3  4  2  6  7  1 12 10  2  5  6  3  1  5  5  6  9  3 17 14
  3 16  0  4 12 15  2 10  2  1 16 11  2  2 21  1 23  0  3 18 18  4 21  3
  3  1 19  6  9 11  4]"
18000,315.0,0.90625,4,1,66.6984269618988,3.5558652877807617,17991,72000,923632,4076106,"[ 0  1  3  5  2  2  4  1  1  1  2  3  2  3  2  0  0  2  0  4  1  0  3  0
  0  2  2  3  3  4  2  6  7  1 12 10  2  5  6  3  1  5  5  6  9  3 17 14
  3 16  0  4 12 15  2 10  2  1 16 11  2  2 21  1 23  0  3 18 18  4 21  3
  3  1 19  6  9 11  4]"
18100,315.0,0.90625,4,1,67.04383754730225,3.4540677070617676,18091,72400,928636,4097569,"[ 0  1  3  5  2  2  4  1  1  1  2  3  2  3  2  0  0  2  0  4  1  0  3  0
  0  2  2  3  3  4  2  6  7  1 12 10  2  5  6  3  1  5  5  6  9  3 17 14
  3 16  0  4 12 15  2 10  2  1 16 11  2  2 21  1 23  0  3 18 18  4 21  3
  3  1 19  6  9 11  4]"
18200,315.0,0.90625,4,1,67.40656447410583,3.6272335052490234,18191,72800,933774,4119740,"[ 0  1  3  5  2  2  4  1  1  1  2  3  2  3  2  0  0  2  0  4  1  0  3  0
  0  2  2  3  3  4  2  6  7  1 12 10  2  5  6  3  1  5  5  6  9  3 17 14
  3 16  0  4 12 15  2 10  2  1 16 11  2  2 21  1 23  0  3 18 18  4 21  3
  3  1 19  6  9 11  4]"
18300,315.0,0.90625,4,1,67.74368476867676,3.3711695671081543,18291,73200,938738,4140752,"[ 0  1  3  5  2  2  4  1  1  1  2  3  2  3  2  0  0  2  0  4  1  0  3  0
  0  2  2  3  3  4  2  6  7  1 12 10  2  5  6  3  1  5  5  6  9  3 17 14
  3 16  0  4 12 15  2 10  2  1 16 11  2  2 21  1 23  0  3 18 18  4 21  3
  3  1 19  6  9 11  4]"
18400,315.0,0.90625,4,1,68.12337946891785,3.7969064712524414,18391,73600,943873,4162597,"[ 0  1  3  5  2  2  4  1  1  1  2  3  2  3  2  0  0  2  0  4  1  0  3  0
  0  2  2  3  3  4  2  6  7  1 12 10  2  5  6  3  1  5  5  6  9  3 17 14
  3 16  0  4 12 15  2 10  2  1 16 11  2  2 21  1 23  0  3 18 18  4 21  3
  3  1 19  6  9 11  4]"
18500,315.0,0.90625,4,1,68.55903339385986,4.356503486633301,18491,74000,948903,4184254,"[ 0  1  3  5  2  2  4  1  1  1  2  3  2  3  2  0  0  2  0  4  1  0  3  0
  0  2  2  3  3  4  2  6  7  1 12 10  2  5  6  3  1  5  5  6  9  3 17 14
  3 16  0  4 12 15  2 10  2  1 16 11  2  2 21  1 23  0  3 18 18  4 21  3
  3  1 19  6  9 11  4]"
18600,315.0,0.90625,4,1,68.9757432937622,4.167056083679199,18591,74400,953960,4205847,"[ 0  1  3  5  2  2  4  1  1  1  2  3  2  3  2  0  0  2  0  4  1  0  3  0
  0  2  2  3  3  4  2  6  7  1 12 10  2  5  6  3  1  5  5  6  9  3 17 14
  3 16  0  4 12 15  2 10  2  1 16 11  2  2 21  1 23  0  3 18 18  4 21  3
  3  1 19  6  9 11  4]"
18700,315.0,0.90625,4,1,69.31693029403687,3.4118294715881348,18691,74800,959007,4227283,"[ 0  1  3  5  2  2  4  1  1  1  2  3  2  3  2  0  0  2  0  4  1  0  3  0
  0  2  2  3  3  4  2  6  7  1 12 10  2  5  6  3  1  5  5  6  9  3 17 14
  3 16  0  4 12 15  2 10  2  1 16 11  2  2 21  1 23  0  3 18 18  4 21  3
  3  1 19  6  9 11  4]"
18800,315.0,0.90625,4,1,69.66498160362244,3.4804821014404297,18791,75200,964134,4249528,"[ 0  1  3  5  2  2  4  1  1  1  2  3  2  3  2  0  0  2  0  4  1  0  3  0
  0  2  2  3  3  4  2  6  7  1 12 10  2  5  6  3  1  5  5  6  9  3 17 14
  3 16  0  4 12 15  2 10  2  1 16 11  2  2 21  1 23  0  3 18 18  4 21  3
  3  1 19  6  9 11  4]"
18900,315.0,0.90625,4,1,69.99659037590027,3.316054344177246,18891,75600,969087,4270742,"[ 0  1  3  5  2  2  4  1  1  1  2  3  2  3  2  0  0  2  0  4  1  0  3  0
  0  2  2  3  3  4  2  6  7  1 12 10  2  5  6  3  1  5  5  6  9  3 17 14
  3 16  0  4 12 15  2 10  2  1 16 11  2  2 21  1 23  0  3 18 18  4 21  3
  3  1 19  6  9 11  4]"
19000,315.0,0.90625,4,1,70.33801865577698,3.4142470359802246,18991,76000,974168,4293068,"[ 0  1  3  5  2  2  4  1  1  1  2  3  2  3  2  0  0  2  0  4  1  0  3  0
  0  2  2  3  3  4  2  6  7  1 12 10  2  5  6  3  1  5  5  6  9  3 17 14
  3 16  0  4 12 15  2 10  2  1 16 11  2  2 21  1 23  0  3 18 18  4 21  3
  3  1 19  6  9 11  4]"
19100,315.0,0.90625,4,1,70.6705424785614,3.325202465057373,19091,76400,979123,4314076,"[ 0  1  3  5  2  2  4  1  1  1  2  3  2  3  2  0  0  2  0  4  1  0  3  0
  0  2  2  3  3  4  2  6  7  1 12 10  2  5  6  3  1  5  5  6  9  3 17 14
  3 16  0  4 12 15  2 10  2  1 16 11  2  2 21  1 23  0  3 18 18  4 21  3
  3  1 19  6  9 11  4]"
19200,315.0,0.90625,4,1,71.01700353622437,3.4645724296569824,19191,76800,984236,4336038,"[ 0  1  3  5  2  2  4  1  1  1  2  3  2  3  2  0  0  2  0  4  1  0  3  0
  0  2  2  3  3  4  2  6  7  1 12 10  2  5  6  3  1  5  5  6  9  3 17 14
  3 16  0  4 12 15  2 10  2  1 16 11  2  2 21  1 23  0  3 18 18  4 21  3
  3  1 19  6  9 11  4]"
19300,315.0,0.90625,4,1,71.37534356117249,3.583362102508545,19291,77200,989287,4357448,"[ 0  1  3  5  2  2  4  1  1  1  2  3  2  3  2  0  0  2  0  4  1  0  3  0
  0  2  2  3  3  4  2  6  7  1 12 10  2  5  6  3  1  5  5  6  9  3 17 14
  3 16  0  4 12 15  2 10  2  1 16 11  2  2 21  1 23  0  3 18 18  4 21  3
  3  1 19  6  9 11  4]"
19400,315.0,0.90625,4,1,71.72520709037781,3.4985971450805664,19391,77600,994307,4378542,"[ 0  1  3  5  2  2  4  1  1  1  2  3  2  3  2  0  0  2  0  4  1  0  3  0
  0  2  2  3  3  4  2  6  7  1 12 10  2  5  6  3  1  5  5  6  9  3 17 14
  3 16  0  4 12 15  2 10  2  1 16 11  2  2 21  1 23  0  3 18 18  4 21  3
  3  1 19  6  9 11  4]"
19500,315.0,0.90625,4,1,72.29967093467712,5.74460506439209,19491,78000,999376,4400336,"[ 0  1  3  5  2  2  4  1  1  1  2  3  2  3  2  0  0  2  0  4  1  0  3  0
  0  2  2  3  3  4  2  6  7  1 12 10  2  5  6  3  1  5  5  6  9  3 17 14
  3 16  0  4 12 15  2 10  2  1 16 11  2  2 21  1 23  0  3 18 18  4 21  3
  3  1 19  6  9 11  4]"
19600,315.0,0.90625,4,1,72.74949049949646,4.498155117034912,19591,78400,1004601,4422738,"[ 0  1  3  5  2  2  4  1  1  1  2  3  2  3  2  0  0  2  0  4  1  0  3  0
  0  2  2  3  3  4  2  6  7  1 12 10  2  5  6  3  1  5  5  6  9  3 17 14
  3 16  0  4 12 15  2 10  2  1 16 11  2  2 21  1 23  0  3 18 18  4 21  3
  3  1 19  6  9 11  4]"
19700,315.0,0.90625,4,1,73.27798748016357,5.284934043884277,19691,78800,1009791,4445073,"[ 0  1  3  5  2  2  4  1  1  1  2  3  2  3  2  0  0  2  0  4  1  0  3  0
  0  2  2  3  3  4  2  6  7  1 12 10  2  5  6  3  1  5  5  6  9  3 17 14
  3 16  0  4 12 15  2 10  2  1 16 11  2  2 21  1 23  0  3 18 18  4 21  3
  3  1 19  6  9 11  4]"
19800,315.0,0.90625,4,1,73.67712903022766,3.991377353668213,19791,79200,1014945,4466810,"[ 0  1  3  5  2  2  4  1  1  1  2  3  2  3  2  0  0  2  0  4  1  0  3  0
  0  2  2  3  3  4  2  6  7  1 12 10  2  5  6  3  1  5  5  6  9  3 17 14
  3 16  0  4 12 15  2 10  2  1 16 11  2  2 21  1 23  0  3 18 18  4 21  3
  3  1 19  6  9 11  4]"
19900,315.0,0.90625,4,1,74.05572628974915,3.7859320640563965,19891,79600,1020049,4488808,"[ 0  1  3  5  2  2  4  1  1  1  2  3  2  3  2  0  0  2  0  4  1  0  3  0
  0  2  2  3  3  4  2  6  7  1 12 10  2  5  6  3  1  5  5  6  9  3 17 14
  3 16  0  4 12 15  2 10  2  1 16 11  2  2 21  1 23  0  3 18 18  4 21  3
  3  1 19  6  9 11  4]"
20000,315.0,0.90625,4,1,74.40764880180359,3.5191869735717773,19991,80000,1025296,4511142,"[ 0  1  3  5  2  2  4  1  1  1  2  3  2  3  2  0  0  2  0  4  1  0  3  0
  0  2  2  3  3  4  2  6  7  1 12 10  2  5  6  3  1  5  5  6  9  3 17 14
  3 16  0  4 12 15  2 10  2  1 16 11  2  2 21  1 23  0  3 18 18  4 21  3
  3  1 19  6  9 11  4]"
20100,315.0,0.90625,4,1,74.75020623207092,3.4255385398864746,20091,80400,1030417,4532973,"[ 0  1  3  5  2  2  4  1  1  1  2  3  2  3  2  0  0  2  0  4  1  0  3  0
  0  2  2  3  3  4  2  6  7  1 12 10  2  5  6  3  1  5  5  6  9  3 17 14
  3 16  0  4 12 15  2 10  2  1 16 11  2  2 21  1 23  0  3 18 18  4 21  3
  3  1 19  6  9 11  4]"
20200,315.0,0.90625,4,1,75.09076356887817,3.4055376052856445,20191,80800,1035443,4554420,"[ 0  1  3  5  2  2  4  1  1  1  2  3  2  3  2  0  0  2  0  4  1  0  3  0
  0  2  2  3  3  4  2  6  7  1 12 10  2  5  6  3  1  5  5  6  9  3 17 14
  3 16  0  4 12 15  2 10  2  1 16 11  2  2 21  1 23  0  3 18 18  4 21  3
  3  1 19  6  9 11  4]"
20300,315.0,0.90625,4,1,75.44940042495728,3.5863304138183594,20291,81200,1040663,4576603,"[ 0  1  3  5  2  2  4  1  1  1  2  3  2  3  2  0  0  2  0  4  1  0  3  0
  0  2  2  3  3  4  2  6  7  1 12 10  2  5  6  3  1  5  5  6  9  3 17 14
  3 16  0  4 12 15  2 10  2  1 16 11  2  2 21  1 23  0  3 18 18  4 21  3
  3  1 19  6  9 11  4]"
20400,315.0,0.90625,4,1,75.80308198928833,3.5367774963378906,20391,81600,1045677,4598009,"[ 0  1  3  5  2  2  4  1  1  1  2  3  2  3  2  0  0  2  0  4  1  0  3  0
  0  2  2  3  3  4  2  6  7  1 12 10  2  5  6  3  1  5  5  6  9  3 17 14
  3 16  0  4 12 15  2 10  2  1 16 11  2  2 21  1 23  0  3 18 18  4 21  3
  3  1 19  6  9 11  4]"
20500,315.0,0.90625,4,1,76.15297055244446,3.498845100402832,20491,82000,1050839,4620051,"[ 0  1  3  5  2  2  4  1  1  1  2  3  2  3  2  0  0  2  0  4  1  0  3  0
  0  2  2  3  3  4  2  6  7  1 12 10  2  5  6  3  1  5  5  6  9  3 17 14
  3 16  0  4 12 15  2 10  2  1 16 11  2  2 21  1 23  0  3 18 18  4 21  3
  3  1 19  6  9 11  4]"
20600,315.0,0.90625,4,1,76.5069329738617,3.539586067199707,20591,82400,1056055,4641913,"[ 0  1  3  5  2  2  4  1  1  1  2  3  2  3  2  0  0  2  0  4  1  0  3  0
  0  2  2  3  3  4  2  6  7  1 12 10  2  5  6  3  1  5  5  6  9  3 17 14
  3 16  0  4 12 15  2 10  2  1 16 11  2  2 21  1 23  0  3 18 18  4 21  3
  3  1 19  6  9 11  4]"
20700,315.0,0.90625,4,1,76.85294222831726,3.460056781768799,20691,82800,1061126,4663521,"[ 0  1  3  5  2  2  4  1  1  1  2  3  2  3  2  0  0  2  0  4  1  0  3  0
  0  2  2  3  3  4  2  6  7  1 12 10  2  5  6  3  1  5  5  6  9  3 17 14
  3 16  0  4 12 15  2 10  2  1 16 11  2  2 21  1 23  0  3 18 18  4 21  3
  3  1 19  6  9 11  4]"
20800,315.0,0.90625,4,1,77.20130038261414,3.483550548553467,20791,83200,1066274,4685369,"[ 0  1  3  5  2  2  4  1  1  1  2  3  2  3  2  0  0  2  0  4  1  0  3  0
  0  2  2  3  3  4  2  6  7  1 12 10  2  5  6  3  1  5  5  6  9  3 17 14
  3 16  0  4 12 15  2 10  2  1 16 11  2  2 21  1 23  0  3 18 18  4 21  3
  3  1 19  6  9 11  4]"
20900,315.0,0.90625,4,1,77.59652829170227,3.9522385597229004,20891,83600,1071438,4707429,"[ 0  1  3  5  2  2  4  1  1  1  2  3  2  3  2  0  0  2  0  4  1  0  3  0
  0  2  2  3  3  4  2  6  7  1 12 10  2  5  6  3  1  5  5  6  9  3 17 14
  3 16  0  4 12 15  2 10  2  1 16 11  2  2 21  1 23  0  3 18 18  4 21  3
  3  1 19  6  9 11  4]"
21000,315.0,0.90625,4,1,78.10107064247131,5.0453925132751465,20991,84000,1076505,4729296,"[ 0  1  3  5  2  2  4  1  1  1  2  3  2  3  2  0  0  2  0  4  1  0  3  0
  0  2  2  3  3  4  2  6  7  1 12 10  2  5  6  3  1  5  5  6  9  3 17 14
  3 16  0  4 12 15  2 10  2  1 16 11  2  2 21  1 23  0  3 18 18  4 21  3
  3  1 19  6  9 11  4]"
21100,315.0,0.90625,4,1,78.48063015937805,3.7955594062805176,21091,84400,1081663,4750957,"[ 0  1  3  5  2  2  4  1  1  1  2  3  2  3  2  0  0  2  0  4  1  0  3  0
  0  2  2  3  3  4  2  6  7  1 12 10  2  5  6  3  1  5  5  6  9  3 17 14
  3 16  0  4 12 15  2 10  2  1 16 11  2  2 21  1 23  0  3 18 18  4 21  3
  3  1 19  6  9 11  4]"
21200,315.0,0.90625,4,1,78.82644867897034,3.4581518173217773,21191,84800,1086825,4773151,"[ 0  1  3  5  2  2  4  1  1  1  2  3  2  3  2  0  0  2  0  4  1  0  3  0
  0  2  2  3  3  4  2  6  7  1 12 10  2  5  6  3  1  5  5  6  9  3 17 14
  3 16  0  4 12 15  2 10  2  1 16 11  2  2 21  1 23  0  3 18 18  4 21  3
  3  1 19  6  9 11  4]"
21300,315.0,0.90625,4,1,79.16859149932861,3.4213924407958984,21291,85200,1091972,4795227,"[ 0  1  3  5  2  2  4  1  1  1  2  3  2  3  2  0  0  2  0  4  1  0  3  0
  0  2  2  3  3  4  2  6  7  1 12 10  2  5  6  3  1  5  5  6  9  3 17 14
  3 16  0  4 12 15  2 10  2  1 16 11  2  2 21  1 23  0  3 18 18  4 21  3
  3  1 19  6  9 11  4]"
21400,315.0,0.90625,4,1,79.51162910461426,3.43034029006958,21391,85600,1097144,4817289,"[ 0  1  3  5  2  2  4  1  1  1  2  3  2  3  2  0  0  2  0  4  1  0  3  0
  0  2  2  3  3  4  2  6  7  1 12 10  2  5  6  3  1  5  5  6  9  3 17 14
  3 16  0  4 12 15  2 10  2  1 16 11  2  2 21  1 23  0  3 18 18  4 21  3
  3  1 19  6  9 11  4]"
21500,315.0,0.90625,4,1,79.8615071773529,3.4987473487854004,21491,86000,1102238,4839288,"[ 0  1  3  5  2  2  4  1  1  1  2  3  2  3  2  0  0  2  0  4  1  0  3  0
  0  2  2  3  3  4  2  6  7  1 12 10  2  5  6  3  1  5  5  6  9  3 17 14
  3 16  0  4 12 15  2 10  2  1 16 11  2  2 21  1 23  0  3 18 18  4 21  3
  3  1 19  6  9 11  4]"
21600,315.0,0.90625,4,1,80.19548082351685,3.33970308303833,21591,86400,1107282,4860724,"[ 0  1  3  5  2  2  4  1  1  1  2  3  2  3  2  0  0  2  0  4  1  0  3  0
  0  2  2  3  3  4  2  6  7  1 12 10  2  5  6  3  1  5  5  6  9  3 17 14
  3 16  0  4 12 15  2 10  2  1 16 11  2  2 21  1 23  0  3 18 18  4 21  3
  3  1 19  6  9 11  4]"
21700,315.0,0.90625,4,1,80.5381007194519,3.4261679649353027,21691,86800,1112413,4882468,"[ 0  1  3  5  2  2  4  1  1  1  2  3  2  3  2  0  0  2  0  4  1  0  3  0
  0  2  2  3  3  4  2  6  7  1 12 10  2  5  6  3  1  5  5  6  9  3 17 14
  3 16  0  4 12 15  2 10  2  1 16 11  2  2 21  1 23  0  3 18 18  4 21  3
  3  1 19  6  9 11  4]"
21800,315.0,0.90625,4,1,80.87721943855286,3.3911538124084473,21791,87200,1117468,4904048,"[ 0  1  3  5  2  2  4  1  1  1  2  3  2  3  2  0  0  2  0  4  1  0  3  0
  0  2  2  3  3  4  2  6  7  1 12 10  2  5  6  3  1  5  5  6  9  3 17 14
  3 16  0  4 12 15  2 10  2  1 16 11  2  2 21  1 23  0  3 18 18  4 21  3
  3  1 19  6  9 11  4]"
21900,315.0,0.90625,4,1,81.2191743850708,3.41951847076416,21891,87600,1122671,4925912,"[ 0  1  3  5  2  2  4  1  1  1  2  3  2  3  2  0  0  2  0  4  1  0  3  0
  0  2  2  3  3  4  2  6  7  1 12 10  2  5  6  3  1  5  5  6  9  3 17 14
  3 16  0  4 12 15  2 10  2  1 16 11  2  2 21  1 23  0  3 18 18  4 21  3
  3  1 19  6  9 11  4]"
22000,315.0,0.90625,4,1,81.55715370178223,3.3797574043273926,21991,88000,1127785,4947656,"[ 0  1  3  5  2  2  4  1  1  1  2  3  2  3  2  0  0  2  0  4  1  0  3  0
  0  2  2  3  3  4  2  6  7  1 12 10  2  5  6  3  1  5  5  6  9  3 17 14
  3 16  0  4 12 15  2 10  2  1 16 11  2  2 21  1 23  0  3 18 18  4 21  3
  3  1 19  6  9 11  4]"
22100,315.0,0.90625,4,1,81.9127299785614,3.555722236633301,22091,88400,1132896,4969462,"[ 0  1  3  5  2  2  4  1  1  1  2  3  2  3  2  0  0  2  0  4  1  0  3  0
  0  2  2  3  3  4  2  6  7  1 12 10  2  5  6  3  1  5  5  6  9  3 17 14
  3 16  0  4 12 15  2 10  2  1 16 11  2  2 21  1 23  0  3 18 18  4 21  3
  3  1 19  6  9 11  4]"
22200,315.0,0.90625,4,1,82.24537754058838,3.32643985748291,22191,88800,1137884,4990663,"[ 0  1  3  5  2  2  4  1  1  1  2  3  2  3  2  0  0  2  0  4  1  0  3  0
  0  2  2  3  3  4  2  6  7  1 12 10  2  5  6  3  1  5  5  6  9  3 17 14
  3 16  0  4 12 15  2 10  2  1 16 11  2  2 21  1 23  0  3 18 18  4 21  3
  3  1 19  6  9 11  4]"
22300,315.0,0.90625,4,1,82.58951139450073,3.44130277633667,22291,89200,1143053,5012983,"[ 0  1  3  5  2  2  4  1  1  1  2  3  2  3  2  0  0  2  0  4  1  0  3  0
  0  2  2  3  3  4  2  6  7  1 12 10  2  5  6  3  1  5  5  6  9  3 17 14
  3 16  0  4 12 15  2 10  2  1 16 11  2  2 21  1 23  0  3 18 18  4 21  3
  3  1 19  6  9 11  4]"
22400,315.0,0.90625,4,1,82.92918372154236,3.3966898918151855,22391,89600,1148120,5034438,"[ 0  1  3  5  2  2  4  1  1  1  2  3  2  3  2  0  0  2  0  4  1  0  3  0
  0  2  2  3  3  4  2  6  7  1 12 10  2  5  6  3  1  5  5  6  9  3 17 14
  3 16  0  4 12 15  2 10  2  1 16 11  2  2 21  1 23  0  3 18 18  4 21  3
  3  1 19  6  9 11  4]"
22500,315.0,0.90625,4,1,83.26623249053955,3.3704519271850586,22491,90000,1153174,5055784,"[ 0  1  3  5  2  2  4  1  1  1  2  3  2  3  2  0  0  2  0  4  1  0  3  0
  0  2  2  3  3  4  2  6  7  1 12 10  2  5  6  3  1  5  5  6  9  3 17 14
  3 16  0  4 12 15  2 10  2  1 16 11  2  2 21  1 23  0  3 18 18  4 21  3
  3  1 19  6  9 11  4]"
22600,324.0,0.953125,8,3,83.67910599708557,4.128696918487549,22585,90400,1158012,5087319,"[ 0  1  3  1  3  2  4  1  1  1  2  3  5  3  2  0  0  2  1  4  1  0  3  0
  0  2  1  5  0  4  2  6  6  1 13 10  2  5  6  4  1  5  5  6  7  3 14 14
  3 16  0  4  2 15  2 10  1  1 12 11  2 20 21  5 23 15  3 14 18  4 21  3
  3  1 19 19  9 23  4]"
22700,332.0,0.96875,6,2,84.06256937980652,3.8346004486083984,22683,90800,1162010,5116792,"[ 0  1  3  1  3  2  4  1  1  1  2  3  5  3  2  0  0  2  1  4  1  0  3  0
  0  2  1  5  0  4  2  6  6  1 13 10  2  5  6  4  1  5  5  6  7  3 14 14
  3 16  0  4  2 15  2 10  1  4 12 11  2 20 16  5 23 15  3 14 18  4 21  3
  3  1 19  6  9 23  4]"
22800,332.0,0.96875,6,2,84.37034916877747,3.0777597427368164,22783,91200,1165538,5137972,"[ 0  1  3  1  3  2  4  1  1  1  2  3  5  3  2  0  0  2  1  4  1  0  3  0
  0  2  1  5  0  4  2  6  6  1 13 10  2  5  6  4  1  5  5  6  7  3 14 14
  3 16  0  4  2 15  2 10  1  4 12 11  2 20 16  5 23 15  3 14 18  4 21  3
  3  1 19  6  9 23  4]"
22900,332.0,0.96875,6,2,84.67607116699219,3.0571889877319336,22883,91600,1169059,5159329,"[ 0  1  3  1  3  2  4  1  1  1  2  3  5  3  2  0  0  2  1  4  1  0  3  0
  0  2  1  5  0  4  2  6  6  1 13 10  2  5  6  4  1  5  5  6  7  3 14 14
  3 16  0  4  2 15  2 10  1  4 12 11  2 20 16  5 23 15  3 14 18  4 21  3
  3  1 19  6  9 23  4]"
23000,332.0,0.96875,6,2,84.9819164276123,3.0584144592285156,22983,92000,1172621,5180790,"[ 0  1  3  1  3  2  4  1  1  1  2  3  5  3  2  0  0  2  1  4  1  0  3  0
  0  2  1  5  0  4  2  6  6  1 13 10  2  5  6  4  1  5  5  6  7  3 14 14
  3 16  0  4  2 15  2 10  1  4 12 11  2 20 16  5 23 15  3 14 18  4 21  3
  3  1 19  6  9 23  4]"
23100,332.0,0.96875,6,2,85.2899477481842,3.080272674560547,23083,92400,1176204,5202380,"[ 0  1  3  1  3  2  4  1  1  1  2  3  5  3  2  0  0  2  1  4  1  0  3  0
  0  2  1  5  0  4  2  6  6  1 13 10  2  5  6  4  1  5  5  6  7  3 14 14
  3 16  0  4  2 15  2 10  1  4 12 11  2 20 16  5 23 15  3 14 18  4 21  3
  3  1 19  6  9 23  4]"
23200,332.0,0.96875,6,2,85.5864245891571,2.9647350311279297,23183,92800,1179484,5222226,"[ 0  1  3  1  3  2  4  1  1  1  2  3  5  3  2  0  0  2  1  4  1  0  3  0
  0  2  1  5  0  4  2  6  6  1 13 10  2  5  6  4  1  5  5  6  7  3 14 14
  3 16  0  4  2 15  2 10  1  4 12 11  2 20 16  5 23 15  3 14 18  4 21  3
  3  1 19  6  9 23  4]"
23300,332.0,0.96875,6,2,85.90910577774048,3.226771354675293,23283,93200,1183126,5244342,"[ 0  1  3  1  3  2  4  1  1  1  2  3  5  3  2  0  0  2  1  4  1  0  3  0
  0  2  1  5  0  4  2  6  6  1 13 10  2  5  6  4  1  5  5  6  7  3 14 14
  3 16  0  4  2 15  2 10  1  4 12 11  2 20 16  5 23 15  3 14 18  4 21  3
  3  1 19  6  9 23  4]"
23400,332.0,0.96875,6,2,86.2094361782074,3.003263473510742,23383,93600,1186573,5265069,"[ 0  1  3  1  3  2  4  1  1  1  2  3  5  3  2  0  0  2  1  4  1  0  3  0
  0  2  1  5  0  4  2  6  6  1 13 10  2  5  6  4  1  5  5  6  7  3 14 14
  3 16  0  4  2 15  2 10  1  4 12 11  2 20 16  5 23 15  3 14 18  4 21  3
  3  1 19  6  9 23  4]"
23500,332.0,0.96875,6,2,86.52331519126892,3.13875675201416,23483,94000,1190184,5286758,"[ 0  1  3  1  3  2  4  1  1  1  2  3  5  3  2  0  0  2  1  4  1  0  3  0
  0  2  1  5  0  4  2  6  6  1 13 10  2  5  6  4  1  5  5  6  7  3 14 14
  3 16  0  4  2 15  2 10  1  4 12 11  2 20 16  5 23 15  3 14 18  4 21  3
  3  1 19  6  9 23  4]"
23600,332.0,0.96875,6,2,86.84855270385742,3.2523369789123535,23583,94400,1193557,5307257,"[ 0  1  3  1  3  2  4  1  1  1  2  3  5  3  2  0  0  2  1  4  1  0  3  0
  0  2  1  5  0  4  2  6  6  1 13 10  2  5  6  4  1  5  5  6  7  3 14 14
  3 16  0  4  2 15  2 10  1  4 12 11  2 20 16  5 23 15  3 14 18  4 21  3
  3  1 19  6  9 23  4]"
23700,332.0,0.96875,6,2,87.16235685348511,3.138003349304199,23683,94800,1197178,5329069,"[ 0  1  3  1  3  2  4  1  1  1  2  3  5  3  2  0  0  2  1  4  1  0  3  0
  0  2  1  5  0  4  2  6  6  1 13 10  2  5  6  4  1  5  5  6  7  3 14 14
  3 16  0  4  2 15  2 10  1  4 12 11  2 20 16  5 23 15  3 14 18  4 21  3
  3  1 19  6  9 23  4]"
23800,332.0,0.96875,6,2,87.47641110420227,3.1405067443847656,23783,95200,1200752,5350695,"[ 0  1  3  1  3  2  4  1  1  1  2  3  5  3  2  0  0  2  1  4  1  0  3  0
  0  2  1  5  0  4  2  6  6  1 13 10  2  5  6  4  1  5  5  6  7  3 14 14
  3 16  0  4  2 15  2 10  1  4 12 11  2 20 16  5 23 15  3 14 18  4 21  3
  3  1 19  6  9 23  4]"
23900,332.0,0.96875,6,2,87.79244065284729,3.16025972366333,23883,95600,1204366,5372549,"[ 0  1  3  1  3  2  4  1  1  1  2  3  5  3  2  0  0  2  1  4  1  0  3  0
  0  2  1  5  0  4  2  6  6  1 13 10  2  5  6  4  1  5  5  6  7  3 14 14
  3 16  0  4  2 15  2 10  1  4 12 11  2 20 16  5 23 15  3 14 18  4 21  3
  3  1 19  6  9 23  4]"
24000,332.0,0.96875,6,2,88.10658955574036,3.14145565032959,23983,96000,1207929,5394094,"[ 0  1  3  1  3  2  4  1  1  1  2  3  5  3  2  0  0  2  1  4  1  0  3  0
  0  2  1  5  0  4  2  6  6  1 13 10  2  5  6  4  1  5  5  6  7  3 14 14
  3 16  0  4  2 15  2 10  1  4 12 11  2 20 16  5 23 15  3 14 18  4 21  3
  3  1 19  6  9 23  4]"
24100,332.0,0.96875,6,2,88.41194939613342,3.053567409515381,24083,96400,1211421,5415168,"[ 0  1  3  1  3  2  4  1  1  1  2  3  5  3  2  0  0  2  1  4  1  0  3  0
  0  2  1  5  0  4  2  6  6  1 13 10  2  5  6  4  1  5  5  6  7  3 14 14
  3 16  0  4  2 15  2 10  1  4 12 11  2 20 16  5 23 15  3 14 18  4 21  3
  3  1 19  6  9 23  4]"
24200,332.0,0.96875,6,2,88.72182631492615,3.09873104095459,24183,96800,1215030,5436854,"[ 0  1  3  1  3  2  4  1  1  1  2  3  5  3  2  0  0  2  1  4  1  0  3  0
  0  2  1  5  0  4  2  6  6  1 13 10  2  5  6  4  1  5  5  6  7  3 14 14
  3 16  0  4  2 15  2 10  1  4 12 11  2 20 16  5 23 15  3 14 18  4 21  3
  3  1 19  6  9 23  4]"
24300,332.0,0.96875,6,2,89.04402613639832,3.2219648361206055,24283,97200,1218809,5459818,"[ 0  1  3  1  3  2  4  1  1  1  2  3  5  3  2  0  0  2  1  4  1  0  3  0
  0  2  1  5  0  4  2  6  6  1 13 10  2  5  6  4  1  5  5  6  7  3 14 14
  3 16  0  4  2 15  2 10  1  4 12 11  2 20 16  5 23 15  3 14 18  4 21  3
  3  1 19  6  9 23  4]"
24400,332.0,0.96875,6,2,89.35507035255432,3.1103968620300293,24383,97600,1222460,5481666,"[ 0  1  3  1  3  2  4  1  1  1  2  3  5  3  2  0  0  2  1  4  1  0  3  0
  0  2  1  5  0  4  2  6  6  1 13 10  2  5  6  4  1  5  5  6  7  3 14 14
  3 16  0  4  2 15  2 10  1  4 12 11  2 20 16  5 23 15  3 14 18  4 21  3
  3  1 19  6  9 23  4]"
24500,332.0,0.96875,6,2,89.66398239135742,3.0890870094299316,24483,98000,1226054,5503292,"[ 0  1  3  1  3  2  4  1  1  1  2  3  5  3  2  0  0  2  1  4  1  0  3  0
  0  2  1  5  0  4  2  6  6  1 13 10  2  5  6  4  1  5  5  6  7  3 14 14
  3 16  0  4  2 15  2 10  1  4 12 11  2 20 16  5 23 15  3 14 18  4 21  3
  3  1 19  6  9 23  4]"
24600,332.0,0.96875,6,2,89.96533107757568,3.013451099395752,24583,98400,1229503,5524001,"[ 0  1  3  1  3  2  4  1  1  1  2  3  5  3  2  0  0  2  1  4  1  0  3  0
  0  2  1  5  0  4  2  6  6  1 13 10  2  5  6  4  1  5  5  6  7  3 14 14
  3 16  0  4  2 15  2 10  1  4 12 11  2 20 16  5 23 15  3 14 18  4 21  3
  3  1 19  6  9 23  4]"
24700,332.0,0.96875,6,2,90.28155946731567,3.162243366241455,24683,98800,1232982,5545100,"[ 0  1  3  1  3  2  4  1  1  1  2  3  5  3  2  0  0  2  1  4  1  0  3  0
  0  2  1  5  0  4  2  6  6  1 13 10  2  5  6  4  1  5  5  6  7  3 14 14
  3 16  0  4  2 15  2 10  1  4 12 11  2 20 16  5 23 15  3 14 18  4 21  3
  3  1 19  6  9 23  4]"
24800,332.0,0.96875,6,2,90.59363150596619,3.1206798553466797,24783,99200,1236587,5566864,"[ 0  1  3  1  3  2  4  1  1  1  2  3  5  3  2  0  0  2  1  4  1  0  3  0
  0  2  1  5  0  4  2  6  6  1 13 10  2  5  6  4  1  5  5  6  7  3 14 14
  3 16  0  4  2 15  2 10  1  4 12 11  2 20 16  5 23 15  3 14 18  4 21  3
  3  1 19  6  9 23  4]"
24900,332.0,0.96875,6,2,90.89817380905151,3.0453848838806152,24883,99600,1240039,5587867,"[ 0  1  3  1  3  2  4  1  1  1  2  3  5  3  2  0  0  2  1  4  1  0  3  0
  0  2  1  5  0  4  2  6  6  1 13 10  2  5  6  4  1  5  5  6  7  3 14 14
  3 16  0  4  2 15  2 10  1  4 12 11  2 20 16  5 23 15  3 14 18  4 21  3
  3  1 19  6  9 23  4]"
25000,332.0,0.96875,6,2,91.21117496490479,3.1299757957458496,24983,100000,1243657,5609606,"[ 0  1  3  1  3  2  4  1  1  1  2  3  5  3  2  0  0  2  1  4  1  0  3  0
  0  2  1  5  0  4  2  6  6  1 13 10  2  5  6  4  1  5  5  6  7  3 14 14
  3 16  0  4  2 15  2 10  1  4 12 11  2 20 16  5 23 15  3 14 18  4 21  3
  3  1 19  6  9 23  4]"
25100,332.0,0.96875,6,2,91.5275137424469,3.1633543968200684,25083,100400,1247258,5631342,"[ 0  1  3  1  3  2  4  1  1  1  2  3  5  3  2  0  0  2  1  4  1  0  3  0
  0  2  1  5  0  4  2  6  6  1 13 10  2  5  6  4  1  5  5  6  7  3 14 14
  3 16  0  4  2 15  2 10  1  4 12 11  2 20 16  5 23 15  3 14 18  4 21  3
  3  1 19  6  9 23  4]"
25200,332.0,0.96875,6,2,91.83080625534058,3.0328869819641113,25183,100800,1250694,5651980,"[ 0  1  3  1  3  2  4  1  1  1  2  3  5  3  2  0  0  2  1  4  1  0  3  0
  0  2  1  5  0  4  2  6  6  1 13 10  2  5  6  4  1  5  5  6  7  3 14 14
  3 16  0  4  2 15  2 10  1  4 12 11  2 20 16  5 23 15  3 14 18  4 21  3
  3  1 19  6  9 23  4]"
25300,332.0,0.96875,6,2,92.15465521812439,3.2384467124938965,25283,101200,1254411,5674366,"[ 0  1  3  1  3  2  4  1  1  1  2  3  5  3  2  0  0  2  1  4  1  0  3  0
  0  2  1  5  0  4  2  6  6  1 13 10  2  5  6  4  1  5  5  6  7  3 14 14
  3 16  0  4  2 15  2 10  1  4 12 11  2 20 16  5 23 15  3 14 18  4 21  3
  3  1 19  6  9 23  4]"
25400,332.0,0.96875,6,2,92.45402884483337,2.9937028884887695,25383,101600,1257749,5694672,"[ 0  1  3  1  3  2  4  1  1  1  2  3  5  3  2  0  0  2  1  4  1  0  3  0
  0  2  1  5  0  4  2  6  6  1 13 10  2  5  6  4  1  5  5  6  7  3 14 14
  3 16  0  4  2 15  2 10  1  4 12 11  2 20 16  5 23 15  3 14 18  4 21  3
  3  1 19  6  9 23  4]"
25500,332.0,0.96875,6,2,92.76751947402954,3.1348729133605957,25483,102000,1261341,5716267,"[ 0  1  3  1  3  2  4  1  1  1  2  3  5  3  2  0  0  2  1  4  1  0  3  0
  0  2  1  5  0  4  2  6  6  1 13 10  2  5  6  4  1  5  5  6  7  3 14 14
  3 16  0  4  2 15  2 10  1  4 12 11  2 20 16  5 23 15  3 14 18  4 21  3
  3  1 19  6  9 23  4]"
25600,332.0,0.96875,6,2,93.070467710495,3.029446601867676,25583,102400,1264788,5737076,"[ 0  1  3  1  3  2  4  1  1  1  2  3  5  3  2  0  0  2  1  4  1  0  3  0
  0  2  1  5  0  4  2  6  6  1 13 10  2  5  6  4  1  5  5  6  7  3 14 14
  3 16  0  4  2 15  2 10  1  4 12 11  2 20 16  5 23 15  3 14 18  4 21  3
  3  1 19  6  9 23  4]"
25700,332.0,0.96875,6,2,93.37261056900024,3.021395206451416,25683,102800,1268209,5757889,"[ 0  1  3  1  3  2  4  1  1  1  2  3  5  3  2  0  0  2  1  4  1  0  3  0
  0  2  1  5  0  4  2  6  6  1 13 10  2  5  6  4  1  5  5  6  7  3 14 14
  3 16  0  4  2 15  2 10  1  4 12 11  2 20 16  5 23 15  3 14 18  4 21  3
  3  1 19  6  9 23  4]"
25800,332.0,0.96875,6,2,93.67057681083679,2.9796218872070312,25783,103200,1271637,5778409,"[ 0  1  3  1  3  2  4  1  1  1  2  3  5  3  2  0  0  2  1  4  1  0  3  0
  0  2  1  5  0  4  2  6  6  1 13 10  2  5  6  4  1  5  5  6  7  3 14 14
  3 16  0  4  2 15  2 10  1  4 12 11  2 20 16  5 23 15  3 14 18  4 21  3
  3  1 19  6  9 23  4]"
25900,332.0,0.96875,6,2,93.98594117164612,3.1536030769348145,25883,103600,1275288,5800560,"[ 0  1  3  1  3  2  4  1  1  1  2  3  5  3  2  0  0  2  1  4  1  0  3  0
  0  2  1  5  0  4  2  6  6  1 13 10  2  5  6  4  1  5  5  6  7  3 14 14
  3 16  0  4  2 15  2 10  1  4 12 11  2 20 16  5 23 15  3 14 18  4 21  3
  3  1 19  6  9 23  4]"
26000,332.0,0.96875,6,2,94.29457664489746,3.0863189697265625,25983,104000,1278800,5822008,"[ 0  1  3  1  3  2  4  1  1  1  2  3  5  3  2  0  0  2  1  4  1  0  3  0
  0  2  1  5  0  4  2  6  6  1 13 10  2  5  6  4  1  5  5  6  7  3 14 14
  3 16  0  4  2 15  2 10  1  4 12 11  2 20 16  5 23 15  3 14 18  4 21  3
  3  1 19  6  9 23  4]"
26100,332.0,0.96875,6,2,94.59464836120605,3.0006814002990723,26083,104400,1282226,5842555,"[ 0  1  3  1  3  2  4  1  1  1  2  3  5  3  2  0  0  2  1  4  1  0  3  0
  0  2  1  5  0  4  2  6  6  1 13 10  2  5  6  4  1  5  5  6  7  3 14 14
  3 16  0  4  2 15  2 10  1  4 12 11  2 20 16  5 23 15  3 14 18  4 21  3
  3  1 19  6  9 23  4]"
26200,332.0,0.96875,6,2,94.89703011512756,3.0237793922424316,26183,104800,1285705,5863618,"[ 0  1  3  1  3  2  4  1  1  1  2  3  5  3  2  0  0  2  1  4  1  0  3  0
  0  2  1  5  0  4  2  6  6  1 13 10  2  5  6  4  1  5  5  6  7  3 14 14
  3 16  0  4  2 15  2 10  1  4 12 11  2 20 16  5 23 15  3 14 18  4 21  3
  3  1 19  6  9 23  4]"
26300,332.0,0.96875,6,2,95.20409941673279,3.07065486907959,26283,105200,1289217,5884820,"[ 0  1  3  1  3  2  4  1  1  1  2  3  5  3  2  0  0  2  1  4  1  0  3  0
  0  2  1  5  0  4  2  6  6  1 13 10  2  5  6  4  1  5  5  6  7  3 14 14
  3 16  0  4  2 15  2 10  1  4 12 11  2 20 16  5 23 15  3 14 18  4 21  3
  3  1 19  6  9 23  4]"
26400,332.0,0.96875,6,2,95.5244734287262,3.203704357147217,26383,105600,1292850,5906924,"[ 0  1  3  1  3  2  4  1  1  1  2  3  5  3  2  0  0  2  1  4  1  0  3  0
  0  2  1  5  0  4  2  6  6  1 13 10  2  5  6  4  1  5  5  6  7  3 14 14
  3 16  0  4  2 15  2 10  1  4 12 11  2 20 16  5 23 15  3 14 18  4 21  3
  3  1 19  6  9 23  4]"
26500,332.0,0.96875,6,2,95.83616805076599,3.116910457611084,26483,106000,1296415,5928413,"[ 0  1  3  1  3  2  4  1  1  1  2  3  5  3  2  0  0  2  1  4  1  0  3  0
  0  2  1  5  0  4  2  6  6  1 13 10  2  5  6  4  1  5  5  6  7  3 14 14
  3 16  0  4  2 15  2 10  1  4 12 11  2 20 16  5 23 15  3 14 18  4 21  3
  3  1 19  6  9 23  4]"
26600,332.0,0.96875,6,2,96.15764880180359,3.2147717475891113,26583,106400,1300112,5950427,"[ 0  1  3  1  3  2  4  1  1  1  2  3  5  3  2  0  0  2  1  4  1  0  3  0
  0  2  1  5  0  4  2  6  6  1 13 10  2  5  6  4  1  5  5  6  7  3 14 14
  3 16  0  4  2 15  2 10  1  4 12 11  2 20 16  5 23 15  3 14 18  4 21  3
  3  1 19  6  9 23  4]"
26700,332.0,0.96875,6,2,96.46329045295715,3.0563783645629883,26683,106800,1303499,5971057,"[ 0  1  3  1  3  2  4  1  1  1  2  3  5  3  2  0  0  2  1  4  1  0  3  0
  0  2  1  5  0  4  2  6  6  1 13 10  2  5  6  4  1  5  5  6  7  3 14 14
  3 16  0  4  2 15  2 10  1  4 12 11  2 20 16  5 23 15  3 14 18  4 21  3
  3  1 19  6  9 23  4]"
26800,332.0,0.96875,6,2,96.783846616745,3.2055258750915527,26783,107200,1307148,5993120,"[ 0  1  3  1  3  2  4  1  1  1  2  3  5  3  2  0  0  2  1  4  1  0  3  0
  0  2  1  5  0  4  2  6  6  1 13 10  2  5  6  4  1  5  5  6  7  3 14 14
  3 16  0  4  2 15  2 10  1  4 12 11  2 20 16  5 23 15  3 14 18  4 21  3
  3  1 19  6  9 23  4]"
26900,332.0,0.96875,6,2,97.09446740150452,3.1061673164367676,26883,107600,1310600,6013908,"[ 0  1  3  1  3  2  4  1  1  1  2  3  5  3  2  0  0  2  1  4  1  0  3  0
  0  2  1  5  0  4  2  6  6  1 13 10  2  5  6  4  1  5  5  6  7  3 14 14
  3 16  0  4  2 15  2 10  1  4 12 11  2 20 16  5 23 15  3 14 18  4 21  3
  3  1 19  6  9 23  4]"
27000,332.0,0.96875,6,2,97.41088080406189,3.164093494415283,26983,108000,1314132,6035399,"[ 0  1  3  1  3  2  4  1  1  1  2  3  5  3  2  0  0  2  1  4  1  0  3  0
  0  2  1  5  0  4  2  6  6  1 13 10  2  5  6  4  1  5  5  6  7  3 14 14
  3 16  0  4  2 15  2 10  1  4 12 11  2 20 16  5 23 15  3 14 18  4 21  3
  3  1 19  6  9 23  4]"
27100,332.0,0.96875,6,2,97.72754335403442,3.1665897369384766,27083,108400,1317688,6056767,"[ 0  1  3  1  3  2  4  1  1  1  2  3  5  3  2  0  0  2  1  4  1  0  3  0
  0  2  1  5  0  4  2  6  6  1 13 10  2  5  6  4  1  5  5  6  7  3 14 14
  3 16  0  4  2 15  2 10  1  4 12 11  2 20 16  5 23 15  3 14 18  4 21  3
  3  1 19  6  9 23  4]"
27200,332.0,0.96875,6,2,98.04007124900818,3.1252408027648926,27183,108800,1321226,6078052,"[ 0  1  3  1  3  2  4  1  1  1  2  3  5  3  2  0  0  2  1  4  1  0  3  0
  0  2  1  5  0  4  2  6  6  1 13 10  2  5  6  4  1  5  5  6  7  3 14 14
  3 16  0  4  2 15  2 10  1  4 12 11  2 20 16  5 23 15  3 14 18  4 21  3
  3  1 19  6  9 23  4]"
27300,332.0,0.96875,6,2,98.35415959358215,3.14084529876709,27283,109200,1324779,6099559,"[ 0  1  3  1  3  2  4  1  1  1  2  3  5  3  2  0  0  2  1  4  1  0  3  0
  0  2  1  5  0  4  2  6  6  1 13 10  2  5  6  4  1  5  5  6  7  3 14 14
  3 16  0  4  2 15  2 10  1  4 12 11  2 20 16  5 23 15  3 14 18  4 21  3
  3  1 19  6  9 23  4]"
27400,332.0,0.96875,6,2,98.66645073890686,3.122878074645996,27383,109600,1328357,6121601,"[ 0  1  3  1  3  2  4  1  1  1  2  3  5  3  2  0  0  2  1  4  1  0  3  0
  0  2  1  5  0  4  2  6  6  1 13 10  2  5  6  4  1  5  5  6  7  3 14 14
  3 16  0  4  2 15  2 10  1  4 12 11  2 20 16  5 23 15  3 14 18  4 21  3
  3  1 19  6  9 23  4]"
27500,332.0,0.96875,6,2,98.96966433525085,3.032100200653076,27483,110000,1331871,6142836,"[ 0  1  3  1  3  2  4  1  1  1  2  3  5  3  2  0  0  2  1  4  1  0  3  0
  0  2  1  5  0  4  2  6  6  1 13 10  2  5  6  4  1  5  5  6  7  3 14 14
  3 16  0  4  2 15  2 10  1  4 12 11  2 20 16  5 23 15  3 14 18  4 21  3
  3  1 19  6  9 23  4]"
27600,332.0,0.96875,6,2,99.26974439620972,3.000760078430176,27583,110400,1335306,6163571,"[ 0  1  3  1  3  2  4  1  1  1  2  3  5  3  2  0  0  2  1  4  1  0  3  0
  0  2  1  5  0  4  2  6  6  1 13 10  2  5  6  4  1  5  5  6  7  3 14 14
  3 16  0  4  2 15  2 10  1  4 12 11  2 20 16  5 23 15  3 14 18  4 21  3
  3  1 19  6  9 23  4]"
27700,332.0,0.96875,6,2,99.60141372680664,3.316657543182373,27683,110800,1339000,6185995,"[ 0  1  3  1  3  2  4  1  1  1  2  3  5  3  2  0  0  2  1  4  1  0  3  0
  0  2  1  5  0  4  2  6  6  1 13 10  2  5  6  4  1  5  5  6  7  3 14 14
  3 16  0  4  2 15  2 10  1  4 12 11  2 20 16  5 23 15  3 14 18  4 21  3
  3  1 19  6  9 23  4]"
27800,332.0,0.96875,6,2,99.92703294754028,3.2561445236206055,27783,111200,1342565,6207447,"[ 0  1  3  1  3  2  4  1  1  1  2  3  5  3  2  0  0  2  1  4  1  0  3  0
  0  2  1  5  0  4  2  6  6  1 13 10  2  5  6  4  1  5  5  6  7  3 14 14
  3 16  0  4  2 15  2 10  1  4 12 11  2 20 16  5 23 15  3 14 18  4 21  3
  3  1 19  6  9 23  4]"
27900,332.0,0.96875,6,2,100.25457429885864,3.2753801345825195,27883,111600,1346117,6228735,"[ 0  1  3  1  3  2  4  1  1  1  2  3  5  3  2  0  0  2  1  4  1  0  3  0
  0  2  1  5  0  4  2  6  6  1 13 10  2  5  6  4  1  5  5  6  7  3 14 14
  3 16  0  4  2 15  2 10  1  4 12 11  2 20 16  5 23 15  3 14 18  4 21  3
  3  1 19  6  9 23  4]"
28000,332.0,0.96875,6,2,100.59233570098877,3.3775758743286133,27983,112000,1349790,6250990,"[ 0  1  3  1  3  2  4  1  1  1  2  3  5  3  2  0  0  2  1  4  1  0  3  0
  0  2  1  5  0  4  2  6  6  1 13 10  2  5  6  4  1  5  5  6  7  3 14 14
  3 16  0  4  2 15  2 10  1  4 12 11  2 20 16  5 23 15  3 14 18  4 21  3
  3  1 19  6  9 23  4]"
28100,332.0,0.96875,6,2,100.9141366481781,3.2179713249206543,28083,112400,1353345,6272599,"[ 0  1  3  1  3  2  4  1  1  1  2  3  5  3  2  0  0  2  1  4  1  0  3  0
  0  2  1  5  0  4  2  6  6  1 13 10  2  5  6  4  1  5  5  6  7  3 14 14
  3 16  0  4  2 15  2 10  1  4 12 11  2 20 16  5 23 15  3 14 18  4 21  3
  3  1 19  6  9 23  4]"
28200,332.0,0.96875,6,2,101.2384786605835,3.243379592895508,28183,112800,1356907,6294239,"[ 0  1  3  1  3  2  4  1  1  1  2  3  5  3  2  0  0  2  1  4  1  0  3  0
  0  2  1  5  0  4  2  6  6  1 13 10  2  5  6  4  1  5  5  6  7  3 14 14
  3 16  0  4  2 15  2 10  1  4 12 11  2 20 16  5 23 15  3 14 18  4 21  3
  3  1 19  6  9 23  4]"
28300,332.0,0.96875,6,2,101.55195021629333,3.1346702575683594,28283,113200,1360413,6315280,"[ 0  1  3  1  3  2  4  1  1  1  2  3  5  3  2  0  0  2  1  4  1  0  3  0
  0  2  1  5  0  4  2  6  6  1 13 10  2  5  6  4  1  5  5  6  7  3 14 14
  3 16  0  4  2 15  2 10  1  4 12 11  2 20 16  5 23 15  3 14 18  4 21  3
  3  1 19  6  9 23  4]"
28400,332.0,0.96875,6,2,101.90749764442444,3.555440902709961,28383,113600,1364186,6338051,"[ 0  1  3  1  3  2  4  1  1  1  2  3  5  3  2  0  0  2  1  4  1  0  3  0
  0  2  1  5  0  4  2  6  6  1 13 10  2  5  6  4  1  5  5  6  7  3 14 14
  3 16  0  4  2 15  2 10  1  4 12 11  2 20 16  5 23 15  3 14 18  4 21  3
  3  1 19  6  9 23  4]"
28500,332.0,0.96875,6,2,102.22427940368652,3.1677794456481934,28483,114000,1367701,6358960,"[ 0  1  3  1  3  2  4  1  1  1  2  3  5  3  2  0  0  2  1  4  1  0  3  0
  0  2  1  5  0  4  2  6  6  1 13 10  2  5  6  4  1  5  5  6  7  3 14 14
  3 16  0  4  2 15  2 10  1  4 12 11  2 20 16  5 23 15  3 14 18  4 21  3
  3  1 19  6  9 23  4]"
28600,332.0,0.96875,6,2,102.53615546226501,3.118727207183838,28583,114400,1371093,6379362,"[ 0  1  3  1  3  2  4  1  1  1  2  3  5  3  2  0  0  2  1  4  1  0  3  0
  0  2  1  5  0  4  2  6  6  1 13 10  2  5  6  4  1  5  5  6  7  3 14 14
  3 16  0  4  2 15  2 10  1  4 12 11  2 20 16  5 23 15  3 14 18  4 21  3
  3  1 19  6  9 23  4]"
28700,332.0,0.96875,6,2,102.84201145172119,3.0585217475891113,28683,114800,1374624,6400675,"[ 0  1  3  1  3  2  4  1  1  1  2  3  5  3  2  0  0  2  1  4  1  0  3  0
  0  2  1  5  0  4  2  6  6  1 13 10  2  5  6  4  1  5  5  6  7  3 14 14
  3 16  0  4  2 15  2 10  1  4 12 11  2 20 16  5 23 15  3 14 18  4 21  3
  3  1 19  6  9 23  4]"
28800,332.0,0.96875,6,2,103.15430736541748,3.1229233741760254,28783,115200,1378216,6422324,"[ 0  1  3  1  3  2  4  1  1  1  2  3  5  3  2  0  0  2  1  4  1  0  3  0
  0  2  1  5  0  4  2  6  6  1 13 10  2  5  6  4  1  5  5  6  7  3 14 14
  3 16  0  4  2 15  2 10  1  4 12 11  2 20 16  5 23 15  3 14 18  4 21  3
  3  1 19  6  9 23  4]"
28900,332.0,0.96875,6,2,103.46674299240112,3.1243181228637695,28883,115600,1381779,6443860,"[ 0  1  3  1  3  2  4  1  1  1  2  3  5  3  2  0  0  2  1  4  1  0  3  0
  0  2  1  5  0  4  2  6  6  1 13 10  2  5  6  4  1  5  5  6  7  3 14 14
  3 16  0  4  2 15  2 10  1  4 12 11  2 20 16  5 23 15  3 14 18  4 21  3
  3  1 19  6  9 23  4]"
29000,332.0,0.96875,6,2,103.77301669120789,3.0627036094665527,28983,116000,1385229,6464741,"[ 0  1  3  1  3  2  4  1  1  1  2  3  5  3  2  0  0  2  1  4  1  0  3  0
  0  2  1  5  0  4  2  6  6  1 13 10  2  5  6  4  1  5  5  6  7  3 14 14
  3 16  0  4  2 15  2 10  1  4 12 11  2 20 16  5 23 15  3 14 18  4 21  3
  3  1 19  6  9 23  4]"
29100,332.0,0.96875,6,2,104.08527278900146,3.122525215148926,29083,116400,1388819,6486275,"[ 0  1  3  1  3  2  4  1  1  1  2  3  5  3  2  0  0  2  1  4  1  0  3  0
  0  2  1  5  0  4  2  6  6  1 13 10  2  5  6  4  1  5  5  6  7  3 14 14
  3 16  0  4  2 15  2 10  1  4 12 11  2 20 16  5 23 15  3 14 18  4 21  3
  3  1 19  6  9 23  4]"
29200,332.0,0.96875,6,2,104.39463353157043,3.093571662902832,29183,116800,1392400,6507799,"[ 0  1  3  1  3  2  4  1  1  1  2  3  5  3  2  0  0  2  1  4  1  0  3  0
  0  2  1  5  0  4  2  6  6  1 13 10  2  5  6  4  1  5  5  6  7  3 14 14
  3 16  0  4  2 15  2 10  1  4 12 11  2 20 16  5 23 15  3 14 18  4 21  3
  3  1 19  6  9 23  4]"
29300,332.0,0.96875,6,2,104.69507789611816,3.0044102668762207,29283,117200,1395736,6527885,"[ 0  1  3  1  3  2  4  1  1  1  2  3  5  3  2  0  0  2  1  4  1  0  3  0
  0  2  1  5  0  4  2  6  6  1 13 10  2  5  6  4  1  5  5  6  7  3 14 14
  3 16  0  4  2 15  2 10  1  4 12 11  2 20 16  5 23 15  3 14 18  4 21  3
  3  1 19  6  9 23  4]"
29400,332.0,0.96875,6,2,104.99217009544373,2.970888614654541,29383,117600,1399138,6548313,"[ 0  1  3  1  3  2  4  1  1  1  2  3  5  3  2  0  0  2  1  4  1  0  3  0
  0  2  1  5  0  4  2  6  6  1 13 10  2  5  6  4  1  5  5  6  7  3 14 14
  3 16  0  4  2 15  2 10  1  4 12 11  2 20 16  5 23 15  3 14 18  4 21  3
  3  1 19  6  9 23  4]"
29500,332.0,0.96875,6,2,105.29022455215454,2.980513572692871,29483,118000,1402576,6568847,"[ 0  1  3  1  3  2  4  1  1  1  2  3  5  3  2  0  0  2  1  4  1  0  3  0
  0  2  1  5  0  4  2  6  6  1 13 10  2  5  6  4  1  5  5  6  7  3 14 14
  3 16  0  4  2 15  2 10  1  4 12 11  2 20 16  5 23 15  3 14 18  4 21  3
  3  1 19  6  9 23  4]"
29600,332.0,0.96875,6,2,105.5914077758789,3.011791706085205,29583,118400,1406018,6589449,"[ 0  1  3  1  3  2  4  1  1  1  2  3  5  3  2  0  0  2  1  4  1  0  3  0
  0  2  1  5  0  4  2  6  6  1 13 10  2  5  6  4  1  5  5  6  7  3 14 14
  3 16  0  4  2 15  2 10  1  4 12 11  2 20 16  5 23 15  3 14 18  4 21  3
  3  1 19  6  9 23  4]"
29700,332.0,0.96875,6,2,105.92103910446167,3.2962799072265625,29683,118800,1409756,6611941,"[ 0  1  3  1  3  2  4  1  1  1  2  3  5  3  2  0  0  2  1  4  1  0  3  0
  0  2  1  5  0  4  2  6  6  1 13 10  2  5  6  4  1  5  5  6  7  3 14 14
  3 16  0  4  2 15  2 10  1  4 12 11  2 20 16  5 23 15  3 14 18  4 21  3
  3  1 19  6  9 23  4]"
29800,332.0,0.96875,6,2,106.25881719589233,3.3777403831481934,29783,119200,1413443,6634022,"[ 0  1  3  1  3  2  4  1  1  1  2  3  5  3  2  0  0  2  1  4  1  0  3  0
  0  2  1  5  0  4  2  6  6  1 13 10  2  5  6  4  1  5  5  6  7  3 14 14
  3 16  0  4  2 15  2 10  1  4 12 11  2 20 16  5 23 15  3 14 18  4 21  3
  3  1 19  6  9 23  4]"
29900,332.0,0.96875,6,2,106.60443019866943,3.456087112426758,29883,119600,1417031,6655786,"[ 0  1  3  1  3  2  4  1  1  1  2  3  5  3  2  0  0  2  1  4  1  0  3  0
  0  2  1  5  0  4  2  6  6  1 13 10  2  5  6  4  1  5  5  6  7  3 14 14
  3 16  0  4  2 15  2 10  1  4 12 11  2 20 16  5 23 15  3 14 18  4 21  3
  3  1 19  6  9 23  4]"
30000,332.0,0.96875,6,2,106.92440676689148,3.1997299194335938,29983,120000,1420448,6676257,"[ 0  1  3  1  3  2  4  1  1  1  2  3  5  3  2  0  0  2  1  4  1  0  3  0
  0  2  1  5  0  4  2  6  6  1 13 10  2  5  6  4  1  5  5  6  7  3 14 14
  3 16  0  4  2 15  2 10  1  4 12 11  2 20 16  5 23 15  3 14 18  4 21  3
  3  1 19  6  9 23  4]"
